0;75;1570457169306;1570457175290;5984;19418093732;42738617355;145806186;68552765;5551178079;128297827;131345447;181;51;9872;0;222;6303
0;76;1570457175321;1570457181012;5691;19457134132;42738646356;145791450;69277323;5551183604;128307209;131317275;0;0;0;0;0;0
0;77;1570457181043;1570457186714;5671;19394149294;42738645091;145214250;67744274;5551181918;128249875;130222471;0;0;0;0;0;0
0;78;1570457186745;1570457192434;5689;19465080620;42738505174;148212418;69007288;5551158013;128306104;130116757;0;0;0;0;0;0
0;79;1570457192467;1570457198139;5672;19413378662;42738512130;148649443;68359470;5551158325;128261967;130492664;0;0;0;0;0;0
0;80;1570457198170;1570457203813;5643;19459773520;42738564808;144583348;69022976;5551168398;128302749;131486393;0;0;0;0;0;0
0;81;1570457203844;1570457209424;5580;19430053030;42738470682;145544754;68331006;5551151526;128261084;131005660;174;42;7312;0;275;25866
0;82;1570457209455;1570457215145;5690;19469176358;42738559893;146745131;68518684;5551166559;128307205;131386662;0;0;0;0;0;0
0;83;1570457215178;1570457220771;5593;19474604492;42738493283;147463087;69228563;5551157452;128328807;131968816;0;0;0;0;0;0
0;84;1570457220803;1570457227007;6204;19429411068;42738692874;143551795;68373332;5551194545;128309307;129970296;0;0;0;0;0;0
0;85;1570457227039;1570457232624;5585;19450037802;42738581774;144407578;69100892;5551174700;128262142;130862186;0;0;0;0;0;0
0;86;1570457232654;1570457238240;5586;19456783294;42738510215;143666121;68460621;5551160226;128242015;130082495;176;49;8016;0;231;21458
0;87;1570457238273;1570457243863;5590;19465199756;42738440060;146294542;68848412;5551147380;128305301;131547124;0;0;0;0;0;0
0;88;1570457243894;1570457250285;6391;19457822814;42738454300;145876585;68625922;5551150667;128317495;131544762;0;0;0;0;0;0
0;89;1570457250316;1570457256809;6493;19469548658;42738438546;146096505;68195492;5551147291;128357448;131445480;0;0;0;0;0;0
0;90;1570457256840;1570457262837;5997;19484057992;42738473229;146332176;69052507;5551153009;128315207;131503766;0;0;0;0;0;0
0;91;1570457262870;1570457268665;5795;19454263626;42738404097;144969038;68388713;5551140228;128306704;133506517;42;21;6032;0;115;422
0;92;1570457268696;1570457274285;5589;19463295624;42738451501;148222882;68824729;5551150066;128256556;130967621;0;0;0;0;0;0
0;93;1570457274316;1570457279907;5591;19426553994;42738658655;145426958;68514689;5551189118;128285960;131655127;0;0;0;0;0;0
0;94;1570457279938;1570457285628;5690;19471139912;42738534200;147592838;68462951;5551164597;128302061;130824042;1;0;8;0;0;0
0;95;1570457285661;1570457291248;5587;19443452326;42738498212;146721583;69176025;5551160849;128225665;132490196;0;0;0;0;0;0
0;96;1570457291279;1570457296873;5594;19461334406;42738994499;146168033;68670542;5551243111;128231223;135627483;487;13;49216;0;1507;2030
0;97;1570457296904;1570457302594;5690;19465876174;42738294382;145751692;69090023;5551124116;128283193;133393029;0;0;0;0;0;0
0;98;1570457302625;1570457308218;5593;19477379368;42738283718;148466493;68238225;5551123573;128234965;133405328;0;0;0;0;0;0
0;99;1570457308251;1570457313845;5594;19478757170;42738280389;144825907;68911817;5551122865;128312088;131957811;1;0;8;0;0;0
0;100;1570457313876;1570457319456;5580;19436293508;42738263538;144517841;68424571;5551119824;128236624;130700218;0;0;0;0;0;0
0;101;1570457319488;1570457325078;5590;19467264926;42738272261;146555448;68754130;5551121818;128308745;131427301;0;0;0;0;0;0
0;102;1570457325111;1570457330690;5579;19435543360;42738289940;144484969;68711115;5551124845;128301258;130651362;123;20;7480;0;152;1775
0;103;1570457330723;1570457336298;5575;19417866118;42738281583;145221879;68314891;5551123740;128280876;131532557;0;0;0;0;0;0
0;104;1570457336329;1570457341914;5585;19445991996;42738489841;145646475;69197582;5551160408;128316161;132272439;0;0;0;0;0;0
0;105;1570457341946;1570457347521;5575;19421795854;42738284997;145682603;67920354;5551123643;128235988;133408420;1;0;8;0;0;0
0;106;1570457347552;1570457353243;5691;19458082110;42738284434;148098578;68951396;5551124488;128260770;134088370;0;0;0;0;0;0
0;107;1570457353275;1570457359050;5775;19409380890;42738333558;146403774;68252661;5551132305;128297588;130273994;39;24;6992;0;108;397
0;108;1570457359081;1570457365303;6222;19449849754;42738252224;148095934;68790148;5551116726;128295318;131820225;0;0;0;0;0;0
0;109;1570457365334;1570457371016;5682;19444783116;42738040744;146116285;68575588;5551083876;128240068;130868237;0;0;0;0;0;0
0;110;1570457371047;1570457376629;5582;19441628786;42738092062;144833611;68359616;5551092858;128304303;130351177;1;0;8;0;0;0
0;111;1570457376662;1570457382754;6092;19468188084;42737994532;144993681;69265097;5551075680;128259860;130142826;0;0;0;0;0;0
0;112;1570457382786;1570457388359;5573;19409752752;42737989100;145963127;67805486;5551076695;128256735;130792759;44;14;5840;0;100;499
0;113;1570457388393;1570457393973;5580;19432091628;42738023494;147698486;69033657;5551081908;128352557;130034064;5;0;64;0;9;12
0;114;1570457394006;1570457399585;5579;19416787470;42738465894;146396215;68303854;5551161264;128272734;130597431;0;0;0;0;0;0
0;115;1570457399617;1570457405211;5594;19484788576;42737952779;146950376;68972596;5551069398;128271994;129701890;0;0;0;0;0;0
0;116;1570457405243;1570457411026;5783;19443812070;42737895648;147941136;68237947;5551060378;128317600;132529544;0;0;0;0;0;0
0;117;1570457411058;1570457416744;5686;19453302508;42737983355;144508417;68297163;5551075027;128280109;130502267;0;0;0;0;0;0
0;118;1570457416775;1570457422363;5588;19467092208;42737899422;145466527;68870152;5551061175;128303518;130988653;28;18;5912;0;95;230
0;119;1570457422396;1570457427974;5578;19425409792;42737903300;144810487;68114000;5551061782;128257354;130764024;0;0;0;0;0;0
0;120;1570457428006;1570457434497;6491;19466127002;42737935519;145303443;68921410;5551068406;128362430;130454562;0;0;0;0;0;0
0;121;1570457434528;1570457440106;5578;19419474454;42737911355;146656604;68079163;5551062035;128250544;130819567;0;0;0;0;0;0
0;122;1570457440137;1570457445723;5586;19449404308;42737986057;146761076;68718162;5551075419;128233761;131137672;0;0;0;0;0;0
0;123;1570457445755;1570457451341;5586;19443038270;42737963306;143878150;68452535;5551074018;128258265;130091592;30;14;5840;0;102;184
0;124;1570457451372;1570457456956;5584;19449373502;42737957180;145320111;68325833;5551071048;128236412;130847503;0;0;0;0;0;0
1;78;1570458006329;1570458011895;5566;19385620704;42960254760;145583503;68734107;5534050173;125939171;130918775;0;0;0;0;0;0
1;79;1570458011928;1570458017699;5771;19377216068;42960306984;144650606;68700954;5534059486;125994136;130464527;171;33;7312;0;212;19999
1;80;1570458017730;1570458023302;5572;19402231270;42960199569;145366850;69251719;5534040470;125950883;131732249;0;0;0;0;0;0
1;81;1570458023333;1570458028895;5562;19370571462;42960214513;145854553;68333817;5534043146;125947814;132494019;0;0;0;0;0;0
1;82;1570458028926;1570458034525;5599;19423895626;42960240282;144747759;69585577;5534048456;126039939;131530768;0;0;0;0;0;0
1;83;1570458034557;1570458040136;5579;19413150902;42960283527;148128755;68062501;5534056801;125954308;131373243;0;0;0;0;0;0
1;84;1570458040167;1570458045736;5569;19387700620;42960458439;146556453;69160849;5534089488;126028801;132567441;40;20;6360;0;103;406
1;85;1570458045767;1570458051354;5587;19429414280;42960381855;145209625;68448811;5534078641;126033922;132584677;0;0;0;0;0;0
1;86;1570458051385;1570458056961;5576;19421021324;42960493938;147525604;68918812;5534091723;126048601;131873637;0;0;0;0;0;0
1;87;1570458056994;1570458062569;5575;19412024950;42960153267;145289237;68629720;5534033431;125986533;132642418;0;0;0;0;0;0
1;88;1570458062599;1570458068178;5579;19415719042;42960172246;146290408;69014724;5534036623;126041887;131404388;0;0;0;0;0;0
1;89;1570458068209;1570458073789;5580;19427549130;42960164818;145910734;68719256;5534035961;126031311;133328186;30;16;5760;2;29;235
1;90;1570458073820;1570458079395;5575;19414913998;42960169686;147561276;68431850;5534035402;125991460;133392784;10;0;88;-2;84;142
1;91;1570458079427;1570458085005;5578;19423540262;42960128073;146434488;69449128;5534027558;126004204;130726914;0;0;0;0;0;0
1;92;1570458085036;1570458090603;5567;19384119094;42960154345;146999383;68185806;5534032893;125952599;131400348;0;0;0;0;0;0
1;93;1570458090636;1570458096231;5595;19438048720;42960402433;147265873;69292177;5534080419;125980491;131537285;0;0;0;0;0;0
1;94;1570458096262;1570458101835;5573;19402287918;42960270398;147462460;68134250;5534054901;126023746;131714818;0;0;0;0;0;0
1;95;1570458101867;1570458107441;5574;19394382310;42960197994;146378895;69084220;5534042841;126010508;132672021;39;16;5712;0;96;352
1;96;1570458107472;1570458113052;5580;19405154044;42960421931;145844323;68559849;5534080759;125997706;131151398;0;0;0;0;0;0
1;97;1570458113084;1570458118667;5583;19435632128;42960024526;146327475;68983505;5534013608;125982837;131204520;0;0;0;0;0;0
1;98;1570458118698;1570458124277;5579;19427649286;42960026505;147085711;68761851;5534013854;125987752;131847723;1;0;8;0;0;0
1;99;1570458124310;1570458129882;5572;19404575300;42960019151;147043694;68772985;5534012290;126022774;132277413;0;0;0;0;0;0
1;100;1570458129912;1570458135497;5585;19444432278;42959999399;148450807;69339065;5534008719;126098640;132897589;36;14;5776;0;106;384
1;101;1570458135528;1570458141128;5600;19446952384;42960009869;149326252;69893695;5534012363;126071854;131160580;955;86;254328;0;2900;5934
1;102;1570458141159;1570458146745;5586;19429295290;42960109464;146939453;69495699;5534030445;126011215;133280090;0;0;0;0;0;0
1;103;1570458146778;1570458152343;5565;19380043650;42960209433;144034874;68151099;5534046067;125960753;132624682;1;0;8;0;0;0
1;104;1570458152373;1570458157946;5573;19404983516;42960229403;145688341;69102619;5534051243;125976612;133247573;0;0;0;0;0;0
1;105;1570458157976;1570458163553;5577;19402834980;42960043092;145525528;68385742;5534018001;125978435;133233342;0;0;0;0;0;0
1;106;1570458163584;1570458169161;5577;19405146890;42960020115;144961006;69111005;5534014894;125971274;131947550;232;9;2176;0;261;25435
1;107;1570458169193;1570458174756;5563;19360000916;42959938515;144809649;68531889;5534003903;125989567;131397075;76;40;9808;0;201;1267
1;108;1570458174788;1570458180368;5580;19424094624;42959763506;145793181;68650992;5533971719;126015361;132825441;0;0;0;0;0;0
1;109;1570458180399;1570458185974;5575;19412977600;42959721066;148460216;68665953;5533963712;126036914;134804188;0;0;0;0;0;0
1;110;1570458186005;1570458191572;5567;19389885072;42959723778;146504038;68473407;5533964287;126034769;132250228;0;0;0;0;0;0
1;111;1570458191605;1570458197182;5577;19425295182;42959741305;148778882;69399626;5533968326;125992409;132151507;0;0;0;0;0;0
1;112;1570458197213;1570458202791;5578;19418100448;42959817740;146566988;68225205;5533982583;126035257;131899948;186;47;9360;0;222;6712
1;113;1570458202822;1570458208411;5589;19442864530;42959763455;145804850;69039432;5533971560;126063576;132469748;0;0;0;0;0;0
1;114;1570458208442;1570458214007;5565;19376347660;42960033845;144226208;68397059;5534020709;125954650;131709492;0;0;0;0;0;0
1;115;1570458214040;1570458219616;5576;19417527836;42959788805;146501619;68936163;5533975578;125999228;133276822;0;0;0;0;0;0
1;116;1570458219646;1570458225222;5576;19406409498;42959707230;146889053;68520273;5533963165;125982971;134320137;0;0;0;0;0;0
1;117;1570458225253;1570458230835;5582;19423126936;42959623995;145149731;68747646;5533947818;126012706;132354394;208;35;9360;0;294;9496
1;118;1570458230866;1570458236447;5581;19434187750;42959628914;147507568;68707899;5533949827;125984687;133510389;0;0;0;0;0;0
1;119;1570458236483;1570458242062;5579;19411707838;42959748614;145204834;68229004;5533971119;125986533;131141427;0;0;0;0;0;0
1;120;1570458242093;1570458247775;5682;19433577178;42959758746;147711522;69151485;5533973260;125995120;134427435;0;0;0;0;0;0
1;121;1570458247809;1570458253381;5572;19400293266;42959775551;146056555;68094244;5533974144;125998479;132234133;0;0;0;0;0;0
1;122;1570458253413;1570458258996;5583;19441016170;42959627724;146700301;69137499;5533949735;126033153;133920934;0;0;0;0;0;0
1;123;1570458259028;1570458264593;5565;19376769162;42959640451;146664365;68215546;5533951119;125965038;130806035;191;37;9488;0;207;6580
1;124;1570458264624;1570458270206;5582;19437742558;42959651851;148235804;68911248;5533953418;126019882;131479842;0;0;0;0;0;0
1;125;1570458270237;1570458275813;5576;19422042448;42959662481;146009559;68495800;5533957345;125968908;132212676;0;0;0;0;0;0
1;126;1570458275844;1570458281426;5582;19431420320;42959805307;148748912;68928928;5533981516;125988617;132209928;0;0;0;0;0;0
1;127;1570458281460;1570458287049;5589;19446471460;42960425776;146308771;68629804;5534121898;126014564;135222326;0;0;0;0;0;0
2;78;1570458841369;1570458847238;5869;19323883582;42614123718;147414636;69069855;5556136409;128678069;130890497;177;53;9584;0;289;8447
2;79;1570458847270;1570458852868;5598;19286956094;42614199635;149349248;67982887;5556150001;128679433;131400280;0;0;0;0;0;0
2;80;1570458852899;1570458858453;5554;19328121524;42614076851;145221135;68830961;5556126588;128688360;130688675;0;0;0;0;0;0
2;81;1570458858484;1570458864027;5543;19300945522;42614082541;145089672;68340436;5556127865;128665606;131000486;0;0;0;0;0;0
2;82;1570458864058;1570458869603;5545;19311681924;42614174456;145124141;68810664;5556142886;128649172;131940784;0;0;0;0;0;0
2;83;1570458869638;1570458875181;5543;19299804970;42614104422;144598036;68243323;5556132855;128700004;130176544;0;0;0;0;0;0
2;84;1570458875212;1570458880758;5546;19291878046;42614351510;146065238;68439436;5556177354;128709681;130528482;168;43;7376;0;209;17897
2;85;1570458880789;1570458886335;5546;19294367638;42614381733;145016330;69199874;5556185612;128704613;131513666;0;0;0;0;0;0
2;86;1570458886367;1570458891899;5532;19264471948;42614377109;147012201;68042857;5556178059;128616247;131162420;0;0;0;0;0;0
2;87;1570458891931;1570458897485;5554;19335788276;42614054539;147860115;69228111;5556123126;128688734;130996571;1;0;8;0;0;0
2;88;1570458897516;1570458903257;5741;19288714810;42614065633;145755797;67960431;5556125443;128663364;130414774;0;0;0;0;0;0
2;89;1570458903289;1570458908834;5545;19308186684;42614054506;146612420;69000175;5556122320;128709158;130935691;37;22;6440;0;106;341
2;90;1570458908865;1570458914401;5536;19279592876;42614058508;146017294;68151517;5556123079;128655798;130863467;0;0;0;0;0;0
2;91;1570458914434;1570458919978;5544;19309220948;42614032566;145913046;68983827;5556117874;128646813;130168648;0;0;0;0;0;0
2;92;1570458920010;1570458925551;5541;19293610774;42614056906;146039883;68291117;5556122764;128676251;132460383;0;0;0;0;0;0
2;93;1570458925584;1570458931250;5666;19333828956;42614287911;145971573;68519111;5556164657;128798392;131800673;0;0;0;0;0;0
2;94;1570458931281;1570458936825;5544;19311151798;42614146183;147642840;68880824;5556139735;128677472;130632926;0;0;0;0;0;0
2;95;1570458936858;1570458942507;5649;19309040346;42614119415;145039944;68338720;5556138074;128717099;130207935;34;20;6104;0;101;218
2;96;1570458942538;1570458948095;5557;19334111320;42614317129;146130911;69280268;5556169486;128695821;129863328;0;0;0;0;0;0
2;97;1570458948126;1570458953659;5533;19262525768;42613917250;144522857;67836274;5556102162;128602128;131537144;0;0;0;0;0;0
2;98;1570458953690;1570458959233;5543;19295958162;42613915303;145163658;68852600;5556101983;128688972;129994290;0;0;0;0;0;0
2;99;1570458959266;1570458964815;5549;19318549764;42613911624;147404860;68250397;5556101208;128677289;131618548;0;0;0;0;0;0
2;100;1570458964846;1570458970400;5554;19332963906;42613902724;145993577;69334277;5556099065;128698344;130797678;493;26;61384;0;1502;2029
2;101;1570458970431;1570458975970;5539;19285213146;42613912516;147897988;68237257;5556101332;128681670;131730249;0;0;0;0;0;0
2;102;1570458976004;1570458981553;5549;19311741054;42613994308;146022691;68731795;5556117135;128714325;132199930;0;0;0;0;0;0
2;103;1570458981585;1570458987128;5543;19300984066;42614108095;144478336;68540020;5556135208;128666895;131448630;0;0;0;0;0;0
2;104;1570458987159;1570458992711;5552;19332595110;42614129660;147436987;68342509;5556141186;128736861;131407744;0;0;0;0;0;0
2;105;1570458992742;1570458998292;5550;19326463986;42613922399;146569511;69138103;5556103498;128688456;130788147;0;0;0;0;0;0
2;106;1570458998324;1570459003879;5555;19324097180;42613917581;145299350;68014617;5556103862;128712898;130385236;101;29;7816;0;147;1628
2;107;1570459003911;1570459009454;5543;19291897756;42613835417;145112341;69107131;5556093018;128674143;131160803;0;0;0;0;0;0
2;108;1570459009485;1570459015232;5747;19313197550;42613657093;147317102;68009924;5556060170;128706137;132883662;0;0;0;0;0;0
2;109;1570459015263;1570459020818;5555;19342832484;42613623607;147865223;68901061;5556053452;128714499;131678679;1;0;8;0;0;0
2;110;1570459020849;1570459026592;5743;19301199708;42613626978;146851815;68340299;5556054341;128669821;130779661;0;0;0;0;0;0
2;111;1570459026624;1570459032180;5556;19341316566;42613645625;146022262;68943837;5556058397;128672097;131386802;61;18;7056;0;125;747
2;112;1570459032212;1570459037754;5542;19296760286;42613616423;146033899;68233320;5556054231;128698447;132147848;0;0;0;0;0;0
2;113;1570459037791;1570459043341;5550;19313476702;42613664109;144503071;68383579;5556061920;128705187;131991801;0;0;0;0;0;0
2;114;1570459043373;1570459048922;5549;19316352610;42613928891;146638177;68845536;5556109529;128660225;130106829;1;0;8;0;0;0
2;115;1570459048955;1570459054506;5551;19327351666;42613587921;144603153;68015209;5556048036;128668801;132279972;0;0;0;0;0;0
2;116;1570459054537;1570459060388;5851;19320862404;42613534585;144973211;68921124;5556040010;128695330;132142172;32;12;5776;0;89;308
2;117;1570459060419;1570459066061;5642;19283789792;42613687288;146692565;67937824;5556066125;128637005;129864658;5;0;64;0;9;12
2;118;1570459066092;1570459072037;5945;19303972102;42613624516;145589910;68713931;5556055784;128694021;131017423;0;0;0;0;0;0
2;119;1570459072070;1570459077613;5543;19301527478;42613652577;148142323;68370416;5556061284;128721983;133797004;0;0;0;0;0;0
2;120;1570459077646;1570459083188;5542;19296778098;42613564509;146643751;68596317;5556045997;128700509;130554397;0;0;0;0;0;0
2;121;1570459083219;1570459088872;5653;19323474490;42613662920;146335355;68907833;5556061472;128671572;132884558;0;0;0;0;0;0
2;122;1570459088904;1570459094444;5540;19292343202;42613530072;148370936;68065096;5556039643;128683421;132539222;33;16;6072;0;95;261
2;123;1570459094477;1570459100018;5541;19300101788;42613538025;146812602;69216786;5556040726;128694089;130787344;0;0;0;0;0;0
2;124;1570459100050;1570459105787;5737;19282733920;42613650480;146048180;67839455;5556059818;128688237;132166608;0;0;0;0;0;0
2;125;1570459105818;1570459111356;5538;19286028848;42613570352;145737052;68989319;5556048212;128700749;130562701;0;0;0;0;0;0
2;126;1570459111387;1570459116931;5544;19290769760;42613717099;144933156;68085475;5556073453;128643367;130199832;0;0;0;0;0;0
2;127;1570459116964;1570459122520;5556;19323958042;42614229054;145717183;68956690;5556194711;128672806;131309690;34;14;5776;0;103;366
3;79;1570459675875;1570459681486;5611;19349103914;42624902163;143256612;69052381;5563189818;128233488;132123279;159;49;8080;0;257;25515
3;80;1570459681517;1570459687072;5555;19334828764;42624668504;143030323;68384198;5563148197;128212840;132660535;0;0;0;0;0;0
3;81;1570459687103;1570459692660;5557;19342046128;42624705855;143404108;68976419;5563155019;128256558;130785543;0;0;0;0;0;0
3;82;1570459692691;1570459698244;5553;19338606660;42624661273;141864762;68556711;5563146818;128236063;131890074;0;0;0;0;0;0
3;83;1570459698276;1570459703826;5550;19316992966;42624688452;142689785;68609239;5563152956;128222297;131781407;0;0;0;0;0;0
3;84;1570459703857;1570459709409;5552;19332524592;42624856258;142401684;69340358;5563183917;128187538;132647981;0;0;0;0;0;0
3;85;1570459709440;1570459714981;5541;19284435258;42624968282;144764217;68248431;5563208582;128191694;131844610;178;35;6416;0;233;22494
3;86;1570459715012;1570459720563;5551;19338856466;42624824781;142181421;69528567;5563175834;128241549;131908454;0;0;0;0;0;0
3;87;1570459720596;1570459726151;5555;19341980720;42624654379;144870732;67946288;5563146255;128227383;132564172;1;0;8;0;0;0
3;88;1570459726182;1570459731740;5558;19341281088;42624660737;144983303;69155675;5563146969;128213928;131278249;0;0;0;0;0;0
3;89;1570459731771;1570459737324;5553;19341228236;42624646169;143705669;68400065;5563144500;128167425;133315098;0;0;0;0;0;0
3;90;1570459737355;1570459742909;5554;19347648294;42624648489;143512980;69027075;5563144997;128249374;131708003;42;24;6856;0;124;425
3;91;1570459742942;1570459748493;5551;19301130212;42624676196;142216137;68557242;5563150164;128201412;132127349;0;0;0;0;0;0
3;92;1570459748524;1570459754075;5551;19331508432;42624630773;142725868;68540405;5563142410;128258401;133805428;0;0;0;0;0;0
3;93;1570459754106;1570459759669;5563;19329114178;42624884300;144937345;69298831;5563190187;128233722;131762405;0;0;0;0;0;0
3;94;1570459759700;1570459765253;5553;19329300474;42624732263;140541311;68248341;5563160854;128230830;131682106;0;0;0;0;0;0
3;95;1570459765286;1570459770845;5559;19344170574;42624682707;143476801;69471658;5563153584;128217483;131541058;24;18;5840;0;91;242
3;96;1570459770876;1570459776424;5548;19305729358;42624946353;145357617;67977101;5563196789;128218909;131637834;6;0;72;0;1;6
3;97;1570459776455;1570459782016;5561;19354689728;42624493217;145901800;68982717;5563121478;128232963;133669193;0;0;0;0;0;0
3;98;1570459782047;1570459787594;5547;19316242380;42624521111;144508467;68403184;5563126655;128217640;132377055;0;0;0;0;0;0
3;99;1570459787627;1570459793172;5545;19307149792;42624485915;142863224;68973730;5563120363;128251319;130620134;0;0;0;0;0;0
3;100;1570459793203;1570459798753;5550;19325514694;42624473340;142210826;68663489;5563118144;128232327;132658784;108;22;12024;1;405;640
3;101;1570459798784;1570459804336;5552;19331934460;42624482200;144861248;69103607;5563120138;128223825;132380261;381;1;37424;-1;1115;1328
3;102;1570459804383;1570459809933;5550;19333036906;42624484738;142151931;68635499;5563120078;128153385;132794138;0;0;0;0;0;0
3;103;1570459809965;1570459815510;5545;19309587408;42624492263;141955001;68446741;5563122078;128159324;132629851;0;0;0;0;0;0
3;104;1570459815541;1570459821103;5562;19354858650;42624711682;144170280;69188050;5563160916;128276866;131635773;0;0;0;0;0;0
3;105;1570459821134;1570459826683;5549;19316595262;42624508906;143074239;68155803;5563123933;128212504;133336185;0;0;0;0;0;0
3;106;1570459826714;1570459832274;5560;19341950644;42624525919;144376337;69421975;5563129881;128258576;132329158;32;22;6672;0;115;275
3;107;1570459832307;1570459837851;5544;19297480942;42624685360;143766784;67911534;5563157106;128233875;132881391;87;1;920;0;60;1832
3;108;1570459837884;1570459843437;5553;19337461728;42624318232;146408725;69035735;5563094169;128229488;132502811;0;0;0;0;0;0
3;109;1570459843468;1570459849009;5541;19296997536;42624186959;143941254;68413980;5563070134;128191176;131692305;0;0;0;0;0;0
3;110;1570459849041;1570459854591;5550;19327093246;42624193384;146080526;68748401;5563072052;128249073;132035218;0;0;0;0;0;0
3;111;1570459854624;1570459860182;5558;19356364348;42624205743;143552126;68540123;5563074889;128252477;131727562;0;0;0;0;0;0
3;112;1570459860215;1570459865768;5553;19339860946;42624170159;145481334;68219289;5563069338;128235421;131170292;42;32;7192;0;118;461
3;113;1570459865800;1570459871363;5563;19351411298;42624227052;144549791;69065403;5563079257;128263239;130633582;0;0;0;0;0;0
3;114;1570459871395;1570459876947;5552;19330995388;42624508980;143678957;68249991;5563130157;128230774;132181521;0;0;0;0;0;0
3;115;1570459876980;1570459882535;5555;19350201250;42624257766;147301228;69222232;5563083448;128233191;132755672;0;0;0;0;0;0
3;116;1570459882566;1570459888106;5540;19295316930;42624188455;144495329;67669389;5563072305;128234468;133174364;0;0;0;0;0;0
3;117;1570459888137;1570459893693;5556;19313002932;42624176771;143453391;69023971;5563072139;128184491;131823713;26;20;5968;0;101;244
3;118;1570459893724;1570459899264;5540;19294344132;42624084423;144838444;68205881;5563053794;128225125;132066451;5;0;64;0;10;13
3;119;1570459899296;1570459904842;5546;19317927366;42624091562;142497169;68896379;5563056244;128207113;131984692;0;0;0;0;0;0
3;120;1570459904874;1570459910421;5547;19304024662;42624138434;143402447;68126488;5563065600;128245307;131585219;1;0;8;0;0;0
3;121;1570459910453;1570459915994;5541;19294968282;42624209791;144860392;68510015;5563076610;128229197;130697934;0;0;0;0;0;0
3;122;1570459916025;1570459921577;5552;19330481906;42624093306;143582897;68915057;5563056092;128237969;131863189;8;20;3136;22;54;208
3;123;1570459921609;1570459927158;5549;19315380250;42624104318;143103904;68349556;5563058569;128211967;132072679;31;0;3344;-22;72;143
3;124;1570459927189;1570459932743;5554;19339739474;42624092709;142920705;69377918;5563056580;128214845;131262802;0;0;0;0;0;0
3;125;1570459932775;1570459938318;5543;19301752172;42624273064;143922415;67909313;5563090944;128180420;132147898;0;0;0;0;0;0
3;126;1570459938349;1570459943909;5560;19362633734;42624259089;146097864;69128417;5563085944;128254273;132068839;1;0;8;0;0;0
3;127;1570459943942;1570459949482;5540;19291749858;42624848850;144032461;68288583;5563220060;128191622;130448292;0;0;0;0;0;0
3;128;1570459949514;1570459955064;5550;19327581762;42624313412;144754416;68973594;5563096304;128279554;132002645;38;16;6224;0;102;426
4;77;1570460507588;1570460513488;5900;19215464128;42680751527;146875283;67900658;5533299990;124198516;132234361;176;48;7792;0;275;24806
4;78;1570460513519;1570460519039;5520;19222655504;42680689985;144612182;69040016;5533289821;124155566;131268687;0;0;0;0;0;0
4;79;1570460519072;1570460524585;5513;19183290546;42680659931;144736973;67414356;5533284185;124150401;132664879;0;0;0;0;0;0
4;80;1570460524616;1570460530190;5574;19224759072;42680717919;146451551;68789814;5533294928;124192503;133551434;0;0;0;0;0;0
4;81;1570460530220;1570460535738;5518;19211405182;42680617741;146625695;67869915;5533277968;124138526;133890288;0;0;0;0;0;0
4;82;1570460535769;1570460541411;5642;19232755054;42680707755;147615622;68311127;5533293315;124205141;133494146;168;43;6768;0;289;18484
4;83;1570460541443;1570460546965;5522;19219791568;42680638125;144479842;68093708;5533282690;124177076;133620486;0;0;0;0;0;0
4;84;1570460546999;1570460552507;5508;19172287840;42680789778;144577245;68216754;5533310957;124141485;131195074;0;0;0;0;0;0
4;85;1570460552538;1570460558051;5513;19185067950;42680910060;144647684;68083389;5533336042;124146697;131895534;1;0;8;0;0;0
4;86;1570460558082;1570460563597;5515;19195152462;42680756409;145079797;67770241;5533301655;124133515;133291924;0;0;0;0;0;0
4;87;1570460563631;1570460569158;5527;19249557172;42680596578;145738639;68796341;5533274527;124200263;132448249;0;0;0;0;0;0
4;88;1570460569189;1570460574708;5519;19212483100;42680610311;145973054;67829579;5533276766;124145203;133336238;45;22;6992;0;112;463
4;89;1570460574739;1570460580268;5529;19253019854;42680596598;145094906;68996310;5533274791;124161021;133291669;0;0;0;0;0;0
4;90;1570460580301;1570460585911;5610;19190201310;42680624353;144961972;67542957;5533279547;124129472;134555572;0;0;0;0;0;0
4;91;1570460585943;1570460591473;5530;19233627550;42680561835;144358401;68738796;5533267534;124172044;131919671;0;0;0;0;0;0
4;92;1570460591504;1570460597018;5514;19204010282;42680595695;144678355;67911474;5533274519;124140089;132259295;0;0;0;0;0;0
4;93;1570460597050;1570460602580;5530;19211956624;42680846469;144235109;68445908;5533321768;124236656;132791535;30;16;6040;0;98;262
4;94;1570460602613;1570460608129;5516;19207776644;42680691314;144757672;68119164;5533291635;124127289;132798876;0;0;0;0;0;0
4;95;1570460608162;1570460613869;5707;19169135408;42680632272;143312979;68402725;5533282734;124164870;131743604;0;0;0;0;0;0
4;96;1570460613900;1570460619417;5517;19200765432;42680894415;146723936;68148414;5533325787;124164271;131166925;0;0;0;0;0;0
4;97;1570460619448;1570460624959;5511;19189124414;42680455643;145947976;67860479;5533253060;124165277;132249711;0;0;0;0;0;0
4;98;1570460624990;1570460630524;5534;19220982928;42680459780;147619982;69170479;5533254168;124230481;131082565;477;17;49312;0;1481;1979
4;99;1570460630556;1570460636065;5509;19180949436;42680453131;146334797;67588408;5533252406;124128528;132347182;6;0;72;0;1;6
4;100;1570460636096;1570460641612;5516;19205934416;42680442263;147871898;68822444;5533250580;124152298;132837706;0;0;0;0;0;0
4;101;1570460641643;1570460647155;5512;19188550488;42680450499;145638040;67352233;5533252132;124189206;132369346;0;0;0;0;0;0
4;102;1570460647190;1570460652708;5518;19206377088;42680463957;145218022;68548854;5533254245;124146591;131583361;0;0;0;0;0;0
4;103;1570460652741;1570460658348;5607;19178325232;42680458714;144310863;68015278;5533253284;124180624;133628841;22;22;6800;0;101;178
4;104;1570460658379;1570460663891;5512;19191549474;42680676721;146846633;68552534;5533292858;124174337;132970187;84;1;904;0;57;1604
4;105;1570460663923;1570460669438;5515;19205220184;42680474846;145064975;68201028;5533256437;124211555;132821467;0;0;0;0;0;0
4;106;1570460669469;1570460674989;5520;19194794616;42680699511;145869698;68294643;5533297813;124192358;132678354;0;0;0;0;0;0
4;107;1570460675021;1570460680534;5513;19189548252;42680452498;143964718;68623869;5533257354;124169250;131771678;1;0;8;0;0;0
4;108;1570460680565;1570460686073;5508;19178165362;42680188328;143681779;67980023;5533209679;124160497;133059003;0;0;0;0;0;0
4;109;1570460686104;1570460691626;5522;19225439140;42680155478;145159846;69023512;5533203140;124189014;132144051;36;24;6992;0;111;429
4;110;1570460691657;1570460697166;5509;19185540114;42680156659;145288970;67588251;5533203814;124132024;132779906;5;0;64;0;9;12
4;111;1570460697199;1570460702719;5520;19215647358;42680167705;146253445;68681577;5533206326;124164175;131749803;0;0;0;0;0;0
4;112;1570460702751;1570460708267;5516;19198866556;42680161395;148722494;67675093;5533206451;124117540;133357427;0;0;0;0;0;0
4;113;1570460708298;1570460713819;5521;19213316614;42680189657;147116022;68466086;5533210371;124168116;133081629;1;0;8;0;0;0
4;114;1570460713850;1570460719366;5516;19195339342;42680460939;147530652;67892122;5533258693;124139092;132286581;22;16;5648;0;88;213
4;115;1570460719398;1570460724922;5524;19232788196;42680121968;147762163;68404547;5533198365;124165314;132408388;5;0;64;0;9;12
4;116;1570460724953;1570460730467;5514;19194091188;42680155586;145971482;68029456;5533204866;124142198;131732760;0;0;0;0;0;0
4;117;1570460730498;1570460736026;5528;19213610658;42680128172;144495509;68000286;5533200875;124179608;133497468;0;0;0;0;0;0
4;118;1570460736057;1570460741582;5525;19234470846;42680058376;144950292;68684673;5533188675;124123400;133174445;0;0;0;0;0;0
4;119;1570460741616;1570460747141;5525;19235767326;42680083342;144676156;67878958;5533193499;124168968;133201497;0;0;0;0;0;0
4;120;1570460747173;1570460752709;5536;19264633570;42680092816;147121110;68586140;5533195591;124164968;132091507;44;14;5776;0;97;473
4;121;1570460752741;1570460758258;5517;19209993508;42680094035;148210552;67474585;5533194007;124178537;132812065;6;0;72;0;1;6
4;122;1570460758290;1570460763808;5518;19211698934;42680146609;148403201;68617233;5533203522;124148084;132197401;0;0;0;0;0;0
4;123;1570460763840;1570460769364;5524;19231981254;42680064757;146515726;67747449;5533189610;124127207;131577106;0;0;0;0;0;0
4;124;1570460769395;1570460774920;5525;19236190872;42680057529;146029223;68518412;5533188691;124169629;131339242;0;0;0;0;0;0
4;125;1570460774951;1570460780469;5518;19208482408;42680152598;146506019;67919499;5533208182;124174796;131830047;54;12;5776;0;116;633
4;126;1570460780501;1570460786026;5525;19231220156;42680124276;146316525;68345392;5533199984;124222289;132661123;0;0;0;0;0;0
