0;79;1570478096187;1570478101755;5568;19166865254;42763599756;144802524;69204453;5517659726;123416220;127938079;412;23;754696;-10;1965;5077
0;80;1570478101786;1570478107285;5499;19142252866;42763466123;143863921;69280615;5517635484;123367826;126804042;396;23;726856;0;1572;3071
0;81;1570478107316;1570478112830;5514;19147087510;42763519388;145734265;69107440;5517645578;123388936;128527672;404;21;729208;-1;1572;3098
0;82;1570478112861;1570478118368;5507;19170688264;42763560135;144064834;69263972;5517652143;123348765;127085995;403;21;731232;1;1452;2957
0;83;1570478118400;1570478123907;5507;19160791216;42763495012;145096396;69108680;5517642107;123357525;127211706;399;24;728904;-1;1515;3017
0;84;1570478123939;1570478129456;5517;19166168834;42763654709;145984434;69137517;5517672010;123440788;129710204;522;59;744104;0;2066;12329
0;85;1570478129488;1570478135113;5625;19200171650;42763773572;146611091;69243051;5517697952;123448165;133289145;412;22;744728;0;1804;3393
0;86;1570478135144;1570478140658;5514;19185585666;42763634653;146785769;68980143;5517665551;123409621;130736810;406;21;727160;0;1561;3091
0;87;1570478140689;1570478146192;5503;19127804268;42763450103;144576716;69170018;5517633782;123373449;127229615;399;26;727136;3;1447;2896
0;88;1570478146222;1570478151727;5505;19146710976;42763469595;144156990;69057745;5517637568;123331864;127920250;402;27;733000;-3;1561;3193
0;89;1570478151758;1570478157262;5504;19147202120;42763446247;144625968;69327458;5517632787;123379248;128173655;405;27;727216;0;1535;3084
0;90;1570478157292;1570478162801;5509;19167121046;42763473570;144750625;68908907;5517637697;123357097;128400015;534;58;738480;3;2090;9922
0;91;1570478162833;1570478168346;5513;19146530812;42763416168;145499932;69489880;5517626101;123440616;127317030;406;25;733000;-3;1599;3129
0;92;1570478168378;1570478173887;5509;19147844666;42763444604;144151127;68911703;5517632715;123388159;127633228;410;25;731248;1;1566;3150
0;93;1570478173918;1570478179436;5518;19157584034;42763700516;143964940;69652709;5517680230;123389570;126956521;409;22;728904;-1;1520;3112
0;94;1570478179466;1570478184967;5501;19146726744;42763549957;146620914;68769983;5517651866;123363705;127794550;408;23;719504;1;1494;3136
0;95;1570478185000;1570478190528;5528;19156205940;42763499085;149203680;69324800;5517645293;123411165;128925165;507;75;739760;2;2065;9419
0;96;1570478190558;1570478196071;5513;19158323670;42763755963;148417509;68881751;5517686569;123363949;127973869;414;22;733000;-3;1670;3203
0;97;1570478196102;1570478201607;5505;19143811708;42763307377;147239959;69440565;5517611709;123355397;126364448;412;28;727152;0;1561;3144
0;98;1570478201637;1570478207132;5495;19121567002;42763331294;144624406;68740559;5517615950;123343281;127421915;408;22;715408;0;1596;3450
0;99;1570478207165;1570478212674;5509;19162569350;42763298564;145424694;69709380;5517610099;123363107;127392235;698;63;753520;8;3635;38252
0;100;1570478212707;1570478218232;5525;19127215596;42763295311;145206990;69202980;5517609849;123423784;127478713;675;31;763440;-7;3845;25177
0;101;1570478218264;1570478223789;5525;19158044372;42763301558;146339595;69385990;5517611566;123450531;128166226;419;22;733720;0;1532;3117
0;102;1570478223820;1570478229327;5507;19144531780;42763424027;145495047;68809700;5517634293;123357676;128225829;421;21;728904;-1;1575;3641
0;103;1570478229359;1570478234882;5523;19151582412;42763543929;145346828;69495802;5517653492;123479131;126537237;427;23;733016;0;1457;3150
0;104;1570478234914;1570478240529;5615;19162669214;42763499275;148001770;68931696;5517646774;123381169;127378705;530;60;757224;0;1918;8924
0;105;1570478240560;1570478246062;5502;19143146532;42763310290;144703290;69296489;5517613064;123417832;127343820;420;29;727136;3;1761;3369
0;106;1570478246093;1570478251603;5510;19145276526;42763338329;146783462;68824856;5517620384;123357989;127296932;509;22;733888;-3;1917;6748
0;107;1570478251636;1570478257141;5505;19158230960;42763635364;144408663;69537450;5517669165;123348808;128202529;422;27;727136;0;1503;3070
0;108;1570478257172;1570478262790;5618;19180968416;42763148010;146777799;68771322;5517583520;123390917;129450382;434;30;744744;4;1576;3349
0;109;1570478262821;1570478268349;5528;19173260638;42763119980;146045175;69594308;5517578907;123434675;128586774;426;30;733000;-4;1486;3120
0;110;1570478268381;1570478273908;5527;19164408366;42763091117;145979118;68895020;5517574056;123430692;127478548;543;70;745560;4;2068;10682
0;111;1570478273940;1570478279554;5614;19164575828;42763105416;147162423;69296916;5517577142;123426642;127495287;438;36;744816;-4;1678;3497
0;112;1570478279586;1570478285093;5507;19163205326;42763188090;146575235;68754312;5517592231;123338943;129309249;424;28;727136;0;1576;3244
0;113;1570478285124;1570478290743;5619;19165626152;42763144773;145935963;69221539;5517584604;123367368;129612899;436;34;744728;0;1585;3359
0;114;1570478290774;1570478296387;5613;19162031924;42763400748;145866483;68669554;5517630267;123332993;130956253;445;30;744744;0;1538;3395
0;115;1570478296419;1570478301918;5499;19144052608;42763037730;143786161;69154379;5517564605;123363848;127397994;522;82;737968;0;1931;8610
0;116;1570478301950;1570478307466;5516;19128978984;42763007514;144849622;68748805;5517560568;123351515;127193956;430;36;733000;0;1752;3424
0;117;1570478307497;1570478313026;5529;19160859252;42763026472;147439472;69293375;5517568110;123382764;128509427;433;40;731320;1;1587;3295
0;118;1570478313058;1570478318558;5500;19149595790;42762897009;144032476;68939426;5517544922;123397619;127390636;435;33;728904;-1;1521;3280
0;119;1570478318591;1570478324111;5520;19193613914;42762906837;146429318;69019045;5517547051;123445462;130412249;420;35;715408;0;1476;3126
0;120;1570478324141;1570478329688;5547;19232968944;42762928311;149409448;68961757;5517551799;123471558;134027313;437;34;738880;0;1579;3545
0;121;1570478329720;1570478335225;5505;19160631492;42763013756;146037995;69063971;5517564949;123383140;131229443;521;81;737776;0;1996;8675
0;122;1570478335257;1570478340763;5506;19171922548;42762902544;146606110;68976845;5517546048;123318957;130260218;444;32;731280;1;1617;3457
0;123;1570478340796;1570478346307;5511;19169104164;42762969850;144505174;69004247;5517560308;123362186;129948370;438;31;728944;-1;1566;3289
0;124;1570478346339;1570478351853;5514;19187925608;42762962312;147664250;69013396;5517557036;123400564;130339836;431;35;727136;3;1460;3151
0;125;1570478351884;1570478357397;5513;19177605890;42762932201;145567133;69116833;5517551284;123355255;130446640;443;32;733016;-3;1479;3206
0;126;1570478357429;1570478362954;5525;19204245634;42763037563;149312390;68894817;5517570984;123379661;129339715;525;79;727952;4;1889;8891
0;127;1570478362988;1570478368507;5519;19182564780;42763595777;144401364;69078106;5517699910;123385286;130389486;441;38;731416;-4;1711;3438
0;128;1570478368539;1570478374054;5515;19175002418;42763214269;146710545;69201791;5517600906;123409248;132635440;441;37;730592;1;1580;3441
1;74;1570478909678;1570478915331;5653;19331837954;42714562185;149233607;68961946;5551146366;125214281;132653358;412;24;752464;-1;1569;3041
1;75;1570478915364;1570478921277;5913;19358473464;42714730753;152892977;69947643;5551180558;125247639;130516389;424;29;791640;0;1619;3172
1;76;1570478921308;1570478926996;5688;19373063828;42714602222;151527836;69307054;5551156881;125249545;132936422;404;34;756456;0;1535;2891
1;77;1570478927028;1570478933224;6196;19396124236;42714490924;154182148;69577661;5551135493;125298804;136813328;539;70;838488;0;2221;8783
1;78;1570478933254;1570478939338;6084;19353132784;42714409880;152092070;69602751;5551122083;125319184;131248183;433;40;813328;1;1773;3291
1;79;1570478939371;1570478945761;6390;19354254502;42714433646;149573423;69411038;5551126699;125293773;131881236;466;43;852152;-1;1851;3596
1;80;1570478945793;1570478951634;5841;19357682436;42714553808;150755132;69609508;5551147065;125302309;132251347;419;40;778144;1;1574;3036
1;81;1570478951664;1570478957325;5661;19352789246;42714334389;152272188;69449969;5551110086;125254654;133440989;407;33;752360;-1;1595;3043
1;82;1570478957356;1570478963319;5963;19347396590;42714405168;150939308;69466921;5551121934;125271272;132361444;505;80;796480;0;2147;7588
1;83;1570478963351;1570478969117;5766;19359921492;42714323163;149865619;69402621;5551109255;125315669;133710427;410;47;766416;1;1722;3183
1;84;1570478969149;1570478974812;5663;19350202126;42714574681;151088915;69126795;5551155195;125282244;131658556;413;37;752464;2;1637;3168
1;85;1570478974843;1570478980714;5871;19359861924;42714617311;150176796;69973659;5551165491;125243650;133505195;429;39;785776;-3;1595;3118
1;86;1570478980745;1570478986299;5554;19334877090;42714639239;153621206;69032161;5551162853;125274629;130828551;392;46;727136;0;1462;2780
1;87;1570478986333;1570478992216;5883;19365715648;42714278147;152488997;69642625;5551100898;125349070;131704800;503;81;793920;2;2052;6587
1;88;1570478992247;1570478998222;5975;19367202512;42714282203;150542181;69262708;5551102000;125271533;131892131;426;37;770616;-2;1771;3349
1;89;1570478998253;1570479004017;5764;19363628870;42714270512;149027164;69281285;5551098507;125275641;133271342;416;39;753152;2;1637;3143
1;90;1570479004048;1570479009716;5668;19371326282;42714296651;149033472;69438353;5551103669;125233094;132149642;427;34;754000;-2;1579;3127
1;91;1570479009748;1570479015308;5560;19342861246;42714238523;149291748;69248836;5551092837;125243026;132021184;410;38;742720;1;1529;3009
1;92;1570479015339;1570479021022;5683;19350594428;42714274502;149469492;69399231;5551100536;125280882;130130948;518;81;769424;-1;1924;7891
1;93;1570479021054;1570479026852;5798;19367643432;42714510830;152704151;69473381;5551142917;125317219;132474779;430;41;774048;0;1898;3526
1;94;1570479026883;1570479032662;5779;19358714072;42714364467;152882758;69670357;5551116697;125329318;131619948;423;37;756456;0;1614;3189
1;95;1570479032695;1570479038454;5759;19331338634;42714337483;148511920;69007112;5551114602;125247781;130855378;425;41;744832;0;1614;3322
1;96;1570479038487;1570479044473;5986;19404049116;42714776766;149906028;69906125;5551186503;125287831;133159881;927;91;806136;14;5331;43455
1;97;1570479044503;1570479050068;5565;19357562424;42714148903;150816820;68896114;5551081588;125314256;133052773;417;40;717768;-13;1894;8220
1;98;1570479050100;1570479055770;5670;19388332946;42714133576;149471480;69145477;5551078793;125333048;133227970;410;45;728904;-1;1558;3081
1;99;1570479055803;1570479061685;5882;19359214706;42714117371;150623206;69442393;5551075469;125322138;132640400;442;46;785776;0;1624;3233
1;100;1570479061716;1570479067584;5868;19362057326;42714106064;149461303;69345372;5551074266;125287963;134438100;447;50;780016;0;1590;3401
1;101;1570479067616;1570479073589;5973;19356148560;42714111787;150644543;69507692;5551074846;125269037;131139805;531;103;795992;2;2227;10728
1;102;1570479073621;1570479079381;5760;19341828588;42714120972;148712372;69495562;5551076713;125243467;131718425;440;43;765624;-2;1758;3347
1;103;1570479079412;1570479085283;5871;19368841800;42714215360;151383938;69899471;5551093561;125220409;132506622;527;48;784800;1;1958;7913
1;104;1570479085315;1570479090975;5660;19350211908;42714468419;148445321;69157141;5551138523;125254064;132246238;431;54;752368;-1;1588;3249
1;105;1570479091006;1570479097069;6063;19363971532;42714142844;151223766;69581082;5551080670;125252668;132532139;473;47;809336;0;1720;3534
1;106;1570479097103;1570479102872;5769;19373494528;42714135547;150252580;69157211;5551080287;125275782;133028021;530;98;762832;3;1875;8718
1;107;1570479102905;1570479108825;5920;19377829998;42714190654;155089872;69387406;5551090366;125322276;132988487;442;49;768184;-3;1986;3797
1;108;1570479108858;1570479114840;5982;19357029670;42713915178;153442622;69488556;5551043933;125306765;132270905;438;48;756456;0;1673;3343
1;109;1570479114871;1570479120740;5869;19345500488;42713833331;154206291;69153568;5551029822;125299195;132735139;460;43;785776;0;1664;3527
1;110;1570479120773;1570479126539;5766;19375641458;42713835502;154117332;69586413;5551030227;125290314;130886340;433;50;742304;1;1508;3151
1;111;1570479126571;1570479132243;5672;19389959386;42713848919;153102140;69261339;5551033213;125263176;133922934;438;48;741392;-1;1586;3239
1;112;1570479132277;1570479137940;5663;19363293216;42713801490;149230185;69354436;5551024073;125253005;131910258;518;82;763016;2;2312;9750
1;113;1570479137971;1570479143738;5767;19357558044;42713881925;150430417;69266969;5551040004;125235603;134313822;455;41;766144;3;1713;3499
1;114;1570479143769;1570479149533;5764;19361455952;42714139776;150567295;69121060;5551085955;125241139;132952479;448;47;756456;-2;1621;3340
1;115;1570479149564;1570479155233;5669;19378033960;42713904796;153802914;69247105;5551042843;125276864;134790394;455;34;756456;-3;1585;3497
1;116;1570479155263;1570479160836;5573;19345537280;42713838966;151475640;69546803;5551031765;125263922;135012510;443;49;744832;0;1566;3235
1;117;1570479160866;1570479166527;5661;19347062250;42713813016;149197818;69222662;5551028433;125262341;135251367;553;76;755496;0;2028;8956
1;118;1570479166558;1570479172521;5963;19357243560;42713738520;151222070;69192752;5551015129;125238918;133617254;467;47;779912;0;1847;3820
1;119;1570479172555;1570479178521;5966;19357675282;42713760080;151222791;69261019;5551019603;125224034;135463368;469;43;797504;0;1715;3407
1;120;1570479178553;1570479184113;5560;19356007962;42713772384;150481514;69059773;5551022097;125231683;133496143;448;39;738864;0;1515;3352
1;121;1570479184145;1570479189704;5559;19325493232;42713873732;150607782;69488044;5551037996;125263218;132227479;454;45;738968;3;1532;3396
1;122;1570479189735;1570479195290;5555;19330287288;42713736690;150876512;68948186;5551014339;125212864;131909318;527;74;712360;-2;1872;9940
1;123;1570479195322;1570479200980;5658;19342685316;42713844616;151762294;69446679;5551033834;125219876;133329408;458;38;752360;-1;1763;3584
2;73;1570479734496;1570479740262;5766;19293212486;42656312413;143127111;69004117;5515807264;126071611;131559102;421;20;770040;-1;1682;3359
2;74;1570479740292;1570479745960;5668;19337286674;42656291927;144190684;68789382;5515802427;126065838;132381827;403;19;756456;5;1556;3046
2;75;1570479745993;1570479751749;5756;19305880030;42656297342;147544788;69003849;5515806131;126103925;133108254;409;22;756456;-2;1575;3112
2;76;1570479751780;1570479758230;6450;19305785860;42656324435;146538122;68814793;5515810491;126201000;133506393;530;73;876496;-2;2246;7461
2;77;1570479758261;1570479764416;6155;19318599550;42656263226;144494362;68776728;5515798286;126096619;132258832;441;26;822728;-1;1877;3520
2;78;1570479764447;1570479770200;5753;19317245254;42656172958;145904833;69099602;5515782974;126157389;134748097;417;23;768272;0;1677;3275
2;79;1570479770233;1570479775987;5754;19318651964;42656200029;147443187;68716628;5515788262;126134779;133221336;413;25;768184;0;1574;3101
2;80;1570479776017;1570479781635;5618;19286323622;42656226564;146567662;68932111;5515793140;126138097;132201475;388;28;727136;0;1533;2983
2;81;1570479781668;1570479787319;5651;19308302024;42656177111;144115260;69085084;5515784604;126123082;132512966;508;68;761912;0;2065;9691
2;82;1570479787349;1570479792899;5550;19306879108;42656119799;143858293;69042500;5515774495;126064090;131597459;395;25;733000;0;1757;3292
2;83;1570479792932;1570479798475;5543;19286256024;42656138641;143137490;68863471;5515778898;126047360;130735187;389;24;727136;0;1581;3023
2;84;1570479798506;1570479804158;5652;19326107308;42656313222;144467710;68991241;5515811340;126146691;132630615;414;28;756544;0;1647;3360
2;85;1570479804189;1570479810460;6271;19342025396;42656407755;144818873;69150084;5515832620;126213422;130552737;457;29;838552;3;1694;3454
2;86;1570479810491;1570479816341;5850;19318346240;42656264893;145315528;68991343;5515799346;126122069;131702691;423;27;785776;-3;1566;3085
2;87;1570479816375;1570479822317;5942;19291069498;42656101900;143844122;68703388;5515770880;126070223;130949039;516;67;790168;3;2151;7873
2;88;1570479822347;1570479828102;5755;19317788812;42656117800;145304969;68957325;5515775034;126105300;131562445;421;32;774048;-3;1675;3202
2;89;1570479828133;1570479833683;5550;19319443138;42656103551;143908788;69032862;5515771926;126060998;131581563;408;28;738960;3;1643;3199
2;90;1570479833713;1570479839357;5644;19291301638;42656121051;143393678;68835816;5515774504;126070212;130840241;403;33;744728;-3;1527;2987
2;91;1570479839390;1570479845136;5746;19304343818;42656071573;146923248;68857641;5515765498;126103949;131514966;417;34;768184;0;1604;3108
2;92;1570479845167;1570479850917;5750;19315020214;42656102565;145359256;68983120;5515771938;126087660;132984034;519;79;779528;0;2265;10877
2;93;1570479850948;1570479856502;5554;19295792890;42656353296;143178902;69041750;5515819091;126082158;130675751;402;37;744728;0;1760;3281
2;94;1570479856534;1570479862285;5751;19310749422;42656191801;144276953;68827045;5515788044;126180772;133775060;426;34;768280;0;1671;3179
2;95;1570479862318;1570479868273;5955;19322743030;42656249762;145421258;68643719;5515799545;126135377;135036916;425;37;779912;3;1608;3119
2;96;1570479868303;1570479874269;5966;19336335776;42656410632;145214815;69143421;5515824865;126113981;132459701;931;82;825728;4;5457;68018
2;97;1570479874300;1570479879847;5547;19299591372;42655986024;145133019;68967333;5515754613;126027267;131999905;423;42;741088;-7;1939;6167
2;98;1570479879879;1570479885524;5645;19293505946;42655957282;143541286;68831056;5515749477;126083218;131605591;415;35;754688;1;1613;3144
2;99;1570479885558;1570479891503;5945;19291998788;42655959920;144355390;68783134;5515749592;126097528;131775470;435;38;793408;-1;1639;3212
2;100;1570479891535;1570479897101;5566;19314358980;42656043921;145212988;69109584;5515764493;126125302;131803528;420;35;744824;0;1594;3191
2;101;1570479897133;1570479903085;5952;19317625876;42655953349;146123341;69001566;5515749156;126074568;133401310;536;79;792024;0;2247;11227
2;102;1570479903116;1570479908695;5579;19303067340;42656076321;144778474;68598733;5515772305;126137215;131116893;473;36;710344;0;1771;5068
2;103;1570479908728;1570479914782;6054;19310479614;42656189195;145541803;69063344;5515789578;126148442;132487524;436;38;795736;1;1698;3286
2;104;1570479914813;1570479920367;5554;19311812594;42656142561;146078621;68808960;5515783518;126155237;131995635;413;31;728904;-1;1535;3122
2;105;1570479920400;1570479925958;5558;19344053628;42655967619;145444600;69045478;5515751652;126126651;133920697;423;35;744856;0;1548;3090
2;106;1570479925990;1570479931547;5557;19317537546;42655986510;145629433;69093646;5515757187;126128243;131807061;519;83;755776;1;2074;10514
2;107;1570479931581;1570479937154;5573;19325082534;42656203977;146166002;69065108;5515794553;126163269;132282812;418;43;746496;-1;1797;3375
2;108;1570479937187;1570479943435;6248;19304066126;42655708842;145946374;68828084;5515709236;126085300;132327369;470;41;838552;0;1754;3465
2;109;1570479943467;1570479949120;5653;19327376924;42655644574;146362620;68965771;5515697326;126084351;132543880;425;33;750592;3;1582;3258
2;110;1570479949151;1570479954804;5653;19311093836;42655650414;144452198;68802008;5515698682;126089281;131854663;417;42;733096;-3;1537;3044
2;111;1570479954837;1570479960481;5644;19294446332;42655649607;147739430;68589056;5515698279;126040307;133837187;404;38;715408;0;1525;3052
2;112;1570479960513;1570479966074;5561;19324812580;42655613880;146677238;68847991;5515692927;126095546;132951859;511;74;755624;0;2153;8345
2;113;1570479966106;1570479972370;6264;19335675126;42655682733;147516176;68791600;5515705293;126134362;134155520;469;47;838552;0;1848;3556
2;114;1570479972403;1570479977979;5576;19348444870;42655952903;145832201;68836258;5515754329;126118313;132958933;422;43;744728;0;1629;3261
2;115;1570479978012;1570479983674;5662;19298130934;42655611061;146357714;68803315;5515692333;126096922;133987644;436;37;756456;4;1538;3142
2;116;1570479983705;1570479989862;6157;19312556902;42655647796;146190912;68653267;5515699384;126136742;133087898;470;40;815192;-4;1686;3446
2;117;1570479989895;1570479996153;6258;19310508084;42655611180;145970277;68621650;5515693937;126162507;135547978;597;80;848872;0;2283;10438
2;118;1570479996184;1570480001738;5554;19329683870;42655645013;145733893;68329692;5515699574;126096187;135994133;420;38;727136;0;1578;3168
2;119;1570480001770;1570480007724;5954;19327735646;42655668016;144843510;68676863;5515703863;126097193;132053318;454;42;791640;3;1710;3408
2;120;1570480007755;1570480013513;5758;19316573654;42655583848;145014512;68707453;5515690271;126150268;134064079;446;43;774048;-3;1578;3160
2;121;1570480013545;1570480019095;5550;19315546836;42655688073;144451327;68784302;5515706493;126085977;131214480;440;36;738960;0;1545;3279
2;122;1570480019125;1570480025176;6051;19317855388;42655548902;143650548;68860671;5515682340;126152807;133119503;556;87;819936;0;2217;10304
3;78;1570480572340;1570480577918;5578;19413899444;42750077475;142874233;69337352;5551681913;128126600;129979599;394;28;738864;3;1529;2986
3;79;1570480577949;1570480583528;5579;19420242414;42750080772;144091122;69374524;5551682403;128151455;131848557;512;66;755760;-3;1990;9872
3;80;1570480583559;1570480589190;5631;19404987020;42750145388;143999224;69389144;5551693180;128097189;131231652;403;26;750592;0;1737;3204
3;81;1570480589221;1570480594825;5604;19443370566;42750036883;146285560;69809863;5551675243;128192954;131921878;410;28;750688;0;1647;3208
3;82;1570480594857;1570480600438;5581;19428286284;42750134180;143635054;69347570;5551691794;128108583;131564843;401;28;742960;1;1556;3030
3;83;1570480600472;1570480606058;5586;19420558358;42750048969;145076487;69761673;5551677857;128128060;131013901;401;30;740632;2;1525;2959
3;84;1570480606091;1570480611785;5694;19421863014;42750309882;146223314;69340969;5551725442;128173231;131397465;416;29;762328;-3;1606;3160
3;85;1570480611817;1570480617420;5603;19408686660;42750242877;146738823;69799659;5551716247;128139365;130685944;525;66;760088;1;2251;11539
3;86;1570480617451;1570480623031;5580;19384944286;42750280046;145912327;69262297;5551716936;128106475;130395556;411;25;747216;-1;1661;3250
3;87;1570480623065;1570480628655;5590;19420172918;42750000974;145279565;69800065;5551668874;128076004;131792950;417;26;744824;0;1615;3211
3;88;1570480628687;1570480634279;5592;19434560780;42750017689;145727069;69303185;5551671510;128067153;132944396;408;32;744728;0;1530;2988
3;89;1570480634310;1570480639900;5590;19429397052;42750010107;145649359;69752521;5551670688;128108554;131915752;411;32;744728;4;1511;3061
3;90;1570480639930;1570480645509;5579;19409720778;42750023058;142942322;69258908;5551672709;128072240;130265525;496;75;726368;-1;2021;9066
3;91;1570480645542;1570480651112;5570;19386227772;42749975246;143711593;69542696;5551663493;128082509;130741590;416;29;744728;-3;1661;3170
3;92;1570480651144;1570480656833;5689;19396230086;42750014034;144610881;69338503;5551671565;128137836;131283283;427;28;744832;3;1632;3243
3;93;1570480656863;1570480662466;5603;19410847898;42750255381;145091928;69622137;5551716823;128128291;131717333;421;28;750592;-3;1530;3104
3;94;1570480662498;1570480668085;5587;19396045250;42750114574;145273919;69406207;5551689763;128167141;131813243;414;29;744728;0;1527;3056
3;95;1570480668119;1570480673699;5580;19404111020;42750051825;144738471;69479604;5551680513;128091060;130525996;498;62;720680;14;1681;6622
3;96;1570480673731;1570480679343;5612;19457245238;42750321069;147239540;69337394;5551724415;128134524;133129530;425;30;760568;-13;1992;5588
3;97;1570480679376;1570480684978;5602;19416088714;42749904940;146385622;69540094;5551655426;128128233;130178983;419;34;746496;-1;1642;3246
3;98;1570480685008;1570480690700;5692;19418078110;42749887118;145944544;69587421;5551652533;128087103;130895002;431;34;760656;1;1638;3267
3;99;1570480690734;1570480696312;5578;19421866664;42749856162;143712406;69167018;5551646343;128016537;131558730;415;34;740632;-1;1523;3050
3;100;1570480696342;1570480702046;5704;19440859074;42749853527;145611839;69936259;5551646690;128124240;130919542;436;32;762320;0;1539;3139
3;101;1570480702077;1570480707647;5570;19390212988;42749864454;143018026;69159178;5551648975;128105039;129714135;666;104;751184;7;3226;19541
3;102;1570480707680;1570480713270;5590;19444531704;42749996633;144261528;69857036;5551673719;128134120;133633507;732;38;770264;-7;4086;23765
3;103;1570480713304;1570480718893;5589;19413616788;42750051773;145269503;69278061;5551680796;128108853;129832028;430;38;744832;0;1640;3447
3;104;1570480718924;1570480724528;5604;19430615130;42750087136;146865116;69809344;5551688875;128086668;131467995;427;40;750592;0;1525;3122
3;105;1570480724560;1570480730142;5582;19422114864;42749871115;144649651;69402549;5551649709;128100902;131481073;429;35;744728;0;1527;3183
3;106;1570480730175;1570480735780;5605;19442532380;42749871375;147743286;69661768;5551651258;128142454;132118905;428;41;750592;0;1563;3146
3;107;1570480735812;1570480741388;5576;19405906090;42749902678;143060074;69354565;5551655433;128095586;130199576;584;74;751776;0;2184;19776
3;108;1570480741418;1570480747032;5614;19416717244;42749823511;144738707;69436838;5551639770;128090079;133999736;437;33;750592;0;1793;3491
3;109;1570480747064;1570480752654;5590;19420491344;42749706716;145123627;69535714;5551623551;128104997;131015589;515;41;745640;0;1988;8242
3;110;1570480752687;1570480758264;5577;19408790028;42749567172;142004002;69445713;5551599210;128090497;130488948;429;39;744728;0;1570;3239
3;111;1570480758298;1570480763972;5674;19404121532;42749583362;144034250;69040974;5551602979;128058766;131391831;415;37;715408;0;1492;3076
3;112;1570480764008;1570480769591;5583;19425713034;42749568573;142467650;69343500;5551600993;128115047;131803956;438;38;744728;0;1522;3302
3;113;1570480769630;1570480775216;5586;19430076098;42749606228;144122480;69189663;5551607129;128117562;132395701;569;80;744368;1;2050;14738
3;114;1570480775247;1570480780835;5588;19411862306;42749938739;143895364;69428383;5551667629;128104778;130707427;450;30;746600;-1;1674;3482
3;115;1570480780868;1570480786482;5614;19469666042;42749527289;145735737;69361787;5551593569;128133075;133541146;443;40;750592;0;1604;3413
3;116;1570480786514;1570480792116;5602;19424246756;42749570489;145228987;69499147;5551601940;128155622;130793983;436;40;744728;0;1495;3200
3;117;1570480792147;1570480797729;5582;19422943852;42749566674;144351029;69196165;5551600733;128122072;134218822;436;41;744728;3;1539;3272
3;118;1570480797761;1570480803377;5616;19479712010;42749470420;146037684;69506532;5551584800;128116057;133135531;570;79;761584;-3;2065;12732
3;119;1570480803409;1570480809004;5595;19439972854;42749499792;144559159;69434508;5551590684;128098207;132755100;446;38;750480;1;1801;3599
3;120;1570480809037;1570480814618;5581;19428645298;42749508904;143103848;69433092;5551592621;128132769;130883911;455;37;744944;-1;1591;3529
3;121;1570480814650;1570480820226;5576;19404882484;42749606198;142308499;69386110;5551607370;128096785;131086889;433;32;727136;0;1534;3364
3;122;1570480820259;1570480825835;5576;19412459884;42749462832;144567204;69168703;5551583199;128117146;133289817;450;30;744728;0;1518;3413
3;123;1570480825868;1570480831452;5584;19438430072;42749479999;143559694;69417226;5551586386;128078249;132959638;448;37;744728;0;1507;3463
3;124;1570480831485;1570480837064;5579;19420832692;42749555650;143829901;69094303;5551598880;128136421;133617128;573;75;754368;1;2137;12619
3;125;1570480837097;1570480842676;5579;19417831370;42749616603;143325636;69260301;5551612194;128136696;132060625;444;31;729008;-1;1629;3389
3;126;1570480842708;1570480848291;5583;19429220100;42749663783;143316630;69211719;5551619108;128141413;132594305;458;29;744728;0;1639;3762
3;127;1570480848324;1570480853913;5589;19418281196;42750185094;145248496;69600184;5551739539;128145741;131737406;450;29;744728;0;1555;3513
4;78;1570481402168;1570481407728;5560;19348898930;42445146556;148040048;69114249;5488275764;124849297;129921491;402;22;740632;-1;1557;3038
4;79;1570481407762;1570481413351;5589;19425411106;42445159424;148089079;69673419;5488278297;124972900;134150235;494;68;756720;0;2127;7892
4;80;1570481413382;1570481418982;5600;19433662880;42445146292;149434654;69110906;5488275026;124946517;133476572;403;18;733000;0;1576;3055
4;81;1570481419013;1570481424601;5588;19383697738;42445185317;146829512;69330783;5488283014;124896288;131338004;407;19;733096;0;1643;3241
4;82;1570481424634;1570481430262;5628;19398219774;42445288281;147048274;69503165;5488300263;124880093;133656778;414;23;750592;0;1554;3068
4;83;1570481430295;1570481435876;5581;19426413396;42445118184;147557272;69612006;5488271783;124849693;131015813;409;20;744728;0;1519;2994
4;84;1570481435909;1570481441493;5584;19405243104;42445191438;148668756;69371623;5488287018;124845715;136013749;494;67;755888;0;2128;9421
4;85;1570481441524;1570481447099;5575;19365925012;42445393634;148496518;69663868;5488326838;124860468;130959963;409;24;744728;0;1656;3144
4;86;1570481447130;1570481452793;5663;19355894958;42445231323;147312546;69290447;5488291661;124903254;133109934;402;30;738864;0;1549;2993
4;87;1570481452827;1570481458404;5577;19393865470;42445176456;146434045;69584868;5488283650;124902549;134513960;418;32;744824;3;1565;3165
4;88;1570481458434;1570481464008;5574;19386662998;42445126552;147404552;69444209;5488273767;124879442;134351219;406;33;744728;-3;1512;2943
4;89;1570481464041;1570481469706;5665;19361450988;42445079761;144984931;69396567;5488264627;124820870;133013432;417;35;756456;0;1537;3018
4;90;1570481469737;1570481475313;5576;19404002834;42445087342;147021407;69735937;5488266300;124873547;133975652;510;74;749152;3;2185;9590
4;91;1570481475345;1570481481124;5779;19378684098;42445139357;145790408;69486118;5488274989;124931578;133386859;435;32;774048;-3;1639;3274
4;92;1570481481156;1570481486719;5563;19366717208;42445124172;147569277;69686551;5488272023;124939783;132920748;414;36;738968;0;1577;3083
4;93;1570481486750;1570481492332;5582;19387722520;42445191777;147710488;69302883;5488286749;124868727;133578930;415;30;744728;0;1481;2989
4;94;1570481492365;1570481497937;5572;19397199088;42445171065;148282789;69413971;5488281525;124853243;132809351;401;34;715408;0;1503;3053
4;95;1570481497969;1570481503556;5587;19418720510;42445220142;147697025;69330030;5488292346;124845164;135010653;522;78;756712;0;2060;9447
4;96;1570481503588;1570481509158;5570;19386985512;42445148024;146864520;69742456;5488276178;124855852;132011064;416;37;742960;1;1734;3268
4;97;1570481509190;1570481514785;5595;19400496352;42445048073;146727997;69682178;5488259848;124936966;130344073;419;42;746496;-1;1621;3229
4;98;1570481514817;1570481520393;5576;19384087704;42445054309;146237514;69413875;5488261015;124896986;135317023;430;40;744832;0;1596;3344
4;99;1570481520426;1570481525997;5571;19375876080;42445048681;147140749;69084698;5488259929;124873668;132440106;403;41;715408;3;1474;2989
4;100;1570481526027;1570481531620;5593;19410870236;42445035450;149036008;69599401;5488257740;124849541;130988410;522;81;755432;0;1830;8149
4;101;1570481531651;1570481537239;5588;19406900788;42445047196;149178952;69661698;5488260252;124902442;134538959;874;58;793112;-2;5158;31960
4;102;1570481537269;1570481543453;6184;19419375758;42445049046;148042190;69338008;5488260022;124855255;131001389;489;48;828792;-1;1934;4714
4;103;1570481543487;1570481549071;5584;19415957460;42445355842;147621211;69763766;5488311786;124857711;131646573;434;34;744832;0;1598;3456
4;104;1570481549103;1570481554677;5574;19399880378;42444965473;148451289;69372589;5488249917;124839878;131122396;425;38;744728;0;1533;3181
4;105;1570481554710;1570481560285;5575;19396391270;42444964469;148064927;69875966;5488247424;124895090;132672026;432;43;742928;1;1502;3236
4;106;1570481560315;1570481565901;5586;19379565938;42445274441;147739062;68953315;5488303208;124822524;132897375;415;34;717208;-1;1562;3220
4;107;1570481565934;1570481571506;5572;19385051450;42445127598;149279811;69671094;5488275237;124874715;130704077;546;86;758184;0;2193;11802
4;108;1570481571537;1570481577142;5605;19444509220;42444770568;148198464;69590887;5488213818;124853712;133422139;501;45;733888;6;1872;7126
4;109;1570481577176;1570481582766;5590;19383553636;42444683832;148352668;69538321;5488201019;124973770;131922347;443;39;756456;-6;1664;3516
4;110;1570481582796;1570481588381;5585;19381517082;42444628561;149426277;69187122;5488191322;124920155;135350651;424;43;733000;0;1531;3183
4;111;1570481588414;1570481593996;5582;19373323854;42444655062;146535837;69756251;5488196827;124952382;132158690;431;42;744728;0;1499;3146
4;112;1570481594028;1570481599619;5591;19372886292;42444610645;148499927;69352245;5488189540;124970990;134659089;535;96;757800;5;2052;10314
4;113;1570481599649;1570481605522;5873;19370002646;42444671706;147338466;69459717;5488200317;124884145;134237846;464;43;785776;-5;1872;3637
4;114;1570481605554;1570481611115;5561;19348541230;42444948101;147350210;69277705;5488250191;124807909;131579775;418;41;703784;0;1488;3139
4;115;1570481611150;1570481616732;5582;19371068592;42444692641;146371077;68980134;5488202976;124924854;132588678;426;39;721272;0;1500;3215
4;116;1570481616765;1570481622344;5579;19408032872;42444527468;148373920;69700651;5488174976;124825415;135179669;436;45;742960;1;1545;3267
4;117;1570481622375;1570481627947;5572;19375899294;42444603332;144871376;69214314;5488189045;124856583;132984368;439;45;740632;-1;1575;3348
4;118;1570481627978;1570481633555;5577;19384029158;42444544101;149327021;69651853;5488179063;124851086;133639067;533;86;756200;0;2129;8454
4;119;1570481633589;1570481639154;5565;19357042810;42444559806;146420679;69232218;5488182153;124868222;131536083;443;45;738968;0;1597;3359
4;120;1570481639185;1570481644748;5563;19359615622;42444675647;146342797;69650241;5488202803;124779882;134340378;441;40;738864;0;1580;3378
4;121;1570481644778;1570481650352;5574;19372007518;42444676758;148104207;69350324;5488201206;124938412;132667583;448;41;744728;0;1517;3385
4;122;1570481650384;1570481655954;5570;19384287432;42444530389;149657399;69413373;5488175897;124840585;132967158;443;36;738864;5;1514;3375
4;123;1570481655986;1570481661553;5567;19371874950;42444645603;148194102;69336710;5488195974;124835234;133171201;550;89;755464;-5;2169;11095
4;124;1570481661584;1570481667262;5678;19360611780;42444532387;148842869;69132367;5488176034;124906437;133880960;441;35;721272;0;1783;3775
4;125;1570481667294;1570481672867;5573;19371445126;42444563236;147200647;69521009;5488183688;124851665;134572760;463;36;743064;1;1623;3681
4;126;1570481672897;1570481678488;5591;19385055246;42444723029;148831953;69413758;5488210201;124932645;133425663;453;34;746496;-1;1512;3324
4;127;1570481678525;1570481684095;5570;19375849654;42445226078;150271112;69449784;5488330119;124821670;133919544;457;34;744728;0;1501;3440
