0;19;1570599622688;1570599627458;4770;15723098284;29424556013;578642546;342249104;4401449685;130324;293746115;496;1;995128;16;4770;685304
0;20;1570599627458;1570599633917;6459;16003040728;29425694273;571310009;351941382;4401828284;131476;293742719;739;4;1482344;-3;6458;926404
0;21;1570599633917;1570599645163;11246;15575531266;29431334056;582328439;330496574;4403707476;141915;293742730;1224;56;2174456;13;11247;1624235
0;22;1570599645163;1570599666519;21356;15691601558;29424518106;581260797;334499655;4401444606;140701;293742807;2197;13;4417032;-39;21355;3018446
0;23;1570599666519;1570599671398;4879;16153959030;29425654749;564882629;359913988;4401822177;127153;293735043;510;5;1018928;15;4880;690155
0;24;1570599671398;1570599677744;6346;15485322100;29431254917;581482572;330880493;4403691931;132125;293736461;791;47;1209592;9;6346;931695
0;25;1570599677744;1570599689294;11550;15685032288;29424671767;576073859;336983104;4401474800;141476;293745164;1207;30;2283192;11;11549;1662648
0;26;1570599689294;1570599699160;9866;15425246604;29412481295;583353012;324209256;4397396255;139944;293732613;1093;12;2184400;-5;9866;1416699
0;27;1570599699160;1570599716352;17192;15509647452;29322538501;573485282;326688018;4367592286;116860;293686116;1705;14;3389024;0;17193;2388285
0;28;1570599716352;1570599722010;5658;15425477576;29038000515;555517431;313677157;4272737820;113043;289715532;711;82;1054632;-17;5658;825140
0;29;1570599722010;1570599731021;9011;15040302128;28982686042;557609008;291089235;4254326597;112368;289008201;957;9;1902680;3;9011;1292273
0;30;1570599731021;1570599741499;10478;15088115960;28984947393;556796380;293169294;4255078942;119053;289010909;1113;9;2205136;7;10478;1503760
0;31;1570599741499;1570599761538;20039;15139374516;28987196232;552031227;296702149;4255828626;117862;289014886;2178;48;3952216;21;20039;2755084
0;32;1570599761538;1570599766644;5106;15464879034;28982759171;545695690;315872676;4254343964;110709;289011643;551;3;1083152;-7;5106;733260
0;33;1570599766644;1570599774375;7731;15288607832;28982455067;551177906;306540190;4254287008;120345;288994427;866;6;1707328;-2;7731;1110641
0;34;1570599774375;1570599784979;10604;15191217948;28988954176;551334570;298326723;4256488080;119805;288984113;1209;62;2050152;-9;10604;1541280
0;35;1570599784979;1570599804360;19381;15285894714;28982195205;551768319;299948088;4254236193;121397;288985241;2105;15;4115360;-12;19381;2708597
0;36;1570599804361;1570599809083;4722;15535749624;28982195895;545164636;317920407;4254236496;107273;288983142;469;6;921184;15;4723;677106
0;37;1570599809083;1570599816128;7045;15158195376;28988949627;554179344;298075671;4256486963;109938;288983452;884;49;1359864;9;7045;1032617
0;38;1570599816128;1570599826862;10734;15274677388;28982209066;546269576;298180227;4254238741;112367;288977897;1143;14;2224720;-23;10734;1543663
0;39;1570599826862;1570599837520;10658;15030795192;28982230222;552694525;287268845;4254243198;118741;288983319;1159;15;2253936;26;10658;1525924
0;40;1570599837520;1570599855119;17599;15360293394;28984473938;545519122;308128289;4254992902;112759;288979083;1927;72;3446408;-18;17599;2457622
0;41;1570599855119;1570599860528;5409;15098550580;28986677841;553523470;297590091;4255734358;108068;288981085;616;8;1174600;-8;5409;775754
0;42;1570599860528;1570599868508;7980;15211720144;28982179696;551347640;298512952;4254234598;113907;288983232;899;12;1722600;-2;7980;1148647
0;43;1570599868508;1570599879902;11394;15403578890;28984450708;548798535;309005058;4254990591;119292;288980675;1332;53;2220624;9;11394;1656277
0;44;1570599879902;1570599898188;18286;15653537460;28986665817;539708176;318387471;4255733821;110605;288977209;2017;38;3894016;9;18286;2514697
0;45;1570599898188;1570599903150;4962;15407446284;28982156559;544609335;309976690;4254232009;107061;288976598;501;5;956840;11;4962;712390
0;46;1570599903150;1570599911703;8553;15309226828;28982164795;548441948;305770576;4254233473;118428;288983266;1010;81;1640688;-15;8553;1255421
0;47;1570599911703;1570599922055;10352;15217897404;28988910024;552122007;299735732;4256482652;115457;288978763;1151;16;2198288;1;10352;1484546
0;48;1570599922055;1570599933349;11294;15153547028;28982155421;550031959;295818533;4254231610;111859;288977033;1237;13;2347520;11;11294;1618817
0;49;1570599933349;1570599948957;15608;15465496906;28982156643;543839425;312375916;4254231973;107096;288978248;1777;71;3085064;-12;15608;2133859
0;50;1570599948957;1570599953934;4977;15128352392;28988903138;558884173;299549007;4256481177;106847;288977824;591;7;1116712;17;4977;711898
0;51;1570599953934;1570599964255;10321;15237349568;28982276336;549831578;303011511;4254255860;122597;288987309;1132;14;2139048;-12;10321;1481230
0;52;1570599964255;1570599975194;10939;15007367886;28926001405;543972717;277543089;4186000544;120278;289011215;1256;58;2074616;-6;10939;1594699
0;53;1570599975194;1570599994836;19642;15022600650;28817552582;530906399;282423296;4149308778;113337;286584508;2484;90;3745304;15;19585;2650491
0;54;1570599994836;1570599999781;4945;14832655234;28511245191;508082827;268507368;4047256624;112304;279660533;525;4;974184;-13;4945;711093
0;55;1570599999781;1570600010091;10310;15035366890;28672174810;511717681;277564147;4083272826;115980;279618047;1084;22;2021528;4;10310;1486900
0;56;1570600010091;1570600020970;10879;15132322862;28679643862;511843646;280910072;4084694997;113164;279605026;1337;80;2093928;3;10879;1575778
0;57;1570600020970;1570600038692;17722;15270256216;28679638698;509022038;293425062;4084694055;105049;279600261;2021;46;3749760;-21;17694;2348646
0;58;1570600038692;1570600043840;5148;15343514052;28679634757;507435865;301355314;4084693389;102245;279599210;690;84;973104;28;5148;770466
0;59;1570600043840;1570600053303;9463;15006265294;28679640918;514004647;275867349;4084694364;110579;279603137;1003;35;1887432;-11;9463;1360390
0;60;1570600053303;1570600062794;9491;14997843138;28679673491;517233345;276142505;4084700708;112377;279603481;1105;33;2071288;-17;9491;1358313
0;61;1570600062794;1570600083906;21112;14981801680;28679669573;514333233;273857194;4084701095;110542;279603299;2382;105;4180592;-33;21112;2896683
0;62;1570600083906;1570600088427;4521;14961028070;28679640495;521156182;275517664;4084695102;101909;279602968;488;8;909376;37;4520;637494
0;63;1570600088427;1570600093477;5050;14893777404;28679625965;517277731;274091209;4084692461;102568;279604616;617;20;1143424;23;5051;723149
0;64;1570600093477;1570600103651;10174;15077292688;28679641183;514169980;281574078;4084695074;115895;279609687;1128;27;2103048;-8;10174;1457365
0;65;1570600103651;1570600115269;11618;14920218442;28679688964;518070310;271082726;4084708000;110077;279603427;1349;65;2245904;9;11618;1675408
0;66;1570600115269;1570600131650;16381;15065038762;28679598337;519390571;284789944;4084689589;99858;279595768;1853;45;3430896;-16;16381;2223823
0;67;1570600131651;1570600136922;5271;15215423288;28679594925;510863765;291350196;4084688993;100028;279598103;732;53;997248;7;5272;782133
0;68;1570600136922;1570600147154;10232;15072782456;28679644357;514922520;280830235;4084698207;106721;279598635;1103;21;2020896;-15;10231;1469354
1;20;1570600462108;1570600471911;9803;15580988454;30024579684;578710214;330331498;4401458390;128200;293750476;1079;2;2171144;-23;9803;1406699
1;21;1570600471911;1570600483225;11314;15459713262;30027974631;582521038;327869761;4402588577;131728;293751182;1114;5;2239304;6;11314;1625644
1;22;1570600483225;1570600501242;18017;15652305804;30029014335;580792114;342071656;4402947166;128319;293746775;1883;63;3534944;6;18017;2517272
1;23;1570600501242;1570600505947;4705;15595070592;30024542639;582269629;342460706;4401452816;119888;293746608;520;4;1039792;-8;4706;676843
1;24;1570600505947;1570600514015;8068;15678646978;30027880356;584382460;345277251;4402570312;121831;293744494;858;5;1718096;6;8067;1157056
1;25;1570600514015;1570600524797;10782;15482187334;30029175100;587576104;330458602;4402978475;138045;293753701;1188;61;2093968;16;10782;1549817
1;26;1570600524797;1570600545026;20229;15731837552;30024777126;576331364;342460610;4401507722;141021;293742724;2253;67;4249328;-2;20230;2843404
1;27;1570600545027;1570600550013;4986;15660883012;29974418890;577679227;340495247;4384869372;114975;293689248;524;3;1031720;-12;4987;714303
1;28;1570600550013;1570600557690;7677;15596236256;30021455606;571198206;333501218;4369083926;117590;293678225;774;6;1526464;-5;7676;1100272
1;29;1570600557690;1570600568804;11114;15573580852;30032550222;571516982;330698054;4366803660;114312;293671265;1230;53;2165120;0;11114;1616757
1;30;1570600568804;1570600589631;20827;15491285616;30032575703;575998291;325536264;4366808804;122040;293676223;2191;13;4304392;-97;20827;2940697
1;31;1570600589631;1570600594342;4711;15512642058;30039307603;575248115;330938274;4369055368;112493;293674298;514;8;1008424;91;4711;628779
1;32;1570600594342;1570600600118;5776;15495793804;30032628704;571095759;329304733;4366821739;110431;293668777;704;52;1112320;14;5776;842098
1;33;1570600600118;1570600611528;11410;15517130098;30032343334;573995570;327191137;4366768503;125305;293657412;1158;11;2268344;-6;11410;1642748
1;34;1570600611528;1570600621646;10118;15372215900;30034307038;580199564;317943849;4367463054;114411;293642180;1120;9;2192416;0;10119;1453422
1;35;1570600621646;1570600639627;17981;15309019508;30036551052;577703461;317232484;4368211955;110174;293638973;1991;77;3579808;-9;17980;2515216
1;36;1570600639627;1570600644353;4726;15563563208;30032049315;572881465;331264958;4366711707;110573;293645559;502;5;978056;10;4727;676842
1;37;1570600644353;1570600651509;7156;15496786020;30034314791;574490057;327991032;4367464341;111342;293644667;847;15;1631104;17;7155;1027718
1;38;1570600651509;1570600662504;10995;15426611412;29834307184;558450237;314117622;4300763509;120211;290858538;1213;68;2108312;-16;10996;1586648
1;39;1570600662505;1570600683098;20593;15330582978;29694747710;554145035;302936182;4254249827;118504;288999891;2192;37;4254312;-25;20593;2892502
1;40;1570600683098;1570600687843;4745;15327847084;29694729989;552699998;310675586;4254247222;106316;288992665;522;8;1017824;29;4745;677128
1;41;1570600687843;1570600694460;6617;15439218950;29701449931;549514230;311740276;4256492994;113434;288995301;822;60;1277640;13;6618;958015
1;42;1570600694461;1570600705474;11013;15201511532;29694670753;554808357;298966658;4254237707;114690;288995128;1132;22;2186216;-12;11013;1583370
1;43;1570600705474;1570600714992;9518;15172066690;29694686716;558301307;296817817;4254240908;111011;288991282;1084;18;2091320;4;9519;1363796
1;44;1570600714993;1570600733259;18266;15281067954;29701420159;553720493;304059648;4256487871;107779;288993817;2005;88;3579152;-3;18267;2447702
1;45;1570600733260;1570600738407;5147;15287061400;29694667152;557746448;306667099;4254237066;104528;288991158;593;14;1142528;-17;5147;737523
1;46;1570600738407;1570600747249;8842;15335403022;29694669707;552189896;306635638;4254237737;111285;288994703;987;16;1875080;5;8842;1265844
1;47;1570600747249;1570600758135;10886;15468544656;29696923623;544981172;310052174;4254988326;115346;288992502;1252;63;2131448;14;10886;1571042
1;48;1570600758135;1570600776517;18382;15312749662;29699167374;547376888;304611786;4255737032;114114;288992282;2028;37;3870432;-12;18382;2508986
1;49;1570600776517;1570600781382;4865;15729377160;29694664196;537841705;327328008;4254236613;104411;288987405;529;12;1005000;15;4865;697791
1;50;1570600781382;1570600788658;7276;15264234884;29696920393;552210917;303690078;4254987582;114213;288990930;903;66;1396184;-20;7276;1065073
1;51;1570600788658;1570600800179;11521;15054250530;29699281620;560931608;286182944;4255759517;117914;288996429;1195;22;2278016;21;11521;1653091
1;52;1570600800179;1570600809695;9516;15005193508;29638477112;550337019;277509904;4185999481;108877;289017064;1114;19;2125432;-26;9516;1362398
1;53;1570600809695;1570600826691;16996;15129604050;29534472979;539264847;289224996;4150797399;108408;286677838;1950;82;3333704;28;16996;2318836
1;54;1570600826691;1570600831840;5149;15013235918;29223549100;512955264;280968699;4047226740;101938;279629403;607;14;1141360;3;5149;738275
1;55;1570600831840;1570600843471;11631;15033246970;29439651746;528368248;277900410;4119243133;128301;284114264;1596;91;1964624;-19;11631;1700971
1;56;1570600843471;1570600854427;10956;14993885516;29448486568;532711412;275753136;4122211865;108380;284276812;1204;27;2275704;12;10956;1571941
1;57;1570600854427;1570600871767;17340;15305290960;29448315848;523887594;302135893;4122180568;102426;284268969;1972;93;3387072;-19;17340;2461102
1;58;1570600871767;1570600877917;6150;15327611732;29448316031;519031586;299289720;4122180393;100673;284266648;786;17;1319072;17;6150;890873
1;59;1570600877917;1570600887553;9636;15150114568;29448314418;523973512;291642155;4122179990;102891;284265784;1061;23;1982624;-5;9637;1385368
1;60;1570600887553;1570600898161;10608;15178770134;29448319391;526456088;287949988;4122181008;108459;284270504;1228;100;2038568;3;10607;1527757
1;61;1570600898161;1570600916464;18303;15265180672;29448318030;528572756;296886732;4122180804;103785;284265555;2064;56;3849672;5;18304;2504764
1;62;1570600916465;1570600921913;5448;15153257802;29448350757;523851088;291930294;4122188279;100001;284267874;604;14;1107704;4;5448;781721
1;63;1570600921913;1570600930467;8554;15391541336;29448366306;518237115;306905850;4122191516;106263;284269964;1039;67;1656184;-24;8554;1243746
1;64;1570600930467;1570600941829;11362;15130868702;29223482282;511723881;281268242;4047213634;103124;279614274;1247;27;2310672;1;11362;1633984
1;65;1570600941829;1570600962303;20474;15031948300;29223418608;513219456;277171132;4047203945;100375;279610411;2448;106;4189560;-68;20462;2804678
1;66;1570600962303;1570600966881;4578;15129038592;29223367483;502037880;282308932;4047195341;95866;279606136;518;16;943128;78;4578;630206
1;67;1570600966881;1570600971997;5116;14877042738;29223385257;508010815;267017367;4047198819;98198;279612316;633;18;1167152;7;5116;734543
1;68;1570600971997;1570600981863;9866;15060152872;29223422182;507370482;276688551;4047205576;107784;279615067;1101;30;2018712;-13;9867;1411752
1;69;1570600981864;1570600994470;12606;14947332394;29223364796;508876095;264651349;4047195629;108943;279611919;1479;82;2433312;0;12606;1813779
2;20;1570601306423;1570601315831;9408;15624439952;29424574433;578152031;336169278;4401454037;133322;293740162;1023;7;2069480;1;9409;1350592
2;21;1570601315832;1570601327066;11234;15662145036;29427972705;577236810;333974070;4402584762;143304;293743289;1103;8;2221520;-15;11235;1619462
2;22;1570601327066;1570601345134;18068;15872175672;29429006767;572982753;350104463;4402942406;131166;293735708;1942;59;3587488;-9;18068;2524127
2;23;1570601345135;1570601350498;5363;16098850308;29424534627;573699167;360091798;4401448040;122794;293734158;601;3;1201176;7;5363;769906
2;24;1570601350498;1570601358820;8322;15750264504;29427876663;582898312;344981634;4402566385;129463;293735989;882;7;1748072;14;8323;1194028
2;25;1570601358821;1570601369474;10653;15839556352;29429177769;575439991;341922176;4402975913;146994;293743680;1193;58;2064272;-4;10654;1544824
2;26;1570601369474;1570601388685;19211;15549649992;29424767190;586480653;331291564;4401502219;136320;293721532;2147;63;4050936;7;19211;2654488
2;27;1570601388685;1570601393462;4777;15450740102;29424953620;582670343;331582126;4401720596;118172;293670087;485;4;955632;-5;4776;686230
2;28;1570601393462;1570601400517;7055;15553224364;29342801814;573154492;330019417;4374346336;123303;293672954;703;9;1400592;1;7056;1010789
2;29;1570601400517;1570601411985;11468;15533948714;29320097796;571333527;326552441;4366806842;125213;293672184;1270;73;2246104;-4;11467;1652868
2;30;1570601411985;1570601423916;11931;15471407424;29320114811;574553862;321666075;4366810614;125291;293672983;1198;11;2372488;-14;11931;1713505
2;31;1570601423916;1570601438595;14679;15719874604;29326847164;572056596;338059917;4369057149;115782;293667997;1580;19;3117256;18;14680;2025371
2;32;1570601438595;1570601444781;6186;15647900546;29320167947;567314811;333811035;4366823575;115283;293664890;749;62;1179096;-10;6186;890833
2;33;1570601444782;1570601455813;11031;15495553050;29400902472;575578453;320676230;4366776687;125437;293645893;1121;13;2207704;-1;11032;1587740
2;34;1570601455813;1570601465403;9590;15410052822;29434314200;576859825;317315217;4367460678;115173;293630392;1088;14;2136088;0;9589;1376997
2;35;1570601465403;1570601484045;18642;15637978970;29436544664;573050223;332767552;4368207035;112260;293627775;2016;70;3650640;-7;18575;2486276
2;36;1570601484045;1570601489443;5398;15587329964;29432040588;573178358;330680997;4366706412;112122;293631089;606;2;1181088;2;5398;774789
2;37;1570601489443;1570601496667;7224;15749382664;29434295095;570138519;339794376;4367457124;111905;293627631;812;2;1566768;20;7224;1036974
2;38;1570601496667;1570601508060;11393;15537885166;29234269725;555660967;317320420;4300753229;122128;290842049;1287;62;2227048;-20;11394;1646933
2;39;1570601508061;1570601527216;19155;15508753786;29094734868;548680600;312515018;4254243941;113633;288982676;2068;28;4021648;13;19156;2674734
2;40;1570601527216;1570601531865;4649;15356477100;29094722460;556901683;307440682;4254242179;105705;288978037;482;9;929928;-2;4649;666087
2;41;1570601531865;1570601539589;7724;15588553590;29101442831;546505395;314887604;4256486701;113124;288976051;927;59;1492832;-4;7724;1124179
2;42;1570601539589;1570601551679;12090;15238444422;29094677753;554538719;296126294;4254233814;115164;288984153;1266;21;2455200;14;12089;1732727
2;43;1570601551679;1570601561281;9602;15399278168;29094696118;549626563;305695644;4254239401;114298;288980627;1083;19;2085712;-27;9602;1376338
2;44;1570601561281;1570601577871;16590;15588323786;29101414152;546134770;317898050;4256483197;106865;288977668;1840;72;3234872;24;16591;2308359
2;45;1570601577871;1570601582723;4852;15339231288;29094659936;551408905;305427939;4254232209;105446;288978464;568;10;1090376;-24;4852;695111
2;46;1570601582723;1570601592564;9841;15488912678;29094662452;552642014;311091541;4254232722;112777;288979046;1067;27;2053416;21;9841;1413806
2;47;1570601592564;1570601604331;11767;15469679660;29096915452;551419796;307062095;4254983236;114972;288979832;1332;74;2271776;3;11767;1695712
2;48;1570601604332;1570601621992;17660;15461620314;29099162880;549366627;309321424;4255732699;110042;288977917;1963;38;3741720;-17;17589;2344871
2;49;1570601621993;1570601626594;4601;15239998738;29094657382;552373398;298697685;4254231532;103637;288975432;467;13;893272;13;4602;663029
2;50;1570601626594;1570601636820;10226;15445109904;29096917411;548654238;307981902;4254983487;117153;288979580;1206;65;1984984;-5;10225;1496765
2;51;1570601636820;1570601646647;9827;15324983002;29099269403;550487346;301223759;4255753675;113114;288979228;1080;19;2051280;8;9827;1408059
2;52;1570601646647;1570601666500;19853;15220380864;29038454318;543344671;286655875;4185992154;106660;289008961;2312;103;4044848;-18;19853;2798796
2;53;1570601666500;1570601671677;5177;15399002228;28934463339;532700791;300678039;4150792122;109720;286668792;570;9;1080968;6;5177;743045
2;54;1570601671677;1570601678116;6439;15055891716;28623545985;513547770;278021083;4047222143;105184;279618227;782;14;1475104;18;6440;923716
2;55;1570601678116;1570601689726;11610;15096117344;28839640447;529573773;283454903;4119238023;119776;284095804;1378;73;2072032;-24;11610;1708206
2;56;1570601689726;1570601710437;20711;15020803974;28848494764;531422630;274495480;4122210574;120581;284267804;2384;47;3966808;-4;20710;2909242
2;57;1570601710437;1570601715237;4800;15217102872;28848315040;525794588;296137942;4122177416;97768;284253195;566;13;1058872;-1;4800;685251
2;58;1570601715237;1570601722062;6825;15370292788;28848316073;519791138;303348368;4122177583;100890;284252464;876;65;1285728;27;6825;988823
2;59;1570601722062;1570601733281;11219;15349123372;28848324070;524770906;299025406;4122179044;112198;284258122;1244;28;2194856;-23;11219;1610588
2;60;1570601733281;1570601743588;10307;15057202066;28848318720;525500051;280078522;4122178003;107037;284254049;1187;23;2224944;1;10308;1477185
2;61;1570601743588;1570601761725;18137;15151490910;28848315720;531445725;287834240;4122177540;101610;284254246;2121;126;3629664;22;18137;2472517
2;62;1570601761725;1570601766790;5065;15141579554;28848349378;528034356;290366560;4122185206;100311;284256168;583;13;1073696;-7;5065;726424
2;63;1570601766790;1570601773979;7189;15146061754;28848360476;525099993;291012457;4122187564;103235;284257636;857;25;1606032;7;7188;1029007
2;64;1570601773979;1570601784790;10811;15055305818;28623507881;510568233;272259976;4047215525;114340;279609690;1313;51;2097576;-2;10812;1574471
2;65;1570601784790;1570601804361;19571;15024440834;28623427185;509185436;272977376;4047202656;107077;279600754;2166;53;4016632;-26;19571;2761931
2;66;1570601804361;1570601808877;4516;14956342492;28623361492;518003454;272082883;4047191471;96693;279598507;568;13;1035688;8;4515;649200
2;67;1570601808877;1570601815438;6561;14999628572;28623388329;513737261;271798829;4047196572;102242;279600009;825;52;1255368;49;6561;956550
2;68;1570601815438;1570601826566;11128;15256539078;28623455581;504202747;283506819;4047208573;112453;279602346;1234;28;2187664;-46;11129;1596148
2;69;1570601826566;1570601836837;10271;14980531918;28623356206;511280694;269519263;4047191425;103783;279599358;1208;30;2214512;8;10271;1472521
3;20;1570602153115;1570602162482;9367;15931090760;29424574185;569477949;349113862;4401454102;127510;293739810;1020;6;2056528;4;9366;1342738
3;21;1570602162482;1570602172727;10245;15561868732;29427968346;578896275;332389655;4402584060;135882;293742786;1040;2;2080968;16;10245;1467247
3;22;1570602172727;1570602191806;19079;15567554994;29429008188;581395750;332655071;4402942793;136385;293743205;2059;57;3743864;-12;19079;2642471
3;23;1570602191806;1570602196487;4681;15499634188;29424536260;586415077;334815688;4401448398;123317;293739279;516;1;1036392;-4;4682;671898
3;24;1570602196488;1570602203542;7054;15933953528;29427876578;571045350;350167395;4402566645;131830;293741591;780;10;1551688;20;7054;1010596
3;25;1570602203542;1570602215259;11717;15561915160;29429170834;578905798;329320033;4402974315;142464;293744321;1315;41;2243512;-29;11717;1705396
3;26;1570602215259;1570602235267;20008;15537900642;29424748625;582726939;328934222;4401498679;136568;293728575;2276;45;4216128;-39;20009;2746634
3;27;1570602235268;1570602240364;5096;15753574908;29424951828;581057767;345486281;4401720322;117704;293670217;525;1;1033816;47;5097;713019
3;28;1570602240365;1570602246534;6169;15548605216;29054894332;553270226;318368512;4278365833;113401;289715255;625;3;1234608;15;6169;884989
3;29;1570602246534;1570602257524;10990;15288215530;28982690736;551151001;303742344;4254327379;126009;289020522;1244;40;2125912;-11;10990;1600127
3;30;1570602257524;1570602268599;11075;15252861776;28982706398;553528517;302479284;4254330831;121027;289017492;1111;4;2201072;9;11075;1587645
3;31;1570602268599;1570602283963;15364;15061952760;28989441825;560351778;296088925;4256577763;110028;289011927;1675;10;3286512;2;15364;2068028
3;32;1570602283963;1570602288874;4911;15355775570;28982791620;547529979;309598896;4254352047;112771;289013262;665;42;899048;1;4911;735824
3;33;1570602288874;1570602299019;10145;15316606982;28982518692;549359289;305398645;4254299033;122109;288997702;1062;10;2075064;-6;10145;1453242
3;34;1570602299019;1570602309146;10127;15240195838;28984447152;550976238;303064474;4254986569;111980;288981879;1125;14;2210176;-5;10127;1455134
3;35;1570602309146;1570602328998;19852;15316253662;28986685418;551895420;305023181;4255734309;112894;288979174;2160;70;3897256;5;19852;2776312
3;36;1570602328998;1570602334266;5268;15374229824;28982178285;547508346;311346967;4254233131;105509;288980125;563;6;1097944;-19;5268;756699
3;37;1570602334266;1570602340903;6637;15706361866;28984443732;538937721;329383857;4254985947;109887;288978763;777;12;1513232;23;6637;953533
3;38;1570602340903;1570602351873;10970;15595336750;28986705121;544274851;318145147;4255737942;116963;288983863;1308;33;2124784;1;10970;1595439
3;39;1570602351873;1570602362885;11012;15158204866;28982237825;552827457;296470705;4254244603;121391;288986258;1129;9;2182616;-8;11013;1582013
3;40;1570602362885;1570602377454;14569;15629895534;28982205791;542431012;325851778;4254239658;109010;288981164;1620;15;3119792;4;14568;1983090
3;41;1570602377454;1570602383398;5944;15927258114;28988935224;535151992;335338743;4256485676;111466;288977731;779;53;1128896;-3;5945;871438
3;42;1570602383399;1570602394263;10864;15357432816;28982176717;552794410;305757075;4254233733;107796;288976019;1143;9;2201792;9;10864;1560772
3;43;1570602394263;1570602404230;9967;15103853592;28982199719;557910229;293802449;4254240379;121192;288988832;1129;13;2170104;-9;9968;1432221
3;44;1570602404230;1570602422591;18361;15161506656;28988913148;557073946;301735438;4256482983;111210;288978734;2052;71;3598096;-12;18360;2571012
3;45;1570602422591;1570602427848;5257;15369089894;28982160217;551033088;313892652;4254232507;105071;288980067;600;6;1139464;8;5257;753832
3;46;1570602427848;1570602435648;7800;15303954768;28982156131;550953631;305762216;4254231725;111450;288982282;894;12;1705000;2;7800;1120235
3;47;1570602435648;1570602448142;12494;15266738784;28984415135;552620122;301450337;4254983426;120776;288986907;1467;67;2428496;-15;12494;1804973
3;48;1570602448142;1570602466196;18054;15087471808;28986657150;558773963;294053067;4255731832;111512;288978284;1985;40;3785544;11;18054;2404742
3;49;1570602466196;1570602470948;4752;15637483884;28982155431;542717483;325128489;4254231713;108607;288981568;487;10;937248;-4;4752;684037
3;50;1570602470948;1570602478217;7269;15757143732;28984409793;536784012;324657351;4254982395;116028;288979738;898;57;1376088;12;7270;1062227
3;51;1570602478217;1570602489078;10861;15120113612;28986771240;555300222;294897063;4255754218;116879;288982643;1163;30;2222032;-11;10860;1560805
3;52;1570602489078;1570602499657;10579;14975831594;28925970739;544485486;273188023;4185995008;111971;289003626;1189;21;2265952;-5;10580;1518731
3;53;1570602499658;1570602516736;17078;15360570794;28925510047;537159091;301654111;4185299078;114917;289021563;1959;71;3296720;25;17078;2446317
3;54;1570602516736;1570602522585;5849;15207503664;28929645238;537994150;296289281;4186734410;111040;289025000;673;7;1263416;-1;5849;838660
3;55;1570602522585;1570602532154;9569;15008226804;28684577474;516089742;278342984;4087402761;116604;280090688;1119;61;1999792;116;9569;1393720
3;56;1570602532154;1570602546157;14003;14930177248;28672889947;517949491;267034665;4082442952;124100;279616062;1776;34;2318184;-140;14003;2056888
3;57;1570602546157;1570602561153;14996;15258995382;28671753445;510250942;293706584;4082066127;102676;279607057;1729;32;3230872;5;14996;2080662
3;58;1570602561153;1570602566638;5485;15223723972;28671747764;510837081;290318778;4082064915;102975;279604802;775;51;989936;18;5486;858743
3;59;1570602566638;1570602578154;11516;15107059460;28672889989;515227863;278374018;4082442867;120911;279611967;1225;18;2284760;-8;11515;1657767
3;60;1570602578154;1570602587363;9209;14904916328;28671753554;520606443;269240105;4082066121;105301;279610709;1064;20;1994016;-8;9209;1322570
3;61;1570602587363;1570602607339;19976;15185319694;28671753214;510361165;288319659;4082066022;104836;279604395;2298;94;3967728;-9;19977;2705359
3;62;1570602607340;1570602612389;5049;15244706508;28672904220;507965494;293077450;4082447133;99018;279602212;581;15;1054128;27;5049;725001
3;63;1570602612389;1570602618615;6226;15275580252;28671781834;507219920;292425273;4082072569;102912;279605965;766;15;1426504;2;6226;891316
3;64;1570602618615;1570602629779;11164;15009536132;28671753136;514584035;277562804;4082066126;107358;279602856;1317;75;2162560;-19;11164;1610830
3;65;1570602629779;1570602650585;20806;15045749096;28672941077;518789608;277709558;4082456683;109085;279602908;2342;51;4316096;-102;20806;2861296
3;66;1570602650585;1570602655234;4649;15042781354;28671705334;514439901;283894154;4082060219;98919;279600387;525;21;976760;102;4650;615674
3;67;1570602655235;1570602661057;5822;15113344906;28671719334;516751264;284861793;4082063157;103567;279607144;767;66;1120928;6;5822;849576
3;68;1570602661057;1570602671963;10906;15020192088;28672889674;513395361;273973890;4082446025;114069;279606246;1182;30;2161528;2;10906;1566382
3;69;1570602671963;1570602682464;10501;15044709576;28671692984;520894891;278051829;4082058757;102658;279596728;1233;26;2273560;-17;10501;1506019
4;20;1570603000637;1570603007850;7213;15880647760;29424569029;578063857;349280814;4401456385;134709;293741789;759;3;1527896;9;7213;1031597
4;21;1570603007850;1570603019042;11192;15718317660;29427976486;579692187;336908461;4402588789;149485;293745589;1107;3;2231368;-19;11191;1609399
4;22;1570603019042;1570603040329;21287;15629087570;29429012823;581541640;332343269;4402946799;147539;293745542;2353;35;4199592;-17;21288;2978269
4;23;1570603040329;1570603045217;4888;15815211144;29424530859;577069071;348825344;4401450909;125363;293737814;559;3;1109112;34;4888;697334
4;24;1570603045217;1570603050899;5682;15493660014;29427869334;589954860;334166450;4402568269;127781;293736562;597;4;1194736;-21;5681;816306
4;25;1570603050899;1570603061623;10724;15579264924;29429173431;584756612;330600339;4402977940;143485;293744024;1219;54;2066328;-7;10724;1554766
4;26;1570603061623;1570603072662;11039;15371607372;29424770285;582817770;319599085;4401505702;139212;293724352;1302;22;2204792;21;11040;1618004
4;27;1570603072662;1570603089089;16427;15556725152;29424971733;586582540;337167722;4401723232;120158;293667259;1723;19;3430240;-1;16427;2213600
4;28;1570603089090;1570603094130;5040;15601987488;29342832365;579790392;333783699;4374350932;117170;293668474;503;9;992624;10;5040;723902
4;29;1570603094130;1570603104145;10015;15752872940;29320110251;567221985;333877956;4366808678;135307;293674667;1178;42;1949000;-20;10016;1461044
4;30;1570603104145;1570603115362;11217;15628775422;29320124989;570821607;328623931;4366812079;130666;293673477;1127;8;2242352;-7;11216;1606485
4;31;1570603115362;1570603133618;18256;15551173940;29326899838;575707191;328219268;4369068691;119318;293669252;2067;99;3791784;25;18257;2565652
4;32;1570603133618;1570603138252;4634;15213482364;28982842842;555831374;302496467;4254358098;113512;289008975;487;8;952664;-7;4634;663685
4;33;1570603138253;1570603147452;9199;15321683986;28982475684;548609558;309559574;4254290150;117079;288989656;1017;9;1989856;7;9199;1318142
4;34;1570603147452;1570603157827;10375;15348097430;28984475950;548629758;305561600;4254991182;123520;288983396;1060;7;2071272;-4;10376;1486302
4;35;1570603157827;1570603178721;20894;15183349278;28986722843;554604826;297151582;4255740512;126665;288984492;2258;86;4137712;-25;20894;2969171
4;36;1570603178721;1570603183751;5030;15277459710;28982212828;552527538;306888153;4254238893;110999;288982138;561;6;1098968;15;5030;720050
4;37;1570603183752;1570603190030;6278;15447140618;28984457670;545812766;315697387;4254987888;107551;288977156;710;8;1368944;-6;6279;899531
4;38;1570603190031;1570603201220;11189;15274197778;28986725760;554092132;299239769;4255741174;127495;288986493;1272;75;2195792;-3;11190;1614695
4;39;1570603201220;1570603212132;10912;15157213964;28982233840;550031216;295502163;4254243391;114453;288976573;1135;13;2202944;17;10911;1565011
4;40;1570603212132;1570603227038;14906;15548055672;28982237881;546484232;317018940;4254244862;107789;288977404;1740;91;3070192;-10;14907;2032889
4;41;1570603227038;1570603232467;5429;15833316166;28988946399;535345641;329663115;4256487138;107365;288972004;569;8;1102088;7;5429;775366
4;42;1570603232467;1570603241859;9392;15283167872;28982188800;549032191;303013453;4254235458;109646;288974924;1051;15;2030920;5;9392;1347486
4;43;1570603241859;1570603253071;11212;15122762782;28982219638;553352478;291124909;4254243387;122656;288979870;1168;18;2234688;-16;11211;1608656
4;44;1570603253071;1570603272686;19615;15177844640;28988931531;557464183;299539470;4256485840;113876;288976850;2141;85;3871624;-2;19616;2727138
4;45;1570603272686;1570603277481;4795;15430296306;28982172216;548876705;313650137;4254234070;104995;288974006;567;7;1076632;9;4795;687461
4;46;1570603277481;1570603285679;8198;15417876816;28982173249;552060893;314123407;4254234209;108027;288975460;898;22;1724920;-2;8198;1174688
4;47;1570603285679;1570603298244;12565;15490307416;28984437275;545893227;311113884;4254986829;126971;288983400;1448;69;2442360;15;12565;1822852
4;48;1570603298245;1570603315915;17670;15157726716;28986671045;555653177;298102544;4255733954;112708;288978736;1985;33;3761464;-14;17670;2489137
4;49;1570603315915;1570603320987;5072;15475571344;28982170536;548990684;317229666;4254233798;107814;288975189;696;68;952424;-12;5073;746333
4;50;1570603320987;1570603329672;8685;15090446558;28984424555;557642075;292611540;4254984605;117745;288980421;948;15;1787232;12;8684;1247635
4;51;1570603329672;1570603339525;9853;15343044078;28986779871;554537810;306940018;4255755329;110459;288975903;1138;19;2156184;14;9854;1413466
4;52;1570603339525;1570603361956;22431;15008857524;28925987283;549182208;275902894;4185997499;118487;289005391;2522;68;4378464;-125;22431;3193563
4;53;1570603361956;1570603367141;5185;15203719490;28830957572;533102292;294718780;4153789390;110820;286851579;575;10;1076288;101;5185;690669
4;54;1570603367141;1570603372040;4899;14990431010;28510967891;511147151;278355988;4047205146;99815;279604215;593;13;1122104;15;4899;704976
4;55;1570603372040;1570603383171;11131;14899874656;28511010632;511148409;269924071;4047212870;115696;279610723;1444;77;2061368;3;11131;1642914
4;56;1570603383172;1570603395570;12398;14930885202;28510976172;509745853;266861812;4047206422;118949;279612335;1460;32;2241520;7;12399;1781366
4;57;1570603395570;1570603410699;15129;15047962456;28510962643;506988995;280731645;4047203975;101938;279603431;1698;41;3218704;-13;15129;2047302
4;58;1570603410699;1570603416795;6096;15162773498;28510958127;508840850;289571860;4047203209;102283;279604910;879;72;1150408;-9;6096;917922
4;59;1570603416795;1570603426576;9781;14889267902;28510964171;507399216;268017478;4047204198;101297;279601558;1070;23;2025848;18;9780;1403944
4;60;1570603426576;1570603436276;9700;14823316198;28510960700;510072518;264474444;4047203502;111325;279604709;1094;19;2039992;-6;9701;1389794
4;61;1570603436276;1570603456952;20676;14908524280;28510968472;509469019;270339621;4047205148;110994;279607775;2333;91;4026680;-6;20676;2893094
4;62;1570603456953;1570603461661;4708;15037579812;28510996593;506894913;284215971;4047211900;100795;279607621;553;10;1005816;-9;4709;675256
4;63;1570603461661;1570603469182;7521;15235510990;28511019462;504324917;297548430;4047216442;105742;279610202;879;22;1637536;17;7520;1079781
4;64;1570603469182;1570603480503;11321;15110176706;28511199681;507814486;283368010;4047247878;126603;279648940;1324;89;2185440;-21;11322;1632165
4;65;1570603480503;1570603500460;19957;14914821990;28586583669;515251640;271688141;4072376403;116989;279619844;2263;54;4194160;8;19957;2773763
4;66;1570603500460;1570603505024;4564;15031754558;28615504837;515529032;280505504;4082067089;104374;279604358;499;21;927224;18;4564;656891
4;67;1570603505024;1570603512741;7717;15164368548;28596825873;512522409;285568853;4076832506;107324;279601702;996;73;1471848;4;7717;1125484
4;68;1570603512742;1570603522618;9876;14796906112;28492171364;511106239;263879152;4047200944;106354;279596413;1153;28;2106832;-1;9877;1419833
4;69;1570603522618;1570603533200;10582;14876986528;28492116893;515863639;267397635;4047191522;107117;279592168;1198;27;2201472;-14;10582;1518727
