0;111;1570599759445;1570599763836;4391;14563241142;28510846772;514320218;251407552;4047190203;90048;279578724;301;2;586400;0;1436;2590
0;112;1570599763837;1570599768236;4399;14579298806;28510826562;521707108;253504275;4047186718;93322;279580554;310;18;587192;3;1418;2634
0;113;1570599768236;1570599772637;4401;14587896600;28510822697;523480196;254521355;4047185868;86985;279576612;301;4;586400;0;1401;2540
0;114;1570599772637;1570599777029;4392;14571662714;28510827241;523929322;251350048;4047186739;90414;279576089;302;3;586400;-2;1468;2759
0;115;1570599777029;1570599781424;4395;14581180746;28510832136;524090159;253332765;4047188023;89740;279576265;312;13;587144;-1;1323;2575
0;116;1570599781424;1570599785821;4397;14581919214;28510855343;520836290;254710482;4047191659;90562;279578755;443;43;600464;3;1887;13697
0;117;1570599785822;1570599790214;4392;14569750114;28510826845;524028229;251420622;4047186717;91857;279576391;301;3;586400;-3;1519;2648
0;118;1570599790214;1570599794617;4403;14576605836;28510826072;520839485;252701744;4047186650;91267;279580731;302;4;586400;1;1397;2506
0;119;1570599794617;1570599799055;4438;14585823254;28510826077;523455745;255254810;4047186563;88782;279577306;306;29;587392;-1;1421;2500
0;120;1570599799055;1570599803447;4392;14571285158;28510829314;521874923;251177484;4047187443;93936;279576273;302;5;586400;3;1469;2745
0;121;1570599803447;1570599807839;4392;14580198020;28510813225;523821784;252850553;4047184231;92637;279576269;301;3;586400;-2;1314;2278
0;122;1570599807839;1570599812243;4404;14589519828;28510815753;521899930;255553933;4047185159;87061;279578086;316;11;587144;2;1390;2562
0;123;1570599812243;1570599816637;4394;14571978950;28510813767;523804442;251268473;4047184467;87459;279574576;427;35;593848;1;1900;11016
0;124;1570599816637;1570599821025;4388;14577645064;28510833625;523872996;252958861;4047188598;89115;279575071;305;4;591704;-1;1653;3228
0;125;1570599821025;1570599825423;4398;14589784234;28510875928;523760331;255196858;4047196817;90473;279577672;302;2;586400;0;1380;2460
0;126;1570599825423;1570599829813;4390;14570013060;28510902238;521769783;251822864;4047200935;90675;279575260;323;9;587208;0;1381;2789
0;127;1570599829813;1570599834230;4417;14593665060;28510898821;520089447;255180933;4047201154;94437;279588634;680;5;616984;6;4214;24325
0;128;1570599834230;1570599838627;4397;14577116106;28510845851;515992929;254884434;4047190083;91691;279577511;372;10;610864;-6;2189;9663
0;129;1570599838627;1570599843020;4393;14563052656;28510821965;517044862;251720419;4047185944;93830;279578518;309;22;587144;-3;1356;2514
0;130;1570599843020;1570599847414;4394;14565747378;28510821521;515278314;252490882;4047185974;91045;279578534;554;45;602384;1;2432;58647
0;131;1570599847414;1570599851812;4398;14576773590;28510819419;517529011;254183891;4047185541;89438;279577787;304;6;586400;0;1495;2570
0;132;1570599851812;1570599856196;4384;14556221462;28510819295;514546588;251989883;4047185439;89898;279575967;306;4;586400;0;1320;2423
0;133;1570599856196;1570599860585;4389;14562992504;28510815561;514401381;252150833;4047184675;89141;279573131;313;26;587392;-1;1399;2711
0;134;1570599860585;1570599864977;4392;14571741992;28510819168;515221085;254090433;4047185415;90157;279576531;306;7;586400;0;1382;2504
0;135;1570599864977;1570599869378;4401;14565474796;28510826100;519520568;251585636;4047186946;93104;279581787;304;5;586400;3;1368;2430
0;136;1570599869378;1570599873773;4395;14566887492;28510912969;517470869;251830174;4047201570;95874;279579649;383;25;587888;-3;1564;5519
0;137;1570599873774;1570599878170;4396;14575682678;28510819423;515911039;254370768;4047185503;91592;279579264;531;47;601904;3;2181;45664
0;138;1570599878170;1570599882558;4388;14563081710;28510818381;516457692;251943219;4047185271;90485;279576041;307;5;586400;-2;1463;2616
0;139;1570599882558;1570599886947;4389;14571968584;28510815454;514702692;251749489;4047184661;89421;279575318;304;8;586400;0;1396;2505
0;140;1570599886947;1570599891342;4395;14579602924;28510819513;516490762;254553440;4047185494;87815;279574333;317;20;587208;2;1367;2643
0;141;1570599891342;1570599895734;4392;14567432802;28510818812;515105487;251078477;4047185346;92214;279577297;304;10;586400;-3;1473;2717
0;142;1570599895734;1570599900125;4391;14580492648;28510821694;519054787;252808196;4047185870;90771;279576618;306;7;586400;0;1337;2440
0;143;1570599900125;1570599904526;4401;14552975736;28510823567;517164637;248712473;4047186320;89250;279579522;317;18;587144;0;1402;2773
0;144;1570599904526;1570599908929;4403;14569794790;28510807772;521745402;249907103;4047183418;88966;279574786;487;42;600080;1;2119;29518
0;145;1570599908929;1570599913317;4388;14568784908;28510803647;515337673;254467410;4047182679;85962;279575724;305;11;586400;0;1555;2730
0;146;1570599913317;1570599917703;4386;14561269850;28510798721;517750223;251869736;4047181682;89203;279572015;306;9;586400;-1;1396;2539
0;147;1570599917703;1570599922095;4392;14577857056;28510814498;520099100;253462084;4047184573;88860;279573555;316;30;587384;3;1403;2616
0;148;1570599922095;1570599926489;4394;14559515076;28510818951;517709445;249529341;4047185362;90791;279577999;307;8;586400;-3;1508;2875
0;149;1570599926489;1570599930883;4394;14560971280;28510826814;517264578;249320091;4047187020;88652;279577437;304;15;586400;3;1321;2296
0;150;1570599930883;1570599935271;4388;14564034652;28510819022;515663197;251408222;4047185326;91242;279574499;311;26;587152;0;1361;2552
0;151;1570599935271;1570599939664;4393;14579561752;28510819020;519141902;251566895;4047185386;86840;279575119;511;60;602608;0;2257;43389
0;152;1570599939664;1570599944055;4391;14576227988;28510815403;516993843;255041310;4047184614;88049;279574580;305;12;586400;0;1519;2686
0;153;1570599944055;1570599948446;4391;14568241350;28510819238;519199280;252301364;4047185414;90154;279574305;304;18;586400;0;1441;2601
0;154;1570599948446;1570599952838;4392;14584788698;28510818613;523824129;253707406;4047185300;84594;279571990;313;37;587392;-3;1367;2587
0;155;1570599952838;1570599957230;4392;14575391846;28510821749;514564770;254701457;4047185864;92163;279576568;304;20;586400;0;1466;2662
0;156;1570599957230;1570599961620;4390;14569546882;28510819769;524321824;251951784;4047185519;91514;279574645;305;17;586400;3;1406;2593
0;157;1570599961620;1570599966013;4393;14575507478;28510819069;522583208;252696137;4047185428;88596;279577007;311;39;587152;-2;1367;2497
0;158;1570599966013;1570599970412;4399;14584620068;28510819312;520562208;254908777;4047185516;91113;279577642;490;51;600144;0;2146;29775
0;159;1570599970412;1570599974806;4394;14568597006;28510815627;519565094;251983532;4047184755;89531;279576437;305;24;586400;-1;1484;2542
0;160;1570599974806;1570599979197;4391;14579981794;28510819353;525394287;252800144;4047185422;95212;279574759;306;20;586400;0;1449;2617
1;110;1570600625217;1570600629600;4383;14536767838;29110861949;516654059;250853696;4047189083;94625;279594776;301;0;586400;1;1397;2545
1;111;1570600629600;1570600633974;4374;14533608106;29110841100;513886847;251056710;4047185651;91531;279591422;301;1;586400;2;1358;2460
1;112;1570600633974;1570600638346;4372;14528845294;29110828670;513716109;249126660;4047183095;87432;279588086;306;15;587136;0;1387;2479
1;113;1570600638346;1570600642725;4379;14533221206;29110844583;515397660;250720354;4047185709;91905;279591963;301;0;586400;0;1344;2474
1;114;1570600642725;1570600647108;4383;14536633518;29110824196;518122091;251601769;4047182121;96145;279596180;418;44;599184;-3;1817;9776
1;115;1570600647109;1570600651477;4368;14523033618;29110821897;514673437;248758037;4047181583;92750;279589167;301;1;586400;0;1505;2599
1;116;1570600651477;1570600655860;4383;14536310420;29110829314;516906565;251139269;4047183068;92370;279592176;307;19;587216;3;1512;2729
1;117;1570600655861;1570600660241;4380;14535331490;29110824173;517372965;251600968;4047182088;93496;279593451;301;0;586400;-2;1337;2410
1;118;1570600660241;1570600664623;4382;14530620362;29110833585;517536772;249543875;4047184463;97126;279593513;301;1;586400;0;1384;2498
1;119;1570600664623;1570600669007;4384;14535033358;29110881772;516909972;250431735;4047192182;94703;279592856;307;21;587328;-1;1405;2580
1;120;1570600669007;1570600673392;4385;14540905186;29110820535;518882007;252208669;4047181563;95392;279594649;301;0;586400;3;1356;2474
1;121;1570600673392;1570600677770;4378;14527608236;29110823738;515934583;248776660;4047182404;95722;279592959;446;47;599664;-3;1952;13482
1;122;1570600677770;1570600682346;4576;14535073362;29110809919;513749589;250980307;4047179640;90767;279589047;301;0;586400;0;1506;2668
1;123;1570600682346;1570600686754;4408;14536893252;29110804693;514565897;252514729;4047178678;92350;279589372;322;5;587216;0;1497;3420
1;124;1570600686755;1570600691127;4372;14524383972;29110801599;513686854;248612460;4047178060;88269;279587521;301;0;586400;1;1418;2594
1;125;1570600691127;1570600695499;4372;14528194718;29110831001;513886157;250203016;4047183766;91201;279590116;301;2;586400;2;1384;2471
1;126;1570600695499;1570600699871;4372;14539264000;29110841101;513924806;252697700;4047186290;90979;279590486;306;15;587136;-2;1455;2641
1;127;1570600699871;1570600704340;4469;14521322644;29110879026;513784165;248602782;4047193451;95108;279592514;301;1;586400;2;1364;2495
1;128;1570600704340;1570600708724;4384;14532892998;29110848523;517968414;250252424;4047186577;95369;279594700;452;42;599600;-1;1889;14760
1;129;1570600708724;1570600713101;4377;14541238796;29110817563;514987020;252371657;4047180984;93233;279591362;301;1;586400;1;1541;2704
1;130;1570600713101;1570600717467;4366;14519579404;29110814829;513980867;248718516;4047180380;93837;279589507;308;24;587408;-3;1504;2735
1;131;1570600717467;1570600721850;4383;14531059968;29110823764;518036498;250092272;4047182263;95321;279591726;301;1;586400;0;1373;2485
1;132;1570600721851;1570600726231;4380;14539852088;29110817653;515353107;252166717;4047181015;90717;279590324;302;0;586400;1;1394;2595
1;133;1570600726231;1570600730629;4398;14547729080;29110814959;516065575;252677112;4047180589;95260;279594870;671;21;620368;5;4170;23690
1;134;1570600730629;1570600735007;4378;14536788862;29110822536;514276803;250822924;4047181929;90459;279590268;371;10;596248;-6;2094;8845
1;135;1570600735007;1570600739389;4382;14543692764;29110873107;516840118;252007872;4047190816;90202;279592827;467;47;600304;3;1984;21406
1;136;1570600739390;1570600743762;4372;14534315768;29110856921;521486429;250579468;4047187603;90441;279589046;303;2;586400;-3;1549;2732
1;137;1570600743762;1570600748140;4378;14532904240;29110821557;519198173;250294978;4047181670;91424;279588851;319;12;587224;1;1496;2764
1;138;1570600748140;1570600752515;4375;14536011704;29110814909;513504686;251272568;4047180405;94349;279589217;303;2;586400;0;1356;2550
1;139;1570600752515;1570600756988;4473;14534686316;29110817199;520665599;250391772;4047180852;86887;279586751;303;4;586400;-1;1359;2459
1;140;1570600756988;1570600761367;4379;14537951460;29110821626;520078250;250824664;4047181787;90694;279590158;384;15;587936;2;1670;6660
1;141;1570600761368;1570600765843;4475;14540201758;29110815481;522099730;252237865;4047180576;94259;279588459;302;7;586400;-2;1312;2392
1;142;1570600765843;1570600770619;4776;14535613124;29110818230;515620792;251149947;4047181013;92754;279588311;459;38;599536;0;1953;14174
1;143;1570600770620;1570600775005;4385;14530389390;29110826220;519659353;249266111;4047182853;90686;279593356;303;5;586400;3;1500;2593
1;144;1570600775005;1570600779582;4577;14533863752;29110815974;518887249;251071718;4047180718;91236;279590201;317;23;587360;-3;1510;2908
1;145;1570600779582;1570600783960;4378;14547066532;29110804600;524263618;252647932;4047178612;93902;279586157;304;5;586400;0;1335;2372
1;146;1570600783960;1570600788532;4572;14529107510;29110806121;518206952;249276047;4047178972;90046;279587568;303;8;586400;3;1371;2490
1;147;1570600788533;1570600793009;4476;14532293814;29110800192;516048699;250756964;4047177938;90633;279586714;309;22;587144;-3;1428;2635
1;148;1570600793009;1570600797496;4487;14538773732;29110815127;521941191;252538933;4047180584;91183;279589267;303;7;586400;0;1352;2465
1;149;1570600797496;1570600802171;4675;14530269962;29110820815;522078607;250108498;4047181563;92998;279589241;462;50;600432;3;2033;18351
1;150;1570600802171;1570600806549;4378;14524696120;29110816823;518860800;250080781;4047181009;92464;279591123;312;25;587216;-3;1541;2689
1;151;1570600806549;1570600811027;4478;14533784182;29110818770;515949423;252191209;4047181221;89938;279591351;305;8;586400;1;1401;2529
1;152;1570600811028;1570600815706;4678;14524772624;29110822767;517407222;250271255;4047182044;92422;279591079;304;7;586400;-1;1367;2552
1;153;1570600815706;1570600820279;4573;14529850504;29110815901;524497628;250435349;4047180645;95182;279589897;305;10;586400;0;1425;2549
1;154;1570600820279;1570600824755;4476;14534410668;29110819550;520551136;251839219;4047181348;90296;279588622;310;29;587328;0;1451;2832
1;155;1570600824756;1570600829130;4374;14531830848;29110820743;524755170;251705822;4047181520;93390;279589881;305;11;586400;0;1351;2486
1;156;1570600829130;1570600833504;4374;14525263476;29110814910;523643994;249902402;4047180518;95661;279591539;460;47;599536;0;1942;15788
1;157;1570600833504;1570600838098;4594;14529879266;29110817445;519894690;250875270;4047181041;87659;279593158;329;13;587216;1;1550;3748
1;158;1570600838098;1570600842781;4683;14533644314;29110823128;516894809;252283650;4047182027;93837;279592107;304;10;586400;-1;1421;2591
1;159;1570600842781;1570600847356;4575;14523775152;29110814605;519961109;249031213;4047180419;95954;279592497;306;14;586400;3;1382;2555
2;111;1570601479852;1570601484229;4377;14537730562;28510823277;514864697;249924089;4047186641;90127;279578945;301;1;586400;2;1438;2551
2;112;1570601484229;1570601488613;4384;14540914968;28510810262;516049518;249661611;4047184063;89705;279579745;301;0;586400;0;1377;2505
2;113;1570601488613;1570601492991;4378;14548338922;28510825006;514356098;251887588;4047186328;90007;279577688;305;19;587136;-2;1386;2525
2;114;1570601492991;1570601497369;4378;14541935508;28510805822;515232693;250253593;4047182857;92788;279578266;301;0;586400;-1;1386;2504
2;115;1570601497370;1570601501746;4376;14537530980;28510802603;514274504;249597100;4047182234;91102;279577611;301;2;586400;1;1327;2436
2;116;1570601501746;1570601506129;4383;14550415772;28510811240;514369973;252184986;4047183987;87669;279579210;412;47;599088;2;1741;9331
2;117;1570601506129;1570601510520;4391;14546388946;28510806290;519671805;249939741;4047183164;91808;279582306;308;21;587224;-3;1534;2708
2;118;1570601510521;1570601514899;4378;14538060960;28510814245;515473107;249271829;4047185129;90787;279580050;301;1;586400;3;1437;2575
2;119;1570601514899;1570601519291;4392;14556931168;28510862095;517475494;251253799;4047192819;93282;279579140;301;2;586400;0;1355;2471
2;120;1570601519292;1570601523676;4384;14546657294;28510802545;517330690;250467123;4047182448;92822;279579890;310;18;587320;-3;1357;2444
2;121;1570601523676;1570601528051;4375;14540428496;28510792662;514121004;250464031;4047181069;91427;279575955;302;2;586400;3;1412;2572
2;122;1570601528051;1570601532438;4387;14548061376;28510790442;516468790;251503744;4047180399;90972;279578541;301;2;586400;-3;1361;2439
2;123;1570601532438;1570601536822;4384;14546265138;28510785480;516647957;250857102;4047179422;85668;279576724;425;43;598896;0;1836;10861
2;124;1570601536822;1570601541196;4374;14541098782;28510795820;514292938;249719100;4047181136;91641;279577035;316;13;583560;2;1646;3031
2;125;1570601541196;1570601545576;4380;14554348136;28510811392;514108671;252467492;4047184428;90006;279578678;335;5;577968;9;2048;6723
2;126;1570601545576;1570601549969;4393;14564186492;28510833178;515474277;254543399;4047189823;91551;279583833;709;11;641576;-8;4253;26272
2;127;1570601549969;1570601554362;4393;14547783538;28510906876;519392468;249106683;4047202495;94633;279581409;310;22;587136;-3;1419;2595
2;128;1570601554362;1570601558745;4383;14545227078;28510827665;515183857;251101487;4047186904;92584;279579961;305;3;586400;0;1387;2560
2;129;1570601558746;1570601563122;4376;14541431078;28510798415;514593020;251288779;4047181728;90511;279576981;304;8;586400;0;1343;2450
2;130;1570601563122;1570601567502;4380;14539692072;28510794855;515276989;249246107;4047181092;89328;279578522;477;53;601616;3;1935;20993
2;131;1570601567502;1570601571890;4388;14553961528;28510801925;519720050;251397038;4047182521;89573;279579579;313;23;587216;-1;1525;2730
2;132;1570601571890;1570601576275;4385;14553785890;28510798021;516877571;252476660;4047181658;92473;279577533;305;3;586400;-1;1445;2606
2;133;1570601576275;1570601580657;4382;14546259736;28510794983;520768849;249658996;4047181138;84533;279576708;303;9;586400;2;1310;2337
2;134;1570601580657;1570601585042;4385;14558552498;28510801539;524594919;251707778;4047182398;89049;279576623;386;23;587912;-3;1627;5546
2;135;1570601585042;1570601589426;4384;14562205272;28510797728;525525146;252593497;4047181578;89708;279576353;302;9;586400;0;1527;3382
2;136;1570601589427;1570601593910;4483;14545099328;28510886534;517856943;249229566;4047196798;93454;279579230;305;4;586400;2;1383;2577
2;137;1570601593910;1570601598298;4388;14561023402;28510799148;524706713;251952316;4047181976;91719;279577490;466;54;600912;1;2026;19703
2;138;1570601598298;1570601602684;4386;14554548010;28510797900;522088624;252248414;4047181710;89406;279578553;315;25;587392;-3;1579;2817
2;139;1570601602684;1570601607072;4388;14544172812;28510795143;521875895;248972065;4047181268;88381;279578493;303;11;586400;0;1450;2546
2;140;1570601607072;1570601611459;4387;14551834600;28510801149;522981594;251034142;4047182344;92083;279578413;305;5;586400;0;1349;2475
2;141;1570601611459;1570601615840;4381;14550573160;28510797537;515049427;252497847;4047181517;88815;279576534;315;21;587144;0;1487;2743
2;142;1570601615840;1570601620321;4481;14549587952;28510794812;517961686;249633175;4047181035;91757;279576192;305;7;586400;3;1349;2550
2;143;1570601620321;1570601624805;4484;14552000456;28510805780;514145824;251761310;4047183246;90450;279576991;303;11;586400;0;1357;2435
2;144;1570601624805;1570601629188;4383;14567452074;28510786243;525678576;254028600;4047179575;92019;279575572;428;59;599856;-3;1808;13190
2;145;1570601629188;1570601633592;4404;14543296082;28510778153;518636451;249518669;4047178120;90545;279576139;326;16;587216;0;1552;3020
2;146;1570601633592;1570601637977;4385;14561209552;28510785810;525664653;251512965;4047179596;88445;279575084;305;10;586400;0;1471;2692
2;147;1570601637977;1570601642361;4384;14558624038;28510792953;519311275;253592342;4047180770;89645;279577719;303;17;586400;0;1370;2456
2;148;1570601642361;1570601646742;4381;14537738592;28510794122;515955919;248467762;4047180946;89863;279577954;325;12;587136;0;1357;2579
2;149;1570601646742;1570601651128;4386;14544768784;28510800956;517811141;249630131;4047182320;93147;279579470;303;18;586400;0;1342;2312
2;150;1570601651128;1570601655518;4390;14564257448;28510797096;522877170;253930069;4047181508;87614;279577534;305;11;586400;1;1323;2453
2;151;1570601655518;1570601659891;4373;14535751240;28510794239;514919732;248607549;4047180913;90631;279576783;416;67;599088;-1;1740;9042
2;152;1570601659891;1570601664290;4399;14554163300;28510803271;515144761;250533328;4047182804;87471;279577000;315;33;587408;0;1610;3195
2;153;1570601664290;1570601668677;4387;14556202190;28510797816;516797746;252984663;4047181714;93513;279579320;303;18;586400;0;1432;2529
2;154;1570601668678;1570601673070;4392;14546148630;28510794536;519454624;248534464;4047181125;90937;279578813;305;13;586400;0;1310;2405
2;155;1570601673070;1570601677463;4393;14547387732;28510801169;519342691;249812705;4047182420;94807;279579510;317;25;587136;0;1344;2433
2;156;1570601677463;1570601681852;4389;14553760194;28510797774;517781229;252352853;4047181719;93188;279579166;305;14;586400;0;1348;2470
2;157;1570601681852;1570601686230;4378;14539535852;28510794478;515086877;249225642;4047180990;91288;279576645;303;19;586400;0;1357;2436
2;158;1570601686230;1570601690605;4375;14540184968;28510801154;514153181;250285689;4047182278;88632;279577302;417;72;599472;3;1763;9557
2;159;1570601690605;1570601694984;4379;14549774978;28510797244;514676608;252564754;4047181487;88651;279578402;314;37;587224;-2;1578;2859
2;160;1570601694984;1570601699368;4384;14542893268;28510794348;516433188;249318946;4047180974;88369;279577675;305;15;586400;-1;1415;2511
3;111;1570602326844;1570602331223;4379;14543186874;28510819810;515348747;250503019;4047184238;86468;279582985;301;0;586400;0;1433;2550
3;112;1570602331223;1570602335605;4382;14555307064;28510807926;515417112;252436084;4047181827;90367;279582685;301;0;586400;2;1331;2385
3;113;1570602335605;1570602339986;4381;14546794096;28510822663;515407582;252643350;4047184191;87921;279583997;305;17;587136;0;1406;2612
3;114;1570602339987;1570602344363;4376;14539564906;28510803009;515435478;250224418;4047180612;86373;279582401;301;0;586400;-3;1367;2453
3;115;1570602344363;1570602348749;4386;14552806522;28510801356;516833154;252140184;4047180387;84790;279582299;301;0;586400;0;1342;2412
3;116;1570602348749;1570602353143;4394;14555615708;28510807361;519000895;252218488;4047181582;88792;279585409;426;60;601840;3;1822;11034
3;117;1570602353143;1570602357534;4391;14551961036;28510803281;516871028;249750610;4047180744;86865;279583112;307;21;587224;-3;1542;2645
3;118;1570602357534;1570602361916;4382;14555653376;28510812376;515424388;252356307;4047183044;87233;279583677;300;2;586400;3;1447;2527
3;119;1570602361916;1570602366294;4378;14544362904;28510859664;515492596;252694102;4047190568;90020;279584026;300;2;586400;-1;1357;2392
3;120;1570602366294;1570602370678;4384;14542448698;28510799308;517584592;249881576;4047180116;90111;279583157;317;5;587136;-2;1341;2501
3;121;1570602370678;1570602375068;4390;14553198970;28510790402;518402530;251459878;4047178980;86426;279584427;300;2;586400;3;1334;2326
3;122;1570602375069;1570602379460;4391;14558621264;28510788222;518128129;253016519;4047178288;88890;279582315;300;3;586400;0;1363;2458
3;123;1570602379461;1570602383849;4388;14553746178;28510782334;517033821;249954331;4047177131;91294;279583996;407;53;599408;0;1706;9227
3;124;1570602383849;1570602388235;4386;14552397284;28510794082;516596798;251395742;4047179170;84454;279581230;311;23;587400;-3;1551;2760
3;125;1570602388235;1570602392635;4400;14562115044;28510809011;520438179;252270557;4047182458;93117;279588616;300;3;586400;0;1672;3457
3;126;1570602392635;1570602397025;4390;14551368568;28510829008;522899299;249989005;4047187261;94522;279588112;300;2;586400;3;1402;2563
3;127;1570602397025;1570602401422;4397;14553152980;28510905157;520498066;250991965;4047200522;95952;279586583;314;11;587136;-3;1410;2890
3;128;1570602401422;1570602405810;4388;14565363252;28510824602;526808562;253917149;4047184585;90024;279584176;300;3;586400;3;1419;2595
3;129;1570602405810;1570602410202;4392;14567414552;28510794374;524910899;252224958;4047179315;91623;279584454;363;6;585656;1;1982;7127
3;130;1570602410202;1570602414637;4435;14585428908;28510793092;518605772;254893094;4047179411;93296;279592472;784;64;641880;-3;4432;36501
3;131;1570602414637;1570602419024;4387;14569970866;28510800444;521876401;253317946;4047180442;88689;279582245;313;22;588984;-1;1601;3154
3;132;1570602419024;1570602423403;4379;14542164290;28510794606;516381795;250432909;4047179282;89004;279582146;302;5;586400;0;1468;2583
3;133;1570602423403;1570602427787;4384;14554979294;28510792328;518384557;252022665;4047178837;88927;279580570;301;8;586400;0;1366;2390
3;134;1570602427787;1570602432169;4382;14550888812;28510798561;515423678;252958493;4047180050;89525;279582481;309;24;587328;3;1339;2451
3;135;1570602432169;1570602436551;4382;14550071066;28510795058;517941027;250717466;4047179347;87003;279581340;301;8;586400;0;1349;2396
3;136;1570602436551;1570602440938;4387;14556194452;28510891939;520960921;253024146;4047195960;86880;279583073;302;6;586400;-1;1366;2478
3;137;1570602440938;1570602445324;4386;14557945138;28510798452;520931734;253417210;4047180058;86765;279582817;422;54;599856;1;1848;12636
3;138;1570602445324;1570602449703;4379;14556112108;28510794054;523001593;251713157;4047179180;86778;279581485;385;23;587976;-3;1907;8036
3;139;1570602449703;1570602454087;4384;14562210966;28510792067;520717145;253358480;4047178804;85101;279581350;303;6;586400;0;1436;2550
3;140;1570602454087;1570602458474;4387;14558157860;28510807191;518710077;253540536;4047181553;87647;279581297;303;5;586400;0;1367;2517
3;141;1570602458474;1570602462856;4382;14553830858;28510794801;523091929;251664716;4047179298;84093;279580993;319;13;587144;0;1447;2948
3;142;1570602462856;1570602467235;4379;14551998412;28510791831;519222333;252897678;4047178763;86014;279580436;303;5;586400;0;1341;2424
3;143;1570602467235;1570602471621;4386;14550456214;28510802454;516169069;253105591;4047180895;89264;279582146;302;10;586400;1;1354;2422
3;144;1570602471621;1570602476002;4381;14547378096;28510782146;516570961;249496278;4047177070;87824;279580967;441;63;601584;-1;1903;14069
3;145;1570602476002;1570602480412;4410;14577133334;28510775519;525012264;253189399;4047175905;85269;279580946;320;23;587400;0;1603;2929
3;146;1570602480412;1570602484798;4386;14553076330;28510783897;515540827;253098869;4047177472;85720;279580815;303;11;586400;1;1479;2642
3;147;1570602484798;1570602489178;4380;14547525118;28510790022;518723188;250210883;4047178463;89729;279580788;303;10;586400;2;1395;2539
3;148;1570602489178;1570602493562;4384;14556012682;28510791210;517561942;251565653;4047178626;91854;279581545;308;28;587136;-3;1342;2395
3;149;1570602493563;1570602497949;4386;14563286110;28510799207;518181773;254507899;4047180193;92071;279582782;302;14;586400;0;1345;2338
3;150;1570602497949;1570602502325;4376;14538420266;28510791728;516496711;250113110;4047178773;88243;279582480;303;12;586400;3;1350;2437
3;151;1570602502325;1570602506707;4382;14548612088;28510793682;517047047;251358538;4047179084;92646;279583995;418;59;598736;-3;1760;9962
3;152;1570602506707;1570602511109;4402;14559683706;28510798432;519475050;254366116;4047180010;86637;279581924;326;18;587224;0;1576;3304
3;153;1570602511109;1570602515492;4383;14556873060;28510791630;519420440;251068980;4047178738;88991;279581139;303;15;586400;0;1459;2518
3;154;1570602515492;1570602519976;4484;14553680624;28510793484;522831636;252269726;4047179050;84216;279581429;303;19;586400;0;1349;2404
3;155;1570602519976;1570602524362;4386;14565269958;28510798491;516996680;254795776;4047180041;88159;279582396;313;37;587320;1;1452;2591
3;156;1570602524362;1570602528741;4379;14535919286;28510791814;518025634;250194195;4047178800;87717;279582781;303;24;586400;-1;1332;2331
3;157;1570602528741;1570602533122;4381;14541466848;28510793675;515669004;250317705;4047179078;90865;279581612;303;23;586400;0;1389;2472
3;158;1570602533122;1570602537505;4383;14553861664;28510798241;517332849;254061244;4047179978;87558;279580587;426;71;599792;0;1704;9987
3;159;1570602537505;1570602541932;4427;14537422064;28510791981;517250404;250849184;4047178820;88632;279582733;321;33;587216;0;1578;3119
3;160;1570602541932;1570602546313;4381;14546556262;28510794181;516646842;251207269;4047179183;89570;279582390;304;24;586400;0;1403;2479
4;112;1570603181536;1570603185920;4384;14547282028;29110843678;519848375;250682276;4047185382;88335;279598972;302;1;586400;0;1345;2365
4;113;1570603185920;1570603190309;4389;14566735506;29110851902;524407575;253860493;4047186465;89382;279601187;301;0;586400;0;1346;2392
4;114;1570603190309;1570603194703;4394;14582757108;29110833125;521986783;256284688;4047183068;90688;279598766;411;66;587968;6;1632;8225
4;115;1570603194703;1570603199089;4386;14568201200;29110836451;526944891;252790039;4047183718;87456;279596924;307;1;598128;-8;1619;3420
4;116;1570603199089;1570603203476;4387;14556581936;29110836427;515749829;251964811;4047183702;92448;279599341;302;2;586400;-1;1499;2623
4;117;1570603203476;1570603207866;4390;14569954952;29110839992;517103074;255442384;4047184376;92736;279599685;308;19;587208;1;1358;2431
4;118;1570603207867;1570603212252;4385;14556329940;29110847965;524146406;251326617;4047186498;95693;279602188;302;2;586400;2;1371;2495
4;119;1570603212252;1570603216645;4393;14561231744;29110889108;524298775;253061357;4047192980;93617;279600123;301;0;586400;0;1460;2730
4;120;1570603216645;1570603221035;4390;14575949128;29110829370;524511205;256036400;4047182477;87415;279596413;302;2;586400;-3;1378;2541
4;121;1570603221035;1570603225420;4385;14560098784;29110823716;524212650;252225733;4047181933;92477;279596990;439;45;583160;12;1645;10425
4;122;1570603225421;1570603229809;4388;14552822728;29110816217;516086093;252488714;4047180274;93580;279596946;311;1;603992;-11;1875;5060
4;123;1570603229809;1570603234196;4387;14560973032;29110818629;515772166;255386196;4047180667;89366;279594232;301;1;586400;2;1443;2575
4;124;1570603234196;1570603238583;4387;14554916368;29110832044;517588258;250682908;4047183008;93549;279598959;312;23;587216;0;1358;2516
4;125;1570603238583;1570603242968;4385;14555508252;29110838501;516242143;251850254;4047184589;94381;279599007;301;2;586400;0;1389;2556
4;126;1570603242968;1570603247357;4389;14565617146;29110854040;515365507;256647795;4047188149;91037;279599137;536;53;599848;9;3096;36128
4;127;1570603247357;1570603251846;4489;14572988978;29110889297;516733442;254810406;4047194771;92798;279601678;611;11;629448;-9;4489;31868
4;128;1570603251846;1570603256232;4386;14557029718;29110856018;515756106;252380605;4047187219;90749;279598646;316;9;587136;-1;1450;2690
4;129;1570603256232;1570603260622;4390;14562543992;29110830078;515306530;254512042;4047182722;91776;279599430;303;2;586400;1;1334;2443
4;130;1570603260622;1570603265006;4384;14553066110;29110832943;517584910;251517901;4047183230;87562;279598863;305;1;586400;-3;1382;2491
4;131;1570603265006;1570603269393;4387;14557047530;29110829852;514903443;251488458;4047182619;90432;279597882;316;20;587400;0;1402;2703
4;132;1570603269393;1570603273784;4391;14567529746;29110829712;518062272;254657654;4047182677;90784;279595645;303;2;586400;1;1344;2443
4;133;1570603273784;1570603278163;4379;14547910704;29110826144;515901020;252151994;4047181930;93712;279598200;457;51;601104;-1;1921;15338
4;134;1570603278163;1570603282547;4384;14559110802;29110830020;518802824;253453824;4047182684;95640;279596454;303;3;586400;1;1484;2627
4;135;1570603282547;1570603286936;4389;14568669714;29110829513;521153596;256073124;4047182610;91343;279597639;381;23;587888;2;1809;7163
4;136;1570603286937;1570603291324;4387;14549471736;29110923286;518331015;251664180;4047198727;92056;279601327;303;3;586400;-3;1354;2501
4;137;1570603291325;1570603295710;4385;14556194890;29110830123;518773990;252829285;4047182705;90207;279596617;303;5;586400;1;1395;2508
4;138;1570603295710;1570603300101;4391;14575880654;29110829477;524905007;256443545;4047182615;86747;279594350;314;18;587216;-1;1367;2540
4;139;1570603300101;1570603304485;4384;14554455154;29110829334;521066244;252778580;4047182565;89338;279599575;303;4;586400;1;1313;2416
4;140;1570603304485;1570603308895;4410;14549060162;29110825906;516426048;251603486;4047181890;92865;279598586;448;52;600784;0;1839;14273
4;141;1570603308895;1570603313282;4387;14565334198;29110829753;520323794;254298253;4047182645;92855;279595762;303;4;586400;0;1510;2610
4;142;1570603313282;1570603317668;4386;14551748606;29110829683;515492349;251915982;4047182648;93640;279599841;308;24;587320;0;1429;2542
4;143;1570603317668;1570603322059;4391;14563725570;29110837310;522250018;252815257;4047184174;90656;279597607;303;4;586400;2;1363;2510
4;144;1570603322059;1570603326449;4390;14568575544;29110815458;518243497;254765146;4047180133;92458;279598383;303;6;586400;0;1408;2556
4;145;1570603326449;1570603330835;4386;14552484738;29110812959;515328268;252293064;4047179723;91389;279598857;320;13;587216;0;1404;2634
4;146;1570603330835;1570603335224;4389;14555065288;29110810611;514941558;250629055;4047179185;91203;279598039;303;5;586400;-3;1285;2344
4;147;1570603335224;1570603339613;4389;14565851184;29110826749;519057058;254479447;4047182103;92448;279600800;400;59;599472;3;1803;8840
4;148;1570603339613;1570603344000;4387;14551705828;29110829274;517017140;252167018;4047182604;89347;279596097;304;5;586400;-3;1527;2691
4;149;1570603344000;1570603348383;4383;14551940012;29110832137;518074911;252004356;4047183093;92836;279599329;306;35;587328;0;1476;2649
4;150;1570603348383;1570603352768;4385;14555691190;29110829903;519078578;254635523;4047182662;92966;279597589;303;7;586400;0;1391;2531
4;151;1570603352768;1570603357156;4388;14562543408;29110829375;519400353;253241140;4047182606;92885;279597595;303;14;586400;0;1320;2284
4;152;1570603357156;1570603361542;4386;14553358694;29110829400;516858992;251636826;4047182576;91088;279594561;315;24;587216;1;1371;2641
4;153;1570603361542;1570603365930;4388;14555437734;29110825983;516974416;253715778;4047181924;90516;279595394;304;13;586400;-1;1351;2482
4;154;1570603365930;1570603370314;4384;14547191070;29110830690;519578991;250033472;4047182862;93863;279600194;393;65;599664;0;1809;8085
4;155;1570603370314;1570603374702;4388;14546604588;29110829829;516701504;249412740;4047182705;88990;279599123;304;15;586400;0;1483;2608
4;156;1570603374702;1570603379093;4391;14550205240;29110832837;517885703;250258444;4047183329;87649;279597074;311;33;587144;3;1430;2530
4;157;1570603379093;1570603383477;4384;14554154686;29110829498;515124161;252289522;4047182592;94347;279600128;304;16;586400;-3;1355;2416
4;158;1570603383477;1570603387878;4401;14566504242;29110829406;519846456;254142238;4047182746;92643;279598737;304;21;586400;0;1362;2420
4;159;1570603387878;1570603392274;4396;14554976082;29110825773;519440467;250333831;4047181983;89540;279600172;316;37;587392;2;1371;2536
4;160;1570603392274;1570603396665;4391;14557616492;29110829837;516969697;252076137;4047182706;93703;279599388;305;24;586400;1;1335;2440
4;161;1570603396665;1570603401057;4392;14566577242;29110829155;515297346;254758605;4047182550;90759;279597380;410;71;599472;-3;1876;9338
