0;91;1570632746832;1570632751713;4881;16285888572;73611072353;1270987293;3485677;12802096926;521576;798370887;336;2;646432;0;1490;2746
0;92;1570632751713;1570632756371;4658;16265907304;73611071549;1255390851;3195632;12802096495;514623;798517742;320;1;617104;0;1405;2619
0;93;1570632756371;1570632761037;4666;16286630106;73611072513;1232150675;3582077;12802096820;524524;798276421;315;1;613952;1;1419;2586
0;94;1570632761038;1570632765700;4662;16276527782;73611072353;1260340672;3114287;12802096660;519069;798317389;483;33;592184;16;1707;19615
0;95;1570632765700;1570632770369;4669;16263868706;73611072272;1250930166;3004264;12802096579;518526;798607437;333;2;643720;-14;1866;6788
0;96;1570632770369;1570632775032;4663;16289924012;73611072423;1244005475;3692666;12802096730;521021;798623383;317;1;616176;-3;1504;2697
0;97;1570632775032;1570632779691;4659;16278252918;73611072206;1250072228;3419595;12802096513;515090;798393274;320;2;611272;0;1423;2646
0;98;1570632779691;1570632784348;4657;16267844578;73611072215;1239865795;3175519;12802096522;511127;798584946;318;1;616184;0;1416;2611
0;99;1570632784348;1570632789011;4663;16290822204;73611072503;1237784276;3691988;12802096810;515654;798572952;315;3;610776;0;1388;2568
0;100;1570632789011;1570632793674;4663;16287338790;73611072532;1234829122;3541803;12802096839;517276;798626789;323;1;617160;3;1483;2722
0;101;1570632793674;1570632798330;4656;16267683832;73611072514;1237248636;3224263;12802096821;517938;798577496;509;33;631400;-1;2212;34415
0;102;1570632798330;1570632802991;4661;16285214344;73611072518;1234270335;3500357;12802096825;520321;798498857;316;1;610720;0;1526;2709
0;103;1570632802991;1570632807652;4661;16285021916;73611072280;1239419153;3691502;12802096587;516962;798444407;319;3;614888;-2;1532;2792
0;104;1570632807652;1570632812307;4655;16266343552;73611072494;1234787263;3049997;12802096801;523347;798543860;320;3;610816;0;1425;2640
0;105;1570632812307;1570632817072;4765;16294378910;73611072527;1218243924;3928151;12802096834;523912;798497731;322;3;626136;1;1440;2659
0;106;1570632817073;1570632821834;4761;16286719896;73611072522;1237405306;3537946;12802096829;523164;798287575;322;4;618872;2;1401;2600
0;107;1570632821834;1570632826622;4788;16266667964;73611072975;1294316684;2987718;12802097282;529257;798311545;717;36;642216;8;4032;68949
0;108;1570632826622;1570632831312;4690;16295935854;73611072712;1297624666;3490057;12802097019;518752;798633056;539;5;645864;-11;3488;28680
0;109;1570632831312;1570632835989;4677;16281338044;73611072395;1276343449;3373416;12802096702;522770;798420698;321;6;617104;0;1441;2647
0;110;1570632835989;1570632840645;4656;16264175160;73611072207;1281587095;3026445;12802096514;526716;798396489;326;4;617120;0;1432;2743
0;111;1570632840645;1570632845311;4666;16282786072;73611072202;1288563416;3316118;12802096509;516934;798599774;318;4;615720;0;1458;2758
0;112;1570632845311;1570632849969;4658;16274798996;73611072204;1283492223;3011994;12802096511;517515;798636484;324;4;617104;0;1432;2741
0;113;1570632849969;1570632854624;4655;16264804128;73611072190;1293110189;2783868;12802096497;521547;798606798;574;41;620392;5;2278;35489
0;114;1570632854624;1570632859289;4665;16276363678;73611072215;1247081234;3200193;12802096522;518730;798642066;322;5;619216;-2;1707;3729
0;115;1570632859289;1570632863948;4659;16262507548;73611072195;1256190563;2836455;12802096502;516930;798519129;322;4;617104;-3;1515;2760
0;116;1570632863948;1570632868601;4653;16255001250;73611072215;1226000108;2747231;12802096522;525792;798570801;321;5;611240;0;1546;3245
0;117;1570632868601;1570632873267;4666;16285046590;73611072207;1214878759;3713504;12802096514;516606;798332465;329;5;615880;0;1418;2705
0;118;1570632873267;1570632877923;4656;16266080314;73611072200;1236428509;2887229;12802096507;519763;798513790;322;7;615336;1;1470;2715
0;119;1570632877923;1570632882576;4653;16259588570;73611072197;1231158876;2831899;12802096504;522296;798515686;317;7;607144;4;1494;2798
0;120;1570632882576;1570632887233;4657;16270392570;73611072202;1245338201;3146549;12802096509;523414;798611095;434;58;629008;-5;1943;10050
0;121;1570632887233;1570632891900;4667;16269750462;73611072273;1263627250;2872170;12802096580;520230;798543531;317;7;605376;0;1486;2665
0;122;1570632891900;1570632896575;4675;16275460084;73611072428;1277478099;3245064;12802096735;523044;798373597;322;8;617104;0;1481;2709
0;123;1570632896576;1570632901353;4777;16279273312;73611072432;1285597060;3242138;12802096739;523876;798376880;331;8;631584;1;1432;2732
0;124;1570632901354;1570632906131;4777;16278578644;73611072375;1271772975;2979106;12802096682;529027;798620855;329;10;630600;-1;1579;3086
0;125;1570632906131;1570632910794;4663;16277653296;73611072204;1263424674;3055557;12802096511;520648;798179454;317;8;605376;3;1445;2735
0;126;1570632910794;1570632915450;4656;16267856988;73611073704;1243526013;3201422;12802096840;515558;798560554;417;48;627592;-3;1887;9583
0;127;1570632915450;1570632920112;4662;16287819568;73611087033;1218029617;3534878;12802099841;516937;798552720;318;9;604968;0;1557;2752
0;128;1570632920112;1570632924770;4658;16273862990;73611072206;1250962010;3205334;12802096513;516882;798594698;321;10;615336;1;1497;2709
0;129;1570632924770;1570632929424;4654;16265327392;73611072200;1263139293;3141067;12802096507;519701;798452961;320;12;612552;-1;1409;2611
0;130;1570632929425;1570632934083;4658;16274670370;73611072201;1252816200;3188374;12802096508;516978;798586695;313;14;596832;1;1369;2518
0;131;1570632934083;1570632938744;4661;16285141928;73611072206;1244681496;3553131;12802096513;516530;798591919;322;14;613008;-1;1478;2954
0;132;1570632938744;1570632943498;4754;16264260132;73611072199;1239081023;3174881;12802096506;520548;798640491;329;24;628376;0;1464;2623
0;133;1570632943498;1570632948165;4667;16285637452;73611071881;1229754049;3664001;12802096454;518003;798430487;415;71;621856;1;1909;8601
0;134;1570632948165;1570632952825;4660;16280087700;73611071457;1241944660;3382989;12802096403;518515;798183703;322;24;613008;2;1631;2869
0;135;1570632952825;1570632957479;4654;16263016504;73611072199;1233966256;3054759;12802096506;517089;798532919;324;22;615336;-2;1426;2580
0;136;1570632957479;1570632962177;4698;16290248132;73611072397;1283145405;3573794;12802096704;518385;798567761;320;27;611640;-1;1361;2466
0;137;1570632962177;1570632966859;4682;16293104622;73611072425;1307657981;3541157;12802096732;525569;798546765;326;28;621200;1;1436;2599
0;138;1570632966859;1570632971534;4675;16269802146;73611072425;1283319100;3010889;12802096732;518164;798564267;324;36;618872;-1;1509;2751
0;139;1570632971534;1570632976212;4678;16278471918;73611072445;1303029391;3231470;12802096752;522851;798355168;419;75;616104;0;1692;8317
0;140;1570632976212;1570632980885;4673;16263390556;73611072505;1330964111;2538316;12802096812;521506;798552815;323;40;611296;0;1742;3273
1;91;1570633564792;1570633569467;4675;16270271390;73611072783;1297933776;2973179;12802097090;521177;798581113;398;44;628088;0;1822;7958
1;92;1570633569467;1570633574139;4672;16265481276;73611072592;1313928737;2554315;12802096899;519460;798603825;317;0;611240;0;1617;2955
1;93;1570633574139;1570633578812;4673;16267515640;73611072717;1288741601;3026735;12802097024;520607;798578332;320;0;620280;1;1478;2697
1;94;1570633578812;1570633583489;4677;16281692532;73611072590;1285157326;3067191;12802096897;518443;798581589;319;0;606768;-1;1427;2657
1;95;1570633583490;1570633588160;4670;16262606098;73611072463;1305308510;2732732;12802096770;518019;798592449;320;0;617104;0;1503;3076
1;96;1570633588160;1570633592835;4675;16275409860;73611072641;1295107940;2989593;12802096948;516335;798434667;316;1;615720;0;1480;2677
1;97;1570633592836;1570633597509;4673;16272331742;73611072438;1299591319;2891731;12802096745;516037;798526607;392;46;597488;11;1529;5552
1;98;1570633597509;1570633602184;4675;16268801024;73611072523;1291130773;2852274;12802096830;516185;798514599;329;1;639176;-10;1726;4234
1;99;1570633602184;1570633606855;4671;16264033686;73611072730;1291062466;2530253;12802097037;518732;798515103;315;0;607144;-1;1518;2729
1;100;1570633606856;1570633611527;4671;16264384086;73611072740;1287996124;2946672;12802097047;515723;798497747;323;1;616264;0;1450;2679
1;101;1570633611527;1570633616211;4684;16301408080;73611072731;1253718350;4146146;12802097038;515794;798439830;318;0;616640;0;1382;2522
1;102;1570633616211;1570633620880;4669;16256865524;73611072725;1289102569;2565866;12802097032;515322;798485372;321;1;617104;0;1456;2743
1;103;1570633620880;1570633625559;4679;16280577092;73611072502;1298688048;3312476;12802096809;517330;798615186;313;0;608096;1;1476;2845
1;104;1570633625559;1570633630235;4676;16274134112;73611072726;1293808569;2930310;12802097033;519933;798583173;404;51;624608;-1;1838;9141
1;105;1570633630235;1570633634910;4675;16274164772;73611072789;1363628868;2851463;12802097096;517124;798580504;318;1;619816;1;1581;2757
1;106;1570633634910;1570633639582;4672;16264711856;73611072739;1290579917;2448847;12802097046;516449;798587704;318;3;613008;-1;1429;2559
1;107;1570633639582;1570633644255;4673;16268115554;73611072626;1291270604;3080553;12802096933;514642;798595511;316;2;604520;0;1395;2600
1;108;1570633644255;1570633648933;4678;16287648310;73611072423;1295718405;3100179;12802096730;515228;798590442;319;1;616640;0;1488;2961
1;109;1570633648933;1570633653603;4670;16259447388;73611072413;1293712576;2637090;12802096720;514546;798518147;321;1;617104;0;1458;2743
1;110;1570633653603;1570633658279;4676;16276712326;73611072418;1281129961;3078893;12802096725;516358;798515083;318;1;615744;0;1446;2610
1;111;1570633658279;1570633662960;4681;16279553632;73611072580;1300012141;3197119;12802096887;515463;798348328;496;80;627504;9;2713;14281
1;112;1570633662960;1570633667643;4683;16264376056;73611072855;1291965535;2836270;12802097162;516679;798530117;707;3;663280;-6;4532;28104
1;113;1570633667643;1570633672320;4677;16279999808;73611072431;1286405346;3169920;12802096738;516908;798516514;326;6;617168;-3;1462;2670
1;114;1570633672320;1570633676992;4672;16262547844;73611072405;1296449184;2974549;12802096712;515888;798515761;323;1;616648;3;1394;2629
1;115;1570633676992;1570633681671;4679;16289484844;73611072424;1296478398;3313142;12802096731;517678;798121956;319;6;616176;0;1421;2621
1;116;1570633681671;1570633686343;4672;16259178456;73611072410;1375215186;2482612;12802096717;516305;798182768;324;2;617104;0;1464;2765
1;117;1570633686343;1570633691018;4675;16276047442;73611072411;1311143210;3094155;12802096718;519637;798597508;321;6;619824;-2;1403;2568
1;118;1570633691018;1570633695695;4677;16278279782;73611072463;1294545072;3237311;12802096770;518839;798597344;450;56;625976;0;1942;13075
1;119;1570633695695;1570633700367;4672;16264716528;73611072487;1287222872;2915064;12802096794;515373;798608393;319;6;617488;-1;1568;2791
1;120;1570633700367;1570633705043;4676;16274604816;73611072469;1296599029;2848955;12802096776;514970;798435301;401;3;606256;0;1803;5240
1;121;1570633705043;1570633709714;4671;16262354978;73611072399;1288421950;2923963;12802096706;520095;798285152;310;6;593648;3;1404;2539
1;122;1570633709714;1570633714390;4676;16276424560;73611072413;1297239086;3084841;12802096720;519414;798171984;320;2;615720;-3;1385;2565
1;123;1570633714390;1570633719063;4673;16265618224;73611072416;1308875177;2696536;12802096723;515506;798543389;318;7;605384;0;1425;2648
1;124;1570633719063;1570633723736;4673;16269580226;73611072412;1300657801;2939812;12802096719;515889;798567839;320;4;615720;0;1450;2695
1;125;1570633723736;1570633728410;4674;16266839806;73611072487;1303835809;2857317;12802096794;514414;798554768;391;50;605440;0;1794;6796
1;126;1570633728410;1570633733082;4672;16265143724;73611073994;1301176985;2842666;12802097130;519706;798571929;326;3;616248;0;1530;2764
1;127;1570633733082;1570633737760;4678;16283869684;73611087253;1291684520;3250992;12802100061;516575;798544065;322;9;620736;1;1485;2674
1;128;1570633737760;1570633742429;4669;16256554252;73611072414;1295502085;2661344;12802096721;507026;798572476;325;4;618872;-1;1515;2888
1;129;1570633742429;1570633747104;4675;16273515802;73611072085;1296238804;2922665;12802096658;514629;798554459;319;10;615720;3;1383;2533
1;130;1570633747104;1570633751777;4673;16270080860;73611071664;1284257186;3077013;12802096610;516313;798596947;326;4;617128;-3;1426;2746
1;131;1570633751777;1570633756452;4675;16272176544;73611072441;1290876647;3031307;12802096748;520133;798556719;402;50;614952;0;1769;8065
1;132;1570633756452;1570633761126;4674;16262780130;73611072488;1289378078;2757971;12802096795;514927;798354480;321;5;611240;3;1565;2828
1;133;1570633761126;1570633765798;4672;16264221150;73611072452;1288159786;2874321;12802096759;516783;798615481;326;13;622112;-3;1481;2651
1;134;1570633765798;1570633770475;4677;16282491006;73611072416;1288261134;3041483;12802096723;519944;798546175;321;9;610776;0;1443;2713
1;135;1570633770475;1570633775146;4671;16261442186;73611072416;1288909004;2778890;12802096723;515747;798574243;324;9;617104;0;1460;2721
1;136;1570633775146;1570633779822;4676;16276019848;73611072416;1301862562;2925266;12802096723;520575;798548355;319;14;615728;0;1409;2531
1;137;1570633779822;1570633784497;4675;16275620976;73611072421;1293711436;2947690;12802096728;517993;798615110;321;8;611240;0;1469;2723
1;138;1570633784497;1570633789174;4677;16279191260;73611072491;1292540773;3201529;12802096798;515686;798540974;415;59;627448;0;1862;8512
1;139;1570633789174;1570633793849;4675;16267076618;73611072487;1304122839;2855929;12802096794;513511;798566765;324;9;617104;0;1518;2741
1;140;1570633793849;1570633798521;4672;16264792302;73611072425;1291016202;3027400;12802096732;515839;798547299;325;17;616264;0;1508;2702
2;88;1570634383516;1570634388391;4875;16270245840;73611072465;1303401234;2942125;12802096772;522793;798407166;407;46;646384;0;1831;6971
2;89;1570634388391;1570634393263;4872;16266113748;73611072172;1299382452;2871108;12802096745;526635;798309837;333;1;645504;0;1643;2862
2;90;1570634393263;1570634397942;4679;16285477144;73611071918;1287923728;3385813;12802096864;522551;798555654;319;0;614872;1;1558;2862
2;91;1570634397942;1570634402813;4871;16264423506;73611072726;1284396978;2779635;12802097033;522525;798373556;332;0;630664;-1;1480;2701
2;92;1570634402813;1570634408388;5575;16273620046;73611072541;1309818021;3284936;12802096848;525882;798370991;379;0;738864;0;1700;3120
2;93;1570634408388;1570634413162;4774;16268926730;73611072705;1288052284;2962209;12802097012;521953;798581398;324;0;622968;0;1502;2863
2;94;1570634413162;1570634418033;4871;16263397856;73611072592;1282953094;2922013;12802096899;522106;798277618;332;0;640120;0;1485;2744
2;95;1570634418033;1570634422813;4780;16282163674;73611072549;1294899614;3228492;12802096856;520347;798505558;429;42;639376;0;1883;7805
2;96;1570634422813;1570634427993;5180;16271320400;73611072550;1288535463;3185492;12802096857;523854;798297265;350;0;675744;4;1682;3046
2;97;1570634427993;1570634432650;4657;16272143402;73611072192;1297621206;3008844;12802096499;522352;798496788;323;0;615792;-4;1448;2683
2;98;1570634432650;1570634437305;4655;16260593196;73611072204;1275739289;2691050;12802096511;518520;798500728;314;0;605376;0;1395;2614
2;99;1570634437305;1570634441960;4655;16268766714;73611072468;1301364428;3241740;12802096775;516488;798491175;319;1;616184;0;1413;2680
2;100;1570634441960;1570634446624;4664;16292346590;73611072513;1307478216;3520040;12802096820;519265;798561148;315;0;610776;0;1385;2526
2;101;1570634446624;1570634451279;4655;16265431198;73611072496;1287226377;2717875;12802096803;521091;798567427;415;44;626616;1;1829;8271
2;102;1570634451279;1570634455937;4658;16273974534;73611072506;1292918554;3051717;12802096813;518438;798358341;315;1;613944;1;1595;2791
2;103;1570634455938;1570634460595;4657;16271334562;73611072285;1344277842;2837894;12802096592;518025;798389129;315;1;603056;-2;1507;2781
2;104;1570634460595;1570634465253;4658;16274567002;73611072464;1288899334;3095979;12802096771;522244;798557308;323;0;615808;0;1401;2635
2;105;1570634465253;1570634469913;4660;16279486910;73611072501;1308424543;3204757;12802096808;520225;798384725;320;1;617104;0;1449;2681
2;106;1570634469913;1570634474568;4655;16262436008;73611072504;1287176455;2812816;12802096811;524708;798278490;321;1;617104;0;1435;2671
2;107;1570634474568;1570634479230;4662;16285364140;73611072404;1297312696;3269321;12802096711;518573;798514779;308;0;598128;3;1416;2558
2;108;1570634479230;1570634483887;4657;16275074644;73611072192;1293709293;2947602;12802096499;522219;798093894;413;45;623480;0;1849;7373
2;109;1570634483888;1570634488546;4658;16270666174;73611072190;1292138524;3015582;12802096497;519449;798085789;316;3;615720;-3;1519;2742
2;110;1570634488546;1570634493204;4658;16276004664;73611072193;1279138452;3170277;12802096500;518374;798505325;322;5;609544;1;1483;2749
2;111;1570634493204;1570634497857;4653;16259517030;73611072188;1314309448;2664066;12802096495;519021;798506254;316;3;612088;-1;1378;2572
2;112;1570634497857;1570634502514;4657;16274139806;73611072193;1297787637;2923773;12802096500;529317;798495275;308;5;593184;0;1388;2600
2;113;1570634502514;1570634507168;4654;16262145906;73611072188;1291553532;2895065;12802096495;519411;798577522;320;5;617104;0;1458;2785
2;114;1570634507168;1570634511825;4657;16268302872;73611072191;1297571631;2837328;12802096498;519215;798381100;408;42;615160;0;1767;8602
2;115;1570634511825;1570634516484;4659;16278483014;73611072193;1290153661;3120733;12802096500;520604;798589387;632;42;623512;8;4267;36478
2;116;1570634516484;1570634521141;4657;16275206628;73611072193;1301135505;3035667;12802096500;519020;798584025;475;5;631608;-5;2807;18085
2;117;1570634521141;1570634525794;4653;16257688088;73611072188;1296982542;2586169;12802096495;519661;798565068;326;9;617176;-3;1447;2694
2;118;1570634525794;1570634530448;4654;16265058022;73611072189;1296072996;3005307;12802096496;526638;798544360;321;8;616184;0;1412;2631
2;119;1570634530448;1570634535109;4661;16283667474;73611072196;1308302578;3093732;12802096503;519222;798525294;316;9;610776;3;1407;2566
2;120;1570634535109;1570634539762;4653;16257899496;73611072187;1295601930;2630683;12802096494;518074;798553847;322;9;615336;-2;1441;2649
2;121;1570634539762;1570634544417;4655;16269085432;73611072190;1295839158;3001107;12802096497;518531;798541401;313;13;605760;2;1375;2496
2;122;1570634544417;1570634549077;4660;16281562884;73611072193;1304399904;3146170;12802096500;521789;798545707;421;55;625720;-3;1934;9667
2;123;1570634549077;1570634553734;4657;16273104082;73611072191;1282291989;3130895;12802096498;520067;798527017;317;13;615720;0;1553;2726
2;124;1570634553734;1570634558389;4655;16265905844;73611072191;1305484704;2570161;12802096498;518099;798396107;403;16;617976;0;1812;6633
2;125;1570634558389;1570634565323;6934;16272113472;73611082727;1294436300;4201049;12802098831;536745;798563613;466;23;892712;3;2080;3806
2;126;1570634565323;1570634570021;4698;16273087730;73611073926;1282619421;3136992;12802097062;520379;798556030;320;20;621584;-3;1425;2556
2;127;1570634570021;1570634574694;4673;16268152200;73611087253;1315675013;2577580;12802100061;521297;798479364;323;17;617104;0;1485;2741
2;128;1570634574694;1570634579368;4674;16266932954;73611072481;1312145965;2911317;12802096788;519109;798548058;413;73;629024;0;1890;8050
2;129;1570634579368;1570634584144;4776;16276030360;73611072164;1300129024;3051420;12802096737;521926;798551181;323;23;623808;2;1602;2880
2;130;1570634584145;1570634589121;4976;16279501948;73611071677;1297464553;3024370;12802096623;525686;798318241;346;26;656016;-2;1582;2906
2;131;1570634589122;1570634593793;4671;16264327146;73611072399;1294845677;2810239;12802096706;522188;798534575;313;25;603992;0;1360;2525
2;132;1570634593793;1570634598564;4771;16261582638;73611072424;1290744625;2660959;12802096731;518966;798467805;327;28;628832;0;1469;2611
2;133;1570634598565;1570634603836;5271;16261751998;73611072418;1289188100;3064982;12802096725;525327;798341991;363;29;693336;0;1585;2911
2;134;1570634603836;1570634608813;4977;16275690326;73611072455;1289880616;3216267;12802096762;521776;798140791;437;74;667144;1;1839;7400
2;135;1570634608813;1570634613798;4985;16291469130;73611072498;1303429387;3448830;12802096805;524320;798336406;341;27;654280;2;1682;2950
2;136;1570634613798;1570634618872;5074;16271949806;73611072447;1263145977;3409833;12802096754;520160;798349302;351;35;668568;-3;1602;2901
2;137;1570634618873;1570634623747;4874;16272685792;73611072420;1296003080;2973739;12802096727;521837;798604911;335;41;644664;1;1479;2626
3;90;1570635209587;1570635214266;4679;16281958398;73610992331;1299552304;3193770;12802096918;516602;798559161;426;36;628128;-3;1931;7876
3;91;1570635214266;1570635219130;4864;16269775136;73610993012;1285449005;3220160;12802096960;521545;798540734;332;0;640560;3;1647;2993
3;92;1570635219130;1570635223789;4659;16277330928;73610992675;1295465684;3112576;12802096623;518225;798509440;320;0;615784;-3;1483;2650
3;93;1570635223789;1570635228447;4658;16275105158;73610992845;1288749266;3032630;12802096793;516546;798485463;320;0;617104;0;1386;2570
3;94;1570635228447;1570635233104;4657;16271867900;73610992731;1291642329;2966314;12802096679;517167;798498156;321;0;617104;0;1380;2571
3;95;1570635233104;1570635237763;4659;16277458970;73610992587;1314057060;3002054;12802096535;518885;798442053;313;0;609856;3;1412;2561
3;96;1570635237763;1570635242421;4658;16274547000;73610992786;1298967064;2886423;12802096734;516493;798581141;414;42;622264;-3;1704;7150
3;97;1570635242421;1570635247076;4655;16270135902;73610992550;1297382219;2818035;12802096498;517975;798604733;317;0;611240;0;1582;2822
3;98;1570635247077;1570635251735;4658;16277554016;73610992566;1275798046;3212283;12802096514;517456;798582662;315;0;613952;1;1443;2611
3;99;1570635251735;1570635256395;4660;16284810946;73610992835;1290737549;3083546;12802096783;516799;798549989;321;0;607240;2;1467;2751
3;100;1570635256395;1570635261055;4660;16281858096;73610992868;1292151356;3092769;12802096816;516567;798573797;320;0;617104;-3;1438;2740
3;101;1570635261055;1570635265714;4659;16281438054;73610992861;1316884730;3180951;12802096809;518476;798507683;320;0;620280;1;1451;2658
3;102;1570635265714;1570635270375;4661;16282959812;73610992868;1292993417;3056432;12802096816;521396;798497984;316;0;612544;-1;1419;2621
3;103;1570635270375;1570635275034;4659;16275842166;73610992647;1364032558;2919164;12802096595;521562;798394479;412;38;627616;1;1879;9911
3;104;1570635275034;1570635279692;4658;16274792280;73610992830;1292766098;3096379;12802096778;517504;798496197;316;0;610320;-1;1499;2685
3;105;1570635279692;1570635284360;4668;16310016532;73610992868;1282278671;4015266;12802096816;517637;798502421;320;0;610848;3;1436;2637
3;106;1570635284360;1570635289027;4667;16303755468;73610992875;1289777513;3845258;12802096823;522659;798279319;323;0;622968;-3;1441;2684
3;107;1570635289027;1570635293683;4656;16271175276;73610992760;1299856549;3051413;12802096708;517927;798558360;320;0;617104;0;1431;2631
3;108;1570635293683;1570635298344;4661;16282893820;73610992553;1295836357;3247616;12802096501;519711;798382152;313;1;609856;0;1439;2619
3;109;1570635298344;1570635303004;4660;16284662026;73610992555;1302214461;3329538;12802096503;517304;798584101;415;32;629232;0;1860;9374
3;110;1570635303005;1570635307660;4655;16271141112;73610992551;1290588694;3109886;12802096499;527059;798594533;320;0;617104;3;1574;2790
3;111;1570635307661;1570635312322;4661;16284249576;73610992554;1293655122;3319431;12802096502;516086;798452151;316;0;615720;0;1472;2665
3;112;1570635312322;1570635316978;4656;16266437138;73610992550;1297736413;2887654;12802096498;519862;798387447;323;2;611312;-1;1481;2752
3;113;1570635316978;1570635321639;4661;16286242038;73610992556;1296515514;3670830;12802096504;520465;798583239;727;44;637808;7;4659;42240
3;114;1570635321639;1570635326307;4668;16306187828;73610992583;1297156615;3981784;12802096531;520683;798519545;596;73;685040;3;4581;35662
3;115;1570635326307;1570635330991;4684;16306944838;73610992599;1262111008;3957699;12802096547;515677;798578249;637;7;763792;-12;3279;42487
3;116;1570635330991;1570635335946;4955;16260136508;73610992563;1243464838;2905222;12802096511;520178;798254022;346;8;658152;0;1530;2969
3;117;1570635335946;1570635340619;4673;16274456334;73610992563;1238458639;3231952;12802096511;517265;798351330;323;3;615720;0;1467;2758
3;118;1570635340619;1570635345376;4757;16269038566;73610992564;1250052681;2720348;12802096512;522129;798327510;329;5;627064;1;1434;2720
3;119;1570635345376;1570635350035;4659;16273431998;73610992563;1238131607;3015727;12802096511;519167;798575508;431;52;618360;0;1953;12261
3;120;1570635350035;1570635354693;4658;16275129248;73610992565;1224754880;3467688;12802096513;517687;798451197;320;6;612088;-1;1556;2766
3;121;1570635354693;1570635359555;4862;16279218270;73610992574;1263605226;3214878;12802096522;520428;798355465;338;4;640096;0;1534;2875
3;122;1570635359555;1570635364218;4663;16291090114;73610992558;1294104627;3399278;12802096506;524749;798351407;402;7;612064;0;1745;6668
3;123;1570635364218;1570635368875;4657;16271445084;73610992554;1288877501;3098137;12802096502;514435;798399109;326;4;616648;0;1335;2540
3;124;1570635368875;1570635373544;4669;16315684398;73610992562;1241556689;4266556;12802096510;517944;798559555;322;5;616176;0;1464;2702
3;125;1570635373545;1570635378205;4660;16286269340;73610992556;1296934158;3569406;12802096504;514561;798555945;330;9;611336;0;1443;2806
3;126;1570635378205;1570635382861;4656;16270201456;73610994055;1310384230;3036316;12802096832;516820;798556131;442;57;630432;0;1923;11732
3;127;1570635382861;1570635387519;4658;16277282602;73611007382;1316533317;2897873;12802099831;517706;798596668;317;10;609856;0;1575;2757
3;128;1570635387519;1570635392175;4656;16267973058;73610992548;1306652016;2807034;12802096496;517455;798364980;324;6;611240;0;1475;2749
3;129;1570635392176;1570635396829;4653;16259432496;73610992223;1303349788;2761280;12802096437;519280;798351013;324;9;617104;0;1442;2645
3;130;1570635396829;1570635401487;4658;16276594358;73610991793;1295202226;3082658;12802096380;518045;798346634;320;7;609856;3;1365;2596
3;131;1570635401487;1570635406146;4659;16274816954;73610992550;1293247438;3038616;12802096498;522440;798382509;321;10;611240;0;1433;2591
3;132;1570635406146;1570635410802;4656;16266854406;73610992550;1307404324;2720948;12802096498;524962;798484747;420;60;632616;-2;1788;7264
3;133;1570635410802;1570635415462;4660;16280051784;73610992553;1298443369;3214252;12802096501;514529;798589223;321;9;617488;-1;1537;2679
3;134;1570635415462;1570635420122;4660;16279652766;73610992551;1295992948;3135811;12802096499;517437;798336537;326;13;615336;1;1484;2710
3;135;1570635420122;1570635424780;4658;16278003550;73610992552;1304212210;2953294;12802096500;516490;798500343;321;9;607160;-1;1481;2698
3;136;1570635424780;1570635429440;4660;16286003620;73610992554;1286629006;3649807;12802096502;515681;798532055;326;12;615720;0;1402;2662
3;137;1570635429440;1570635434101;4661;16281699832;73610992553;1291208892;3025566;12802096501;520310;798313233;321;14;611240;0;1481;2832
3;138;1570635434101;1570635438759;4658;16277965590;73610992555;1287018155;3065724;12802096503;520197;798507913;332;15;615408;1;1423;2723
3;139;1570635438759;1570635443417;4658;16278557766;73610992552;1291257182;3185007;12802096500;516052;798518095;406;63;627272;0;1853;8896
4;88;1570636028556;1570636033823;5267;16303130588;73611072253;1296709205;3983088;12802096560;524260;798555212;462;38;697984;3;1980;9227
4;89;1570636033823;1570636038821;4998;16277441450;73611071895;1278378842;3050551;12802096468;519127;798491129;344;0;664016;-3;1673;2960
4;90;1570636038821;1570636043780;4959;16277677386;73611071668;1312038593;3193836;12802096614;521247;798561275;340;0;656384;1;1587;2939
4;91;1570636043780;1570636048742;4962;16284859564;73611072514;1289085561;3423303;12802096821;521510;798341219;339;0;652736;2;1508;2779
4;92;1570636048742;1570636054114;5372;16291635132;73611072346;1280167667;3560406;12802096653;524681;798547094;369;0;710928;-3;1661;3034
4;93;1570636054114;1570636059384;5270;16292065686;73611072491;1281947890;3568586;12802096798;521113;798393619;363;2;699216;0;1685;3046
4;94;1570636059384;1570636064440;5056;16269784188;73611072371;1291062161;2969023;12802096678;525725;798365098;469;47;679080;0;1928;11639
4;95;1570636064440;1570636069934;5494;16281605808;73611072263;1310976411;3600235;12802096570;519369;798650520;375;2;727600;0;1823;3224
4;96;1570636069935;1570636075009;5074;16283298678;73611072457;1248902192;3178174;12802096764;526153;798400103;350;0;669488;0;1595;2923
4;97;1570636075009;1570636079668;4659;16277616066;73611072202;1244936059;3155781;12802096509;516833;798583083;316;1;609472;1;1454;2686
4;98;1570636079668;1570636084327;4659;16283140122;73611072221;1217806245;3831613;12802096528;519843;798587008;318;0;613008;-1;1447;2651
4;99;1570636084328;1570636088993;4665;16298491146;73611072489;1259548383;3924969;12802096796;516636;798560904;316;2;615720;0;1422;2590
4;100;1570636088994;1570636093654;4660;16285385748;73611072521;1238032032;3407686;12802096828;519821;798499633;410;55;623160;3;1856;8962
4;101;1570636093655;1570636098311;4656;16271874762;73611072509;1231776267;3228154;12802096816;517213;798502967;321;1;617104;-3;1618;3032
4;102;1570636098311;1570636102974;4663;16285751040;73611072522;1276353277;3359262;12802096829;518694;798480250;313;1;609856;3;1480;2666
4;103;1570636102974;1570636107634;4660;16281156420;73611072297;1252841202;3276637;12802096604;519660;798575697;326;2;617192;-3;1486;2700
4;104;1570636107634;1570636112291;4657;16273728524;73611072482;1240252363;3351917;12802096789;521432;798493852;320;1;617104;0;1444;2655
4;105;1570636112291;1570636116949;4658;16271130892;73611072507;1251799202;2869459;12802096814;519790;798376578;313;2;609856;0;1412;2596
4;106;1570636116949;1570636121606;4657;16273386154;73611072515;1232357999;3088620;12802096822;516616;798571378;317;1;611240;0;1455;2662
4;107;1570636121606;1570636126262;4656;16267419572;73611072410;1232815660;3155147;12802096717;518124;798642730;412;48;622840;3;1885;8517
4;108;1570636126262;1570636130924;4662;16287435296;73611072209;1237656396;3445106;12802096516;516141;798596829;577;39;644488;4;3701;22296
4;109;1570636130924;1570636135588;4664;16284764518;73611072211;1243474948;3457424;12802096518;521729;798594865;559;7;652368;-6;3351;18217
4;110;1570636135588;1570636140242;4654;16264948960;73611072202;1249555248;3094890;12802096509;524105;798599091;325;4;613096;-1;1407;2653
4;111;1570636140242;1570636144903;4661;16281322276;73611072205;1233722215;3451745;12802096512;518102;798467889;316;3;609856;0;1374;2543
4;112;1570636144903;1570636149560;4657;16273555806;73611072201;1244021414;3143618;12802096508;517543;798510078;318;4;611240;0;1417;2675
4;113;1570636149560;1570636154214;4654;16265209424;73611072200;1237516059;3205576;12802096507;519662;798507520;321;5;615336;1;1459;2644
4;114;1570636154214;1570636158872;4658;16275393800;73611072204;1233476979;3201376;12802096511;517076;798522397;306;4;594032;-1;1372;2488
4;115;1570636158872;1570636163532;4660;16280327724;73611072201;1230215576;3322649;12802096508;516959;798369528;407;71;622696;2;1911;7562
4;116;1570636163532;1570636168190;4658;16276962424;73611072206;1241967215;3634276;12802096513;511915;798513044;386;12;586624;-2;1761;8909
4;117;1570636168190;1570636172851;4661;16281897078;73611072206;1241756995;3321898;12802096513;527629;798308605;317;5;613920;1;1487;2903
4;118;1570636172852;1570636177512;4660;16282266312;73611072203;1233120639;3284438;12802096510;518984;798594952;321;10;617136;0;1434;2678
4;119;1570636177512;1570636182165;4653;16258833166;73611072199;1259122878;2895824;12802096506;516142;798648343;321;10;613032;-1;1420;2577
4;120;1570636182165;1570636186824;4659;16278847138;73611072204;1236975861;3310135;12802096511;511032;798563105;315;8;609856;0;1414;2592
4;121;1570636186824;1570636191480;4656;16269148212;73611072201;1237571907;2895568;12802096508;523354;798550509;462;52;627640;0;1850;13377
4;122;1570636191480;1570636196136;4656;16267580318;73611072200;1233624385;3096750;12802096507;515647;798358599;321;11;617104;0;1640;3029
4;123;1570636196137;1570636200795;4658;16275463004;73611072204;1242420269;3076640;12802096511;516027;798596045;326;10;615792;0;1510;2718
4;124;1570636200795;1570636205454;4659;16272344736;73611072202;1234340713;3109030;12802096509;515553;798227324;320;15;611240;0;1434;2598
4;125;1570636205454;1570636210107;4653;16262227520;73611072199;1243582235;2848797;12802096506;516967;798551775;322;12;617104;0;1457;2679
4;126;1570636210107;1570636214763;4656;16269035646;73611073706;1239454481;2912081;12802096842;518241;798556497;317;14;608040;1;1390;2621
4;127;1570636214763;1570636219420;4657;16271878850;73611087028;1229257856;3140815;12802099836;516739;798531909;319;17;610680;0;1452;2770
4;128;1570636219420;1570636224074;4654;16263638172;73611072199;1250775679;3120257;12802096506;518044;798551095;436;56;625616;-1;1823;9655
4;129;1570636224074;1570636228731;4657;16273817438;73611071878;1231390238;3037555;12802096451;515784;798553932;321;16;609928;0;1602;2854
4;130;1570636228731;1570636233388;4657;16270562076;73611071442;1238256169;3056386;12802096388;516719;798536114;311;14;593648;0;1462;2757
4;131;1570636233388;1570636238046;4658;16277432982;73611072205;1249900457;3660741;12802096512;515608;798515034;316;21;605376;0;1409;2529
4;132;1570636238046;1570636242706;4660;16285357424;73611072207;1216319133;3498703;12802096514;519494;798572178;316;16;609856;0;1382;2507
4;133;1570636242706;1570636247365;4659;16274771548;73611072203;1231922975;3054396;12802096510;525037;798252363;319;21;611240;0;1448;2642
4;134;1570636247365;1570636252029;4664;16290584808;73611072208;1233050782;4290526;12802096515;517201;798311637;443;55;627032;1;1772;9506
4;135;1570636252029;1570636256691;4662;16287644806;73611072206;1231357556;3487299;12802096513;511947;798443357;314;20;605760;-1;1511;2607
4;136;1570636256691;1570636261353;4662;16290309598;73611072208;1241302797;3674695;12802096515;512698;798570983;326;23;611336;3;1456;2686
4;137;1570636261353;1570636266008;4655;16266471156;73611072201;1246880797;3150940;12802096508;519566;798506329;322;25;617104;-3;1429;2541
