0;91;1570636862772;1570636867424;4652;16261265526;73611072175;1273845364;2692019;12802096748;515286;798483129;827;963;643264;-5;2271;8769
0;92;1570636867424;1570636872074;4650;16250682424;73611071541;1322166915;2166583;12802096487;520547;798535326;771;997;637104;0;2398;9157
0;93;1570636872074;1570636876727;4653;16262807724;73611072504;1319880923;2511220;12802096811;520732;798445957;784;1002;634264;6;2247;8160
0;94;1570636876728;1570636881379;4651;16253744774;73611072334;1315093225;2311721;12802096641;518183;798356436;794;996;646336;-6;2399;9270
0;95;1570636881379;1570636886028;4649;16249150592;73611072249;1307073601;2154802;12802096556;518022;798539538;895;1094;620056;10;2769;60548
0;96;1570636886029;1570636890678;4649;16250256980;73611072392;1353016437;1964978;12802096699;518439;798526484;742;1059;651560;-9;2453;11145
0;97;1570636890678;1570636895327;4649;16248165822;73611072184;1293975337;2243349;12802096491;519734;798547970;751;1043;635960;1;2377;8685
0;98;1570636895327;1570636899978;4651;16254052980;73611072201;1297516064;2333547;12802096508;516191;798542176;854;917;638904;2;2438;9753
0;99;1570636899978;1570636904628;4650;16251167144;73611072489;1336885028;2390624;12802096796;515393;798526648;785;995;625672;-4;2263;8745
0;100;1570636904628;1570636909278;4650;16251607626;73611072500;1343902135;2207667;12802096807;514493;798444589;768;1015;641144;1;2155;8017
0;101;1570636909278;1570636913929;4651;16253203406;73611072494;1291581146;2341993;12802096801;516306;798522579;811;991;638840;0;2174;8367
0;102;1570636913929;1570636918577;4648;16244330840;73611072497;1349738470;1934001;12802096804;514848;798525329;898;1112;653424;-1;2601;30427
0;103;1570636918577;1570636923229;4652;16253620090;73611072255;1320787428;2373333;12802096562;513248;798583745;764;1019;637104;0;2523;9289
0;104;1570636923229;1570636927878;4649;16248909108;73611072476;1318958002;2278193;12802096783;518082;798514602;844;956;637368;0;2323;9439
0;105;1570636927878;1570636932529;4651;16255475896;73611072492;1299972474;2336488;12802096799;518076;798531291;878;907;607824;5;2298;9815
0;106;1570636932529;1570636937184;4655;16266082066;73611072505;1334149978;2538974;12802096812;515235;798524141;768;1015;643232;-5;2338;9425
0;107;1570636937184;1570636941833;4649;16247066734;73611072368;1314950762;2104689;12802096675;521193;798535338;830;980;637368;4;2315;9241
0;108;1570636941834;1570636946483;4649;16251743260;73611072185;1279419453;2354445;12802096492;514587;798526898;867;1183;605184;31;3209;66827
0;109;1570636946483;1570636951237;4754;16256932976;73611072207;1280487117;2523634;12802096514;515899;798550664;839;1270;637224;33;4754;260647
0;110;1570636951237;1570636956083;4846;16237717916;73611072186;1292302953;2082565;12802096493;522033;798169720;848;1079;734808;-60;3224;73299
0;111;1570636956083;1570636960933;4850;16250446050;73611072194;1297068037;2278725;12802096501;522468;798574756;975;907;667784;-8;2851;13549
0;112;1570636960933;1570636965581;4648;16245452850;73611072183;1331699868;2071432;12802096490;517709;798369808;791;1035;637368;4;2314;10484
0;113;1570636965581;1570636970231;4650;16251474182;73611072186;1291965523;2290990;12802096493;517952;798548464;829;993;643232;-4;2243;9560
0;114;1570636970231;1570636974883;4652;16256033908;73611072187;1275076685;2507258;12802096494;517284;798538549;799;994;637176;0;2042;7841
0;115;1570636974884;1570636979534;4650;16255160390;73611072186;1291051203;2418549;12802096493;525725;798547556;901;1134;656776;5;3035;59686
0;116;1570636979535;1570636984185;4650;16245578848;73611072183;1268885191;2214525;12802096490;518077;798320489;815;984;625640;0;2158;7982
0;117;1570636984185;1570636988835;4650;16251008004;73611072187;1286631264;2321692;12802096494;512211;798475593;891;936;637368;0;2365;10694
0;118;1570636988835;1570636993485;4650;16248563964;73611072185;1263889504;2284534;12802096492;520851;798540863;944;960;643784;-5;2593;14726
0;119;1570636993485;1570636998135;4650;16249832850;73611072185;1288158153;2355476;12802096492;516446;798153032;779;1038;637368;0;2069;8122
0;120;1570636998135;1570637002786;4651;16255078338;73611072187;1297413474;2409254;12802096494;518684;798506590;830;1003;637368;4;2203;8741
0;121;1570637002786;1570637007437;4651;16252512534;73611072185;1305494111;2228676;12802096492;516993;798489782;792;1022;631576;-4;2427;10327
0;122;1570637007437;1570637012088;4651;16251425856;73611072185;1321990377;2234630;12802096492;521817;798628567;866;1138;651904;0;2775;27618
0;123;1570637012088;1570637016739;4651;16251230216;73611072187;1289778475;2324949;12802096494;519593;798176355;806;1010;637368;5;2459;9763
0;124;1570637016739;1570637021386;4647;16241530998;73611072183;1288713403;2018224;12802096490;514865;798181723;887;939;625672;-5;2461;10871
0;125;1570637021386;1570637026037;4651;16249964834;73611072186;1295601713;2185976;12802096493;520132;798384024;866;933;629472;1;2320;10312
0;126;1570637026037;1570637030692;4655;16265838246;73611073694;1271582655;2712303;12802096830;520542;798171613;813;1022;639168;-1;2406;10156
0;127;1570637030692;1570637035341;4649;16246207378;73611087011;1346511464;2025109;12802099819;514291;798384135;818;1007;637368;5;2254;9107
0;128;1570637035341;1570637039989;4648;16243462286;73611072183;1340350090;2104152;12802096490;518569;798512536;952;1077;646784;0;2823;47288
0;129;1570637039989;1570637044641;4652;16259478778;73611072190;1305019785;2546489;12802096497;518408;798505541;872;964;643232;-4;2315;9025
0;130;1570637044641;1570637049292;4651;16252153666;73611072185;1291064252;2409975;12802096492;517139;798321117;808;1031;637368;-1;2346;10276
0;131;1570637049292;1570637053942;4650;16250712938;73611072187;1303203275;2226490;12802096494;516816;798424868;902;939;641496;2;2455;11216
0;132;1570637053942;1570637058593;4651;16251800492;73611072185;1321510525;2288599;12802096492;516661;798313342;814;1010;638872;-2;2247;8760
0;133;1570637058593;1570637063244;4651;16256052888;73611071861;1276566555;2346274;12802096434;518664;798504904;778;1056;641464;2;2241;8388
0;134;1570637063244;1570637067897;4653;16264036898;73611071429;1266202235;2731265;12802096375;519349;798395748;793;1046;639216;-2;2388;9624
0;135;1570637067897;1570637072547;4650;16251243064;73611072185;1292788491;2453886;12802096492;515405;798528645;950;1074;654664;3;2748;24669
0;136;1570637072547;1570637077194;4647;16239948650;73611072184;1369387744;1891996;12802096491;519525;798432464;838;979;611032;2;2234;9465
0;137;1570637077194;1570637081846;4652;16260482966;73611072188;1287922283;2772778;12802096495;519253;798542124;869;964;637104;-1;2425;10953
0;138;1570637081846;1570637086496;4650;16250866092;73611072186;1299160696;2442341;12802096493;520446;798542294;894;957;643264;-4;2502;11777
0;139;1570637086496;1570637091147;4651;16251813778;73611072186;1296069397;2253482;12802096493;518869;798546455;819;1019;631504;0;2288;11457
0;140;1570637091147;1570637095794;4647;16242341298;73611072182;1326258286;2003558;12802096489;517164;798534177;836;985;631240;4;2246;9145
1;84;1570637674477;1570637679133;4656;16254496674;73611072499;1224721646;2712646;12802096806;518664;798569455;777;1052;641992;1;2238;8444
1;85;1570637679133;1570637683880;4747;16238119270;73611072511;1297008400;2034340;12802096818;516237;798265416;895;1150;642120;27;2288;28960
1;86;1570637683881;1570637689135;5254;16256895016;73611072523;1222709842;2766826;12802096830;518585;798531084;949;1164;753024;-28;3055;27246
1;87;1570637689135;1570637693883;4748;16238601946;73611072516;1277977381;2076126;12802096823;524263;798294935;813;1062;650152;0;2403;9146
1;88;1570637693883;1570637698531;4648;16244820232;73611072217;1257680814;2287149;12802096524;516216;798512556;845;934;623968;1;2509;10670
1;89;1570637698532;1570637703279;4747;16240502720;73611071868;1251492570;2134359;12802096441;531570;798457562;822;1047;628728;-1;2463;11056
1;90;1570637703279;1570637708233;4954;16257302794;73611071673;1222220307;2817269;12802096619;527795;798582968;845;1092;680264;0;2340;8861
1;91;1570637708233;1570637713183;4950;16239925728;73611072558;1302491778;2031927;12802096865;520625;798286984;906;1073;680552;0;2488;10775
1;92;1570637713184;1570637718055;4871;16240313650;73611072936;1309810189;2009589;12802097243;521870;798241143;887;1192;636280;6;2872;21361
1;93;1570637718055;1570637722830;4775;16260588378;73611073095;1265962452;2677521;12802097402;520799;798515672;772;1108;644552;-4;2534;9850
1;94;1570637722831;1570637727501;4670;16244329088;73611073004;1312261960;2109873;12802097311;523279;798293232;897;946;616568;-2;2753;12075
1;95;1570637727502;1570637732272;4770;16243458928;73611072856;1310495727;2096828;12802097163;517975;798511546;830;1051;644128;1;2290;8885
1;96;1570637732272;1570637736941;4669;16241568666;73611073031;1311231027;2157407;12802097338;515636;798512861;792;1064;627344;3;2075;8237
1;97;1570637736941;1570637741615;4674;16253664328;73611072833;1281908536;2388798;12802097140;523650;798396371;816;1055;643536;-4;2291;9498
1;98;1570637741615;1570637746583;4968;16245338386;73611072634;1249165301;2328344;12802096941;520857;798407135;926;1189;669448;5;2639;22367
1;99;1570637746583;1570637752134;5551;16245360286;73611072481;1255234881;2536296;12802096788;530123;798595623;1017;1202;753536;-3;2668;10488
1;100;1570637752134;1570637756784;4650;16241123512;73611072510;1237246888;2249637;12802096817;519752;798580263;863;991;638160;2;2443;10321
1;101;1570637756784;1570637761634;4850;16245309916;73611072507;1246232759;2508913;12802096814;527969;798404646;865;1057;668376;-4;2644;11002
1;102;1570637761634;1570637766684;5050;16247900248;73611072511;1269042031;2492039;12802096818;519868;798350526;896;1097;692520;4;2442;10118
1;103;1570637766684;1570637772036;5352;16255970544;73611072303;1326762836;2491436;12802096610;524580;798554315;1005;1132;735152;0;2840;12932
1;104;1570637772036;1570637777191;5155;16247526050;73611072471;1241071325;2480043;12802096778;527312;798501898;1026;1384;658504;65;4623;207280
1;105;1570637777191;1570637782144;4953;16254849264;73611072513;1306103962;2474291;12802096820;523483;798302873;854;1376;762600;-69;4723;306320
1;106;1570637782144;1570637787096;4952;16256604914;73611072502;1274611104;2572446;12802096809;519865;798317827;993;980;680528;0;2615;11038
1;107;1570637787096;1570637791750;4654;16268441280;73611072399;1282274575;2735647;12802096706;521709;798499916;867;1010;638264;0;2366;10233
1;108;1570637791751;1570637796901;5150;16248219550;73611072196;1282845225;2398490;12802096503;519640;798312652;896;1148;708872;2;2437;9832
1;109;1570637796901;1570637802052;5151;16246159052;73611072213;1252451812;2382524;12802096520;523712;798632794;877;1160;706280;-2;2476;9579
1;110;1570637802052;1570637807001;4949;16243909192;73611072199;1245309424;2308170;12802096506;524511;798593320;1020;1182;668936;42;2956;38478
1;111;1570637807001;1570637811651;4650;16246923216;73611072195;1252493699;2293453;12802096502;521691;798207667;815;1073;668272;-37;2445;17152
1;112;1570637811651;1570637816301;4650;16244050228;73611072193;1268299209;2254156;12802096500;520559;798587429;824;1039;637896;1;2369;9118
1;113;1570637816301;1570637821049;4748;16241363244;73611072194;1221422984;2366652;12802096501;516586;798593307;996;914;656264;-6;2776;13187
1;114;1570637821049;1570637825798;4749;16246173652;73611072200;1246885676;2285820;12802096507;510965;798188601;854;1012;626696;0;2356;9490
1;115;1570637825799;1570637831050;5251;16247172730;73611072200;1222066258;2550533;12802096507;530361;798314307;983;1132;709400;5;2465;10315
1;116;1570637831050;1570637836204;5154;16257868252;73611072204;1225097413;2991081;12802096511;524693;798525085;919;1139;712672;-5;2469;10307
1;117;1570637836204;1570637841165;4961;16247553060;73611072508;1293466865;2299836;12802096815;517853;798289327;1021;1129;672064;0;3033;32239
1;118;1570637841165;1570637846138;4973;16248330802;73611072849;1287422092;2387740;12802097156;526470;798374515;886;1090;680528;0;2541;10125
1;119;1570637846138;1570637850812;4674;16249525812;73611072850;1271453351;2403294;12802097157;518569;798549017;890;986;644136;0;2507;10937
1;120;1570637850812;1570637855683;4871;16246526826;73611072835;1294329934;2229498;12802097142;515958;798583280;910;1037;645080;0;2435;10360
1;121;1570637855683;1570637860659;4976;16246770500;73611072789;1303982386;2263648;12802097096;519097;798119891;856;1128;668800;4;2316;9216
1;122;1570637860659;1570637865535;4876;16251463816;73611072721;1271150965;2472554;12802097028;519940;798394743;901;1070;674400;-4;2398;10283
1;123;1570637865535;1570637870583;5048;16235042028;73611072227;1286801524;2029037;12802096534;522346;798293031;1004;1200;700944;5;2903;38261
1;124;1570637870583;1570637875456;4873;16249062700;73611072903;1301138282;2501702;12802097210;522090;798385306;919;1069;662672;-5;2499;10453
1;125;1570637875456;1570637880221;4765;16248896698;73611072623;1309788369;2118529;12802096930;523483;798157582;915;969;614968;6;2477;10762
1;126;1570637880221;1570637885369;5148;16244356244;73611073698;1328342151;2155883;12802096834;526525;798352551;1041;1042;708984;-4;2861;13691
1;127;1570637885369;1570637890017;4648;16245974946;73611087013;1312497936;2083406;12802099821;520685;798560008;858;1032;639696;-2;2775;14057
1;128;1570637890017;1570637894770;4753;16259504328;73611072189;1287952357;2529499;12802096496;531882;798360170;890;1041;650152;7;2614;13541
1;129;1570637894770;1570637900323;5553;16256285758;73611071870;1324366026;2602944;12802096443;523711;798584211;1213;1218;780264;-7;3292;31052
1;130;1570637900323;1570637905174;4851;16255715920;73611071428;1286196147;2462943;12802096374;515045;798341364;852;1093;668272;0;2389;9257
1;131;1570637905174;1570637910044;4870;16258063162;73611072685;1251663375;2622648;12802096992;526190;798382640;902;1055;668272;6;2675;12100
1;132;1570637910044;1570637915020;4976;16258645848;73611072877;1266990017;2556464;12802097184;520516;798569778;992;1020;686768;-6;2559;11111
1;133;1570637915020;1570637920174;5154;16237035366;73611072377;1321425287;2216093;12802096684;518899;798316702;946;1134;710216;1;2346;10012
2;86;1570638507850;1570638512500;4650;16250103972;73611072497;1335272218;2091716;12802096804;516644;798490777;911;1097;651800;0;2753;28282
2;87;1570638512500;1570638517149;4649;16248377668;73611072496;1296528800;2339971;12802096803;517031;798484112;795;997;641728;1;2445;8829
2;88;1570638517149;1570638521800;4651;16253015650;73611072211;1314764733;2245601;12802096518;516995;798558376;872;957;639768;-1;2552;10965
2;89;1570638521800;1570638526650;4850;16253656736;73611072188;1292621706;2433234;12802096495;523022;798287769;831;947;666160;0;2385;9695
2;90;1570638526650;1570638531302;4652;16256647692;73611072419;1294873365;2395002;12802096726;518563;798307205;784;1037;637896;0;2259;9191
2;91;1570638531302;1570638535953;4651;16254874522;73611072174;1305074353;2375025;12802096747;510250;798552979;784;1036;637656;6;2305;9534
2;92;1570638535953;1570638540602;4649;16246320966;73611071561;1291750844;2122595;12802096507;516861;798502807;901;1099;651736;-2;2900;26896
2;93;1570638540602;1570638545255;4653;16263214626;73611072479;1276011347;2734310;12802096786;518222;798475240;803;1019;642056;-2;2422;8691
2;94;1570638545255;1570638550105;4850;16246813716;73611072386;1236690565;2529035;12802096693;522412;798299990;837;994;662856;5;2413;9132
2;95;1570638550105;1570638555354;5249;16245758428;73611072240;1236624641;2510252;12802096547;524076;798321201;971;1049;726560;-5;2621;10381
2;96;1570638555354;1570638560200;4846;16240173052;73611072433;1270697965;2266971;12802096740;516108;798248082;807;1085;663912;2;2415;9380
2;97;1570638560201;1570638565048;4847;16242730826;73611072191;1245611248;2310381;12802096498;526954;798392202;823;1079;668008;4;2402;9458
2;98;1570638565048;1570638569799;4751;16249142708;73611072213;1232024396;2375099;12802096520;526966;798236874;972;1073;644536;17;2497;24828
2;99;1570638569799;1570638574449;4650;16252975792;73611072475;1274976670;2561496;12802096782;517366;798379110;832;950;665264;-20;2700;29691
2;100;1570638574450;1570638579201;4751;16253568114;73611072513;1219934025;2744626;12802096820;525990;798540179;841;1041;656016;-5;2518;9874
2;101;1570638579201;1570638584054;4853;16259685368;73611072506;1263193191;2658363;12802096813;523710;798352373;924;931;665296;1;2590;11640
2;102;1570638584054;1570638588704;4650;16250051558;73611072501;1290712760;2311880;12802096808;520986;798582992;793;1010;639136;5;2232;8531
2;103;1570638588704;1570638593355;4651;16256698354;73611072285;1287995207;2530051;12802096592;516651;798589713;917;1293;620488;47;4525;185309
2;104;1570638593356;1570638598016;4660;16267184950;73611072457;1299306471;2678527;12802096764;522543;798280986;802;1264;709848;-53;4352;226495
2;105;1570638598016;1570638602673;4657;16274566710;73611072497;1263651626;2976296;12802096804;522317;798301835;905;943;637896;6;2581;11885
2;106;1570638602673;1570638607525;4852;16258574308;73611072500;1298876252;2487903;12802096807;520041;798286270;822;1090;668008;-6;2200;8903
2;107;1570638607525;1570638612174;4649;16250232598;73611072394;1327355752;2323186;12802096701;520279;798333367;844;995;643496;0;2572;10876
2;108;1570638612175;1570638616823;4648;16247743152;73611072183;1294981497;2198719;12802096490;518883;798338766;819;1011;637744;0;2239;9036
2;109;1570638616824;1570638621578;4754;16253621988;73611072190;1287509665;2442923;12802096497;522942;798315450;895;1159;635408;22;2599;34629
2;110;1570638621579;1570638626330;4751;16257804742;73611072189;1280603016;2474199;12802096496;521667;798434696;867;1034;673920;-18;2609;12614
2;111;1570638626330;1570638630978;4648;16244473920;73611072183;1293781146;2181410;12802096490;524593;798401412;906;996;636720;1;2703;19667
2;112;1570638630978;1570638635628;4650;16252292074;73611072184;1281377073;2320387;12802096491;518699;798401007;847;980;643232;-5;2487;10493
2;113;1570638635628;1570638640280;4652;16255365812;73611072186;1263383040;2433902;12802096493;522997;798596592;839;1006;639160;4;2368;10454
2;114;1570638640280;1570638645030;4750;16251013698;73611072188;1280845112;2320808;12802096495;520708;798584725;813;1032;653840;-4;2174;8538
2;115;1570638645030;1570638649679;4649;16248607910;73611072184;1296481454;2306731;12802096491;517487;798196020;818;1033;643496;3;2331;9933
2;116;1570638649679;1570638654329;4650;16246812840;73611072184;1288915470;2190783;12802096491;520856;798578640;939;1093;653208;-3;2799;30768
2;117;1570638654330;1570638658981;4651;16256681272;73611072185;1275221501;2390302;12802096492;523916;798435606;802;1042;637640;4;2461;9516
2;118;1570638658981;1570638663731;4750;16253150992;73611072185;1334889176;2421680;12802096492;512259;798304125;854;872;641648;6;2538;11453
2;119;1570638663731;1570638668382;4651;16252931408;73611072184;1294346165;2272032;12802096491;515654;798507308;911;951;655224;-10;2280;11198
2;120;1570638668382;1570638673032;4650;16249779560;73611072184;1285131139;2298768;12802096491;521307;798146734;831;991;637368;0;2175;9035
2;121;1570638673032;1570638677682;4650;16248962106;73611072185;1288239731;2238822;12802096492;523063;798133566;825;980;641304;1;2422;9699
2;122;1570638677682;1570638682331;4649;16247630586;73611072184;1302954794;2203830;12802096491;514839;798151839;901;1107;635360;19;2345;16594
2;123;1570638682332;1570638687081;4749;16246750936;73611072183;1297163849;2169344;12802096490;526205;798563341;842;1053;656296;-20;2596;20762
2;124;1570638687081;1570638691730;4649;16249361562;73611072184;1283424967;2343077;12802096491;528847;798378050;781;1007;636848;4;2182;8002
2;125;1570638691731;1570638696580;4849;16251283360;73611072188;1266973456;2328355;12802096495;517616;798566158;942;1001;666240;-3;2938;14740
2;126;1570638696580;1570638701333;4753;16257319584;73611073694;1355620876;2287930;12802096830;523045;798367944;863;1041;657520;-1;2500;10456
2;127;1570638701333;1570638705988;4655;16269706516;73611087020;1260129516;2943271;12802099828;510832;798331241;832;1025;637736;5;2378;10221
2;128;1570638705988;1570638710638;4650;16252561298;73611072184;1279104507;2352059;12802096491;516539;798570933;818;1026;643496;-5;2400;10083
2;129;1570638710638;1570638715292;4654;16265156718;73611072188;1278148640;2736317;12802096495;516969;798548986;947;1103;660672;7;2901;41101
2;130;1570638715292;1570638719942;4650;16251638432;73611072185;1329086858;2359408;12802096492;520379;798552457;827;1027;639664;-7;2289;8722
2;131;1570638719942;1570638724591;4649;16250741846;73611072183;1332939130;2234235;12802096490;521510;798512125;886;967;637640;0;2692;13754
2;132;1570638724591;1570638729245;4654;16257382364;73611072186;1300750050;2521988;12802096493;520164;798545813;973;864;634344;2;2352;10986
2;133;1570638729245;1570638733996;4751;16254632746;73611071862;1309992930;2460352;12802096435;517215;798542886;829;1072;652912;4;2319;9066
2;134;1570638733996;1570638738749;4753;16255537800;73611071429;1337882108;2280080;12802096375;525065;798359817;918;1011;655856;-6;2541;12120
2;135;1570638738749;1570638743497;4748;16245225090;73611072184;1289385794;2223982;12802096491;518518;798347187;867;1049;649888;6;2229;10290
3;91;1570639336399;1570639341073;4674;16253872962;73611073173;1312477008;2399221;12802097480;517211;798591694;823;1060;644552;0;2625;10409
3;92;1570639341073;1570639345747;4674;16251303800;73611072954;1276455332;2323352;12802097261;519423;798455769;852;1010;644288;0;2523;10095
3;93;1570639345748;1570639350519;4771;16243532804;73611073162;1318750980;2091424;12802097469;519544;798578495;887;1029;656904;0;2368;9583
3;94;1570639350519;1570639355193;4674;16251121154;73611072992;1315359318;2295836;12802097299;515188;798430621;809;1033;626696;5;2306;9197
3;95;1570639355193;1570639359867;4674;16252376316;73611072901;1308305699;2273000;12802097208;519166;798313890;873;987;644288;-3;2564;11914
3;96;1570639359867;1570639364540;4673;16243772828;73611073082;1292160772;2179090;12802097389;518293;798514121;966;1089;647120;-2;2607;30484
3;97;1570639364540;1570639369214;4674;16250176388;73611072859;1299297307;2269157;12802097166;517064;798521239;813;1071;644552;0;2329;8296
3;98;1570639369214;1570639373885;4671;16243326214;73611072873;1336082391;1975368;12802097180;521661;798529726;859;992;638488;4;2584;10624
3;99;1570639373886;1570639378554;4668;16251548496;73611072971;1310784804;2439396;12802097278;515457;798512616;873;998;632760;-3;2487;10054
3;100;1570639378554;1570639383203;4649;16242796088;73611072509;1236059421;2251940;12802096816;514052;798514567;747;1062;637536;5;2197;8796
3;101;1570639383204;1570639387853;4649;16243994748;73611072501;1231702528;2386060;12802096808;514543;798503984;813;1047;638160;0;2249;9044
3;102;1570639387853;1570639392505;4652;16255534442;73611072510;1234824061;2624316;12802096817;517952;798382758;792;1048;644032;-6;2130;8257
3;103;1570639392505;1570639397156;4651;16251389356;73611072292;1227109643;2602809;12802096599;516526;798198396;941;1103;631896;1;2753;46591
3;104;1570639397156;1570639401805;4649;16243251900;73611072465;1235404322;2269257;12802096772;517975;798385417;815;1043;640192;-1;2818;12445
3;105;1570639401805;1570639406452;4647;16238390684;73611072496;1249972711;2055410;12802096803;517514;798582928;872;973;609104;6;2294;9460
3;106;1570639406452;1570639411098;4646;16236064028;73611072507;1287816014;1819190;12802096814;516136;798559486;861;1018;644392;-6;2276;9370
3;107;1570639411098;1570639415749;4651;16251688656;73611072403;1248238758;2476236;12802096710;515411;798582329;864;1008;638424;0;2395;9712
3;108;1570639415749;1570639420398;4649;16243535286;73611072194;1230352240;2373705;12802096501;518235;798311779;785;1084;638424;0;2362;9460
3;109;1570639420398;1570639425045;4647;16242282314;73611072194;1242621551;2261847;12802096501;519290;798112354;891;1156;631872;16;2687;39966
3;110;1570639425045;1570639429693;4648;16234859236;73611072190;1269098674;2067801;12802096497;520197;798103712;823;1071;641248;-16;2455;9894
3;111;1570639429693;1570639434343;4650;16246598220;73611072194;1244159509;2306416;12802096501;520232;798237824;884;998;638424;0;2421;9784
3;112;1570639434343;1570639438991;4648;16238681078;73611072193;1243160538;2149434;12802096500;517560;798331012;931;954;636768;2;2844;14608
3;113;1570639438991;1570639443641;4650;16250152152;73611072193;1227472998;2452134;12802096500;516574;798431917;864;1125;627544;67;2429;34524
3;114;1570639443641;1570639448293;4652;16251597990;73611072197;1238694044;2367931;12802096504;517241;798311628;876;1291;589680;25;4653;247547
3;115;1570639448293;1570639452946;4653;16255191634;73611072219;1270136767;2446781;12802096526;511704;798386834;806;1271;736240;-90;4286;273204
3;116;1570639452946;1570639457695;4749;16245321012;73611072186;1314753156;2186184;12802096493;512398;798609185;931;990;650680;1;2603;11717
3;117;1570639457695;1570639462343;4648;16245135300;73611072182;1288084929;2209019;12802096489;516666;798586041;877;1019;644288;-5;2356;10544
3;118;1570639462343;1570639466991;4648;16247732494;73611072184;1304461625;2062576;12802096491;513365;798391470;853;1028;638424;0;2272;9008
3;119;1570639466991;1570639471643;4652;16253674402;73611072185;1291400469;2369823;12802096492;514910;798118845;854;1030;638536;5;2140;8531
3;120;1570639471643;1570639476298;4655;16269869598;73611072191;1261533986;2770264;12802096498;516914;798583555;948;1148;644064;5;2641;32644
3;121;1570639476298;1570639480946;4648;16243804072;73611072183;1305645383;2087878;12802096490;515055;798543218;851;1044;644816;-10;2439;9744
3;122;1570639480946;1570639485697;4751;16251365120;73611072184;1294988443;2298818;12802096491;516047;798557019;950;1059;657080;0;2782;16104
3;123;1570639485697;1570639490346;4649;16246965848;73611072182;1325488858;2263712;12802096489;520717;798340153;927;966;632560;5;2485;11321
3;124;1570639490346;1570639494995;4649;16250643734;73611072185;1296752184;2290586;12802096492;519758;798155500;849;1060;644288;-5;2448;10489
3;125;1570639494995;1570639499644;4649;16250091270;73611072183;1289751280;2284195;12802096490;519972;798546071;852;1036;638424;0;2280;9998
3;126;1570639499645;1570639504395;4750;16251786768;73611073696;1294052164;2239231;12802096832;515703;798358800;883;1067;650792;5;2553;11080
3;127;1570639504395;1570639509144;4749;16247893094;73611087018;1332213239;2120455;12802099826;522221;798329484;987;1149;673704;-5;2926;44341
3;128;1570639509144;1570639513794;4650;16255054248;73611072185;1301553824;2361334;12802096492;512551;798348729;816;1082;638424;6;2223;8595
3;129;1570639513794;1570639518441;4647;16243048814;73611071856;1304434550;2047915;12802096429;511146;798545052;916;991;638456;-1;2860;14810
3;130;1570639518442;1570639523291;4849;16249434416;73611071428;1309012346;2178335;12802096374;516886;798162755;974;1011;668800;-5;2540;11084
3;131;1570639523291;1570639527941;4650;16254911606;73611072185;1292252866;2446925;12802096492;513031;798396091;852;1047;638160;9;2469;11970
3;132;1570639527941;1570639532695;4754;16252578234;73611072189;1293891126;2343524;12802096496;521191;798147368;868;1087;656664;-9;2329;9734
3;133;1570639532695;1570639537349;4654;16265802038;73611072188;1265154345;2734875;12802096495;514183;798338551;969;1123;617216;45;2394;29928
3;134;1570639537349;1570639541996;4647;16243624054;73611072182;1289258841;2147923;12802096489;515934;798150502;902;1068;684096;-43;2727;27512
3;135;1570639541996;1570639546645;4649;16249873292;73611072185;1313418008;2185446;12802096492;514858;798193875;836;1060;640024;-1;2459;9756
3;136;1570639546645;1570639551396;4751;16254885618;73611072186;1246636530;2621809;12802096493;516348;798154960;978;962;638856;-1;2715;13783
3;137;1570639551396;1570639556044;4648;16239503058;73611072200;1253589600;2216498;12802096507;517873;798346313;844;1024;636128;2;2290;9997
3;138;1570639556044;1570639560690;4646;16235427760;73611072193;1271547123;1953861;12802096500;516732;798550790;897;990;616736;-2;2277;10072
3;139;1570639560690;1570639565339;4649;16246421706;73611072199;1306460252;2176193;12802096506;513439;798574249;863;1060;635576;3;2472;12064
3;140;1570639565339;1570639569983;4644;16232316062;73611072192;1310085976;1773253;12802096499;515271;798542680;994;1116;653200;-3;2657;34138
4;91;1570640157580;1570640162231;4651;16252047962;73610992856;1303061033;2281257;12802096804;515244;798582828;917;1100;656312;1;2980;32733
4;92;1570640162231;1570640166881;4650;16250583874;73610992660;1300154545;2326358;12802096608;519759;798444548;797;1009;639400;-1;2233;8069
4;93;1570640166881;1570640171533;4652;16256664482;73610992835;1295837822;2470245;12802096783;518815;798567906;884;959;638256;0;2535;9859
4;94;1570640171534;1570640176184;4650;16251025524;73610992721;1324812944;2270979;12802096669;521962;798429549;827;1008;638160;0;2272;8840
4;95;1570640176184;1570640180833;4649;16248661930;73610992582;1282811618;2325435;12802096530;517531;798592573;787;1023;637896;0;2173;8672
4;96;1570640180834;1570640185482;4648;16244325730;73610992774;1319837904;2210820;12802096722;519830;798504817;740;1083;638160;3;2549;10015
4;97;1570640185482;1570640190133;4651;16252624662;73610992545;1283681534;2329922;12802096493;520325;798523864;909;1120;650744;6;2902;35163
4;98;1570640190133;1570640194783;4650;16250670890;73610992557;1272990511;2314737;12802096505;516785;798513661;841;990;639992;-4;2519;10056
4;99;1570640194783;1570640199454;4671;16248912320;73610993421;1296035524;2232852;12802097369;517046;798315879;827;1008;632296;-5;2306;8833
4;100;1570640199454;1570640204126;4672;16246653116;73610993530;1289068461;2195044;12802097478;517562;798302776;881;954;638264;4;2522;10558
4;101;1570640204127;1570640208797;4670;16242923546;73610993505;1301769765;2099721;12802097453;517877;798304716;802;1065;644224;-2;2294;8711
4;102;1570640208797;1570640213569;4772;16245937862;73610993503;1291446821;2160967;12802097451;516375;798507795;851;1045;656344;-2;2291;9026
4;103;1570640213569;1570640218244;4675;16256425772;73610993315;1300711001;2371296;12802097263;519225;798616867;842;1001;642264;2;2293;8783
4;104;1570640218244;1570640222919;4675;16248722958;73610993492;1287175873;2447970;12802097440;518774;798604487;914;1107;655624;3;2723;31215
4;105;1570640222919;1570640227591;4672;16246459228;73610993545;1312149483;2196182;12802097493;517992;798597489;809;1031;644024;-5;2239;7760
4;106;1570640227591;1570640232263;4672;16247514516;73610993546;1347014127;2178867;12802097494;518197;798407890;907;950;644288;0;2502;10380
4;107;1570640232263;1570640236935;4672;16249206510;73610993400;1298927570;2334723;12802097348;519194;798605168;865;992;638272;4;2256;9491
4;108;1570640236935;1570640241608;4673;16251921526;73610993181;1285779161;2326351;12802097129;521101;798418262;825;1038;644024;-4;2280;8874
4;109;1570640241608;1570640246378;4770;16237687840;73610993188;1366650726;1869424;12802097136;530177;798312943;842;1057;656280;0;2308;9229
4;110;1570640246378;1570640251035;4657;16243118164;73610992754;1252841758;2258867;12802096702;519154;798524070;951;1248;619928;53;3880;137147
4;111;1570640251035;1570640255687;4652;16241088910;73610992560;1240578891;2252646;12802096508;517430;798455275;779;1331;658752;-9;4652;291981
4;112;1570640255687;1570640260351;4664;16246032470;73610992965;1276699568;2244699;12802096913;524171;798521371;881;1020;696128;-41;3036;28897
4;113;1570640260351;1570640265026;4675;16251612444;73610993169;1291568182;2297139;12802097117;526331;798254550;845;1026;640840;3;2534;10596
4;114;1570640265026;1570640269696;4670;16242611398;73610993191;1313825371;2140446;12802097139;520794;798328283;813;1048;644024;-6;2400;10035
4;115;1570640269696;1570640274369;4673;16245812010;73610993175;1289212407;2244367;12802097123;516880;798543080;819;1070;644288;0;2485;10590
4;116;1570640274369;1570640279144;4775;16258105794;73610993185;1279469966;2491127;12802097133;521808;798605450;873;1108;655144;4;3067;24694
4;117;1570640279144;1570640283822;4678;16259464324;73610993247;1243396776;2725533;12802097195;521505;798629257;953;1124;659688;-3;2993;35246
4;118;1570640283822;1570640288496;4674;16252434424;73610993229;1298351092;2362385;12802097177;518335;798401977;828;1029;639992;-1;2268;8580
4;119;1570640288496;1570640293169;4673;16249327106;73610993229;1290529394;2296785;12802097177;526586;798198151;898;956;644024;0;2622;12260
4;120;1570640293169;1570640297840;4671;16242066088;73610993235;1298801771;2113183;12802097183;517823;798605404;934;969;644544;0;2394;10126
4;121;1570640297840;1570640302513;4673;16254405862;73610993206;1287166950;2425600;12802097154;521579;798566273;851;1008;638160;5;2096;8443
4;122;1570640302513;1570640307185;4672;16247400490;73610993203;1316553461;2169574;12802097151;519200;798581729;851;1023;644024;0;2257;9748
4;123;1570640307185;1570640311854;4669;16239334136;73610993205;1315194476;1971667;12802097153;523690;798571292;958;1059;622144;20;2457;16685
4;124;1570640311854;1570640316529;4675;16249227826;73610993267;1291264934;2225633;12802097215;520404;798584551;855;1052;663504;-25;2788;23847
4;125;1570640316529;1570640321203;4674;16253421822;73610993236;1275283071;2408795;12802097184;522263;798567654;856;1051;644288;0;2430;9714
4;126;1570640321203;1570640325880;4677;16258626868;73610994735;1279354743;2507489;12802097512;516491;798575714;920;952;638016;9;2822;12926
4;127;1570640325880;1570640330755;4875;16257069340;73611008063;1264549033;2612957;12802100512;524760;798380986;923;1054;674240;-8;2551;10379
4;128;1570640330755;1570640335427;4672;16250801706;73610993175;1315562020;2306284;12802097123;516845;798153390;809;1069;644448;-1;2246;8921
4;129;1570640335427;1570640340102;4675;16251612152;73610992836;1319712096;2326553;12802097050;527045;798377424;821;1065;642256;2;2350;9662
4;130;1570640340102;1570640344780;4678;16258055424;73610992464;1289501317;2513094;12802097051;518797;798371996;932;1127;653128;-2;2940;31135
4;131;1570640344780;1570640349453;4673;16251455348;73610993247;1283782609;2475466;12802097195;515123;798559741;860;1025;638192;6;2347;9246
4;132;1570640349453;1570640354126;4673;16247024394;73610993191;1292586201;2278162;12802097139;520605;798589612;881;1017;644288;-6;2496;11022
4;133;1570640354126;1570640358802;4676;16260671160;73610993271;1312772119;2445244;12802097219;521004;798618397;974;917;644144;0;2209;9626
4;134;1570640358802;1570640363477;4675;16257678306;73610993208;1284765029;2488398;12802097156;517698;798579113;868;1025;644024;0;2151;9378
4;135;1570640363477;1570640368350;4873;16248504396;73610993184;1346989769;2136734;12802097132;518491;798542189;889;1086;668536;0;2465;10457
4;136;1570640368350;1570640373225;4875;16256219766;73610993186;1270194840;2736772;12802097134;520128;798373111;920;1151;670056;117;2540;23235
4;137;1570640373225;1570640377873;4648;16243051880;73610992560;1224706148;2412247;12802096508;527178;798610823;950;1055;656008;-112;2778;35877
4;138;1570640377874;1570640382522;4648;16248344380;73610992555;1206111445;2549685;12802096503;517091;798573434;790;1080;636216;0;2483;10648
4;139;1570640382522;1570640387170;4648;16241159428;73610992559;1229018447;2393391;12802096507;517098;798561637;932;953;640824;-3;2470;10560
4;140;1570640387170;1570640391818;4648;16242576358;73610992551;1241399415;2313109;12802096499;516432;798546891;837;1052;639440;0;2251;9289
