0;6;1570805443162;1570805455423;12261;41015114240;53279966879;2028477691;929206104;10504187623;85450261;715443063;0;0;0;0;0;0
0;7;1570805455795;1570805468357;12562;41950998768;53255652672;2020382064;924424535;10498717877;85337499;720359585;48;109;1272;0;19;438
0;8;1570805468676;1570805480917;12241;40884444970;53276989788;2026322044;925928857;10503784188;85367836;718874370;29;14;4880;0;95;218
0;9;1570805481236;1570805493738;12502;41571403440;53258407448;2003117254;912014648;10499798087;85348086;716376829;0;0;0;0;0;0
0;10;1570805494058;1570805506302;12244;40968003836;53275389009;2029024762;927610797;10503432317;85397283;719791196;96;114;6160;0;126;1097
0;11;1570805506669;1570805519099;12430;41644617914;53253158834;2032165809;924612300;10498216465;85259793;719356894;0;0;0;0;0;0
0;12;1570805519418;1570805531666;12248;40869092048;53294000431;2031453244;922544867;10510503117;85364295;718901949;73;125;6208;0;102;532
0;13;1570805531993;1570805544425;12432;41558470760;53253361817;2021246582;916510629;10498326285;85301547;720862113;0;0;0;0;0;0
0;14;1570805544744;1570805556967;12223;40931932638;53274536413;2037533300;927532369;10503356199;85388263;719031455;0;0;0;0;0;0
0;15;1570805557338;1570805569802;12464;41772997758;53254224970;2028781280;926911157;10498652052;85236168;722546733;85;119;6224;0;106;790
0;16;1570805570121;1570805582444;12323;41060947144;53274039167;2032514087;926137895;10503238065;85354819;719683303;0;0;0;0;0;0
0;17;1570805582765;1570805595200;12435;41677498428;53253365000;2023715220;918687908;10498490595;85237068;719651365;76;120;6216;0;104;686
0;18;1570805595520;1570805607698;12178;40721005416;53274264195;2018423489;923097025;10503356898;85358441;717583707;24;14;4696;0;73;192
0;19;1570805608066;1570805620500;12434;41654073020;53271175366;2011550156;923574274;10505240522;85219831;716205874;4;0;48;0;1;4
0;20;1570805620820;1570805633113;12293;41127345608;53275690041;2035482445;927327826;10503881703;85283507;720400067;0;0;0;0;0;0
0;21;1570805633433;1570805645933;12500;41894171772;53252210808;2027737739;927790802;10498113048;85079409;716984634;63;128;6664;0;88;416
0;22;1570805646252;1570805658421;12169;40589344222;53298198074;2026137931;915653004;10511204934;86535883;718909697;0;0;0;0;0;0
0;23;1570805658789;1570805671175;12386;41545813144;53252961851;2027475950;928771624;10498429676;85190042;719601919;63;129;6280;0;104;571
0;24;1570805671494;1570805683736;12242;40746577316;53274573720;2032192218;925310780;10503532805;85353264;721190297;0;0;0;0;0;0
0;25;1570805684055;1570805696482;12427;41656430628;53251404800;2028087497;920193672;10497927975;85437072;717383135;0;0;0;0;0;0
0;26;1570805696801;1570805708976;12175;40771782172;53273007049;2038331739;930260362;10503028417;86730459;720746901;73;126;5520;0;132;1418
0;27;1570805709344;1570805721690;12346;41352434246;53252723607;2030152853;917589558;10498364505;85397483;716881713;1;0;8;0;0;0
0;28;1570805722010;1570805734220;12210;40867561238;53273406830;2037074829;924383214;10503127583;85351337;718628749;26;14;4952;0;72;166
0;29;1570805734540;1570805747048;12508;41542694730;53252681657;2040873661;921753364;10498362224;85270658;719326302;0;0;0;0;0;0
0;30;1570805747368;1570805759516;12148;40653435302;53272893155;2040878858;923235736;10503009280;85352294;720009597;34;12;4744;0;75;240
0;31;1570805759887;1570805772349;12462;41474667344;53276340210;2027385049;921307420;10506066377;85254991;718662764;0;0;0;0;0;0
0;32;1570805772668;1570805784924;12256;40958687430;53274590623;2031590787;930113246;10503479567;85304182;719326425;1;0;16;0;0;0
0;33;1570805785253;1570805797723;12470;41794710440;53270740166;2025280487;925165832;10505122924;85253870;720121645;25;14;4984;0;68;157
0;34;1570805798043;1570805810257;12214;40775723734;53272968412;2022534181;922946261;10503027621;85323700;719882212;2;0;24;0;0;0
0;35;1570805810625;1570805823004;12379;41499885632;53252584853;2028539950;924615958;10498352183;85256148;721095394;25;14;4920;0;78;190
0;36;1570805823324;1570805835594;12270;41055961974;53275096831;2019294695;927001871;10503559175;85325185;719709113;1;0;8;0;0;0
0;37;1570805835915;1570805848376;12461;41776991442;53251725030;2034762323;924252461;10497983795;85204346;719510088;23;14;4752;0;78;197
0;38;1570805848696;1570805860927;12231;40951122878;53274192117;2030491245;922800324;10503462882;85248204;717504942;5;0;56;0;1;3
0;39;1570805861295;1570805873718;12423;41640552106;53251496253;2036215159;922289873;10497986383;85238821;717714880;1;0;8;0;0;0
0;40;1570805874038;1570805886308;12270;41094626278;53292178336;2037963052;926827221;10510194900;85265392;721396113;35;14;4928;0;88;325
0;41;1570805886627;1570805899082;12455;41742186210;53251315056;2026466029;927288089;10497958668;85166686;717808384;2;0;16;0;0;0
0;42;1570805899402;1570805911677;12275;41113293108;53273203978;2036404829;930828335;10503127797;85320011;720027887;27;10;4880;0;81;237
0;43;1570805912044;1570805924484;12440;41685007646;53252747037;2034425638;924700115;10498389407;85212883;719143543;4;0;48;0;1;3
0;44;1570805924804;1570805937140;12336;41330796900;53272837755;2037818953;931173542;10503009878;85272344;718868387;1;0;8;0;0;0
0;45;1570805937459;1570805950021;12562;42093763408;53254272016;2025734072;931424048;10498923531;85201772;719340200;481;33;52096;0;1689;2156
0;46;1570805950341;1570805962770;12429;41628855316;53274688729;2029679221;928228247;10503596621;85198271;715541864;0;0;0;0;0;0
0;47;1570805963139;1570805975591;12452;41728427754;53253320848;2048701212;927244826;10498536940;85240926;718303501;150;155;9064;0;196;3258
0;48;1570805975912;1570805988183;12271;41108653082;53272721825;2041824652;929334816;10502987590;86506759;719200665;0;0;0;0;0;0
0;49;1570805988503;1570806000957;12454;41780824818;53250934690;2035081959;928960606;10497843922;85203149;718130734;0;0;0;0;0;0
0;50;1570806001278;1570806013525;12247;40992800476;53295657323;2047130900;927795586;10510621525;85439239;719486990;53;134;5256;0;121;824
0;51;1570806013895;1570806026355;12460;41721462240;53271629321;2035283643;925232069;10505482457;85110828;721618897;0;0;0;0;0;0
0;52;1570806026673;1570806038942;12269;41093919638;53292023751;2035589477;929613219;10510169803;85150697;721936391;34;12;4944;0;164;408
0;53;1570806039261;1570806051786;12525;41994652914;53270104465;2022493733;925807755;10504995162;85084879;718687665;1;0;8;0;0;0
0;54;1570806052111;1570806064421;12310;41225835456;53291776054;2032365467;931653245;10510120189;85210642;720410817;0;0;0;0;0;0
0;55;1570806064790;1570806077288;12498;41906022154;53270144151;2031203101;926405084;10505007978;85167147;716208039;28;12;4936;0;82;199
1;3;1570806272581;1570806285722;13141;44130791908;57291175119;2083593959;930774790;11006785634;87702366;753025558;32;20;6248;0;87;197
1;4;1570806286060;1570806299019;12959;43436958298;57321384750;2092977588;935263376;11012290469;87845951;748744960;0;0;0;0;0;0
1;5;1570806299356;1570806312505;13149;44144076302;57294331061;2084211203;930708854;11007755871;87726156;747149961;21;15;4872;0;97;128
1;6;1570806312843;1570806325746;12903;43292922144;57320779381;2080700183;930548448;11012054233;87726287;748315452;1;0;8;0;0;0
1;7;1570806326133;1570806339337;13204;44205909346;57289207206;2076311855;932470980;11006203941;87746610;743312931;33;10;4816;0;72;304
1;8;1570806339680;1570806352643;12963;43259115260;57320584399;2069456254;923173638;11012069662;87808850;742863419;2;2;48;0;0;0
1;9;1570806352982;1570806366229;13247;44101257860;57289632011;2068734836;930089453;11006414796;87729881;739604612;24;14;4704;0;65;160
1;10;1570806366568;1570806379474;12906;43343506764;57321666445;2070501710;932149978;11012473521;87755988;742826721;5;0;56;0;1;3
1;11;1570806379866;1570806392985;13119;44095947110;57289030028;2057994359;928857254;11006423618;87661615;739169343;0;0;0;0;0;0
1;12;1570806393322;1570806406376;13054;43266976630;57340997145;2072166389;919670727;11019402470;87647834;738950521;31;9;4808;0;85;247
1;13;1570806406744;1570806419913;13169;43898760240;57289072093;2055816150;913246583;11006367769;87750541;738100332;1;0;8;0;0;0
1;14;1570806420252;1570806433142;12890;43271656806;57321583717;2071885899;929978231;11012663124;87797695;738730030;36;16;4864;0;86;288
1;15;1570806433633;1570806446836;13203;44346304260;57287529524;2062739706;926304378;11005960148;87635351;734522456;0;0;0;0;0;0
1;16;1570806447176;1570806460222;13046;43837504626;57318789824;2075519659;929463398;11011817158;87612693;740636956;30;8;4760;0;69;249
1;17;1570806460560;1570806473760;13200;44379552402;57286153214;2066921743;926556955;11005706424;87591464;734089264;4;1;64;0;9;10
1;18;1570806474099;1570806487091;12992;43600677588;57319712471;2064483205;925505004;11012192486;87615945;736679569;31;14;4960;0;95;297
1;19;1570806487480;1570806500692;13212;44410530828;57331807931;2063434343;925015570;11021317308;87661276;737014199;4;0;48;0;1;4
1;20;1570806501030;1570806514067;13037;43743703714;57317580743;2083699742;934573678;11011543681;87665445;739811480;86;116;6088;0;159;2015
1;21;1570806514406;1570806527559;13153;44193171576;57286217138;2067814890;923411140;11005765952;87640099;736694061;0;0;0;0;0;0
1;22;1570806527897;1570806540869;12972;43568862728;57318128092;2078642356;931865217;11011688827;87731992;736606260;47;110;1272;0;12;354
1;23;1570806541257;1570806554470;13213;44230441288;57285788841;2086702704;928221908;11005640660;87562765;747706926;37;10;5072;0;100;417
1;24;1570806554835;1570806567897;13062;43531771574;57317398912;2086384639;930425011;11011484017;87630658;749484705;0;0;0;0;0;0
1;25;1570806568235;1570806581970;13735;44460787824;57285750895;2089091668;933459313;11005643454;87612536;746062884;97;116;6144;0;122;960
1;26;1570806582309;1570806595304;12995;43408488882;57317879590;2081835748;934507070;11012113411;87657743;749960388;0;0;0;0;0;0
1;27;1570806595691;1570806608914;13223;44298795714;57284837715;2070925581;924943565;11005624424;87783478;746114602;79;124;6416;0;106;726
1;28;1570806609253;1570806622303;13050;43503503346;57317638204;2087717279;924942466;11011897075;87651490;748245378;0;0;0;0;0;0
1;29;1570806622652;1570806635862;13210;44175482070;57284177592;2060568296;923876911;11005477108;87706380;741700177;94;124;6344;0;199;997
1;30;1570806636203;1570806649205;13002;43440318926;57315835633;2073009176;926317502;11011345729;87727255;745056799;0;0;0;0;0;0
1;31;1570806649594;1570806662779;13185;44311804898;57286108799;2080935400;935389187;11006052903;87707903;745959685;0;0;0;0;0;0
1;32;1570806663118;1570806676059;12941;43461697706;57316480242;2095528523;938838781;11011518286;87749247;746277395;88;118;5136;0;132;2156
1;33;1570806676400;1570806689580;13180;44308705464;57305847530;2084657751;933100069;11013059933;87635129;744007312;0;0;0;0;0;0
1;34;1570806689919;1570806702881;12962;43547309916;57317105812;2078999515;934676906;11011785475;87692250;745177197;47;8;4664;0;99;473
1;35;1570806703268;1570806716509;13241;44535844964;57285470623;2078369730;934002756;11005922756;87625748;740022042;2;0;24;0;0;0
1;36;1570806716848;1570806729819;12971;43513899276;57317550166;2069773303;932757510;11011879634;87716210;739369294;56;3;4928;0;102;601
1;37;1570806730159;1570806743403;13244;44493489488;57284860847;2067529498;928347279;11005607457;87731791;737097290;0;0;0;0;0;0
1;38;1570806743743;1570806756765;13022;43754442160;57317399973;2081880286;934176857;11011815659;87723165;741150424;39;14;4696;0;86;310
1;39;1570806757153;1570806770346;13193;44330554364;57284460939;2070882621;932079334;11005576348;87671980;747249869;0;0;0;0;0;0
1;40;1570806770685;1570806783653;12968;43518482362;57337421215;2086893339;933184218;11018914103;87666056;746316368;472;20;47920;0;1534;2001
1;41;1570806783992;1570806797138;13146;44175575218;57283900660;2078794548;927770424;11005425937;87627243;746108087;4;1;64;0;1;3
1;42;1570806797477;1570806810417;12940;43467149492;57315575788;2088602579;937188953;11011303586;87648571;748060301;38;24;5528;0;98;412
1;43;1570806810806;1570806823922;13116;44077735508;57284316733;2074720269;924486077;11005500101;87696742;736073443;90;0;880;0;68;1928
1;44;1570806824261;1570806837171;12910;43359283962;57315904898;2088342597;934984887;11011365646;87682452;738865251;1;0;16;0;0;0
1;45;1570806837509;1570806850633;13124;44105856130;57285201523;2082245479;930541884;11005870472;87735387;736590273;50;12;6920;0;117;531
1;46;1570806850973;1570806863932;12959;43487007974;57316324176;2072938263;926927908;11011494509;87851951;739159096;1;0;8;0;0;0
1;47;1570806864322;1570806877604;13282;44442551110;57308030183;2087674768;930114239;11013364756;87723724;745810260;43;8;4880;0;76;424
1;48;1570806877943;1570806891269;13326;43412744782;57317273703;2083578029;928331011;11011832532;87640752;747589903;4;0;48;0;1;3
1;49;1570806891611;1570806904761;13150;44190283404;57284654773;2074072422;928362394;11005680018;87779278;742771551;27;14;4960;0;86;223
1;50;1570806905101;1570806918246;13145;43440412366;57315758565;2074942355;933396641;11011342263;87759628;749600691;4;0;48;0;1;3
1;51;1570806918636;1570806931972;13336;44488116688;57305404217;2067080764;930955756;11012967123;87647817;747205550;43;6;4688;0;87;446
1;52;1570806932310;1570806945233;12923;43405845844;57337411086;2082556589;931851393;11018923233;87712302;749369823;6;0;64;0;1;4
2;4;1570807152713;1570807165396;12683;42405907612;57924848882;2036668593;929897869;11079042882;87011704;721873345;0;0;0;0;0;0
2;5;1570807165714;1570807178513;12799;42941037470;57921761127;2032235331;926315911;11082057716;86932013;723187171;33;14;4928;0;77;264
2;6;1570807178831;1570807191456;12625;42272257022;57923724027;2040340671;929025123;11078758074;86915952;725240228;0;0;0;0;0;0
2;7;1570807191823;1570807204696;12873;43047159614;57903779353;2002108546;919576919;11076345969;86936455;716054358;47;14;5160;0;119;467
2;8;1570807205012;1570807217682;12670;42033864280;57921092529;2005689000;913030142;11080341642;86938091;715489740;2;2;40;0;9;9
2;9;1570807217996;1570807230816;12820;42870951338;57891713761;2004370842;918382490;11075963625;86831613;714201157;0;0;0;0;0;0
2;10;1570807231134;1570807243792;12658;42418467700;57922312796;2037653913;930288392;11080532491;86853883;720132484;37;10;4824;0;80;286
2;11;1570807244159;1570807256935;12776;42853914890;57891709697;2028351357;927470756;11076104705;86772179;726592331;0;0;0;0;0;0
2;12;1570807257251;1570807269821;12570;42139499660;57941056897;2046794599;926012050;11087609519;86673044;727093197;36;16;4872;0;98;346
2;13;1570807270137;1570807283004;12867;43024995062;57891519513;2039535804;929147252;11075961149;86731072;725836948;0;0;0;0;0;0
2;14;1570807283320;1570807295954;12634;42367812562;57921069886;2052762839;931325266;11080552924;86671146;731044438;34;12;4952;0;90;339
2;15;1570807296327;1570807309167;12840;42985264958;57889985591;2019415359;923909553;11075607872;86575895;716575569;5;0;56;0;9;12
2;16;1570807309497;1570807321973;12476;41856341858;57920012090;2012212687;918562004;11080397330;86559376;716589657;0;0;0;0;0;0
2;17;1570807322289;1570807335015;12726;42719462760;57888793281;2005840334;921283214;11075394971;86594874;713421658;33;13;4672;0;76;261
2;18;1570807335330;1570807347856;12526;41954116598;57918742830;2017741796;923594521;11079997528;86660310;718745567;33;16;4968;0;106;332
2;19;1570807348220;1570807360888;12668;42511895728;57912203203;2020939581;924011165;11083549187;86742815;723814311;0;0;0;0;0;0
2;20;1570807361204;1570807373702;12498;41890549804;57918362141;2036412226;928049100;11079937474;86689693;725982747;4;0;40;0;1;4
2;21;1570807374018;1570807386754;12736;42601820194;57889937408;2024902754;923597710;11075838518;86708115;722877405;77;127;6144;0;169;1927
2;22;1570807387071;1570807399567;12496;41894684816;57919372690;2029276111;927802701;11080243560;86669749;726312786;0;0;0;0;0;0
2;23;1570807399932;1570807412781;12849;42942452064;57889437394;2036525474;919942457;11075746696;86703469;722384073;62;130;6144;0;83;482
2;24;1570807413099;1570807425733;12634;42391453174;57917826851;2033859253;929082216;11079801317;86632277;718857532;0;0;0;0;0;0
2;25;1570807426049;1570807438948;12899;43226321324;57888187382;2037552085;925994970;11075301028;86666472;720379867;45;112;1272;0;71;977
2;26;1570807439265;1570807451819;12554;42108938940;57919263403;2031880352;925143943;11080219091;86655444;717277692;21;14;4816;0;73;168
2;27;1570807452184;1570807464864;12680;42573577224;57887902948;2022234239;922726992;11075251425;86608676;722389529;0;0;0;0;0;0
2;28;1570807465181;1570807477756;12575;41800560368;57919509688;2036772635;926653225;11080273731;86664952;722790620;57;132;6216;0;100;447
2;29;1570807478073;1570807490907;12834;43052172524;57890065890;2044014542;929913591;11075858302;86753358;725526525;0;0;0;0;0;0
2;30;1570807491224;1570807503847;12623;41956386898;57945860451;2041251521;923272801;11087883802;86771524;721956221;21;14;4104;0;143;298
2;31;1570807504210;1570807517105;12895;43200362378;57888141372;2032289693;927557857;11075294525;86659815;719846380;1;0;8;0;0;0
2;32;1570807517422;1570807529931;12509;41956905782;57918241080;2022008622;927929221;11079924182;86590377;719892354;0;0;0;0;0;0
2;33;1570807530249;1570807543023;12774;42876984934;57909598696;2020129179;926335222;11082847221;86637495;721167179;23;19;4880;0;79;164
2;34;1570807543338;1570807555910;12572;42180006046;57918392639;2021067020;926284620;11079956261;86678443;719537662;0;0;0;0;0;0
2;35;1570807556277;1570807569039;12762;42844808724;57887797992;2028162047;935840640;11075231493;86653058;720006629;37;10;4816;0;81;272
2;36;1570807569356;1570807581799;12443;41708272454;57919299150;2031812671;924024471;11080286758;86642492;721924398;0;0;0;0;0;0
2;37;1570807582115;1570807594868;12753;42826379144;57915266775;2028543330;935184845;11082993058;86624035;722144170;32;16;5000;0;82;236
2;38;1570807595186;1570807607725;12539;42048872058;57918869881;2039974390;930842370;11080198542;86698072;722302270;1;0;8;0;0;0
2;39;1570807608089;1570807620815;12726;42730731332;57887870214;2013282635;925757387;11075247903;86572859;717021839;0;0;0;0;0;0
2;40;1570807621132;1570807633651;12519;41998188596;57939199910;2019851245;929210793;11087324931;86604661;721807858;29;12;4800;0;75;219
2;41;1570807633967;1570807646776;12809;42945202704;57887629064;2007790985;929348403;11075208235;86610631;717398735;464;22;47776;0;1474;1820
2;42;1570807647093;1570807659750;12657;42459113516;57917669223;2033676240;933248409;11079772925;86633625;721468039;5;0;56;0;1;5
2;43;1570807660116;1570807672881;12765;42851216226;57889746759;2027726435;927465354;11075837499;86647310;721384807;133;158;7896;0;185;2789
2;44;1570807673201;1570807685824;12623;42364535446;57917545346;2046224692;935299939;11079747424;86728689;723086188;0;0;0;0;0;0
2;45;1570807686140;1570807699107;12967;43217828358;57889498080;2036123935;931272420;11075815425;86745324;722258443;0;0;0;0;0;0
2;46;1570807699424;1570807712078;12654;42463421538;57917954261;2046068900;934942135;11079871872;86807631;723909244;60;128;6144;0;168;985
2;47;1570807712444;1570807725173;12729;42684504520;57888564685;2026046498;923639623;11075426220;86575048;719862860;0;0;0;0;0;0
2;48;1570807725491;1570807738016;12525;41763351976;57917404629;2016414352;921186456;11079730319;86586059;717885449;76;121;6096;0;99;631
2;49;1570807738331;1570807751085;12754;42799759986;57889039422;2014565211;922227284;11075674835;86660913;715538970;0;0;0;0;0;0
2;50;1570807751403;1570807764084;12681;42513160234;57918730478;2036447803;931773170;11080173279;86647413;718950522;64;130;6216;0;184;809
2;51;1570807764450;1570807777360;12910;43365552180;57909104348;2064216335;931777795;11082744706;86669291;725709850;0;0;0;0;0;0
2;52;1570807777678;1570807790320;12642;42404431406;57939328937;2066511243;933148646;11087398829;86615773;724711924;0;0;0;0;0;0
2;53;1570807790636;1570807803523;12887;43269275254;57910509465;2060372020;934283366;11083221348;86597736;723849169;71;125;6152;0;151;716
3;4;1570808013736;1570808026473;12737;42729920448;56394174624;2132722957;941841693;11072660257;88103958;742850655;0;0;0;0;0;0
3;5;1570808026790;1570808039750;12960;43515992040;56365884024;2123045792;935393435;11068061983;88040935;741925378;27;15;4936;0;96;226
3;6;1570808040068;1570808052805;12737;42733792952;56420763215;2118029617;940716195;11080256852;88082221;741621986;1;0;8;0;0;0
3;7;1570808053171;1570808066129;12958;43453191016;56364982652;2110490482;931670143;11067870188;88048383;740310450;27;14;4816;0;96;209
3;8;1570808066447;1570808079170;12723;42589334274;56394303300;2097752164;932187742;11072754871;87978665;739933341;3;1;40;0;1;1
3;9;1570808079491;1570808092426;12935;43373987622;56364157035;2098921334;926502961;11067709058;88070889;738023056;38;12;4704;0;98;413
3;10;1570808092749;1570808105487;12738;42745269574;56396383205;2111471396;932240072;11073611639;87967275;742334558;5;0;56;0;1;3
3;11;1570808105856;1570808118859;13003;43576368004;56355970922;2115840676;931269905;11072093986;88045910;741390855;1;0;8;0;0;0
3;12;1570808119187;1570808131865;12678;42439051364;56406627669;2138635199;934889107;11084652259;88017369;742215988;20;17;4864;0;74;139
3;13;1570808132183;1570808145142;12959;43340326154;56358103235;2125944598;929638092;11072846713;88066228;741777080;2;0;16;0;0;0
3;14;1570808145459;1570808158217;12758;42811958286;56384859726;2134059270;937488290;11077117967;88001987;744774097;19;14;4880;0;75;164
3;15;1570808158589;1570808171515;12926;43293597978;56387878657;2138723952;935995668;11080532257;88096529;743160648;4;0;48;0;1;3
3;16;1570808171837;1570808184520;12683;42568651038;56382918366;2136013202;936402892;11076769114;88030539;742893662;20;12;4568;0;77;158
3;17;1570808184843;1570808197727;12884;43270251994;56352553427;2125993798;932573085;11071619234;88027096;740829258;4;1;56;0;1;2
3;18;1570808198044;1570808210725;12681;42529598228;56383982109;2117336011;941047525;11077037024;87958971;743267673;25;12;4896;0;86;227
3;19;1570808211094;1570808224022;12928;43417631548;56374011668;2100919712;935887370;11079154072;88050790;743203386;4;0;48;0;1;4
3;20;1570808224340;1570808237073;12733;42703211792;56381487288;2107741116;938853217;11076405819;87890649;740858233;45;112;1264;0;11;304
3;21;1570808237396;1570808250295;12899;43152350716;56381193821;2099803667;935341936;11079781577;87936385;741258610;29;10;4880;0;73;251
3;22;1570808250613;1570808263325;12712;42488999716;56382179781;2100488012;934398183;11076576543;87996196;742988468;0;0;0;0;0;0
3;23;1570808263695;1570808276606;12911;43194539022;56352312404;2112676669;932470911;11071578569;87969532;742721742;63;131;6152;0;143;482
3;24;1570808276923;1570808289581;12658;42512532872;56382680690;2110227129;941518434;11076840333;87886263;741215899;0;0;0;0;0;0
3;25;1570808289900;1570808302805;12905;43345581716;56352181693;2107587371;938073606;11071557556;88224209;742731705;64;126;6088;0;140;771
3;26;1570808303123;1570808315802;12679;42557223472;56381211204;2133173601;941813825;11076348891;87939438;745083252;0;0;0;0;0;0
3;27;1570808316168;1570808329220;13052;43861097788;56351955643;2121211711;937285955;11071514679;87973842;742509134;44;149;5056;0;126;1502
3;28;1570808329537;1570808342248;12711;42398905306;56383031122;2124384905;927547168;11076954342;87994197;742711885;0;0;0;0;0;0
3;29;1570808342567;1570808355524;12957;43436919024;56352063491;2111038202;936676775;11071532207;88005763;742745612;0;0;0;0;0;0
3;30;1570808355845;1570808368559;12714;42647737048;56384344181;2102477334;938007182;11077270965;87938680;741861427;31;11;4880;0;78;232
3;31;1570808368936;1570808381862;12926;43429420610;56352115400;2112820059;937670443;11071550001;87956651;747250658;1;0;8;0;0;0
3;32;1570808382180;1570808394855;12675;42555003104;56382937589;2113188533;942159661;11076884568;87826051;745294276;28;20;4936;0;81;204
3;33;1570808395175;1570808408109;12934;43457637738;56373620518;2128464882;934068170;11079096310;88052877;745290256;0;0;0;0;0;0
3;34;1570808408427;1570808421110;12683;42571911364;56381062619;2124900053;938866201;11076327758;87921091;743006225;34;12;4616;0;91;220
3;35;1570808421476;1570808434460;12984;43629442070;56351891488;2126847829;940052610;11071503623;88046367;749626370;0;0;0;0;0;0
3;36;1570808434778;1570808447492;12714;42645224096;56382725537;2135031076;938965118;11076850316;87961098;747694750;1;0;16;0;0;0
3;37;1570808447813;1570808460751;12938;43482366050;56356169108;2124793612;942192034;11072676888;87986635;749477092;27;16;4864;0;74;215
3;38;1570808461069;1570808473791;12722;42714444156;56383169691;2114013883;942592346;11076890790;87982244;746916007;2;0;16;0;0;0
3;39;1570808474159;1570808487098;12939;43476580654;56353332269;2116619248;941971563;11071980267;87936618;745269616;31;12;4800;0;77;235
3;40;1570808487415;1570808500192;12777;42901487530;56430943379;2129650884;940554253;11092028006;87860608;746193593;0;0;0;0;0;0
3;41;1570808500511;1570808513435;12924;43420670392;56378414412;2127923846;938544714;11079094317;87898930;744244519;34;9;4696;0;78;266
3;42;1570808513753;1570808526493;12740;42759058982;56381015271;2137533590;940369331;11076320346;87942758;741838803;0;0;0;0;0;0
3;43;1570808526862;1570808539800;12938;43442996566;56379210797;2144020102;939436038;11079304317;88081798;749326393;445;24;47760;0;1559;1823
3;44;1570808540115;1570808552874;12759;42822238438;56408139051;2142982911;940688246;11084072357;87997032;751704855;5;0;64;0;1;5
3;45;1570808553194;1570808566139;12945;43471284066;56354377063;2138555944;934111523;11072191210;88073436;746048384;135;161;7936;0;172;2783
3;46;1570808566458;1570808579233;12775;42866993570;56382985179;2138096631;945610530;11076942406;87982495;749335146;0;0;0;0;0;0
3;47;1570808579604;1570808592607;13003;43659589464;56353034447;2111323724;936622700;11071796911;87949135;739454675;71;131;6152;0;197;1602
3;48;1570808592925;1570808605669;12744;42792359684;56384214520;2116768307;940727869;11077255418;87881814;739542791;0;0;0;0;0;0
3;49;1570808605988;1570808618930;12942;43500208126;56353972653;2101442959;941748719;11072048799;87971896;739889273;0;0;0;0;0;0
3;50;1570808619250;1570808631981;12731;42716751686;56380949563;2118451622;939394091;11076316601;87919582;740916294;58;127;6144;0;106;547
3;51;1570808632352;1570808645272;12920;43423856404;56374605636;2118499084;937535268;11079482931;88089445;747931546;0;0;0;0;0;0
3;52;1570808645591;1570808658413;12822;42857086010;56429193564;2131741260;940366160;11091493688;88087437;747139779;40;149;5704;0;157;1988
3;53;1570808658731;1570808671653;12922;43412047924;56373185950;2126474211;938525117;11079010288;88125853;747645683;1;0;8;0;0;0
4;4;1570808875480;1570808888243;12763;42811270334;55888570978;2043076817;925087007;10872955081;89953393;722013528;0;0;0;0;0;0
4;5;1570808888561;1570808901527;12966;43494835034;55861762597;2045129729;924921580;10868601852;89896256;720752287;45;13;5000;0;103;458
4;6;1570808901845;1570808914602;12757;42787943330;55889661615;2047311354;924200450;10873135105;89943012;722044554;0;0;0;0;0;0
4;7;1570808914969;1570808927882;12913;43352033748;55860819862;2050042134;917119926;10868455615;90070543;724122187;103;112;6656;0;105;938
4;8;1570808928201;1570808941004;12803;42663570018;55887380983;2055285957;912306878;10872796286;90036598;724308581;0;0;0;0;0;0
4;9;1570808941338;1570808954344;13006;43582623520;55860198432;2060743162;918997065;10868382704;90117799;727268842;81;119;6160;0;107;680
4;10;1570808954666;1570808967377;12711;42660184716;55886754743;2045258190;913328589;10872678696;89989770;728687696;0;0;0;0;0;0
4;11;1570808967745;1570808980740;12995;43644653080;55859057404;2028430279;920416843;10868130150;90062648;721235760;63;94;1264;0;24;888
4;12;1570808981059;1570808993820;12761;42684162734;55907505241;2038673967;923288147;10879870537;90019905;721978915;35;12;4816;0;72;325
4;13;1570808994138;1570809007174;13036;43770925414;55860673109;2033723118;923527697;10868656912;90097303;720712342;0;0;0;0;0;0
4;14;1570809007493;1570809020268;12775;42882454970;55886405280;2037218565;926054175;10872681375;90002221;727748350;89;116;6152;0;144;1223
4;15;1570809020641;1570809033657;13016;43729157734;55862032834;2036872624;920084465;10869166904;89939608;726810871;0;0;0;0;0;0
4;16;1570809033977;1570809046704;12727;42592359102;55887165230;2044908810;915560406;10872995318;89947987;721544600;105;117;6112;0;123;1819
4;17;1570809047022;1570809060011;12989;43506288150;55864129154;2048136239;920755162;10868888575;90019931;727962236;0;0;0;0;0;0
4;18;1570809060332;1570809073096;12764;42756509530;55883841129;2056579448;922568915;10871233618;90125583;729302894;88;121;6416;0;166;1336
4;19;1570809073465;1570809086837;13372;43579286252;55870147635;2044133697;923544389;10872399419;90046763;725759943;0;0;0;0;0;0
4;20;1570809087156;1570809100368;13212;42844262976;55880393921;2030745678;928154244;10870917070;90015318;722019182;0;0;0;0;0;0
4;21;1570809100690;1570809113630;12940;43430159516;55854491529;2033868475;918418761;10866909911;90038862;723171916;96;109;6016;0;145;2014
4;22;1570809113949;1570809126744;12795;42961894884;55878171206;2054475416;926329936;10870308263;90365087;724069875;0;0;0;0;0;0
4;23;1570809127112;1570809140144;13032;43613975560;55852976471;2043320611;920176661;10866432373;89876057;724335575;77;115;6088;0;84;694
4;24;1570809140463;1570809153375;12912;42996878674;55878206341;2036813620;922912193;10870324683;89772194;727425796;0;0;0;0;0;0
4;25;1570809153694;1570809167008;13314;43735281850;55852291998;2036861571;922949313;10866305151;89901691;728648197;84;124;6448;0;170;2871
4;26;1570809167328;1570809180330;13002;43001922682;55878059936;2048442784;928674328;10870299568;89875951;727322577;0;0;0;0;0;0
4;27;1570809180799;1570809194051;13252;43812379340;55851214825;2030682308;922625561;10865940508;89910738;720353464;94;119;6400;0;165;921
4;28;1570809194370;1570809207244;12874;42572072402;55878313895;2046601085;916987022;10870394744;89944048;722609276;0;0;0;0;0;0
4;29;1570809207562;1570809220496;12934;43415411910;55851063139;2030424969;926273570;10865852957;89843735;721663496;0;0;0;0;0;0
4;30;1570809220814;1570809233585;12771;42783840584;55879484365;2040370392;911087164;10870722133;89879522;722858547;84;133;6160;0;154;996
4;31;1570809233952;1570809247005;13053;43887778266;55851581192;2055271908;924669138;10866114678;89917561;727670946;0;0;0;0;0;0
4;32;1570809247324;1570809260205;12881;42930355964;55878420904;2041247033;923808737;10870410719;89961750;727987623;30;12;4696;0;81;216
4;33;1570809260524;1570809273520;12996;43669110562;55869329744;2032673528;923236025;10872273718;89948978;724770322;1;0;8;0;0;0
4;34;1570809273838;1570809286604;12766;42858375044;55879825415;2037847031;928543807;10870865836;89929837;728538932;44;7;4800;0;101;456
4;35;1570809286973;1570809299925;12952;43524556254;55850626084;2035936759;927393227;10865831902;89944307;722862043;0;0;0;0;0;0
4;36;1570809300243;1570809313019;12776;42856425652;55877989807;2040304297;927279874;10870285693;89916861;721351062;1;0;16;0;0;0
4;37;1570809313338;1570809326386;13048;43510814296;55873825136;2025803891;924579351;10873463332;90086010;720966148;31;9;4680;0;77;235
4;38;1570809326707;1570809339469;12762;42821942642;55877947781;2044699242;928330546;10870319546;90015647;722153439;0;0;0;0;0;0
4;39;1570809339837;1570809352771;12934;43427384348;55853395917;2028693098;926002093;10866665561;89979167;721128015;45;9;4808;0;86;428
4;40;1570809353089;1570809365812;12723;42712712304;55896185286;2043236139;930463427;10876611795;89970443;721634303;1;0;8;0;0;0
4;41;1570809366130;1570809379036;12906;43355756602;55850239468;2029221847;928668160;10865718275;89897103;722697243;39;11;4872;0;104;373
4;42;1570809379355;1570809392074;12719;42643843958;55877903073;2029509429;933468473;10870273348;89963079;721392149;478;18;48240;0;1603;2100
4;43;1570809392442;1570809405448;13006;43664141014;55853832716;2029276746;927977801;10866902684;89958982;720558721;0;0;0;0;0;0
4;44;1570809405766;1570809418636;12870;43208870382;55879250345;2040070962;926064118;10870737323;89853936;718675072;4;1;56;0;1;4
4;45;1570809418955;1570809432034;13079;43938883376;55850644122;2031610557;924576114;10865842537;89854813;720697780;147;10;6424;0;169;2586
4;46;1570809432354;1570809445172;12818;43041801268;55879350877;2026546790;928725541;10870699401;89862733;723227334;3;1;48;0;1;3
4;47;1570809445541;1570809458709;13168;43903946014;55852355090;2053118922;924077531;10866365136;89968231;727559734;32;20;5528;0;79;300
4;48;1570809459029;1570809471928;12899;42996646388;55877950264;2050466503;923674476;10870330438;89950281;726747760;5;0;64;0;1;3
4;49;1570809472247;1570809485249;13002;43693400436;55850156110;2028233274;919445735;10865708605;90012353;721782027;49;8;4944;0;98;544
4;50;1570809485569;1570809498406;12837;43111549994;55878897408;2042646129;925992650;10870660645;89975835;725684345;0;0;0;0;0;0
4;51;1570809498774;1570809511775;13001;43662347258;55869896700;2022874430;915838096;10872527144;89947163;723496848;41;15;4872;0;84;383
4;52;1570809512093;1570809524941;12848;43150131516;55896062710;2043514303;927528023;10876600351;90344356;722198242;1;0;16;0;0;0
4;53;1570809525259;1570809538274;13015;43731755804;55868422124;2034142774;927263220;10872040611;89943776;724329927;4;0;48;0;1;3
