0;2;1570780600991;1570780614324;13333;44392224472;56480344793;2124450122;1021870552;10863660438;90809831;733321370;381;2;6584;0;351;34229
0;3;1570780614704;1570780628178;13474;44750278230;56449928847;2072993806;966524915;10859328534;90764320;716039288;148;52;17352;0;275;2892
0;4;1570780628495;1570780641662;13167;44010480316;56461286233;2081261738;961163581;10862755783;90665857;716201714;22;11;3592;0;11;28
0;5;1570780641980;1570780655267;13287;44571224560;56432439310;2076942036;966737121;10857769758;90846105;716200892;91;12;10488;0;194;1242
0;6;1570780655587;1570780668676;13089;43955971362;56460224919;2085334503;970014418;10862453194;90624090;715652420;12;14;2584;0;7;11
0;7;1570780669042;1570780682325;13283;44472420958;56432508764;2059939419;957858632;10857854799;91026077;714106547;32;11;3888;0;51;107
0;8;1570780682640;1570780695753;13113;43863374804;56461136412;2080035185;966227614;10862732578;90793088;718917422;94;29;11224;0;163;1191
0;9;1570780696068;1570780709434;13366;44881745390;56431588739;2064913600;973159563;10857671239;90681534;715190257;29;0;2608;0;11;96
0;10;1570780709753;1570780722804;13051;43821174088;56459123227;2065652276;968599254;10862272460;90600750;720798724;19;16;3288;0;20;86
0;11;1570780723169;1570780736440;13271;44500607572;56433528464;2086347515;947283152;10858418174;90735821;719448850;113;16;11264;0;208;1612
0;12;1570780736756;1570780749859;13103;43966954650;56478766606;2093390618;959811981;10869060381;90546318;725764442;13;14;2144;0;16;83
0;13;1570780750172;1570780763452;13280;44613774800;56430502666;2092100008;960206759;10857501206;90446548;723223607;89;16;10336;0;183;1356
0;14;1570780763768;1570780776915;13147;44007905898;56459382835;2095456393;963663735;10862546761;90519871;725239673;18;14;3544;0;21;27
0;15;1570780777287;1570780790624;13337;44786114514;56431141379;2069564553;970788758;10857791663;90530593;719567106;121;21;11168;0;208;1985
0;16;1570780790947;1570780804145;13198;44259007064;56458060933;2075521059;976964323;10862159353;90522287;717207038;15;13;3056;0;8;14
0;17;1570780804461;1570780817774;13313;44716487698;56428757212;2067546197;961520711;10857140902;90713478;715302781;111;31;11440;0;201;1460
0;18;1570780818090;1570780831249;13159;44123517166;56457831711;2061553617;968615278;10862118181;91268875;716068606;22;6;2600;0;10;54
0;19;1570780831616;1570780844933;13317;44652337634;56448838679;2082956307;953407651;10863998021;90426216;719997867;93;13;10232;2;147;1143
0;20;1570780845249;1570780858263;13014;43582248738;56457630030;2085397385;940584844;10862079034;90856064;722234068;21;15;3560;-2;44;76
0;21;1570780858596;1570780872049;13453;44855887768;56428920436;2071526725;971557033;10857177913;90724269;719401182;21;9;2312;0;9;53
0;22;1570780872365;1570780885431;13066;43866873110;56457337986;2075144351;954549243;10861977755;90596115;725537016;85;20;10016;0;166;1247
0;23;1570780885798;1570780899106;13308;44616523396;56428503644;2070431168;953380142;10857108678;90417882;714423003;17;16;3560;0;20;65
0;24;1570780899421;1570780912600;13179;44216696848;56457032125;2094341938;963814029;10861930298;90500595;717676360;94;25;9224;0;178;1303
0;25;1570780912915;1570780926235;13320;44703395294;56428501162;2070967111;962922430;10857100577;90519333;717542602;17;20;3720;0;17;19
0;26;1570780926552;1570780939699;13147;44070771454;56458348598;2078597960;963402490;10862380925;90502523;716828255;18;13;3560;0;28;84
0;27;1570780940064;1570780953408;13344;44821246202;56431482035;2077049809;966821907;10858105370;90530116;721827978;100;35;10400;0;194;1501
0;28;1570780953730;1570780966807;13077;43916762770;56457123032;2093084740;967004561;10861959356;90458644;721273034;18;14;2776;0;9;14
0;29;1570780967124;1570780980424;13300;44677812152;56454218630;2083082633;955561363;10865607886;90547369;721504597;20;11;3536;0;11;17
0;30;1570780980740;1570780993856;13116;43937217516;56459882942;2081691689;970421423;10862833957;90619095;720254271;97;14;9816;0;179;1592
0;31;1570780994226;1570781007524;13298;44652992298;56428750037;2069427007;968931642;10857156685;90547236;715920454;14;15;2640;0;16;42
0;32;1570781007841;1570781020973;13132;44066264726;56457931971;2089882715;963041412;10862151722;90551329;723565851;97;36;10608;0;196;1429
0;33;1570781021289;1570781034572;13283;44593596140;56469617703;2078704181;960890296;10871056536;90457502;721426133;27;4;3536;0;13;79
0;34;1570781034890;1570781047935;13045;43788803260;56456930029;2092765317;955018422;10861905764;90539426;721384660;24;5;2184;0;21;71
0;35;1570781048301;1570781061603;13302;44645349198;56428146835;2069977190;959461725;10857034120;90533651;717312597;116;20;10648;0;188;1970
0;36;1570781061919;1570781075044;13125;43936488976;56457487378;2071230841;968045258;10862019821;90446452;719361211;22;15;3728;0;11;25
0;37;1570781075365;1570781088690;13325;44738574432;56429824408;2069679656;966082360;10857544482;90498929;720994678;84;33;8232;0;179;1260
0;38;1570781089006;1570781102101;13095;43890399550;56456712629;2085955419;962084395;10861866823;90584450;720942383;8;0;2768;0;9;9
0;39;1570781102467;1570781115769;13302;44705246428;56428185369;2078729096;957803024;10857039297;90564615;715746201;29;2;2632;0;19;89
0;40;1570781116089;1570781129160;13071;43857935574;56475756476;2073863356;951583553;10868407478;90412332;714382630;106;19;9848;0;199;1788
0;41;1570781129476;1570781142793;13317;44690518386;56429401183;2077709740;953597194;10857476585;90413141;718103923;20;17;3720;0;21;32
0;42;1570781143109;1570781156227;13118;44045064066;56456669326;2085663940;971672281;10861860917;90612288;718384707;89;28;8760;0;149;1200
0;43;1570781156591;1570781169972;13381;44881350460;56428400177;2069815536;971036474;10857082477;90679199;719215166;1051;68;258800;0;3239;8497
0;44;1570781170290;1570781183375;13085;43853435708;56456730013;2080407921;956152049;10861877544;90615562;720668551;22;15;3728;0;20;44
0;45;1570781183691;1570781197001;13310;44719247974;56428056956;2076698111;969528566;10857028479;90501020;720342474;194;40;11448;0;418;4676
0;46;1570781197317;1570781210237;12920;43285517024;56458213767;2070038377;949735152;10862354641;90565814;715558052;21;14;3704;0;10;30
0;47;1570781210605;1570781223913;13308;44599890200;56428876303;2066162277;946821632;10857227731;90462002;714110307;105;24;11648;0;165;2021
0;48;1570781224230;1570781237370;13140;44085259326;56456750901;2085427487;969988614;10861889584;90468203;715791481;28;1;2192;0;38;126
0;49;1570781237685;1570781250960;13275;44596383718;56450851107;2082124206;960449507;10864626727;90549988;720149688;29;2;3536;0;20;77
0;50;1570781251276;1570781264382;13106;43860747826;56456765110;2071582115;958635719;10861895536;90525557;716404775;98;27;10992;0;151;1336
0;51;1570781264748;1570781278069;13321;44776589182;56446371000;2075948439;970973179;10863368064;90426417;718771971;28;6;2352;0;9;96
1;2;1570781429707;1570781443362;13655;45620059068;59665669431;2112812544;1025756872;11459023003;98287512;759086948;86;5;4168;0;44;1048
1;3;1570781443765;1570781457344;13579;45566312380;59621105938;2047975074;980253072;11451569815;98139053;747219486;98;76;16416;0;188;1086
1;4;1570781457664;1570781470908;13244;44342277434;59653762869;2046585387;961389549;11457078431;98099820;744285822;19;12;3224;0;10;39
1;5;1570781471247;1570781484774;13527;45325437638;59622019266;2033700320;964319264;11451697806;98047922;747034182;79;36;11432;0;148;696
1;6;1570781485087;1570781498290;13203;44361132020;59653557426;2033737895;961279770;11457135831;98076286;745911132;17;15;3560;0;19;74
1;7;1570781498679;1570781512241;13562;45523181790;59620476471;2026242821;976668586;11451391077;98104661;734210159;74;18;9432;0;108;577
1;8;1570781512557;1570781525956;13399;44880870996;59679476537;2030150051;969442496;11465046100;100807437;737721298;6;0;2304;0;6;6
1;9;1570781526295;1570781539785;13490;45107674404;59619684524;2028848645;956926291;11451265435;98185793;734033703;33;2;3640;0;71;338
1;10;1570781540097;1570781553421;13324;44524705602;59657069140;2040470810;960772638;11457390044;98232584;736379678;98;15;10616;0;127;954
1;11;1570781553809;1570781567454;13645;45884149270;59621000188;2064632287;978098420;11455945359;100412167;743788445;20;13;2784;0;16;41
1;12;1570781567772;1570781581109;13337;44736174484;59643185832;2058403062;972553900;11459474931;98079978;743968588;29;2;3088;0;13;92
1;13;1570781581448;1570781595085;13637;45609068334;59594841074;2065553364;967725392;11448218518;97974453;746403459;55;32;10640;0;116;412
1;14;1570781595399;1570781608668;13269;44449193234;59627536902;2041689188;958131573;11453882516;97935831;741346727;22;14;3712;0;11;42
1;15;1570781609063;1570781622633;13570;45580435106;59617158847;2058309968;977380303;11455818411;100515983;743663524;59;19;8152;0;101;418
1;16;1570781622948;1570781636383;13435;44811895194;59624105750;2051726042;969529874;11452939651;97964153;744218674;26;11;3720;0;20;69
1;17;1570781636724;1570781650176;13452;45197108602;59592328601;2038720372;959043116;11447662457;98033646;741779544;91;39;15648;0;173;679
1;18;1570781650488;1570781663807;13319;44707000034;59623626267;2068093688;969882655;11452842767;97961913;750451949;8;0;2768;0;6;6
1;19;1570781664202;1570781677703;13501;45309333984;59634337184;2048217356;975059192;11462016470;100582152;734662393;22;9;2208;0;7;41
1;20;1570781678015;1570781691238;13223;44267845174;59624467225;2032130266;958231196;11453052284;98036700;734614380;57;30;10272;0;113;356
1;21;1570781691578;1570781705067;13489;45311813210;59592318961;2046359133;962744692;11447614103;98217591;732944290;19;12;3528;0;10;20
1;22;1570781705382;1570781718681;13299;44653718064;59623423301;2037331379;970713543;11452808781;98016453;735718190;43;35;8976;0;85;309
1;23;1570781719073;1570781732608;13535;45457999652;59591901134;2038006104;968652018;11447583742;97888380;737898868;20;14;3248;0;18;52
1;24;1570781732920;1570781746274;13354;44870344104;59623483639;2049967133;965821563;11452823593;97951257;738641408;21;10;3536;0;10;39
1;25;1570781746613;1570781760094;13481;45243533974;59593793126;2034602164;955238903;11448066577;97941336;738127484;47;34;9728;0;103;240
1;26;1570781760407;1570781773736;13329;44752330990;59623329111;2058103456;972701081;11452789081;97988403;739096448;26;5;2320;0;10;85
1;27;1570781774127;1570781787739;13612;45643550906;59614966550;2048013182;970100988;11455290320;100544284;745674343;40;43;9864;0;104;207
1;28;1570781788051;1570781801293;13242;44492089494;59623559939;2037385725;960723423;11452847346;98047883;743185284;8;0;2768;0;7;7
1;29;1570781801633;1570781815142;13509;45363813300;59593557020;2045012832;959964742;11447966002;97975589;746479624;27;3;3520;0;12;63
1;30;1570781815455;1570781828739;13284;44652407860;59623219919;2066068226;978525640;11452783385;97954430;747285602;56;35;9184;0;122;530
1;31;1570781829127;1570781842545;13418;45060633934;59593377834;2046341741;958658120;11448047027;97885213;736959440;16;18;3704;0;10;18
1;32;1570781842859;1570781856082;13223;44358972388;59625148020;2043840350;961770220;11453381707;97907344;737175349;56;41;10064;0;118;465
1;33;1570781856429;1570781869946;13517;45373221832;59609230295;2041293873;974293103;11453783247;97912928;736160807;12;14;2584;0;8;10
1;34;1570781870263;1570781883555;13292;44635744004;59624367585;2052952923;971764002;11453197293;97936794;736563529;30;8;3312;0;14;93
1;35;1570781883947;1570781897414;13467;45228178424;59593176454;2038653827;956085542;11447949265;97915538;737236270;64;22;9768;0;100;445
1;36;1570781897726;1570781910966;13240;44384459316;59623499831;2045099966;961398502;11452879898;97967035;738259882;19;14;3568;0;57;73
1;37;1570781911308;1570781924954;13646;45881226058;59617381649;2038142232;969736690;11456054224;100527278;741407612;43;22;7960;0;104;413
1;38;1570781925270;1570781938572;13302;44674043892;59623531981;2062042004;966391910;11452938300;97926418;738711939;32;4;3720;0;63;213
1;39;1570781938961;1570781952472;13511;45319760428;59590944395;2049388909;963260915;11447360477;97913173;744447785;19;13;3536;0;21;27
1;40;1570781952792;1570781966166;13374;44852047238;59641110959;2061776682;973776674;11459122186;97898869;747041710;63;26;9872;0;94;415
1;41;1570781966509;1570781980084;13575;45624853708;59590851258;2052180666;972474334;11447346982;97893143;747433838;15;20;2352;0;18;57
1;42;1570781980398;1570781993680;13282;44523781714;59623436977;2060020155;969067792;11452866504;97933197;744960108;507;42;65728;0;1620;2280
1;43;1570781994043;1570782007472;13429;45114392156;59591060480;2041780581;962243334;11447387415;97880738;737326950;22;13;3592;0;30;49
1;44;1570782007827;1570782021168;13341;44833402454;59623121712;2054948970;979009222;11452757771;97906351;744013186;14;18;2776;0;9;15
1;45;1570782021482;1570782035068;13586;45549831316;59590843058;2058318816;975068185;11447351228;97895851;742248445;145;37;11744;0;185;1947
1;46;1570782035380;1570782048744;13364;44896379408;59622973546;2050628462;967472661;11452738564;97933372;739766996;29;1;3528;0;13;88
1;47;1570782049135;1570782062590;13455;45139679064;59591651858;2038404095;961688616;11447540344;97882359;737947059;65;34;11488;0;145;731
1;48;1570782062904;1570782076189;13285;44596267940;59624278994;2014254491;972445023;11453183973;97949530;737840668;17;18;2800;0;9;19
1;49;1570782076535;1570782090059;13524;45454058966;59591104723;2029702051;969706674;11447420130;97926473;741412459;58;37;11016;0;127;503
1;50;1570782090374;1570782103570;13196;44310059614;59622714971;2020092964;956743355;11452681757;97976685;738585451;19;18;3728;0;19;32
1;51;1570782103958;1570782117443;13485;45217981346;59610632379;2051118321;957954353;11454168499;98005527;741855511;25;5;3520;0;13;64
2;3;1570782284259;1570782297429;13170;44083958758;56639536566;2087313781;983555738;11143830442;87799918;753162751;88;72;16440;0;161;1199
2;4;1570782297765;1570782310877;13112;43617798424;56668847705;2093516534;984407591;11149466172;87867820;752097215;21;8;3528;0;10;35
2;5;1570782311214;1570782324474;13260;44200699482;56656154357;2081744374;981319839;11149134314;87693404;750764277;56;33;10072;0;156;1410
2;6;1570782324829;1570782337804;12975;43442291240;56725692216;2097505980;981891328;11166173018;87681808;754583928;16;15;3536;0;18;80
2;7;1570782338192;1570782351405;13213;44227608450;56665694595;2104804583;977053048;11152232330;87770311;745786052;65;26;10208;0;116;495
2;8;1570782351743;1570782364688;12945;43377366646;56695601347;2099435328;984344330;11157997485;87817761;748616652;8;0;2768;0;8;8
2;9;1570782365026;1570782378147;13121;43980763768;56666682394;2086887260;978377373;11152606723;87701491;744821879;24;10;3696;0;10;50
2;10;1570782378485;1570782391376;12891;43244652354;56698204149;2110087491;982911673;11158840036;87781233;748310336;72;32;10552;0;154;760
2;11;1570782391758;1570782404893;13135;44126020336;56666078314;2095745088;979028829;11152541228;87601911;749981509;15;13;3504;0;12;15
2;12;1570782405226;1570782418135;12909;43212954002;56716470608;2095137968;976754110;11165424912;87770622;746159065;51;31;10088;0;105;395
2;13;1570782418470;1570782431631;13161;44028977056;56667384945;2103592540;978486398;11152830653;87579983;750843549;29;6;3720;0;13;92
2;14;1570782431967;1570782444873;12906;43201197498;56693860569;2104767501;973789901;11157689031;87757383;748168657;30;3;3544;0;21;80
2;15;1570782445260;1570782458355;13095;43907109542;56663759605;2083560435;966997727;11151897999;87608851;744681461;50;24;9792;0;112;455
2;16;1570782458690;1570782471623;12933;43402164600;56693543429;2101933603;974332598;11157657015;87722741;746934243;13;15;3504;0;9;10
2;17;1570782471959;1570782485070;13111;44038013434;56662706694;2101070145;974965749;11151707715;87649933;746627449;35;8;3832;0;35;164
2;18;1570782485406;1570782498316;12910;43163586438;56693657992;2115783951;976568333;11157724911;87719268;748135106;84;29;14488;0;184;592
2;19;1570782498701;1570782511785;13084;43929799402;56684345361;2108776092;973452074;11159324545;87744165;750969726;29;5;3584;0;22;86
2;20;1570782512121;1570782525048;12927;43324530268;56693036266;2115507752;979400952;11157559369;87694221;755004783;60;38;10352;0;97;455
2;21;1570782525382;1570782538471;13089;43959143504;56666226285;2084046284;969923254;11152759816;87637178;748937172;20;11;3528;0;12;27
2;22;1570782538806;1570782551647;12841;43087275158;56693339572;2097813732;975799630;11157651563;87623159;754160716;24;7;3536;0;11;32
2;23;1570782552032;1570782565165;13133;44118087134;56662211306;2104930672;976991773;11151618166;87727467;744759921;36;22;8800;0;85;265
2;24;1570782565503;1570782578419;12916;43297143588;56692748918;2091234139;972848731;11157522769;87655933;747642584;18;15;3568;0;12;19
2;25;1570782578754;1570782591889;13135;44003668832;56665232333;2084369480;973667940;11152555235;87730028;743658444;68;26;10216;0;104;521
2;26;1570782592225;1570782605173;12948;43449953028;56692582646;2115284883;978081919;11157471072;87730406;745029757;32;0;3552;0;15;100
2;27;1570782605558;1570782618666;13108;44006442686;56662179505;2088080703;967820665;11151613572;87594337;752448703;46;34;9616;0;97;302
2;28;1570782619002;1570782631948;12946;43397429236;56692710465;2104619606;974444830;11157505182;87675143;753566463;16;21;3720;0;21;63
2;29;1570782632283;1570782645413;13130;44064233428;56662256313;2094883101;974991925;11151625627;87623213;749905044;18;12;3536;0;12;19
2;30;1570782645749;1570782658659;12910;43233962526;56692418694;2098743339;975419487;11157442760;87691283;753543069;67;16;9192;0;94;481
2;31;1570782659047;1570782672195;13148;44066825804;56663893310;2108443761;983271187;11152150326;87692495;748193962;8;0;2768;0;6;6
2;32;1570782672531;1570782685462;12931;43366478696;56692813224;2128733848;977906769;11157520978;87720821;750299994;58;29;9848;0;112;466
2;33;1570782685801;1570782698985;13184;44226795084;56686926801;2120204258;983117672;11160093138;87687919;751802203;19;14;3568;0;11;19
2;34;1570782699321;1570782712249;12928;43375972930;56693224292;2105602065;975002958;11157643640;87640510;751237082;17;13;3520;0;11;16
2;35;1570782712634;1570782725754;13120;44053294524;56662041370;2103679417;976399354;11151593456;87970430;751041223;52;32;9888;0;98;381
2;36;1570782726089;1570782739000;12911;43279529710;56692678580;2106633802;975329331;11157497790;87672561;752434132;25;10;3712;0;13;59
2;37;1570782739335;1570782752450;13115;43990113462;56663322619;2092210254;974959981;11151917394;87576601;751281619;50;33;10048;0;117;318
2;38;1570782752787;1570782765699;12912;43221735902;56692224051;2115451850;976370335;11157408393;88193320;753030769;8;0;2768;0;8;8
2;39;1570782766083;1570782779193;13110;44025697896;56662046030;2099461630;972749879;11151582014;87610941;748047123;19;12;3544;0;19;24
2;40;1570782779529;1570782792450;12921;43347371092;56714132084;2098157701;974415115;11165033042;87720333;748160049;64;43;10608;0;114;530
2;41;1570782792785;1570782805933;13148;44130845636;56661866536;2095684951;973372856;11151558611;87711124;749360493;15;16;3536;0;11;14
2;42;1570782806268;1570782819218;12950;43433272528;56692329211;2105912210;973804260;11157431860;87711492;746975697;25;7;3552;0;13;48
2;43;1570782819603;1570782832771;13168;44169141436;56665286312;2097926073;975355720;11152660656;87644810;753442897;524;49;57240;0;1673;2465
2;44;1570782833106;1570782846059;12953;43457957332;56692729722;2108837101;975363213;11157548659;87675930;754919531;22;16;3728;0;11;22
2;45;1570782846393;1570782859514;13121;44052145358;56662225214;2111310453;978312052;11151675580;87674172;752145828;147;43;11528;0;154;2047
2;46;1570782859851;1570782872827;12976;43580001652;56693771974;2112361286;978952601;11157905948;87756944;753232744;8;0;2768;0;8;8
2;47;1570782873214;1570782886383;13169;44155651474;56663921940;2105832713;974316822;11152191528;87630705;744526657;72;39;11224;0;118;694
2;48;1570782886720;1570782899662;12942;43452599716;56692295196;2103280430;974367054;11157433814;87645227;746814814;16;20;3712;0;19;68
2;49;1570782899997;1570782913188;13191;44228151424;56661756881;2101029205;978243341;11151550802;87605454;747549247;20;12;3544;0;10;15
2;50;1570782913525;1570782926510;12985;43556172846;56693625048;2107343113;974471823;11157878532;87717345;746471317;47;34;10312;0;121;341
2;51;1570782926897;1570782940016;13119;44028110546;56709917725;2096138641;977244844;11166693844;87571785;751404267;21;12;3544;0;12;22
2;52;1570782940351;1570782953277;12926;43384837466;56713907699;2102829319;978312795;11165003884;87661228;751667493;17;17;3712;0;11;19
3;2;1570783103601;1570783117324;13723;45647576710;58573730573;2120830186;1034151411;11238458911;123288204;737972149;97;6;4288;0;62;1737
3;3;1570783117699;1570783131245;13546;45418865228;58535056383;2031112245;953865983;11232061507;122939226;720086493;101;70;17560;0;182;1065
3;4;1570783131560;1570783144939;13379;44735292790;58563832333;2030800559;966290709;11236550579;123053764;723604225;19;12;3576;0;17;71
3;5;1570783145253;1570783158902;13649;45821373212;58535108226;2035266325;966764165;11232010594;122820890;718283644;68;36;11352;0;131;524
3;6;1570783159218;1570783172592;13374;44760968058;58562889267;2045999430;967029537;11236404594;123178807;722480524;18;12;3528;0;8;18
3;7;1570783172954;1570783186537;13583;45571753800;58533421840;2038012146;968542352;11231732839;122933919;723653233;60;28;10448;0;109;467
3;8;1570783186851;1570783200224;13373;44714064974;58562637978;2039113195;971779160;11236380159;123105789;723025951;21;9;3520;0;12;39
3;9;1570783200535;1570783214119;13584;45635500904;58532519421;2048050473;971028267;11231575825;122849342;725647010;8;0;2768;0;7;7
3;10;1570783214429;1570783227685;13256;44513595586;58561811208;2039256692;966208872;11236224557;122963526;720624279;77;25;10656;0;118;639
3;11;1570783228052;1570783241607;13555;45538603770;58533336087;2047038719;967085671;11231894490;122925629;721830539;16;13;3528;0;12;17
3;12;1570783241919;1570783255257;13338;44779564808;58582995216;2050308659;969891092;11243717293;123007298;723622311;21;14;3584;0;22;105
3;13;1570783255569;1570783269178;13609;45668755178;58535179896;2049902779;969311212;11232481462;122860051;722558169;55;32;10712;0;99;415
3;14;1570783269487;1570783282838;13351;44789939714;58562340307;2062673257;970208264;11236561166;123019112;722483658;30;5;3592;0;14;76
3;15;1570783283215;1570783296797;13582;45555274050;58532089204;2043597240;962561761;11231576078;122750405;726243659;65;28;10536;0;120;561
3;16;1570783297114;1570783310453;13339;44747908504;58560750258;2058238281;954462378;11236075314;122971963;726014148;24;9;3552;0;20;57
3;17;1570783310770;1570783324381;13611;45780624612;58531840613;2041490249;966769775;11231680945;122710113;725804236;76;47;15864;0;212;669
3;18;1570783324698;1570783338029;13331;44762687646;58561697830;2046298879;963583515;11236454496;123093721;726341483;22;11;3544;0;12;20
3;19;1570783338393;1570783351996;13603;45555700370;58556375240;2045904603;964669072;11239998877;122782400;725840749;8;0;2768;0;8;8
3;20;1570783352310;1570783365678;13368;44837397452;58560701358;2066623541;958895710;11236105910;122986187;724058685;64;29;9976;0;105;521
3;21;1570783365993;1570783379595;13602;45681050130;58531200173;2047052760;964237442;11231398392;122898424;726101790;24;8;3536;0;30;114
3;22;1570783379909;1570783393233;13324;44680939618;58560181898;2066442559;969663761;11235996788;122919927;725281228;49;32;9872;0;114;278
3;23;1570783393599;1570783407195;13596;45714155630;58530805025;2070865752;970670099;11231378416;122713234;725393900;30;3;3552;0;22;101
3;24;1570783407508;1570783420827;13319;44731435762;58560224776;2058006129;963485040;11236009920;122902011;722273230;14;14;3504;0;11;16
3;25;1570783421139;1570783434791;13652;45842969386;58534281747;2052322094;966944392;11232366706;122869279;724409230;54;32;9792;0;98;325
3;26;1570783435104;1570783448552;13448;45153465260;58561715616;2060206386;976894361;11236443991;122968831;724815386;24;6;3968;0;55;590
3;27;1570783448920;1570783462665;13745;45830049554;58530751351;2054847782;969903346;11231367812;122793963;727012144;52;32;9760;0;103;376
3;28;1570783462980;1570783476398;13418;44987621816;58560066824;2048700230;968788007;11235980143;123042577;724902901;21;16;4192;0;9;18
3;29;1570783476716;1570783490306;13590;45667100560;58532298864;2044725057;967218984;11231775309;122769998;727482042;51;22;9664;0;138;472
3;30;1570783490627;1570783503974;13347;44803914834;58561253429;2049634188;962303427;11236393538;122928539;724348193;26;7;3992;0;21;59
3;31;1570783504346;1570783517829;13483;45280743972;58531970426;2047541763;954834239;11231711871;122715916;724984508;52;33;10040;0;88;336
3;32;1570783518149;1570783531473;13324;44789540988;58560757288;2062003232;961430688;11236153231;122795671;723903180;24;14;3728;0;113;340
3;33;1570783531794;1570783545324;13530;45504774256;58553074842;2057594805;959172148;11239218375;122672974;724997357;16;12;3056;0;15;23
3;34;1570783545643;1570783558966;13323;44771135206;58561719845;2050293312;967899908;11236501580;123027106;726169005;58;31;8944;0;103;508
3;35;1570783559333;1570783572933;13600;45639390052;58531624401;2055453055;972581058;11231652805;122784554;727627239;21;11;3984;0;13;31
3;36;1570783573251;1570783586637;13386;44899825300;58561505054;2052459588;967429516;11236469471;122948559;726152831;64;38;10008;0;103;526
3;37;1570783586951;1570783600567;13616;45763616050;58530764801;2051030163;965739587;11231321444;122762731;727462715;24;7;3976;0;12;50
3;38;1570783600886;1570783614238;13352;44845636816;58559549297;2043443531;971590581;11235879490;123058083;724346088;43;20;9280;0;115;417
3;39;1570783614606;1570783628183;13577;45584948404;58530032350;2038284214;968142260;11231197100;122787501;720736237;22;12;4008;0;20;26
3;40;1570783628502;1570783641918;13416;44719217022;58581557974;2047643615;965958638;11243530636;122901546;724368700;495;45;54408;0;1571;2172
3;41;1570783642238;1570783655715;13477;45311240744;58530276973;2034331264;951669119;11231298123;122743681;721085341;17;14;3528;0;19;32
3;42;1570783656034;1570783669341;13307;44695674084;58560605416;2045997706;961183981;11236184140;122946691;721719621;15;15;3520;0;11;15
3;43;1570783669707;1570783683186;13479;45180633232;58531962811;2037881408;953222892;11231676003;122653137;720616480;141;43;11448;0;171;2383
3;44;1570783683500;1570783696777;13277;44489555810;58559854629;2024445233;952859174;11235950521;122932436;719905221;26;3;3512;0;12;81
3;45;1570783697094;1570783710571;13477;45292974246;58530333786;2033013280;959078344;11231306167;122753275;719862991;73;48;12448;0;183;703
3;46;1570783710898;1570783724169;13271;44500165338;58559844227;2046933476;950064525;11235944313;122884638;721965110;18;16;3696;0;13;21
3;47;1570783724551;1570783738072;13521;45395370032;58532397584;2048621832;962445967;11231861126;122741765;722724726;20;12;3536;0;13;30
3;48;1570783738388;1570783751578;13190;44247963624;58559710142;2061765116;948092062;11235928802;122975609;723646091;42;18;9248;0;92;347
3;49;1570783751912;1570783765434;13522;45415380354;58529888698;2057907129;957292239;11231174711;122756312;723766173;21;11;3568;0;32;102
3;50;1570783765750;1570783779059;13309;44570382286;58561628952;2041723611;960484682;11236500618;122969563;725043157;19;18;3720;0;10;11
3;51;1570783779433;1570783793044;13611;45620169444;58551661531;2041038846;962985965;11238814754;122753449;725577210;56;45;11232;0;166;485
4;3;1570783956205;1570783969436;13231;44201545698;56429439928;2045329551;959981375;10918811321;85390861;724191815;146;58;17696;0;253;3959
4;4;1570783969756;1570783982760;13004;43584019572;56456066701;2050302613;965500113;10923763597;85460389;725983787;21;8;3520;0;10;45
4;5;1570783983081;1570783996226;13145;44094426082;56450690433;2037086580;961382928;10926053164;85599601;728325411;103;22;10080;0;162;1231
4;6;1570783996545;1570784009464;12919;43308868410;56456176755;2044904340;963456434;10923807221;85353454;722605549;20;15;3712;0;11;19
4;7;1570784009833;1570784023007;13174;44035324698;56456200821;2017687963;953135229;10927388991;85610773;714140538;8;0;2768;0;9;9
4;8;1570784023326;1570784036192;12866;43027580576;56450967292;2051976959;954729850;10926389985;85456307;715200675;93;13;9904;0;158;1023
4;9;1570784036514;1570784049696;13182;44152460206;56418933684;2039750151;960968499;10920090854;85365255;717070070;16;14;3520;0;9;11
4;10;1570784050017;1570784063084;13067;43719791834;56480226215;2046222344;968449437;10934553894;85638733;715882086;24;12;3264;0;19;70
4;11;1570784063458;1570784076653;13195;44283115752;56420887715;2028383995;965323608;10918614801;85328930;717336789;84;23;9360;0;199;1234
4;12;1570784076976;1570784089939;12963;43508222504;56469850905;2034972641;968562972;10931100820;85438774;714928635;19;13;3536;0;19;55
4;13;1570784090261;1570784103449;13188;44199642442;56426508640;2036098372;963311433;10919471669;85375130;717724691;83;22;8968;0;168;2287
4;14;1570784103772;1570784116737;12965;43465521884;56448998389;2053896872;967479661;10923451378;85574813;716275913;22;10;3536;0;12;47
4;15;1570784117108;1570784130336;13228;44440330012;56420046387;2046613830;966984192;10917926944;85399763;713750734;8;0;2768;0;9;9
4;16;1570784130653;1570784143671;13018;43626504842;56471442401;2046882052;957914217;10930959390;85604175;714984852;73;32;9800;0;167;785
4;17;1570784143989;1570784157162;13173;44147670238;56420629606;2024663728;958210935;10918279322;85419808;711961989;33;0;3560;0;15;121
4;18;1570784157480;1570784170470;12990;43460740822;56448745270;2044976631;954370242;10923417831;85378503;711966561;123;42;16000;0;249;1407
4;19;1570784170841;1570784184001;13160;44163375458;56440901921;2040863635;958934915;10925395962;85402204;724910528;22;10;3536;0;10;47
4;20;1570784184321;1570784197308;12987;43515001138;56449483409;2068325894;962159209;10923712395;85472017;725459080;85;17;9688;0;152;958
4;21;1570784197626;1570784210796;13170;44192133224;56420775974;2042118600;964405044;10918315944;85423538;721997182;20;19;3760;0;30;37
4;22;1570784211115;1570784224100;12985;43534919480;56449599797;2070013833;961929104;10923725059;85413915;724015736;29;0;3520;0;14;112
4;23;1570784224470;1570784237695;13225;44403634956;56420072619;2027907620;957263768;10918142404;85328691;714687228;72;10;9312;0;143;866
4;24;1570784238015;1570784250982;12967;43467175042;56447862527;2039856766;956684090;10923205730;85415288;716146146;19;14;3544;0;18;22
4;25;1570784251302;1570784264472;13170;44194867512;56418974579;2025728633;956726681;10917780083;85395274;712620822;18;16;3704;0;11;28
4;26;1570784264791;1570784277715;12924;43340437990;56447669861;2032106479;961697965;10923162627;85441447;713706463;102;26;10352;0;160;1469
4;27;1570784278085;1570784291285;13200;44259882042;56420057536;2041937272;958937512;10918138971;85470955;720873785;21;10;3536;0;12;33
4;28;1570784291606;1570784304470;12864;43099281468;56447857257;2051307263;954858103;10923210875;85402270;720666185;79;29;10296;0;151;937
4;29;1570784304796;1570784317922;13126;44083540322;56418595580;2047413679;959007942;10917651643;85402760;722216027;19;17;3720;0;13;17
4;30;1570784318242;1570784331082;12840;43072005748;56470427298;2046450228;957710152;10930761562;85658926;721661388;21;11;3536;0;12;36
4;31;1570784331453;1570784344604;13151;44079202078;56418854227;2034230994;951710167;10917714524;85471838;716726031;48;24;9632;0;123;536
4;32;1570784344928;1570784357869;12941;43318730710;56448623925;2055754866;960799047;10923392387;85465270;717235080;21;8;3520;0;53;434
4;33;1570784358189;1570784371398;13209;44314839216;56440127300;2027561664;961557048;10925202295;85424996;714755939;55;37;10024;0;129;427
4;34;1570784371719;1570784384696;12977;43469666970;56448913941;2064643756;967454333;10923597279;85495811;716500813;13;15;3056;0;9;10
4;35;1570784385071;1570784398312;13241;44419595676;56418715500;2040493855;972706838;10917729887;85515406;723154979;23;11;3560;0;22;49
4;36;1570784398633;1570784411617;12984;43550774350;56449535215;2043460315;968405025;10923713406;85474652;721266088;55;43;9688;0;102;482
4;37;1570784411941;1570784425173;13232;44382006224;56419062265;2058893285;972107918;10917801444;85473728;722525742;20;12;3536;0;12;35
4;38;1570784425494;1570784438514;13020;43570524062;56447400124;2056143071;973316817;10923113025;85497323;724408741;36;36;7672;1;34;139
4;39;1570784438881;1570784452101;13220;44357616486;56418464593;2027246824;971038050;10917632076;85464041;726221131;13;0;3424;-1;81;88
4;40;1570784452417;1570784465423;13006;43624476172;56469195475;2038776689;969536899;10930722027;85453585;725378503;16;15;3528;0;10;16
4;41;1570784465742;1570784478890;13148;44126348252;56418251610;2028065443;959627550;10917604638;85409590;722164895;62;29;9888;0;111;511
4;42;1570784479209;1570784492198;12989;43590779664;56447894141;2065802355;965952981;10923259299;85685439;728142565;24;7;3528;0;13;51
4;43;1570784492566;1570784505734;13168;44132017724;56418536439;2017264392;959357373;10917648673;85438265;717659357;59;33;10728;0;117;392
4;44;1570784506054;1570784519066;13012;43648876714;56447875324;2048936645;965920971;10923258004;85474138;718804817;497;40;52408;0;1476;1973
4;45;1570784519385;1570784532539;13154;44131081280;56418617138;2031901724;956710292;10917712242;85404209;715748992;30;0;3544;0;22;100
4;46;1570784532859;1570784545838;12979;43422140612;56448977918;2033639352;958452614;10923620759;85531600;717995160;54;22;10080;0;149;550
4;47;1570784546211;1570784559393;13182;44225073744;56419013250;2034045138;958095864;10917787842;85330067;723895287;101;10;4352;0;74;2438
4;48;1570784559716;1570784572595;12879;43215872250;56447404922;2041702510;957047122;10923125942;85368529;725572559;20;16;3720;0;11;17
4;49;1570784572914;1570784586103;13189;44279025708;56418475107;2040040224;959058871;10917693849;85335723;720416954;73;46;11720;0;111;716
4;50;1570784586421;1570784599380;12959;43443825262;56447353866;2055513860;960468236;10923106697;85580800;721835218;19;12;3560;0;24;31
4;51;1570784599749;1570784612938;13189;44282974716;56439667628;2015827803;956456621;10925117632;85439275;712423848;73;42;11264;0;126;599
4;52;1570784613258;1570784626270;13012;43592409900;56469025298;2025324733;953610507;10930689839;85505226;712744475;13;15;3504;0;10;11
