0;18;1570742823440;1570742831769;8329;28007581062;69969029497;1269433939;224327063;9823631111;97126784;1377963189;951;48;1798888;17;8329;1199765
0;19;1570742831769;1570742840042;8273;28013607650;69967549940;1282859107;218401340;9823405977;97084775;1383288515;899;0;1878176;-3;8273;1188755
0;20;1570742840042;1570742848171;8129;27953769404;69967590758;1247418472;222191343;9823518350;97054408;1373867195;828;0;1733184;4;8129;1165484
0;21;1570742848171;1570742865814;17643;28012158454;69966669111;1243344640;233832590;9823156696;97069918;1375613902;1998;60;3874208;6;17643;2369400
0;22;1570742865814;1570742873941;8127;27991971034;69965816543;1243437640;230654519;9822854151;97111876;1377408691;831;0;1727936;1;8127;1163295
0;23;1570742873941;1570742882087;8146;27991676552;69965733673;1273608561;220870833;9822898498;97065984;1381261027;948;36;1780640;-22;8147;1170414
0;24;1570742882088;1570742890234;8146;27925760034;69966657859;1268811716;213724630;9823265101;97071778;1376115261;857;0;1785808;7;8146;1169197
0;25;1570742890234;1570742907629;17395;28050800566;69966809735;1282741395;225403409;9823388486;97073068;1381555380;1858;0;3840232;0;17396;2346680
0;26;1570742907629;1570742915902;8273;28077924738;69965995121;1263771588;236378718;9823026942;97038591;1377140983;985;63;1781976;6;8273;1195299
0;27;1570742915902;1570742924205;8303;28006539498;69965243630;1270981357;222100834;9822728784;97066632;1379326611;893;1;1824320;3;8302;1191107
0;28;1570742924205;1570742932379;8174;27887041710;69966408982;1246388095;216700086;9823195601;97034487;1378457481;880;0;1797560;-16;8174;1172248
0;29;1570742932379;1570742949970;17591;27977703914;69965872011;1266871562;219338660;9823014382;97060002;1379441111;1980;36;3875448;-20;17592;2516611
0;30;1570742949970;1570742958809;8839;28062250470;69966025537;1267270728;232735918;9823087043;97023788;1377436757;950;4;1934104;33;8838;1259881
0;31;1570742958809;1570742966938;8129;28054970472;69964688275;1277298926;229275993;9822592532;97017784;1378230057;882;2;1805712;-17;8129;1165854
0;32;1570742966938;1570742975057;8119;27995712284;69965723050;1283260249;218203340;9822949883;97014395;1380160550;965;32;1800280;22;8120;1174211
0;33;1570742975058;1570742983143;8085;27907669904;69966037113;1266932965;211511896;9823099098;97032638;1376923416;847;2;1726592;-15;8085;1160386
0;34;1570742983143;1570743000547;17404;28033039812;69936383646;1271257450;227714503;9813554786;96993861;1382870639;1979;47;3788008;22;17405;2463999
0;35;1570743000547;1570743008662;8115;27982821652;69891992454;1247792873;225208761;9799291104;96959228;1373233883;869;1;1742424;-3;8115;1162092
0;36;1570743008663;1570743018152;9489;27831233794;69891167023;1238259195;208387492;9799049521;96998290;1374858371;1043;1;2088352;-19;9489;1361908
0;37;1570743018152;1570743026307;8155;27781639200;69825796575;1254548589;193592644;9780522136;96944270;1376988835;904;1;1822896;-8;8155;1173064
0;38;1570743026307;1570743043327;17020;27977780856;69794129356;1248326505;220709780;9770822144;96910093;1378557442;1975;37;3710680;12;17020;2409636
0;39;1570743043327;1570743051913;8586;27914634688;69793050236;1227025267;220468307;9770474959;96903772;1376113280;984;1;1921416;8;8586;1230293
0;40;1570743051913;1570743060180;8267;27862237332;69792862820;1241280999;210343483;9770409036;96913036;1381609225;916;4;1812096;-20;8268;1185759
0;41;1570743060180;1570743068324;8144;27774739532;69792902568;1229365784;201038316;9770424293;97027979;1377453520;980;53;1787768;27;8143;1174009
0;42;1570743068324;1570743076387;8063;27848437412;69793097449;1246290730;207123407;9770504163;96916054;1383267943;880;5;1754496;-16;8063;1157854
0;43;1570743076387;1570743093886;17499;27870443700;69793395140;1234974195;213647426;9770624581;96893485;1374190801;2049;63;3814976;10;17500;2484964
0;44;1570743093887;1570743102027;8140;27930969168;69792946356;1248536786;215041344;9770440954;96915406;1375176514;902;3;1787016;-6;8140;1171394
0;45;1570743102027;1570743110177;8150;27876171280;69792585186;1254016887;205059632;9770340293;96937879;1376234183;932;4;1792864;-4;8151;1169870
0;46;1570743110177;1570743118355;8178;27813086870;69792781504;1243907069;203184434;9770439831;96917014;1378584818;927;3;1804480;1;8178;1174945
0;47;1570743118355;1570743135806;17451;27817330944;69792588686;1233761334;207140710;9770358892;96914837;1376240731;2037;48;3795616;-4;17451;2410404
0;48;1570743135806;1570743144242;8436;27962207474;69792785414;1246775452;222211818;9770448866;96873971;1382393361;962;5;1875624;-1;8436;1210178
0;49;1570743144242;1570743152367;8125;27908576564;69792817157;1246417723;214847616;9770473082;96906385;1376819126;920;4;1795368;9;8125;1166017
0;50;1570743152367;1570743160789;8422;27899201758;69792768409;1263707695;204357891;9770446244;96914804;1382529835;1072;27;1852952;-19;8421;1207393
0;51;1570743160789;1570743168987;8198;27845301478;69793150418;1248703658;201882511;9770627220;96907782;1373908263;911;6;1759616;17;8198;1176076
0;52;1570743168987;1570743185705;16718;27977092028;69792353319;1266139193;216693595;9770293331;96896529;1379109010;2032;78;3651696;-12;16719;2377787
0;53;1570743185705;1570743193796;8091;27913569180;69792544640;1251300262;214105324;9770371560;96899646;1373232322;1173;27;1445112;20;8090;1171015
0;54;1570743193796;1570743202407;8611;27877608358;69792614985;1260907395;201826806;9770409129;96929965;1381019170;1012;14;1824592;-23;8611;1232128
0;55;1570743202407;1570743210476;8069;27872024588;69792248052;1257835040;204862584;9770220017;96897798;1375893094;939;6;1795200;21;8069;1159589
0;56;1570743210476;1570743227845;17369;27852640168;69792628387;1251826638;204103734;9770414189;96913734;1377271172;2113;58;3794456;1;17370;2424544
0;57;1570743227845;1570743236158;8313;28005268130;69792660184;1265755507;221100351;9770426663;96891644;1382550408;1001;9;1755288;-1;8312;1187005
0;58;1570743236158;1570743244399;8241;27823294898;69792956785;1223667418;208423250;9770537894;96938648;1372636920;965;8;1821376;-4;8242;1181375
0;59;1570743244399;1570743252609;8210;27839552436;69792076285;1250044914;202145528;9770249129;96915457;1374330138;1052;50;1780392;1;8209;1190130
0;60;1570743252609;1570743260651;8042;27768805508;69791958481;1237627187;199721342;9770204799;96889349;1376221840;937;8;1782248;-9;8043;1155257
0;61;1570743260651;1570743277539;16888;27841361376;69792374587;1242640745;205025605;9770406276;96910310;1378385193;1969;24;3687944;19;16888;2214883
0;62;1570743277539;1570743285716;8177;27936599950;69792194600;1249271277;217316848;9770325469;96933394;1374689275;1073;71;1785800;-18;8177;1174757
0;63;1570743285717;1570743293805;8088;27928115890;69792058196;1270638804;208770303;9770244964;96896281;1379356662;920;11;1734528;8;8089;1156931
0;64;1570743293805;1570743302341;8536;27850905688;69792292111;1253349586;202295212;9770361409;96968600;1374726590;1016;8;1887568;8;8535;1224838
0;65;1570743302341;1570743319591;17250;27863396718;69792366628;1263958262;203502934;9770381443;96916379;1377464758;2153;50;3818248;-101;17250;2432035
0;66;1570743319591;1570743328455;8864;27938955368;69792254266;1246823277;220390348;9770361143;96893445;1378374002;1021;9;1887808;89;8864;1217375
0;67;1570743328455;1570743336586;8131;27915799914;69792338137;1252035649;210822694;9770405172;96907926;1377759280;995;6;1827576;-3;8131;1164842
1;20;1570743661446;1570743669614;8168;28151186370;69997615804;1290422912;224151740;9868783867;97435777;1384363722;897;1;1845456;-1;8168;1173076
1;21;1570743669614;1570743687433;17819;28021755326;69998574993;1259905370;218484337;9869104197;97424256;1372429336;2000;34;3898464;-57;17819;2526493
1;22;1570743687433;1570743695830;8397;28221489896;69997129958;1278997650;237784924;9868581231;97414691;1383540127;905;0;1852112;60;8397;1184364
1;23;1570743695830;1570743703982;8152;28114333196;69996685355;1268065169;229348734;9868526745;97433987;1375923040;992;30;1763168;8;8152;1168974
1;24;1570743703982;1570743712745;8763;28018057730;69995043745;1261344863;216408268;9867978355;97512348;1381713750;957;0;1939160;-27;8763;1251379
1;25;1570743712746;1570743721100;8354;28051359892;69995982621;1270005829;219239605;9868358851;97436778;1377591960;982;26;1786648;25;8355;1203613
1;26;1570743721100;1570743738818;17718;28070005844;69996817423;1244373223;229710163;9868669441;97430086;1376079907;1921;4;3866592;2;17718;2389627
1;27;1570743738819;1570743747322;8503;28176987344;69996252909;1273580020;237680700;9868548856;97404128;1382655418;941;4;1884824;-13;8504;1218941
1;28;1570743747322;1570743755475;8153;28027964414;69995947121;1267577772;218223629;9868509150;97358923;1375287514;1015;35;1763616;-9;8153;1176647
1;29;1570743755475;1570743763578;8103;27939724058;69995079504;1242805818;213657348;9868214275;97362608;1376165235;881;1;1782272;15;8103;1162077
1;30;1570743763578;1570743780903;17325;28081477794;69994497240;1264673661;223910196;9868000969;97409983;1376939607;1908;3;3814632;5;17325;2414858
1;31;1570743780903;1570743789326;8423;28183332504;69995215524;1263380186;235684802;9868281544;97397860;1379035900;1042;54;1823104;-16;8423;1212503
1;32;1570743789326;1570743797517;8191;28049497954;69995308830;1262681417;219112500;9868306884;97394284;1376808902;889;4;1761152;7;8191;1179822
1;33;1570743797517;1570743805799;8282;28073621242;69995599794;1278418193;219467084;9868303147;97401591;1382464714;939;1;1841704;-10;8282;1187898
1;34;1570743805799;1570743813948;8149;28012121808;69965955494;1265917762;214202918;9858770945;97339137;1377718821;911;5;1814552;17;8149;1172765
1;35;1570743813948;1570743831056;17108;28136561842;69922052695;1275183555;228431270;9844646243;97298762;1378036993;1984;34;3742424;7;17108;2446285
1;36;1570743831057;1570743840578;9521;28031568570;69921145309;1247625602;223565898;9844441162;97348977;1379215313;1082;4;2125928;-26;9522;1372344
1;37;1570743840578;1570743848761;8183;27950865026;69855643089;1257269640;206663901;9825861364;97319815;1378765826;1012;34;1782576;-2;8183;1176999
1;38;1570743848761;1570743856959;8198;27870680804;69824317749;1253475835;197654444;9816276023;97248993;1376159246;918;9;1808320;10;8198;1176542
1;39;1570743856959;1570743874515;17556;28030386846;69823164661;1268369030;212565937;9815891956;97259043;1382158095;1981;8;3865056;0;17556;2495802
1;40;1570743874515;1570743883170;8655;28046108272;69823321791;1254717701;217671841;9815998886;97215684;1376904634;1085;39;1841248;12;8655;1245488
1;41;1570743883170;1570743891299;8129;27907321402;69823152706;1245341150;203230104;9815909203;97253871;1374445401;918;4;1783616;-22;8129;1163380
1;42;1570743891299;1570743899480;8181;27900073232;69823374425;1248595538;200963078;9816024829;97249138;1382163347;928;4;1793688;0;8181;1173338
1;43;1570743899480;1570743907618;8138;27880300598;69823572515;1239946937;200753731;9816044166;97271988;1374389638;1027;24;1761168;26;8138;1173444
1;44;1570743907618;1570743924830;17212;28016930464;69822778362;1245418008;220183427;9815732702;97251696;1380130302;1958;12;3756736;-6;17212;2457207
1;45;1570743924830;1570743933101;8271;27981146594;69823054980;1246900317;212203949;9815940369;97253247;1372692240;961;8;1844240;-1;8271;1188723
1;46;1570743933101;1570743941350;8249;27945102990;69822800958;1260996658;200022103;9815817801;97269744;1380582721;1052;32;1802176;-6;8249;1192996
1;47;1570743941350;1570743949521;8171;27875566694;69822769035;1241039412;199969758;9815802667;97222893;1375944843;943;5;1793856;-15;8171;1170477
1;48;1570743949521;1570743965878;16357;27893420158;69822822976;1226971265;208852388;9815823132;97225396;1376342240;1879;12;3583840;28;16357;2330488
1;49;1570743965878;1570743974262;8384;28070534802;69822753030;1247154684;224074894;9815785241;97231368;1383710856;1089;53;1786904;3;8384;1205565
1;50;1570743974262;1570743982335;8073;27849976252;69822897755;1220921596;203387729;9815863253;97212359;1373575047;932;4;1747400;-3;8073;1157205
1;51;1570743982335;1570743990666;8331;27871838584;69822777518;1225127049;205703734;9815783812;97223864;1375829730;966;7;1821008;-6;8331;1197897
1;52;1570743990666;1570743998743;8077;27837600854;69822510889;1234949855;196722474;9815712069;97235957;1377369056;955;5;1810824;5;8077;1159528
1;53;1570743998743;1570744015886;17143;27971681560;69822648311;1232666282;218426107;9815779231;97222653;1378364663;2092;31;3647888;0;17143;2452384
1;54;1570744015886;1570744023979;8093;27931212258;69822831629;1228073696;212235834;9815879474;97233227;1375725289;960;2;1800832;0;8093;1157452
1;55;1570744023979;1570744032056;8077;27894376896;69822779205;1245353360;201581947;9815854990;97221003;1383058405;1085;31;1735088;-27;8077;1167277
1;56;1570744032057;1570744040119;8062;27833111208;69822609420;1226688781;197902825;9815763517;97219551;1377333211;969;4;1813760;23;8064;1152895
1;57;1570744040120;1570744057052;16932;27946904776;69822813492;1244037014;208042065;9815880009;97221076;1379309765;1979;12;3687840;-1;16932;2362972
1;58;1570744057053;1570744065498;8445;28103951428;69822881045;1264699621;223332607;9815830220;97248685;1379935134;1136;41;1795840;-17;8446;1230944
1;59;1570744065499;1570744073604;8105;27972824156;69822411825;1266644105;208540584;9815781064;97205687;1378658737;1136;20;1545448;18;8106;1189918
1;60;1570744073604;1570744081665;8061;27838815282;69822417631;1243867723;197147732;9815781500;97215805;1377269297;1109;11;1563552;-14;8061;1156881
1;61;1570744081665;1570744089730;8065;27842978180;69822218415;1233800173;200183433;9815685426;97241772;1377018982;931;5;1734400;-3;8065;1155736
1;62;1570744089730;1570744106863;17133;27960376050;69822411043;1233681431;215531528;9815779943;97207476;1378377211;2198;57;3678232;10;17088;2258475
1;63;1570744106863;1570744114963;8100;27942445060;69822395868;1226017115;216689723;9815775931;97202495;1376258561;1019;7;1746328;9;8100;1173612
1;64;1570744114963;1570744123080;8117;27934310086;69822535038;1257141726;203559701;9815851187;97253381;1381153380;977;7;1804224;-17;8117;1160959
1;65;1570744123080;1570744131220;8140;27889944044;69822593010;1246847821;199990213;9815877578;97261094;1373575129;974;8;1792832;18;8140;1163495
1;66;1570744131220;1570744139339;8119;27898652798;69821943922;1252578026;199671135;9815552137;97232941;1377934871;1103;41;1756688;-22;8119;1171581
1;67;1570744139339;1570744156341;17002;27931019830;69822292248;1225643038;214369107;9815717135;97217960;1372933799;2019;13;3704800;11;17002;2293880
1;68;1570744156341;1570744164515;8174;28049177484;69822282333;1256099829;220025258;9815712940;97262596;1379851228;971;6;1803392;-10;8174;1173705
1;69;1570744164515;1570744172674;8159;27825256992;69822292546;1232784873;198226848;9815715757;97224046;1376065291;1120;34;1789616;11;8159;1175055
2;18;1570744498694;1570744506938;8244;28084018924;70255804283;1271027162;221732126;9821214555;97767026;1380546856;938;41;1787136;12;8244;1180740
2;19;1570744506938;1570744515165;8227;27998681486;70253048047;1251067738;217358071;9820439595;97714483;1376825312;890;0;1858600;6;8227;1180092
2;20;1570744515166;1570744531995;16829;28140738026;70252820317;1279986048;228212608;9820421681;97695275;1385124776;1770;0;3665920;-23;16760;2147630
2;21;1570744531995;1570744540390;8395;28156459598;70253036521;1252568034;238442493;9820473857;97709765;1379217118;967;47;1790264;-1;8394;1210552
2;22;1570744540390;1570744548531;8141;28026421632;70253209521;1256152787;221737871;9820647001;97678328;1379987696;872;0;1791104;24;8142;1169420
2;23;1570744548532;1570744556661;8129;28040137164;70251130546;1271726316;217191115;9820013405;97663929;1385435310;880;0;1809680;-16;8129;1165482
2;24;1570744556661;1570744564778;8117;28014537962;70251241353;1254910809;220114420;9820053984;97676982;1378328432;964;26;1781144;1;8117;1174060
2;25;1570744564778;1570744582359;17581;28084126818;70251452677;1262923690;227960499;9820156532;97697702;1372964935;1892;0;3848552;-3;17582;2407240
2;26;1570744582359;1570744590538;8179;28145999720;70251460434;1269880463;232234750;9820156169;97698615;1380890793;888;0;1801056;8;8178;1170601
2;27;1570744590538;1570744598918;8380;28016479616;70251973599;1258563101;218548469;9820283667;97726141;1379431095;1000;35;1843256;-4;8380;1208715
2;28;1570744598918;1570744607065;8147;28017702658;70252078562;1267587736;215280109;9820341729;97678366;1378399388;871;0;1771200;-7;8148;1169445
2;29;1570744607065;1570744623981;16916;28162025556;70251011609;1281509450;228126864;9820054149;97723981;1380856556;1919;53;3702648;-6;16916;2304801
2;30;1570744623981;1570744632594;8613;28097331496;70249831023;1278172768;220817766;9819631026;97761108;1377945312;951;1;1883048;12;8613;1236506
2;31;1570744632594;1570744640769;8175;28193336862;70250769630;1268319504;237574878;9820019833;97695634;1372813382;915;0;1800056;14;8175;1167395
2;32;1570744640769;1570744648911;8142;28100919738;70249778477;1290028834;217995022;9819636377;97699951;1380567074;917;1;1814632;-21;8142;1167590
2;33;1570744648911;1570744657058;8147;28039779902;70250921552;1272517711;215132778;9820048789;97700862;1379651662;1003;35;1774904;-3;8147;1170338
2;34;1570744657059;1570744674218;17159;28141813170;70221703110;1268413512;229923407;9810555116;97693429;1378452090;1895;2;3739552;1;17160;2336443
2;35;1570744674218;1570744682372;8154;28100175284;70177173220;1269503837;225418719;9796271703;97631631;1385239114;929;1;1829776;-1;8154;1169931
2;36;1570744682373;1570744691688;9315;28031184298;70177046854;1268393399;214403925;9796317125;97676299;1380962218;1124;31;2028296;-4;9316;1340249
2;37;1570744691689;1570744699939;8250;28055533302;70111279512;1259890337;203118337;9777683895;97796770;1372992702;915;3;1792640;13;8251;1184078
2;38;1570744699939;1570744717348;17409;28220428914;70096010287;1276667712;219366781;9773347913;97798172;1380272347;2056;66;3782776;17;17409;2414547
2;39;1570744717348;1570744725875;8527;28211473712;70095745053;1272700740;218984708;9773296790;97802536;1374893518;955;7;1844032;-27;8527;1227952
2;40;1570744725876;1570744734004;8128;28073986680;70095805453;1271867561;200671917;9773336248;97743680;1376357059;927;5;1782168;1;8129;1169480
2;41;1570744734004;1570744742151;8147;28136123404;70095717721;1279277088;207299734;9773289851;97785713;1377692904;941;8;1802616;19;8147;1172609
2;42;1570744742151;1570744759909;17758;28061147878;70095642819;1254058737;205732745;9773267446;97817103;1374939945;2125;48;3882664;-7;17758;2495108
2;43;1570744759909;1570744768086;8177;28166432858;70096103034;1255867536;219008476;9773434389;97817693;1370693133;958;3;1811944;-3;8177;1175113
2;44;1570744768086;1570744776354;8268;28166424974;70096179417;1271599519;214208166;9773523176;97758945;1378306502;967;3;1826264;-7;8267;1186859
2;45;1570744776354;1570744785208;8854;28089348946;70095888141;1257954494;208079056;9773423919;97756233;1381140253;1141;38;1947864;19;8855;1275967
2;46;1570744785209;1570744793630;8421;28042378556;70095562296;1249736683;204052670;9773288703;97790485;1379461584;962;4;1809240;-2;8422;1208981
2;47;1570744793630;1570744810523;16893;28130212740;70095780908;1249546879;215769853;9773375473;97773458;1378046862;2075;66;3674480;-11;16892;2329590
2;48;1570744810523;1570744819066;8543;28144112524;70096082314;1256368144;218533863;9773514394;97825612;1375228014;1002;7;1848600;-8;8544;1226120
2;49;1570744819067;1570744827233;8166;28073446480;70095731371;1262416662;202199766;9773353307;97781317;1378991776;963;8;1794640;-3;8167;1169930
2;50;1570744827234;1570744835349;8115;28025730468;70095562661;1241370612;205405059;9773250890;97780649;1377078826;963;9;1792144;29;8115;1166900
2;51;1570744835349;1570744853074;17725;28061451558;70095525478;1245693920;206106714;9773223800;97811527;1372213713;2180;39;3843368;-24;17725;2435217
2;52;1570744853074;1570744861290;8216;28257522550;70095772603;1275332492;225547610;9773423585;97766352;1378187283;1119;50;1666712;8;8216;1188461
2;53;1570744861290;1570744869419;8129;28091243150;70095864937;1266991838;205274487;9773455269;97736844;1374948792;1129;10;1495624;-9;8130;1169518
2;54;1570744869419;1570744877902;8483;28029335792;70095508437;1240919411;205164740;9773307201;97783656;1370004360;1013;9;1874200;11;8483;1219860
2;55;1570744877903;1570744886021;8118;28028131292;70095562502;1249851684;201899909;9773330624;97753820;1380925289;981;4;1798352;11;8119;1166019
2;56;1570744886021;1570744903527;17506;28194249070;70095777561;1268140097;220901443;9773414277;97770739;1378518701;2175;52;3809560;-23;17506;2451811
2;57;1570744903528;1570744911800;8272;28148331778;70095506235;1246509936;217320702;9773297999;97781788;1376147016;1056;5;1793560;6;8273;1203025
2;58;1570744911800;1570744920080;8280;28095139160;70092683126;1275337875;200150713;9772344172;97755837;1380823928;1003;6;1813520;21;8279;1186192
2;59;1570744920080;1570744928218;8138;28077019684;70078350801;1265410075;201613426;9767699372;97760862;1374473709;1081;53;1752800;-2;8138;1169844
2;60;1570744928218;1570744945404;17186;28118618588;70078115865;1262082986;205106625;9767583040;97751332;1373445773;2065;11;3734928;-5;17186;2425676
2;61;1570744945404;1570744953597;8193;28258689090;70078025923;1263816182;225616099;9767534093;97758757;1375437348;1103;49;1783496;-9;8194;1176954
2;62;1570744953597;1570744961748;8151;28151671382;70078349793;1260001081;213116778;9767698887;97759764;1371487424;988;8;1769544;4;8151;1166146
2;63;1570744961749;1570744970134;8385;28113652252;70078076309;1273734449;202999604;9767564789;97768500;1377558381;1027;7;1856856;-3;8385;1206797
2;64;1570744970134;1570744978268;8134;28104241676;70078135024;1278614748;201239174;9767586026;97724408;1376301685;1004;8;1794984;-12;8135;1169240
2;65;1570744978268;1570744995590;17322;28159495376;70078284510;1258185618;215747508;9767649382;97742859;1376622987;2236;49;3805168;9;17321;2319648
2;66;1570744995590;1570745003941;8351;28155367664;70077850752;1243528600;220123354;9767481082;97747344;1377968194;1022;7;1844176;2;8352;1196829
2;67;1570745003941;1570745012152;8211;28014916832;70077978132;1239222395;201867389;9767538596;97745552;1375853083;1013;6;1798360;11;8210;1176729
3;21;1570745348262;1570745356480;8218;28076231138;70024224736;1290384746;216488097;9869379691;97486649;1383202559;970;34;1799792;6;8218;1189363
3;22;1570745356480;1570745374028;17548;28120506222;70024419246;1257355290;234904065;9869481043;97487160;1376920231;1871;1;3848064;18;17548;2443242
3;23;1570745374028;1570745382382;8354;28054633650;70022612298;1232521610;234215313;9868886707;97428252;1372288562;984;48;1814592;-11;8355;1201061
3;24;1570745382382;1570745390952;8570;28040078034;70022353077;1268344051;219728947;9868869020;97473049;1382346714;915;2;1886168;13;8570;1227973
3;25;1570745390952;1570745399119;8167;28107976794;70022654836;1287598990;222044052;9869010521;97464527;1381542337;926;28;1761560;-20;8166;1174734
3;26;1570745399119;1570745416229;17110;28071945454;70023155592;1277702903;222442882;9869227482;97421405;1377203155;1818;1;3710784;12;17110;2300313
3;27;1570745416229;1570745424430;8201;28128070628;70023088683;1257286102;233712933;9869123054;97468280;1381881205;897;1;1826904;-1;8201;1173239
3;28;1570745424430;1570745432675;8245;28019133020;70022172064;1241418071;225056603;9868857506;97438443;1376177788;999;32;1826960;7;8245;1182699
3;29;1570745432675;1570745440999;8324;27974102240;70021809588;1246125458;216904945;9868750016;97426879;1376322223;922;1;1870672;-26;8325;1195269
3;30;1570745441000;1570745449175;8175;28025490882;70022880986;1262978177;218290305;9869133003;97415148;1376102520;860;0;1751424;4;8175;1174277
3;31;1570745449175;1570745466727;17552;28032416976;70021756838;1237076241;227784596;9868811030;97444987;1373758241;2019;50;3817080;9;17552;2498907
3;32;1570745466727;1570745474858;8131;28060038716;70021089896;1249264936;227447133;9868604269;97406632;1378869349;890;1;1785432;7;8131;1168446
3;33;1570745474858;1570745483266;8408;28044902604;70020835461;1254840602;224731662;9868448500;97432224;1380816482;926;2;1853144;2;8408;1205313
3;34;1570745483266;1570745491395;8129;27950186126;69992864537;1253862768;213674030;9859433531;97398255;1381707060;907;3;1812376;-11;8129;1170909
3;35;1570745491395;1570745508742;17347;28016332156;69948859930;1256716349;218166187;9845349283;97356379;1380007585;1988;56;3757496;-1;17347;2353616
3;36;1570745508742;1570745518098;9356;28111912078;69946992747;1256625479;231898234;9844737172;97374987;1376746097;1051;5;2088536;6;9356;1345976
3;37;1570745518098;1570745526295;8197;27963367006;69891013420;1245628691;209523898;9826380191;97317158;1371798715;992;40;1797104;-7;8198;1176894
3;38;1570745526295;1570745534459;8164;27938608180;69861899922;1263251590;201229557;9816716773;97315750;1379433141;924;1;1816336;4;8164;1170269
3;39;1570745534459;1570745551560;17101;27926384914;69860937540;1268947049;200482543;9816434608;97304223;1378324047;1912;4;3766120;-42;17100;2420717
3;40;1570745551560;1570745559714;8154;28039705880;69860725600;1262318513;220275088;9816322710;97302345;1380707655;992;67;1706688;51;8154;1161328
3;41;1570745559714;1570745567812;8098;27965095500;69860605525;1246885928;211858047;9816267459;97302236;1382677437;903;2;1785736;-7;8099;1160126
3;42;1570745567813;1570745576113;8300;27893439138;69860664952;1239261955;203621958;9816295327;97269879;1376636053;943;3;1845392;-15;8300;1188886
3;43;1570745576113;1570745584214;8101;27910454854;69860896891;1242880514;201720293;9816348270;97295107;1371684617;931;3;1811632;29;8101;1164721
3;44;1570745584214;1570745601960;17746;27999939568;69860754234;1266566992;209292578;9816311921;97283757;1378618160;2063;43;3872608;-29;17746;2497641
3;45;1570745601960;1570745610093;8133;28093967656;69860447437;1268604280;222758953;9816234475;97273922;1378080818;926;2;1807512;2;8133;1167400
3;46;1570745610093;1570745618461;8368;27974623606;69860489105;1266556384;206578709;9816256996;97280732;1378144677;1012;42;1814072;3;8369;1204711
3;47;1570745618461;1570745626540;8079;27865411372;69860657791;1243768409;198264332;9816349575;97271905;1378855572;939;4;1811472;21;8079;1156219
3;48;1570745626540;1570745634607;8067;27863501400;69860621627;1232375133;202815468;9816325818;97275539;1376099626;906;4;1751448;-10;8066;1159796
3;49;1570745634607;1570745651267;16660;28006753242;69860486017;1237170531;220649236;9816262908;97299164;1371681622;1977;70;3606360;4;16660;2380378
3;50;1570745651267;1570745659427;8160;28042033704;69851069227;1267876494;215132107;9816299853;97278990;1379393014;921;4;1778752;8;8160;1167766
3;51;1570745659427;1570745667961;8534;28014262752;69849401534;1268203081;210539723;9816363006;97278149;1378594600;984;4;1885600;-24;8534;1224047
3;52;1570745667961;1570745676076;8115;27930815722;69848620815;1269781297;200175898;9816192894;97271676;1381400190;957;5;1820296;3;8116;1167511
3;53;1570745676076;1570745693651;17575;28017350506;69848695006;1277599749;210778021;9816222822;97271991;1383003965;2103;46;3839160;22;17574;2298246
3;54;1570745693651;1570745702390;8739;28063498186;69848736693;1262308871;221512506;9816247379;97265282;1376605444;1297;69;1477856;-24;8739;1299636
3;55;1570745702390;1570745710453;8063;27834542446;69848570675;1237532079;197796354;9816152357;97297443;1371157703;942;4;1783416;18;8064;1158878
3;56;1570745710453;1570745718524;8071;27864648084;69848655461;1237330276;201540196;9816209738;97256749;1379087451;943;4;1777672;-15;8070;1153998
3;57;1570745718524;1570745726588;8064;27862822208;69848476058;1237399859;203046507;9816116621;97274549;1378660764;970;6;1809856;22;8064;1158528
3;58;1570745726588;1570745744361;17773;27963101432;69849012664;1247059177;215394576;9816344603;97273470;1377771668;2226;58;3805392;1;17773;2465310
3;59;1570745744361;1570745752523;8162;28015667856;69848755582;1258560265;213918079;9816307560;97280268;1379805754;996;2;1821576;-3;8162;1169414
3;60;1570745752523;1570745760938;8415;27889783590;69848724935;1263115333;198729611;9816283775;97285194;1376089237;1111;47;1821624;1;8415;1205716
3;61;1570745760938;1570745769034;8096;27937881392;69848513455;1252207903;205718458;9816182222;97262176;1374350469;979;9;1804016;-19;8097;1163450
3;62;1570745769035;1570745786097;17062;27968259758;69848452369;1272968372;204746518;9816147083;97282443;1382380121;2011;13;3704744;3;16961;2217282
3;63;1570745786097;1570745794380;8283;27985377236;69848454057;1236486923;219798216;9816157964;97280448;1373501777;1061;57;1782624;4;8283;1193613
3;64;1570745794380;1570745802448;8068;27868915664;69848405851;1227907193;208371504;9816129973;97255670;1375258990;936;9;1729464;-8;8069;1158588
3;65;1570745802449;1570745810629;8180;27876526790;69848496761;1249693098;199425587;9816154118;97258578;1384454883;996;8;1811584;-4;8181;1173947
3;66;1570745810630;1570745818852;8222;27963327732;69848276232;1267957319;205241556;9816088555;97272242;1378100359;1021;11;1831616;3;8223;1179062
3;67;1570745818852;1570745835037;16185;27982710254;69848365697;1262486136;212252868;9816124783;97266766;1381478510;2048;53;3516936;16;16185;2318704
3;68;1570745835037;1570745843652;8615;28023426296;69848238152;1276051272;213453703;9816055107;97249796;1381810885;1046;9;1907944;-22;8615;1234402
3;69;1570745843652;1570745852124;8472;27935100384;69848255906;1266059640;202708248;9816069060;97292227;1377790617;1100;41;1842448;15;8472;1221657
3;70;1570745852124;1570745860236;8112;27877895102;69848388263;1240456124;202730545;9816129851;97280159;1375231863;999;9;1791296;-5;8111;1163986
4;18;1570746186436;1570746194648;8212;27924782126;69558533986;1282897047;217042072;9731163104;97222875;1384874549;890;0;1833416;-26;8212;1180669
4;19;1570746194648;1570746202810;8162;27919842362;69557021675;1270365243;219071280;9730776233;97185997;1379470298;981;39;1786000;2;8162;1171306
4;20;1570746202810;1570746220626;17816;27998809966;69555488025;1277415455;229606506;9730352042;97160497;1381634991;1903;0;3888000;24;17816;2333925
4;21;1570746220626;1570746229606;8980;28018379806;69556798501;1272465723;234448224;9730798169;97172357;1382395929;1071;36;1907592;0;8980;1290187
4;22;1570746229606;1570746237697;8091;27875358352;69556360758;1256376217;219610846;9730713205;97161461;1382008635;872;3;1774096;-8;8091;1160209
4;23;1570746237697;1570746245768;8071;27858462794;69555376013;1255552171;217914330;9730460404;97125145;1380654866;882;1;1789448;-18;8071;1158087
4;24;1570746245768;1570746263039;17271;27871404818;69555265301;1261259045;217476172;9730463593;97145544;1378343738;1974;34;3779648;-19;17271;2231703
4;25;1570746263039;1570746271202;8163;27989466404;69555359893;1278205151;228768349;9730431723;97148620;1381237808;885;1;1772136;32;8163;1161523
4;26;1570746271203;1570746279322;8119;27932423766;69554356630;1252021636;228863828;9730142213;97151313;1379131373;998;38;1768936;-9;8120;1171016
4;27;1570746279322;1570746287872;8550;27925206840;69554915216;1280202295;219054503;9730314185;97138056;1384657695;968;6;1944704;24;8550;1219486
4;28;1570746287872;1570746295981;8109;27881437938;69554416686;1272990503;215442605;9730175873;97113733;1376118802;861;3;1728432;-29;8108;1162699
4;29;1570746295981;1570746312474;16493;27962993100;69554787725;1266294482;226698163;9730293247;97122457;1376667253;1994;43;3589312;0;16493;2279814
4;30;1570746312474;1570746320986;8512;27958871228;69553016408;1248505832;232089556;9729700374;97150173;1379036374;911;3;1818232;17;8513;1223204
4;31;1570746320986;1570746329283;8297;27947477680;69553881291;1284016541;220402770;9730056961;97121397;1380855754;951;5;1874504;11;8297;1190467
4;32;1570746329283;1570746337427;8144;27910214392;69553330550;1268720558;218180150;9729904692;97131943;1378124493;918;4;1828264;-22;8144;1173115
4;33;1570746337427;1570746355097;17670;27954203170;69553734686;1277466648;221727513;9730041946;97119608;1383080802;2108;45;3831320;-1;17669;2425533
4;34;1570746355097;1570746363288;8191;27975503402;69524745741;1270319822;227786588;9720650753;97111239;1378017185;920;4;1798392;8;8192;1175751
4;35;1570746363288;1570746371531;8243;27916828338;69480115322;1274114799;218582414;9706248458;97043083;1380532784;933;4;1832568;2;8242;1184037
4;36;1570746371531;1570746381121;9590;27883946510;69479625089;1272861326;212477886;9706247285;97090001;1380278070;1198;40;2128072;3;9591;1382196
4;37;1570746381121;1570746389313;8192;27787849456;69414791206;1266599520;200010171;9687937134;97026829;1381688060;878;5;1741416;-14;8192;1176754
4;38;1570746389314;1570746406017;16703;27918023056;69382768218;1266459252;218731439;9677988821;96982575;1382368378;2049;60;3671200;4;16704;2358787
4;39;1570746406017;1570746414063;8046;27767967760;69381559300;1233904208;209450569;9677649955;96995155;1378795015;875;5;1720256;21;8045;1154763
4;40;1570746414063;1570746422202;8139;27768689000;69381667939;1252661321;204678082;9677707946;97009598;1386131603;898;4;1747400;-2;8140;1168812
4;41;1570746422203;1570746430243;8040;27730664030;69381558296;1235770002;202349364;9677649666;97016317;1380991862;930;4;1809800;-2;8040;1152442
4;42;1570746430243;1570746447652;17409;27852264656;69381606764;1262625808;210113910;9677674203;96990757;1386392346;2089;35;3807256;-10;17409;2406042
4;43;1570746447652;1570746455759;8107;27920305620;69381876605;1257988370;221399093;9677757337;96982356;1376422369;924;4;1780752;4;8107;1161645
4;44;1570746455759;1570746463838;8079;27866642882;69381215041;1271163272;209637857;9677495321;96981581;1383409379;931;1;1781024;-3;8080;1162265
4;45;1570746463838;1570746472128;8290;27714791640;69381401590;1231418200;200657126;9677667062;97016739;1376269615;1043;45;1815464;-11;8289;1192178
4;46;1570746472128;1570746480169;8041;27753315930;69381171749;1253618181;201823793;9677544515;96999475;1383642993;909;8;1740248;19;8042;1151509
4;47;1570746480169;1570746496873;16704;27867302510;69381119422;1262797134;214290300;9677531172;96998692;1380087056;2009;59;3636664;4;16704;2378483
4;48;1570746496873;1570746505377;8504;27939933130;69381367471;1261105266;222143152;9677658389;96985712;1377675496;981;5;1865056;-19;8503;1221866
4;49;1570746505377;1570746513486;8109;27856173514;69381473551;1281184975;204861533;9677710094;97007535;1384946414;954;7;1795200;6;8109;1159804
4;50;1570746513486;1570746521553;8067;27725980350;69381424130;1243385899;198544143;9677679482;97014820;1377588761;943;5;1786360;-15;8067;1157690
4;51;1570746521553;1570746539233;17680;27746102362;69381223628;1235155635;206555967;9677557190;97002097;1378532904;2162;34;3841392;23;17681;2529454
4;52;1570746539233;1570746547303;8070;27854355230;69380857499;1237604054;220260186;9677447221;97012233;1379675586;1103;59;1554032;-3;8070;1171329
4;53;1570746547304;1570746555334;8030;27736314960;69381196534;1249935325;200207033;9677604638;96983484;1383403729;1047;10;1523120;3;8031;1155977
4;54;1570746555335;1570746563831;8496;27704517328;69380994029;1236922292;198175099;9677521173;97014239;1379510951;1015;7;1893216;-23;8496;1220886
4;55;1570746563831;1570746571891;8060;27820733328;69381146539;1269340835;203558084;9677586694;97001518;1385266293;962;11;1806696;-2;8061;1152167
4;56;1570746571892;1570746589441;17549;27936114062;69381134926;1260758032;221580544;9677578185;96990715;1380645806;2196;68;3795712;8;17550;2554402
4;57;1570746589441;1570746597548;8107;27946190252;69381180007;1273605734;220139392;9677599903;96979075;1386768132;974;9;1790456;19;8106;1164698
4;58;1570746597548;1570746605644;8096;27765633512;69381439212;1257473908;200941935;9677687554;96983016;1375799169;951;11;1776432;-23;8097;1163022
4;59;1570746605644;1570746613687;8043;27790255974;69380549183;1265392528;200873203;9677387509;96991774;1379806546;1075;54;1764208;2;8043;1160576
4;60;1570746613687;1570746621727;8040;27767301124;69380730385;1256808981;201744977;9677476753;96986317;1375161973;948;7;1738960;12;8040;1153722
4;61;1570746621727;1570746639288;17561;27926324762;69380666828;1271561455;219758538;9677429358;96984309;1383423198;2204;66;3817224;-6;17561;2360108
4;62;1570746639288;1570746647549;8261;27822171136;69380559082;1252021222;210828984;9677386863;96984762;1378851994;988;8;1820400;4;8260;1183311
4;63;1570746647549;1570746655916;8367;27721999660;69380642419;1240221765;202193167;9677424462;96993038;1380118231;1034;8;1856056;-8;8367;1202274
4;64;1570746655916;1570746663929;8013;27678223312;69380814427;1233907274;198637491;9677517329;96978340;1377684647;968;5;1778856;-8;8013;1149522
4;65;1570746663929;1570746681628;17699;27824072494;69380649334;1252707301;212995276;9677396379;96983412;1379463352;2238;40;3857816;3;17700;2424210
4;66;1570746681628;1570746690106;8478;27928960500;69380663100;1259991464;222182200;9677465827;96980223;1377657795;1040;12;1875592;16;8478;1220340
4;67;1570746690106;1570746698167;8061;27829936584;69380532228;1264252348;208240784;9677385058;96971510;1378100101;986;10;1780712;6;8061;1155941
