0;16;1570755124628;1570755132969;8341;28152086022;70014974182;1278552273;229916926;9869981068;97204353;1380863286;1038;8548;1310960;-14;8341;1188734
0;17;1570755132969;1570755141728;8759;28230216170;70014415561;1296739396;235097752;9869787072;97185618;1381471462;1413;10370;1535144;24;8759;1316253
0;18;1570755141728;1570755160833;19105;28138230038;70015260012;1283909617;228864129;9870050823;97209736;1379867240;2892;17093;2788768;-6;19105;2728122
0;19;1570755160833;1570755169397;8564;28234189852;70012704094;1274966629;237056913;9869306286;97231933;1378839111;1135;10615;1365632;-15;8564;1219723
0;20;1570755169397;1570755177695;8298;28251060444;70011991813;1283189584;239319626;9869100524;97204226;1385270863;1528;5197;1445376;12;8299;1259305
0;21;1570755177696;1570755186135;8439;28080371990;70013000674;1276875109;224855381;9869474427;97245305;1376177935;1593;5943;973376;5;8439;1239701
0;22;1570755186135;1570755194689;8554;28036319556;70012592088;1277313571;220883241;9869449584;97196338;1380584140;1292;7166;1189936;-10;8554;1224122
0;23;1570755194689;1570755212013;17324;28345293224;70010715236;1296613172;248268993;9868895729;97123735;1380878469;2858;20936;2766160;-1;17324;2575529
0;24;1570755212013;1570755220286;8273;28175811752;70010188107;1280405700;232988339;9868706751;97196010;1378534576;1133;9074;1516032;21;8273;1181478
0;25;1570755220286;1570755228433;8147;28041468538;70010476756;1271260657;221277892;9868818886;97181635;1373350409;1406;5433;1015960;-30;8147;1160492
0;26;1570755228433;1570755236603;8170;28048201036;70010667026;1288333843;219663084;9868858123;97142920;1382275884;1151;7647;1180928;1;8170;1166527
0;27;1570755236603;1570755253057;16454;28330456120;70011788984;1289898554;245482101;9869225654;97155746;1384449741;2812;17659;2668128;-2;16454;2422965
0;28;1570755253057;1570755261451;8394;28122497954;70010818488;1287957252;226437775;9868900857;97129852;1380558261;1380;7671;1015416;28;8394;1198090
0;29;1570755261451;1570755269614;8163;28088080790;70008663688;1295622599;222428071;9868220229;97156342;1384846098;1027;7357;1205752;-3;8163;1171055
0;30;1570755269614;1570755278326;8712;28206257278;70008536835;1286055838;236316102;9868169901;97116669;1378453218;1566;10002;1492640;-21;8712;1302915
0;31;1570755278326;1570755286660;8334;28008760012;70009170089;1259323069;222042880;9868401470;97140644;1373860487;1450;6932;1265240;22;8334;1200528
0;32;1570755286660;1570755305682;19022;28267901106;70009074652;1285243026;243086237;9868399178;97120303;1381687493;3010;19082;2613696;122;19022;2774551
0;33;1570755305682;1570755314085;8403;28223275914;70010445151;1297797184;233106181;9868852823;97139990;1381887838;1250;9003;1451296;-126;8403;1215428
0;34;1570755314085;1570755322259;8174;28078117020;69981779616;1293181170;219392071;9859623378;97085791;1383937606;1403;4967;1020544;5;8174;1167808
0;35;1570755322259;1570755330473;8214;28012214810;69936130278;1284372486;213507271;9844954083;97062410;1385811170;1156;7658;1114936;-4;8214;1170313
0;36;1570755330473;1570755348342;17869;28257686362;69935910455;1274397022;241171228;9844938010;97081991;1381343436;3210;18605;2681000;-13;17870;2627045
0;37;1570755348343;1570755356660;8317;27949101784;69869876353;1259174547;211456007;9826163984;97014074;1377595116;1272;6522;1070016;8;8317;1183875
0;38;1570755356660;1570755364794;8134;28018217162;69854432665;1289860830;209296619;9821822801;96998521;1383836459;1118;7932;1216224;2;8135;1159493
0;39;1570755364795;1570755373322;8527;28052724554;69854640433;1265522142;221266305;9821913266;96990258;1376119640;1502;9114;1452360;5;8528;1318245
0;40;1570755373323;1570755392237;18914;28014459998;69854582537;1255325063;217776576;9821915326;96995638;1376061448;3000;17117;2699448;-24;18915;2700206
0;41;1570755392238;1570755400519;8281;28206527378;69854735028;1289818830;231140987;9821985612;97013796;1386283382;1607;9407;1271440;7;8281;1272901
0;42;1570755400519;1570755408775;8256;28086243964;69854633016;1276004672;219637274;9821940787;96991744;1382179516;1152;8869;1513136;3;8256;1186330
0;43;1570755408775;1570755416916;8141;28021137454;69854952103;1287458861;209997821;9822044311;97035008;1382355528;1606;6325;966496;-5;8141;1162738
0;44;1570755416916;1570755425065;8149;28019120610;69854231643;1273185479;213215849;9821744969;97009874;1380641898;988;6733;1232760;4;8149;1166829
0;45;1570755425065;1570755442691;17626;28133924498;69853958226;1264490677;228727235;9821706792;97002097;1375308256;3182;18797;2670904;0;17626;2635811
0;46;1570755442691;1570755450815;8124;28009488406;69854562687;1283160752;210519921;9821993113;96995728;1381567785;1193;6441;1048392;-8;8124;1154745
0;47;1570755450815;1570755458927;8112;27958165026;69854646947;1264866094;210722151;9822037141;97005147;1377130929;1100;7656;1193432;20;8112;1154323
0;48;1570755458927;1570755467456;8529;27920071728;69854291005;1251303138;208507867;9821871122;96988054;1371939280;1682;8638;1373248;0;8529;1371978
0;49;1570755467456;1570755486494;19038;28218515584;69854572008;1278648891;233815232;9822022959;96972967;1383539166;2997;17645;2640432;-21;19038;2717202
0;50;1570755486494;1570755494731;8237;28002032186;69854427713;1276610108;213553237;9821915601;96997780;1383203302;1859;6545;962512;21;8237;1551775
0;51;1570755494731;1570755503089;8358;28016910900;69852970453;1282373147;213602774;9821383336;97016064;1379059449;1400;8145;1332440;-1;8359;1196921
0;52;1570755503090;1570755511222;8132;28030551826;69836993624;1290862891;207870618;9816210029;96956797;1383689110;1350;5395;994648;-6;8132;1167309
0;53;1570755511222;1570755528225;17003;27985453302;69836936886;1259001902;211328015;9816167504;96976585;1375859062;2758;16951;2645888;-3;17003;2579707
0;54;1570755528225;1570755536363;8138;28028133482;69836916975;1265423865;214398529;9816161833;96963070;1376718288;1599;8002;917976;3;8138;1160165
0;55;1570755536363;1570755544564;8201;27965364870;69836929369;1267485369;204465720;9816162546;96949916;1376079293;1004;7966;1189752;-12;8202;1174653
0;56;1570755544565;1570755553100;8535;28152001196;69836971905;1258293018;231198821;9816183159;96978417;1373529330;1676;5277;1358400;20;8535;1342634
0;57;1570755553100;1570755561468;8368;28094791826;69836822089;1274946022;218532395;9816103651;97006244;1380585897;1390;7429;1401384;-14;8368;1199850
0;58;1570755561468;1570755579868;18400;28138533426;69837067935;1275339459;223324828;9816202349;96995289;1383233634;2647;20049;2621536;11;18400;2622859
0;59;1570755579868;1570755588350;8482;28098259034;69836924049;1277987734;219301529;9816205600;96979591;1378438633;1580;8207;1404712;-9;8482;1323375
0;60;1570755588350;1570755596482;8132;28051035772;69836848045;1280254742;215075173;9816168530;96965718;1380343462;1448;7015;1202704;-8;8132;1164706
0;61;1570755596482;1570755604701;8219;28006221072;69836690314;1279283243;208948204;9816082880;96975407;1377674319;1111;7472;1132344;9;8219;1175932
0;62;1570755604701;1570755612816;8115;27946108346;69836912731;1253568479;209387269;9816196519;96985247;1372168206;1155;7891;1241976;-3;8115;1156930
0;63;1570755612816;1570755630121;17305;28109369926;69836714416;1271951988;222758067;9816089475;96971990;1380642497;3277;18076;2562824;16;17305;2575132
0;64;1570755630121;1570755638267;8146;28056375868;69836673178;1275836246;213293101;9816077037;96963298;1378715202;1014;7335;1147336;-22;8146;1162034
0;65;1570755638267;1570755646386;8119;27979750834;69836981971;1267388563;210208503;9816228564;96979113;1379457480;1144;7813;1327336;174;8119;1191653
1;19;1570755974665;1570755982900;8235;27990182972;69605718169;1272696411;224500825;9776389152;97108467;1372200390;1074;7592;1244456;14;8235;1176923
1;20;1570755982900;1570755999032;16132;28163668640;69604649788;1271563773;241475716;9776114624;97153789;1379331837;2867;17557;2533496;-15;16132;2395130
1;21;1570755999032;1570756007212;8180;27952991954;69605491453;1279385495;220212019;9776439887;97112868;1378165866;1141;7142;1108416;13;8181;1163070
1;22;1570756007212;1570756015472;8260;28042109624;69606220364;1275880529;229143507;9776707676;97138065;1378184926;1124;8510;1213960;6;8260;1178728
1;23;1570756015473;1570756023732;8259;28060705790;69605163038;1287065819;227624736;9776412943;97084673;1377766170;1583;9066;1462080;-13;8260;1325273
1;24;1570756023732;1570756032259;8527;28002807300;69603766261;1261272022;226598375;9775940205;97085249;1377140180;1444;7217;1247080;-3;8526;1225588
1;25;1570756032259;1570756052549;20290;28021169136;69603770249;1259253914;227474130;9775969805;97157062;1371524911;3449;19880;2631104;6;20291;2977716
1;26;1570756052550;1570756060738;8188;28186137748;69603239735;1278762596;242114341;9775850709;97048519;1378744875;1032;6025;1586504;-14;8188;1177133
1;27;1570756060738;1570756069188;8450;28184825938;69604796248;1269659593;246011075;9776311105;97074331;1377935596;1478;8740;1460664;17;8451;1277189
1;28;1570756069188;1570756077364;8176;28026875838;69604404400;1280319110;225830655;9776231854;97072417;1376705618;1467;7436;1275520;5;8175;1166696
1;29;1570756077364;1570756095487;18123;28139421836;69603064657;1273329278;239925162;9775800044;97066066;1378535626;2515;19778;2617576;-7;18123;2588436
1;30;1570756095487;1570756104192;8705;28092852508;69604177902;1282437730;233111763;9776200133;97085604;1376985653;1514;9691;1527560;-18;8706;1326210
1;31;1570756104193;1570756112389;8196;27946006292;69602001678;1268413937;219943063;9775436649;97085719;1375331144;1430;4852;1074376;10;8197;1169333
1;32;1570756112390;1570756120585;8195;27939938532;69602457887;1276787571;219180638;9775620630;97097621;1382449231;1099;7262;1117240;-10;8196;1165583
1;33;1570756120585;1570756137628;17043;28165177258;69603435025;1264219226;244395096;9775965991;97066758;1376598860;2877;19227;2663840;5;17042;2530356
1;34;1570756137628;1570756146242;8614;27991319874;69574463467;1271295494;224110021;9766600467;97040364;1378832875;1409;6565;1057832;-1;8615;1233770
1;35;1570756146242;1570756154449;8207;27897993608;69530429583;1280101913;210093815;9752476725;97022165;1378791828;1026;7290;1194336;-2;8207;1170641
1;36;1570756154449;1570756164029;9580;28025322544;69528982580;1274924331;227148521;9752022052;97023864;1377912393;1668;10257;1560056;10;9580;1449877
1;37;1570756164030;1570756183478;19448;27990016094;69463804207;1260627652;224547720;9733649390;96991933;1369818679;3054;17406;2746936;-14;19449;2776780
1;38;1570756183478;1570756191928;8450;28023380890;69447960503;1272967612;225242506;9729122565;96951705;1378770535;1434;9928;1319832;141;8450;1275007
1;39;1570756191929;1570756200139;8210;27983987316;69447938976;1271357011;219803544;9729161645;96968546;1379784765;1279;9379;1415720;-111;8211;1209259
1;40;1570756200139;1570756208615;8476;27848222208;69448130924;1272875373;205741849;9729270963;96951781;1379162048;1619;6216;1016752;-19;8475;1214189
1;41;1570756208615;1570756216906;8291;27912215906;69447902883;1279483690;210328036;9729147434;96973874;1377677796;970;6493;1215584;-10;8292;1182146
1;42;1570756216906;1570756234240;17334;28024023144;69447486290;1258762241;229418539;9728969412;96946616;1375700117;3116;18712;2595464;18;17334;2592824
1;43;1570756234240;1570756242327;8087;27814008422;69448280625;1256226665;206482342;9729279066;96947834;1370306359;1247;7506;1042592;1;8087;1150865
1;44;1570756242327;1570756250553;8226;27909450958;69448011547;1266608710;214565486;9729212591;96951055;1378608417;1081;6643;1234848;7;8225;1172116
1;45;1570756250553;1570756258859;8306;27947391102;69430305255;1272173280;214726530;9723389143;96935080;1380652674;1444;8613;1397336;-28;8307;1260415
1;46;1570756258859;1570756277960;19101;28046299386;69430223024;1264929209;228044650;9723352442;96919064;1379721547;3027;18716;2645160;14;19101;2734732
1;47;1570756277960;1570756286613;8653;27938557956;69430252492;1268747225;216593868;9723377155;96936989;1377795170;1551;8862;1404856;-7;8653;1311923
1;48;1570756286613;1570756294907;8294;27917916768;69430166393;1250303562;216964587;9723306900;96973360;1375116920;1150;8579;1520928;2;8294;1190523
1;49;1570756294907;1570756303174;8267;27788338410;69430006346;1264894139;199910272;9723251649;96925657;1372200109;1588;7033;948160;14;8267;1177365
1;50;1570756303174;1570756320653;17479;27960191506;69430173773;1273777831;215566571;9723317343;96927964;1379032613;2707;19293;2695784;2;17478;2573237
1;51;1570756320653;1570756328930;8277;28030194710;69430379799;1266729991;225656325;9723403691;96950196;1377206324;1454;5971;1140240;-13;8277;1185056
1;52;1570756328930;1570756336994;8064;27837359516;69429920278;1287402016;199726399;9723269326;96927676;1379250432;1164;7421;1026424;-12;8065;1150906
1;53;1570756336994;1570756345125;8131;27972175478;69430048929;1271152241;215820137;9723329911;96939268;1377839032;1157;8129;1221952;28;8131;1162142
1;54;1570756345125;1570756353727;8602;27980637930;69430043602;1262865339;219608565;9723317046;96908710;1374568231;1474;8963;1499336;-22;8601;1291092
1;55;1570756353727;1570756361740;8013;27649768642;69430050362;1247298161;188748978;9723322438;96926478;1370165812;1493;4326;1084392;2;8014;1253406
1;56;1570756361740;1570756369770;8030;27727708552;69430052531;1284242050;187526027;9723322036;96897028;1377277752;1626;4849;753976;22;8030;1170709
1;57;1570756369770;1570756385599;15829;27926252930;69430070139;1263126082;216264253;9723332622;96934971;1377006018;2258;18402;2378400;-6;15829;2265704
1;58;1570756385600;1570756393994;8394;27948703934;69430024992;1269563646;216516194;9723296082;96908295;1377768854;1604;7692;1448736;-13;8395;1309500
1;59;1570756393995;1570756402097;8102;27922870986;69430097607;1257935118;215163574;9723360084;96939449;1378538819;1310;7090;1296816;2;8103;1156735
1;60;1570756402098;1570756410218;8120;27657501678;69429885876;1262679697;183988672;9723251429;96924953;1375078545;1351;7342;985200;3;8120;1156151
1;61;1570756410218;1570756426057;15839;27890225240;69430242872;1239954322;217336920;9723445572;96932771;1370172522;2616;17855;2520584;-12;15840;2342215
1;62;1570756426057;1570756434447;8390;27871319116;69430005305;1264405896;208874244;9723301072;96930682;1378470704;1463;6452;1312280;9;8389;1200621
1;63;1570756434447;1570756442615;8168;27845776124;69429801789;1263646096;204670971;9723216630;96939552;1377065593;1222;7057;1009248;-1;8168;1160161
1;64;1570756442615;1570756450675;8060;27795508762;69430096957;1262629208;199180607;9723354910;96924315;1376545661;1080;8178;1246944;8;8061;1155719
1;65;1570756450675;1570756458720;8045;27774209844;69430043195;1254447696;196329034;9723344746;96898710;1378612239;1799;5821;1234768;1;8045;1151775
1;66;1570756458720;1570756474553;15833;28051953236;69430022373;1258840584;229682066;9723316227;96921101;1375361662;2339;13284;2116904;-16;15833;2262227
1;67;1570756474553;1570756482976;8423;27895687538;69429972444;1247837704;215566116;9723284956;96909038;1369642717;1159;9952;1527912;25;8423;1200429
1;68;1570756482976;1570756491136;8160;27971041642;69430007083;1256059217;219754891;9723317255;96921409;1377056464;1405;7851;1487936;-20;8160;1278724
2;18;1570756818614;1570756827099;8485;28259537350;70288248409;1287733485;229579608;9821705455;98311465;1383109397;1146;8380;1343160;7;8485;1212062
2;19;1570756827099;1570756835310;8211;28271192092;70287302059;1274829809;233284453;9821487731;98277061;1379064862;1412;9367;1456632;-3;8211;1259640
2;20;1570756835310;1570756854465;19155;28405471796;70286678141;1296243897;244642007;9821400907;98294238;1383933625;2982;15457;2661056;-1;19155;2585435
2;21;1570756854465;1570756863228;8763;28354080672;70286922815;1260872211;248845368;9821463542;98257763;1374078572;1517;8105;1349840;4;8763;1321807
2;22;1570756863228;1570756871476;8248;28252158072;70285082795;1288052482;229105976;9820907829;98235524;1380835245;1321;8311;1378304;23;8248;1181938
2;23;1570756871476;1570756879625;8149;28093831876;70285688028;1267465874;219508532;9821228624;98235303;1375299223;1256;6683;1044936;-7;8150;1166241
2;24;1570756879626;1570756895735;16109;28227174698;70284978501;1281828015;228679914;9820990448;98268206;1381050313;2692;14372;2334856;-22;16109;2463184
2;25;1570756895735;1570756903928;8193;28158005154;70283801089;1280516674;222020825;9820591119;98269777;1375921869;1311;7996;1052440;13;8193;1167777
2;26;1570756903928;1570756912174;8246;28225102666;70284005149;1270293613;231449009;9820660261;98311204;1376464239;1106;9864;1442000;-14;8246;1175275
2;27;1570756912174;1570756920425;8251;28329948770;70284453102;1300044092;234769845;9820784787;98247923;1382447237;1498;9759;1421168;14;8251;1262339
2;28;1570756920425;1570756928638;8213;28173375012;70284065277;1278451222;224565090;9820753618;98253627;1374213827;1426;4693;1088008;16;8213;1178215
2;29;1570756928638;1570756947082;18444;28265484222;70283632992;1265188834;237341620;9820553721;98274093;1375193761;2993;19971;2681120;-9;18444;2708524
2;30;1570756947082;1570756955368;8286;28224100522;70282786916;1274700582;230669649;9820262743;98219781;1377406367;1489;6632;1214488;-17;8286;1181324
2;31;1570756955368;1570756963636;8268;28150864586;70283242461;1275706236;222249481;9820487272;98217350;1378062285;1209;6890;1108080;9;8268;1182217
2;32;1570756963636;1570756971994;8358;28122463498;70283287043;1272501264;221075863;9820474068;98269708;1376686245;1078;7648;1255352;10;8358;1190504
2;33;1570756971994;1570756988671;16677;28375412294;70284043691;1283187404;245595532;9820800405;98218800;1382622543;3082;17064;2565192;-21;16677;2493394
2;34;1570756988671;1570756996959;8288;28103010750;70254100974;1280445967;216984120;9811081301;98244874;1376233096;1261;7494;1079344;19;8288;1182124
2;35;1570756996959;1570757005306;8347;28086062632;70210050953;1273883750;216251963;9796897828;98139037;1379144452;1164;9316;1273592;-8;8347;1194813
2;36;1570757005306;1570757015046;9740;28242889846;70209359952;1278936106;230453545;9796687450;98233047;1378477431;1759;10486;1671984;8;9740;1484948
2;37;1570757015046;1570757032892;17846;28117083398;70143896274;1277439517;211320167;9778212166;98151651;1380630848;2791;14192;2445392;-7;17846;2554736
2;38;1570757032892;1570757041624;8732;28280139556;70128477567;1273160205;234189806;9773893651;98142107;1378738277;1740;10372;1355272;-12;8732;1327553
2;39;1570757041624;1570757050078;8454;28103943982;70127884990;1278405398;213157255;9773633064;98155160;1379014444;1494;8350;1355400;10;8454;1210850
2;40;1570757050078;1570757058337;8259;28129061238;70128123917;1291432083;211350488;9773762367;98169783;1386405596;1239;6330;1049080;8;8259;1188578
2;41;1570757058337;1570757066782;8445;28074038802;70128301860;1266958863;211411220;9773849295;98154747;1377920163;1148;7817;1292312;4;8445;1205283
2;42;1570757066782;1570757084848;18066;28256736924;70128483216;1291082624;227838907;9773931704;98146681;1384886340;3287;20072;2698336;-7;18066;2676431
2;43;1570757084848;1570757093086;8238;28035516410;70128608505;1257909164;211988400;9773947831;98127728;1374583785;1012;6616;1231320;12;8238;1175517
2;44;1570757093086;1570757101635;8549;28158241674;70127440304;1268937874;220283250;9773483430;98155585;1379151636;1583;8535;1368040;49;8549;1309624
2;45;1570757101635;1570757109793;8158;28036960058;70110984064;1264217532;203806807;9768121867;98152076;1374372249;1191;9574;1560120;-67;8158;1169893
2;46;1570757109793;1570757127519;17726;28289081472;70111049208;1270879934;235122726;9768155350;98124140;1381558539;2761;15098;2402600;1;17726;2537379
2;47;1570757127519;1570757136083;8564;28157024180;70110841015;1256823188;223265152;9768047507;98120061;1376709659;1543;9589;1398848;9;8564;1334750
2;48;1570757136083;1570757144242;8159;28081120240;70110760170;1263408980;212889345;9768010898;98129207;1378734884;1264;6965;1307072;-15;8159;1166631
2;49;1570757144242;1570757152385;8143;28015467836;70110894110;1272810076;200176540;9768081001;98125357;1377859721;1293;7084;992552;18;8143;1168050
2;50;1570757152385;1570757160642;8257;28089842426;70111055436;1267428958;211236063;9768157548;98169941;1378714951;1128;7486;1222472;-7;8257;1180177
2;51;1570757160642;1570757177582;16940;28161427102;70110998175;1252681999;222866055;9768097765;98140296;1376169489;3095;18008;2544360;7;16940;2475304
2;52;1570757177582;1570757185825;8243;28034911970;70110758199;1252402190;209170684;9768079228;98139603;1376314195;974;7412;1152296;-14;8243;1179302
2;53;1570757185825;1570757194069;8244;28098417882;70110845219;1271557657;212776853;9768122999;98115511;1381381163;1113;7984;1321904;7;8244;1170090
2;54;1570757194069;1570757202393;8324;28031139914;70110780866;1255250817;208609305;9768096121;98134516;1377240231;1445;5823;1463712;-10;8324;1271086
2;55;1570757202393;1570757222199;19806;28345110578;70110989702;1277491657;240008408;9768191808;98134331;1381971875;3373;16270;2387936;6;19807;3012708
2;56;1570757222200;1570757230366;8166;27863858078;70110791151;1253080449;189200644;9768095455;98114130;1378424886;1356;6896;1112712;-7;8166;1175485
2;57;1570757230366;1570757238952;8586;28297039056;70110669256;1274686556;233990442;9768036124;98119406;1384953120;1326;4934;1305496;-5;8587;1237650
2;58;1570757238953;1570757247566;8613;28064064812;70111380015;1242856395;215020210;9768332507;98098817;1375480353;1291;5121;1470544;17;8613;1288512
2;59;1570757247566;1570757265798;18232;28349430718;70110158789;1265479466;242950573;9767868184;98091738;1379341085;2948;16543;2588360;-11;18232;2612132
2;60;1570757265798;1570757274094;8296;28215250586;70110502528;1248874036;232211239;9768051344;98116589;1375262606;1191;10077;1479096;-2;8297;1187337
2;61;1570757274095;1570757282568;8473;28146720814;70110496241;1282702527;217165553;9768043125;98124216;1382450418;1415;10121;1523160;7;8473;1297526
2;62;1570757282568;1570757290702;8134;28055041574;70110194650;1261460267;211052936;9767889044;98104973;1376483969;1371;6765;1235296;5;8135;1163411
2;63;1570757290703;1570757299150;8447;27992052648;70110246923;1259638056;203370512;9767924128;98099453;1378717846;1182;7120;1102880;-16;8447;1211551
2;64;1570757299150;1570757316192;17042;28175804890;70110381053;1250099120;228126176;9767979982;98122722;1373715158;2744;18990;2669304;20;17042;2549345
2;65;1570757316192;1570757324318;8126;28010104234;70110424912;1260607640;205615317;9767993585;98151645;1378849436;1487;5783;964160;-15;8126;1159051
2;66;1570757324318;1570757332527;8209;27958678800;70110582049;1248220944;204314515;9768097786;98104103;1376434166;1009;6823;1229960;15;8209;1167621
2;67;1570757332527;1570757340692;8165;28089479178;70110291537;1261620948;213531004;9767944244;98123815;1373926674;1391;9635;1331424;66;8165;1237101
3;17;1570757649968;1570757658165;8197;28063508990;69641064122;1290617570;223267333;9776690016;97459729;1383158391;1231;7212;1032520;-14;8197;1171497
3;18;1570757658165;1570757666587;8422;28103345528;69642299321;1280062211;228464334;9777112169;97476118;1380131610;1135;8007;1294440;-15;8422;1202109
3;19;1570757666587;1570757674854;8267;28133886100;69641070881;1284749264;230773401;9776860823;97419435;1379872976;1430;8230;1411840;1;8267;1287088
3;20;1570757674854;1570757693720;18866;28402006486;69641472108;1291621159;256448255;9777083599;97455394;1386629633;2948;15613;2730840;10;18866;2633447
3;21;1570757693720;1570757702268;8548;28151205350;69641299101;1268836307;238155875;9777035232;97441321;1378684357;1538;7741;1241544;-8;8548;1281326
3;22;1570757702268;1570757710476;8208;28205478952;69640444519;1295292445;232982429;9776677465;97449923;1384726393;1062;8924;1467216;8;8208;1178791
3;23;1570757710476;1570757718596;8120;28006242242;69639914747;1275597113;220198036;9776563320;97436120;1378977219;1412;5649;996184;-2;8120;1166313
3;24;1570757718596;1570757738469;19873;28216585172;69639365590;1290811755;239034284;9776422029;97443751;1384182459;3584;19549;2651776;-1;19873;3171931
3;25;1570757738469;1570757746715;8246;28044848438;69639220129;1291186797;221251509;9776398931;97448751;1379107276;1116;7608;1235624;4;8246;1178019
3;26;1570757746715;1570757755197;8482;28132459826;69638892653;1286778483;232713403;9776299986;97397203;1379496533;1664;8703;1392224;-10;8482;1334626
3;27;1570757755197;1570757763698;8501;28140461356;69639511488;1303377817;229733536;9776495765;97376836;1385472788;1268;9393;1548944;14;8501;1209962
3;28;1570757763698;1570757782448;18750;28107749910;69639069003;1277913978;229802748;9776457099;97402956;1377858655;2903;19013;2497424;11;18750;2686694
3;29;1570757782449;1570757791041;8592;28179898438;69638429948;1284946632;236296498;9776163200;97421018;1377881798;1608;8955;1426448;2;8593;1327650
3;30;1570757791041;1570757799488;8447;28070083808;69637664892;1278224270;227333600;9775915069;97429134;1380200183;1452;6271;1161112;-12;8447;1206783
3;31;1570757799488;1570757807703;8215;27997883742;69638646201;1279108405;219870943;9776323894;97392917;1382413704;1187;7335;1099008;-3;8215;1166730
3;32;1570757807703;1570757824550;16847;28182439276;69638670178;1284246866;234462492;9776291726;97446600;1382196812;2929;17692;2765712;9;16847;2528734
3;33;1570757824551;1570757832736;8185;28158292336;69638903488;1310277175;228932819;9776421018;97402413;1385831627;1620;7184;910912;-20;8186;1168602
3;34;1570757832736;1570757841112;8376;28057815282;69608934070;1288870846;221822004;9766706484;97424784;1380799681;1025;7635;1201304;-1;8376;1193379
3;35;1570757841112;1570757849486;8374;27987706520;69565155602;1280325030;215146033;9752658058;97341421;1382863083;1574;8627;1343096;26;8373;1324576
3;36;1570757849486;1570757858832;9346;28202762622;69564185203;1281866171;238866265;9752393874;97332159;1383477000;1609;5663;1522728;-4;9347;1334948
3;37;1570757858832;1570757876368;17536;28266758364;69499507126;1277871725;244711738;9734141089;97295983;1383194847;2450;15149;2587368;-5;17536;2411723
3;38;1570757876368;1570757884635;8267;28201277656;69483410579;1277340106;233651060;9729584237;97268568;1382522299;1631;8157;1406520;1;8267;1332261
3;39;1570757884635;1570757892768;8133;28017407446;69483016190;1285105244;212366484;9729392813;97279351;1382826614;1533;6792;1149456;3;8133;1161364
3;40;1570757892768;1570757901094;8326;28031064578;69483339870;1296918254;211001294;9729553764;97263057;1389705021;1111;7177;1149464;-22;8326;1190109
3;41;1570757901094;1570757918129;17035;28058489072;69483108276;1260387752;223292012;9729458038;97276821;1379071522;2732;19744;2769064;15;17035;2567158
3;42;1570757918129;1570757926478;8349;28071195306;69483251332;1286689247;218068949;9729502976;97290004;1387703274;1519;5404;1027648;-10;8349;1193361
3;43;1570757926478;1570757934552;8074;27839421474;69483400508;1252275821;203148552;9729549723;97242919;1377515204;1121;8047;1104192;9;8074;1155169
3;44;1570757934553;1570757942990;8437;27988373302;69483014203;1269780184;210141264;9729404494;97287423;1378837050;1076;9504;1460896;18;8438;1209823
3;45;1570757942990;1570757951256;8266;28174279336;69482894686;1272308081;230582003;9729393193;97277736;1381305514;1827;4075;1298960;-8;8266;1288594
3;46;1570757951256;1570757970050;18794;28127102794;69483124057;1270306539;228671712;9729499882;97270879;1383326789;2628;19837;2709272;1;18794;2682065
3;47;1570757970050;1570757978514;8464;28128566590;69482994623;1278054412;225198977;9729447395;97261802;1381904087;1435;9510;1474400;3;8464;1284944
3;48;1570757978514;1570757986949;8435;28056854748;69483142923;1290134606;215060678;9729536156;97267977;1386035010;1437;7108;1309440;-29;8435;1205362
3;49;1570757986949;1570757995256;8307;27960915374;69483004468;1274815508;207030650;9729454261;97242331;1381560220;1242;6816;1102064;7;8307;1187819
3;50;1570757995256;1570758012135;16879;28211317200;69483254089;1284422150;234441073;9729566279;97266720;1388075917;2967;14377;2510192;17;16869;2316449
3;51;1570758012135;1570758020378;8243;28063401242;69483023815;1265469755;225255655;9729434244;97274798;1379213322;1287;6434;1040672;-3;8243;1181345
3;52;1570758020378;1570758029391;9013;28061240880;69483062318;1263209036;224009432;9729531280;97263401;1379095124;1190;10497;1598688;-1;9013;1280914
3;53;1570758029391;1570758037828;8437;28037581142;69482726418;1258764044;222197755;9729342960;97246730;1379558606;1455;10180;1505976;5;8437;1253255
3;54;1570758037828;1570758056367;18539;28107203432;69483467063;1285308246;222578269;9729718051;97241515;1383734975;2938;17153;2834872;6;18539;2646497
3;55;1570758056368;1570758064744;8376;28011697532;69483026166;1259295265;219945204;9729498324;97279570;1380503910;1520;7402;911056;-10;8377;1360063
3;56;1570758064744;1570758072878;8134;28055924582;69482791525;1288278810;217655538;9729400167;97252935;1385617238;1290;6220;1232752;-8;8133;1163449
3;57;1570758072878;1570758081225;8347;27887558258;69482984511;1279620970;196520006;9729484273;97294372;1380455262;1343;6830;1047392;2;8348;1191202
3;58;1570758081225;1570758089827;8602;28119580728;69480072821;1299872222;218095467;9728473764;97267897;1387986405;1498;7276;1490480;113;8602;1364600
3;59;1570758089827;1570758103627;13800;27997903452;69465700793;1255047115;220342913;9723823441;97280608;1375482798;2582;13337;1828976;-102;13800;1988425
3;60;1570758103627;1570758112010;8383;28033604248;69465348670;1281127869;217133423;9723649516;97227930;1385151923;1019;7594;1297896;5;8383;1199799
3;61;1570758112010;1570758120139;8129;27980269426;69465533067;1261446997;218506122;9723735403;97249105;1376559954;1115;9257;1485624;-1;8129;1165480
3;62;1570758120139;1570758128440;8301;28100269016;69465381894;1289379170;221651204;9723643551;97264245;1384578381;1432;9083;1514968;-29;8301;1289885
3;63;1570758128440;1570758136625;8185;27885263430;69465453060;1274747044;201835411;9723697398;97270893;1380462114;1571;6157;1011048;29;8185;1165271
3;64;1570758136625;1570758154428;17803;28098394522;69465560168;1273765867;227013666;9723749790;97271543;1381648347;2984;19526;2593416;-18;17803;2649201
3;65;1570758154428;1570758162662;8234;27990830920;69465897526;1272954384;214387887;9723880040;97281793;1381275339;1348;8655;1429344;-4;8234;1176923
3;66;1570758162662;1570758171029;8367;27936020768;69465656427;1276725538;206020242;9723830442;97282122;1381834283;1265;5843;1063512;15;8367;1193759
4;18;1570758490044;1570758498485;8441;28107552226;70244829161;1292917539;219622006;9911401597;97097071;1374217294;1372;5978;1040064;8;8442;1200028
4;19;1570758498485;1570758506648;8163;28107127220;70243781400;1271008269;223730555;9911228096;97023307;1376197098;1154;7927;1188848;-2;8162;1162746
4;20;1570758506648;1570758522663;16015;28340475662;70242896944;1304448825;241316228;9911014403;97048566;1381721953;2795;17252;2675336;0;16015;2410133
4;21;1570758522663;1570758531016;8353;28122409770;70242733266;1269463475;226883685;9910919839;97024471;1374349507;1388;8188;985408;20;8354;1193667
4;22;1570758531016;1570758539204;8188;28106960196;70241610309;1297713194;216981298;9910578501;97022466;1379800051;1027;7559;1200752;-3;8188;1173772
4;23;1570758539205;1570758547836;8631;28232724742;70241754937;1272950077;237675856;9910715124;97016280;1376696029;1518;8126;1516160;-8;8632;1303033
4;24;1570758547836;1570758556139;8303;28229746050;70242312529;1293879422;229337051;9910902766;96992190;1380148052;1507;6495;1110856;0;8303;1202310
4;25;1570758556139;1570758575246;19107;28291444482;70241037984;1280135630;242681804;9910496908;97015642;1375883765;3147;14325;2515664;5;19106;2693822
4;26;1570758575246;1570758584209;8963;28318629974;70240967120;1273463467;244726894;9910479122;97015822;1375930412;1264;8774;1460400;-2;8964;1291513
4;27;1570758584209;1570758592635;8426;28220137936;70241473726;1299824318;229966312;9910621736;97009124;1382411615;1383;9212;1508544;-10;8426;1276325
4;28;1570758592636;1570758600973;8337;28233583660;70241024347;1268632233;236505344;9910568039;97016110;1373226905;1086;6560;1531832;6;8337;1191999
4;29;1570758600973;1570758620442;19469;28314413786;70239734310;1287391778;244330848;9910004077;96998134;1379718706;3126;20592;2694736;2;19469;2782386
4;30;1570758620442;1570758628740;8298;28201483224;70240278397;1280944855;233817909;9910263808;96964252;1375720026;1459;9513;1478624;8;8298;1307402
4;31;1570758628740;1570758637037;8297;28154289454;70240939163;1297774130;225154026;9910522731;96962813;1379779772;1393;4230;1075384;-17;8298;1195832
4;32;1570758637037;1570758645275;8238;28087505988;70241342611;1289136719;219724704;9910668272;96959486;1377487986;1191;7290;1087088;-7;8238;1169445
4;33;1570758645275;1570758661270;15995;28253189124;70240843174;1276595415;239398334;9910517929;96993301;1374915850;2715;15640;2621408;13;15976;2288201
4;34;1570758661270;1570758669781;8511;28438989746;70211623016;1295699953;252878542;9901101688;96970522;1381909940;1383;5689;1078464;-7;8511;1203716
4;35;1570758669781;1570758677928;8147;28031368112;70167587341;1272102750;215504423;9886914674;96922993;1371107607;1060;7913;1189640;-3;8146;1161432
4;36;1570758677928;1570758687177;9249;28167173224;70166030352;1290555896;226288743;9886460351;96981276;1380378264;1615;10486;1563328;20;9249;1408697
4;37;1570758687177;1570758695425;8248;28044197132;70100555874;1259665797;219068718;9867961216;96878757;1372435947;1381;7174;1328576;-5;8248;1179157
4;38;1570758695425;1570758715976;20551;28182309774;70085545980;1289987558;227832664;9863724457;96879649;1380096194;3096;21784;2881600;128;20551;2992462
4;39;1570758715976;1570758724318;8342;28087105948;70085171325;1270133977;220461153;9863600038;96869084;1375293891;1415;8715;1488848;-118;8343;1227646
4;40;1570758724319;1570758732472;8153;27988012828;70085206016;1274458326;209954039;9863639396;96852419;1376599655;1362;4936;988880;-18;8154;1171945
4;41;1570758732472;1570758740678;8206;27999457184;70085579698;1293829834;205928712;9863811332;96859030;1380538983;1179;7666;1173000;5;8205;1169580
4;42;1570758740678;1570758757480;16802;28172491420;70085566080;1246988177;234983946;9863801920;96875809;1371604088;2926;18947;2653248;-17;16802;2478563
4;43;1570758757480;1570758765641;8161;27965399910;70085467218;1294190707;199191937;9863701487;96840105;1380548872;1218;6483;1042768;30;8161;1173035
4;44;1570758765641;1570758773794;8153;28064598296;70085698496;1262759456;220967577;9863881181;96843028;1371050990;1027;5364;1315000;-25;8154;1172101
4;45;1570758773794;1570758782350;8556;28084930694;70084695392;1277561035;218980629;9863466895;96869759;1379874660;1412;5522;1382416;25;8556;1299246
4;46;1570758782350;1570758799806;17456;28213861250;70084895452;1268547774;237607651;9863545700;96865225;1375566485;2780;16327;2575512;-17;17456;2493173
4;47;1570758799806;1570758808101;8295;28241751484;70084866758;1268738634;239007425;9863558236;96856565;1375568324;1199;10568;1489688;2;8295;1192352
4;48;1570758808101;1570758816406;8305;28132292364;70085069113;1290882196;221207743;9863639048;96863302;1381386821;1406;9347;1496640;-10;8304;1286703
4;49;1570758816406;1570758824731;8325;27960752584;70085374270;1262230021;209219243;9863793459;96860434;1370728099;1548;6594;1122744;20;8326;1191840
4;50;1570758824731;1570758832910;8179;28048891032;70084862802;1283215387;213340649;9863536858;96858898;1380943467;1120;7716;1157080;0;8179;1165705
4;51;1570758832910;1570758849911;17001;28108136226;70083873099;1262694644;226797206;9863209220;96876860;1373022648;2878;19235;2633536;-5;17001;2520485
4;52;1570758849911;1570758858137;8226;28049296182;70067604426;1281104701;213373151;9857877024;96818106;1379861080;1210;6059;1090344;6;8226;1178470
4;53;1570758858137;1570758866341;8204;27941944134;70067725205;1274401669;205270648;9857941640;96834573;1373187439;1117;7063;1183528;-9;8203;1175390
4;54;1570758866341;1570758874480;8139;28063660246;70067438235;1275511046;216555175;9857798165;96834601;1376271216;1469;9437;1333392;-5;8140;1256585
4;55;1570758874480;1570758893588;19108;28065902076;70067629537;1249564415;221932658;9857870828;96843442;1369778699;3086;17873;2855472;138;19108;2793678
4;56;1570758893588;1570758901834;8246;28018461274;70067590585;1275434241;212240265;9857867436;96844822;1375378877;1477;7044;853408;-140;8245;1291244
4;57;1570758901834;1570758910057;8223;28010553184;70067575305;1255804415;213448673;9857870147;96830671;1372365322;1397;5670;1164048;11;8224;1181976
4;58;1570758910057;1570758918419;8362;27922396778;70067555554;1263753145;203782698;9857823606;96822973;1375239145;1342;7785;1180704;2;8362;1190647
4;59;1570758918419;1570758927010;8591;28096723260;70067569039;1269079441;220164774;9857901330;96830790;1377841156;1463;10160;1480248;-2;8590;1294216
4;60;1570758927010;1570758944734;17724;28085119180;70067373235;1268371117;220986213;9857809448;96849483;1375176393;2978;18412;2550736;-12;17725;2554271
4;61;1570758944735;1570758952979;8244;28057453202;70067411297;1280188112;215114720;9857832522;96830716;1380731717;1088;8847;1291384;0;8245;1181306
4;62;1570758952979;1570758961116;8137;28072416450;70067583438;1271956328;220219054;9857908471;96825439;1375615406;1472;8011;1431400;4;8136;1229114
4;63;1570758961116;1570758969248;8132;27993046908;70067584045;1291151168;204503897;9857914787;96842775;1382211499;1386;5978;1143512;-10;8132;1162081
4;64;1570758969248;1570758987228;17980;28061393450;70067762119;1257798023;220636910;9858010435;96845403;1373221595;2780;18294;2503456;163;17981;2622294
4;65;1570758987228;1570758995591;8363;28132130742;70067507092;1270337513;225865406;9857871749;96825660;1378263896;1504;8450;1386288;-139;8362;1250102
4;66;1570758995591;1570759003891;8300;27915669682;70067447978;1258117786;203586049;9857867175;96836507;1371843310;1401;6185;1027040;-22;8301;1195277
4;67;1570759003891;1570759012018;8127;27980119776;70067186741;1281870784;206492044;9857732396;96851965;1377370296;1140;7273;1169752;12;8127;1161836
