0;34;1570738891273;1570738899722;8449;27934944602;69692840198;1253442375;234996475;9740386411;97133414;1376485160;4035;36;681008;1;2738;9361
0;35;1570738899723;1570738908356;8633;27944182898;69648804291;1261584054;233049329;9726274682;97119671;1377278295;4123;8;694008;0;1835;4298
0;36;1570738908356;1570738918169;9813;27932303754;69648190272;1245635232;234833160;9726145942;97104834;1376522861;4619;435;815504;12;2898;50726
0;37;1570738918169;1570738926987;8818;27905131110;69582925076;1249818634;227734718;9707694976;97045850;1376834903;4218;44;712416;-5;3371;14356
0;38;1570738926987;1570738935484;8497;27879703458;69567092991;1249091473;226114896;9703242013;97013472;1378402966;4043;12;681240;-8;2176;5583
0;39;1570738935484;1570738944001;8517;27875578812;69566947262;1246575889;226385751;9703186454;96993094;1376794123;4065;12;681704;0;1333;4225
0;40;1570738944001;1570738952792;8791;27887036892;69566833591;1246215203;226048712;9703159538;97024784;1377005952;4185;356;735288;0;3435;45170
0;41;1570738952792;1570738961402;8610;27880982418;69566865604;1248772960;225738338;9703158157;97066090;1376498819;4115;28;692920;0;2656;8067
0;42;1570738961402;1570738970312;8910;27897676642;69566827509;1254480914;226355641;9703152886;97037890;1379731971;4261;2;716184;0;1709;3849
0;43;1570738970312;1570738978718;8406;27882846108;69567016825;1250003929;225731580;9703172045;97021518;1377371200;4035;417;705344;0;2527;53183
0;44;1570738978718;1570738987357;8639;27898060914;69567006943;1248085896;226724244;9703187762;97041306;1378774574;4133;1;694512;1;3328;11072
0;45;1570738987357;1570738995940;8583;27829116356;69549136291;1237451294;223355675;9697330055;97013493;1376721077;4112;9;689384;-1;2328;6411
0;46;1570738995940;1570739004422;8482;27879890776;69549257484;1257273093;224744885;9697383995;97000790;1377079768;4068;13;682072;0;1344;3933
0;47;1570739004423;1570739012615;8192;27836437234;69549056434;1243271201;222837511;9697283042;97014067;1375851633;3837;575;690160;0;3401;84811
0;48;1570739012615;1570739020837;8222;27886986230;69549290187;1261323034;223783629;9697382224;97054846;1380118094;3946;19;662520;0;2750;8595
0;49;1570739020838;1570739029023;8185;27850059472;69549070829;1245552743;224057771;9697291785;96980653;1376907195;3904;7;657048;0;1780;3815
0;50;1570739029023;1570739037693;8670;27828085742;69549162854;1235021250;224224534;9697336348;97014275;1376111061;4212;419;700968;26;2097;87339
0;51;1570739037693;1570739045778;8085;27843829068;69549431299;1242593081;223343089;9697448517;96977184;1378019412;3669;231;675024;-26;3438;20458
0;52;1570739045778;1570739053869;8091;27844598488;69548863475;1245954612;223111542;9697255921;97001330;1376816617;3866;24;650416;3;2500;7386
0;53;1570739053869;1570739062154;8285;27854597444;69549061027;1247070746;224593242;9697347778;96993320;1377692310;3952;9;665448;-3;1797;4390
0;54;1570739062154;1570739070472;8318;27828633388;69548932439;1238288845;223247909;9697290882;96997441;1376938527;3905;501;688896;0;2399;69426
0;55;1570739070473;1570739078754;8281;27841751342;69548877677;1241399953;223262886;9697258150;96980931;1376514228;3917;46;665784;4;2931;9641
0;56;1570739078754;1570739087159;8405;27847274376;69548983470;1246142555;223199535;9697313919;97035927;1377152260;3982;66;676688;-4;2573;7386
0;57;1570739087159;1570739095335;8176;27830599570;69548979795;1237103983;223352049;9697318651;97025716;1376509016;3906;18;656000;1;1503;3761
0;58;1570739095335;1570739103750;8415;27831338768;69548914159;1240286304;222940870;9697281094;96996108;1376002898;3882;633;701512;0;3165;97491
0;59;1570739103750;1570739112040;8290;27870002050;69549128882;1252759492;224097326;9697396865;97008204;1376000393;3988;16;668912;0;3281;12757
0;60;1570739112040;1570739120310;8270;27836876694;69548920960;1240411903;223365051;9697300343;96971417;1377196744;3945;4;663432;6;2178;5781
0;61;1570739120310;1570739129074;8764;27823480172;69548923708;1236193749;223229366;9697298654;96983109;1376779849;4190;6;701696;-7;1358;3950
0;62;1570739129074;1570739137361;8287;27837777222;69548995936;1243364431;223093762;9697326243;97003223;1376667549;3813;584;690176;1;3734;74117
0;63;1570739137362;1570739145660;8298;27850857216;69548890676;1249375130;223488523;9697275900;97031183;1376770109;3966;33;668728;-1;2769;8904
0;64;1570739145660;1570739154254;8594;27871523516;69549168764;1252077268;223849681;9697415736;97023274;1378082535;4110;4;691152;0;1834;4383
0;65;1570739154254;1570739162567;8313;27840132056;69549014499;1242821818;223484856;9697323009;97021662;1376886982;3875;535;692280;0;2548;72970
0;66;1570739162567;1570739170976;8409;27873933538;69548953471;1252102538;223506621;9697328176;97037767;1377139277;4033;2;677880;0;3094;10216
0;67;1570739170976;1570739179449;8473;27841633082;69548913903;1241807200;223442084;9697297627;96977348;1376706976;4073;5;682160;1;2540;7700
0;68;1570739179449;1570739188119;8670;27864702980;69548894314;1248386296;224172316;9697297569;96992027;1377626384;3052;1829;748832;-1;6124;111918
0;69;1570739188119;1570739196439;8320;27896916420;69548807227;1250650865;227989749;9697243248;97010979;1376117916;2888;1574;865392;6;5243;31967
0;70;1570739196439;1570739204832;8393;27877020270;69549181624;1251725244;224696269;9697423164;96998144;1377711806;4029;12;675288;-5;1398;4165
0;71;1570739204832;1570739213309;8477;27833221584;69548843902;1238438322;223699020;9697249444;97007270;1377407439;4036;427;698488;19;1864;70334
0;72;1570739213309;1570739221403;8094;27834359654;69548811847;1242438651;222211275;9697238333;97015296;1377254075;3748;220;658840;-20;3725;25005
0;73;1570739221403;1570739230295;8892;27845952346;69548639879;1246969114;223790881;9697160158;97006454;1377910412;4254;3;715176;2;2843;8386
0;74;1570739230295;1570739238402;8107;27854213026;69548970869;1245975507;223686034;9697322370;97023224;1377585164;3889;7;651424;-1;1707;4651
0;75;1570739238402;1570739246585;8183;27831607992;69549027165;1239531451;222882474;9697348272;96989900;1376764469;3787;569;683840;4;2530;64308
0;76;1570739246585;1570739254757;8172;27843479982;69548977280;1242104468;223426264;9697324715;96986005;1377258016;3910;37;659040;-5;3150;10405
0;77;1570739254757;1570739262967;8210;27862401582;69548889276;1251584004;223503851;9697286099;97034856;1376960566;3925;3;659904;0;2258;5973
0;78;1570739262967;1570739271366;8399;27871747918;69548957353;1255293042;224178139;9697320111;97010938;1378585048;4017;25;675976;0;1378;3795
0;79;1570739271366;1570739279438;8072;27856984690;69548902168;1246382513;223943892;9697287476;96984914;1377474476;3809;416;672944;2;2926;48455
0;80;1570739279439;1570739287617;8178;27840479244;69548894497;1244052044;223261796;9697286799;96984859;1377030173;3920;22;658864;-2;2817;8809
0;81;1570739287617;1570739296038;8421;27878539108;69548974182;1257910934;223747045;9697320189;97048274;1378207941;4030;22;677816;0;2104;5620
0;82;1570739296038;1570739304226;8188;27843982076;69548773871;1243980283;224067678;9697218907;97013138;1376777623;3913;0;657384;0;1223;2111
0;83;1570739304226;1570739312832;8606;27844593670;69548919356;1244074003;223059493;9697286647;97023933;1377080004;3993;499;715744;0;3874;45734
1;38;1570739736102;1570739744292;8190;27845174020;69205782366;1241370803;224355913;9655539624;97448570;1359953447;3922;0;658896;0;1374;2751
1;39;1570739744293;1570739752574;8281;27881446844;69204121428;1248878561;224843770;9654931717;97459137;1362177138;3883;421;695672;1;3027;36376
1;40;1570739752574;1570739760669;8095;27898152456;69204221688;1256890894;224223825;9654995591;97473813;1365836481;3886;22;652696;-1;3089;10781
1;41;1570739760669;1570739768765;8096;27878233238;69204370340;1248971756;223729198;9655065618;97492645;1360800096;3873;7;651704;0;2018;5278
1;42;1570739768765;1570739776864;8099;27873220620;69204251790;1248996567;224368436;9654984568;97481649;1358370631;3898;4;652256;0;1112;2840
1;43;1570739776865;1570739784956;8091;27873082650;69204386225;1250853236;225114570;9655013234;97446774;1361333200;3793;367;677704;6;3133;28246
1;44;1570739784956;1570739793135;8179;27845168034;69204536071;1242213036;223715850;9655080023;97456831;1360335251;3938;13;660376;-5;2698;9451
1;45;1570739793135;1570739801308;8173;27829537712;69203690117;1235640888;223170082;9654897913;97446147;1359886847;3917;0;658056;-1;1818;4276
1;46;1570739801308;1570739809399;8091;27856530776;69203564021;1248932367;224174020;9654833330;97449171;1361045315;3798;395;676880;1;1941;24439
1;47;1570739809399;1570739817466;8067;27840213816;69203491792;1240103220;223521295;9654795890;97422805;1359316304;3875;0;651000;-1;2845;8401
1;48;1570739817467;1570739825546;8079;27839339422;69203913476;1241889211;223753519;9655000209;97432865;1359635037;3869;17;648800;0;2428;9444
1;49;1570739825547;1570739833636;8089;27857976322;69203421617;1249452137;224105052;9654760926;97447108;1362190553;3867;8;651000;0;1835;5444
1;50;1570739833636;1570739841731;8095;27873989164;69203819311;1252284148;224703466;9654957471;97453844;1365069979;3763;434;679024;0;1910;24861
1;51;1570739841731;1570739850017;8286;27836387448;69203785426;1241734002;224029724;9654914406;97450456;1359239849;3977;0;668136;0;3255;10114
1;52;1570739850017;1570739858093;8076;27817268164;69203195241;1235194599;222430974;9654708283;97445276;1357756997;3887;12;651640;0;2427;8935
1;53;1570739858093;1570739866160;8067;27833959760;69203475090;1242324378;223389417;9654851533;97418408;1360937128;3837;27;648880;0;1445;3372
1;54;1570739866160;1570739874326;8166;27827976680;69203525696;1236419618;223500283;9654878947;97431295;1361559281;3809;450;686200;1;2624;46607
1;55;1570739874326;1570739882523;8197;27863679666;69203341640;1245539902;224277260;9654782835;97460932;1361929166;3930;4;660912;-1;2910;8778
1;56;1570739882523;1570739890614;8091;27837732984;69203412281;1236588030;223650916;9654817843;97455997;1360179279;3891;10;651816;0;2197;7200
1;57;1570739890614;1570739898811;8197;27838783308;69203334485;1235612056;223765861;9654795638;97467991;1362252660;3928;26;660944;0;1204;2474
1;58;1570739898812;1570739906884;8072;27831303290;69203412477;1233757034;223985874;9654803122;97434567;1360365730;3770;479;678120;0;3146;49519
1;59;1570739906884;1570739915052;8168;27818271622;69203355585;1229423053;223398975;9654819370;97456968;1360348361;3929;20;659224;0;2950;10913
1;60;1570739915052;1570739923143;8091;27857733086;69203414526;1243431612;224049297;9654853665;97455694;1361420551;3875;2;651336;0;1919;4859
1;61;1570739923143;1570739931221;8078;27833481172;69203393457;1233699639;223850795;9654842948;97453082;1360311201;3880;8;650400;0;1321;3327
1;62;1570739931221;1570739939320;8099;27862278650;69203300269;1245252039;223627926;9654793574;97441440;1360378056;3773;440;678408;0;3408;40036
1;63;1570739939320;1570739947414;8094;27830039514;69203325527;1233060509;223872318;9654811371;97457236;1361349825;3886;20;652816;0;2537;8732
1;64;1570739947414;1570739955486;8072;27830792582;69203209340;1232284540;223523492;9654743866;97456312;1360705999;3862;4;649488;0;1635;3701
1;65;1570739955486;1570739963571;8085;27838772650;69203277497;1239372471;223777195;9654776283;97424088;1360470755;3808;408;675248;0;1949;34964
1;66;1570739963571;1570739971629;8058;27818183730;69203504555;1229500374;223626604;9654903771;97419941;1360908808;3852;1;647304;2;2888;9991
1;67;1570739971629;1570739979723;8094;27864020138;69203565842;1243366647;224094213;9654930068;97464836;1360481584;3885;10;650968;4;2481;7465
1;68;1570739979723;1570739987916;8193;27843436036;69203287476;1238584403;223663682;9654791761;97461075;1360175076;3924;5;660072;-5;1562;3388
1;69;1570739987916;1570739995974;8058;27810715392;69203253599;1226952656;223568899;9654773625;97428015;1360510443;3793;414;675432;6;2241;39170
1;70;1570739995974;1570740004060;8086;27835233026;69203412412;1234032104;223537021;9654855005;97446926;1360645032;3887;0;653016;-7;2951;9061
1;71;1570740004060;1570740012146;8086;27851848702;69203426882;1239535304;224798983;9654861427;97439640;1361181484;2597;1945;721392;0;5867;64084
1;72;1570740012146;1570740020317;8171;27836873336;69203226813;1236382040;224131944;9654762905;97432401;1361738505;3909;3;657216;0;2220;6067
1;73;1570740020318;1570740028408;8090;27850266938;69203212800;1242079103;223929110;9654752133;97447673;1360828063;3872;2;648048;0;1205;2595
1;74;1570740028408;1570740036505;8097;27844068654;69203335922;1237463806;223944229;9654815819;97460717;1360440190;3876;0;651168;0;1070;1667
1;75;1570740036505;1570740044600;8095;27836120560;69203271499;1242388648;222383421;9654783851;97466296;1360775519;3741;485;668632;0;3098;44946
1;76;1570740044600;1570740052687;8087;27870906520;69203425610;1247948790;224580083;9654863913;97420462;1361382192;3895;10;651888;3;2838;10608
1;77;1570740052687;1570740060881;8194;27842681946;69203214567;1236579698;223564817;9654754209;97457831;1360275182;3912;17;659800;-3;1987;4847
1;78;1570740060881;1570740068960;8079;27828588274;69203369089;1232805310;224026323;9654833327;97449550;1360229867;3883;9;650464;0;1255;2846
1;79;1570740068960;1570740077135;8175;27839023478;69203395945;1234415089;223983267;9654854509;97429959;1360681251;3844;418;687672;0;3326;49474
1;80;1570740077136;1570740085216;8080;27864405432;69203483767;1249677473;224699371;9654892798;97440642;1363320218;3866;36;651936;0;2534;9264
1;81;1570740085216;1570740093307;8091;27851861550;69203305978;1240352683;223981173;9654802178;97442292;1361481606;3858;17;651000;0;1781;4230
1;82;1570740093307;1570740101562;8255;27873664168;69203100737;1245653002;224710809;9654707028;97452622;1360485450;3864;426;687928;0;2003;35725
1;83;1570740101562;1570740109635;8073;27853899564;69203220363;1241382941;224487387;9654753284;97425846;1360565222;3866;7;650664;4;2882;9515
1;84;1570740109636;1570740117698;8062;27823167148;69203314334;1229839053;224038866;9654801539;97426380;1360634527;3857;29;649904;-3;2368;6624
1;85;1570740117698;1570740125878;8180;27848030802;69203266925;1239089504;223498394;9654783579;97435874;1360769574;3900;19;658392;-1;1544;3344
1;86;1570740125879;1570740133971;8092;27855818004;69203218576;1240136522;223995819;9654756321;97444145;1360680435;3817;386;676424;0;2103;28929
1;87;1570740133972;1570740142172;8200;27857047178;69203489956;1241942603;223500599;9654872399;97469455;1361033712;3927;11;661448;0;3393;11926
2;37;1570740594445;1570740602888;8443;27922531974;69272975732;1264768558;228490475;9652973862;97592709;1381192950;4037;10;679760;-9;1913;4369
2;38;1570740602888;1570740611190;8302;27959089206;69244509665;1255148921;225572216;9643546663;97596416;1375768216;3980;329;682408;6;1787;34904
2;39;1570740611190;1570740619282;8092;27913832710;69242998630;1242573154;224521378;9643115178;97515203;1375821628;3836;54;658896;-6;2932;9471
2;40;1570740619282;1570740627694;8412;27961258036;69243024661;1258781404;225366407;9643133230;97548181;1380105229;4033;22;677176;4;2529;10009
2;41;1570740627694;1570740635991;8297;27928608932;69242982738;1244852719;225023629;9643099761;97538585;1377010099;3973;1;667632;-4;1593;3795
2;42;1570740635991;1570740644105;8114;27958634708;69242952656;1254280110;225310697;9643094718;97531832;1375804064;3842;402;678104;2;2026;42497
2;43;1570740644106;1570740652397;8291;27958268540;69234499601;1258638839;224969231;9643131356;97574783;1376931815;3974;5;668472;-2;3106;9907
2;44;1570740652398;1570740660730;8332;27935965580;69231815689;1252261005;224832247;9643172740;97561047;1376896343;4002;12;671104;0;2363;7656
2;45;1570740660730;1570740669227;8497;27915629094;69231184546;1242140650;224998219;9642991649;97529801;1376728546;4057;5;682416;0;1374;2690
2;46;1570740669228;1570740677341;8113;27941133834;69231289901;1255169312;224515544;9643051592;97532291;1376558757;3815;437;681768;4;2786;41701
2;47;1570740677342;1570740685474;8132;27942359796;69231283177;1254685107;224966772;9643047724;97537205;1376641458;3903;19;655648;-4;2847;8934
2;48;1570740685475;1570740693678;8203;27943294488;69231325917;1254907730;225291410;9643058706;97525930;1376440559;3913;13;659296;0;1970;4600
2;49;1570740693678;1570740701985;8307;27924733070;69231313456;1247571735;225009808;9643066669;97550577;1376911717;3990;6;668240;0;1143;2851
2;50;1570740701986;1570740710105;8119;27934887954;69231312867;1252754623;224355104;9643053847;97534205;1376136124;3768;441;680352;2;3421;40605
2;51;1570740710105;1570740718215;8110;27919612996;69231500746;1247068944;224872548;9643134376;97522308;1376276419;3886;21;653128;-2;2524;7322
2;52;1570740718215;1570740726335;8120;27931043628;69231167860;1250548200;224328129;9643038920;97536231;1376036064;3886;0;652848;1;1690;3619
2;53;1570740726335;1570740734607;8272;27942248836;69231125838;1254131704;225193508;9643013317;97537028;1376818640;3844;422;688280;-1;2161;29628
2;54;1570740734607;1570740742715;8108;27950511414;69231170733;1255804245;225054684;9643038459;97510539;1375672766;3889;2;653688;0;2895;9773
2;55;1570740742715;1570740750824;8109;27921706198;69231161322;1246276549;224308776;9643036196;97539725;1376836092;3879;27;652800;0;2378;8411
2;56;1570740750824;1570740758944;8120;27938939308;69231029824;1248510068;224672587;9642957646;97551373;1376267651;3881;0;652008;0;1537;3482
2;57;1570740758944;1570740767063;8119;27938673734;69231044614;1258093554;224042498;9642968844;97545370;1380711155;3771;411;677168;0;1983;24902
2;58;1570740767064;1570740775279;8215;27933458468;69230980877;1252722379;224233970;9642937815;97523857;1376417502;3893;48;662088;0;3307;11329
2;59;1570740775279;1570740783389;8110;27936485194;69231173633;1253447670;224740782;9643044850;97514141;1377716803;3870;38;652864;0;2531;8699
2;60;1570740783389;1570740791617;8228;27954098634;69231396864;1263560016;224818604;9643159839;97556742;1379387151;3936;2;661584;0;1351;2582
2;61;1570740791618;1570740799944;8326;27980614570;69231059890;1270108863;225770262;9642988371;97516270;1383507228;3859;430;694160;10;2793;34852
2;62;1570740799944;1570740808173;8229;28010186140;69231192716;1284429127;225503031;9643053038;97541177;1388041835;3951;25;664720;-9;3050;10528
2;63;1570740808173;1570740816293;8120;27988470976;69230943973;1274723952;224964448;9642931602;97523279;1384097467;3847;35;651800;-1;2050;5206
2;64;1570740816293;1570740824419;8126;27936347224;69231012706;1268160463;225455386;9642961070;97566947;1381086163;3892;17;653624;1;1133;2968
2;65;1570740824419;1570740832742;8323;27945713708;69231169215;1281336458;224817852;9643023410;97571182;1381828890;3920;421;696192;-1;3226;46357
2;66;1570740832742;1570740840850;8108;27919023448;69231116236;1260750369;224890429;9643017468;97553058;1380208837;3895;18;653344;0;2539;8583
2;67;1570740840850;1570740849154;8304;27936572064;69230956330;1269113495;225014094;9642938399;97525902;1382566059;3968;6;667496;0;1846;4526
2;68;1570740849154;1570740857361;8207;27929616624;69231321252;1261404494;225636343;9643124776;97547584;1377706167;3936;504;658520;59;2203;84597
2;69;1570740857362;1570740865578;8216;27964030722;69231220410;1268238486;226579486;9643075798;97543104;1378151423;2529;1882;736976;-59;5978;80772
2;70;1570740865578;1570740873812;8234;27989697668;69231447599;1272858085;225832965;9643179646;97538891;1382801251;3966;4;663712;0;2460;7769
2;71;1570740873812;1570740882129;8317;27974538488;69230850574;1263740449;225573169;9642890793;97521976;1382281088;3968;8;667968;0;1577;3639
2;72;1570740882129;1570740890563;8434;27994291704;69231145058;1277598697;225951373;9643039416;97559355;1386948531;4048;12;678336;0;1241;3435
2;73;1570740890563;1570740898877;8314;27960523510;69231364934;1265552672;225145433;9643151834;97506366;1381467162;3940;451;695256;0;3235;61246
2;74;1570740898877;1570740907013;8136;27949809300;69230788291;1267283150;223130913;9642858967;97571337;1378174382;3846;58;639792;0;2787;10419
2;75;1570740907013;1570740915129;8116;27943324126;69230840175;1260026061;224407113;9642880186;97551826;1378502945;3886;7;652336;12;1833;4441
2;76;1570740915129;1570740923209;8080;27893509072;69230991113;1262566982;224296428;9642955255;97520423;1382167348;3956;236;640904;83;1585;48402
2;77;1570740923209;1570740931313;8104;27923227518;69230972866;1263455023;224152873;9642962279;97511447;1380637774;3730;283;688696;-95;3584;26712
2;78;1570740931313;1570740939475;8162;28015195108;69231017869;1282045609;225975462;9642972646;97559620;1387319518;3900;7;656376;0;2405;6578
2;79;1570740939475;1570740947708;8233;27989231052;69230920129;1266079224;225814392;9642921597;97532251;1381713154;3965;4;663208;0;1801;5387
2;80;1570740947708;1570740955844;8136;27961383742;69231038940;1264514634;225561150;9642983816;97557948;1382483768;3808;490;682560;0;2186;57229
2;81;1570740955844;1570740964147;8303;27945033786;69231005455;1249586782;224913013;9642964392;97508633;1382234535;3974;29;669096;0;3052;10590
2;82;1570740964147;1570740972278;8131;27968151572;69230969736;1258020959;225592904;9642961026;97533740;1382073539;3890;2;653856;0;2218;6071
2;83;1570740972278;1570740980385;8107;27935796950;69231067820;1255791054;224834917;9642995266;97533962;1382268349;3892;1;651256;3;1440;3563
2;84;1570740980385;1570740988505;8120;27930799662;69231098916;1263900930;225061602;9643011071;97564223;1381251928;3834;453;683704;-3;2407;54702
2;85;1570740988506;1570740996606;8100;27912574044;69230929117;1259905516;225075749;9642932178;97532205;1384030014;3878;30;652320;0;3128;10401
2;86;1570740996606;1570741004711;8105;27932690070;69231098913;1262218076;225765030;9643003672;97520228;1382045782;3868;5;650664;4;2233;5771
3;37;1570741422326;1570741430593;8267;28061778306;69819630213;1260814724;228618270;9781620657;97305908;1376727494;3910;48;660896;0;2383;7173
3;38;1570741430594;1570741438882;8288;28089512320;69788053980;1258656640;226231097;9771899791;97283988;1377708772;3945;8;661320;5;1399;3274
3;39;1570741438882;1570741447233;8351;28053233510;69786573858;1257846473;223948304;9771485796;97269574;1374368159;3843;408;691984;-3;2837;26128
3;40;1570741447233;1570741455375;8142;28039377818;69786539386;1263029756;225266694;9771475736;97271637;1376042321;3883;20;652016;2;2989;10647
3;41;1570741455375;1570741463533;8158;28050779396;69786582950;1264653529;225512706;9771483535;97286803;1377166916;3883;3;652848;-4;2032;5292
3;42;1570741463533;1570741471787;8254;28056302868;69786695235;1266458273;225233161;9771550595;97277263;1376244296;3950;1;660328;0;1195;2702
3;43;1570741471787;1570741479956;8169;28077763700;69786650126;1266522233;225241127;9771486814;97237597;1376011544;3830;372;681136;0;3455;35342
3;44;1570741479956;1570741488126;8170;28071290498;69786451345;1268759916;225564915;9771434657;97282072;1376481371;3898;13;653656;0;2445;7877
3;45;1570741488126;1570741496282;8156;28050525502;69786362433;1265662620;225188942;9771457515;97277347;1377086105;3871;0;650328;7;1663;3660
3;46;1570741496282;1570741504410;8128;28019456994;69786320586;1254110841;225082791;9771444538;97256828;1375715320;3793;369;674032;-7;1939;24874
3;47;1570741504410;1570741512545;8135;28032917026;69786253970;1259463063;224899774;9771417433;97235466;1376165988;3873;5;651504;0;3053;9925
3;48;1570741512545;1570741520784;8239;28046928646;69786380992;1259280251;224750181;9771467379;97251283;1377157052;3927;17;658384;3;2338;8956
3;49;1570741520784;1570741528936;8152;28052773756;69786198756;1263842022;224931984;9771383055;97278470;1376956743;3871;1;650496;-3;1572;3686
3;50;1570741528936;1570741537078;8142;28064537414;69786363833;1255385181;224888154;9771458806;97246707;1377509755;3893;338;679024;0;1868;33117
3;51;1570741537078;1570741545308;8230;28014390648;69786581477;1250803772;225017471;9771546316;97243770;1375999170;3918;2;658560;0;3075;9918
3;52;1570741545308;1570741553483;8175;28075093506;69786168804;1272828326;225031948;9771408395;97293725;1377550296;3892;23;654168;0;2360;8232
3;53;1570741553483;1570741561717;8234;28036222612;69786502373;1259458218;225017391;9771519008;97264370;1376636951;3931;6;657976;0;1389;3796
3;54;1570741561717;1570741569858;8141;28041339328;69786324414;1259529953;224837073;9771493106;97259796;1376777181;3747;423;676488;1;2882;36018
3;55;1570741569858;1570741578003;8145;28068582636;69786158800;1262919979;225002794;9771407137;97238415;1376195949;3875;28;652176;-1;3087;11102
3;56;1570741578004;1570741586144;8140;28058658140;69786076429;1261044384;225393910;9771358914;97241912;1376310184;3863;7;650160;0;2140;5755
3;57;1570741586144;1570741594404;8260;28096307452;69786187611;1271471896;225856942;9771416891;97240940;1376880079;3945;7;660992;0;1071;1920
3;58;1570741594405;1570741602561;8156;28072280232;69786233870;1268243674;225507764;9771435991;97277092;1377034234;3825;409;681224;0;3192;46185
3;59;1570741602561;1570741610705;8144;28056048098;69786305719;1261269400;224963715;9771480927;97259503;1374573813;3880;16;651136;0;2618;8729
3;60;1570741610705;1570741618866;8161;28089841404;69786293816;1266049429;224556940;9771473560;97285214;1377620817;3876;2;651504;0;1852;4746
3;61;1570741618866;1570741627091;8225;28033911432;69786213804;1255603959;223743929;9771438166;97250577;1374927391;3795;429;683600;0;2284;32978
3;62;1570741627091;1570741635223;8132;28069074802;69786070481;1258994729;224843685;9771365818;97236371;1377395893;3867;7;650832;0;2956;9821
3;63;1570741635224;1570741643422;8198;28122109010;69786265383;1274895774;224587512;9771467787;97295647;1378033305;3906;25;657016;0;2460;6760
3;64;1570741643422;1570741651572;8150;28069591788;69786226832;1264310963;224320444;9771440745;97262442;1376292790;3870;0;650160;0;1597;3544
3;65;1570741651572;1570741659810;8238;28072619682;69786396832;1264433378;225304060;9771526399;97230346;1377550438;3885;307;680336;0;1757;20584
3;66;1570741659810;1570741667950;8140;28036457964;69786076872;1260062534;224078294;9771368072;97255243;1374669353;3856;5;648512;0;3338;11833
3;67;1570741667950;1570741676189;8239;28039183638;69786113355;1264290792;224562588;9771388678;97259387;1376636031;3941;7;659216;0;2424;7997
3;68;1570741676189;1570741684443;8254;28063543446;69786277063;1266515162;224926444;9771475870;97258242;1376732519;3940;5;659816;0;1431;3988
3;69;1570741684443;1570741692685;8242;28040471796;69786118016;1257117872;224968427;9771391906;97261753;1377022658;2798;1805;726872;4;4910;44207
3;70;1570741692685;1570741700912;8227;28035223680;69786099108;1256711056;224587342;9771380970;97251374;1377240971;3640;393;665056;-4;3526;13662
3;71;1570741700913;1570741709161;8248;28036954802;69786297810;1259555047;224158111;9771477186;97258895;1373475473;3899;19;658224;0;2175;5952
3;72;1570741709161;1570741717313;8152;28058835092;69786177875;1261319160;224960693;9771421961;97250433;1377067443;3884;9;651240;0;1234;3246
3;73;1570741717313;1570741725443;8130;28043283172;69786148067;1259036830;224932732;9771404338;97256736;1376125101;3738;407;674024;0;1805;27223
3;74;1570741725443;1570741733804;8361;28044552058;69786112367;1258704339;224228850;9771393291;97255088;1376160685;3975;77;664224;1;3440;18777
3;75;1570741733804;1570741741951;8147;28042827652;69786197805;1265766181;224351889;9771431353;97269798;1376172993;3875;2;651336;-1;2291;6130
3;76;1570741741951;1570741750171;8220;28036009890;69786179580;1254069395;224943444;9771414316;97238640;1377902461;3913;5;655440;0;1410;3167
3;77;1570741750171;1570741758321;8150;28075575598;69786020659;1271635025;225031526;9771336991;97264802;1377765959;3797;380;676536;0;2417;32885
3;78;1570741758321;1570741766463;8142;28048353168;69786169291;1260564934;224518646;9771409068;97298835;1376624537;3887;14;651976;0;2978;10137
3;79;1570741766463;1570741774599;8136;28047240064;69786271840;1262896415;224548464;9771459076;97276158;1377325608;3863;0;648984;7;2289;6718
3;80;1570741774600;1570741782843;8243;28054846664;69786133906;1260175525;224542365;9771391246;97262563;1378020269;3941;7;659664;-7;1223;2679
3;81;1570741782844;1570741790989;8145;28056378058;69786130347;1267646522;224653752;9771396143;97259211;1376614651;3854;289;675152;1;2781;17912
3;82;1570741790989;1570741799225;8236;28082491034;69786011515;1255705761;224371785;9771340057;97208804;1377123771;3908;35;658896;-1;2764;8212
3;83;1570741799225;1570741807578;8353;28076384000;69786172201;1259248625;225257602;9771415839;97270249;1377938688;3981;8;667368;1;1962;5544
3;84;1570741807578;1570741815869;8291;28068607018;69786047004;1257735091;224669795;9771355782;97250141;1376383896;3940;288;683904;0;1650;28543
3;85;1570741815869;1570741824104;8235;28042069036;69785933525;1260512507;224218828;9771305143;97259105;1376364580;3917;39;661056;-1;2952;9634
3;86;1570741824105;1570741832273;8168;28069843200;69785963010;1265055621;224968524;9771307495;97294763;1377068447;3887;0;653016;0;2314;6276
4;35;1570742240921;1570742249362;8441;28040346966;69879576615;1259661404;232759910;9799964112;97198265;1381386058;4037;0;678216;-12;3410;12005
4;36;1570742249362;1570742258895;9533;28081428300;69878974934;1264150813;236197841;9799834337;97248723;1381485920;4550;23;763936;0;2657;9222
4;37;1570742258895;1570742267322;8427;28024201556;69813121804;1258457143;228423862;9781210036;97177335;1382385833;4025;4;674248;0;1316;3330
4;38;1570742267322;1570742275788;8466;28024484796;69781469249;1267598143;225741606;9771470471;97113256;1382769118;3889;493;703928;2;3725;54210
4;39;1570742275788;1570742283944;8156;27998617976;69779841243;1263183192;224145072;9770948302;97141289;1380086552;3904;16;654840;-2;2653;9431
4;40;1570742283944;1570742292161;8217;27990737772;69779829005;1257138597;225409455;9770955127;97116394;1380990458;3886;29;657448;1;1954;5076
4;41;1570742292162;1570742300490;8328;27972519308;69779953649;1251648775;224839171;9771010206;97111646;1379870528;3930;433;693584;-1;1960;44356
4;42;1570742300490;1570742309019;8529;27998716964;69779867964;1263032571;224785382;9770979336;97121890;1377616840;4061;7;683424;5;3193;10462
4;43;1570742309019;1570742317159;8140;27987779666;69780118420;1254961749;224739663;9771055538;97103393;1381514426;3886;17;651520;-4;2479;10293
4;44;1570742317159;1570742325603;8444;27965340050;69779930634;1251775555;223570044;9770999281;97119463;1378264484;4016;0;674688;-1;1618;3755
4;45;1570742325603;1570742334259;8656;27999246360;69779799169;1263433599;224561173;9771008937;97134432;1380829977;4039;457;723936;0;2490;47291
4;46;1570742334260;1570742342496;8236;27980656472;69779670470;1256474406;224209712;9770947582;97145267;1382019581;3940;14;660872;0;3129;10430
4;47;1570742342496;1570742350816;8320;27981644600;69779625706;1254698512;224862138;9770923548;97092605;1381794126;3957;4;665448;0;2219;6050
4;48;1570742350816;1570742359137;8321;27978780664;69779653748;1255416429;225006845;9770935975;97102851;1381539854;3971;15;666048;0;1248;3953
4;49;1570742359137;1570742367366;8229;28011048416;69779578840;1264984111;225205614;9770902707;97090203;1380503614;3836;382;683304;0;3190;28596
4;50;1570742367366;1570742375889;8523;27996424326;69779838078;1258850437;224927675;9771031663;97109512;1380042705;4044;37;682216;0;2652;7659
4;51;1570742375889;1570742384224;8335;27972728526;69779872866;1253279791;224711671;9771024251;97138610;1380579184;3943;0;662288;1;1813;4159
4;52;1570742384224;1570742392663;8439;27989678250;69779468141;1256945463;225026199;9770901153;97120440;1381867191;3990;317;698888;-1;2029;18313
4;53;1570742392663;1570742400903;8240;28006853982;69779351109;1264402980;225213400;9770839450;97121747;1381412373;3931;7;661584;0;3065;10897
4;54;1570742400903;1570742409142;8239;27987411454;69779631182;1256586211;224164023;9770974406;97143749;1381046318;3922;27;659224;0;2628;10273
4;55;1570742409142;1570742417579;8437;28004547328;69779371007;1263981942;225409807;9770842487;97118960;1382125554;4017;0;674856;1;1506;3123
4;56;1570742417579;1570742426033;8454;27982385258;69779523429;1258992262;224567410;9770916433;97120645;1380787538;3938;416;702368;7;2219;32971
4;57;1570742426033;1570742434359;8326;27982734344;69779636661;1261276939;224352477;9770982081;97119509;1380713353;3978;0;668304;-7;3082;9215
4;58;1570742434359;1570742442889;8530;27991148616;69779521935;1258911873;225153645;9770910597;97107121;1380995951;4086;7;684072;-1;2504;8205
4;59;1570742442889;1570742451019;8130;28001343942;69779285193;1264842135;224863896;9770819224;97120180;1380739663;3884;6;650736;0;1244;3087
4;60;1570742451019;1570742459359;8340;27983339076;69779386494;1257872057;223568488;9770875608;97122460;1381297764;3848;434;693256;0;3302;36738
4;61;1570742459359;1570742467914;8555;28010068464;69779359844;1267309463;224427088;9770854547;97127749;1382341178;4095;20;687112;1;2856;10926
4;62;1570742467914;1570742476031;8117;27991580338;69779340773;1258514370;224585248;9770847478;97081837;1381644689;3861;4;649320;1;1792;4137
4;63;1570742476031;1570742484603;8572;27976047690;69779583898;1255652143;224002733;9770966384;97091193;1381746479;4093;332;711480;-2;1837;31803
4;64;1570742484603;1570742492826;8223;27995543800;69779367080;1262492113;224403013;9770858505;97091598;1381050635;3917;13;659968;0;2885;9196
4;65;1570742492826;1570742501147;8321;27989558384;69779424898;1256537228;224348824;9770893895;97112018;1381430492;3982;6;666432;1;2536;8713
4;66;1570742501147;1570742509387;8240;28016634814;69779392115;1269079804;224818760;9770876978;97130045;1381954937;3928;0;659904;-1;1589;3650
4;67;1570742509388;1570742517918;8530;28007217668;69779294642;1263507638;225419419;9770821464;97121356;1381886222;3169;1572;747888;3;4457;72645
4;68;1570742517918;1570742526343;8425;27981502104;69779402778;1253428751;224582020;9770883782;97098805;1381828013;3605;520;681600;-3;3874;18614
4;69;1570742526343;1570742534675;8332;28016205574;69779488626;1267749267;225138018;9770923158;97095104;1381322025;3978;8;666256;12;2436;7201
4;70;1570742534675;1570742543392;8717;27970486550;69779434461;1248942538;224383874;9770884538;97111400;1381815757;4169;7;698624;-12;1340;2995
4;71;1570742543392;1570742551714;8322;27990715434;69779494893;1258983446;224456519;9770926127;97091055;1381686375;3862;444;696808;2;3359;40442
4;72;1570742551714;1570742559923;8209;27960841644;69779364959;1253636048;222887049;9770861326;97084744;1380305928;3869;50;641904;-2;2793;14485
4;73;1570742559923;1570742568130;8207;27970754022;69779250038;1251966981;224161365;9770801049;97082533;1380342910;3906;1;656376;0;1795;4239
4;74;1570742568130;1570742576533;8403;27982916990;69779388215;1257504459;223968370;9770877415;97121944;1381745162;3964;368;695880;0;1958;32823
4;75;1570742576533;1570742584860;8327;28008284636;69779463590;1266435397;224510046;9770917347;97081728;1382248476;3960;19;668472;0;3126;10168
4;76;1570742584860;1570742593185;8325;27977543606;69779392340;1255193557;223730284;9770872324;97125212;1381406079;3981;11;667120;0;2521;8116
4;77;1570742593186;1570742601514;8328;27985947950;69779529982;1255961529;223775434;9770945535;97116285;1381639200;3961;0;665448;0;1637;3793
4;78;1570742601514;1570742609765;8251;27996873130;69779394660;1262930192;224265026;9770878024;97133982;1382564332;3819;446;688472;0;2122;35445
4;79;1570742609765;1570742617914;8149;28017070186;69779288431;1269806747;224473583;9770820309;97128963;1382068825;3883;1;652512;8;3195;10959
4;80;1570742617914;1570742626024;8110;27967308714;69779545190;1249571060;224248186;9770949108;97119770;1381658370;3859;39;650384;-8;2394;8011
4;81;1570742626024;1570742634431;8407;27962832500;69779334339;1247726504;223767190;9770836209;97095901;1381637056;4008;8;672064;1;1424;3236
4;82;1570742634431;1570742642948;8517;27982801942;69779502449;1256710615;224427081;9770932780;97103386;1381804910;3973;385;708472;-1;2852;34103
4;83;1570742642948;1570742651174;8226;27975530558;69779424843;1256210982;223914433;9770881733;97126765;1382126952;3916;38;660424;0;2819;11414
4;84;1570742651174;1570742659481;8307;27965596134;69779558619;1250221136;224256079;9770955955;97100313;1381303600;3953;4;664640;0;1947;5038
