0;81;1570861145758;1570861150862;5104;17832041712;64068026368;1348602914;866199788;13367710212;25679802;670778318;0;0;0;0;0;0
0;82;1570861150862;1570861155975;5113;17870216770;64068023033;1348959345;870136964;13367709547;25717414;670811139;0;0;0;0;0;0
0;83;1570861155975;1570861161085;5110;17859206764;64068022921;1348219206;865355383;13367709435;25692328;670788006;0;0;0;0;0;0
0;84;1570861161085;1570861166208;5123;17902739876;64068023024;1349857577;869343845;13367709538;25705212;670767704;31;12;4736;0;83;243
0;85;1570861166208;1570861171329;5121;17895416078;64068022950;1348439863;874465987;13367709464;25711550;670753725;0;0;0;0;0;0
0;86;1570861171329;1570861176466;5137;17946030628;64068023019;1356724610;875886194;13367709533;25728391;670743191;0;0;0;0;0;0
0;87;1570861176466;1570861181627;5161;18035914068;64068023010;1365470192;876060695;13367709524;25698958;670776118;0;0;0;0;0;0
0;88;1570861181627;1570861186755;5128;17916561258;64068026812;1364818372;868762554;13367710070;25680996;670747060;0;0;0;0;0;0
0;89;1570861186755;1570861191881;5126;17913874858;64068023014;1364723038;870892786;13367709528;25704023;670770450;21;12;4560;0;75;170
0;90;1570861191881;1570861197007;5126;17911077936;64068022953;1364687856;869642265;13367709467;25708625;670796123;4;0;48;0;1;3
0;91;1570861197007;1570861202130;5123;17906293808;64068023030;1363497403;878286475;13367709544;25690707;670745080;0;0;0;0;0;0
0;92;1570861202130;1570861207271;5141;17966014232;64068022950;1364832382;878099977;13367709464;25698073;670762419;0;0;0;0;0;0
0;93;1570861207271;1570861212396;5125;17905469492;64068023050;1363741210;879033681;13367709564;25674598;670751053;0;0;0;0;0;0
0;94;1570861212396;1570861217545;5149;17995744066;64068022939;1366456716;872274560;13367709453;25710347;670770125;0;0;0;0;0;0
0;95;1570861217545;1570861222681;5136;17940182890;64068026698;1365616535;870728790;13367710542;25689298;670719735;23;12;4624;0;84;199
0;96;1570861222681;1570861227814;5133;17938334530;64068023069;1364849876;872567312;13367709583;25711908;670789426;4;0;48;0;1;3
0;97;1570861227814;1570861232942;5128;17921091492;64068023064;1364726828;869764356;13367709578;25697569;670792471;0;0;0;0;0;0
0;98;1570861232942;1570861238067;5125;17912343902;64068023059;1365177653;871871706;13367709573;25703984;670771766;0;0;0;0;0;0
0;99;1570861238067;1570861243190;5123;17903133930;64068023058;1363677682;877895639;13367709572;25691700;670749097;0;0;0;0;0;0
0;100;1570861243190;1570861248307;5117;17882571290;64068022970;1363371037;880288054;13367709484;25709235;670776646;0;0;0;0;0;0
0;101;1570861248307;1570861253435;5128;17918625844;64068022917;1365489015;867092314;13367709431;25694189;670797470;33;10;4560;0;102;363
0;102;1570861253435;1570861258571;5136;17930464838;64068026660;1365605573;866110556;13367709918;25671354;670799744;4;0;48;0;1;3
0;103;1570861258571;1570861263721;5150;17994553582;64068023562;1366609897;869429210;13367710076;25684383;670829664;0;0;0;0;0;0
0;104;1570861263721;1570861268873;5152;18002701696;64068023565;1366380967;865787927;13367710079;25718426;670820987;0;0;0;0;0;0
0;105;1570861268873;1570861274001;5128;17912836360;64068023539;1365655432;871929425;13367710053;25699972;670798398;0;0;0;0;0;0
0;106;1570861274001;1570861279188;5187;18118710522;64068023632;1364600289;880060840;13367710146;25696632;670825476;453;23;47664;0;1443;1808
0;107;1570861279188;1570861284280;5092;17784462502;64068022839;1344917590;879577559;13367709939;25687769;670768805;0;0;0;0;0;0
0;108;1570861284281;1570861289400;5119;17882777296;64068023538;1362948938;884072978;13367710052;25708806;670755398;4;0;48;0;1;4
0;109;1570861289400;1570861299607;10207;18268376436;64068034752;1365699818;896867885;13367712767;25696264;670892360;0;0;0;0;0;0
0;110;1570861299607;1570861304768;5161;17925424042;64068022236;1364898708;868673515;13367709336;25704631;670814620;96;137;2032;0;90;2827
0;111;1570861304768;1570861309898;5130;17927787344;64068023068;1363763718;873847716;13367709582;25709049;670819193;33;22;5904;0;122;402
0;112;1570861309899;1570861315037;5138;17953174992;64068023079;1365112058;870729674;13367709593;25713576;670768873;0;0;0;0;0;0
0;113;1570861315037;1570861320190;5153;18006493900;64068022956;1366297993;869614962;13367709470;25686515;670771352;0;0;0;0;0;0
0;114;1570861320190;1570861325325;5135;17945333478;64068022923;1364634394;876133944;13367709437;25707361;670778743;0;0;0;0;0;0
0;115;1570861325325;1570861330449;5124;17905727912;64068022908;1363586452;878157214;13367709422;25706440;670794921;0;0;0;0;0;0
0;116;1570861330449;1570861335590;5141;17965043040;64068022930;1363923475;878596699;13367709444;25689677;670790629;42;113;1256;0;18;344
0;117;1570861335590;1570861340713;5123;17900361098;64068027295;1364694280;869496677;13367710553;25695694;670756388;25;14;4688;0;91;216
0;118;1570861340713;1570861345828;5115;17877473116;64068023527;1364767855;870434121;13367710041;25705886;670769717;0;0;0;0;0;0
0;119;1570861345829;1570861350951;5122;17897500812;64068022534;1363510333;872580033;13367709048;25718567;670784835;0;0;0;0;0;0
0;120;1570861350951;1570861356077;5126;17914168756;64068023429;1363794437;876595593;13367709943;25709525;670756354;0;0;0;0;0;0
0;121;1570861356077;1570861361205;5128;17920479314;64068022558;1363884999;879655274;13367709072;25721459;670810233;0;0;0;0;0;0
0;122;1570861361205;1570861366301;5096;17809102630;64068022411;1363110685;870462078;13367708925;25708825;670803362;40;113;1248;0;21;345
0;123;1570861366301;1570861371395;5094;17795745820;64068022406;1362339379;875854803;13367708920;25682870;670824275;40;16;5040;0;100;415
0;124;1570861371395;1570861376503;5108;17838901376;64068026831;1364509857;867386454;13367710675;25696960;670786153;0;0;0;0;0;0
0;125;1570861376503;1570861381651;5148;17989439640;64068022571;1366350449;868722262;13367709085;25701379;670848506;0;0;0;0;0;0
0;126;1570861381652;1570861386791;5139;17956793310;64068023956;1365428445;870640743;13367709299;25694082;670864136;0;0;0;0;0;0
0;127;1570861386791;1570861391921;5130;17926689862;64068037706;1364126124;877838906;13367712384;25714723;670815289;0;0;0;0;0;0
0;128;1570861391922;1570861397058;5136;17948724474;64068022454;1365142136;874039294;13367708968;25691129;670844207;25;129;1248;0;14;292
0;129;1570861397058;1570861402211;5153;18002717756;64068022465;1366455595;870251204;13367708979;25699647;670838775;31;10;4816;0;93;303
0;130;1570861402211;1570861407318;5107;17843047338;64068022419;1362548601;883857920;13367708933;25693916;670825075;0;0;0;0;0;0
1;77;1570862001935;1570862007043;5108;17846646530;64063183373;1357315658;870542158;13367709887;23755595;670772216;0;0;0;0;0;0
1;78;1570862007043;1570862012173;5130;17924152674;64063182854;1358458072;869966850;13367709954;23748174;670762096;0;0;0;0;0;0
1;79;1570862012174;1570862021199;9025;18154357882;64063193617;1358718721;884525240;13367711585;23758962;670868689;0;0;0;0;0;0
1;80;1570862021199;1570862026342;5143;17899991426;64063183376;1358333646;869326119;13367709890;23748519;670707744;29;10;4424;0;85;222
1;81;1570862026342;1570862031457;5115;17869552032;64063187525;1358671024;865691869;13367710783;23755304;670674640;0;0;0;0;0;0
1;82;1570862031457;1570862036582;5125;17907568096;64063183534;1357779079;870702374;13367710048;23754700;670691958;0;0;0;0;0;0
1;83;1570862036582;1570862041694;5112;17866041316;64063183523;1358285153;867965371;13367710037;23753612;670702198;0;0;0;0;0;0
1;84;1570862041694;1570862046818;5124;17905150336;64063183536;1358859972;867153202;13367710050;23756389;670698852;0;0;0;0;0;0
1;85;1570862046818;1570862051941;5123;17904584732;64063183540;1358314172;871185825;13367710054;23745793;670706661;0;0;0;0;0;0
1;86;1570862051941;1570862057085;5144;17977269664;64063183556;1359484585;867808771;13367710070;23754231;670670142;51;10;4864;0;112;547
1;87;1570862057085;1570862062230;5145;17978194866;64063183554;1359778405;869252233;13367710068;23749562;670715689;0;0;0;0;0;0
1;88;1570862062230;1570862067360;5130;17923999520;64063186772;1359039984;862798238;13367710030;23741364;670677746;0;0;0;0;0;0
1;89;1570862067361;1570862072450;5089;17786712654;64063183024;1356476750;871383061;13367709538;23750298;670708116;0;0;0;0;0;0
1;90;1570862072450;1570862077579;5129;17923733508;64063182378;1359170154;864543885;13367709478;23747643;670724094;0;0;0;0;0;0
1;91;1570862077579;1570862082721;5142;17966900306;64063183081;1358970566;868215260;13367709595;23752022;670683118;0;0;0;0;0;0
1;92;1570862082721;1570862087829;5108;17851938592;64063183046;1356465897;874961306;13367709560;23747794;670679306;43;8;4736;0;105;445
1;93;1570862087830;1570862092924;5094;17804564366;64063182904;1356732338;872609543;13367709418;23750959;670696666;0;0;0;0;0;0
1;94;1570862092924;1570862098034;5110;17857671428;64063183013;1357661713;871282497;13367709527;23756011;670704013;0;0;0;0;0;0
1;95;1570862098035;1570862103169;5134;17935643020;64063187544;1359523555;865226471;13367710802;23753435;670670619;0;0;0;0;0;0
1;96;1570862103170;1570862108311;5141;17968487034;64063182512;1359453981;864539708;13367709026;23758252;670720994;0;0;0;0;0;0
1;97;1570862108311;1570862113443;5132;17931305506;64063183476;1358858164;865117250;13367709990;23756849;670728657;0;0;0;0;0;0
1;98;1570862113443;1570862118565;5122;17895952336;64063182516;1358218934;867337740;13367709030;23745692;670731232;46;12;5088;0;107;450
1;99;1570862118565;1570862123671;5106;17844942856;64063182419;1357019841;872429403;13367708933;23749776;670707288;0;0;0;0;0;0
1;100;1570862123671;1570862128784;5113;17867822662;64063183416;1357335004;872099573;13367709930;23749019;670701665;0;0;0;0;0;0
1;101;1570862128784;1570862133883;5099;17817247532;64063183508;1356259764;876906027;13367710022;23751724;670700378;0;0;0;0;0;0
1;102;1570862133883;1570862138996;5113;17858963528;64063186582;1357278583;870077047;13367709840;23747209;670671700;0;0;0;0;0;0
1;103;1570862138996;1570862144116;5120;17889707478;64063182218;1358821644;863715547;13367709318;23751414;670726022;0;0;0;0;0;0
1;104;1570862144116;1570862149227;5111;17862844354;64063183047;1357693345;867920893;13367709561;23748245;670715709;27;12;4736;0;91;225
1;105;1570862149227;1570862154362;5135;17931071322;64063183071;1350121856;869576052;13367709585;23755367;670769224;461;17;47728;0;1412;1806
1;106;1570862154363;1570862159478;5115;17877489906;64063182905;1347974553;858524266;13367709419;23754764;670714976;0;0;0;0;0;0
1;107;1570862159478;1570862164549;5071;17717465146;64063182858;1344573761;859481918;13367709372;23756220;670739299;0;0;0;0;0;0
1;108;1570862164549;1570862169631;5082;17761200322;64063182964;1345498677;861083698;13367709478;23749367;670736412;0;0;0;0;0;0
1;109;1570862169631;1570862178479;8848;18060404400;64063194580;1347119354;876950839;13367712108;23771424;670841252;0;0;0;0;0;0
1;110;1570862178479;1570862183557;5078;17732204868;64063182240;1346078907;855103359;13367709340;23752315;670755908;158;146;8208;0;219;4270
1;111;1570862183557;1570862188631;5074;17731837386;64063183016;1345476473;858478555;13367709530;23757151;670753760;0;0;0;0;0;0
1;112;1570862188631;1570862193745;5114;17867770540;64063182909;1348137425;855648600;13367709423;23753618;670767766;0;0;0;0;0;0
1;113;1570862193745;1570862198860;5115;17870806464;64063183035;1348448860;854823480;13367709549;23755283;670795657;0;0;0;0;0;0
1;114;1570862198860;1570862203945;5085;17765462354;64063182892;1346200647;858672109;13367709406;23748173;670779522;0;0;0;0;0;0
1;115;1570862203945;1570862209066;5121;17893852126;64063183032;1349241056;852694977;13367709546;23752339;670793435;0;0;0;0;0;0
1;116;1570862209066;1570862214130;5064;17690329440;64063183034;1343647943;866186126;13367709548;23752297;670791983;94;124;6200;0;204;1322
1;117;1570862214130;1570862219254;5124;17900219040;64063186911;1349536208;851821810;13367710169;23750268;670727569;0;0;0;0;0;0
1;118;1570862219254;1570862224348;5094;17799568684;64063182938;1346939287;853752641;13367709452;23753758;670771748;0;0;0;0;0;0
1;119;1570862224349;1570862229437;5088;17780620950;64063183024;1346303699;858317408;13367709538;23752135;670766183;0;0;0;0;0;0
1;120;1570862229437;1570862234534;5097;17807914044;64063182993;1346835833;857192995;13367709507;23752916;670794844;0;0;0;0;0;0
1;121;1570862234534;1570862239645;5111;17854932176;64063182928;1346950117;860650119;13367709442;23752494;670774124;0;0;0;0;0;0
1;122;1570862239645;1570862244733;5088;17773892394;64063183049;1346738331;858425024;13367709563;23746528;670772594;82;118;6128;0;98;781
1;123;1570862244733;1570862249838;5105;17837723594;64063183040;1347533553;856593588;13367709554;23753646;670797308;0;0;0;0;0;0
1;124;1570862249838;1570862254936;5098;17804098772;64063186501;1347622351;853614089;13367710345;23753474;670764041;0;0;0;0;0;0
1;125;1570862254936;1570862260031;5095;17800978460;64063182916;1346977421;857665747;13367709430;23749146;670781157;0;0;0;0;0;0
1;126;1570862260031;1570862265133;5102;17828542092;64063184500;1348127149;854782958;13367709843;23754255;670769457;0;0;0;0;0;0
2;81;1570862853960;1570862859102;5142;17965435634;64068027137;1365176760;870081838;13367710395;25724325;670757361;0;0;0;0;0;0
2;82;1570862859103;1570862864224;5121;17893800004;64068022906;1363116497;873689828;13367709420;25705526;670788658;0;0;0;0;0;0
2;83;1570862864224;1570862869334;5110;17858237324;64068022899;1362571992;875334907;13367709413;25683023;670781147;0;0;0;0;0;0
2;84;1570862869334;1570862874457;5123;17901253012;64068022908;1362340647;878810398;13367709422;25705886;670795105;0;0;0;0;0;0
2;85;1570862874457;1570862879570;5113;17867913766;64068022901;1362057316;883175585;13367709415;25708627;670771664;29;12;4672;0;80;214
2;86;1570862879570;1570862884712;5142;17969975942;64068022930;1364793205;874180699;13367709444;25726550;670802743;0;0;0;0;0;0
2;87;1570862884712;1570862889850;5138;17957731214;64068022969;1364967352;874964723;13367709483;25680023;670774427;0;0;0;0;0;0
2;88;1570862889850;1570862894982;5132;17920601078;64068027086;1363426958;872720371;13367710344;25704596;670739087;0;0;0;0;0;0
2;89;1570862894982;1570862900100;5118;17881955900;64068022573;1362715366;877192781;13367709087;25702357;670805526;0;0;0;0;0;0
2;90;1570862900100;1570862905230;5130;17929184126;64068021757;1363466479;875359799;13367708857;25710148;670785881;0;0;0;0;0;0
2;91;1570862905230;1570862910352;5122;17896081546;64068023523;1364038750;874308543;13367710037;25693196;670744744;36;11;4672;0;82;300
2;92;1570862910352;1570862915507;5155;18016363792;64068022481;1365356346;873077488;13367708995;25706005;670751971;0;0;0;0;0;0
2;93;1570862915508;1570862920655;5147;17985802342;64068022457;1363847008;876607267;13367708971;25694736;670784136;0;0;0;0;0;0
2;94;1570862920655;1570862925777;5122;17900844358;64068022433;1362695115;881631160;13367708947;25718275;670787952;0;0;0;0;0;0
2;95;1570862925777;1570862930927;5150;17986548694;64068027557;1364961929;871856264;13367710815;25679842;670734623;0;0;0;0;0;0
2;96;1570862930927;1570862936059;5132;17936521064;64068023541;1364330539;869051564;13367710055;25713600;670760089;23;12;4624;0;74;188
2;97;1570862936059;1570862941174;5115;17872445898;64068023528;1363023568;873442478;13367710042;25692723;670785614;4;0;48;0;1;3
2;98;1570862941174;1570862946301;5127;17917821092;64068023537;1363155334;875613222;13367710051;25722290;670765837;0;0;0;0;0;0
2;99;1570862946301;1570862951457;5156;18012292874;64068023565;1365502340;873793218;13367710079;25691279;670774403;0;0;0;0;0;0
2;100;1570862951457;1570862956582;5125;17912878846;64068023537;1363124344;880149769;13367710051;25707555;670762604;0;0;0;0;0;0
2;101;1570862956582;1570862961685;5103;17833171168;64068023514;1361494321;880130296;13367710028;25700950;670754643;0;0;0;0;0;0
2;102;1570862961685;1570862966790;5105;17829190624;64068026570;1361862203;879422658;13367709828;25718274;670739162;27;10;4624;0;75;227
2;103;1570862966790;1570862971912;5122;17900905386;64068022225;1363777083;872201198;13367709325;25703019;670785880;4;0;40;0;9;10
2;104;1570862971912;1570862977055;5143;17971856130;64068023074;1364322912;874709811;13367709588;25697030;670790979;0;0;0;0;0;0
2;105;1570862977055;1570862982197;5142;17970434382;64068022944;1364286529;871945296;13367709458;25735584;670791604;0;0;0;0;0;0
2;106;1570862982197;1570862987334;5137;17952154014;64068023046;1363800948;879878770;13367709560;25688258;670759848;189;18;25984;1;672;884
2;107;1570862987334;1570862992476;5142;17960946572;64068022986;1359547705;900375536;13367709500;25723422;670816644;750;67;226920;-1;2411;5691
2;108;1570862992476;1570862997613;5137;17950013946;64068023022;1364574579;876125522;13367709536;25723276;670795335;0;0;0;0;0;0
2;109;1570862997613;1570863006794;9181;18188466256;64068034665;1363513115;889496970;13367712212;25692725;670872955;4;0;48;0;1;2
2;110;1570863006794;1570863011936;5142;17943200710;64068022389;1365148936;868301789;13367709489;25687024;670783978;0;0;0;0;0;0
2;111;1570863011936;1570863017087;5151;17999936164;64068023092;1364551524;872459522;13367709606;25708411;670783873;136;159;8688;0;176;3309
2;112;1570863017087;1570863022252;5165;18047973814;64068022959;1366160832;870116173;13367709473;25707327;670787811;0;0;0;0;0;0
2;113;1570863022252;1570863027383;5131;17929495544;64068023051;1364243280;875610444;13367709565;25713932;670771647;0;0;0;0;0;0
2;114;1570863027383;1570863032493;5110;17856768272;64068022914;1362738909;877586854;13367709428;25716604;670769010;0;0;0;0;0;0
2;115;1570863032493;1570863037597;5104;17838720482;64068023017;1361293168;882137459;13367709531;25704825;670777740;0;0;0;0;0;0
2;116;1570863037597;1570863042719;5122;17896426982;64068023058;1362715284;881004021;13367709572;25716455;670780568;0;0;0;0;0;0
2;117;1570863042720;1570863047857;5137;17932765068;64068026956;1341481224;861747103;13367710214;25705739;670845694;68;124;6008;0;126;2163
2;118;1570863047858;1570863052992;5134;17934965872;64068022941;1348810105;862377199;13367709455;25704534;670808480;0;0;0;0;0;0
2;119;1570863052992;1570863058126;5134;17929814116;64068022919;1349987117;864863951;13367709433;25679021;670825231;0;0;0;0;0;0
2;120;1570863058126;1570863063224;5098;17813784120;64068022924;1346996428;874250215;13367709438;25683480;670791944;0;0;0;0;0;0
2;121;1570863063224;1570863068311;5087;17776632668;64068022991;1346088017;879919520;13367709505;25671586;670787551;0;0;0;0;0;0
2;122;1570863068312;1570863073458;5146;17981909252;64068022933;1350458475;869301565;13367709447;25692072;670798184;0;0;0;0;0;0
2;123;1570863073458;1570863078580;5122;17898159856;64068022924;1348635586;871663362;13367709438;25706860;670767908;76;116;6120;0;92;745
2;124;1570863078580;1570863083703;5123;17893446830;64068026845;1349238931;865624798;13367710689;25699408;670722948;0;0;0;0;0;0
2;125;1570863083703;1570863088817;5114;17871119196;64068022434;1348083808;870698215;13367708948;25717024;670771869;0;0;0;0;0;0
2;126;1570863088817;1570863093942;5125;17909913148;64068023939;1349116059;869227671;13367709282;25716792;670787035;0;0;0;0;0;0
2;127;1570863093942;1570863099041;5099;17818562262;64068037674;1348158774;872588473;13367712352;25704468;670780907;0;0;0;0;0;0
2;128;1570863099041;1570863104168;5127;17914129920;64068022436;1349499604;868967165;13367708950;25715257;670775227;0;0;0;0;0;0
2;129;1570863104168;1570863109268;5100;17822208612;64068022416;1347233164;876522460;13367708930;25690489;670769779;44;151;6072;0;86;378
2;130;1570863109268;1570863114353;5085;17769311936;64068022395;1346180717;878824700;13367708909;25708375;670784485;0;0;0;0;0;0
3;79;1570863705197;1570863710336;5139;17958102200;64068022937;1365488466;870763473;13367709451;24803253;670738230;0;0;0;0;0;0
3;80;1570863710336;1570863717589;7253;18083286396;64068033898;1365709517;882957207;13367711875;24781738;670820924;0;0;0;0;0;0
3;81;1570863717589;1570863722732;5143;17921607310;64068027543;1365218796;866926284;13367710801;24808041;670718871;0;0;0;0;0;0
3;82;1570863722732;1570863727860;5128;17920633782;64068023538;1365459492;869448607;13367710052;24809113;670734283;0;0;0;0;0;0
3;83;1570863727861;1570863732978;5117;17882359736;64068023536;1363462000;876605023;13367710050;24778480;670724108;49;12;5312;0;105;509
3;84;1570863732978;1570863738091;5113;17867856388;64068023523;1363040575;881159306;13367710037;24812966;670721690;0;0;0;0;0;0
3;85;1570863738091;1570863743210;5119;17891397282;64068023530;1364281157;873576975;13367710044;24795975;670737589;0;0;0;0;0;0
3;86;1570863743210;1570863748340;5130;17924720906;64068023539;1364947493;875002187;13367710053;24793118;670710148;0;0;0;0;0;0
3;87;1570863748340;1570863753459;5119;17886935668;64068023530;1363518636;878685999;13367710044;24785357;670721939;0;0;0;0;0;0
3;88;1570863753459;1570863758600;5141;17958360036;64068026081;1365312902;868852052;13367709925;24777515;670707442;0;0;0;0;0;0
3;89;1570863758600;1570863763746;5146;17980444434;64068022931;1364687266;872870486;13367709445;24803747;670718883;31;14;4864;0;88;201
3;90;1570863763746;1570863768875;5129;17923039570;64068023056;1365266153;869184899;13367709570;24779948;670723585;0;0;0;0;0;0
3;91;1570863768875;1570863774016;5141;17965445124;64068022946;1366028290;869591668;13367709460;24791668;670723709;0;0;0;0;0;0
3;92;1570863774016;1570863779128;5112;17863189936;64068023021;1363567505;872387139;13367709535;24797069;670760987;0;0;0;0;0;0
3;93;1570863779128;1570863784243;5115;17869976454;64068022936;1363982190;873657308;13367709450;24787834;670759766;0;0;0;0;0;0
3;94;1570863784243;1570863789359;5116;17874360688;64068023007;1363259647;878634026;13367709521;24787970;670780236;0;0;0;0;0;0
3;95;1570863789359;1570863794495;5136;17939267032;64068027386;1365280525;871241130;13367710644;24790590;670706621;34;15;4800;0;91;293
3;96;1570863794495;1570863799627;5132;17932710610;64068023065;1365014531;869640851;13367709579;24782739;670751985;0;0;0;0;0;0
3;97;1570863799628;1570863804756;5128;17921429336;64068023063;1364866090;872203532;13367709577;24787186;670735528;0;0;0;0;0;0
3;98;1570863804756;1570863809885;5129;17924152674;64068023064;1364664117;871848422;13367709578;24784838;670719292;0;0;0;0;0;0
3;99;1570863809885;1570863815050;5165;18051414742;64068023099;1367220635;866575407;13367709613;24791077;670748821;0;0;0;0;0;0
3;100;1570863815050;1570863820171;5121;17894000316;64068023028;1363323512;878022354;13367709542;24793525;670736442;0;0;0;0;0;0
3;101;1570863820171;1570863825306;5135;17942388658;64068022924;1364405715;878835938;13367709438;24790438;670747232;39;12;4736;0;83;342
3;102;1570863825307;1570863830465;5158;18013717834;64068025936;1366186484;868811302;13367709780;24792403;670672618;0;0;0;0;0;0
3;103;1570863830465;1570863835587;5122;17899139370;64068022437;1363286615;877457470;13367708951;24788937;670774188;339;14;42768;1;1087;1372
3;104;1570863835587;1570863840725;5138;17948387652;64068023535;1364784896;875375466;13367710049;24796958;670742789;120;8;17096;-1;459;551
3;105;1570863840725;1570863845879;5154;18009623994;64068022491;1366024679;870448622;13367709005;24782628;670783264;0;0;0;0;0;0
3;106;1570863845880;1570863851014;5134;17944922780;64068023506;1364822769;876438599;13367710020;24799579;670738696;0;0;0;0;0;0
3;107;1570863851014;1570863856137;5123;17898797584;64068022485;1364093202;873833877;13367708999;24780368;670769226;3;1;48;0;1;3
3;108;1570863856137;1570863861276;5139;17959977862;64068022451;1365138237;872999497;13367708965;24792766;670746643;0;0;0;0;0;0
3;109;1570863861276;1570863871326;10050;18255496462;64068033815;1365818385;894308125;13367711676;24795901;670858167;122;16;6848;0;150;2076
3;110;1570863871326;1570863876479;5153;17835435920;64068022201;1363494390;873275479;13367709301;24798604;670773421;0;0;0;0;0;0
3;111;1570863876479;1570863881607;5128;17918214562;64068023066;1364801054;869929799;13367709580;24797861;670742201;0;0;0;0;0;0
3;112;1570863881607;1570863886842;5235;17946483082;64068023075;1364733379;871826366;13367709589;24800423;670729582;4;0;48;0;1;4
3;113;1570863886842;1570863891979;5137;17952220882;64068022938;1365406510;869102436;13367709452;24899214;670735115;0;0;0;0;0;0
3;114;1570863891979;1570863897095;5116;17877615758;64068022903;1363140871;877981863;13367709417;24790034;670758846;0;0;0;0;0;0
3;115;1570863897095;1570863902194;5099;17820618964;64068022883;1362710581;880491221;13367709397;24792933;670743949;41;18;5584;0;84;447
3;116;1570863902194;1570863907298;5104;17836374846;64068022888;1362585677;877868105;13367709402;24786589;670729639;0;0;0;0;0;0
3;117;1570863907298;1570863912428;5130;17924624254;64068026915;1364974653;866933606;13367710173;24795120;670721927;0;0;0;0;0;0
3;118;1570863912428;1570863917562;5134;17941934744;64068022980;1365570968;870493496;13367709494;24786889;670755493;4;0;48;0;1;3
3;119;1570863917562;1570863922682;5120;17893592246;64068023008;1363286755;877612973;13367709522;24768286;670733664;0;0;0;0;0;0
3;120;1570863922682;1570863927788;5106;17843373648;64068022934;1362842732;876134277;13367709448;24784554;670740186;0;0;0;0;0;0
3;121;1570863927788;1570863932905;5117;17880194118;64068023058;1364139363;874590977;13367709572;24790041;670740097;21;16;4752;0;60;144
3;122;1570863932905;1570863938046;5141;17967681552;64068023075;1365332907;873116999;13367709589;24789278;670738029;0;0;0;0;0;0
3;123;1570863938046;1570863943148;5102;17830438486;64068023026;1363037029;879303341;13367709540;24800443;670727867;0;0;0;0;0;0
3;124;1570863943148;1570863948278;5130;17919741576;64068026539;1364090055;873092467;13367710383;24799140;670763526;4;0;48;0;1;3
3;125;1570863948278;1570863953403;5125;17911586454;64068022918;1364999552;869840615;13367709432;24779944;670721633;0;0;0;0;0;0
3;126;1570863953403;1570863958522;5119;17891236244;64068024406;1364528123;873569568;13367709749;24782195;670749015;25;14;4752;0;70;205
3;127;1570863958523;1570863963639;5116;17877300106;64068038305;1363355300;876098553;13367712983;24799693;670715172;0;0;0;0;0;0
3;128;1570863963639;1570863968771;5132;17927795958;64068023068;1364797231;876654349;13367709582;24781505;670747673;0;0;0;0;0;0
4;83;1570864563379;1570864568553;5174;17731661894;64068022862;1344713526;861161402;13367709376;23787125;670715345;0;0;0;0;0;0
4;84;1570864568553;1570864573677;5124;17902217926;64068023012;1348626998;856982526;13367709526;23790074;670768011;0;0;0;0;0;0
4;85;1570864573677;1570864578777;5100;17823217910;64068022942;1346906493;856748188;13367709456;23787141;670741506;0;0;0;0;0;0
4;86;1570864578777;1570864583853;5076;17736504276;64068022861;1347088219;851412914;13367709375;23784398;670740023;0;0;0;0;0;0
4;87;1570864583854;1570864588965;5111;17856000604;64068022931;1349009883;847562108;13367709445;23787561;670750842;25;14;4928;0;113;252
4;88;1570864588965;1570864594065;5100;17813994360;64068027094;1349070894;845204853;13367710352;23788857;670738551;0;0;0;0;0;0
4;89;1570864594065;1570864599408;5343;17930162764;64068022558;1349174249;853868758;13367709072;23796662;670832320;0;0;0;0;0;0
4;90;1570864599408;1570864604511;5103;17827074354;64068022411;1347908824;853968596;13367708925;23791649;670778359;0;0;0;0;0;0
4;91;1570864604511;1570864609624;5113;17862477748;64068022423;1348640064;853423382;13367708937;23787153;670797084;0;0;0;0;0;0
4;92;1570864609624;1570864614699;5075;17732487816;64068022384;1345696356;861298399;13367708898;23787027;670791987;0;0;0;0;0;0
4;93;1570864614700;1570864619797;5097;17808557904;64068021738;1346822469;860512085;13367708838;23789632;670796324;25;14;4736;0;67;158
4;94;1570864619797;1570864624898;5101;17821696444;64068022409;1346409450;863940667;13367708923;23790611;670747533;0;0;0;0;0;0
4;95;1570864624898;1570864629972;5074;17722833712;64068027479;1346154982;855047155;13367710737;23779888;670693008;0;0;0;0;0;0
4;96;1570864629972;1570864635038;5066;17702211212;64068023473;1346067947;857160121;13367709987;23787659;670751694;0;0;0;0;0;0
4;97;1570864635038;1570864640154;5116;17877716060;64068023524;1348796094;850520098;13367710038;23782818;670746271;0;0;0;0;0;0
4;98;1570864640154;1570864645247;5093;17796633792;64068023501;1347032377;858169612;13367710015;23785993;670740383;0;0;0;0;0;0
4;99;1570864645247;1570864650335;5088;17776214670;64068023514;1345603967;861489722;13367710028;23790969;670747037;26;15;4800;0;76;191
4;100;1570864650335;1570864655450;5115;17873778294;64068023523;1349439910;853568580;13367710037;23787763;670745655;0;0;0;0;0;0
4;101;1570864655450;1570864660532;5082;17758965792;64068023490;1346005321;859733244;13367710004;23786607;670721514;0;0;0;0;0;0
4;102;1570864660532;1570864665616;5084;17756202888;64068026550;1346158738;860442835;13367709808;23791661;670685700;0;0;0;0;0;0
4;103;1570864665616;1570864670705;5089;17783609862;64068022903;1346990150;858297830;13367709417;23785612;670746417;0;0;0;0;0;0
4;104;1570864670706;1570864675794;5088;17781828662;64068023002;1346457426;856216849;13367709516;23785184;670739648;0;0;0;0;0;0
4;105;1570864675794;1570864680871;5077;17739883154;64068022886;1345871280;856830847;13367709400;23787413;670758295;27;12;4864;0;78;206
4;106;1570864680871;1570864685958;5087;17776793998;64068022332;1346587429;859479037;13367709432;23783518;670735457;0;0;0;0;0;0
4;107;1570864685959;1570864691055;5096;17808251304;64068022889;1346473869;860374255;13367709403;23793698;670741732;0;0;0;0;0;0
4;108;1570864691055;1570864696156;5101;17825739184;64068023013;1347173142;861297434;13367709527;23782337;670731550;0;0;0;0;0;0
4;109;1570864696156;1570864705504;9348;18086722798;64068034115;1347947285;874269404;13367711957;23816414;670824807;0;0;0;0;0;0
4;110;1570864705504;1570864710643;5139;17902913032;64068022233;1364603014;869831634;13367709333;23788541;670753314;23;12;4752;0;70;178
4;111;1570864710643;1570864715751;5108;17849185178;64068023041;1363349628;876891940;13367709555;23791391;670763368;3;1;48;0;1;1
4;112;1570864715751;1570864720868;5117;17870371530;64068022950;1356653486;877490512;13367709464;23790257;670771075;463;13;47920;0;1435;1795
4;113;1570864720868;1570864725998;5130;17910094188;64068023053;1341956910;859048991;13367709567;23792588;670809992;0;0;0;0;0;0
4;114;1570864725998;1570864731095;5097;17803617994;64068022917;1359118897;872967983;13367709431;23791907;670760964;0;0;0;0;0;0
4;115;1570864731095;1570864736216;5121;17896970102;64068023038;1364439266;874507284;13367709552;23786694;670771330;0;0;0;0;0;0
4;116;1570864736216;1570864741341;5125;17907329240;64068022943;1364561264;875501300;13367709457;23787878;670757402;0;0;0;0;0;0
4;117;1570864741341;1570864746458;5117;17875249828;64068026904;1365389068;867032891;13367710162;23783783;670732648;4;0;40;0;1;2
4;118;1570864746458;1570864751577;5119;17888716722;64068022908;1365800804;864665201;13367709422;23785795;670780275;31;22;5840;0;92;325
4;119;1570864751577;1570864756693;5116;17871811382;64068022952;1365991636;859211922;13367709466;23786446;670815850;0;0;0;0;0;0
4;120;1570864756693;1570864761813;5120;17882840514;64068023019;1365950946;862797520;13367709533;23788548;670794337;80;0;800;0;51;1286
4;121;1570864761813;1570864766918;5105;17837530728;64068022924;1365210241;864167322;13367709438;23789553;670785436;0;0;0;0;0;0
4;122;1570864766918;1570864772028;5110;17852565516;64068023045;1364997060;866739719;13367709559;23786022;670783255;0;0;0;0;0;0
4;123;1570864772028;1570864777147;5119;17883432398;64068023045;1364900933;872391820;13367709559;23786540;670808648;4;0;48;0;1;4
4;124;1570864777147;1570864782239;5092;17789306490;64068026501;1363197704;873600937;13367710345;23790701;670717273;33;22;5840;0;85;349
4;125;1570864782239;1570864787348;5109;17855711962;64068023047;1364890639;871199911;13367709561;23785051;670755555;0;0;0;0;0;0
4;126;1570864787348;1570864792444;5096;17805734848;64068024536;1363359473;875337321;13367709879;23789847;670758307;0;0;0;0;0;0
4;127;1570864792444;1570864797535;5091;17793161182;64068038190;1362365871;878996450;13367712868;23784255;670745918;0;0;0;0;0;0
4;128;1570864797535;1570864802629;5094;17803612592;64068022881;1363169801;875161096;13367709395;23784537;670731872;0;0;0;0;0;0
4;129;1570864802629;1570864807709;5080;17751983488;64068022963;1362437231;879763504;13367709477;23789464;670739620;25;130;1256;0;15;303
4;130;1570864807709;1570864812802;5093;17801111758;64068023032;1362525500;879194627;13367709546;23785408;670738244;27;14;5072;0;85;245
4;131;1570864812803;1570864817945;5142;17962136034;64068026082;1366053052;870078353;13367709926;23790809;670715647;0;0;0;0;0;0
4;132;1570864817945;1570864823046;5101;17825429518;64068022895;1363235900;874497399;13367709409;23783719;670746675;0;0;0;0;0;0
