0;74;1570827447320;1570827452696;5376;18774735242;64068022785;1338113227;920976845;13367709299;25717072;670881054;0;0;0;0;0;0
0;75;1570827452696;1570827458056;5360;18722274522;64068023692;1338427182;921796031;13367710206;25718148;670892060;0;0;0;0;0;0
0;76;1570827458056;1570827467883;9827;18966320092;64068033262;1341196505;918996555;13367711377;25700881;670947847;21;12;4640;0;74;160
0;77;1570827467883;1570827473299;5416;18898670992;64068022728;1339475372;920415998;13367709242;25707559;670894887;0;0;0;0;0;0
0;78;1570827473299;1570827478655;5356;18707096800;64068023670;1340397784;917816325;13367710184;25693532;670870824;4;0;32;0;1;3
0;79;1570827478655;1570827484048;5393;18833261970;64068022826;1337304929;924102741;13367709340;25731152;670928502;0;0;0;0;0;0
0;80;1570827484048;1570827489433;5385;18801316294;64068022702;1338547493;926341736;13367709216;25691827;670872997;0;0;0;0;0;0
0;81;1570827489433;1570827494819;5386;18804684952;64068027124;1339489066;912993897;13367710968;25692215;670819573;0;0;0;0;0;0
0;82;1570827494819;1570827500175;5356;18706913570;64068022684;1337406326;927676623;13367709198;25711276;670945479;0;0;0;0;0;0
0;83;1570827500175;1570827505591;5416;18916168216;64068023814;1341908838;915592209;13367710328;25725210;670903690;0;0;0;0;0;0
0;84;1570827505591;1570827510943;5352;18692691710;64068023780;1338239705;922775955;13367710294;25718458;670886887;28;19;5184;0;106;254
0;85;1570827510943;1570827516340;5397;18851293992;64068023812;1339584081;922100144;13367710326;25695381;670884467;0;0;0;0;0;0
0;86;1570827516340;1570827521686;5346;18668563604;64068023768;1337920559;923708628;13367710282;25720246;670867780;0;0;0;0;0;0
0;87;1570827521686;1570827527088;5402;18868998682;64068022774;1338796167;922479880;13367709288;25718170;670916031;0;0;0;0;0;0
0;88;1570827527088;1570827532476;5388;18809651288;64068027407;1339093083;923573740;13367710665;25690786;670849075;0;0;0;0;0;0
0;89;1570827532476;1570827537838;5362;18728581138;64068023782;1339331836;913430955;13367710296;25716674;670897867;0;0;0;0;0;0
0;90;1570827537838;1570827543213;5375;18772412236;64068023799;1337823480;926153607;13367710313;25679101;670863499;26;14;4664;0;84;207
0;91;1570827543213;1570827548585;5372;18763454552;64068023792;1339799323;921534697;13367710306;25687148;670874602;0;0;0;0;0;0
0;92;1570827548585;1570827553972;5387;18810569920;64068023810;1338754471;921988205;13367710324;25696488;670875874;0;0;0;0;0;0
0;93;1570827553972;1570827559332;5360;18722340952;64068023781;1336844070;927998542;13367710295;25704992;670846371;1;0;8;0;0;0
0;94;1570827559332;1570827564692;5360;18720208184;64068023782;1339716831;915727713;13367710296;25684327;670869633;0;0;0;0;0;0
0;95;1570827564693;1570827570058;5365;18734587432;64068027097;1336662812;926095957;13367710941;25682353;670806789;4;0;32;0;9;10
0;96;1570827570059;1570827575462;5403;18871400674;64068022729;1341696958;915955595;13367709243;25696346;670931478;0;0;0;0;0;0
0;97;1570827575462;1570827580844;5382;18795854288;64068023793;1339873361;913985503;13367710307;25727598;670839433;469;15;59560;0;1476;1968
0;98;1570827580844;1570827586214;5370;18755052982;64068022722;1337724985;926535924;13367709236;25678013;670911114;1;0;8;0;0;0
0;99;1570827586214;1570827591579;5365;18735055216;64068023742;1340048176;920465485;13367710256;25698934;670876204;0;0;0;0;0;0
0;100;1570827591579;1570827596942;5363;18726071836;64068023783;1336073121;926344418;13367710297;25692293;670863951;0;0;0;0;0;0
0;101;1570827596943;1570827602300;5357;18713842584;64068022747;1336635732;927773499;13367709261;25707725;670907848;80;8;888;0;78;1606
0;102;1570827602300;1570827607661;5361;18711340144;64068026901;1339081341;911722349;13367710159;25726355;670809136;0;0;0;0;0;0
0;103;1570827607661;1570827613037;5376;18779286646;64068022792;1338737018;921609708;13367709306;25705209;670913421;37;20;7504;0;133;329
0;104;1570827613037;1570827618414;5377;18778893906;64068022698;1338209469;926079475;13367709212;25705670;670915840;0;0;0;0;0;0
0;105;1570827618414;1570827623783;5369;18752488638;64068022694;1341119227;909638543;13367709208;25700780;670902378;0;0;0;0;0;0
0;106;1570827623783;1570827629173;5390;18827023244;64068023677;1338799133;926250321;13367710191;25726370;670905929;0;0;0;0;0;0
0;107;1570827629173;1570827634575;5402;18864216014;64068022867;1342955887;914788743;13367709381;25707906;670907099;4;0;32;0;1;3
0;108;1570827634575;1570827639955;5380;18791032346;64068022016;1338474881;919099843;13367709116;25691947;670899499;0;0;0;0;0;0
0;109;1570827639955;1570827648783;8828;18791751250;64068034888;1339902773;924440012;13367712416;25655082;670910191;6;2;72;0;10;21
0;110;1570827648783;1570827654138;5355;18686437216;64068022459;1339959204;932384025;13367709559;25699314;670902122;0;0;0;0;0;0
0;111;1570827654138;1570827659534;5396;18847420320;64068023357;1340201075;943380880;13367709871;25714251;670921180;21;10;4624;0;76;183
0;112;1570827659534;1570827664886;5352;18696762628;64068023298;1341540911;926597879;13367709812;25710076;670893473;0;0;0;0;0;0
0;113;1570827664886;1570827670254;5368;18751806964;64068023177;1339310950;947905074;13367709691;25697761;670907581;0;0;0;0;0;0
0;114;1570827670255;1570827675629;5374;18776055082;64068023168;1342566893;933362341;13367709682;25699969;670870687;0;0;0;0;0;0
0;115;1570827675629;1570827681021;5392;18832960480;64068023315;1341904263;933702246;13367709829;25706368;670914166;4;0;32;0;1;4
0;116;1570827681021;1570827686389;5368;18749858010;64068023312;1341907390;936142596;13367709826;25703389;670878368;0;0;0;0;0;0
0;117;1570827686389;1570827691759;5370;18754971514;64068027204;1340986053;939609944;13367710462;25709046;670885851;0;0;0;0;0;0
0;118;1570827691759;1570827697121;5362;18729027752;64068023331;1340981888;934517871;13367709845;25692701;670918915;32;14;4704;0;90;258
0;119;1570827697121;1570827702502;5381;18797285234;64068023325;1341285251;942551981;13367709839;25710243;670913127;0;0;0;0;0;0
0;120;1570827702502;1570827707847;5345;18671573540;64068023289;1342250355;926877592;13367709803;25690962;670880133;0;0;0;0;0;0
0;121;1570827707847;1570827713238;5391;18832655340;64068023331;1340343289;944702906;13367709845;25697377;670901333;0;0;0;0;0;0
0;122;1570827713238;1570827718593;5355;18706976350;64068022457;1341165599;940073541;13367709557;25681254;670898909;0;0;0;0;0;0
0;123;1570827718593;1570827723981;5388;18822895678;64068023343;1341186642;936768385;13367709857;25685936;670890562;5;0;40;0;1;5
1;72;1570828274180;1570828279560;5380;18795583458;64068023727;1357029234;926420683;13367710241;25699098;670856612;0;0;0;0;0;0
1;73;1570828279560;1570828284979;5419;18921389030;64068026846;1355022501;941668311;13367710104;25717838;670864005;0;0;0;0;0;0
1;74;1570828284979;1570828290340;5361;18726018400;64068022798;1355960598;925753197;13367709312;25697781;670914644;2;0;16;0;0;0
1;75;1570828290340;1570828295728;5388;18817770640;64068023666;1354468283;941519196;13367710180;25708016;670899643;25;12;4240;0;73;206
1;76;1570828295728;1570828301108;5380;18798726254;64068022831;1355968047;932684897;13367709345;25690354;670911597;4;0;32;0;1;3
1;77;1570828301108;1570828306509;5401;18868820270;64068023674;1354128705;945097646;13367710188;25713278;670904633;0;0;0;0;0;0
1;78;1570828306509;1570828317116;10607;18947055976;64068033881;1340846103;933040893;13367712243;25679707;670903750;0;0;0;0;0;0
1;79;1570828317116;1570828322540;5424;18818022928;64068022175;1352900417;925045870;13367709275;25703776;670882657;0;0;0;0;0;0
1;80;1570828322540;1570828327964;5424;18948838198;64068023834;1355468239;946267956;13367710348;25718754;670890765;0;0;0;0;0;0
1;81;1570828327964;1570828333333;5369;18756457210;64068027355;1355420638;924290243;13367710613;25683417;670839752;28;15;4800;0;102;248
1;82;1570828333333;1570828338754;5421;18938203704;64068023306;1353596373;948301281;13367709820;25698754;670927385;0;0;0;0;0;0
1;83;1570828338755;1570828344141;5386;18817706984;64068023231;1355358594;936394126;13367709745;25689807;670892586;0;0;0;0;0;0
1;84;1570828344141;1570828349537;5396;18849136988;64068023264;1354593957;942409493;13367709778;25694008;670897137;0;0;0;0;0;0
1;85;1570828349537;1570828354921;5384;18809473752;64068023248;1355945747;934796821;13367709762;25693684;670869324;0;0;0;0;0;0
1;86;1570828354921;1570828360333;5412;18906086332;64068023262;1355612880;945728184;13367709776;25681392;670922798;0;0;0;0;0;0
1;87;1570828360334;1570828365734;5400;18866667646;64068023284;1354483533;935332986;13367709798;25701113;670886719;26;12;4288;0;62;149
1;88;1570828365734;1570828371154;5420;18932364872;64068027071;1354248417;947277102;13367710329;25716445;670863482;0;0;0;0;0;0
1;89;1570828371155;1570828376535;5380;18798695740;64068023302;1355918987;924966730;13367709816;25680910;670879107;0;0;0;0;0;0
1;90;1570828376535;1570828381955;5420;18929208936;64068023212;1354607520;946559567;13367709726;25724280;670889928;1;0;8;0;0;0
1;91;1570828381955;1570828387329;5374;18772124178;64068022622;1354704340;937583775;13367709722;25721233;670854579;0;0;0;0;0;0
1;92;1570828387329;1570828392743;5414;18914853924;64068023202;1355110022;938578516;13367709716;25690583;670874857;0;0;0;0;0;0
1;93;1570828392743;1570828398110;5367;18748741256;64068023310;1355115581;935755624;13367709824;25682513;670886303;20;12;4264;0;49;104
1;94;1570828398110;1570828403526;5416;18921239672;64068023222;1355048843;943409734;13367709736;25683514;670880879;0;0;0;0;0;0
1;95;1570828403526;1570828408920;5394;18839845840;64068027806;1355481041;936385447;13367711064;25707909;670815672;2;0;24;0;0;0
1;96;1570828408920;1570828414348;5428;18939361484;64068023035;1354052557;947389300;13367709549;25719684;670964444;249;14;35176;1;896;1107
1;97;1570828414348;1570828419734;5386;18787556378;64068022904;1344653750;926892126;13367709418;25713534;670905394;200;6;11936;-1;605;635
1;98;1570828419734;1570828425155;5421;18942087012;64068022735;1354330087;944912232;13367709249;25716609;670887575;4;0;32;0;1;4
1;99;1570828425156;1570828430523;5367;18754222388;64068023698;1357110657;934127581;13367710212;25701886;670872113;0;0;0;0;0;0
1;100;1570828430524;1570828435949;5425;18953425956;64068023837;1354753386;938339643;13367710351;25695242;670867247;0;0;0;0;0;0
1;101;1570828435949;1570828441326;5377;18782909636;64068022805;1355762534;933854252;13367709319;25700049;670917781;45;9;672;0;11;327
1;102;1570828441326;1570828446726;5400;18855274974;64068026889;1354544461;938721561;13367710147;25729914;670831270;0;0;0;0;0;0
1;103;1570828446726;1570828452103;5377;18786785352;64068022840;1355472349;934752171;13367709354;25725866;670894304;52;16;7376;0;114;616
1;104;1570828452104;1570828457486;5382;18805931354;64068022008;1354539841;937484053;13367709108;25697311;670942330;0;0;0;0;0;0
1;105;1570828457487;1570828462878;5391;18835279982;64068023800;1355514279;939566000;13367710314;25694487;670912870;0;0;0;0;0;0
1;106;1570828462878;1570828468283;5405;18881028790;64068022731;1354131492;942081648;13367709245;25691155;670911880;0;0;0;0;0;0
1;107;1570828468283;1570828473670;5387;18816289616;64068022702;1356081206;938372277;13367709216;25699042;670927240;4;0;32;0;1;4
1;108;1570828473670;1570828479083;5413;18909490760;64068022722;1354182641;939616413;13367709236;25722224;670911185;0;0;0;0;0;0
1;109;1570828479083;1570828489685;10602;18974775536;64068033197;1351247288;932916941;13367711212;25684494;670920324;2;0;16;0;0;0
1;110;1570828489686;1570828495066;5380;18773666376;64068022172;1339140457;920832578;13367709272;25697820;670908735;23;14;4240;0;50;136
1;111;1570828495067;1570828500448;5381;18791917836;64068022706;1337417769;926180370;13367709220;25712769;670920713;1;2;24;0;0;0
1;112;1570828500448;1570828505809;5361;18723222062;64068022684;1338586669;917949063;13367709198;25688498;670887881;0;0;0;0;0;0
1;113;1570828505809;1570828511195;5386;18806747056;64068022705;1338169715;922615391;13367709219;25699699;670883701;0;0;0;0;0;0
1;114;1570828511195;1570828516540;5345;18667017610;64068022670;1337258113;924675764;13367709184;25705500;670872441;7;2;72;0;10;24
1;115;1570828516540;1570828521914;5374;18772183746;64068022698;1337635411;922525502;13367709212;25714340;670898584;0;0;0;0;0;0
1;116;1570828521914;1570828527272;5358;18715692842;64068022677;1338565550;924369080;13367709191;25719072;670901018;0;0;0;0;0;0
1;117;1570828527273;1570828532652;5379;18784521184;64068027332;1339684132;912694028;13367710590;25704765;670868038;7;2;72;0;1;7
1;118;1570828532652;1570828538040;5388;18811487530;64068023267;1340458807;918790097;13367709781;25675919;670905310;33;4;4240;0;81;305
1;119;1570828538040;1570828543412;5372;18766315276;64068023230;1339383629;920834673;13367709744;25704550;670847268;0;0;0;0;0;0
1;120;1570828543412;1570828548800;5388;18820271620;64068023281;1339031933;919886257;13367709795;25699876;670851585;0;0;0;0;0;0
1;121;1570828548800;1570828554180;5380;18790928978;64068023227;1338787119;923420489;13367709741;25736931;670848447;0;0;0;0;0;0
2;74;1570829103724;1570829109087;5363;18571295484;64068023223;1341110421;919041233;13367709737;23726318;670866184;24;18;4568;0;72;118
2;75;1570829109087;1570829114475;5388;18818977622;64068023230;1340080200;940527768;13367709744;23716786;670875439;0;0;0;0;0;0
2;76;1570829114475;1570829119830;5355;18703673976;64068023264;1341623241;927852764;13367709778;23721478;670860493;0;0;0;0;0;0
2;77;1570829119830;1570829125195;5365;18736769986;64068023192;1340329528;938040479;13367709706;23723418;670858078;0;0;0;0;0;0
2;78;1570829125195;1570829130562;5367;18745058844;64068023294;1341061784;933507520;13367709808;23719915;670862522;0;0;0;0;0;0
2;79;1570829130563;1570829135921;5358;18713641396;64068023175;1340055799;943913399;13367709689;23721589;670886921;0;0;0;0;0;0
2;80;1570829135921;1570829141258;5337;18639928040;64068023272;1340947727;923153475;13367709786;23721833;670865685;21;10;4080;0;61;130
2;81;1570829141258;1570829146627;5369;18750028684;64068027107;1340149655;939367953;13367710951;23725211;670790586;0;0;0;0;0;0
2;82;1570829146627;1570829151940;5313;18560568134;64068023730;1342317694;916081933;13367710244;23719420;670816977;2;0;16;0;0;0
2;83;1570829151940;1570829157305;5365;18740496782;64068023786;1339411840;939909652;13367710300;23720269;670854187;0;0;0;0;0;0
2;84;1570829157305;1570829162659;5354;18698103492;64068023780;1341955456;928521039;13367710294;23724029;670857635;0;0;0;0;0;0
2;85;1570829162660;1570829168030;5370;18757247800;64068023797;1340941197;936557261;13367710311;23722359;670825712;7;2;72;0;1;7
2;86;1570829168030;1570829173391;5361;18725654276;64068023786;1342460764;927786096;13367710300;23724484;670821205;0;0;0;0;0;0
2;87;1570829173391;1570829178774;5383;18797482626;64068023800;1340430587;943108390;13367710314;23723397;670845178;19;14;4880;0;69;115
2;88;1570829178774;1570829184103;5329;18607992584;64068027330;1340454019;923410666;13367710588;23722449;670789879;0;0;0;0;0;0
2;89;1570829184103;1570829189501;5398;18848252082;64068023817;1340670441;940414157;13367710331;23719001;670862896;0;0;0;0;0;0
2;90;1570829189501;1570829194826;5325;18601051744;64068023749;1341219302;919963830;13367710263;23719844;670808980;0;0;0;0;0;0
2;91;1570829194826;1570829200192;5366;18738064568;64068023783;1339952749;942695772;13367710297;23722068;670839549;4;0;32;0;1;4
2;92;1570829200192;1570829205548;5356;18708241732;64068023782;1341715444;931332459;13367710296;23721861;670838632;0;0;0;0;0;0
2;93;1570829205548;1570829210906;5358;18714594338;64068023776;1339961620;939595065;13367710290;23728100;670853912;15;8;4048;0;56;106
2;94;1570829210907;1570829216276;5369;18755747796;64068023100;1341416072;933121942;13367710200;23720329;670809368;2;0;24;0;0;0
2;95;1570829216276;1570829221627;5351;18682168176;64068027613;1340259372;939403853;13367710871;23722616;670809242;0;0;0;0;0;0
2;96;1570829221627;1570829226969;5342;18657403364;64068023286;1341272312;921887493;13367709800;23719983;670839067;0;0;0;0;0;0
2;97;1570829226969;1570829232338;5369;18755232416;64068023205;1340081547;938225383;13367709719;23723083;670838654;3;0;24;0;1;1
2;98;1570829232338;1570829237656;5318;18572771690;64068023118;1341734981;917815763;13367709632;23721958;670917081;0;0;0;0;0;0
2;99;1570829237656;1570829243045;5389;18818538308;64068023185;1339553401;942013715;13367709699;23723049;670843121;0;0;0;0;0;0
2;100;1570829243045;1570829248423;5378;18780408656;64068023252;1341278103;935446153;13367709766;23723545;670838892;458;20;47248;0;1527;1818
2;101;1570829248423;1570829253762;5339;18646271886;64068023225;1338987768;938770873;13367709739;23723796;670846520;0;0;0;0;0;0
2;102;1570829253762;1570829259109;5347;18662044412;64068026869;1340184045;934826608;13367710127;23721318;670799715;0;0;0;0;0;0
2;103;1570829259109;1570829264477;5368;18744047064;64068023787;1341068083;939043057;13367710301;23720917;670846505;0;0;0;0;0;0
2;104;1570829264477;1570829269792;5315;18566445072;64068023736;1339530800;931370087;13367710250;23718407;670831701;0;0;0;0;0;0
2;105;1570829269792;1570829275163;5371;18756137178;64068023795;1340140745;941311765;13367710309;23724448;670846164;51;4;680;0;13;427
2;106;1570829275164;1570829280497;5333;18631095186;64068023070;1341526131;927283628;13367710170;23720771;670819131;43;12;8016;0;131;520
2;107;1570829280497;1570829285866;5369;18754844932;64068023790;1339883750;943567348;13367710304;23719071;670852659;0;0;0;0;0;0
2;108;1570829285867;1570829291228;5361;18728981470;64068023783;1342097574;931715930;13367710297;23718780;670829981;0;0;0;0;0;0
2;109;1570829291228;1570829301492;10264;18934437050;64068034799;1344244160;928249973;13367712493;23735565;670853163;0;0;0;0;0;0
2;110;1570829301493;1570829306870;5377;18712898256;64068022953;1338297897;921979736;13367710053;23723955;670828819;8;1;72;0;10;17
2;111;1570829306870;1570829312260;5390;18816412548;64068022724;1339419039;917694143;13367709238;23724338;670852436;27;8;4304;0;63;194
2;112;1570829312260;1570829317835;5575;18761710144;64068023792;1337552441;925866309;13367710306;23721878;670847332;0;0;0;0;0;0
2;113;1570829317835;1570829323176;5341;18645345954;64068023785;1342286318;920996353;13367710299;23726605;670847395;0;0;0;0;0;0
2;114;1570829323176;1570829328545;5369;18749496806;64068022714;1339605320;938098567;13367709228;23721001;670901254;0;0;0;0;0;0
2;115;1570829328545;1570829333901;5356;18703113482;64068023750;1341031994;937632127;13367710264;23720543;670871927;0;0;0;0;0;0
2;116;1570829333901;1570829339272;5371;18758494932;64068022730;1341051131;925522978;13367709244;23720133;670890631;6;0;72;0;1;6
2;117;1570829339272;1570829344615;5343;18657503958;64068027685;1340471408;936734490;13367710943;23717479;670836966;0;0;0;0;0;0
2;118;1570829344615;1570829349986;5371;18760564190;64068022782;1342269032;926501230;13367709296;23723424;670886051;0;0;0;0;0;0
2;119;1570829349986;1570829355354;5368;18748353042;64068022694;1340003802;938788035;13367709208;23724787;670909683;27;19;4440;0;116;250
2;120;1570829355354;1570829360718;5364;18729180176;64068023687;1339756315;935490989;13367710201;23720510;670850215;0;0;0;0;0;0
2;121;1570829360719;1570829366049;5330;18615357554;64068023752;1341350140;928208643;13367710266;23722782;670861018;0;0;0;0;0;0
2;122;1570829366049;1570829371424;5375;18775308584;64068022804;1340442059;935892665;13367709318;23723483;670874137;0;0;0;0;0;0
2;123;1570829371424;1570829376778;5354;18698734504;64068023661;1341166394;941262700;13367710175;23719386;670847799;0;0;0;0;0;0
3;74;1570829921884;1570829927279;5395;18844948540;64068023343;1340522447;937642507;13367709857;26383423;670944523;27;12;4304;0;59;204
3;75;1570829927279;1570829932655;5376;18776185168;64068023329;1342027150;935357489;13367709843;26365260;670913574;0;0;0;0;0;0
3;76;1570829932655;1570829942590;9935;18946470078;64068033924;1349280287;936216057;13367711892;26347756;670961476;0;0;0;0;0;0
3;77;1570829942590;1570829948030;5440;18955180584;64068023250;1334093106;934475468;13367709764;26376022;670930985;3;0;24;0;1;1
3;78;1570829948030;1570829953382;5352;18698141744;64068023291;1332275854;919493400;13367709805;26382735;670904646;0;0;0;0;0;0
3;79;1570829953382;1570829958814;5432;18976479356;64068023371;1334293921;933053056;13367709885;26370267;670957612;0;0;0;0;0;0
3;80;1570829958814;1570829964174;5360;18724255450;64068023296;1333736511;916191384;13367709810;26389246;670922685;3;0;32;0;1;1
3;81;1570829964174;1570829969582;5408;18891232438;64068026684;1332221161;936243779;13367710528;26374032;670885818;27;8;4304;0;73;214
3;82;1570829969582;1570829974941;5359;18722605358;64068023149;1332385006;929883854;13367709663;26370358;670941361;3;0;24;0;1;1
3;83;1570829974941;1570829980339;5398;18852901890;64068023184;1333108464;930670043;13367709698;26358058;670929778;0;0;0;0;0;0
3;84;1570829980339;1570829985710;5371;18767929890;64068023261;1332971437;927637862;13367709775;26390353;670925232;0;0;0;0;0;0
3;85;1570829985710;1570829991115;5405;18881469418;64068023343;1333528000;931713774;13367709857;26352584;670918735;2;0;16;0;0;0
3;86;1570829991115;1570829996488;5373;18770478758;64068023223;1333253715;928496566;13367709737;26376152;670934889;0;0;0;0;0;0
3;87;1570829996488;1570830001889;5401;18867829222;64068023187;1333091006;938542391;13367709701;26384345;670938299;0;0;0;0;0;0
3;88;1570830001890;1570830007244;5354;18702046076;64068027345;1332910773;923257110;13367710603;26371580;670856462;43;10;5168;0;88;421
3;89;1570830007244;1570830012657;5413;18909376442;64068023825;1333018902;935414608;13367710339;26376043;670932420;0;0;0;0;0;0
3;90;1570830012657;1570830018021;5364;18739993374;64068023774;1334373224;919601024;13367710288;26381652;670882210;0;0;0;0;0;0
3;91;1570830018021;1570830023440;5419;18933106260;64068023830;1332808789;933694789;13367710344;26393913;670905917;2;0;16;0;0;0
3;92;1570830023440;1570830028807;5367;18748246462;64068023779;1332894539;928409337;13367710293;26368351;670890430;0;0;0;0;0;0
3;93;1570830028807;1570830034195;5388;18824397726;64068023798;1332465376;935048230;13367710312;26367893;670894007;0;0;0;0;0;0
3;94;1570830034195;1570830039554;5359;18713262964;64068022139;1332049932;930519139;13367709239;26368706;670898884;3;0;24;0;1;1
3;95;1570830039554;1570830044957;5403;18871560106;64068027653;1334028948;931623936;13367710911;26355293;670875644;0;0;0;0;0;0
3;96;1570830044957;1570830050331;5374;18770615560;64068023306;1333149086;916566128;13367709820;26390622;670917302;0;0;0;0;0;0
3;97;1570830050332;1570830055733;5401;18872896736;64068023336;1332726603;935023865;13367709850;26384377;670931665;32;6;4264;0;71;239
3;98;1570830055734;1570830061125;5391;18838298094;64068023325;1336346578;909222137;13367709839;26395661;670943652;0;0;0;0;0;0
3;99;1570830061125;1570830066525;5400;18863123350;64068023338;1332033287;936791532;13367709852;26356398;670939651;5;4;72;0;9;12
3;100;1570830066525;1570830071878;5353;18703720112;64068023215;1332087058;932426163;13367709729;26341470;670917446;0;0;0;0;0;0
3;101;1570830071878;1570830077285;5407;18890410020;64068023196;1333399190;927634714;13367709710;26376952;670946374;0;0;0;0;0;0
3;102;1570830077285;1570830082670;5385;18800166982;64068026857;1333372638;928412998;13367710115;26373009;670875477;7;2;72;0;1;7
3;103;1570830082670;1570830088053;5383;18809128462;64068023172;1332490342;931188645;13367709686;26417962;670953404;0;0;0;0;0;0
3;104;1570830088054;1570830093461;5407;18882630118;64068023210;1342329724;934617100;13367709724;26368332;670919988;468;12;47208;0;1609;1993
3;105;1570830093461;1570830098846;5385;18815453620;64068023180;1352706112;950285547;13367709694;26371554;670936158;0;0;0;0;0;0
3;106;1570830098846;1570830104235;5389;18828141312;64068022644;1354721872;934600204;13367709744;26372087;670884878;0;0;0;0;0;0
3;107;1570830104235;1570830109633;5398;18861132348;64068023328;1352903492;949168154;13367709842;26382541;670918990;0;0;0;0;0;0
3;108;1570830109633;1570830115020;5387;18818559186;64068023324;1356051252;934134550;13367709838;26371866;670932196;61;2;712;0;16;617
3;109;1570830115020;1570830125119;10099;18996380470;64068034459;1356216856;940884731;13367712006;26329256;670945258;48;12;6224;0;106;546
3;110;1570830125119;1570830130573;5454;18911383942;64068022512;1354707732;940943531;13367709612;26370450;670934510;0;0;0;0;0;0
3;111;1570830130573;1570830135940;5367;18752251096;64068023304;1353414577;941146504;13367709818;26369577;670910325;0;0;0;0;0;0
3;112;1570830135940;1570830141347;5407;18888401352;64068023346;1355188000;941697553;13367709860;26398541;670946710;0;0;0;0;0;0
3;113;1570830141347;1570830146751;5404;18881534096;64068023206;1356328305;927325997;13367709720;26358723;670913652;4;0;48;0;9;18
3;114;1570830146751;1570830152175;5424;18946369922;64068023209;1354777715;945408550;13367709723;26367345;670950862;0;0;0;0;0;0
3;115;1570830152175;1570830157541;5366;18739741524;64068023276;1354867319;928340871;13367709790;26385941;670949662;0;0;0;0;0;0
3;116;1570830157541;1570830162953;5412;18907872788;64068023355;1353862483;947568551;13367709869;26372349;670946809;46;10;4448;0;159;481
3;117;1570830162953;1570830168331;5378;18782275704;64068027705;1355948461;936973259;13367710963;26377584;670918753;0;0;0;0;0;0
3;118;1570830168331;1570830173724;5393;18838856106;64068023804;1351871127;943914666;13367710318;26354177;670928897;0;0;0;0;0;0
3;119;1570830173724;1570830179108;5384;18810782058;64068023795;1355190663;937845867;13367710309;26382954;670929560;0;0;0;0;0;0
3;120;1570830179108;1570830184515;5407;18886018632;64068022815;1353814940;942398421;13367709329;26372561;670972426;0;0;0;0;0;0
3;121;1570830184516;1570830189911;5395;18850128620;64068022710;1355252717;941965716;13367709224;26387685;670973256;8;1;72;0;10;35
3;122;1570830189911;1570830195326;5415;18913912516;64068023717;1355614621;942996843;13367710231;26360648;670954969;38;6;4592;0;79;352
3;123;1570830195326;1570830200681;5355;18709666984;64068023767;1353007093;938960869;13367710281;26378847;670918775;0;0;0;0;0;0
4;75;1570830746448;1570830751844;5396;18847608660;64068023812;1331413938;938727146;13367710326;25698056;670836583;0;0;0;0;0;0
4;76;1570830751845;1570830757571;5726;18853375514;64068023809;1334564923;927739496;13367710323;25679727;670862126;0;0;0;0;0;0
4;77;1570830757571;1570830763056;5485;18816005208;64068023797;1333046277;930448491;13367710311;25684199;670881681;0;0;0;0;0;0
4;78;1570830763056;1570830768661;5605;18882434624;64068023816;1334718992;928462338;13367710330;25693357;670845372;0;0;0;0;0;0
4;79;1570830768661;1570830774132;5471;18733426148;64068023777;1333272853;925843370;13367710291;25685539;670822703;9;0;80;0;2;18
4;80;1570830774132;1570830780434;6302;18873749376;64068023824;1333867956;931218608;13367710338;25716126;670866669;21;8;4240;0;63;155
4;81;1570830780434;1570830785834;5400;18858390760;64068026679;1334032096;932383568;13367710523;25704836;670871044;0;0;0;0;0;0
4;82;1570830785834;1570830791496;5662;18720220010;64068023282;1336022170;916071345;13367709796;25699530;670854198;0;0;0;0;0;0
4;83;1570830791496;1570830797279;5783;18788139648;64068023224;1338791642;927704847;13367709738;25721828;670879988;0;0;0;0;0;0
4;84;1570830797279;1570830802642;5363;18729623724;64068023283;1341024842;932486305;13367709797;25700775;670912079;8;1;72;0;2;9
4;85;1570830802642;1570830808136;5494;18835471096;64068023252;1341123322;939932434;13367709766;25688516;670900682;0;0;0;0;0;0
4;86;1570830808136;1570830813619;5483;18802728260;64068023266;1340696299;938828578;13367709780;25723710;670870910;0;0;0;0;0;0
4;87;1570830813619;1570830818986;5367;18751319324;64068023238;1340624153;938294957;13367709752;25697161;670874469;21;12;4304;0;61;150
4;88;1570830818986;1570830824365;5379;18783850898;64068027376;1340157665;937381931;13367710634;25689470;670861042;0;0;0;0;0;0
4;89;1570830824365;1570830829705;5340;18655079044;64068023759;1341243979;936645081;13367710273;25726688;670891173;0;0;0;0;0;0
4;90;1570830829705;1570830835118;5413;18793471130;64068023808;1339930112;936024477;13367710322;25708943;670837278;4;0;56;0;1;4
4;91;1570830835118;1570830840610;5492;18834397558;64068023812;1340002147;937382241;13367710326;25702908;670856038;0;0;0;0;0;0
4;92;1570830840611;1570830846208;5597;18822315766;64068023802;1333694364;926794816;13367710316;25694945;670900548;0;0;0;0;0;0
4;93;1570830846208;1570830851897;5689;18831241622;64068023117;1334444098;931534614;13367710217;25679864;670849026;18;16;4312;0;79;94
4;94;1570830851898;1570830857479;5581;18802643872;64068023790;1333832880;929445076;13367710304;25705864;670849115;0;0;0;0;0;0
4;95;1570830857479;1570830863075;5596;18846516580;64068027804;1334128945;925210480;13367711062;25689127;670810356;0;0;0;0;0;0
4;96;1570830863075;1570830868611;5536;18879368770;64068022743;1332924805;935225658;13367709257;25709593;670864182;0;0;0;0;0;0
4;97;1570830868612;1570830874074;5462;18735924500;64068023735;1334362134;917226777;13367710249;25739634;670836447;0;0;0;0;0;0
4;98;1570830874074;1570830879463;5389;18823762626;64068022756;1331952382;936944841;13367709270;25706752;670873896;7;2;72;0;10;24
4;99;1570830879463;1570830885045;5582;18800187860;64068022691;1335364161;922588937;13367709205;25718208;670870858;0;0;0;0;0;0
4;100;1570830885045;1570830890540;5495;18845375152;64068022705;1331456293;934629599;13367709219;25684329;670890001;23;6;4240;0;62;160
4;101;1570830890540;1570830896137;5597;18853217396;64068022710;1334540384;927098822;13367709224;25679748;670906634;0;0;0;0;0;0
4;102;1570830896137;1570830901509;5372;18760503162;64068026839;1331621698;934267984;13367710097;25707443;670816960;0;0;0;0;0;0
4;103;1570830901509;1570830906987;5478;18788324484;64068023198;1334162217;926663838;13367709712;25699369;670879861;0;0;0;0;0;0
4;104;1570830906987;1570830912388;5401;18865845958;64068023321;1333629200;936769605;13367709835;25716490;670894694;5;0;40;0;1;5
4;105;1570830912388;1570830917998;5610;18856477138;64068023660;1348256665;932886365;13367710174;25685540;670944528;448;20;47080;0;1590;1871
4;106;1570830917998;1570830923412;5414;18905157918;64068022659;1353623971;949199946;13367709759;25693241;670947325;0;0;0;0;0;0
4;107;1570830923412;1570830928824;5412;18901533906;64068023205;1357630356;923440502;13367709719;25707585;670899207;1;0;8;0;0;0
4;108;1570830928824;1570830934240;5416;18916414956;64068023327;1354132451;948715326;13367709841;25719225;670917968;0;0;0;0;0;0
4;109;1570830934240;1570830944393;10153;18965820626;64068033850;1342809285;932913297;13367711806;25703197;670925757;60;7;736;0;16;599
4;110;1570830944393;1570830949878;5485;18753215718;64068022953;1341847596;933546447;13367710053;25699860;670851726;22;24;6096;0;92;157
4;111;1570830949878;1570830955254;5376;18781159826;64068022701;1340909919;942576855;13367709215;25700116;670876567;0;0;0;0;0;0
4;112;1570830955254;1570830960621;5367;18745305292;64068023779;1340414018;931598712;13367710293;25696087;670884157;0;0;0;0;0;0
4;113;1570830960621;1570830966109;5488;18821289824;64068022732;1340602562;944168619;13367709246;25724334;670927021;0;0;0;0;0;0
4;114;1570830966109;1570830971455;5346;18675066736;64068023751;1340957971;930066961;13367710265;25688342;670869197;4;0;32;0;1;4
4;115;1570830971456;1570830976859;5403;18873055292;64068022750;1340902054;943602181;13367709264;25704338;670928418;0;0;0;0;0;0
4;116;1570830976859;1570830982333;5474;18774981106;64068022695;1342240049;935169253;13367709209;25692497;670882011;0;0;0;0;0;0
4;117;1570830982334;1570830987728;5394;18843356118;64068027741;1341710160;933343466;13367710999;25684050;670840662;23;17;4440;0;96;131
4;118;1570830987728;1570830993100;5372;18765310358;64068022779;1341709656;933154260;13367709293;25704136;670921073;0;0;0;0;0;0
4;119;1570830993101;1570830998460;5359;18721598980;64068022682;1339560095;942891277;13367709196;25707151;670945407;0;0;0;0;0;0
4;120;1570830998460;1570831003963;5503;18871243432;64068022724;1343518433;929373375;13367709238;25668719;670951633;0;0;0;0;0;0
4;121;1570831003963;1570831009363;5400;18862592494;64068023718;1341152640;943937321;13367710232;25695973;670862813;0;0;0;0;0;0
4;122;1570831009363;1570831014723;5360;18724953038;64068022791;1341740764;929568097;13367709305;25699649;670869669;0;0;0;0;0;0
4;123;1570831014723;1570831020229;5506;18886287710;64068022730;1340793835;943529940;13367709244;25689785;670909251;23;7;2776;0;138;824
4;124;1570831020229;1570831025560;5331;18618079286;64068027065;1341414066;933196537;13367710909;25692063;670875390;0;0;0;0;0;0
