0;76;1570860328016;1570860333138;5122;17895378702;64063183066;1370098239;797966406;13367709580;23600456;670772532;617;1255;913192;-9;5123;732513
0;77;1570860333138;1570860338085;4947;17281632808;64063182813;1384597480;633835907;13367709327;23592691;670742566;546;1441;916416;-19;4946;706470
0;78;1570860338085;1570860343317;5232;18274384336;64063183014;1362944992;875382384;13367709528;23596755;670813042;572;1651;981280;22;5232;605806
0;79;1570860343317;1570860348540;5223;18244600774;64063183004;1359180729;899718593;13367709518;23599909;670821963;553;1581;979032;-8;5223;751678
0;80;1570860348540;1570860353817;5277;18358945930;64063187012;1340170470;901286474;13367710270;23602599;670824559;568;1756;1026272;13;5278;756778
0;81;1570860353817;1570860359073;5256;18262931658;64063184136;1343241835;894010275;13367710650;23605509;670908857;763;1468;975832;1;5256;789104
0;82;1570860359073;1570860364296;5223;18152588070;64063184162;1345540016;877067270;13367710676;23595678;670901764;628;1334;882616;-20;5222;750773
0;83;1570860364296;1570860369422;5126;17823612548;64063183952;1347164365;830253369;13367710466;23600096;670868708;525;1646;900144;19;5126;731737
0;84;1570860369422;1570860374614;5192;18045267120;64063184034;1345156122;873671975;13367710548;23600837;670855324;549;1527;972824;-5;5192;748816
0;85;1570860374614;1570860383711;9097;17638559446;64063194192;1373021733;736387710;13367712200;23599312;670815286;950;2692;1774512;-94;9098;1269794
0;86;1570860383711;1570860389099;5388;18358986810;64063183670;1358894318;913501838;13367710184;23596568;670788449;859;1679;912992;100;5388;671020
0;87;1570860389099;1570860395681;6582;18429408450;64063195405;1356328726;920834590;13367712961;23593813;670923947;720;1734;1133048;-16;6582;946987
0;88;1570860395681;1570860400918;5237;18292005806;64063182346;1344849111;906943285;13367709446;23595231;670809314;550;1587;994256;-6;5237;750171
0;89;1570860400918;1570860406065;5147;17976547840;64063183092;1345388489;877837596;13367709606;23593612;670823021;519;1598;955016;-7;5146;737380
0;90;1570860406065;1570860411202;5137;17947587718;64063182927;1343048139;895102411;13367709441;23594967;670806583;534;1665;990920;10;5138;739751
0;91;1570860411203;1570860416347;5144;17966990096;64063183084;1345821181;877088862;13367709598;23595949;670800956;535;1867;1013152;13;5144;739844
0;92;1570860416347;1570860421639;5292;18127808074;64063183142;1345645982;884448635;13367709656;23595053;670823081;724;1734;1086936;-19;5292;787177
0;93;1570860421639;1570860426663;5024;17555856578;64063182822;1353378259;732280733;13367709336;23599631;670775342;617;1702;891080;23;5025;723716
0;94;1570860426664;1570860431601;4937;17248561764;64063182869;1357908041;653543286;13367709383;23591714;670756657;774;1002;686824;-15;4937;849432
0;95;1570860431601;1570860436792;5191;18109652098;64063187469;1351819761;830271862;13367710727;23598594;670800010;709;1184;749016;3;5191;521164
0;96;1570860436792;1570860442135;5343;18313817768;64063183660;1359863586;911008347;13367710174;23600138;670780149;578;1676;1000544;-2;5343;765784
0;97;1570860442135;1570860447382;5247;18332925810;64063183660;1358300214;919593798;13367710174;23592014;670791286;563;1729;1041320;13;5248;752256
0;98;1570860447382;1570860452655;5273;18411777636;64063183682;1360518478;914547530;13367710196;23600633;670809969;559;1705;1031184;-15;5272;755661
0;99;1570860452655;1570860457818;5163;18035617396;64063183575;1367955071;846591160;13367710089;23598758;670768753;539;1814;1009128;171;5163;751842
0;100;1570860457818;1570860463020;5202;17822465572;64063183522;1367773872;826562807;13367710036;23592930;670775189;818;3054;952840;-161;5202;818066
0;101;1570860463020;1570860468260;5240;18305269906;64063183650;1357557399;924639343;13367710164;23600747;670747294;600;1399;869360;8;5241;752387
0;102;1570860468260;1570860473347;5087;17763572092;64063187496;1374269018;754012276;13367710754;23602512;670751301;582;1432;915016;-12;5086;728702
0;103;1570860473347;1570860478441;5094;17796253462;64063183506;1372579040;774611675;13367710020;23598978;670768635;570;1464;956888;-13;5094;546316
0;104;1570860478441;1570860483718;5277;18437152144;64063183687;1360108089;915893339;13367710201;23601443;670773658;581;1684;1044664;2;5277;753906
0;105;1570860483718;1570860488986;5268;18400440152;64063183680;1359582601;918480179;13367710194;23595249;670811176;562;1711;1028552;15;5268;753500
0;106;1570860488986;1570860494207;5221;18237968724;64063183632;1358111043;912848141;13367710146;23597899;670783062;733;1562;962552;-16;5222;776211
0;107;1570860494207;1570860499384;5177;18077786430;64063183588;1361947458;881256425;13367710102;23598177;670769725;622;1348;891040;18;5177;742399
0;108;1570860499384;1570860504545;5161;18029931864;64063183571;1361537558;886074934;13367710085;23595984;670770758;524;1529;895584;-12;5161;740390
0;109;1570860504545;1570860509732;5187;18114221168;64063186812;1363756030;875159887;13367710070;23599550;670748155;547;1367;957688;-3;5187;743546
0;110;1570860509732;1570860515032;5300;18162407738;64063183006;1362261114;886365370;13367709520;23602919;670796865;560;1931;1044328;16;5299;759804
0;111;1570860515032;1570860520056;5024;17551635718;64063182950;1378653603;711503899;13367709464;23599870;670771605;518;1282;1008232;-6;5025;721027
0;112;1570860520056;1570860525085;5029;17568684430;64063182821;1380733256;697130167;13367709335;23590820;670756029;767;1400;907648;-40;5029;614889
0;113;1570860525085;1570860530562;5477;18432947782;64063182529;1359459619;919413189;13367709629;23600075;670818009;626;1531;929840;39;5477;771542
0;114;1570860530562;1570860535938;5376;18432548764;64063183072;1359140653;919333615;13367709588;23601502;670781571;559;1521;957640;-15;5376;771694
0;115;1570860535939;1570860541206;5267;18403998318;64063183200;1359532513;919526261;13367709714;23599524;670785055;560;1682;1003560;16;5268;756294
0;116;1570860541206;1570860546429;5223;18235276046;64063186753;1362317119;886164579;13367710011;23603176;670728032;545;1619;1021048;-1;5222;749104
0;117;1570860546429;1570860551613;5184;18109873288;64063183061;1362804449;882007859;13367709575;23601064;670801363;545;1654;1010504;163;5184;761231
0;118;1570860551613;1570860556805;5192;18138640836;64063182976;1363151012;880985205;13367709490;23598099;670801884;726;1650;1006936;-161;5193;793749
0;119;1570860556805;1570860561999;5194;18142196666;64063183035;1363011865;873644590;13367709549;23600239;670810853;612;1475;1024984;-4;5193;745049
0;120;1570860561999;1570860566939;4940;17260113284;64063182822;1381929179;661157097;13367709336;23589863;670725356;555;1412;865144;-11;4940;706660
0;121;1570860566939;1570860572121;5182;17753717822;64063182868;1375895318;747026879;13367709382;23593031;670775377;556;1555;919760;-5;5183;553486
0;122;1570860572121;1570860577371;5250;18341595144;64063183034;1358066007;923303649;13367709548;23595786;670827072;559;1556;977304;3;5250;748704
0;123;1570860577371;1570860582617;5246;18317348778;64063186185;1357431011;919394549;13367710029;23599396;670794691;574;1723;1030856;5;5245;752939
0;124;1570860582617;1570860587880;5263;18383521526;64063184358;1360886293;911285790;13367710288;23597088;670807097;735;1671;948064;15;5263;792799
0;125;1570860587880;1570860593083;5203;18175159816;64063183615;1363292619;884348037;13367710129;23598341;670791201;630;1320;904880;-22;5204;746374
1;78;1570861170604;1570861175924;5320;18232465254;64068023162;1365882435;850205855;13367709676;25502683;670829850;635;1907;1026000;-27;5320;763219
1;79;1570861175924;1570861180890;4966;17351994150;64068022905;1385106542;630172741;13367709419;25335765;670820868;537;1322;876112;7;4966;710443
1;80;1570861180890;1570861186036;5146;17967733966;64068025923;1365123950;825397183;13367709767;25296445;670835339;540;1476;966432;23;5146;613451
1;81;1570861186037;1570861191376;5339;18303284452;64068023177;1357855004;916146876;13367709691;25219381;670867648;576;1597;1015064;0;5339;764900
1;82;1570861191376;1570861196617;5241;18310058414;64068023178;1358249264;916081479;13367709692;25238466;670843773;562;1645;1036248;-18;5242;751529
1;83;1570861196617;1570861201862;5245;18327871874;64068023044;1357634361;917739647;13367709558;25206468;670805143;749;1605;943640;18;5245;802724
1;84;1570861201862;1570861207070;5208;18196749420;64068023125;1361236181;891708643;13367709639;25235029;670820793;616;1243;948640;-8;5207;750112
1;85;1570861207070;1570861212223;5153;18005899680;64068022963;1363775608;866077696;13367709477;25318950;670819068;564;1445;923056;-20;5154;742175
1;86;1570861212223;1570861217393;5170;18055258484;64068022970;1356252762;886567627;13367709484;25261166;670860356;544;1681;950704;0;5169;741101
1;87;1570861217393;1570861222633;5240;17961454068;64068022928;1368202462;815414907;13367709442;25356507;670817167;543;1514;1026664;1;5241;753892
1;88;1570861222633;1570861227588;4955;17309596188;64068026890;1383581484;642610204;13367710148;25189660;670847579;532;1390;980176;-41;4955;697151
1;89;1570861227588;1570861232818;5230;18267613732;64068023085;1361333912;884697455;13367709599;25326376;670876195;958;1451;875424;47;5229;665141
1;90;1570861232818;1570861238073;5255;18360550762;64068023123;1359250127;914065960;13367709637;25311275;670872133;595;1446;914640;13;5256;757385
1;91;1570861238074;1570861243328;5254;18351910920;64068023113;1359070342;916812882;13367709627;25311661;670864751;536;1537;947464;8;5255;753254
1;92;1570861243328;1570861248550;5222;18244819482;64068023081;1360026129;899602909;13367709595;25278326;670856479;534;1534;986200;-22;5222;748844
1;93;1570861248550;1570861253721;5171;18061793882;64068023044;1354649789;860388384;13367709558;25249353;670851858;536;1677;1016520;8;5171;743545
1;94;1570861253721;1570861258937;5216;18217634720;64068023062;1345817349;900171167;13367709576;25656006;670892534;541;1860;1023024;3;5215;747883
1;95;1570861258937;1570861264088;5151;17991397208;64068026938;1345711461;871608465;13367710196;25288611;670846334;818;1496;993448;-16;5151;798215
1;96;1570861264088;1570861269169;5081;17751931950;64068022870;1350135097;783537502;13367709384;25203112;670870807;611;1888;1015320;-2;5082;728216
1;97;1570861269169;1570861274103;4934;17234538318;64068022760;1358975183;633164430;13367709274;25338970;670822751;543;1178;857944;-59;4933;677774
1;98;1570861274103;1570861279334;5231;18270446132;64068023169;1345921106;890816287;13367709683;25148192;670872960;628;1703;983440;87;5231;546302
1;99;1570861279334;1570861284572;5238;18296263458;64068023174;1344552683;913797359;13367709688;25159697;670876622;553;1528;974448;-7;5239;751442
1;100;1570861284572;1570861289816;5244;18314300152;64068023158;1344804623;912853591;13367709672;25188533;670899958;569;1695;1056944;7;5244;752097
1;101;1570861289816;1570861295027;5211;18202856454;64068023013;1344030325;907914739;13367709527;25213310;670859497;763;1513;952480;-20;5210;783957
1;102;1570861295027;1570861300198;5171;18061613134;64068026581;1344689124;888880790;13367710425;25212561;670820945;591;1266;937200;17;5172;739791
1;103;1570861300199;1570861305337;5138;17944386522;64068023068;1345795238;872423340;13367709582;25342176;670873615;571;1445;887352;-26;5138;736588
1;104;1570861305337;1570861310521;5184;18016847052;64068023694;1347277608;855070669;13367710208;25431402;670959315;810;1203;711992;14;5185;794044
1;105;1570861310521;1570861315581;5060;17582907166;64068022834;1356839503;745984023;13367709934;25269256;670885577;624;1363;821888;1;5060;728699
1;106;1570861315582;1570861320543;4961;17256718638;64068023250;1369324285;618374508;13367709764;25341305;670917690;592;1220;841480;-16;4962;711975
1;107;1570861320543;1570861325758;5215;18129675414;64068023582;1351019906;833847089;13367710096;25346787;670906850;573;1483;961056;15;5214;572680
1;108;1570861325758;1570861331016;5258;18374470110;64068023068;1360122560;910336743;13367709582;25248418;670829218;586;1656;1040608;-10;5259;755763
1;109;1570861331016;1570861336271;5255;18347606986;64068026172;1358210519;915988320;13367710016;25228356;670848400;550;1672;1035784;26;5254;754661
1;110;1570861336271;1570861341508;5237;18294457876;64068023050;1360303452;900208232;13367709564;25211534;670846597;799;1602;992232;-8;5237;796613
1;111;1570861341508;1570861346749;5241;18312990094;64068023146;1359881773;904718391;13367709660;25269502;670820956;662;1230;922728;7;5241;753512
1;112;1570861346749;1570861351916;5167;18053254342;64068022988;1363843001;867150063;13367709502;25235217;670831223;563;1461;914400;-19;5167;743037
1;113;1570861351916;1570861357091;5175;18082738166;64068023072;1363223391;870845861;13367709586;25250037;670822539;532;1696;946392;15;5176;745008
1;114;1570861357091;1570861362180;5089;17779139926;64068023025;1369799516;779739332;13367709539;25214680;670818447;544;1509;994032;0;5089;729325
1;115;1570861362180;1570861367164;4984;17417428722;64068022920;1383090191;651478920;13367709434;25175642;670795277;534;1189;986696;-95;4984;641004
1;116;1570861367165;1570861372494;5329;18231503552;64068026006;1357985015;912349331;13367709850;25224436;670815520;776;1611;911656;85;5330;694909
1;117;1570861372495;1570861377739;5244;18324237934;64068023030;1358499211;915306848;13367709544;25228676;670830749;583;1351;896360;-7;5245;752922
1;118;1570861377740;1570861383006;5266;18397123762;64068023051;1359727074;914066241;13367709565;25181916;670893710;549;1518;974280;-5;5266;752533
1;119;1570861383006;1570861388208;5202;18171270668;64068022985;1361202976;887879771;13367709499;25149264;670857277;552;1637;984248;24;5202;745607
1;120;1570861388208;1570861393412;5204;18179398342;64068022991;1361470140;895112031;13367709505;25165652;670829784;548;1781;1026208;-4;5205;745583
1;121;1570861393412;1570861398627;5215;18217986872;64068022998;1362122872;888539460;13367709512;25558376;670849825;553;1598;1045832;-9;5215;749882
1;122;1570861398627;1570861403790;5163;18038275764;64068023010;1367603066;826171963;13367709524;25319377;670841787;747;1967;990480;11;5163;772267
1;123;1570861403790;1570861408846;5056;17656301220;64068025838;1373885441;746191312;13367709682;25170058;670795869;596;1229;1036768;-20;5056;725647
1;124;1570861408846;1570861413872;5026;17556823974;64068022806;1377524418;710171792;13367709320;25306067;670841805;571;1153;877288;-28;5026;577986
1;125;1570861413872;1570861419121;5249;18337980038;64068023094;1358851883;916069923;13367709608;25161312;670876484;576;1575;949144;31;5249;735010
1;126;1570861419121;1570861424366;5245;18319059752;64068024624;1360468263;905363088;13367709967;25215501;670876897;561;1525;983936;15;5245;753453
1;127;1570861424366;1570861429643;5277;18433147218;64068038388;1360063126;914905243;13367713066;25245672;670867569;565;1607;1044728;-21;5276;756335
2;76;1570861998418;1570862003676;5258;18279642672;64068023546;1342428337;891826821;13367710060;26363031;670950889;882;1488;867088;88;5259;712947
2;77;1570862003676;1570862008914;5238;18210386550;64068023522;1342029141;896472964;13367710036;26369870;670906844;605;1575;936840;6;5237;750843
2;78;1570862008914;1570862014177;5263;18295543240;64068023499;1341347540;907686803;13367710013;26384171;670883368;551;1570;974056;-7;5264;756197
2;79;1570862014177;1570862019398;5221;18147471354;64068023426;1342574161;890844360;13367709940;26370032;670913758;526;1543;986016;-14;5220;749581
2;80;1570862019398;1570862024632;5234;18183722424;64068027135;1345278369;876200747;13367710393;26384013;670865778;548;1584;1029744;-4;5234;750626
2;81;1570862024632;1570862029953;5321;18150988494;64068023379;1347780708;860431802;13367709893;26384873;670889706;569;1774;1074288;7;5321;763786
2;82;1570862029953;1570862035892;5939;18077228710;64068033488;1348263251;851733988;13367711770;26370821;670957936;878;2311;1222920;7;5940;895057
2;83;1570862035893;1570862040951;5058;17580251864;64068023380;1361896832;707075030;13367709894;26390370;670920763;625;1341;940072;-16;5059;724969
2;84;1570862040951;1570862045994;5043;17538177146;64068023416;1360589009;707127787;13367709930;26377333;670883652;545;1393;894376;-16;5042;575765
2;85;1570862045994;1570862051261;5267;18308057484;64068023527;1342101203;903791128;13367710041;26382666;670914269;572;1742;987912;40;5268;748324
2;86;1570862051261;1570862056540;5279;18348046154;64068023618;1342610616;905797935;13367710132;26388974;670923614;547;1615;981400;-2;5279;758502
2;87;1570862056540;1570862065192;8652;18428992350;64068035604;1347651371;913677461;13367713339;26377131;671098130;1121;2594;1612664;-23;8651;1291835
2;88;1570862065192;1570862070393;5201;18116148368;64068022489;1341928565;867400648;13367709589;26378730;670853525;596;1507;987632;12;5201;752615
2;89;1570862070393;1570862075551;5158;17939380474;64068023571;1349671923;836190851;13367710085;26428078;670897074;577;1366;907456;-1;5159;738818
2;90;1570862075552;1570862080838;5286;18039261410;64068023432;1347786552;855877291;13367709946;26391870;670934068;539;1594;937912;5;5287;759225
2;91;1570862080839;1570862085936;5097;17723771324;64068023473;1354906361;773628305;13367709987;26370244;670882395;540;1655;955088;4;5098;730491
2;92;1570862085936;1570862090956;5020;17453098420;64068023191;1366127229;664509459;13367709705;26379562;670862886;535;1357;994208;-51;5019;641161
2;93;1570862090956;1570862096202;5246;18231066136;64068023724;1342983072;897510065;13367710238;26390571;670930842;836;1506;926560;31;5246;755592
2;94;1570862096202;1570862101469;5267;18307955430;64068023547;1341758939;908248348;13367710061;26383143;670944327;583;1430;886512;25;5268;754220
2;95;1570862101469;1570862106727;5258;18358386458;64068027487;1353208009;911985981;13367710745;26395435;670830284;544;1534;947280;0;5258;753817
2;96;1570862106727;1570862111920;5193;18143141578;64068023603;1364217189;870862384;13367710117;26374173;670818388;535;1555;971544;-23;5193;742246
2;97;1570862111920;1570862117143;5223;18242634884;64068023632;1362598255;889451589;13367710146;26364652;670833463;546;1519;1030112;-2;5223;749429
2;98;1570862117143;1570862122335;5192;18135633966;64068023600;1361677457;890313217;13367710114;26367658;670875624;544;1687;1024440;0;5192;744994
2;99;1570862122335;1570862127519;5184;18112000362;64068023600;1363905985;877965067;13367710114;26394810;670836413;836;1574;865896;27;5183;792175
2;100;1570862127519;1570862132629;5110;17847758904;64068023521;1373138135;781987873;13367710035;26390677;670869863;699;1484;913080;-4;5110;733843
2;101;1570862132629;1570862137621;4992;17443401976;64068023404;1387217317;629869156;13367709918;26381396;670803646;612;1203;885608;-23;4993;713594
2;102;1570862137622;1570862142880;5258;18358626482;64068027354;1362322921;893252142;13367710612;26384617;670835814;576;1470;954880;8;5259;703634
2;103;1570862142880;1570862148139;5259;18366196144;64068023196;1359430262;918679373;13367709710;26387162;670892060;559;1613;973128;17;5259;753660
2;104;1570862148139;1570862153414;5275;18423438656;64068023210;1359613276;918996506;13367709724;26353763;670865509;548;1655;1014504;-4;5274;756063
2;105;1570862153414;1570862158646;5232;18277459534;64068023169;1361291713;901584145;13367709683;26371214;670844954;719;1567;952752;-13;5233;817048
2;106;1570862158646;1570862163822;5176;18081671198;64068023070;1364409332;868322096;13367709584;26375109;670897306;604;1436;989600;3;5175;761043
2;107;1570862163822;1570862168985;5163;18041759178;64068022984;1363886411;872479231;13367709498;26365657;670839291;613;1295;871192;-5;5163;739813
2;108;1570862168985;1570862174168;5183;18110213906;64068023088;1362935833;876101675;13367709602;26367835;670830860;561;1818;951816;15;5184;744210
2;109;1570862174169;1570862179264;5095;17796915718;64068026722;1373406183;766745589;13367709980;26402712;670858175;538;1465;987432;6;5096;730116
2;110;1570862179264;1570862184265;5001;17472713228;64068022804;1383147403;668108874;13367709318;26395203;670839696;548;1385;955840;-108;5000;594476
2;111;1570862184265;1570862189524;5259;18372905720;64068023185;1361925367;902794898;13367709699;26370635;670879861;843;1694;942824;96;5259;642261
2;112;1570862189524;1570862194811;5287;18472028186;64068023080;1360290548;918585562;13367709595;26350017;670889961;589;1359;901120;-13;5288;758850
2;113;1570862194811;1570862200063;5252;18350847748;64068023187;1357669196;925635557;13367709701;26389282;670857002;550;1585;956648;26;5252;752745
2;114;1570862200064;1570862205255;5191;18140436928;64068022291;1362030702;884419688;13367709391;26355280;670844797;538;1504;983320;-26;5192;746894
2;115;1570862205255;1570862210443;5188;18126117686;64068023120;1360076422;900993933;13367709634;26365802;670851504;545;1673;1034464;-1;5188;742002
2;116;1570862210443;1570862215672;5229;18260233870;64068026154;1363826710;882770427;13367709998;26390095;670797188;554;1849;1041880;22;5228;748749
2;117;1570862215672;1570862220837;5165;18050766210;64068022490;1362593311;878388006;13367709004;26395041;670870522;758;1582;1022448;4;5166;779599
2;118;1570862220837;1570862225918;5081;17751681998;64068023472;1376317461;742033775;13367709986;26380849;670846259;609;2036;1105696;-1;5080;731974
2;119;1570862225918;1570862230947;5029;17573315550;64068022366;1380609816;695102776;13367708880;26384710;670834056;593;1139;846552;-64;5030;584567
2;120;1570862230947;1570862236200;5253;18352685304;64068023633;1358027461;925174115;13367710147;26387035;670858497;573;1638;952320;37;5253;717621
2;121;1570862236200;1570862241465;5265;18387868822;64068022609;1358397644;924515126;13367709123;26379052;670894549;563;1638;1014952;13;5265;756380
2;122;1570862241465;1570862246747;5282;18453049792;64068022594;1359570211;921213319;13367709108;26400720;670889835;567;1731;1040560;9;5282;758060
2;123;1570862246747;1570862251996;5249;18332484452;64068026714;1362425438;896080547;13367709972;26373791;670782605;717;1515;964568;-16;5248;773343
2;124;1570862251996;1570862257193;5197;18158089204;64068023008;1362811559;882874070;13367709522;26385305;670839021;563;1489;1020984;13;5197;744989
2;125;1570862257193;1570862262346;5153;18008983784;64068023067;1366567973;850910222;13367709581;26366838;670828299;617;1384;887432;-9;5154;740943
3;78;1570862835718;1570862840778;5060;17588870244;64068023424;1361935362;707799516;13367709938;23589318;670836996;667;1242;993736;-13;5013;512933
3;79;1570862840778;1570862846040;5262;18295183788;64068023604;1342267013;904476020;13367710118;23591192;670866270;613;1450;915568;17;5262;737833
3;80;1570862846040;1570862854504;8464;18359092514;64068038908;1347804949;907853078;13367713797;23603447;670998427;894;2411;1565808;2;8464;1215816
3;81;1570862854504;1570862859893;5389;18324459270;64068023498;1344459763;894574358;13367710012;23596007;670854182;558;1772;1039272;18;5389;772391
3;82;1570862859893;1570862865101;5208;18102643514;64068023667;1348592258;854255586;13367710181;23597057;670885631;779;1486;923072;-27;5208;790577
3;83;1570862865101;1570862870280;5179;18004820448;64068023360;1346382994;857938011;13367709874;23590736;670851857;534;1678;1010840;10;5180;744422
3;84;1570862870281;1570862875438;5157;17933185986;64068023583;1347096791;856179311;13367710097;23595690;670850018;585;1137;938456;-9;5157;740875
3;85;1570862875438;1570862880545;5107;17762410224;64068023360;1355984143;764512223;13367709874;23592153;670837747;584;1759;880184;24;5107;732744
3;86;1570862880545;1570862885504;4959;17239725114;64068022636;1370389707;615451357;13367709736;23590745;670802690;516;821;952184;-77;4959;688461
3;87;1570862885504;1570862890780;5276;18336236068;64068023524;1344311693;898414576;13367710038;23592894;670896183;568;1694;981904;68;5276;687825
3;88;1570862890780;1570862896005;5225;18248022138;64068027172;1345176392;888645676;13367710430;23593404;670768319;825;1596;967136;-6;5225;786910
3;89;1570862896005;1570862901258;5253;18347907162;64068023078;1344259884;911716163;13367709592;23591849;670855211;606;1473;967232;2;5253;754826
3;90;1570862901258;1570862906440;5182;18104881840;64068023075;1344219169;896019732;13367709589;23591298;670821034;579;1357;915208;-3;5182;742150
3;91;1570862906440;1570862911627;5187;18110080754;64068023032;1350142553;886819406;13367709546;23591333;670811918;536;1628;944120;9;5187;746407
3;92;1570862911627;1570862916829;5202;18175053090;64068023087;1346223837;881037930;13367709601;23589864;670807744;548;1577;986760;-4;5202;747810
3;93;1570862916829;1570862922000;5171;18067834778;64068023019;1345833193;880669926;13367709530;23587532;670775923;542;1726;1005104;2;5171;743709
3;94;1570862922000;1570862927060;5060;17677491222;64068022936;1353858734;752660410;13367709447;23586294;670835164;704;1256;937232;10;5060;748574
3;95;1570862927060;1570862932059;4999;17459163698;64068027163;1355327854;703912952;13367710421;23589555;670750711;620;1754;1041520;-26;4999;651746
3;96;1570862932059;1570862937311;5252;18348803894;64068023664;1344907508;910752722;13367710178;23587874;670822727;585;1400;866976;13;5253;749791
3;97;1570862937312;1570862942556;5244;18319066614;64068023655;1344227500;912839114;13367710169;23592277;670827846;559;1551;975928;17;5244;749069
3;98;1570862942556;1570862947786;5230;18272400488;64068023644;1343195581;916312601;13367710158;23590964;670824827;558;1583;1005432;-14;5231;751371
3;99;1570862947787;1570862952965;5178;18091289678;64068023593;1346398945;881754781;13367710107;23589133;670805030;798;1225;746504;9;5179;845242
3;100;1570862952965;1570862958102;5137;17949724428;64068023548;1347152873;862190586;13367710062;23588562;670754241;646;1350;800376;3;5136;740497
3;101;1570862958102;1570862963247;5145;17968999202;64068023556;1349053003;853000553;13367710070;23586229;670812300;610;1311;891384;-2;5145;738930
3;102;1570862963247;1570862968390;5143;17963379662;64068027237;1346491893;859300099;13367710495;23587592;670737925;538;1391;933576;-26;5143;740478
3;103;1570862968390;1570862973396;5006;17488528094;64068022928;1353753903;726099597;13367709442;23588857;670753978;540;1607;935032;4;5006;718761
3;104;1570862973396;1570862978418;5022;17549811010;64068022818;1355198753;709228365;13367709332;23584158;670781241;544;1224;966656;-51;5022;555184
3;105;1570862978418;1570862983639;5221;18240901864;64068023154;1345208203;894092426;13367709668;23588600;670782807;738;1861;989184;96;5221;687604
3;106;1570862983639;1570862988859;5220;18236379076;64068022320;1341976151;919957213;13367709420;23590532;670799038;673;1131;887928;-32;5221;746235
3;107;1570862988860;1570862994107;5247;18331965860;64068023183;1344348255;914057103;13367709699;23590382;670773702;580;1504;899568;-3;5247;753043
3;108;1570862994107;1570862999279;5172;18068864516;64068022963;1343158600;902953191;13367709477;23591419;670803070;541;1555;959136;3;5172;740549
3;109;1570862999279;1570863004438;5159;18017465508;64068026086;1345165906;880629953;13367709930;23588228;670754684;543;1684;979184;1;5160;739537
3;110;1570863004439;1570863009591;5152;18000237800;64068022955;1344749226;882914524;13367709469;23591503;670792859;558;1643;1025400;-14;5152;737689
3;111;1570863009591;1570863014779;5188;18121310344;64068023103;1345910438;878687174;13367709617;23588389;670812087;664;1733;1021088;67;5188;763828
3;112;1570863014779;1570863019828;5049;17635709964;64068022861;1351580553;765717692;13367709375;23585716;670817578;602;1792;1030040;-53;5050;738521
3;113;1570863019829;1570863024818;4989;17431751322;64068022896;1355983388;677755093;13367709410;23587054;670767815;588;1095;955776;-26;4989;651783
3;114;1570863024818;1570863030101;5283;18448199818;64068023218;1345719597;910923594;13367709732;23591397;670817519;610;1484;927448;23;5283;753604
3;115;1570863030101;1570863035317;5216;18222216784;64068023156;1342956314;916331208;13367709670;23584319;670794575;560;1513;977288;-16;5216;747437
3;116;1570863035317;1570863040593;5276;18422126992;64068026162;1344942741;912244827;13367710006;23593030;670776261;551;1604;1009880;25;5276;759467
3;117;1570863040593;1570863045829;5236;18291129514;64068023647;1345637402;899475941;13367710161;23588890;670822796;727;1606;1000168;40;5236;784184
3;118;1570863045829;1570863050976;5147;17986855440;64068023559;1347520752;855886794;13367710073;23586838;670766519;566;1539;950928;-50;5147;742116
3;119;1570863050976;1570863056131;5155;18012800808;64068023568;1345559687;877316165;13367710082;23588167;670785202;597;1530;930880;11;5156;738764
3;120;1570863056132;1570863061287;5155;18015122646;64068023567;1348162663;840853984;13367710081;23585871;670765940;566;1214;924184;-22;5155;742421
3;121;1570863061287;1570863066304;5017;17524964730;64068023428;1352728926;736396174;13367709942;23588745;670738176;534;1541;928784;10;5017;721252
3;122;1570863066304;1570863071334;5030;17573232038;64068023442;1356035750;701913217;13367709956;23588008;670803197;568;1412;955264;-61;5030;550028
3;123;1570863071334;1570863076543;5209;18194622638;64068025991;1341681824;914973110;13367709835;23592605;670712515;597;1844;1019976;72;5209;676485
3;124;1570863076543;1570863081778;5235;18288825196;64068023172;1344137037;908052247;13367709686;23590363;670840488;793;1276;882848;-9;5235;781748
3;125;1570863081778;1570863087002;5224;18249830202;64068023698;1343265379;915885212;13367709626;23588763;670846724;574;1411;893696;2;5224;751909
3;126;1570863087002;1570863092187;5185;18115628316;64068024624;1343460254;900407615;13367709967;23589857;670826553;548;1525;973296;-4;5185;743576
3;127;1570863092187;1570863097344;5157;18015787968;64068038203;1344694436;877146354;13367712881;23587591;670856449;526;1517;963440;-14;5157;738706
4;81;1570863671106;1570863676308;5202;18091424290;64068024083;1351409628;816114716;13367710597;25722788;670888940;597;1349;957568;10;5203;698379
4;82;1570863676309;1570863681578;5269;18317032542;64068024180;1343082545;903411463;13367710694;25708513;670927084;604;1478;940256;-28;5269;754752
4;83;1570863681578;1570863686841;5263;18293665826;64068024087;1343310051;895810814;13367710601;25713629;670913554;548;1646;980008;28;5264;758274
4;84;1570863686841;1570863692090;5249;18247116062;64068024076;1344917443;887328566;13367710590;25682701;670902390;542;1631;978576;2;5249;753931
4;85;1570863692090;1570863697326;5236;18202647966;64068024047;1345227576;882461034;13367710561;25705330;670895729;552;1679;1025096;-3;5236;754503
4;86;1570863697326;1570863702531;5205;18092497974;64068024044;1347693099;860110824;13367710558;25723238;670872248;725;1584;984344;-23;5205;770290
4;87;1570863702531;1570863707738;5207;18105629068;64068024081;1347168804;864068891;13367710595;25696769;670893035;602;1310;965920;6;5206;746451
4;88;1570863707738;1570863712930;5192;18050289228;64068027625;1349944286;836603172;13367710883;25719941;670893023;591;1680;918472;17;5192;744178
4;89;1570863712930;1570863717901;4971;17291673520;64068023250;1370203543;620401308;13367709764;25712259;670879883;520;1150;897272;-8;4972;716037
4;90;1570863717902;1570863723049;5147;17893320248;64068023461;1354672670;783788115;13367709975;25701262;670919841;577;1509;991056;-8;5148;556716
4;91;1570863723049;1570863728306;5257;18273234878;64068023535;1341507379;908746924;13367710049;25678232;670926509;578;1610;1032560;-7;5257;752549
4;92;1570863728307;1570863733570;5263;18297673818;64068023642;1344697696;886983894;13367710156;25713806;670930707;790;1458;962008;3;5264;778652
4;93;1570863733570;1570863738838;5268;18309689910;64068023644;1342942598;902914722;13367710158;25679774;670960808;577;1360;887016;-1;5267;753131
4;94;1570863738838;1570863744051;5213;18128815328;64068023498;1346696877;868375914;13367710012;25702065;670909320;533;1567;943632;11;5214;749947
4;95;1570863744052;1570863749261;5209;18193090222;64068027372;1361425222;873192889;13367710630;25721560;670807192;553;1490;989200;-8;5210;746215
4;96;1570863749261;1570863754457;5196;18152642382;64068023607;1363960838;871767856;13367710121;25710410;670808536;540;1669;1011368;4;5196;744951
4;97;1570863754457;1570863759639;5182;18102511822;64068023591;1365479404;857488754;13367710105;25692440;670815726;549;1604;1039800;2;5182;743729
4;98;1570863759639;1570863764616;4977;17387530550;64068023387;1386498623;631540976;13367709901;25713397;670792197;747;1666;965904;-13;4976;745319
4;99;1570863764616;1570863769839;5223;18249335992;64068023636;1365076919;852310813;13367710150;25699602;670854205;637;1208;955832;0;5224;656169
4;100;1570863769840;1570863775118;5278;18436666986;64068023700;1359164286;922062021;13367710214;25707530;670825125;576;1526;937792;0;5279;755416
4;101;1570863775118;1570863780398;5280;18442424350;64068023690;1358670802;921768281;13367710204;25694498;670816740;551;1636;1001584;25;5280;760448
4;102;1570863780398;1570863785840;5442;18310984346;64068026655;1362597244;895377865;13367710499;25694478;670778922;582;1713;1065600;-6;5442;778662
4;103;1570863785841;1570863791052;5211;18208748138;64068023150;1362115969;890088357;13367709664;25711565;670807884;708;1886;966560;35;5212;776176
4;104;1570863791052;1570863796249;5197;18152453020;64068023129;1364415422;876097893;13367709643;25713349;670825970;557;1303;1008632;-41;5197;749399
4;105;1570863796249;1570863801534;5285;18109141390;64068022286;1364091880;874703475;13367709386;25689674;670868561;608;1460;951224;0;5285;757673
4;106;1570863801534;1570863806651;5117;17879453752;64068022910;1370884799;797200755;13367709424;25700688;670824339;570;1502;915904;6;5117;734738
4;107;1570863806651;1570863811604;4953;17304473632;64068022736;1385067012;635729877;13367709250;25690247;670787930;530;1269;910488;-37;4952;705094
4;108;1570863811604;1570863816844;5240;18305420140;64068023162;1365081421;863562813;13367709676;25692860;670838771;907;1085;673504;34;5240;670124
4;109;1570863816844;1570863822234;5390;18467919746;64068026209;1359225146;919990872;13367710053;25686442;670820642;679;1322;816104;6;5390;776198
4;110;1570863822234;1570863827482;5248;18338980138;64068023058;1360175202;910621912;13367709572;25688170;670840878;549;1628;1027504;-5;5249;754757
4;111;1570863827483;1570863832718;5235;18295466882;64068023142;1363788952;884956478;13367709656;25708417;670803501;533;1569;1017072;11;5236;749520
4;112;1570863832718;1570863837931;5213;18213428606;64068023035;1362067359;889747063;13367709549;25689991;670838088;556;1743;1026296;-12;5213;750564
4;113;1570863837931;1570863843141;5210;18203310660;64068023106;1361254068;895997564;13367709620;25683628;670811300;761;1697;1020296;1;5210;776487
4;114;1570863843141;1570863848355;5214;18212793652;64068023043;1364595538;876448614;13367709557;25709264;670809041;566;1822;1081280;10;5214;749659
4;115;1570863848355;1570863853496;5141;17962582940;64068023026;1370323017;808667167;13367709540;25718956;670799052;637;1114;935832;0;5141;736074
4;116;1570863853496;1570863858471;4975;17372821926;64068025850;1386213670;636234093;13367709694;25712061;670814072;558;1584;862232;-14;4975;712995
4;117;1570863858471;1570863863687;5216;18228319438;64068022588;1365072230;852559729;13367709102;25692617;670833947;577;1400;965072;-1;5216;653446
4;118;1570863863687;1570863868935;5248;18332645636;64068022559;1359003722;915427811;13367709073;25732218;670823821;567;1639;997400;9;5248;753368
4;119;1570863868936;1570863874210;5274;18424889020;64068022585;1359034784;919009440;13367709099;25716821;670869012;771;1653;982912;5;5274;793707
4;120;1570863874210;1570863879592;5382;18448921058;64068023615;1361483206;913228453;13367710129;25712645;670848058;562;1495;1029840;-16;5382;770603
4;121;1570863879592;1570863884801;5209;18202365748;64068022610;1364877968;874000783;13367709124;25667989;670833507;614;1306;868736;-6;5210;749790
4;122;1570863884801;1570863889983;5182;18105321446;64068022492;1364633875;866495139;13367709006;25706099;670803880;551;1617;937640;-6;5182;742509
4;123;1570863889983;1570863895170;5187;18109964246;64068026652;1361863761;883758987;13367709910;25698028;670762402;543;1443;981016;0;5187;747653
4;124;1570863895170;1570863900250;5080;17744110146;64068022894;1374777320;749152438;13367709408;25705755;670832878;533;1731;987712;11;5079;730777
4;125;1570863900250;1570863905279;5029;17571474636;64068022937;1379855479;699494059;13367709451;25729403;670803125;836;1470;969408;-15;5030;620774
4;126;1570863905279;1570863910561;5282;18451728346;64068024598;1360108565;916994599;13367709941;25700266;670861543;653;1413;917448;35;5281;749300
4;127;1570863910561;1570863915840;5279;18441233720;64068038453;1359994865;919734401;13367713131;25712046;670858812;550;1473;914288;-3;5279;757563
4;128;1570863915840;1570863921107;5267;18398532516;64068023077;1360163916;913361964;13367709591;25674004;670839225;540;1493;964160;-28;5268;757964
4;129;1570863921107;1570863926276;5169;18057993940;64068023082;1361842680;883029325;13367709596;25707569;670808484;513;1818;970088;31;5169;741283
4;130;1570863926277;1570863931609;5332;18269087602;64068025979;1361029560;900655008;13367709823;25697642;670779756;564;1654;1049496;-20;5333;766631
