0;80;1570958900028;1570958905547;5519;17675963478;53135751513;378774867;253874240;9743629502;1290755;170584703;307;1295;26400;-2;139;361
0;81;1570958905547;1570958911059;5512;17669682120;53135698492;382931711;253473724;9743614159;1259123;172546818;291;1312;26416;-1;141;341
0;82;1570958911059;1570958916571;5512;17669138270;53135776713;380135961;253879618;9743640138;1118426;171205980;425;1264;34864;5;286;2069
0;83;1570958916571;1570958922083;5512;17664315306;53135744736;378233563;253405852;9743629710;1187520;170219288;342;1262;26400;-4;127;397
0;84;1570958922083;1570958927597;5514;17674735910;53135757933;380354350;253708326;9743633756;1227755;171421635;372;1234;26472;-1;150;468
0;85;1570958927597;1570958933115;5518;17679811162;53135711603;382072122;253712525;9743611676;1319863;170750239;314;1283;26400;3;123;351
0;86;1570958933115;1570958938628;5513;17672758340;53135736831;383119285;253597828;9743626771;1256213;171849739;316;1287;26400;-3;138;368
0;87;1570958938628;1570958944141;5513;17662113334;53135759631;380789471;253576092;9743628038;1061961;172059677;374;1342;34544;1;198;2166
0;88;1570958944141;1570958949658;5517;17670415916;53135740849;382005499;253581801;9743628062;1196200;171303716;360;1242;26416;0;249;761
0;89;1570958949658;1570958955172;5514;17667928222;53135759284;379775667;253836261;9743635761;1078315;169868270;383;1217;26400;0;182;644
0;90;1570958955172;1570958960693;5521;17668564344;53135736206;380592207;253537956;9743626386;1212031;171526941;317;1289;26472;-1;160;399
0;91;1570958960693;1570958966219;5526;17672533500;53135761900;381270677;253738048;9743641519;1218894;171635576;286;1314;26400;0;150;376
0;92;1570958966219;1570958971732;5513;17678709884;53135720055;382397394;253654136;9743619367;1171422;171837541;305;1292;26400;3;174;476
0;93;1570958971732;1570958977256;5524;17669561524;53135726169;379850695;253733078;9743623633;1314672;170832804;452;1242;34624;0;325;1878
0;94;1570958977256;1570958982766;5510;17663812336;53135710655;377905012;253744237;9743616931;1156552;168684685;361;1239;26400;0;147;521
0;95;1570958982766;1570958988274;5508;17667687468;53135766275;381198645;253934787;9743638966;1210386;169807218;387;1217;26464;0;188;556
0;96;1570958988274;1570958993781;5507;17667137924;53135726836;381308852;254105576;9743624458;1091924;170428038;323;1277;26400;0;123;361
0;97;1570958993781;1570958999291;5510;17668820720;53135758586;380411278;253908226;9743635504;1314709;169705168;361;1242;26400;-3;149;495
0;98;1570958999291;1570959004801;5510;17675248954;53135757613;380671452;254192855;9743636764;1266400;169661147;425;1263;34696;1;331;1499
0;99;1570959004801;1570959010307;5506;17659990056;53135721890;378348012;253913835;9743625360;1109921;169849599;334;1265;26400;1;136;368
0;100;1570959010307;1570959015815;5508;17667721486;53135711242;380756025;253964102;9743615522;1170642;171171223;303;1296;26400;1;147;433
0;101;1570959015815;1570959021325;5510;17663085694;53135730823;379574360;253547905;9743625077;1186870;170752292;342;1266;26464;-4;281;675
0;102;1570959021325;1570959026840;5515;17667901066;53135746720;379123295;253847482;9743630883;1199676;169607179;356;1243;26400;1;137;420
0;103;1570959026840;1570959032390;5550;17808258020;53135766911;383452222;253797411;9743629578;1123453;172182236;333;1267;26400;0;145;453
0;104;1570959032390;1570959037942;5552;17816601774;53135745714;383714748;253858915;9743636670;1210646;171663333;417;1283;35208;1;272;1526
0;105;1570959037942;1570959043591;5649;17811615874;53135685985;382252900;254265501;9743611231;1239413;170917223;316;1284;26400;0;198;593
0;106;1570959043591;1570959049142;5551;17806372284;53135726585;381432845;253980606;9743621086;1281928;170251094;358;1247;26464;-1;143;444
0;107;1570959049142;1570959054698;5556;17812841982;53135711060;383341893;253959334;9743615661;1215105;171230723;296;1301;26400;3;134;394
0;108;1570959054698;1570959060250;5552;17809502378;53135723387;381099165;253947132;9743625880;1249918;170646939;358;1244;26400;-2;146;459
0;109;1570959060250;1570959065819;5569;17822138678;53135726185;381233292;253956448;9743622156;1126172;170990792;396;1286;34888;1;444;1590
0;110;1570959065819;1570959071363;5544;17802246908;53135751103;378565607;254012322;9743636496;1154725;170076918;321;1280;26400;-1;166;482
0;111;1570959071363;1570959076913;5550;17809305716;53135762740;378732304;253706349;9743633567;1183640;171507276;316;1284;26400;0;160;398
0;112;1570959076914;1570959082468;5554;17814341110;53135725055;378414091;254092294;9743630050;1201703;171028335;301;1304;26464;-1;149;404
0;113;1570959082468;1570959088022;5554;17812096214;53135710853;380075111;253732285;9743613814;1226505;170700008;309;1291;26400;0;148;403
0;114;1570959088022;1570959093574;5552;17809723568;53135720642;382012778;254191045;9743626577;1183902;169391701;355;1245;26400;0;194;606
0;115;1570959093574;1570959099126;5552;17807979598;53135720143;383825023;253650274;9743621482;1128453;172303637;402;1287;34624;3;300;1802
0;116;1570959099126;1570959104677;5551;17809727072;53135721541;379872014;253931033;9743626217;1376685;170866783;337;1264;26400;-1;158;453
0;117;1570959104677;1570959110225;5548;17799367204;53135733749;378171638;253955414;9743630357;1297659;169597023;349;1251;26400;0;156;518
0;118;1570959110225;1570959115777;5552;17806599168;53135761649;380326098;253916098;9743631954;1218461;170979368;312;1295;26480;-2;140;370
0;119;1570959115777;1570959121331;5554;17818529996;53135725745;382600393;253809468;9743633712;1292316;170754051;344;1255;26400;1;138;412
0;120;1570959121331;1570959126885;5554;17802676732;53135721386;380341678;253676216;9743621297;1065132;170030881;399;1269;34176;9;333;1394
0;121;1570959126886;1570959132439;5553;17816786172;53135698024;382142389;254085852;9743616678;1226639;170458306;358;1249;26400;-7;130;424
0;122;1570959132439;1570959137985;5546;17803225692;53135703411;383214275;253525767;9743616319;1175932;173404328;288;1312;26400;0;123;281
0;123;1570959137985;1570959143543;5558;17823539548;53135727615;382208683;253891918;9743627857;1193503;171040591;367;1240;26496;0;178;684
0;124;1570959143543;1570959149095;5552;17812979952;53135719770;382358799;253760251;9743622682;1265961;171850249;291;1308;26400;1;124;337
0;125;1570959149095;1570959154643;5548;17800765884;53135783958;380425965;254115505;9743643406;1260555;170203132;354;1247;26400;-1;158;439
0;126;1570959154643;1570959160194;5551;17810051192;53135753443;378412730;253996165;9743625903;1181168;170376920;453;1229;34848;-3;293;1362
0;127;1570959160194;1570959165749;5555;17805134496;53135783316;379318533;253795643;9743631150;1177185;170421099;326;1273;26400;1;160;503
0;128;1570959165749;1570959171298;5549;17803124076;53135705058;382954227;253856493;9743615389;1116345;173564833;319;1282;26400;-1;150;390
0;129;1570959171298;1570959176855;5557;17823741028;53135726422;383523059;253642786;9743627770;1127526;173490069;273;1333;26480;0;127;273
1;70;1570959703109;1570959709105;5996;19353687000;53398266207;381588487;253944516;9838793893;630357;180858320;305;1296;26400;-1;158;478
1;71;1570959709105;1570959715097;5992;19362532264;53398335682;384830120;253865417;9838817870;627813;178406853;342;1261;26400;-3;145;409
1;72;1570959715097;1570959721090;5993;19345950898;53398266310;382804575;253926593;9838789567;631446;179228298;328;1278;26480;0;142;384
1;73;1570959721090;1570959727085;5995;19353947610;53398286640;385438699;254062454;9838798794;627192;177095390;372;1225;26400;3;158;514
1;74;1570959727085;1570959733079;5994;19359345522;53398287815;383373303;253723345;9838794300;632407;180092313;399;1278;34680;-2;295;1441
1;75;1570959733079;1570959739066;5987;19314077054;53392738892;383611682;254047633;9838827601;627083;177339389;353;1248;26400;-1;158;499
1;76;1570959739066;1570959745038;5972;19275984048;53386430311;382560012;253428659;9838795744;632286;177000067;306;1290;26400;4;169;444
1;77;1570959745038;1570959751014;5976;19281082368;53386443370;383199143;253648480;9838800646;668877;174937919;372;1235;26472;-2;152;495
1;78;1570959751014;1570959756985;5971;19270305086;53386429070;384022893;253530147;9838801778;626939;176906751;311;1288;26400;1;151;390
1;79;1570959756985;1570959762955;5970;19281744186;53386429329;382624656;253590467;9838793897;628597;176110721;439;1254;34944;-1;275;1500
1;80;1570959762955;1570959768927;5972;19280975204;53386397024;384990203;253796137;9838783374;631317;176712513;327;1275;26400;-2;218;556
1;81;1570959768927;1570959774891;5964;19266986506;53386411594;380150304;253569089;9838790174;627901;176120884;298;1299;26400;3;176;483
1;82;1570959774891;1570959780860;5969;19266629390;53386457852;381856495;253908875;9838803425;628032;176480920;325;1283;26472;-3;144;395
1;83;1570959780860;1570959786832;5972;19274832254;53386414440;385590294;253565282;9838790028;630876;176785135;305;1295;26400;0;129;368
1;84;1570959786832;1570959792802;5970;19273729370;53386484461;380710386;253307987;9838812074;690734;176328124;424;1266;35008;0;262;1376
1;85;1570959792802;1570959798771;5969;19277410614;53386403914;385149798;253907926;9838783153;629546;176375169;347;1250;26400;3;138;427
1;86;1570959798771;1570959804740;5969;19278041772;53386430065;383629412;253389772;9838791603;629507;177099648;317;1285;26400;-2;160;404
1;87;1570959804740;1570959810711;5971;19273741488;53386411668;381226837;253707137;9838785113;630140;176809188;307;1298;26472;0;223;618
1;88;1570959810711;1570959816680;5969;19272200020;53386455219;381255195;253252348;9838803801;630758;177395717;299;1301;26400;0;127;333
1;89;1570959816680;1570959822653;5973;19272440482;53386420196;382820844;253747943;9838792722;623290;173075577;485;1199;34928;8;277;1664
1;90;1570959822653;1570959828622;5969;19270233984;53386470060;383934535;253804314;9838806979;629954;176220871;383;1224;26416;-5;167;595
1;91;1570959828622;1570959834593;5971;19275561086;53386438625;383662924;253508769;9838802455;629828;177103698;310;1294;26400;-4;139;365
1;92;1570959834594;1570959840575;5981;19283460124;53386444407;381852810;253887069;9838799083;629516;176022076;327;1278;26480;1;169;498
1;93;1570959840575;1570959846560;5985;19271526230;53386410129;381386891;253906537;9838784229;634905;175316760;762;1361;82024;0;2070;5128
1;94;1570959846560;1570959852525;5965;19264143448;53386418324;382543540;253454831;9838792014;627782;176891122;302;1299;26400;-1;140;357
1;95;1570959852525;1570959858497;5972;19265798212;53386427927;383346262;253842636;9838796412;624898;174239245;372;1228;26416;2;222;725
1;96;1570959858497;1570959864469;5972;19268315252;53386428000;383378890;253615517;9838793192;624906;175901792;337;1265;26400;-2;150;492
1;97;1570959864469;1570959870444;5975;19274050716;53386456411;384282853;253739127;9838808230;625487;175358929;368;1237;26472;0;154;483
1;98;1570959870444;1570959876421;5977;19276268164;53386498126;384973982;253670018;9838811866;621812;175621123;411;1186;26400;3;161;589
1;99;1570959876421;1570959882408;5987;19279909988;53386444107;381882834;253398762;9838801505;625595;175713435;467;1230;36816;-3;343;1704
1;100;1570959882409;1570959888377;5968;19278119444;53386419142;381017056;253952802;9838796777;628080;176620084;415;1263;27216;3;296;2132
1;101;1570959888377;1570959894351;5974;19279156044;53386422549;384247688;253592946;9838785433;623726;175058521;416;1187;26400;-3;152;552
1;102;1570959894351;1570959900323;5972;19281263262;53386431469;382442653;253729149;9838796484;628154;175392830;329;1281;26608;0;161;413
1;103;1570959900323;1570959906297;5974;19278276686;53386482439;386679098;253302915;9838803596;630800;181184489;304;1293;26400;3;132;351
1;104;1570959906297;1570959912260;5963;19251102436;53386421251;381894586;253043103;9838793995;627897;179448109;446;1274;36528;0;362;2737
1;105;1570959912260;1570959918229;5969;19268857204;53386430786;384612043;253101651;9838797817;627250;180902474;322;1280;26416;0;150;422
1;106;1570959918230;1570959924205;5975;19265759230;53386424820;385268326;253241839;9838793757;619517;177966630;436;1164;26400;0;153;584
1;107;1570959924205;1570959930179;5974;19268401976;53386376749;385785632;253023508;9838776226;619171;179883345;350;1253;26400;-3;144;435
1;108;1570959930179;1570959936152;5973;19274488716;53386399092;386186167;253098708;9838787217;621930;181581970;361;1245;26480;0;161;511
1;109;1570959936153;1570959942127;5974;19266624280;53386393217;385885711;252886965;9838786458;627948;181815260;441;1276;35856;1;332;2547
1;110;1570959942128;1570959948097;5969;19260701352;53386407127;381608866;252914114;9838788845;656638;183258396;295;1303;26400;2;138;372
1;111;1570959948097;1570959954066;5969;19270123754;53386414814;382055908;253049979;9838798816;624984;180676875;350;1252;26400;-2;138;430
1;112;1570959954066;1570959960030;5964;19251913904;53386411823;381535908;253280324;9838792464;626470;179817651;332;1269;26400;-1;150;408
1;113;1570959960030;1570959965995;5965;19262678776;53386426591;381977246;253429007;9838800976;622133;180136389;359;1248;26488;0;143;453
1;114;1570959965995;1570959971959;5964;19256293466;53386383033;382793723;252791458;9838778055;629361;182258823;373;1303;34800;2;363;1664
1;115;1570959971959;1570959977927;5968;19267600290;53386403631;381512486;253136199;9838790779;627922;182658262;316;1287;26408;-2;174;447
1;116;1570959977927;1570959983898;5971;19260978168;53386407785;383818797;252889412;9838787061;629364;181676477;321;1279;26400;0;206;507
1;117;1570959983898;1570959989863;5965;19258906282;53386447972;382643441;252622455;9838804464;624379;180891584;337;1260;26400;3;150;486
1;118;1570959989863;1570959995834;5971;19258338196;53386409354;385271203;253572564;9838790674;618837;177359710;429;1180;26488;-2;186;657
1;119;1570959995834;1570960001801;5967;19259072284;53386414657;384384851;252987756;9838794126;625233;179749819;405;1277;34736;0;251;1231
2;87;1570960564473;1570960569675;5202;16624071000;49182975584;368896879;245699667;8775733968;616003;169719713;331;1270;26400;-1;125;329
2;88;1570960569675;1570960574876;5201;16604325376;49182997062;370091572;246143327;8775739244;621809;168671551;309;1297;26480;-1;91;225
2;89;1570960574876;1570960580076;5200;16623076302;49182996777;372096447;245626740;8775743296;616072;170203741;322;1279;26400;-1;63;171
2;90;1570960580076;1570960585279;5203;16601133670;49182998161;370626203;245930348;8775744462;617969;168621197;331;1268;26400;1;94;277
2;91;1570960585279;1570960590471;5192;16598757082;49182975505;368326949;245984412;8775738998;616620;166687092;476;1244;35040;-2;355;2773
2;92;1570960590471;1570960595675;5204;16621670614;49182947330;368591878;245897335;8775723259;636846;167740456;296;1304;26400;0;101;257
2;93;1570960595675;1570960600872;5197;16624410158;49183006271;369805646;245185818;8775749431;619286;169742471;288;1308;26304;4;110;287
2;94;1570960600872;1570960606074;5202;16610680756;49182965542;371323961;246341960;8775729006;608775;165982048;360;1247;26480;-2;92;277
2;95;1570960606074;1570960611269;5195;16629239838;49183034201;373528654;245739079;8775758541;615883;169630598;344;1254;26400;2;112;351
2;96;1570960611269;1570960616482;5213;16620089726;49182952450;374758889;245767974;8775726751;618873;171609976;393;1309;35248;6;242;1765
2;97;1570960616482;1570960621682;5200;16632821510;49182938217;372294900;244953043;8775725840;615804;173591585;326;1284;26408;-9;131;434
2;98;1570960621683;1570960626885;5202;16598472820;49182973336;370101106;245556909;8775736867;615350;169543751;329;1268;26400;3;98;271
2;99;1570960626885;1570960632078;5193;16592886276;49182974764;372287103;246254429;8775735590;609975;165695195;375;1227;26400;-2;109;357
2;100;1570960632078;1570960637276;5198;16592165474;49182958133;371155333;246125453;8775725491;612733;165793175;321;1287;26504;-1;94;247
2;101;1570960637276;1570960642474;5198;16618760250;49182958001;374360711;245886445;8775730231;614418;170372842;316;1284;26400;0;78;213
2;102;1570960642474;1570960647690;5216;16599469854;49182964545;370607557;245585630;8775732495;620379;170682716;390;1306;34800;4;289;2237
2;103;1570960647690;1570960652902;5212;16655407710;49183024097;370434767;245853492;8775747515;611418;168966358;375;1229;26408;-3;168;686
2;104;1570960652902;1570960658115;5213;16650844042;49182956247;373552510;245175755;8775734619;614154;173424273;312;1289;26400;-1;106;281
2;105;1570960658115;1570960663329;5214;16668224028;49182961030;373732750;245559022;8775739113;705509;173746693;346;1252;26400;2;137;374
2;106;1570960663329;1570960668551;5222;16674865422;49182933269;372740349;244584002;8775716715;619118;179948944;285;1321;26480;0;91;205
2;107;1570960668551;1570960673756;5205;16630924970;49182995068;370866004;245769250;8775750805;615977;172230162;320;1282;26400;-2;109;299
2;108;1570960673757;1570960678974;5217;16639946164;49182930029;372430638;245658186;8775719072;614342;170621250;479;1228;34936;0;271;2051
2;109;1570960678975;1570960684173;5198;16627176858;49182996771;373164254;245811737;8775753875;611609;171363005;363;1237;26400;0;128;427
2;110;1570960684173;1570960689386;5213;16619491418;49182956394;373794051;245825985;8775727380;611144;169251363;346;1251;26400;3;115;347
2;111;1570960689386;1570960694596;5210;16666798338;49182948830;374248176;245876493;8775729234;612823;170542891;321;1288;26488;-2;168;486
2;112;1570960694596;1570960699821;5225;16653368528;49182956744;372520864;245004697;8775732567;659727;177259037;639;1373;70696;-1;1552;4569
2;113;1570960699821;1570960705045;5224;16655921192;49182970707;370812925;244941210;8775730229;621307;175799752;392;1335;33696;1;588;969
2;114;1570960705045;1570960710253;5208;16650968872;49182944257;370898697;244928628;8775728117;614474;175621069;306;1296;26408;-1;96;294
2;115;1570960710253;1570960715466;5213;16641005394;49182942969;371401546;245309007;8775722152;615457;174634759;317;1282;26400;1;102;280
2;116;1570960715466;1570960720670;5204;16622885480;49182977971;370846098;245783346;8775740102;617113;170319015;364;1233;26400;3;125;336
2;117;1570960720670;1570960725889;5219;16650970770;49182930807;374497490;245472743;8775725098;619029;172892076;296;1312;26488;-1;99;232
2;118;1570960725889;1570960731104;5215;16637951220;49182976005;373746398;245861617;8775743834;611840;170240198;396;1204;26400;0;116;490
2;119;1570960731104;1570960736318;5214;16623700452;49182964103;371724447;245505822;8775734812;612611;170203216;498;1234;36784;-2;331;2902
2;120;1570960736318;1570960741530;5212;16652973306;49182939723;374595306;245762063;8775721704;606013;174327247;432;1251;27216;-1;196;1752
2;121;1570960741530;1570960746746;5216;16667151366;49182969815;372069053;244887113;8775738913;617363;180677786;297;1299;26400;4;136;317
2;122;1570960746746;1570960751955;5209;16646322860;49182947016;370570533;245743952;8775727869;616575;174367942;331;1273;26400;-4;99;275
2;123;1570960751955;1570960757158;5203;16634610448;49182984132;369806938;245433019;8775745155;612911;173061105;348;1258;26480;0;92;307
2;124;1570960757158;1570960762373;5215;16665020496;49182944904;371624931;245493194;8775730001;619418;175873859;295;1302;26400;3;100;248
2;125;1570960762373;1570960767582;5209;16643866556;49182973399;371486991;245388515;8775732036;614941;173266538;423;1291;36688;-4;320;1925
2;126;1570960767582;1570960772796;5214;16669779074;49182966363;372320680;245445238;8775735717;618679;176595984;312;1289;26320;1;105;275
2;127;1570960772796;1570960778003;5207;16616376070;49183004297;372070270;245967281;8775742890;669754;167978576;387;1214;26496;-1;113;397
2;128;1570960778003;1570960783228;5225;16661869232;49183022531;373216954;246021680;8775746766;609824;167915355;395;1201;26304;4;106;389
2;129;1570960783228;1570960788440;5212;16645454306;49182894675;371273881;245338901;8775707310;611596;171515903;368;1239;26488;0;113;326
2;130;1570960788440;1570960793760;5320;16670265692;49182997206;373613973;245510761;8775748032;614902;172013149;453;1264;34992;-1;291;2385
2;131;1570960793760;1570960798973;5213;16663046138;49182912796;369488973;244874331;8775716067;614541;176038616;311;1289;26400;0;148;537
2;132;1570960798973;1570960804172;5199;16621274954;49182995469;369310823;245620818;8775753009;611281;171169908;341;1262;26416;-1;109;319
2;133;1570960804172;1570960809379;5207;16632229626;49182940809;371040339;245385268;8775724048;638005;173575967;304;1293;26400;3;121;317
2;134;1570960809379;1570960814589;5210;16659142682;49182929877;370237315;245718150;8775725615;614349;171481083;356;1246;26400;-2;98;288
2;135;1570960814589;1570960819806;5217;16648243782;49182945381;369283531;245959921;8775729363;683574;171199837;349;1259;26480;-2;107;301
2;136;1570960819806;1570960825012;5206;16643212330;49182954701;370591519;245342346;8775733700;615631;174847584;441;1265;34864;0;272;1809
3;80;1570961372838;1570961378343;5505;17635159836;52754221157;383866433;252541290;9708151336;641023;173459835;354;1247;26464;1;189;521
3;81;1570961378343;1570961383849;5506;17644152414;52754275016;381551423;251553030;9708166736;642577;177872171;426;1292;35448;-3;281;2212
3;82;1570961383849;1570961389356;5507;17655088252;52754282199;381659185;252085144;9708169020;643671;177821542;290;1310;26400;0;136;348
3;83;1570961389357;1570961394864;5507;17656069810;52754261806;385532727;251811199;9708163120;643426;178082495;358;1241;26400;1;132;409
3;84;1570961394864;1570961400473;5609;17641977890;52754258333;384671200;252426902;9708152243;642794;174846765;361;1243;26472;1;148;479
3;85;1570961400473;1570961405972;5499;17634165722;52754225218;382624079;252030755;9708152913;642735;176514821;316;1283;26400;1;123;358
3;86;1570961405972;1570961411475;5503;17644847812;52754240116;381726386;251667892;9708156298;643285;179110902;426;1313;35136;1;338;4088
3;87;1570961411475;1570961416985;5510;17651740764;52754260744;383096610;252101764;9708158991;645688;176089362;315;1284;26400;1;232;603
3;88;1570961416985;1570961422489;5504;17630388118;52754239529;384750042;252211732;9708164214;640299;174261263;369;1234;26400;-3;141;456
3;89;1570961422489;1570961427998;5509;17647195054;52754273369;385368958;252311682;9708165056;643662;175985987;353;1254;26480;-2;150;420
3;90;1570961427998;1570961433503;5505;17650103812;52754291876;386804406;252026836;9708174252;639996;176551396;344;1256;26400;0;153;515
3;91;1570961433503;1570961439011;5508;17648024918;52754226509;386293404;252154287;9708148346;643927;177196030;357;1243;26400;0;165;529
3;92;1570961439011;1570961444514;5503;17644464270;52754273669;383927350;251941472;9708164415;644808;177604352;441;1285;35456;2;479;3875
3;93;1570961444514;1570961450022;5508;17644213150;52754229003;384565255;252319757;9708150863;645030;175518141;302;1297;26400;1;148;478
3;94;1570961450022;1570961455523;5501;17635493446;52754289078;383410228;252106164;9708170272;641277;174721860;392;1211;26400;-3;216;747
3;95;1570961455523;1570961461036;5513;17657797282;52754243191;382650243;251671040;9708156024;643644;180644432;279;1325;26472;1;165;421
3;96;1570961461037;1570961466539;5502;17642066366;52754293147;381619953;252063019;9708174350;643189;178494349;274;1324;26400;2;112;257
3;97;1570961466539;1570961472037;5498;17631619482;52754262095;382949745;251783276;9708166293;639813;175906212;307;1295;26416;0;134;357
3;98;1570961472037;1570961477543;5506;17645034984;52754258518;381670838;252218360;9708164147;642037;175952406;482;1259;35120;-3;359;4994
3;99;1570961477543;1570961483048;5505;17637085576;52754267200;383633393;251856113;9708158404;641817;175197363;330;1267;26400;3;141;431
3;100;1570961483048;1570961488550;5502;17639831106;52754227361;382167829;252309116;9708155300;637782;176231508;362;1243;26472;0;199;504
3;101;1570961488550;1570961494075;5525;17649819258;52754225848;384126731;251755224;9708149802;650496;179366112;768;1382;78056;-1;1954;6759
3;102;1570961494075;1570961499680;5605;17637832658;52754276323;381677053;252372001;9708170018;643254;176050622;309;1293;26400;-2;166;409
3;103;1570961499680;1570961505193;5513;17676382060;52754296751;386438334;251885961;9708169073;638299;178142093;356;1246;26416;0;143;448
3;104;1570961505193;1570961510705;5512;17659737330;52754253623;383524467;251566010;9708163104;638008;177715679;331;1269;26400;0;128;392
3;105;1570961510706;1570961516216;5510;17669580358;52754191136;381867674;251660543;9708137734;642517;180453606;285;1312;26400;3;120;279
3;106;1570961516216;1570961521826;5610;17672383558;52754222125;382964770;251788149;9708153866;638988;177941186;322;1283;26472;0;159;446
3;107;1570961521826;1570961527346;5520;17677386832;52754247598;383205452;251611262;9708153090;641864;179969357;502;1250;37520;-2;455;6174
3;108;1570961527346;1570961532863;5517;17669214482;52754223117;384871862;251400941;9708157494;639637;178962484;307;1292;26400;1;147;420
3;109;1570961532863;1570961538371;5508;17658589478;52754258532;383389893;252041950;9708163354;637493;178804217;436;1243;27216;1;174;1845
3;110;1570961538371;1570961543983;5612;17674075260;52754248507;382615230;251674159;9708160988;643548;179903513;292;1309;26400;-1;121;294
3;111;1570961543983;1570961549493;5510;17659789452;52754233102;382863444;251585909;9708160923;637311;179319631;335;1273;26480;-2;146;418
3;112;1570961549493;1570961555005;5512;17667181432;52754220821;385408945;251869720;9708156072;637905;178651594;468;1275;36528;1;348;4040
3;113;1570961555006;1570961560524;5518;17673499436;52754192282;385163789;251370729;9708140983;657723;180147831;360;1241;26400;-1;160;509
3;114;1570961560524;1570961566037;5513;17679843720;52754236802;382358357;251677496;9708157733;642659;183074740;285;1315;26400;0;145;320
3;115;1570961566037;1570961571547;5510;17665192182;52754252846;382286598;251185846;9708160631;638352;179715303;346;1254;26400;0;136;396
3;116;1570961571548;1570961577063;5515;17666577138;52754227749;382855488;251824388;9708153424;638743;177615340;334;1263;26400;3;147;407
3;117;1570961577063;1570961582677;5614;17667837702;52754258570;386152373;251746031;9708167604;637391;177352414;355;1254;26488;-3;144;438
3;118;1570961582677;1570961588191;5514;17674992140;52754242099;386866093;251990294;9708158432;636864;177664683;506;1237;35824;3;338;4380
3;119;1570961588191;1570961593700;5509;17661239232;52754247909;385984124;251961718;9708166811;638344;176460046;347;1253;26400;0;170;591
3;120;1570961593700;1570961599212;5512;17658107970;52754208847;385426115;251894154;9708144563;643414;177042410;351;1250;26408;0;208;484
3;121;1570961599212;1570961604731;5519;17673129472;52754236202;384847604;251452887;9708157607;642412;179780201;321;1282;26400;-3;129;369
3;122;1570961604732;1570961610245;5513;17667942968;52754232090;386198971;251674400;9708155180;641979;178492002;316;1290;26480;0;136;370
3;123;1570961610245;1570961615774;5529;17671556906;52754243248;381780686;252134787;9708161584;639921;178223811;437;1292;35312;1;313;3012
3;124;1570961615774;1570961621286;5512;17665887288;52754226103;383515490;251515932;9708152295;641555;179120496;321;1279;26400;0;179;392
3;125;1570961621286;1570961626798;5512;17671039920;52754241279;381774469;251890365;9708164522;642941;178750237;311;1292;26504;-2;168;491
3;126;1570961626798;1570961632309;5511;17666961410;52754236681;384391382;251688275;9708149620;638761;179192922;357;1243;26400;0;150;443
3;127;1570961632310;1570961637822;5512;17662065446;52754312948;384022347;251887673;9708171597;640162;178390260;321;1276;26304;3;139;383
3;128;1570961637822;1570961643330;5508;17668870944;52754249614;381769887;251822449;9708154651;639870;178794682;317;1290;26480;-1;153;385
3;129;1570961643330;1570961648843;5513;17674525378;52754220608;381842420;252048788;9708156128;636123;178306021;492;1230;35280;-2;355;2933
4;83;1570962204067;1570962209461;5394;17292466592;49735177934;372819337;250078446;8820063850;638496;165936779;326;1276;26400;-2;180;455
4;84;1570962209461;1570962214860;5399;17296615620;49735208392;376117946;250318653;8820070709;637916;165010924;346;1252;26400;2;122;385
4;85;1570962214860;1570962220265;5405;17300543896;49735090631;375727533;250003402;8820033068;640155;164857946;330;1277;26472;-2;154;457
4;86;1570962220266;1570962225662;5396;17290071900;49735180491;376831752;250021106;8820066939;640865;165300623;320;1281;26400;-1;118;345
4;87;1570962225662;1570962231066;5404;17294549136;49735096713;375681717;250210372;8820040159;639329;165478436;341;1256;26400;3;130;388
4;88;1570962231067;1570962236467;5400;17296699716;49735197211;376581653;250017851;8820071764;639068;164439654;460;1239;35712;1;293;1995
4;89;1570962236468;1570962241873;5405;17294736892;49735153766;376921022;250223464;8820055722;641106;165589427;339;1264;26400;-3;126;361
4;90;1570962241873;1570962247271;5398;17290121394;49735177917;377032180;249891926;8820072867;639935;165859987;348;1253;26400;-1;119;385
4;91;1570962247271;1570962252677;5406;17291120910;49735159559;374247516;250315415;8820052540;635749;165247022;364;1241;26480;0;155;478
4;92;1570962252677;1570962258077;5400;17291454958;49735148253;375370296;249963581;8820059681;639623;165967196;343;1257;26400;0;118;364
4;93;1570962258077;1570962263486;5409;17300358038;49735130776;376743939;250040966;8820049709;636802;165226152;370;1231;26400;-1;148;508
4;94;1570962263486;1570962268888;5402;17298996880;49735177727;373242769;249842781;8820068456;641369;164542590;390;1295;34880;5;326;1511
4;95;1570962268888;1570962274290;5402;17289580902;49735126782;376293796;250249449;8820050361;636343;164613433;379;1224;26400;-3;162;585
4;96;1570962274290;1570962279684;5394;17295869560;49735230254;375235040;250057426;8820084285;636438;165245688;393;1209;26496;-2;168;613
4;97;1570962279684;1570962285076;5392;17286460736;49735126674;372762412;250133468;8820049243;638158;165370654;299;1302;26376;4;141;377
4;98;1570962285076;1570962290474;5398;17291865510;49735192069;372122540;250054097;8820064298;638777;164385235;341;1262;26400;-3;119;352
4;99;1570962290474;1570962295869;5395;17285661678;49735143289;373451291;249923478;8820054219;638815;164539975;414;1277;35056;3;301;1595
4;100;1570962295869;1570962301271;5402;17280116160;49735143012;376119720;250245116;8820061286;640965;165687338;357;1241;26416;4;147;496
4;101;1570962301271;1570962306670;5399;17294743024;49735178435;372274702;249737733;8820061385;638621;164261774;332;1271;26400;-3;132;405
4;102;1570962306670;1570962312067;5397;17293722192;49735127488;372488883;250257184;8820043524;638215;165070580;342;1267;26472;-4;164;509
4;103;1570962312067;1570962317474;5407;17319914592;49735196899;375401923;249706865;8820067460;637451;167135958;324;1274;26400;2;144;382
4;104;1570962317474;1570962322877;5403;17320261050;49735117566;372667789;250098842;8820048025;630945;164907292;375;1226;26400;-1;158;549
4;105;1570962322877;1570962328279;5402;17316557468;49735140132;373341133;249922611;8820059232;635653;166135486;434;1248;34624;-1;317;1489
4;106;1570962328279;1570962333687;5408;17320372302;49735156792;375262813;249876649;8820062808;636681;166736207;324;1276;26400;0;209;594
4;107;1570962333687;1570962339090;5403;17321517088;49735139016;372928545;250033285;8820058308;634721;165460838;369;1229;26400;2;187;600
4;108;1570962339090;1570962344503;5413;17314973368;49735109558;377526008;249860118;8820040624;637910;167448865;302;1305;26472;-2;128;319
4;109;1570962344503;1570962349910;5407;17322559090;49735148675;376766651;250077656;8820061544;637092;167323213;308;1292;26400;0;113;284
4;110;1570962349910;1570962355321;5411;17312879728;49735124109;375664074;249955026;8820046979;636748;166259431;401;1282;35184;1;276;1308
4;111;1570962355321;1570962360722;5401;17316885822;49735171314;373728243;250204225;8820069217;635004;167375635;333;1268;26400;-1;136;405
4;112;1570962360722;1570962366125;5403;17324193268;49735116046;376022215;249828610;8820050293;633767;166305704;376;1303;33888;2;336;2569
4;113;1570962366125;1570962371590;5465;17328529906;49735147643;376327928;250357433;8820065411;647986;165635922;1121;1424;267448;0;3755;11680
4;114;1570962371590;1570962376996;5406;17326897626;49735096267;376603095;249900479;8820039069;636859;166933286;311;1313;33768;1;246;542
4;115;1570962376996;1570962382400;5404;17316640834;49735114904;374048947;249905658;8820053387;637081;166604908;285;1318;26400;-3;126;299
4;116;1570962382400;1570962387809;5409;17324623384;49735107255;374480999;249709623;8820044903;637716;166631866;326;1273;26400;1;147;389
4;117;1570962387809;1570962393222;5413;17328350910;49735137738;375945074;249743896;8820062713;635592;166436056;379;1222;26400;-1;140;476
4;118;1570962393222;1570962398630;5408;17325413974;49735135405;372607877;249891900;8820050075;633809;165171884;338;1253;26400;9;166;560
4;119;1570962398630;1570962404043;5413;17318392834;49735125147;376747781;249802572;8820045176;635788;166541955;580;1233;38600;-8;492;4315
4;120;1570962404043;1570962409452;5409;17315384212;49735165479;374654217;250073341;8820059300;633977;166145848;366;1235;26400;-1;151;505
4;121;1570962409452;1570962414859;5407;17318625850;49735102597;375403580;249737747;8820047850;635834;166526857;323;1277;26400;0;152;441
4;122;1570962414859;1570962420259;5400;17315939158;49735128075;374136819;249974226;8820054767;633753;166014029;305;1295;26400;0;121;311
4;123;1570962420260;1570962425671;5411;17335396140;49735154811;377993778;249917291;8820064741;643526;167064096;291;1309;26400;0;107;270
4;124;1570962425671;1570962431069;5398;17314785904;49735113461;374152990;250190719;8820051079;629962;166564024;461;1249;36880;3;277;1982
4;125;1570962431069;1570962436472;5403;17310313924;49735141313;374010487;250126985;8820048128;633467;164797602;436;1174;26488;-3;161;638
4;126;1570962436472;1570962441878;5406;17328128698;49735188836;372939458;249982460;8820069475;634140;165281809;318;1278;26400;4;170;393
4;127;1570962441878;1570962447277;5399;17309778980;49735176812;372573000;250018998;8820060066;630500;164726964;385;1218;26400;-3;140;478
4;128;1570962447277;1570962452690;5413;17335295546;49735197633;376340288;249640555;8820071242;636933;167156889;316;1285;26400;-1;143;360
4;129;1570962452690;1570962458097;5407;17312716208;49735142624;377624379;250158778;8820059345;636001;167267723;335;1265;26400;0;123;359
4;130;1570962458097;1570962463507;5410;17320493044;49735139780;377437087;249687340;8820059996;635173;167003856;439;1243;35120;2;277;1653
4;131;1570962463508;1570962468915;5407;17320950316;49735127295;377377769;250154277;8820043583;634920;166745135;365;1246;26760;-4;178;492
4;132;1570962468915;1570962474315;5400;17317917604;49735167547;375096741;249758195;8820066680;633872;167334777;331;1264;26136;5;168;436
