0;79;1570971908401;1570971913946;5545;17797285098;52754609650;375403618;252639875;9719951621;645493;169963195;351;1246;26400;3;138;413
0;80;1570971913946;1570971919502;5556;17808939840;52754588090;375315206;252548856;9719933696;646676;169399835;509;1083;26416;9;210;1162
0;81;1570971919502;1570971925061;5559;17808237872;52754603380;376901737;252250642;9719943785;654442;169618085;839;773;26400;-12;283;2619
0;82;1570971925061;1570971930616;5555;17808830924;52754669104;375824600;252224489;9719958823;652374;169599118;340;1259;26400;1;150;498
0;83;1570971930617;1570971936280;5663;17795067358;52754627236;378868266;252561857;9719941690;649422;167782828;703;1199;46760;8;468;20690
0;84;1570971936280;1570971941943;5663;17816126106;52754645394;378893456;252545714;9719960046;652377;168087114;364;1244;26400;-8;173;640
0;85;1570971941943;1570971947499;5556;17802925662;52754633342;377849765;252377322;9719956368;651611;167691080;309;1293;26408;-1;181;467
0;86;1570971947499;1570971953051;5552;17801108838;52754560269;376894408;252290483;9719939387;650310;169082664;1003;584;26400;13;309;3209
0;87;1570971953051;1570971958711;5660;17805855882;52754584914;377362627;252442577;9719927969;649328;168247038;361;1249;26432;-9;207;723
0;88;1570971958711;1570971964271;5560;17813626148;52754622432;378622099;252436007;9719946837;655702;168345917;380;1225;26456;-1;174;560
0;89;1570971964271;1570971969833;5562;17823426106;52754652902;376191008;252210044;9719956440;651117;168841310;759;1217;56560;-3;614;25699
0;90;1570971969833;1570971975396;5563;17808504906;52754537635;378054639;252363148;9719922534;644948;168613743;377;1220;26400;3;162;515
0;91;1570971975396;1570971980955;5559;17798517630;52754603245;379299849;252441374;9719952622;653657;169176218;437;1153;26408;11;168;892
0;92;1570971980955;1570971986510;5555;17794025502;52754656752;375307703;252154531;9719961547;662449;167089299;893;718;26400;-11;284;2789
0;93;1570971986510;1570971992060;5550;17806718012;52754578248;377238165;252329940;9719942845;640541;168977666;404;1196;26400;0;156;572
0;94;1570971992060;1570971997616;5556;17803036038;52754596171;374514216;252080348;9719931774;643285;168906235;692;1183;47592;7;475;9941
0;95;1570971997616;1570972003175;5559;17818169814;52754585177;378947618;252388051;9719938170;642466;169510748;426;1184;26400;-10;208;796
0;96;1570972003176;1570972008836;5660;17824975312;52754658440;378080493;252275947;9719957984;647708;170042271;346;1254;26424;3;184;506
0;97;1570972008836;1570972014397;5561;17812212430;52754672356;377823501;252431967;9719954042;644893;168740188;1021;568;26400;11;298;3217
0;98;1570972014397;1570972019960;5563;17819602512;52754655112;376454621;252020052;9719963199;648654;169459082;369;1242;26400;-11;173;622
0;99;1570972019960;1570972025685;5725;17810883538;52754636067;376630600;252180699;9719956397;653770;170465595;1113;1262;98360;0;2975;34817
0;100;1570972025685;1570972031235;5550;17808009090;52754588928;377724006;252433278;9719944462;642374;168254588;392;1213;26664;-5;162;559
0;101;1570972031235;1570972036896;5661;17818520506;52754560629;376086669;252345577;9719925016;644816;167733487;611;975;26136;14;194;1475
0;102;1570972036896;1570972042458;5562;17807052352;52754594199;377742940;252531178;9719939661;643151;167723784;839;771;26408;-9;291;2571
0;103;1570972042458;1570972048004;5546;17784068302;52754640714;378779841;252192421;9719954364;641960;169025014;379;1224;26400;-3;144;494
0;104;1570972048004;1570972053547;5543;17763063866;52754565522;377630645;252331741;9719932009;639845;168757200;657;1355;62192;6;606;29240
0;105;1570972053547;1570972059195;5648;17775402764;52754624958;378692683;252145932;9719962100;642699;170455440;555;1127;27208;-4;246;2135
0;106;1570972059195;1570972064849;5654;17766230898;52754654328;379076584;251634647;9719951371;650125;170252872;473;1123;26400;4;185;883
0;107;1570972064849;1570972070487;5638;17751471028;52754570112;377786976;252241619;9719940845;643509;166935939;954;643;26416;5;310;2921
0;108;1570972070487;1570972076032;5545;17759562056;52754535677;378277340;252504544;9719920723;646705;166949838;455;1156;26400;-11;207;1048
0;109;1570972076032;1570972081573;5541;17751529136;52754566408;377577678;252347621;9719934558;650115;168806731;367;1227;26400;6;138;497
0;110;1570972081573;1570972087121;5548;17766009124;52754542752;374993875;251812133;9719934868;720702;170466443;632;1226;50616;-2;513;9721
0;111;1570972087121;1570972092671;5550;17764061192;52754584257;378367412;252413781;9719935376;650488;169190683;309;1294;26400;-3;135;368
0;112;1570972092671;1570972098315;5644;17759014264;52754604788;376870995;252110017;9719957231;650571;170453888;370;1219;26400;11;179;744
0;113;1570972098315;1570972103872;5557;17754021502;52754602155;378003205;252422228;9719947208;648884;167637514;930;682;26408;-11;304;3032
0;114;1570972103872;1570972109511;5639;17756163614;52754590685;377420974;252365760;9719942978;647679;169332546;348;1253;26400;-1;136;461
0;115;1570972109511;1570972115060;5549;17768480466;52754520623;377355446;252238216;9719914464;650370;169118539;573;1450;69104;14;615;27858
0;116;1570972115060;1570972120711;5651;17775311660;52754677293;379070424;252386277;9719958342;653249;170111604;452;1163;26464;-10;254;1127
0;117;1570972120711;1570972126256;5545;17760625082;52754587056;377215331;252230804;9719945800;664426;168340649;354;1247;26400;-1;139;421
0;118;1570972126256;1570972131803;5547;17753868494;52754580009;376968158;252349445;9719936341;648277;167874946;922;670;26400;8;276;2852
0;119;1570972131803;1570972137455;5652;17774880230;52754656178;378719758;252399029;9719969782;647625;168940830;454;1156;26400;-10;186;939
0;120;1570972137455;1570972142999;5544;17755435512;52754633962;377506286;252392947;9719951227;646700;167730323;423;1178;26400;-1;153;614
0;121;1570972142999;1570972148541;5542;17759375322;52754561034;377489264;252267910;9719938315;647613;168774770;670;1259;57648;0;614;12603
0;122;1570972148541;1570972154089;5548;17769475310;52754510896;377749821;252226160;9719913149;647006;170000593;364;1236;26400;0;171;580
0;123;1570972154090;1570972159640;5550;17773001502;52754640577;378477072;252313128;9719949365;648449;169292701;411;1176;26400;13;177;761
0;124;1570972159640;1570972165186;5546;17764263256;52754629843;377928919;252345182;9719955561;647637;168914995;988;623;26416;-10;298;2958
0;125;1570972165186;1570972170736;5550;17763250454;52754630919;379009658;252404840;9719944456;643760;168648956;383;1219;26400;-2;161;568
0;126;1570972170736;1570972176383;5647;17762149614;52754660730;377122016;252198609;9719967996;646363;169094326;579;1301;53488;13;513;12324
0;127;1570972176383;1570972182027;5644;17759047114;52754676908;377234843;252378893;9719962185;648391;167508589;456;1161;26464;-12;216;1039
0;128;1570972182028;1570972187565;5537;17750652114;52754581032;377761409;252260609;9719941055;646698;169741342;306;1296;26400;-2;178;387
1;84;1570972761429;1570972766782;5353;17080207704;49665087886;386708344;253042575;8813695408;681350;176094280;444;1165;26400;-9;168;834
1;85;1570972766782;1570972772140;5358;17063275792;49665112160;386352968;253245234;8813724950;677358;174232574;378;1226;26464;0;177;588
1;86;1570972772140;1570972777492;5352;17083522780;49665116613;383919411;252812915;8813724227;682071;179029979;911;681;26400;8;276;2911
1;87;1570972777492;1570972782853;5361;17089016614;49665061986;384788631;253005628;8813691741;680850;176664635;462;1146;26400;-8;183;1000
1;88;1570972782853;1570972788337;5484;17068667718;49665091107;385081921;252391538;8813713137;684471;177080458;528;1074;26408;-1;212;953
1;89;1570972788337;1570972793690;5353;17077213682;49665121881;386485380;252978950;8813721254;713131;176486303;739;1214;50480;-3;566;28416
1;90;1570972793690;1570972799040;5350;17067226260;49665090578;386372610;253180182;8813710647;677488;173896952;395;1200;26400;5;197;647
1;91;1570972799040;1570972804395;5355;17077833306;49665078567;384410674;252768600;8813704228;682017;176821775;323;1286;26464;-4;159;348
1;92;1570972804395;1570972809747;5352;17078574840;49665099332;383230906;252672657;8813713937;677765;177765338;1022;578;26400;0;295;3245
1;93;1570972809747;1570972815100;5353;17081194372;49665027493;384540144;252929056;8813683015;685673;176166779;397;1206;26464;-1;179;585
1;94;1570972815100;1570972820447;5347;17077798850;49665138254;382373522;252676584;8813726950;678869;177429572;386;1214;26408;1;146;484
1;95;1570972820447;1570972825795;5348;17089048150;49665127070;385244002;252766892;8813729942;680825;179205737;927;1227;60336;2;892;69214
1;96;1570972825795;1570972831148;5353;17085589410;49665087099;385080163;252778807;8813697015;680880;177841931;360;1240;26400;0;149;470
1;97;1570972831148;1570972836492;5344;17068183290;49665088650;384829669;252865700;8813711936;680148;175930429;390;1208;26456;6;138;567
1;98;1570972836492;1570972841838;5346;17072162520;49665107008;382336729;252597472;8813717873;674771;177132086;988;619;26432;-6;406;3564
1;99;1570972841838;1570972847189;5351;17089077934;49665127864;384691513;252543876;8813716903;683627;181927237;379;1224;26400;-3;136;501
1;100;1570972847189;1570972852563;5374;17094013610;49665078495;386687732;252909917;8813703123;683736;178962478;326;1284;31024;4;119;346
1;101;1570972852563;1570972857922;5359;17091240340;49665102710;385478291;252739280;8813715246;682937;180519352;914;1311;64944;-3;890;73349
1;102;1570972857922;1570972863270;5348;17072883176;49665043154;384059783;253060596;8813686278;678241;173701356;390;1208;26400;2;191;564
1;103;1570972863270;1570972868633;5363;17112933604;49665159826;387998377;252736113;8813730751;676417;180700240;662;932;26464;11;237;1821
1;104;1570972868633;1570972873996;5363;17114688816;49665152168;387000014;252554626;8813730484;681697;181478544;750;861;26400;-11;254;2208
1;105;1570972873996;1570972879360;5364;17110524458;49665046751;384991143;252047264;8813687878;680916;183088960;488;1113;26416;1;161;733
1;106;1570972879360;1570972884724;5364;17114487044;49665133556;386528633;251848240;8813722563;682613;184047835;782;1269;54960;10;799;59436
1;107;1570972884724;1570972890081;5357;17109139502;49665074739;383839873;251974617;8813710239;679061;183942354;529;1079;26400;-8;278;1323
1;108;1570972890081;1570972895447;5366;17113891510;49665092887;386230398;252490898;8813712515;683449;183876521;393;1219;26568;-7;205;631
1;109;1570972895447;1570972900816;5369;17123092868;49665095166;384804149;252757371;8813709075;678801;186533310;826;763;26304;11;244;2444
1;110;1570972900816;1570972906187;5371;17117797740;49665094226;383551553;252817188;8813707703;675899;183329186;507;1105;26464;-10;226;1330
1;111;1570972906187;1570972911573;5386;17121944870;49664993160;383672216;252663057;8813675741;684082;184524764;1315;1302;158200;0;3967;70834
1;112;1570972911573;1570972916968;5395;17115419546;49665069087;386187512;252838115;8813714282;689982;180219772;624;1369;171376;3;1355;5798
1;113;1570972916968;1570972922331;5363;17119700266;49665102871;386845487;252497892;8813719954;683433;183268206;548;1044;26400;8;174;1179
1;114;1570972922331;1570972927698;5367;17118159966;49665036865;386632033;252645952;8813684818;679595;182185913;811;804;26464;-11;264;2414
1;115;1570972927698;1570972933058;5360;17115570656;49665048934;383710393;252567005;8813705602;676048;183198502;330;1268;26400;2;142;399
1;116;1570972933059;1570972938420;5361;17113020912;49665062164;386957898;252808895;8813707410;680168;181269327;330;1269;26400;1;119;354
1;117;1570972938420;1570972943786;5366;17111524704;49665136027;385224276;252445343;8813721914;681636;183365783;914;1297;64240;-3;822;66590
1;118;1570972943786;1570972949150;5364;17098846794;49665063598;386146206;252839936;8813701100;675673;177985205;422;1175;26400;3;133;533
1;119;1570972949150;1570972954513;5363;17123664604;49665077124;386697434;252277622;8813709908;680212;186357964;318;1275;26400;7;137;417
1;120;1570972954513;1570972959879;5366;17113849316;49665014271;386806657;252553656;8813680729;679007;180543008;1037;574;26472;-6;335;3349
1;121;1570972959879;1570972965237;5358;17115138204;49665073974;384008152;252437713;8813713868;678549;182934262;390;1212;26400;-2;172;596
1;122;1570972965237;1570972970598;5361;17113235678;49665088530;386176944;252772430;8813716762;678163;181056651;351;1251;26400;-2;130;408
1;123;1570972970598;1570972975963;5365;17117848256;49665001229;383191352;252154015;8813678001;674597;184403215;835;1184;54200;3;669;39260
1;124;1570972975963;1570972981324;5361;17108810856;49665059871;385634118;252700670;8813707947;679405;180282737;334;1269;26400;-3;117;356
1;125;1570972981325;1570972986684;5359;17101969150;49665110613;385867641;252508661;8813716382;676196;181150605;707;898;26568;0;226;1927
1;126;1570972986685;1570972992048;5363;17107057250;49665121520;387319697;252698568;8813722221;676237;179932542;735;867;26568;-2;254;2113
1;127;1570972992048;1570972997416;5368;17113371458;49665145691;383874683;252271527;8813721337;682796;182894876;389;1209;26136;2;139;521
1;128;1570972997416;1570973002819;5403;17102246696;49665117210;383053639;252369783;8813714878;678891;181841124;657;1273;49984;6;605;24232
1;129;1570973002819;1570973008183;5364;17117324262;49665036309;383973483;252345158;8813689239;677586;185339403;372;1229;26400;-1;188;723
1;130;1570973008183;1570973013550;5367;17117171692;49665092948;385066621;252438685;8813715470;679286;182080935;362;1242;26400;-4;165;526
1;131;1570973013550;1570973018914;5364;17105176040;49665113980;386152201;252721512;8813718862;675726;180946029;976;617;26464;12;297;3112
1;132;1570973018914;1570973024281;5367;17120910606;49665078258;383701594;252125779;8813689597;680960;184805871;375;1237;26400;-12;168;705
1;133;1570973024281;1570973029642;5361;17105731424;49665068624;385618858;252619546;8813708836;675038;179223495;428;1170;26400;2;180;765
2;84;1570973602664;1570973607991;5327;17008286936;49941643020;378476230;253948132;9115460773;635364;168964433;375;1223;26400;2;157;534
2;85;1570973607991;1570973613322;5331;17014811968;49941681187;378751713;254043123;9115478817;641008;169655306;329;1277;26472;-1;127;355
2;86;1570973613322;1570973618654;5332;17010062150;49941595427;379248852;254178116;9115456761;636944;169556821;1014;587;26400;-1;302;3249
2;87;1570973618654;1570973623982;5328;17011042978;49941630234;382002509;254068279;9115458945;640652;169346487;359;1241;26400;0;152;544
2;88;1570973623982;1570973629331;5349;17018630452;49941604458;381287239;253903608;9115453652;638260;169547968;384;1215;26416;3;116;415
2;89;1570973629331;1570973634669;5338;17008388698;49941649786;381136356;253596421;9115483739;641477;169139354;702;1171;50168;-5;488;9781
2;90;1570973634670;1570973640010;5340;17007216610;49941665656;381148361;253575014;9115469119;645629;169287320;428;1171;26232;1;176;712
2;91;1570973640011;1570973645346;5335;17010371962;49941610044;381489918;253929242;9115457407;638138;168617542;357;1234;26368;14;139;454
2;92;1570973645346;1570973650675;5329;17010663962;49941667558;378528526;253681328;9115476041;634783;169056227;1018;592;26400;-10;306;3309
2;93;1570973650676;1570973656003;5327;17008337890;49941600599;378763125;253649149;9115453115;635992;169395897;421;1179;26400;0;173;720
2;94;1570973656003;1570973661333;5330;17014844672;49941680288;381164940;254091619;9115478657;639865;169353270;348;1256;26424;-2;148;423
2;95;1570973661333;1570973666663;5330;17004983248;49941618306;378516360;254118851;9115461490;636451;168573851;756;1203;53712;2;612;26049
2;96;1570973666663;1570973671987;5324;17010704550;49941646099;378675488;253972613;9115461800;638269;169588572;315;1286;26400;-1;114;313
2;97;1570973671987;1570973677309;5322;17005819974;49941624526;378702993;254172524;9115458628;632914;168729885;627;969;26472;9;236;1637
2;98;1570973677310;1570973682641;5331;17009787524;49941642423;378325302;253845925;9115482065;657797;168927073;776;834;26400;-10;267;2361
2;99;1570973682641;1570973687967;5326;17017704812;49941625891;378746546;254351242;9115460864;636359;169119977;416;1185;26400;-1;138;550
2;100;1570973687968;1570973693296;5328;17010687176;49941605413;378584360;254299059;9115457227;632870;168580680;478;1409;47240;8;370;9186
2;101;1570973693296;1570973698625;5329;17016114580;49941671758;378602275;254241310;9115482104;635343;168965568;536;1075;31888;-7;301;1724
2;102;1570973698626;1570973703953;5327;17015690450;49941669655;378611834;254146430;9115460413;638539;169496745;351;1248;26400;1;131;385
2;103;1570973703953;1570973709291;5338;17051020260;49941727317;378678291;254244505;9115487173;633492;169004082;852;742;26472;11;264;2531
2;104;1570973709291;1570973714634;5343;17061564526;49941576457;378560823;254083204;9115453272;636552;169720594;532;1083;26664;-15;203;1201
2;105;1570973714634;1570973719979;5345;17043952692;49941614704;378560096;254139829;9115454755;635879;168823118;426;1169;26136;5;179;649
2;106;1570973719979;1570973725317;5338;17052242134;49941606795;378676759;254183361;9115454353;633347;169563822;716;1210;50688;3;549;22118
2;107;1570973725317;1570973730656;5339;17048405254;49941644172;378990477;254124541;9115481700;691411;168918912;492;1271;41416;-4;396;3341
2;108;1570973730656;1570973736016;5360;17054893786;49941707446;381643256;254042829;9115491148;642971;169639415;872;1199;81840;-2;2641;12300
2;109;1570973736016;1570973741389;5373;17050459620;49941619759;378929920;253715351;9115457607;637586;169298411;959;633;26496;13;318;3151
2;110;1570973741389;1570973746740;5351;17052067080;49941664308;380348445;253312789;9115473351;638026;169798191;416;1192;26400;-8;159;747
2;111;1570973746740;1570973752084;5344;17048156178;49941618576;382022017;254023519;9115457916;638389;169218835;457;1146;26408;-2;150;654
2;112;1570973752084;1570973757427;5343;17056208808;49941588567;382407483;253832025;9115457646;637617;170459400;293;1311;26496;-4;114;282
2;113;1570973757427;1570973762778;5351;17053281216;49941643693;381869820;253985259;9115468819;638295;169702722;336;1261;26304;3;112;347
2;114;1570973762778;1570973768129;5351;17056178294;49941606861;380052759;253778767;9115455074;638620;169811084;828;1341;64992;1;760;43365
2;115;1570973768129;1570973773474;5345;17051763838;49941597332;382145990;253870363;9115454691;639016;170085870;374;1227;26400;-1;140;448
2;116;1570973773474;1570973778819;5345;17052616332;49941668338;378244182;253299177;9115489174;638604;170310999;470;1119;26400;11;146;759
2;117;1570973778819;1570973784158;5339;17046679096;49941602678;378504085;254167776;9115457657;632147;168134761;1012;599;26408;-10;326;3269
2;118;1570973784158;1570973789506;5348;17056878656;49941621872;378845284;254139477;9115459101;633538;169770742;443;1158;26432;0;157;674
2;119;1570973789506;1570973794850;5344;17059313060;49941643202;378006410;253757500;9115472796;633508;169372587;355;1245;26400;0;115;332
2;120;1570973794850;1570973800189;5339;17056876028;49941588046;378212099;253596720;9115449984;636890;170435604;694;1258;55408;-2;655;20641
2;121;1570973800189;1570973805540;5351;17055346532;49941658864;378290771;253838410;9115475082;668425;169701304;312;1288;26400;0;118;310
2;122;1570973805540;1570973810880;5340;17051225390;49941618313;378555305;254179231;9115461461;634865;169101805;712;877;26400;11;212;1874
2;123;1570973810880;1570973816218;5338;17048481320;49941608601;378317247;254037218;9115453557;632281;168632981;680;932;26400;-12;224;1903
2;124;1570973816218;1570973821552;5334;17051349928;49941605881;378658541;254215738;9115453570;633585;169019572;428;1172;26400;0;148;582
2;125;1570973821552;1570973826898;5346;17056797188;49941650058;378751674;253983940;9115482544;634182;170291623;558;1303;47344;9;435;14172
2;126;1570973826899;1570973832242;5343;17053764914;49941615171;380638260;253930743;9115458674;638053;169054372;477;1138;26504;-9;237;1031
2;127;1570973832242;1570973837596;5354;17057888538;49941725218;382585288;254004767;9115481150;639029;169509160;330;1271;26432;0;121;351
2;128;1570973837597;1570973842944;5347;17053860252;49941669154;382908267;254121674;9115482090;656030;168939669;958;633;26400;9;274;3022
2;129;1570973842944;1570973848288;5344;17054131374;49941579443;383135658;253946844;9115446329;638678;170499643;375;1233;26400;-8;163;715
2;130;1570973848288;1570973853632;5344;17056000466;49941639008;380434205;253755246;9115475771;635625;170017647;405;1196;26400;-1;132;518
2;131;1570973853632;1570973858979;5347;17054820932;49941625669;380955880;253781925;9115467200;636438;169819395;781;1307;66680;4;724;45922
2;132;1570973858980;1570973864326;5346;17055437344;49941595035;381125299;253854291;9115449038;637410;169603907;336;1268;26400;-4;154;496
2;133;1570973864327;1570973869670;5343;17057293150;49941560301;378068046;253678711;9115445385;630559;169289230;377;1223;26400;0;120;412
3;69;1570974414309;1570974420332;6023;19371615654;53703746849;381614029;253638455;9862491331;651304;168382796;809;1265;68336;0;716;38592
3;70;1570974420332;1570974426334;6002;19359941494;53703748958;378654870;253172107;9862492034;647438;168374150;436;1164;26400;0;167;710
3;71;1570974426334;1570974432333;5999;19366911972;53703810244;377616835;253935338;9862520978;650402;168028586;582;1013;26472;11;246;1482
3;72;1570974432333;1570974438335;6002;19364897610;53703752604;377633217;254104081;9862495319;647343;168233495;793;815;26400;-8;287;2347
3;73;1570974438335;1570974444344;6009;19375333690;53703724078;377886270;254248197;9862479659;644580;168582961;392;1209;26408;0;213;630
3;74;1570974444344;1570974450345;6001;19363698950;53703733300;377901509;254328855;9862485992;642752;168351645;755;1174;55472;0;601;20986
3;75;1570974450345;1570974456349;6004;19370101780;53699669407;378377749;253849436;9862525968;715604;169173836;344;1259;26400;-3;162;448
3;76;1570974456349;1570974462350;6001;19352656678;53694841352;378983592;253326601;9862492138;775287;169657083;465;1131;26472;10;226;1077
3;77;1570974462350;1570974468357;6007;19341115524;53694856435;382454820;252539828;9862495439;767018;170162450;939;671;26400;-10;296;2837
3;78;1570974468357;1570974474457;6100;19363334242;53694883790;379739248;253118608;9862494532;810779;169721165;295;1304;26400;1;130;323
3;79;1570974474457;1570974480459;6002;19366411922;53694834150;381817278;253321742;9862484766;744841;169720456;679;1269;54480;-1;582;20944
3;80;1570974480459;1570974486457;5998;19356343616;53694885428;380987502;253094796;9862504151;787212;169702854;301;1299;26400;0;171;470
3;81;1570974486457;1570974492453;5996;19351347642;53694836262;378206339;253043657;9862491394;738115;169305894;362;1233;26472;11;187;624
3;82;1570974492453;1570974498455;6002;19358863722;53694811267;381862394;253253162;9862467153;757509;169461314;971;639;26400;-10;288;3015
3;83;1570974498455;1570974504553;6098;19360084428;53694876587;381583822;253202981;9862496751;748651;169580949;420;1180;26400;0;167;630
3;84;1570974504553;1570974510680;6127;19356750956;53694881470;381986237;253229776;9862492804;775730;170060415;635;1249;54424;-1;577;11810
3;85;1570974510680;1570974516681;6001;19366871968;53694924986;380850803;253274587;9862510334;840801;169074539;376;1224;26400;0;140;486
3;86;1570974516681;1570974522692;6011;19364640942;53694861374;381012596;253195164;9862489167;804471;170109334;320;1285;26464;0;159;430
3;87;1570974522692;1570974528692;6000;19357419344;53694868184;380925754;253326353;9862495804;840751;169353632;1008;593;26496;-1;314;3153
3;88;1570974528692;1570974534694;6002;19355904010;53694796939;378472116;253121258;9862465872;884678;168868332;341;1257;26304;2;141;423
3;89;1570974534694;1570974540696;6002;19364844174;53694878659;378223431;252920471;9862495449;809771;169748939;631;1244;49528;2;489;10411
3;90;1570974540696;1570974546693;5997;19347451048;53694892320;379462684;252981239;9862508092;735742;169806264;325;1276;26400;-1;170;554
3;91;1570974546693;1570974552693;6000;19356982220;53694798596;381343075;253297528;9862467475;799540;169917114;317;1291;26472;-2;164;404
3;92;1570974552693;1570974558795;6102;19358453754;53694921496;381676511;253199810;9862506633;840448;169951538;1032;569;26400;-1;316;3358
3;93;1570974558795;1570974564797;6002;19343917410;53694882951;380005062;252431428;9862502143;786331;169469852;526;1062;26432;13;236;1065
3;94;1570974564797;1570974570806;6009;19358574496;53694862200;382483349;253062599;9862491470;839011;170108922;762;1215;61680;-1;605;22653
3;95;1570974570806;1570974576829;6023;19357094932;53694846171;381181593;253237732;9862481999;806913;169514465;966;1374;92088;-11;2165;28503
3;96;1570974576829;1570974582828;5999;19360918234;53694883357;379531707;253140278;9862502933;764632;169192722;347;1258;26480;1;151;447
3;97;1570974582828;1570974588842;6014;19355906200;53694801274;380028626;252569338;9862468052;795104;170548123;1024;574;26400;2;319;3211
3;98;1570974588842;1570974594835;5993;19349023030;53694927507;379766363;253090919;9862517537;852464;169604630;350;1252;26400;-2;194;560
3;99;1570974594835;1570974600834;5999;19348057970;53694901475;380452798;253125008;9862506819;713698;169752150;356;1245;26472;2;167;509
3;100;1570974600834;1570974606848;6014;19372320834;53694835281;381848040;253145711;9862469396;812384;170260814;727;1283;59184;0;671;39426
3;101;1570974606849;1570974612853;6004;19357091574;53694802363;383005929;253341483;9862473511;825309;169809547;429;1257;27264;-3;230;1834
3;102;1570974612853;1570974618851;5998;19352118230;53694878725;381319974;253230372;9862507439;749947;169427658;341;1258;26400;1;150;494
3;103;1570974618851;1570974624849;5998;19334718680;53694887438;382335354;253148385;9862491056;797481;169526905;1006;596;26432;-1;321;3228
3;104;1570974624849;1570974630847;5998;19319775434;53694810277;382888998;253235150;9862477622;756678;169656994;381;1220;26408;0;205;650
3;105;1570974630847;1570974636846;5999;19335314652;53694848247;382882429;253497724;9862498375;749396;168816914;725;1360;68528;12;633;35253
3;106;1570974636846;1570974642837;5991;19316996178;53694834911;382732469;253314230;9862476512;821812;169401436;417;1193;26400;-10;265;999
3;107;1570974642837;1570974648827;5990;19322561698;53694908149;382556155;253260258;9862513322;769150;168608435;400;1208;26480;-2;166;625
3;108;1570974648828;1570974654822;5994;19327182744;53694845216;381900299;253304717;9862494221;818105;168849577;980;607;26400;13;318;3129
3;109;1570974654822;1570974660819;5997;19321648176;53694825810;381480331;253214294;9862475567;801307;168597224;356;1261;26528;-13;243;791
3;110;1570974660819;1570974666816;5997;19329447350;53694825940;382708887;253295683;9862482167;770096;169048162;570;1445;54400;87;437;38653
3;111;1570974666816;1570974672817;6001;19333365990;53694875597;382829911;253350923;9862503444;803438;169479181;586;1105;36304;-87;433;11143
3;112;1570974672817;1570974678811;5994;19325331610;53694802550;382248372;253281800;9862473512;855109;169868359;305;1299;26456;0;156;555
3;113;1570974678812;1570974684808;5996;19327735062;53694850209;379821731;253225869;9862483965;778333;168570792;877;713;26400;10;267;2641
3;114;1570974684809;1570974690801;5992;19315740578;53694916926;381490642;253316441;9862511948;786835;168965754;510;1101;26408;-10;201;1152
3;115;1570974690801;1570974696795;5994;19330464532;53694788199;382696723;253244809;9862467630;744707;169163906;447;1152;26400;1;161;673
3;116;1570974696795;1570974702794;5999;19326587940;53694879111;383077828;253176029;9862508714;781650;169298737;789;1247;61680;-1;745;37412
3;117;1570974702794;1570974708789;5995;19319657612;53694844188;382322747;253385837;9862495401;809642;169086441;329;1272;26456;3;171;444
3;118;1570974708789;1570974714786;5997;19321946308;53694810910;380841059;253241504;9862472218;778801;169471705;742;852;26400;6;235;2140
4;75;1570975275824;1570975281542;5718;18351540226;51008508887;376608728;254938622;9314007639;627134;169995827;885;709;26488;11;273;2686
4;76;1570975281542;1570975287256;5714;18355608516;51008581862;381068858;254669899;9314043036;629768;171953765;492;1120;26496;-12;185;1115
4;77;1570975287256;1570975292969;5713;18360324462;51008546570;377841137;254722374;9314034281;627261;171219485;380;1218;26312;3;141;508
4;78;1570975292969;1570975298686;5717;18356703370;51008500758;376422599;255038567;9314005168;628379;169980845;677;1138;46672;-2;450;4753
4;79;1570975298686;1570975304399;5713;18361211558;51008577880;378209685;254946336;9314037743;631312;169648862;324;1277;26400;-1;197;498
4;80;1570975304399;1570975310110;5711;18354030694;51008530510;378985743;254573082;9314027445;647074;169734160;532;1058;26456;14;181;1198
4;81;1570975310110;1570975315824;5714;18363295854;51008580061;378783293;254742822;9314041046;640272;168783863;878;737;26496;-15;281;2716
4;82;1570975315824;1570975321544;5720;18363131896;51008556973;377502230;254548141;9314033286;628162;170873048;406;1192;26304;2;171;612
4;83;1570975321545;1570975327259;5714;18369366388;51008555433;376555468;254222429;9314031047;631664;171413655;605;1245;50680;4;492;6681
4;84;1570975327260;1570975333071;5811;18353208422;51008566926;376135136;254419720;9314023414;631241;170034984;374;1228;26400;-2;175;631
4;85;1570975333071;1570975338886;5815;18364931054;51008618994;377012152;254426154;9314049572;628242;171653141;348;1259;26488;-3;147;455
4;86;1570975338887;1570975344604;5717;18367970190;51008555561;376186473;254262867;9314036027;627401;170899146;1037;562;26368;1;302;3341
4;87;1570975344604;1570975350323;5719;18367317278;51008573550;377238573;254480219;9314024678;630208;170105707;391;1206;26400;3;190;620
4;88;1570975350323;1570975356140;5817;18372255874;51008570029;377419552;254407756;9314036799;631530;171910041;338;1267;26408;-4;142;411
4;89;1570975356140;1570975361861;5721;18362862818;51008563190;376193428;254344962;9314036840;632857;170153559;687;1187;52208;3;487;9183
4;90;1570975361861;1570975367580;5719;18376988902;51008538090;378665875;254177841;9314027199;630173;173834672;318;1285;26400;-3;143;380
4;91;1570975367580;1570975373303;5723;18360827286;51008516390;379308867;254751230;9314019454;630257;169777493;824;769;26456;11;259;2449
4;92;1570975373303;1570975379014;5711;18353178492;51008560510;376508959;254410562;9314034666;627291;170519086;558;1054;26400;-12;205;1325
4;93;1570975379014;1570975384731;5717;18364370852;51008523327;378212757;254395014;9314009787;631818;171267545;367;1230;26408;4;174;575
4;94;1570975384731;1570975390449;5718;18368112832;51008582174;379364419;254517969;9314043290;631821;172598254;662;1187;47472;0;527;7670
4;95;1570975390449;1570975396163;5714;18364173898;51008517918;379151324;254687396;9314029226;628277;171297731;347;1255;26400;-2;179;468
4;96;1570975396163;1570975401881;5718;18365463516;51008495904;377582738;254788406;9314004433;627569;169213055;497;1099;26456;8;191;1034
4;97;1570975401881;1570975407594;5713;18363486092;51008564125;378215937;254842219;9314035640;628136;169961840;933;676;26400;-9;283;2964
4;98;1570975407594;1570975413306;5712;18358531582;51008527396;379997723;254807307;9314027005;631945;172506958;387;1213;26400;0;175;607
4;99;1570975413306;1570975419022;5716;18358882566;51008565957;378715215;254784577;9314038592;628305;171224467;623;1408;69048;9;682;30781
4;100;1570975419022;1570975424744;5722;18353940320;51008534145;379123221;254035609;9314027770;631259;171700273;533;1072;26400;-5;216;1076
4;101;1570975424744;1570975430469;5725;18352643694;51008544566;377901269;254542446;9314028900;634001;172202249;1003;1201;83792;-4;2748;14122
4;102;1570975430469;1570975436186;5717;18363710056;51008520498;376580212;255034180;9314014465;629827;170146734;836;754;26400;10;253;2539
4;103;1570975436186;1570975441914;5728;18401075106;51008605526;378391993;254713256;9314030189;663953;175220788;528;1082;26400;-10;239;1272
4;104;1570975441914;1570975447641;5727;18402464296;51008569704;378838291;254779829;9314042239;624322;174022115;421;1180;26408;0;160;663
4;105;1570975447641;1570975453372;5731;18398002098;51008513410;379030066;254833365;9314010500;626687;174913849;334;1265;26400;1;169;562
4;106;1570975453372;1570975459112;5740;18413584678;51008552201;378551996;254786273;9314034294;628829;175425613;504;1526;62296;3;544;29253
4;107;1570975459112;1570975464845;5733;18401794886;51008653665;378818073;254736756;9314063243;631872;175911528;645;1042;30856;-4;351;2725
4;108;1570975464845;1570975470576;5731;18408159318;51008500654;378494089;254766773;9314015038;622824;175696536;344;1253;26400;3;153;410
4;109;1570975470576;1570975476308;5732;18399663286;51008498724;378752843;254664920;9314012131;624294;176404665;896;695;26408;10;322;2809
4;110;1570975476308;1570975482044;5736;18396658314;51008534397;377871316;254732991;9314032128;627756;175354194;464;1147;26432;-10;196;1043
4;111;1570975482044;1570975487769;5725;18388542758;51008483201;378133628;254685244;9314003100;622356;176457964;426;1177;26400;-3;170;635
4;112;1570975487769;1570975493504;5735;18393482668;51008574821;377850377;254865801;9314049039;672942;173631892;743;1229;59816;0;618;13948
4;113;1570975493504;1570975499225;5721;18392384456;51008542514;377726358;254843245;9314034598;625840;174210829;341;1259;26400;0;142;405
4;114;1570975499225;1570975504951;5726;18395343292;51008473766;377713838;254876092;9314003104;626512;174566383;568;1020;26400;12;210;1388
4;115;1570975504951;1570975510678;5727;18400787924;51008541919;378077664;254729351;9314021083;628654;176636365;788;822;26408;-9;272;2235
4;116;1570975510678;1570975516401;5723;18398322860;51008559185;377830269;254631506;9314037628;624737;175570675;388;1215;26400;-3;161;585
4;117;1570975516401;1570975522127;5726;18397204208;51008490234;378200596;254674484;9314014107;626296;176646605;638;1276;57072;1;512;11045
4;118;1570975522127;1570975527858;5731;18407871406;51008513404;378035860;254803343;9314019509;624729;176273591;362;1242;26456;0;160;540
4;119;1570975527858;1570975533583;5725;18397713456;51008566246;378197062;254805861;9314040932;625209;174069738;366;1232;26400;2;131;432
4;120;1570975533583;1570975539307;5724;18392733542;51008464360;380797948;254555490;9314003776;626349;176170108;1006;595;26408;0;326;3196
4;121;1570975539308;1570975545038;5730;18394908650;51008540444;381933830;254774432;9314034824;625477;173843869;403;1200;26400;-3;209;762
4;122;1570975545038;1570975550868;5830;18399657008;51008518675;381690440;254752181;9314025207;630761;174809937;319;1282;26400;-1;130;383
4;123;1570975550869;1570975556606;5737;18399297994;51008518495;381926527;254593002;9314014606;649194;175279350;682;1316;64424;2;640;24276
4;124;1570975556606;1570975562438;5832;18399917764;51008477455;381702053;254757784;9314007147;625043;173610245;375;1226;26400;-1;181;528
