0;149;1571046864662;1571046868240;3578;12211110770;22613503237;1407002996;123122762;3690984946;36757209;749740785;44;116;3560;0;26;327
0;150;1571046868276;1571046871844;3568;12235198434;22613999738;1433422508;123744788;3691075035;36746593;751685604;0;0;0;0;0;0
0;151;1571046871881;1571046875450;3569;12231555296;22624080764;1411300569;123242659;3692816364;36736976;747094488;2;0;40;2;10;24
0;152;1571046875485;1571046879070;3585;12246827626;22610885489;1409514818;124086344;3690605491;36853671;751019627;469;16;48352;-2;1313;1889
0;153;1571046879105;1571046882655;3550;12171696464;22611472018;1400832101;123457797;3690667857;36757057;746975140;0;0;0;0;0;0
0;154;1571046882691;1571046886240;3549;12177701444;22597524327;1403302670;123570976;3688041826;36762460;748057874;0;0;0;0;0;0
0;155;1571046886277;1571046889842;3565;12226455954;22602933490;1411033317;123961482;3689106374;36784606;748976376;0;0;0;0;0;0
0;156;1571046889878;1571046893442;3564;12216345308;22621835806;1407298660;123845844;3692526356;36743322;751259249;0;0;0;0;0;0
0;157;1571046893477;1571046897029;3552;12173295018;22613672047;1402819008;123293936;3690957626;36739077;748370051;0;0;0;0;0;0
0;158;1571046897064;1571046900614;3550;12180946294;22613805304;1404532158;123224716;3691018835;36769568;748796743;5;0;64;0;1;5
0;159;1571046900651;1571046904204;3553;12190215104;22603706669;1406915450;122630261;3689205171;37251494;747288247;0;0;0;0;0;0
0;160;1571046904239;1571046907805;3566;12194216526;22611890670;1418326418;123865515;3690684263;36750997;750316558;0;0;0;0;0;0
0;161;1571046907840;1571046911402;3562;12186313546;22605928932;1426844358;123233642;3689589346;36770164;749591674;35;22;6032;0;83;372
0;162;1571046911438;1571046915001;3563;12201906200;22621787012;1417642999;123501745;3692456439;36887042;751142873;78;1;760;0;43;1742
0;163;1571046915039;1571046918590;3551;12175757308;22597196907;1404751061;123195185;3687992578;36734713;745091040;0;0;0;0;0;0
0;164;1571046918626;1571046922287;3661;12206228676;22622859386;1403946384;123566170;3692631583;36761251;748855063;0;0;0;0;0;0
0;165;1571046922323;1571046925886;3563;12195918010;22614301207;1415686770;123880337;3691131107;36742712;748397657;0;0;0;0;0;0
0;166;1571046925921;1571046929580;3659;12199392810;22614911425;1423037494;123313578;3691208464;36762872;749798937;5;0;64;0;1;3
0;167;1571046929617;1571046933168;3551;12176255314;22606481871;1406489907;123550083;3689623913;36764291;748445045;0;0;0;0;0;0
0;168;1571046933204;1571046936762;3558;12193629898;22611939727;1408544716;123719343;3690767932;36755831;745981254;0;0;0;0;0;0
0;169;1571046936797;1571046940359;3562;12213298726;22594079933;1421181553;123794815;3687525774;36760439;747978987;48;18;6928;0;95;540
0;170;1571046940395;1571046943966;3571;12226639768;22624862922;1431278747;123303094;3692982068;36751522;750058064;0;0;0;0;0;0
0;171;1571046944003;1571046947571;3568;12229921702;22613023152;1410886728;123729882;3690877670;36765437;747176936;0;0;0;0;0;0
0;172;1571046947607;1571046951177;3570;12245364998;22624172285;1412424957;124071671;3692839819;36755337;749544127;0;0;0;0;0;0
0;173;1571046951213;1571046954790;3577;12217556962;22605330546;1415747154;123707859;3689407620;36737884;747055726;0;0;0;0;0;0
0;174;1571046954825;1571046958407;3582;12261250820;22623510521;1423005495;124414819;3692753028;36731569;751255758;0;0;0;0;0;0
0;175;1571046958445;1571046962011;3566;12219869602;22612807098;1414054246;123711726;3690921242;36766980;748480277;4;1;64;0;9;10
0;176;1571046962047;1571046965614;3567;12227310200;22606065093;1411528132;123874552;3689622488;36779082;748835405;0;0;0;0;0;0
0;177;1571046965649;1571046969210;3561;12204001446;22599448368;1409305628;123721586;3688241370;36777708;748466664;0;0;0;0;0;0
0;178;1571046969245;1571046972812;3567;12226546182;22615538663;1432199460;123602531;3691291562;36769527;749771218;33;16;5008;0;77;294
0;179;1571046972849;1571046976424;3575;12226167020;22613898510;1410451885;123773109;3691000048;36779586;746568290;0;0;0;0;0;0
0;180;1571046976459;1571046980023;3564;12202055850;22615023549;1417257315;123203234;3691173698;36743223;753274878;0;0;0;0;0;0
0;181;1571046980059;1571046983609;3550;12178547514;22605342283;1403834523;123697454;3689492547;36763523;747975155;0;0;0;0;0;0
0;182;1571046983645;1571046987217;3572;12250079630;22614324473;1414005532;123836802;3691060225;36770334;750750061;0;0;0;0;0;0
0;183;1571046987254;1571046990821;3567;12219483870;22604584787;1409682713;124261715;3689388275;36755320;747171792;4;1;64;0;9;10
0;184;1571046990863;1571046994425;3562;12216572922;22611069564;1411747427;123753755;3690567337;36728617;749857502;0;0;0;0;0;0
0;185;1571046994461;1571046998013;3552;12179077640;22612636803;1406685416;123491167;3690796777;36764256;747423868;0;0;0;0;0;0
0;186;1571046998048;1571047001610;3562;12217197072;22606158155;1407931549;123993597;3689517518;36737316;747568064;45;6;5136;0;81;464
0;187;1571047001647;1571047005202;3555;12189256322;22614050698;1407712386;123162568;3690961822;36763872;746444410;0;0;0;0;0;0
0;188;1571047005237;1571047008797;3560;12193680706;22611401614;1409409878;123234042;3690555776;36969155;747637549;0;0;0;0;0;0
0;189;1571047008833;1571047012389;3556;12193083858;22612619420;1419388394;123342148;3690770980;36748438;750812173;0;0;0;0;0;0
0;190;1571047012424;1571047015995;3571;12242380466;22613353342;1431275684;124216894;3690907422;36751271;749843097;0;0;0;0;0;0
0;191;1571047016032;1571047019604;3572;12217955980;22604590329;1413815783;123631076;3689330051;36779656;747053802;0;0;0;0;0;0
0;192;1571047019640;1571047023211;3571;12240698546;22614674808;1413470845;124082487;3691072697;36772194;751029523;28;129;1496;0;16;358
0;193;1571047023247;1571047026814;3567;12232180614;22613800742;1428282217;123486861;3690943649;36820707;754696491;0;0;0;0;0;0
0;194;1571047026850;1571047030415;3565;12226859644;22604180965;1428360585;123509796;3689177890;36740749;750504860;0;0;0;0;0;0
0;195;1571047030452;1571047034017;3565;12217611420;22610908270;1411385357;123552727;3690579724;36769408;747472620;33;14;5584;0;81;282
0;196;1571047034052;1571047037617;3565;12220960368;22594578406;1413300293;123903226;3687538347;36798571;749889840;0;0;0;0;0;0
0;197;1571047037653;1571047041224;3571;12239002172;22616152265;1415935791;123732948;3691293998;36824735;749669557;0;0;0;0;0;0
0;198;1571047041259;1571047044842;3583;12257222972;22604790012;1430308702;123718264;3689323817;36873853;750638404;0;0;0;0;0;0
1;145;1571047723266;1571047726896;3630;12442484708;23111954222;1414890566;123745513;3773093009;36578517;746231463;2;0;40;0;0;0
1;146;1571047726933;1571047730551;3618;12412928468;23118841099;1416940678;123518000;3774417700;36700986;750699928;0;0;0;0;0;0
1;147;1571047730589;1571047734320;3731;12447171746;23112501594;1416193096;123948124;3773190093;36884350;749367652;0;0;0;0;0;0
1;148;1571047734362;1571047738092;3730;12456303754;23109399559;1424531696;123848627;3772671592;36378269;748498621;0;0;0;0;0;0
1;149;1571047738135;1571047741864;3729;12445791170;23110244686;1421400773;124217168;3772747743;36641128;748593821;3;0;24;0;1;2
1;150;1571047741900;1571047745524;3624;12435515982;23120972463;1421758332;122997979;3774725793;36650509;750770013;0;0;0;0;0;0
1;151;1571047745562;1571047749197;3635;12475311640;23119142200;1424294301;124243894;3774413475;37169073;749618160;0;0;0;0;0;0
1;152;1571047749233;1571047752858;3625;12430616806;23112818925;1413676938;123005858;3773226272;36696742;748122491;33;10;5136;0;67;298
1;153;1571047752894;1571047756511;3617;12407265274;23103875809;1417309705;123606893;3771596900;36675238;751042752;2;0;40;0;0;0
1;154;1571047756547;1571047760165;3618;12417481624;23119530795;1409867474;123383695;3774436790;37027514;750201906;0;0;0;0;0;0
1;155;1571047760203;1571047763821;3618;12411281150;23120570287;1407385218;123104378;3774643079;36947411;747969775;0;0;0;0;0;0
1;156;1571047763857;1571047767483;3626;12433397668;23111719155;1414914439;123720869;3773083736;37131770;749530331;0;0;0;0;0;0
1;157;1571047767519;1571047771147;3628;12437709194;23120553466;1413952713;123574617;3774618890;37435757;751254857;3;0;24;0;1;1
1;158;1571047771184;1571047774798;3614;12399327838;23110517171;1414150189;123557671;3772854558;36539571;748858365;0;0;0;0;0;0
1;159;1571047774836;1571047778451;3615;12395439420;23111937937;1398915768;122904735;3773058187;37053933;744809444;0;0;0;0;0;0
1;160;1571047778487;1571047782241;3754;12465961946;23113193397;1427098984;124600587;3773295077;36777696;751827585;463;24;48136;0;1335;1668
1;161;1571047782278;1571047785934;3656;12447502874;23120323313;1416028626;123092875;3774629420;36767083;748368672;2;0;32;0;0;0
1;162;1571047785971;1571047789619;3648;12490049902;23120951689;1426685381;123559437;3774750312;37345955;753980054;0;0;0;0;0;0
1;163;1571047789657;1571047793287;3630;12446519272;23111109539;1412673636;123421021;3772946088;37309997;751991952;0;0;0;0;0;0
1;164;1571047793323;1571047796952;3629;12443014542;23101958837;1419116840;123823048;3771290631;36602734;751639642;0;0;0;0;0;0
1;165;1571047796988;1571047800666;3678;12458167590;23128408608;1419676748;123927874;3776017203;36583706;753098459;111;134;6840;0;250;3408
1;166;1571047800703;1571047804337;3634;12462685268;23109505009;1420541163;123709799;3772629488;37296884;751188296;0;0;0;0;0;0
1;167;1571047804375;1571047807999;3624;12426824164;23122404269;1408333338;122901511;3774964674;36600796;742259625;0;0;0;0;0;0
1;168;1571047808035;1571047811691;3656;12453063138;23112071133;1431183877;123698270;3773081866;36951020;747216669;0;0;0;0;0;0
1;169;1571047811728;1571047815362;3634;12465136608;23110875119;1423689284;124013748;3772883419;37021583;751385675;46;22;7312;0;109;557
1;170;1571047815399;1571047819033;3634;12441694702;23112173382;1421582342;123789522;3773164587;36526599;750764916;0;0;0;0;0;0
1;171;1571047819071;1571047822694;3623;12421632842;23104381713;1414371975;123750449;3771702043;36638354;747371061;0;0;0;0;0;0
1;172;1571047822730;1571047826363;3633;12410448950;23118256291;1421152974;123134910;3774282890;36342729;752737435;0;0;0;0;0;0
1;173;1571047826419;1571047830077;3658;12458186132;23129390677;1416162913;123681323;3776216936;37014660;748263045;0;0;0;0;0;0
1;174;1571047830113;1571047833727;3614;12396003856;23110229109;1402360200;122708408;3772821349;36999610;745874321;5;0;64;0;1;5
1;175;1571047833765;1571047837397;3632;12444217436;23117016584;1415450211;122651258;3774087882;37381473;751992907;0;0;0;0;0;0
1;176;1571047837434;1571047841055;3621;12424479112;23100179288;1413474719;124028055;3771022559;36381058;748921255;0;0;0;0;0;0
1;177;1571047841092;1571047844706;3614;12404572158;23119531573;1407597159;123326796;3774456152;36676448;745720071;33;12;5328;0;67;298
1;178;1571047844743;1571047848362;3619;12418069274;23121625990;1411789944;123366159;3774854084;36545769;751796485;0;0;0;0;0;0
1;179;1571047848400;1571047852041;3641;12433218088;23119632474;1415685418;123560188;3774460839;36768567;745568054;0;0;0;0;0;0
1;180;1571047852078;1571047855728;3650;12493229782;23122018663;1412407905;124139709;3774809069;37916295;749508582;0;0;0;0;0;0
1;181;1571047855764;1571047859492;3728;12437468878;23119962917;1415298360;123412022;3774544600;36960063;747324779;0;0;0;0;0;0
1;182;1571047859528;1571047863151;3623;12430516796;23127608106;1409339587;124017375;3775938122;36370804;747297620;5;0;64;0;9;19
1;183;1571047863189;1571047866825;3636;12464182936;23118641505;1418671281;123840913;3774347164;37183487;747299874;0;0;0;0;0;0
1;184;1571047866868;1571047870490;3622;12430944138;23108972298;1418561724;123815637;3772559568;36355143;748275603;0;0;0;0;0;0
1;185;1571047870527;1571047874261;3734;12467284414;23107774390;1418475863;124100932;3772363223;37417054;749017837;31;14;5264;0;62;274
1;186;1571047874297;1571047878027;3730;12449901800;23127484461;1414525801;123680287;3775905927;36801924;746956347;0;0;0;0;0;0
1;187;1571047878065;1571047881688;3623;12428112614;23109507562;1419402667;124008589;3772626554;36398787;747172891;0;0;0;0;0;0
1;188;1571047881724;1571047885455;3731;12450953146;23118464420;1420765818;123686735;3774227371;36966327;751460190;0;0;0;0;0;0
1;189;1571047885492;1571047889111;3619;12420474624;23110455145;1408937627;123816338;3772737955;36351884;745050164;0;0;0;0;0;0
1;190;1571047889148;1571047892891;3743;12454503866;23125554284;1410923957;123847193;3775585565;36915158;743879449;43;120;5792;0;84;519
1;191;1571047892929;1571047896572;3643;12454598328;23126748456;1419150909;124139004;3775796459;36596929;747345969;0;0;0;0;0;0
1;192;1571047896610;1571047900225;3615;12398381904;23118133015;1410424202;123532005;3774193938;36490418;749626486;0;0;0;0;0;0
1;193;1571047900261;1571047903889;3628;12434340682;23120982537;1416929397;122778249;3774681616;36377344;749061394;0;0;0;0;0;0
1;194;1571047903926;1571047907655;3729;12451994418;23120516483;1416993880;124130152;3774621175;36902540;748596031;35;14;5392;0;72;322
2;145;1571048592212;1571048595823;3611;12399244034;22979783945;1421483134;122899936;3758455112;36494117;748390881;76;4;5200;0;133;1067
2;146;1571048595855;1571048599472;3617;12420056626;22983709604;1425079025;123478928;3759027619;36525554;748345254;0;0;0;0;0;0
2;147;1571048599505;1571048603120;3615;12401542220;22971282295;1418708149;123540406;3756904426;36503505;746979428;0;0;0;0;0;0
2;148;1571048603157;1571048606771;3614;12397719210;22990644562;1413222885;123253923;3760405168;36565321;749802598;0;0;0;0;0;0
2;149;1571048606808;1571048610431;3623;12422341088;22983941956;1424056192;123518369;3759144789;36564822;751849667;0;0;0;0;0;0
2;150;1571048610463;1571048614081;3618;12417692448;22980881901;1423989757;123950304;3758675154;36515821;748424925;0;0;0;0;0;0
2;151;1571048614114;1571048617729;3615;12406594696;22993160930;1418584315;122825336;3760738186;36565261;748989091;0;0;0;0;0;0
2;152;1571048617760;1571048621380;3620;12421118046;22983886457;1419181681;122810592;3759069176;36991457;744262279;0;0;0;0;0;0
2;153;1571048621411;1571048625031;3620;12412378778;22998841307;1418330490;122967436;3761954717;36581544;748617025;58;8;5392;0;117;641
2;154;1571048625062;1571048628680;3618;12389779146;22974110525;1417663922;123434499;3757279426;36712880;749836624;235;10;26880;1;724;1420
2;155;1571048628713;1571048632341;3628;12395941222;22981038765;1420634631;123364518;3758597499;36544847;748271358;258;6;21640;-1;733;790
2;156;1571048632373;1571048635993;3620;12413639342;22990362685;1422621771;123235229;3760306483;37015533;748899109;0;0;0;0;0;0
2;157;1571048636025;1571048639639;3614;12406530748;22973442840;1425367951;122929374;3757247551;36523349;750146601;0;0;0;0;0;0
2;158;1571048639670;1571048643277;3607;12374544630;22981105413;1420143706;122339232;3758674552;36560559;749185684;0;0;0;0;0;0
2;159;1571048643310;1571048646930;3620;12407827228;22980524342;1412135284;123438966;3758590679;36560570;747518046;0;0;0;0;0;0
2;160;1571048646961;1571048650585;3624;12395950420;22980826234;1412929083;123045690;3758635818;36581037;749679914;0;0;0;0;0;0
2;161;1571048650617;1571048654240;3623;12404372868;22980534759;1406564736;123347124;3758570679;36643594;746558039;0;0;0;0;0;0
2;162;1571048654272;1571048657895;3623;12420702384;22979688894;1417317529;123645930;3758452843;36710544;747444459;4;1;64;0;1;2
2;163;1571048657928;1571048661548;3620;12425930498;22992102977;1421904557;123632991;3760537523;36895110;750789003;63;14;6160;0;129;847
2;164;1571048661580;1571048665206;3626;12435973108;22981587174;1428640572;123888799;3758719544;36744250;750267220;0;0;0;0;0;0
2;165;1571048665238;1571048668862;3624;12414930420;22998918117;1411906045;123188614;3761955907;36557549;751517535;0;0;0;0;0;0
2;166;1571048668893;1571048672505;3612;12399133658;22983501091;1421575223;123209933;3758990314;36775234;749147146;75;2;736;0;37;1361
2;167;1571048672538;1571048676156;3618;12411595050;22980870310;1417182079;123390911;3758637989;36547624;747817661;0;0;0;0;0;0
2;168;1571048676188;1571048679901;3713;12398231524;22981637083;1411307252;123288226;3758772948;36768152;747776443;0;0;0;0;0;0
2;169;1571048679933;1571048683539;3606;12381055354;22974338679;1416101965;122982326;3757391965;36726540;747388357;0;0;0;0;0;0
2;170;1571048683570;1571048687193;3623;12407213590;22980793519;1412760307;123425516;3758636879;36538149;748888738;4;1;64;0;1;3
2;171;1571048687226;1571048690842;3616;12399072338;22981567150;1415112545;123195963;3758707755;36795930;749417032;65;16;7344;0;113;894
2;172;1571048690873;1571048694493;3620;12406526952;22999912364;1421008785;122992312;3762070292;36573336;752281167;0;0;0;0;0;0
2;173;1571048694525;1571048698257;3732;12403052590;22990466600;1414654769;123233296;3760414263;36488041;747614316;0;0;0;0;0;0
2;174;1571048698288;1571048701905;3617;12412087070;22998843784;1415540255;123086417;3761889148;36678923;751687148;0;0;0;0;0;0
2;175;1571048701938;1571048705560;3622;12406831654;22991713862;1414901457;123398023;3760486476;36668664;749164210;0;0;0;0;0;0
2;176;1571048705591;1571048709203;3612;12378312014;22981808465;1413947474;122853533;3758740056;36636963;749591055;0;0;0;0;0;0
2;177;1571048709235;1571048712850;3615;12397820534;22989466781;1408614411;123083502;3760225859;36581879;748999625;0;0;0;0;0;0
2;178;1571048712881;1571048716692;3811;12385756116;22982943219;1412796448;123208497;3758865222;36694758;748069258;4;1;64;0;9;10
2;179;1571048716725;1571048720372;3647;12456764530;22989941088;1416750722;123401726;3760263326;37495041;750464298;43;16;5520;0;98;491
2;180;1571048720403;1571048724026;3623;12406106764;22988643523;1414568094;123194450;3760084236;36552688;750276589;0;0;0;0;0;0
2;181;1571048724057;1571048727670;3613;12393615004;22974824817;1420516134;123105552;3757422313;36600610;750580726;0;0;0;0;0;0
2;182;1571048727702;1571048731321;3619;12407683710;22975146677;1418733329;123389331;3757471183;36525943;748361300;0;0;0;0;0;0
2;183;1571048731354;1571048734958;3604;12367153964;22971476309;1413181555;122840260;3756923240;36496651;748070810;0;0;0;0;0;0
2;184;1571048734996;1571048738613;3617;12409403152;23000829950;1414798795;123676815;3762093104;36530324;748331119;0;0;0;0;0;0
2;185;1571048738646;1571048742258;3612;12406945680;22981910403;1427763506;123552425;3758707661;36532837;749541230;0;0;0;0;0;0
2;186;1571048742290;1571048745904;3614;12394969884;22997932667;1418519151;122850264;3761713463;36542321;752403306;0;0;0;0;0;0
2;187;1571048745937;1571048749621;3684;12407135042;22983306583;1422737801;123668364;3758904117;36552632;751201472;111;124;9520;0;228;2507
2;188;1571048749652;1571048753276;3624;12412807726;22981921008;1422861414;122541258;3758754365;36427652;751300641;0;0;0;0;0;0
2;189;1571048753307;1571048757124;3817;12413521958;22979365198;1423170094;123599066;3758335732;36475432;751496837;0;0;0;0;0;0
2;190;1571048757155;1571048760770;3615;12409218608;22981543420;1428450682;123128385;3758693486;36507140;750419836;0;0;0;0;0;0
2;191;1571048760803;1571048764421;3618;12383859138;22972091548;1417613664;123268214;3757004189;36581450;748437994;0;0;0;0;0;0
2;192;1571048764454;1571048768077;3623;12428405052;22980652123;1428882239;123678833;3758561413;36551975;746620810;0;0;0;0;0;0
2;193;1571048768108;1571048771738;3630;12458602962;22992526140;1420427201;124028907;3760598752;36885461;745201289;0;0;0;0;0;0
2;194;1571048771770;1571048775485;3715;12392707468;22992342412;1431206057;123190952;3760584995;36514843;749271370;0;0;0;0;0;0
3;145;1571049444074;1571049447687;3613;12396797366;23088961664;1412532227;123252604;3776081234;36900186;748751519;31;13;3920;0;92;349
3;146;1571049447721;1571049451348;3627;12440266092;23081461062;1410453449;123505539;3774625674;37818853;745571645;0;0;0;0;0;0
3;147;1571049451383;1571049455002;3619;12420511416;23082484698;1410496696;122992650;3774805563;37538226;747933011;0;0;0;0;0;0
3;148;1571049455042;1571049458667;3625;12429328064;23087635812;1411557342;123856404;3775879040;36881414;744573850;0;0;0;0;0;0
3;149;1571049458707;1571049462374;3667;12491440990;23087180382;1413514693;123505008;3775719919;38049019;746266788;47;113;4376;0;35;378
3;150;1571049462408;1571049466056;3648;12517811948;23081925581;1426925945;123836296;3774692103;38173484;749191902;0;0;0;0;0;0
3;151;1571049466091;1571049469715;3624;12434954174;23078650322;1421761619;123733653;3774230610;37010270;749035751;0;0;0;0;0;0
3;152;1571049469749;1571049473389;3640;12493280298;23087122135;1415077386;123982961;3775704538;37781329;746076326;0;0;0;0;0;0
3;153;1571049473422;1571049477054;3632;12465111204;23082051569;1422364095;123867950;3774700086;37221944;751382214;45;11;5544;0;77;429
3;154;1571049477087;1571049480716;3629;12449802520;23097020079;1414652929;123305444;3777612479;37953795;750992109;0;0;0;0;0;0
3;155;1571049480750;1571049484365;3615;12386936088;23080942985;1410192317;123307980;3774633032;36892799;747732184;0;0;0;0;0;0
3;156;1571049484399;1571049488040;3641;12494176446;23072566942;1414578649;123198311;3773059896;39006598;749293646;0;0;0;0;0;0
3;157;1571049488074;1571049491719;3645;12434651078;23097878723;1417804129;124042726;3777698834;36930513;747932798;369;13;43816;1;1109;1559
3;158;1571049491753;1571049495384;3631;12449796972;23080980799;1426034016;124256404;3774542438;36921841;748773966;95;6;4552;-1;314;335
3;159;1571049495419;1571049499055;3636;12470014030;23091411974;1409912770;123457399;3776406449;38202973;749401618;0;0;0;0;0;0
3;160;1571049499089;1571049502730;3641;12450086636;23079109349;1412314143;123861687;3774280541;37207444;744443156;0;0;0;0;0;0
3;161;1571049502764;1571049506390;3626;12420236644;23090501088;1406414253;123299334;3776342500;37165126;747962408;0;0;0;0;0;0
3;162;1571049506424;1571049510059;3635;12441082378;23089530269;1412973183;123545734;3776099081;37748218;750094863;107;129;2248;0;109;3896
3;163;1571049510094;1571049513729;3635;12469483028;23070824961;1426354348;123418265;3772821725;37997715;749181520;0;0;0;0;0;0
3;164;1571049513763;1571049517404;3641;12481209164;23077909744;1416418378;124100109;3774133667;37264991;745794782;0;0;0;0;0;0
3;165;1571049517438;1571049521084;3646;12493782684;23081095459;1418932460;123886859;3774564574;37985455;748187693;0;0;0;0;0;0
3;166;1571049521118;1571049524759;3641;12496752178;23088257110;1430642038;123887573;3775993968;38034139;751473332;46;22;7184;0;95;538
3;167;1571049524794;1571049528425;3631;12454391008;23072768254;1422992392;123719514;3773057316;37284042;751550542;0;0;0;0;0;0
3;168;1571049528458;1571049532111;3653;12501286792;23082789140;1419791950;123425954;3774848898;37982093;748413194;0;0;0;0;0;0
3;169;1571049532144;1571049535771;3627;12441993564;23080149499;1429246733;123200840;3774438738;36893772;751430002;0;0;0;0;0;0
3;170;1571049535804;1571049539437;3633;12452717556;23082209456;1420578031;123893323;3774751100;36906565;750811858;5;0;64;0;1;5
3;171;1571049539472;1571049543111;3639;12474419580;23099595056;1419274046;123579688;3777876190;37387373;750172674;0;0;0;0;0;0
3;172;1571049543144;1571049546784;3640;12480791458;23078963045;1412531079;123927121;3774322454;37372505;745787019;0;0;0;0;0;0
3;173;1571049546817;1571049550470;3653;12479260502;23087569929;1419588506;124218036;3775887233;36935399;749159975;0;0;0;0;0;0
3;174;1571049550503;1571049554142;3639;12477959058;23080551878;1419702662;123450463;3774468186;37931077;749403570;19;18;5072;0;81;127
3;175;1571049554177;1571049557821;3644;12492887266;23081016376;1424781393;124041701;3774631080;38037102;751386451;0;0;0;0;0;0
3;176;1571049557854;1571049561501;3647;12518373610;23077829334;1418088491;124363017;3774120990;38032395;745948456;0;0;0;0;0;0
3;177;1571049561534;1571049565173;3639;12492313778;23080434358;1422293767;123278526;3774446776;37997463;748157566;0;0;0;0;0;0
3;178;1571049565206;1571049568838;3632;12454996616;23082250571;1424249959;123755621;3774777426;37045328;750256724;5;0;64;0;9;19
3;179;1571049568873;1571049572522;3649;12460941006;23088735811;1425298960;123749293;3776087194;37106758;749516861;0;0;0;0;0;0
3;180;1571049572556;1571049576203;3647;12496134306;23087448988;1413465190;123900818;3776012489;37953552;743960954;0;0;0;0;0;0
3;181;1571049576236;1571049579865;3629;12451052134;23079992915;1417406482;123744436;3774574728;36890370;745251276;0;0;0;0;0;0
3;182;1571049579899;1571049583533;3634;12455843124;23075968646;1410558713;123959486;3773938538;37017366;743928965;35;12;5072;0;71;321
3;183;1571049583568;1571049587197;3629;12457809452;23089091019;1418077580;123685646;3776204356;36906549;745612982;0;0;0;0;0;0
3;184;1571049587237;1571049590878;3641;12498109832;23077585377;1414986949;123671566;3774122781;38006176;744645710;0;0;0;0;0;0
3;185;1571049590911;1571049594545;3634;12473393784;23086734141;1423232891;123589730;3775846886;37428726;750027293;0;0;0;0;0;0
3;186;1571049594579;1571049598222;3643;12497858420;23079542283;1420942504;123433945;3774459318;38040218;745132192;0;0;0;0;0;0
3;187;1571049598257;1571049601885;3628;12455109766;23095165241;1420343167;123686639;3777299589;37150854;751175120;5;0;64;0;9;19
3;188;1571049601919;1571049605567;3648;12508957924;23077504646;1417075068;123440037;3774126598;38601333;747435153;0;0;0;0;0;0
3;189;1571049605602;1571049609243;3641;12495510302;23088693723;1417194534;123772064;3776088196;37795932;748493602;0;0;0;0;0;0
3;190;1571049609276;1571049612895;3619;12422716600;23077286254;1413368101;123203974;3774075365;36897380;745208815;28;20;5424;0;83;238
3;191;1571049612930;1571049616573;3643;12469211468;23093772244;1421510349;123789546;3777163943;37185224;752299438;0;0;0;0;0;0
3;192;1571049616607;1571049620261;3654;12510744964;23087195306;1416356594;123963870;3775871412;37773408;747450167;0;0;0;0;0;0
3;193;1571049620295;1571049623927;3632;12459224484;23079740179;1414558953;123640068;3774484461;37257792;749980746;0;0;0;0;0;0
3;194;1571049623961;1571049627593;3632;12464487638;23084971088;1416671867;123580267;3775599671;37405457;748787740;0;0;0;0;0;0
4;145;1571050312929;1571050316566;3637;12470859370;23042282259;1403439235;123126798;3761892664;37924947;746111734;0;0;0;0;0;0
4;146;1571050316603;1571050320230;3627;12439696108;23033389317;1409063761;123650183;3760239796;37230403;746289846;0;0;0;0;0;0
4;147;1571050320268;1571050324089;3821;12426402662;23033526727;1405902527;123347606;3760291022;37296697;745653943;0;0;0;0;0;0
4;148;1571050324126;1571050327753;3627;12420852326;23033454570;1405249272;123537949;3760296117;37023504;748468261;0;0;0;0;0;0
4;149;1571050327795;1571050331524;3729;12441413068;23050463783;1413825521;123673659;3763321149;37014722;750902113;5;0;64;0;1;5
4;150;1571050331561;1571050335185;3624;12427125800;23048878879;1406048244;123322120;3763146774;37198190;747648924;0;0;0;0;0;0
4;151;1571050335222;1571050338860;3638;12471948384;23039972674;1426227438;123774582;3761522213;37224810;751792531;0;0;0;0;0;0
4;152;1571050338897;1571050342530;3633;12461460912;23033967228;1410272560;123334332;3760337231;37674654;750757352;49;16;5264;0;75;505
4;153;1571050342567;1571050346199;3632;12461965196;23050324565;1415605135;123828271;3763292301;37018286;749861302;0;0;0;0;0;0
4;154;1571050346235;1571050349878;3643;12492001046;23041268328;1421107867;123914907;3761736964;37096259;747271588;0;0;0;0;0;0
4;155;1571050349916;1571050353564;3648;12515404116;23035435174;1416523807;124144047;3760561016;37798060;747901920;0;0;0;0;0;0
4;156;1571050353600;1571050357231;3631;12463969338;23050516589;1417684353;124360480;3763328416;37076103;746925355;0;0;0;0;0;0
4;157;1571050357267;1571050360893;3626;12429316384;23039209992;1409696412;123502960;3761331043;37113380;746269585;5;0;64;0;9;19
4;158;1571050360929;1571050364554;3625;12427670526;23041312539;1414035267;123808045;3761663605;37340426;752752675;0;0;0;0;0;0
4;159;1571050364592;1571050368234;3642;12488016852;23032491381;1425320739;123600050;3760109986;37765843;749472714;0;0;0;0;0;0
4;160;1571050368271;1571050371936;3665;12494000516;23042096771;1416719426;124599960;3761780448;37237087;747292109;429;6;44448;1;1133;2145
4;161;1571050371973;1571050375639;3666;12534670568;23042083565;1412127211;124502150;3761804156;37973614;747234772;68;6;4008;-1;265;288
4;162;1571050375676;1571050379327;3651;12509190940;23059454512;1414403264;123819827;3764948622;37548183;748611147;0;0;0;0;0;0
4;163;1571050379365;1571050383005;3640;12481148282;23042923803;1418983061;123981250;3761956211;37098338;747278076;0;0;0;0;0;0
4;164;1571050383042;1571050386682;3640;12470778486;23043107627;1410957045;123530853;3761960122;37039828;747682376;0;0;0;0;0;0
4;165;1571050386718;1571050390354;3636;12449336488;23050635149;1406590381;123904747;3763401011;37112604;748329487;5;0;64;0;1;5
4;166;1571050390390;1571050394021;3631;12454225736;23041222617;1423822870;123570981;3761685357;37059676;751062914;0;0;0;0;0;0
4;167;1571050394058;1571050397701;3643;12487880634;23050222407;1420249952;124019737;3763293217;37203791;750791521;0;0;0;0;0;0
4;168;1571050397737;1571050401380;3643;12485111890;23057905686;1416362131;123392178;3764719552;37285136;749476476;0;0;0;0;0;0
4;169;1571050401416;1571050405062;3646;12489897478;23049300446;1416984082;124086455;3763168804;37050243;746129934;147;22;7136;0;135;2364
4;170;1571050405099;1571050408751;3652;12506030916;23060798270;1419564708;124103761;3765263613;37142232;750077739;0;0;0;0;0;0
4;171;1571050408789;1571050412417;3628;12440916668;23033187682;1407767412;123446326;3760250783;37122729;746971088;0;0;0;0;0;0
4;172;1571050412453;1571050416082;3629;12444904950;23040329407;1413826687;123668830;3761558565;37148086;746330023;0;0;0;0;0;0
4;173;1571050416119;1571050419778;3659;12509056474;23048300454;1432231036;124051976;3763057726;37124937;752711890;0;0;0;0;0;0
4;174;1571050419815;1571050423558;3743;12490794064;23043997555;1421833683;123670599;3762150739;38123884;750300812;5;0;64;0;1;3
4;175;1571050423596;1571050427229;3633;12445064820;23052106589;1408976244;123448188;3763629875;37076439;746995990;0;0;0;0;0;0
4;176;1571050427266;1571050430995;3729;12451340046;23049140808;1415373445;123552041;3763186925;37088923;750157307;0;0;0;0;0;0
4;177;1571050431032;1571050434662;3630;12447636026;23043631717;1412651579;123491347;3762080831;37054933;747766477;54;26;7120;0;108;678
4;178;1571050434698;1571050438332;3634;12456192502;23041105677;1418123154;123505056;3761649484;37524479;750896354;0;0;0;0;0;0
4;179;1571050438370;1571050442030;3660;12492988006;23034700091;1420627876;124621821;3760478917;37147074;748322970;0;0;0;0;0;0
4;180;1571050442067;1571050445713;3646;12490939918;23049088389;1414741433;123785837;3763325885;37316668;749479508;0;0;0;0;0;0
4;181;1571050445750;1571050449383;3633;12471048586;23038405067;1413687665;124009317;3761452271;37360545;748183141;0;0;0;0;0;0
4;182;1571050449419;1571050453051;3632;12441818510;23039586166;1431328394;123372222;3761581129;37027489;750640382;5;0;64;0;9;19
4;183;1571050453089;1571050456725;3636;12455873492;23040512247;1412367854;123505226;3761739459;37341262;747846777;0;0;0;0;0;0
4;184;1571050456768;1571050460394;3626;12439443090;23039418412;1411769926;123635619;3761488842;37300078;749796202;0;0;0;0;0;0
4;185;1571050460430;1571050464165;3735;12456020076;23039220995;1416132152;123632565;3761439800;37219668;747122484;43;12;5200;0;82;440
4;186;1571050464201;1571050467830;3629;12445182350;23045392876;1405877261;123606830;3762629958;37175933;751186378;0;0;0;0;0;0
4;187;1571050467868;1571050471492;3624;12427341150;23028554099;1405647857;123424183;3759591507;37127413;745555779;0;0;0;0;0;0
4;188;1571050471528;1571050475158;3630;12447608870;23036244912;1416882189;123795123;3760980277;37089547;746905124;0;0;0;0;0;0
4;189;1571050475194;1571050478836;3642;12494671240;23029389058;1440839954;123464020;3759669454;37092577;754084679;0;0;0;0;0;0
4;190;1571050478872;1571050482518;3646;12513761032;23038077715;1438462217;124195063;3761296142;37054881;748974399;5;0;64;0;10;22
4;191;1571050482556;1571050486202;3646;12475506112;23030154758;1426716319;123934769;3759852741;37190806;749555379;0;0;0;0;0;0
4;192;1571050486239;1571050489887;3648;12494536920;23048102911;1419082777;124111976;3763088694;37059352;747558139;0;0;0;0;0;0
4;193;1571050489924;1571050493571;3647;12517598058;23030213182;1430652781;124203884;3759854629;37784265;752355945;0;0;0;0;0;0
4;194;1571050493608;1571050497250;3642;12495533954;23044456861;1427885148;123874868;3762496080;37366153;749711750;55;8;5136;0;86;608
