0;110;1571094274338;1571094278387;4049;4358676554;6277867654;278736416;10281484;979956224;9785178;145409474;432;22;834056;21;4070;407663
0;111;1571094278410;1571094282035;3625;4197124926;6291226601;249089884;12751500;983605946;9298058;141412779;393;4;735608;-9;3648;523454
0;112;1571094282058;1571094285985;3927;4298701068;6284071093;275580437;12767348;981812315;8979313;146245713;410;8;787680;6;3949;565057
0;113;1571094288578;1571094292678;4100;4398013334;6287215037;286749711;10480265;983127507;9339382;150620925;784;34;1494728;-16;6693;958082
0;114;1571094292700;1571094296776;4076;4419271372;6278882922;289513199;10311614;980521492;9756659;148359581;487;5;909928;-7;4098;586123
0;115;1571094296801;1571094300932;4131;4456570576;6281612787;291363236;10387959;981463389;9503352;150368817;566;52;878600;27;4157;628419
0;116;1571094300954;1571094305214;4260;4446550450;6290605036;295568275;9233484;983330078;9688577;150641223;508;22;963704;-28;4282;615346
0;117;1571094305251;1571094309441;4190;4427998960;6287332088;300721070;10575693;983064443;9300661;150942824;452;12;870248;28;4226;607597
0;118;1571094309463;1571094313613;4150;4421363990;6280786487;290272244;9927149;981059495;9063617;149576945;444;6;837440;-28;4173;599439
0;119;1571094313637;1571094318317;4680;4657214872;6279353069;321366855;4530922;980841293;10704956;156256335;497;18;963720;17;4703;675120
0;120;1571094318337;1571094323081;4744;4640376108;6279401848;314158211;3335880;980657446;10858741;153933865;794;87;785712;-94;4764;671421
0;121;1571094323101;1571094327197;4096;4452789176;6280605489;299048567;12956782;981149095;8966211;151141990;536;17;668464;102;4117;440963
0;122;1571094327220;1571094331141;3921;4318855930;6283128944;278813323;12717796;981578993;8718563;148954253;433;11;804560;-17;3943;565096
0;123;1571094331175;1571094335519;4344;4464743072;6277457227;318644745;12047174;979872146;8432762;154575825;501;27;954320;11;4378;628673
0;124;1571094335540;1571094339722;4182;4411937500;6282918447;300120068;11740477;981384945;8483545;150836426;478;10;905288;2;4203;603845
0;125;1571094339745;1571094344028;4283;4473335172;6278323867;301498069;8647426;980514717;9750857;150701163;514;13;967624;-2;4307;617476
0;126;1571094344051;1571094348124;4073;4421321942;6287762583;290166857;11703089;983376004;9058845;148310618;484;12;929712;-4;4095;585289
0;127;1571094348146;1571094352457;4311;4469284110;6286568572;311059656;9938865;982497287;9216474;150649603;599;78;920456;-1;4334;642231
0;128;1571094352486;1571094356799;4313;4509467836;6287065730;301910711;8941187;983221517;10033837;152006397;520;7;974448;-8;4341;619442
0;129;1571094356822;1571094360821;3999;4368385846;6283554372;288107757;10940771;981403745;9331052;148365318;455;5;850520;25;4022;575327
0;130;1571094360842;1571094365431;4589;4574072836;6284149675;325948545;5540689;982075750;10266120;154125591;548;10;894456;-31;4611;663412
0;131;1571094370286;1571094374488;4202;4401560696;6288188278;308303836;13348679;983178292;8442417;152668968;1028;28;1904472;28;9056;1178172
0;132;1571094374512;1571094378624;4112;4389699802;6289935896;308356271;13317470;983750242;8588421;150519420;482;8;909400;-2;4137;593869
0;133;1571094378647;1571094382335;3688;4254986916;6289512793;261684235;12180881;983400767;9481940;144750850;477;72;781688;67;3711;541881
0;134;1571094382358;1571094386327;3969;4344236716;6291534195;282496234;12337457;983767703;9017119;148440370;539;7;882776;-87;3991;578363
0;135;1571094386349;1571094390693;4344;4476778582;6278542149;311657287;9545447;980070395;9165571;152414551;479;8;896312;1;4366;626322
0;136;1571094390716;1571094395217;4501;4539116202;6281636644;335173066;9973721;981479673;9127410;154302281;492;5;912240;20;4525;647547
0;137;1571094395239;1571094399522;4283;4454926032;6285249577;314132221;10035949;982463777;9129366;151383205;488;23;909496;-8;4305;619210
0;138;1571094399544;1571094403817;4273;4448663216;6277456611;305589257;9832414;980062709;9360144;150395019;513;7;947264;-1;4294;617564
0;139;1571094403840;1571094407938;4098;4374336806;6283181425;299673704;10964036;981425031;9007232;150365066;491;7;916040;-11;4122;590708
0;140;1571094407966;1571094412727;4761;4675895572;6275104374;326148244;4026413;979267052;11016634;152940792;563;8;1040992;16;4789;685095
0;141;1571094412748;1571094417435;4687;4640468234;6275690096;337991136;6989337;979515401;10324999;155732422;640;73;952200;-21;4708;541694
0;142;1571094417478;1571094421508;4030;4363049838;6285498986;298114644;13183862;982661888;8741449;148916930;428;6;796560;25;4072;578672
0;143;1571094421533;1571094425409;3876;4314521190;6285424535;282293672;13007142;982234533;8793392;147250932;411;6;756880;-27;3902;555829
0;144;1571094425431;1571094429229;3798;4308597678;6287500523;267605924;11942305;982691970;9572781;145023538;453;22;829936;27;3820;549301
0;145;1571094429250;1571094433299;4049;4378934200;6282140534;284934157;10327572;981142367;9425582;148600343;490;5;905056;-10;4069;583331
0;146;1571094433322;1571094437529;4207;4438897422;6285430835;307734758;10839566;982409494;9163218;150237428;509;8;943232;3;4231;607903
0;147;1571094437555;1571094441906;4351;4508344220;6277533549;312230517;9932115;980027826;9373879;151458254;526;5;963136;-14;4376;627726
0;148;1571094441929;1571094446023;4094;4382093494;6281280028;291240321;11179707;981015516;9160716;149302762;577;66;871768;12;4117;616319
0;149;1571094446044;1571094450515;4471;4526104390;6278536392;321145367;8436269;980261380;9564943;153168266;555;6;1016224;-11;4492;648825
0;150;1571094450538;1571094454896;4358;4490018884;6284279483;318303538;10134330;981940154;9080495;152439514;468;6;855960;12;4381;627192
0;151;1571094454918;1571094459721;4803;4723458284;6275462895;337745814;3212071;979520845;11328984;155506057;514;9;943920;-2;4826;693394
0;152;1571094459742;1571094463895;4153;4449964806;6277509021;294298669;9137926;980177589;10278509;148738766;487;21;896928;-11;4173;446885
0;153;1571094463919;1571094467723;3804;4288963160;6283186443;270451555;13309737;981632476;8935987;146538752;463;6;842360;3;3828;550768
0;154;1571094467744;1571094471681;3937;4304234176;6284609555;276073594;13068492;981664182;8911526;146356734;480;12;882304;0;3958;567155
0;155;1571094473585;1571094477617;4032;4357225606;6283381133;292529086;10082870;981637198;9178071;148843584;844;67;1263256;19;5937;851237
0;156;1571094477641;1571094481577;3936;4344841156;6283374541;280418202;11426079;981586373;9390990;148061738;461;6;850064;-13;3960;569546
0;157;1571094481600;1571094485929;4329;4487472352;6281529371;310717016;9254077;981182974;9559325;153067418;473;12;870096;7;4352;622209
0;158;1571094485952;1571094490205;4253;4450232132;6279600907;309237580;10218375;980871209;9272305;151605576;471;10;848752;9;4276;610132
0;159;1571094490229;1571094494387;4158;4427421092;6279710899;292067137;9417419;980890067;9762857;151011077;491;29;907912;-11;4182;601027
1;111;1571095110137;1571095114646;4509;4557559360;6270719539;327160324;7954719;984482936;10253795;153798966;533;20;1008880;1;4531;509898
1;112;1571095114678;1571095118596;3918;4265372626;6288469678;282515847;12815250;989403439;9030771;148326599;458;3;875568;19;3949;565673
1;113;1571095118618;1571095122422;3804;4220539530;6280183868;266438063;12462073;987423064;9054416;145832715;443;8;833232;-25;3826;550989
1;114;1571095124789;1571095128901;4112;4338178154;6278208175;299894447;10850703;987005543;9170844;149715057;846;84;1364064;-5;6480;936814
1;115;1571095128923;1571095133235;4312;4436587556;6273485389;323557692;9960181;985361558;9608151;151912769;458;7;870064;22;4334;620488
1;116;1571095133256;1571095137611;4355;4451545256;6268450426;312431004;8087750;984034095;9886180;151464495;450;7;862104;-2;4376;628221
1;117;1571095137633;1571095141716;4083;4347546536;6270667531;296046620;10467343;984585582;9398450;148115733;478;7;915256;2;4104;587985
1;118;1571095141738;1571095145947;4209;4402943024;6273575297;307565031;8038691;985419117;10025246;148831363;491;26;928248;-11;4232;605047
1;119;1571095145992;1571095150318;4326;4438111942;6276417211;318070476;10704479;986511698;9003758;155634148;490;11;933928;-10;4371;627286
1;120;1571095150342;1571095155094;4752;4700575558;6272929834;336318837;4379224;985570416;11273558;156173162;669;65;1010488;15;4776;701671
1;121;1571095155116;1571095159739;4623;4602148928;6272750723;335742134;7797810;985465773;10252948;156226036;546;22;1030584;-1;4644;505367
1;122;1571095159781;1571095163751;3970;4306414686;6284406742;294712785;12459630;988932599;9125776;148920458;424;6;793032;-11;4012;576083
1;123;1571095163784;1571095167991;4207;4381084780;6276805701;304493822;12585438;986600275;8607358;152809436;464;8;871616;16;4240;607563
1;124;1571095168013;1571095173035;5022;4537210172;6407186919;322579848;12402257;1012614231;9489363;159275006;604;22;1124296;4;5044;724920
1;125;1571095173058;1571095177336;4278;4418988132;6278051083;304558251;9975708;986745988;9389589;150613984;495;6;945224;-15;4302;617532
1;126;1571095177357;1571095181352;3995;4298377970;6287548315;283846671;10924761;989737538;9764209;147395128;470;9;878512;10;4015;573991
1;127;1571095181383;1571095185609;4226;4385418936;6276367336;298832821;9824684;986253138;9626010;150375519;605;58;933376;-1;4258;615923
1;128;1571095185630;1571095190111;4481;4510398586;6270223581;322865235;8793949;984478249;9755808;152963063;536;27;1005752;8;4501;644675
1;129;1571095190132;1571095194438;4306;4432926314;6274394282;313378762;9439290;985953843;9631390;151095657;464;8;873128;-16;4328;618939
1;130;1571095194485;1571095198837;4352;4475919956;6271207967;309103840;8337936;984809805;9994291;151706167;478;9;889496;2;4398;630793
1;131;1571095204379;1571095208261;3882;4274944386;6282981907;285443958;12893037;988287436;8903937;147677546;1241;111;1780368;12;9425;1244654
1;132;1571095208298;1571095212217;3919;4282547774;6280447817;285202345;12771018;987795895;9020280;147584472;546;7;596376;-16;3956;572525
1;133;1571095212239;1571095216330;4091;4324550514;6271492050;290902713;9681397;984933810;9356409;150619874;474;21;844896;22;4112;591612
1;134;1571095216354;1571095220493;4139;4362261730;6275362248;294245145;10605446;985993879;9597095;149488438;488;29;924608;-7;4164;598186
1;135;1571095220517;1571095224940;4423;4500482266;6270262582;327944576;8254268;984752792;9794152;153729719;538;9;988496;6;4446;635000
1;136;1571095224986;1571095229341;4355;4466823864;6275235713;322774343;11275775;986128228;9244500;152852527;537;11;990872;-25;4402;633057
1;137;1571095229382;1571095233716;4334;4432429914;6270297520;332060529;9899983;984709189;8978878;151962955;525;17;981688;19;4375;626513
1;138;1571095233740;1571095237783;4043;4303649592;6269764782;289246659;9910941;984330332;9542503;147740776;587;59;857872;-14;4067;593287
1;139;1571095237808;1571095242008;4200;4383599484;6275472883;303531467;10176968;985810237;9517125;149283237;527;13;990984;17;4225;611615
1;140;1571095242029;1571095246645;4616;4594987628;6269741448;325553369;5439617;984368324;10912912;152368481;555;6;883136;-7;4636;666876
1;141;1571095246692;1571095251507;4815;4686365524;6272662696;334628615;3260418;985238683;11680428;154048093;528;24;988664;-112;4863;628041
1;142;1571095251531;1571095255230;3699;4174655088;6276183958;266521143;12668801;986311353;9288123;144426633;458;6;828872;109;3722;415912
1;143;1571095255254;1571095259381;4127;4331689184;6281401809;309443000;12806623;987633535;8666036;151033392;484;6;907328;-4;4152;594576
1;144;1571095259403;1571095263158;3755;4206780782;6275807982;264660241;11607593;985612335;9540095;144001742;470;5;839400;10;3777;541351
1;145;1571095263190;1571095267049;3859;4242307984;6286669692;279563987;11954755;989149671;9212987;146419126;582;83;823104;-21;3891;582889
1;146;1571095267095;1571095271057;3962;4288670722;6275616164;287870323;11611201;985855599;9101673;147546961;496;11;909288;16;4008;571451
1;147;1571095271093;1571095275329;4236;4391148414;6273805497;306038018;9258743;985728573;9501906;150008088;466;4;863024;14;4272;612983
1;148;1571095275351;1571095279519;4168;4348085130;6268758773;298493661;9188354;984095904;9556220;148321939;453;9;830920;-5;4190;604162
1;149;1571095279540;1571095283862;4322;4443803314;6275491221;313413255;10324187;985597995;9509831;151183300;497;19;922224;-17;4342;624726
1;150;1571095283893;1571095288160;4267;4424487952;6269268791;315069281;8372626;984090590;9694786;150699195;509;9;943584;3;4299;616422
1;151;1571095288197;1571095292586;4389;4519888586;6286664183;327988177;7889028;989412714;10219522;152407535;531;10;975824;13;4425;633392
1;152;1571095292606;1571095297432;4826;4715523476;6270979863;346358727;3119478;984992346;11680757;154657227;693;82;1001920;-35;4847;736439
1;153;1571095297476;1571095301636;4160;4391395884;6271522448;313181331;10992334;984887048;9536924;150471595;452;5;828216;22;4162;352810
1;154;1571095301659;1571095305528;3869;4256962588;6285426587;291815030;12653971;988876984;9012252;147063262;420;7;765184;-4;3892;560309
1;155;1571095305552;1571095309491;3939;4260195320;6284784073;284864168;12598426;988625414;8995543;147289994;454;12;839616;-6;3963;566490
1;156;1571095310877;1571095315109;4232;4414323432;6281273817;319843563;11177126;987436776;9190979;151595361;705;23;1256000;-1;5618;803129
1;157;1571095315131;1571095319614;4483;4504916724;6269312235;319010501;8421449;984323172;9723317;153409028;511;9;927336;1;4504;643290
1;158;1571095319635;1571095323521;3886;4240682128;6274985536;278157817;10996117;985999185;9512118;145082698;473;11;877368;7;3908;559578
1;159;1571095323543;1571095327715;4172;4369972866;6271546526;290527348;9914579;985130017;9686292;149094199;513;18;932024;3;4194;602324
1;160;1571095327738;1571095331792;4054;4287794722;6277895919;283833076;10479823;986553901;9390483;147165334;597;61;865808;10;4076;615698
2;110;1571095951159;1571095955211;4052;4328657786;6278322542;283953748;10495049;984584093;10193784;145131221;462;21;879032;-10;4073;402524
2;111;1571095955234;1571095958841;3607;4128329872;6281265685;247852811;12691744;985424043;9192916;139340335;424;7;807080;-8;3630;520571
2;112;1571095958863;1571095962597;3734;4182908468;6281320452;265661919;12684292;985369837;9155655;141413092;582;48;763472;-5;3756;557937
2;113;1571095965298;1571095969199;3901;4320916866;6295030153;285328139;11406865;989310329;9782240;145510969;736;27;1388120;0;6602;947029
2;114;1571095969221;1571095973440;4219;4399436250;6276931512;307699512;9923666;984571598;9764594;148660826;459;4;863224;21;4241;610130
2;115;1571095973465;1571095977857;4392;4485648520;6279314104;314248792;9386798;985192602;10153778;154019644;497;6;951688;-17;4417;633390
2;116;1571095977903;1571095982165;4262;4503347808;6290589485;314001185;10531657;988450270;9694201;151795943;508;25;944752;4;4307;620240
2;117;1571095982205;1571095986341;4136;4407834900;6283714892;299966338;9984895;986154320;10073103;150913125;473;5;914816;7;4177;597851
2;118;1571095986386;1571095990595;4209;4422823406;6279455375;306235795;10062987;985418999;9900883;152233007;502;7;925728;-22;4254;609919
2;119;1571095990621;1571095995347;4726;4679590540;6283723645;339898117;4568820;986324987;11669180;154177154;673;47;987088;4;4752;703655
2;120;1571095995393;1571096000039;4646;4625356650;6280168056;341652668;7138010;985475832;10895974;155440073;539;19;1006344;-11;4691;502602
2;121;1571096000063;1571096004097;4034;4334038324;6291978240;294771669;13409410;988747214;9016480;148245120;423;5;796136;9;4059;575196
2;122;1571096004121;1571096008159;4038;4360812242;6279487666;305624966;12292283;985310777;9385539;149166821;442;5;826896;6;4061;584671
2;123;1571096008385;1571096012087;3702;4218904768;6292102874;262192456;12907474;988466770;9422025;141588050;464;17;880600;16;3929;563650
2;124;1571096012109;1571096016819;4710;4448234122;6377951742;295228122;11415187;1005554749;10248905;151035760;549;10;1035056;-5;4731;680942
2;125;1571096016841;1571096020838;3997;4321999894;6296821569;288164675;10563494;990179968;10007764;145589556;604;34;789104;4;4019;621652
2;126;1571096020861;1571096025326;4465;4508126534;6274896278;332217490;8400872;983987433;10061515;151336893;704;5;756608;-1;4489;647683
2;127;1571096025350;1571096029627;4277;4437610432;6279867700;312761652;9883091;985156189;9939417;152245544;546;10;854064;1;4301;617268
2;128;1571096029651;1571096034098;4447;4491509690;6278936517;317057231;8370522;985169171;10232328;152709877;480;26;902800;0;4471;642225
2;129;1571096034120;1571096038329;4209;4394988360;6279061826;301944717;10090545;985090347;9847301;151784418;433;5;818896;-17;4230;607467
2;130;1571096038464;1571096043227;4763;4673165956;6277242815;342375935;3335848;984948024;12067266;156692964;571;8;1062168;5;4899;703620
2;131;1571096043250;1571096047444;4194;4388146800;6278981063;300062957;9631200;985024249;10278841;148620680;493;21;923080;16;4217;519323
2;132;1571096047466;1571096051235;3769;4203782672;6283794459;267175394;12707072;986621043;9261547;143264458;444;6;837376;4;3790;545901
2;133;1571096051256;1571096055091;3835;4222473300;6292747694;278236047;12879951;989174731;9161504;144521957;599;67;822808;-15;3857;595140
2;134;1571096055115;1571096059021;3906;4273408174;6291771783;281476539;12573375;988880140;9387953;146854343;523;24;849896;-6;3930;562905
2;135;1571096059044;1571096063257;4213;4414652224;6292827315;316828759;9548703;989546966;10040824;150905619;443;10;818432;5;4236;607515
2;136;1571096063304;1571096067657;4353;4466690128;6278024945;327046645;10071953;984987180;9953848;151980685;468;11;885904;12;4400;632555
2;137;1571096067694;1571096071898;4204;4394703952;6282991547;313250985;9648113;986456541;9917543;148586269;491;11;900896;-11;4241;608550
2;138;1571096076988;1571096081046;4058;4338785514;6279626750;285261544;9923162;985185688;10144557;146315330;1075;35;1980512;13;9148;1313801
2;139;1571096081094;1571096085254;4160;4384911440;6280294309;308645823;10136711;985806612;9838990;149770920;595;61;908952;-26;4208;636163
2;140;1571096085287;1571096089917;4630;4605591462;6280181411;325904636;4720103;985378070;11467969;153618367;547;8;994600;1;4663;670265
2;141;1571096089940;1571096094604;4664;4597935222;6289408533;346179923;7529355;988265101;10668799;155142734;537;30;992512;17;4686;600330
2;142;1571096094627;1571096099021;4394;4473355612;6289898780;342912196;13579284;988487825;8739659;154858828;478;7;874728;2;4418;632293
2;143;1571096099051;1571096103299;4248;4385450618;6286374751;318095873;12440722;987216854;9052850;150040940;480;11;888640;0;4277;613750
2;144;1571096103322;1571096107207;3885;4247634064;6279830271;266062075;11283453;985461295;9650158;144579698;477;22;875824;3;3909;560642
2;145;1571096107229;1571096111408;4179;4364177396;6288444914;299129550;10765808;987439561;9623869;149100377;498;11;923056;-18;4201;605335
2;146;1571096111431;1571096115784;4353;4420709326;6287496381;310906700;10224859;987898309;9505752;151446063;547;50;954344;80;4376;630555
2;147;1571096115817;1571096120192;4375;4486356036;6287234120;326266688;9566974;987543195;10293909;152015426;586;8;932176;-70;4408;633761
2;148;1571096120213;1571096124309;4096;4360130276;6280053085;298715962;9644205;985256807;9909493;147833915;482;20;889896;-2;4117;592036
2;149;1571096124332;1571096128522;4190;4402249378;6275685699;306161034;9727796;984091075;9794219;147764171;451;10;827392;-3;4213;602971
2;150;1571096128544;1571096132699;4155;4373995750;6280448506;291916630;9354330;985888935;10068982;146221715;451;10;830440;-3;4176;598472
2;151;1571096132721;1571096137524;4803;4686558536;6274743911;343598197;3409231;983973078;12141348;154386401;576;11;1063616;0;4825;691678
2;152;1571096137546;1571096141760;4214;4366449156;6281760244;296254135;11049757;986034135;9805627;148219440;503;24;930336;-7;4237;489903
2;153;1571096141799;1571096145532;3733;4241691280;6294687356;273166055;12833641;989767143;9552032;144836516;451;11;825824;-3;3771;539488
2;154;1571096145559;1571096149602;4043;4335301224;6286281924;308657291;13070581;987559406;9065665;149526987;602;62;871040;12;4070;620349
2;155;1571096150485;1571096154519;4034;4325904080;6281954895;299968730;11212294;985858287;9437715;148595461;533;31;956760;11;4917;706085
2;156;1571096154542;1571096158803;4261;4443079300;6281717546;316039786;10087346;986149235;10130393;150951654;464;9;847536;-16;4284;614946
2;157;1571096158827;1571096163081;4254;4422400590;6279661231;323908618;9093978;985482975;9745368;151668138;518;6;934632;-6;4278;613307
2;158;1571096163105;1571096167289;4184;4423147964;6289045471;314990742;10724161;987849809;9993524;174520828;511;13;932032;1;4209;604665
2;159;1571096167314;1571096171407;4093;4372667296;6281296039;312047034;9778228;985738870;9736220;148366010;490;22;891584;22;4118;590126
3;112;1571096789315;1571096793870;4555;4515752844;6240533605;327068260;6054937;981027427;10808704;154282942;519;41;1000160;-41;4574;524628
3;113;1571096793901;1571096797815;3914;4279823998;6250606233;295137617;12952155;983536746;9080658;149231963;461;6;883712;56;3945;540872
3;114;1571096797837;1571096801892;4055;4307498444;6243887046;307976904;12905263;981718835;8635486;149917571;566;56;832288;-13;4078;600194
3;115;1571096804787;1571096808746;3959;4309387684;6255263818;295631707;11399330;985120360;9407761;151590120;754;26;1427552;14;6853;979287
3;116;1571096808768;1571096813144;4376;4457137494;6236796678;327267667;9090103;979515288;9482149;154503642;450;3;870088;-2;4399;630736
3;117;1571096813189;1571096817249;4060;4340334136;6240809757;301611212;9997334;980655175;9484596;151956361;459;5;854696;-11;4104;590819
3;118;1571096817270;1571096821528;4258;4415415658;6254110692;319722558;9947210;984372428;9521956;154161566;499;2;958104;13;4279;613691
3;119;1571096821551;1571096825901;4350;4464257476;6248259658;331270188;9852449;983227471;9291329;155153938;497;21;943136;-17;4374;629611
3;120;1571096825923;1571096830081;4158;4384614914;6245977333;306344956;10624634;982097492;9823875;152431967;483;3;927960;-3;4180;598911
3;121;1571096830104;1571096834708;4604;4605128058;6233525085;345713598;5360851;978674647;10759958;156069828;646;55;1003888;20;4627;668017
3;122;1571096834728;1571096839148;4420;4500205304;6238140437;324288335;6245271;979713709;10616678;153558661;517;21;966888;-59;4439;496118
3;123;1571096839174;1571096843337;4163;4374230226;6250189211;319662511;13166540;983349706;8546663;153935448;431;4;829000;51;4189;580064
3;124;1571096843360;1571096848036;4676;4336688370;6287262354;303541139;12952897;994424574;8951306;153989688;506;3;941856;6;4700;672039
3;125;1571096848057;1571096852012;3955;4275707966;6243451968;298780007;12031459;981367899;9192972;150044356;469;19;891520;-21;3975;573297
3;126;1571096852034;1571096856341;4307;4403938744;6240510404;332481101;10412755;980800403;9179981;154051808;502;6;948472;10;4329;621642
3;127;1571096856364;1571096860624;4260;4382134958;6241947021;329784279;10100064;981205488;9258202;152798300;500;3;944128;12;4283;613731
3;128;1571096860646;1571096864907;4261;4378169890;6247106970;327562455;11158162;982570114;9069008;152178442;585;65;920352;1;4284;627461
3;129;1571096864928;1571096869306;4378;4425266132;6240441321;330391118;8680750;980811543;9689739;154371966;521;25;983456;-9;4399;632262
3;130;1571096869329;1571096873535;4206;4351288370;6242273749;318106574;9631645;981369677;9515834;151037367;441;6;845344;7;4228;607506
3;131;1571096873558;1571096877812;4254;4389940410;6242017479;320943328;9608554;981118371;9494462;153013427;543;46;778176;-17;4278;626966
3;132;1571096885891;1571096889991;4100;4311585130;6241907692;314531915;11812646;980794711;9018398;149913594;1546;37;2189016;-2;12179;1619095
3;133;1571096890015;1571096893655;3640;4134351642;6251025916;271255752;12935145;983576286;9281353;143599678;403;7;772200;14;3664;527813
3;134;1571096893698;1571096897747;4049;4306128818;6261648040;334211194;12943777;986727923;8832341;150884637;494;28;917872;-13;4092;586559
3;135;1571096897792;1571096902022;4230;4364421800;6244379424;337369364;11939814;981739241;8716629;154296781;484;7;922656;-4;4274;613421
3;136;1571096902044;1571096906307;4263;4382234968;6245194176;335021910;10396991;981814020;9116273;152781954;514;12;964024;-2;4285;615606
3;137;1571096906330;1571096910646;4316;4448824546;6242912699;339699234;10121264;981655614;9295337;154587787;676;57;894168;23;4339;630373
3;138;1571096910669;1571096914900;4231;4378567010;6239205624;323433839;9017162;980525421;9854605;151034833;512;24;938656;0;4254;614333
3;139;1571096914921;1571096919236;4315;4440851632;6242402959;342475178;10747733;981244170;9248687;154365188;470;6;880128;-22;4337;622120
3;140;1571096919257;1571096923423;4166;4348212734;6234475952;322325500;9755774;978866832;9325773;151189904;446;12;826920;3;4186;601560
3;141;1571096923444;1571096927842;4398;4487719238;6242558916;332085947;6240730;981596017;10507948;152983090;498;8;928792;14;4419;633986
3;142;1571096927887;1571096932686;4799;4692045800;6238819350;374625538;3484815;980601335;11521378;157118127;573;21;1055728;-121;4845;621641
3;143;1571096932709;1571096936596;3887;4249953274;6239506541;298779092;13198094;980530545;9078522;149616169;464;11;866160;133;3910;420404
3;144;1571096936617;1571096940249;3632;4156196162;6257819777;277433850;12846865;985561989;9240334;144761651;544;80;747384;-8;3653;546746
3;145;1571096940272;1571096944250;3978;4269130666;6236046968;309246035;12913339;979469324;8772713;150039587;477;22;873136;3;4000;571529
3;146;1571096944289;1571096948252;3963;4268892102;6249195111;309179986;11772655;983202682;9084461;149720748;423;6;785912;-7;4002;574635
3;147;1571096948285;1571096952348;4063;4326652038;6247221637;319383307;11200785;982860301;9401088;151398874;450;10;841184;-2;4097;588209
3;148;1571096952369;1571096956691;4322;4402941272;6236209685;339111318;9304079;979553987;9492299;153487840;518;3;955360;-6;4343;625221
3;149;1571096956712;1571096960735;4023;4296125774;6238630850;311063258;10170937;980111083;9333714;149588149;469;7;865392;11;4043;581004
3;150;1571096960759;1571096965017;4258;4389861132;6242886715;337407755;9710157;981223239;9615039;152387428;501;24;928128;-21;4282;613422
3;151;1571096965041;1571096969217;4176;4364501662;6240841430;331112334;9953246;980777049;9565229;152311162;515;8;948024;29;4201;602004
3;152;1571096969254;1571096973508;4254;4418149508;6240276445;335213064;8699031;980956431;10173188;151242440;629;50;911296;-9;4291;626174
3;153;1571096973530;1571096978291;4761;4654505842;6238485121;353645548;3621085;980584213;11564774;157032730;558;21;1033712;-40;4783;677329
3;154;1571096978315;1571096982298;3983;4264266238;6241280097;309294097;13354769;980979188;8651901;150615080;429;7;793016;46;4007;566803
3;155;1571096982322;1571096986087;3765;4166061674;6239182344;282592790;13015276;980254443;8769025;147313584;405;10;759080;-21;3789;542293
3;156;1571096986109;1571096990336;4227;4380695690;6240644083;333432407;11537026;980659895;8804175;154924091;506;7;932776;6;4248;609202
3;157;1571096991584;1571096995749;4165;4348715996;6248563242;317073075;11041774;982988098;9271389;153974987;640;27;1181704;0;5413;774995
3;158;1571096995772;1571096999757;3985;4265527094;6244983772;296878963;10228781;982099275;9395441;149353316;463;8;873608;17;4009;574524
3;159;1571096999789;1571097003991;4202;4358566616;6248491604;320493540;10895992;982811184;9279036;155539476;612;42;881856;-29;4233;615037
3;160;1571097004012;1571097008092;4080;4303018726;6237276693;312728367;10256012;979521336;9333676;151028818;515;34;949288;29;4102;585430
3;161;1571097008113;1571097012545;4432;4467424362;6240850947;337013846;8428662;980691587;9745524;156814548;490;5;911080;-10;4453;637501
4;113;1571097633911;1571097638108;4197;4367653510;6273367967;296368583;9950053;985301015;9887468;149821361;485;24;932688;-17;4220;392283
4;114;1571097638130;1571097641761;3631;4147371776;6282306602;248968519;12973507;987556295;9106170;142503727;412;9;794984;-10;3652;521330
4;115;1571097641798;1571097645707;3909;4245982220;6280554165;286079669;12711279;987224375;9029630;145956813;563;66;815952;1;3947;578983
4;116;1571097647595;1571097651674;4079;4319210710;6277728733;301828968;11303639;986392032;9040715;148585803;641;28;1225208;-1;5967;856842
4;117;1571097651697;1571097655980;4283;4394059070;6274897719;312141977;9482075;985581004;9408032;149814625;454;7;865848;26;4305;618757
4;118;1571097656001;1571097660280;4279;4394163314;6276104597;319594867;10366205;986037412;9249820;150874301;492;6;942232;-12;4301;618927
4;119;1571097660303;1571097664242;3939;4290809622;6272762855;280820026;10375671;984858128;9652350;146810980;452;9;853440;-4;3962;567816
4;120;1571097664265;1571097668615;4350;4415363682;6274222019;321063769;10035619;985520315;9200441;153464723;480;22;917536;0;4373;628232
4;121;1571097668638;1571097672715;4077;4329739792;6271751308;291675155;9657170;984694206;9810164;148357361;478;5;916440;2;4100;586957
4;122;1571097672738;1571097677097;4359;4451550220;6274448967;314483389;6973816;985661230;10251507;152341349;602;45;907144;9;4382;662364
4;123;1571097677119;1571097681816;4697;4593170220;6271182319;328157976;4436316;984468995;11044079;154416806;551;19;1052744;-85;4718;587787
4;124;1571097681838;1571097685710;3872;4231217386;6279311833;274366288;13291371;986893977;8913343;146247877;402;7;757024;74;3895;507541
4;125;1571097685732;1571097689746;4014;4290988618;6278801807;293150955;13219803;986723667;8574343;147692281;426;7;823312;-10;4035;577533
4;126;1571097689778;1571097693709;3931;4247832770;6274142415;277701908;11552421;985502699;8967490;146140107;466;20;864272;14;3963;570764
4;127;1571097693735;1571097697977;4242;4329856592;6296635895;296066148;11513828;990050504;9118917;149725147;488;7;937120;-8;4269;612051
4;128;1571097698000;1571097702440;4440;4442958996;6277395516;320194278;9991960;986441459;9258804;152148997;515;7;974672;-3;4463;639002
4;129;1571097702462;1571097706536;4074;4295807786;6279037904;303020837;11160645;986426419;9057275;150006509;565;52;866408;-1;4095;605799
4;130;1571097706582;1571097710688;4106;4327216036;6274177121;303179108;8869803;985714130;9886407;149090158;500;5;942624;12;4153;591050
4;131;1571097710711;1571097715032;4321;4393373308;6275090713;318232685;10214237;985834358;9273929;151214030;473;28;899592;7;4344;624050
4;132;1571097715053;1571097719236;4183;4329054468;6282645234;292268633;9602885;987643403;9445504;148551704;452;4;849952;-4;4203;603248
4;133;1571097719259;1571097723908;4649;4556610798;6273825469;330664678;5034477;985423419;10584540;153961417;519;12;975264;-7;4672;670870
4;134;1571097728187;1571097731911;3724;4197281292;6291501580;268545580;13087316;990685372;8892633;145243864;1107;92;1387456;-3;8003;1055204
4;135;1571097731936;1571097735876;3940;4233137140;6276999368;286004371;13269085;986601781;8748080;147256955;513;13;617552;-7;3966;573557
4;136;1571097735900;1571097740047;4147;4325239634;6272611733;298329229;9823375;984952886;9359753;150065059;474;12;899400;6;4171;600162
4;137;1571097740092;1571097744035;3943;4250022478;6277550702;277445929;10151489;986334594;9644489;146190400;456;21;858464;-8;3988;569341
4;138;1571097744075;1571097747996;3921;4214575284;6277379252;275781604;10709221;986368496;9147424;146407364;454;7;857216;26;3961;568629
4;139;1571097748019;1571097752198;4179;4349344526;6278288854;302564531;9109902;986787369;9790379;149327759;501;9;931496;-21;4202;604544
4;140;1571097752221;1571097756285;4064;4316003236;6283718148;296779278;11112408;987780371;8936638;149094676;481;9;912912;-1;4086;583772
4;141;1571097756306;1571097760706;4400;4426722774;6269592409;330739672;9409436;984052082;9413194;152814946;508;29;952536;4;4421;635307
4;142;1571097760727;1571097764812;4085;4280100960;6273845934;291939112;11168430;985275166;9058512;148926476;603;64;871960;22;4107;595745
4;143;1571097764835;1571097769024;4189;4354744044;6280243209;293340789;8992408;987232251;9928808;149438650;546;13;885608;-29;4212;611367
4;144;1571097769045;1571097773817;4772;4597917118;6273830806;333405139;3297156;985367231;11319189;153492029;500;9;933704;12;4792;687394
4;145;1571097773838;1571097778223;4385;4403858298;6270771743;323309725;9404519;984394897;9464546;151350960;469;22;864160;2;4406;563707
4;146;1571097778248;1571097782205;3957;4276756830;6283756873;289441099;13048454;988252072;8727472;147292900;477;8;882776;3;3982;569731
4;147;1571097782229;1571097786180;3951;4226044460;6282446925;295385720;12912756;988057949;8670124;147734066;460;12;868480;-12;3975;572798
4;148;1571097786202;1571097789939;3737;4193832480;6283009501;267849090;12057497;987790384;9283107;146098264;448;28;822728;0;3760;541820
4;149;1571097789964;1571097794239;4275;4371276792;6280162523;314149208;11324790;987037163;8848079;152278933;614;59;905352;0;4300;650181
4;150;1571097794283;1571097798418;4135;4354723750;6284819154;301144334;9661311;988837188;9893823;150194063;505;10;937688;7;4178;600627
4;151;1571097798442;1571097802741;4299;4395837934;6293049709;307371721;9381395;990605853;9526849;152686869;487;5;895600;-7;4324;620400
4;152;1571097806376;1571097810737;4361;4402021910;6270955230;306449208;8647835;984711336;9582955;151578530;883;31;1634152;13;7996;1146980
4;153;1571097810783;1571097814831;4048;4304428210;6278860526;287902386;10220930;986670707;9552150;148701979;489;11;895528;-9;4094;587020
4;154;1571097814877;1571097819627;4750;4612425138;6274233711;327899411;3278443;985568831;11460565;153692555;571;9;1058960;5;4796;688441
4;155;1571097819650;1571097823858;4208;4345248350;6272345893;303604664;10463204;984898946;9600971;149488816;580;95;851168;12;4231;499681
4;156;1571097823885;1571097828126;4241;4340146380;6280111796;309467606;13356249;987230284;8362355;150087428;490;11;889768;-10;4267;612354
4;157;1571097828149;1571097831784;3635;4104757150;6277271139;258683199;12933031;985926904;8657964;144611857;390;11;722872;-6;3658;523587
4;158;1571097831808;1571097835829;4021;4275354208;6279095795;284105108;11370882;986814385;9072553;149916023;459;26;841080;-11;4046;581273
4;159;1571097835876;1571097839941;4065;4320807804;6271642134;287031677;9717317;984677012;9720005;149736711;485;12;900384;27;4112;588526
4;160;1571097839992;1571097843947;3955;4268843630;6277793666;280888396;10982115;986419579;9253270;148991547;483;11;870704;-3;4005;575649
4;161;1571097843983;1571097848225;4242;4368982548;6271894740;300020990;9726702;984674716;9611027;152010950;516;8;951736;-4;4279;618061
4;162;1571097848249;1571097852532;4283;4415772336;6277562780;316780221;10344550;986737310;9251043;154009936;532;20;946464;-20;4307;613037
