0;134;1571073879228;1571073883389;4161;4343263188;6280849097;317274289;9110843;987931830;8660201;152906770;0;0;0;0;0;0
0;135;1571073883420;1571073887555;4135;4350159644;6279845713;316695849;9459037;987581188;8709152;151414614;0;0;0;0;0;0
0;136;1571073887589;1571073891349;3760;4203701350;6275293738;273466842;8979609;986177046;9274571;147735752;0;0;0;0;0;0
0;137;1571073891383;1571073895190;3807;4223739412;6270891940;284836197;7997983;984742636;8967276;147280582;7;9;568;0;3;8
0;138;1571073895213;1571073898918;3705;4194451374;6285288430;262631324;9457289;988428760;9404767;146744896;0;0;0;0;0;0
0;139;1571073898943;1571073903031;4088;4340186822;6280940062;308519012;9467388;988019781;8865390;176726616;24;18;5712;0;59;181
0;140;1571073903054;1571073907033;3979;4280232652;6272130529;293846710;7962841;985209707;8846877;151277913;0;0;0;0;0;0
0;141;1571073907055;1571073910711;3656;4176292916;6285438707;269250485;9256173;989066374;9357346;144344963;11;14;776;0;2;7
0;142;1571073910744;1571073914748;4004;4323249654;6276297471;304042707;9437006;986392702;8974651;150633660;0;0;0;0;0;0
0;143;1571073914795;1571073918631;3836;4232981504;6280588381;284398619;8066316;987609224;8973648;147595158;0;0;0;0;0;0
0;144;1571073918654;1571073922415;3761;4202236970;6272700987;269283120;8904066;985248281;9287529;146245638;0;0;0;0;0;0
0;145;1571073922437;1571073926089;3652;4184969550;6277573888;265346882;9328532;986805763;9354746;144221970;5;15;736;0;3;3
0;146;1571073926112;1571073929762;3650;4170072586;6278485311;265246023;9004022;986835921;9220345;146630003;0;0;0;0;0;0
0;147;1571073929801;1571073933805;4004;4280273532;6271165356;309209937;7725722;985115321;8797220;149782196;0;0;0;0;0;0
0;148;1571073933827;1571073937554;3727;4176938966;6271474813;264967965;9160007;984967014;9261391;146228486;28;16;5520;0;75;239
0;149;1571073937591;1571073941796;4205;4387956708;6281258416;325683909;10382100;987992568;8744195;153580941;480;35;48392;0;1532;2395
0;150;1571073941818;1571073946140;4322;4430099462;6271095946;335303647;8385213;984863846;8427918;184267932;0;0;0;0;0;0
0;151;1571073946183;1571073950097;3914;4259998074;6268706639;285803437;9181698;984248479;9018682;148855898;0;0;0;0;0;0
0;152;1571073950120;1571073954408;4288;4414856478;6275566405;315457589;9737223;986636222;8764597;152875461;0;0;0;0;0;0
0;153;1571073954430;1571073958314;3884;4224918216;6270361567;282172442;7759636;984637513;9016460;146032254;8;13;744;0;3;10
0;154;1571073958336;1571073961990;3654;4183566928;6276482359;257522671;9139048;986328447;9403983;147867043;0;0;0;0;0;0
0;155;1571073962015;1571073965639;3624;4160156850;6278145221;263821453;9444162;986808364;9327869;145447485;0;0;0;0;0;0
0;156;1571073965663;1571073969457;3794;4233009974;6275099614;275283145;9287740;985885448;9256188;148831527;0;0;0;0;0;0
0;157;1571073969486;1571073973601;4115;4333396070;6271626522;314182242;8061361;984870511;8630069;152990956;148;34;8752;0;160;2196
0;158;1571073973624;1571073978005;4381;4429902508;6273664016;335777767;9920238;985886368;8446056;158409316;0;0;0;0;0;0
0;159;1571073978028;1571073982310;4282;4404762330;6277777434;331856813;9703159;987279711;8605499;155825405;0;0;0;0;0;0
0;160;1571073982332;1571073986057;3725;4214037712;6278259148;277273797;7761529;986830921;9226107;148266812;5;18;768;0;3;9
0;161;1571073986090;1571073990090;4000;4319305902;6275135193;300059034;9519894;986274655;9148705;151622451;0;0;0;0;0;0
0;162;1571073990114;1571073994501;4387;4428140726;6270919055;330114580;9730828;985071515;8392774;157029254;0;0;0;0;0;0
0;163;1571073994526;1571073998321;3795;4216435616;6271462483;266712037;7520637;984783893;9312099;145745389;0;0;0;0;0;0
0;164;1571073998344;1571074002008;3664;4158309804;6275294348;260400635;9283804;985760008;9239966;146971384;12;11;760;0;3;23
0;165;1571074002030;1571074006425;4395;4450512306;6274622060;348857607;10041956;986001775;8472259;157003370;0;0;0;0;0;0
0;166;1571074006447;1571074010638;4191;4343476640;6271737472;310873363;8349826;985115086;8484472;153916598;39;14;5936;0;96;434
0;167;1571074010662;1571074014441;3779;4211852968;6275244708;277013796;9126145;986196164;9197722;148482690;0;0;0;0;0;0
0;168;1571074014465;1571074018241;3776;4205768564;6266507968;276597367;8812813;983571504;8921049;149034505;11;11;752;0;4;25
0;169;1571074018265;1571074022050;3785;4208915302;6273584225;271318082;8648823;985593503;9149732;148292492;0;0;0;0;0;0
0;170;1571074022072;1571074025919;3847;4213988948;6271051671;277919603;7615757;984606124;9069375;149238659;0;0;0;0;0;0
0;171;1571074025944;1571074029730;3786;4206406292;6269535994;272669224;8785003;984181917;9038852;148831166;0;0;0;0;0;0
0;172;1571074029753;1571074033508;3755;4178753016;6267462393;265494389;8937854;984029420;9057466;148070788;12;12;768;0;12;33
0;173;1571074033530;1571074037256;3726;4179254672;6269624609;266344974;7300823;984445397;9202290;148973167;0;0;0;0;0;0
0;174;1571074037289;1571074041023;3734;4204403902;6275911508;264959951;9304677;986303937;9351803;147653808;0;0;0;0;0;0
0;175;1571074041048;1571074045205;4157;4348660370;6276343026;305356368;9478771;986338120;8670518;154878738;32;20;5840;0;83;319
0;176;1571074045229;1571074049038;3809;4254149022;6272433709;274156166;7896780;985418569;9100205;148955742;12;4;560;0;3;28
0;177;1571074049061;1571074052824;3763;4202248650;6273417458;265684839;8584087;985481647;9199114;148095941;0;0;0;0;0;0
0;178;1571074052847;1571074056533;3686;4178687608;6273875640;261693742;9528364;985303842;9252410;145083314;0;0;0;0;0;0
0;179;1571074056557;1571074060201;3644;4159879158;6276448484;262532749;9157009;986355062;9262597;146393410;0;0;0;0;0;0
0;180;1571074060223;1571074064186;3963;4256169078;6274546258;282620353;7906591;986113716;9057620;149308449;8;16;768;0;12;44
0;181;1571074064209;1571074067852;3643;4157408108;6272761128;257341408;8991704;985315410;9253071;146477957;0;0;0;0;0;0
0;182;1571074067891;1571074071550;3659;4160983794;6276076408;256052034;9394069;986403198;9387297;146278145;0;0;0;0;0;0
0;183;1571074071586;1571074075225;3639;4136412140;6276182404;254808419;7865215;986033528;9216021;147140977;0;0;0;0;0;0
1;133;1571074731794;1571074736127;4333;4489384368;6261314305;310828925;8345648;980557165;9592646;152598856;76;17;7104;0;113;703
1;134;1571074736149;1571074740619;4470;4569647868;6265807933;325767981;9813804;982224489;9665803;154160217;0;0;0;0;0;0
1;135;1571074740642;1571074745006;4364;4545757158;6264381578;316110522;9705379;981443243;9729129;151792578;0;0;0;0;0;0
1;136;1571074745028;1571074748712;3684;4231471426;6259835509;246933920;7802557;979690651;10219894;141506965;0;0;0;0;0;0
1;137;1571074748740;1571074752553;3813;4310867248;6259547228;261842858;9298016;979797803;10014143;143611536;13;7;736;0;4;25
1;138;1571074752587;1571074756440;3853;4308925302;6266305943;270509996;9459738;982109428;10225283;144089386;0;0;0;0;0;0
1;139;1571074756485;1571074760502;4017;4351538906;6267125167;273386771;8047968;981980045;9838883;146578000;0;0;0;0;0;0
1;140;1571074760526;1571074764994;4468;4542292286;6263553775;321684430;9857118;981428054;9584891;156388023;0;0;0;0;0;0
1;141;1571074765018;1571074768952;3934;4321092358;6267139227;266830137;9711131;982351666;9902527;146099204;17;7;776;0;5;51
1;142;1571074768988;1571074772950;3962;4337103594;6272568444;271869457;8828442;983906071;10039687;147753592;434;22;48880;1;1198;1967
1;143;1571074772985;1571074777416;4431;4533509364;6269907600;315238448;9900394;983127184;9652596;153206693;86;10;4632;-1;335;687
1;144;1571074777438;1571074781305;3867;4301255192;6259738456;268381069;9723900;979908986;10006339;145325275;6;16;752;0;3;7
1;145;1571074781327;1571074785244;3917;4328966868;6273214561;268686783;8528645;984123570;10169723;145413402;0;0;0;0;0;0
1;146;1571074785289;1571074789018;3729;4253406904;6267494605;255699020;8801004;982198292;10277897;142734301;0;0;0;0;0;0
1;147;1571074789041;1571074792778;3737;4259909598;6272822909;251262613;9680258;983969608;10506086;144178576;0;0;0;0;0;0
1;148;1571074792802;1571074796501;3699;4238268748;6263971010;249609941;9420820;980824825;11955283;144519226;0;0;0;0;0;0
1;149;1571074796523;1571074800228;3705;4211492348;6268194429;245214989;7768111;982095332;10161282;143805425;10;13;760;0;3;10
1;150;1571074800249;1571074804720;4471;4540486120;6270835260;316843182;9813548;983480639;9652555;154803967;0;0;0;0;0;0
1;151;1571074804745;1571074808428;3683;4224197414;6266193612;246536075;9536570;981993420;10282634;141641073;87;10;7088;0;156;1378
1;152;1571074808451;1571074812692;4241;4428724142;6274277648;297733217;8422272;984169325;9865009;148664352;83;19;1640;0;198;1620
1;153;1571074812716;1571074816384;3668;4213983692;6266408237;247701505;9285910;981849370;10294917;142141943;0;0;0;0;0;0
1;154;1571074816407;1571074820089;3682;4239161830;6263614548;252759990;9602679;981002773;10199799;142374011;0;0;0;0;0;0
1;155;1571074820113;1571074823796;3683;4231359444;6267494599;249489211;8850509;982075265;10201356;142779937;0;0;0;0;0;0
1;156;1571074823818;1571074827501;3683;4221695850;6263882141;243970962;8321945;981047439;10302842;142550657;14;10;768;0;4;26
1;157;1571074827523;1571074831227;3704;4238300722;6270358181;243045132;9545572;982816401;10267323;142663109;0;0;0;0;0;0
1;158;1571074831248;1571074834988;3740;4255577340;6276281788;251085230;9478550;984884293;10189808;143768988;0;0;0;0;0;0
1;159;1571074835011;1571074838794;3783;4257777268;6264884559;258392907;7812769;981591516;10221846;144146240;0;0;0;0;0;0
1;160;1571074838816;1571074842448;3632;4189294946;6263472677;246118915;9142965;981043292;10209968;141101777;64;22;7184;0;107;814
1;161;1571074842482;1571074846296;3814;4242347550;6262197135;266769652;9294304;981045727;9852480;143958364;4;11;552;0;2;2
1;162;1571074846318;1571074850381;4063;4364753512;6258283216;294499873;8268474;979373061;9852839;148503021;0;0;0;0;0;0
1;163;1571074850406;1571074854760;4354;4511735070;6259651994;303755827;9411401;980081559;9707471;150407837;0;0;0;0;0;0
1;164;1571074854798;1571074858607;3809;4283817244;6261232910;254592865;9460657;980391341;9993340;144299655;11;19;968;0;14;92
1;165;1571074858630;1571074862494;3864;4317774654;6265688619;258678940;9372394;981813196;10289685;144817462;0;0;0;0;0;0
1;166;1571074862517;1571074866411;3894;4251933618;6257436737;266704455;7934588;979579309;9860632;145932293;0;0;0;0;0;0
1;167;1571074866436;1571074870310;3874;4280367556;6258785618;275832023;9150726;979755912;9929881;145919518;0;0;0;0;0;0
1;168;1571074870332;1571074874199;3867;4291487938;6261717118;267160293;9092971;980687421;10003640;145739325;6;15;744;0;11;20
1;169;1571074874222;1571074878233;4011;4383699640;6266345856;270297421;7919610;982035086;10026972;146455415;60;14;6224;0;107;742
1;170;1571074878254;1571074882088;3834;4263330816;6260095842;254878296;9210124;979835178;10072736;144157614;0;0;0;0;0;0
1;171;1571074882111;1571074885836;3725;4304097812;6275927985;245327712;9835119;984450511;10320240;144934325;0;0;0;0;0;0
1;172;1571074885857;1571074889858;4001;4350450476;6269203029;272086553;7864099;982604698;10142627;147861053;14;11;776;0;13;60
1;173;1571074889897;1571074893689;3792;4296398210;6271818474;257719391;9535141;983834505;10154603;145494464;0;0;0;0;0;0
1;174;1571074893711;1571074898010;4299;4502843378;6270896242;303856076;9551272;983732302;9745525;152517246;0;0;0;0;0;0
1;175;1571074898033;1571074901794;3761;4213913758;6259900488;258114639;8498369;980018962;9944799;169477335;0;0;0;0;0;0
1;176;1571074901816;1571074905855;4039;4373704626;6275671181;287563545;8477496;984959163;9923781;148274049;12;4;560;0;3;28
1;177;1571074905887;1571074909787;3900;4320426598;6278585141;273202035;9332628;985385466;10150499;147274106;56;14;6288;0;103;665
1;178;1571074909809;1571074913842;4033;4361477272;6270180791;288252756;9604182;983196705;9811767;148629776;0;0;0;0;0;0
1;179;1571074913890;1571074918194;4304;4486118932;6266145335;311660020;8265928;982259993;9730990;153631986;0;0;0;0;0;0
1;180;1571074918218;1571074921956;3738;4276253860;6261330875;263350404;9233107;980622935;10280075;145127030;11;13;768;0;12;21
1;181;1571074921993;1571074925688;3695;4239883800;6268336540;255260610;9525602;982364068;10366862;143949045;0;0;0;0;0;0
1;182;1571074925711;1571074929456;3745;4256833670;6269645034;265847717;7427505;982738712;10291493;145370593;0;0;0;0;0;0
2;132;1571075593334;1571075597681;4347;4447425136;6283342879;358484912;10082410;984413947;8664591;157940256;18;3;608;0;12;51
2;133;1571075597702;1571075601421;3719;4236808164;6289301201;276753608;7775903;985950386;9396370;148766274;34;16;6032;0;68;303
2;134;1571075601444;1571075605174;3730;4255583326;6293729908;283744317;9833172;986834687;9409805;147517391;0;0;0;0;0;0
2;135;1571075605199;1571075609352;4153;4437197398;6297201143;337229379;9807092;988780218;8995662;154060562;8;12;736;0;3;10
2;136;1571075609398;1571075613444;4046;4347234972;6286525735;328860085;8223066;985106318;8891190;152437748;0;0;0;0;0;0
2;137;1571075613490;1571075617755;4265;4442097158;6283579307;344688860;10183762;984406294;8644069;156022811;0;0;0;0;0;0
2;138;1571075617790;1571075622137;4347;4482828530;6291330928;366718307;9824489;986856836;8609954;156206715;0;0;0;0;0;0
2;139;1571075622180;1571075626203;4023;4369189576;6288847522;316733675;8126342;985978697;9098068;151168594;20;4;768;0;13;67
2;140;1571075626227;1571075630642;4415;4466491276;6288276730;358255563;10321081;985611337;8304354;156519960;0;0;0;0;0;0
2;141;1571075630684;1571075635049;4365;4455062688;6291858748;359913310;9864439;986885765;8346950;157007379;32;14;5520;0;86;303
2;142;1571075635097;1571075639089;3992;4333270072;6287691303;309428509;9098297;985331366;8835801;151104098;480;16;47672;0;1555;2550
2;143;1571075639112;1571075643242;4130;4393926356;6298919277;328948039;9778368;988905745;8941118;153033030;8;14;752;0;3;5
2;144;1571075643285;1571075647516;4231;4394751110;6292730914;338117403;9635694;987548593;8679903;152968461;0;0;0;0;0;0
2;145;1571075647537;1571075651567;4030;4334422888;6286970712;313876862;8512204;985222807;8810822;150163265;0;0;0;0;0;0
2;146;1571075651599;1571075655352;3753;4300509862;6289704864;286647804;9575351;985960471;9322195;147196875;6;12;576;0;2;5
2;147;1571075655387;1571075659201;3814;4316605778;6297252136;292518419;9704195;988151578;9409321;147634280;0;0;0;0;0;0
2;148;1571075659222;1571075663099;3877;4323620932;6298967123;302608727;9958306;988572012;9332744;148622755;0;0;0;0;0;0
2;149;1571075663122;1571075666984;3862;4260951892;6283306112;291884593;8190069;984251625;9070561;148072876;36;22;5856;1;111;406
2;150;1571075667006;1571075670948;3942;4356234850;6288255982;312852904;9964925;985739652;9343005;150518784;90;16;2360;-1;87;1839
2;151;1571075670980;1571075675346;4366;4449990648;6286904386;348698612;9911401;985049560;8384735;157667044;0;0;0;0;0;0
2;152;1571075675380;1571075679083;3703;4220154820;6289107614;279253943;7917355;985954699;9381613;147970181;0;0;0;0;0;0
2;153;1571075679106;1571075682785;3679;4226519544;6288822611;271025000;9881269;986164742;9454394;146388031;0;0;0;0;0;0
2;154;1571075682808;1571075686789;3981;4332053600;6295165881;309750185;9917855;987942511;9046369;151651657;16;8;768;0;4;48
2;155;1571075686812;1571075690517;3705;4262852374;6302844088;285496097;8250470;989823719;9536670;148155881;0;0;0;0;0;0
2;156;1571075690540;1571075694547;4007;4352544992;6292385421;319347669;9750439;987227381;9216096;152295290;0;0;0;0;0;0
2;157;1571075694581;1571075698748;4167;4383517140;6289983899;327153651;10018179;985834488;8759473;154908157;54;22;7312;0;113;660
2;158;1571075698780;1571075702468;3688;4244084804;6291187643;286627949;8914720;986268794;9391876;147024928;10;11;744;0;11;24
2;159;1571075702497;1571075706325;3828;4292194870;6293402964;288894023;9024958;986936425;9324712;148705239;0;0;0;0;0;0
2;160;1571075706347;1571075710062;3715;4209513464;6286099975;272698249;9961097;985137064;9342568;146294393;0;0;0;0;0;0
2;161;1571075710097;1571075713801;3704;4239566980;6289841868;269147999;9531494;985750814;9514024;146694831;0;0;0;0;0;0
2;162;1571075713823;1571075717585;3762;4289764262;6297870150;283851629;8094425;988644548;9635907;146698712;11;8;592;0;3;10
2;163;1571075717608;1571075721416;3808;4312411782;6295786872;285632689;9534084;987858145;9447660;150062224;0;0;0;0;0;0
2;164;1571075721437;1571075725132;3695;4236754728;6289153696;276661452;9740611;985751621;9491509;149286031;0;0;0;0;0;0
2;165;1571075725153;1571075728889;3736;4255342572;6289734170;271328352;8138830;985983443;9379385;149352999;0;0;0;0;0;0
2;166;1571075728911;1571075732585;3674;4217673842;6289297732;270420678;9752833;985643199;9442728;147997626;74;23;7392;0;148;706
2;167;1571075732617;1571075736319;3702;4264327266;6282544006;280067895;10105763;983872193;9264824;149414990;0;0;0;0;0;0
2;168;1571075736341;1571075740035;3694;4261733722;6291027679;281488536;9700137;986601792;9307613;147743326;0;0;0;0;0;0
2;169;1571075740058;1571075743821;3763;4274909492;6294281955;274453986;8152438;987237534;9180453;148526041;0;0;0;0;0;0
2;170;1571075743842;1571075747549;3707;4282117512;6290576417;277257129;9696361;986262472;9327608;147962983;13;11;768;0;12;23
2;171;1571075747584;1571075751306;3722;4287453082;6291008887;280461630;9698643;986542539;9501093;148900097;0;0;0;0;0;0
2;172;1571075751328;1571075755108;3780;4279002748;6284404999;300251265;8156179;984423160;9090216;148517963;0;0;0;0;0;0
2;173;1571075755131;1571075758842;3711;4284437160;6291805724;279017353;9814951;986481289;9321500;148122132;0;0;0;0;0;0
2;174;1571075758863;1571075763245;4382;4477424048;6284921262;354596416;10178523;984957095;8617198;157337270;70;28;6352;0;137;1196
2;175;1571075763267;1571075767213;3946;4350780728;6285838655;307723194;7981581;985175469;9176731;150464967;0;0;0;0;0;0
2;176;1571075767234;1571075770904;3670;4259179160;6295845064;277397208;9750295;987734978;9445952;148021897;0;0;0;0;0;0
2;177;1571075770925;1571075774555;3630;4230844502;6284450851;275491067;9609278;984477543;9293453;145827313;0;0;0;0;0;0
2;178;1571075774590;1571075778385;3795;4296009558;6292559254;297744778;9896663;986970038;9310601;149616453;18;7;776;0;13;73
2;179;1571075778408;1571075782495;4087;4392515704;6292685238;328911125;8222610;987058029;9032543;154510509;0;0;0;0;0;0
2;180;1571075782516;1571075786227;3711;4253927978;6290013220;279656538;9574038;985994896;9235496;148718300;0;0;0;0;0;0
2;181;1571075786249;1571075789950;3701;4271777938;6292753083;275293992;9820922;986959380;9426899;148074063;0;0;0;0;0;0
3;134;1571076462404;1571076466098;3694;4117480466;6281401728;266797948;8119101;984302756;9963042;143919419;0;0;0;0;0;0
3;135;1571076466122;1571076470287;4165;4311658422;6276915003;304152492;9763146;983306475;9947679;148899775;30;18;6288;0;94;240
3;136;1571076470311;1571076474531;4220;4380703720;6268210368;325059180;10165948;980956403;9970478;151495413;0;0;0;0;0;0
3;137;1571076474555;1571076478845;4290;4356177618;6269409311;318768000;8569215;981011072;9786127;151578837;13;8;752;0;3;16
3;138;1571076478867;1571076483301;4434;4438194286;6280158001;340926260;10244519;984329659;9853574;153700964;0;0;0;0;0;0
3;139;1571076483324;1571076487719;4395;4401863500;6272017345;319749025;10312796;981945714;9943530;152049156;0;0;0;0;0;0
3;140;1571076487741;1571076491698;3957;4229188716;6271014883;290074765;8024685;981478600;9961640;145820785;11;13;768;0;3;14
3;141;1571076491719;1571076495855;4136;4304639326;6271487767;304926804;10062273;981549161;9955776;149317836;0;0;0;0;0;0
3;142;1571076495888;1571076499685;3797;4190580038;6268101744;266832146;9679387;980590980;9918908;143396457;0;0;0;0;0;0
3;143;1571076499708;1571076503351;3643;4096543774;6262855676;259353444;8261466;978743207;9799407;140538095;38;18;6352;0;86;394
3;144;1571076503374;1571076507229;3855;4176888742;6276753668;275022020;10392752;982872750;9853311;143543661;481;35;48680;0;1502;2281
3;145;1571076507251;1571076510902;3651;4102435750;6270051440;252154649;9426731;980806565;9928273;140523074;0;0;0;0;0;0
3;146;1571076510924;1571076514604;3680;4133934082;6278636395;260184650;9911476;983202290;9907647;141777516;0;0;0;0;0;0
3;147;1571076514629;1571076518649;4020;4257663680;6266684429;302113009;8073242;980253907;9890290;147138315;0;0;0;0;0;0
3;148;1571076518671;1571076522332;3661;4126670874;6279487768;268462323;9644315;983574145;9842297;142122996;10;8;576;0;3;24
3;149;1571076522355;1571076526017;3662;4119289260;6266241351;263872308;9951484;979818451;9844237;142249599;0;0;0;0;0;0
3;150;1571076526040;1571076529765;3725;4129162218;6270524467;273408750;8138982;981176061;9804808;143425248;0;0;0;0;0;0
3;151;1571076529804;1571076533468;3664;4119280646;6273148110;267401955;9847792;982282196;9979816;141762566;0;0;0;0;0;0
3;152;1571076533507;1571076537254;3747;4158934830;6286795037;273065741;9700360;985875012;10204050;143510494;166;30;9880;0;226;3515
3;153;1571076537291;1571076540967;3676;4134585680;6275868108;278155539;8705455;982761322;9988101;143499062;0;0;0;0;0;0
3;154;1571076541005;1571076544659;3654;4130367594;6279104739;276542158;9343028;983386243;10021615;144035530;0;0;0;0;0;0
3;155;1571076544694;1571076548336;3642;4118170316;6277434176;271026374;9558092;983007682;9980793;144514482;0;0;0;0;0;0
3;156;1571076548360;1571076552033;3673;4139203952;6287556533;275671944;9796958;986231765;10005680;144568859;9;15;776;0;3;6
3;157;1571076552055;1571076555728;3673;4095661496;6267995542;268614427;7908296;980637106;9836717;144473260;0;0;0;0;0;0
3;158;1571076555752;1571076559440;3688;4131627428;6279549575;272741646;9890147;983962467;10035505;143878226;0;0;0;0;0;0
3;159;1571076559464;1571076563122;3658;4116670020;6275506825;271001438;9451807;982651584;10046282;143217138;0;0;0;0;0;0
3;160;1571076563145;1571076567214;4069;4282688810;6278821931;311624348;8638829;983748611;9982451;148830103;10;25;3296;30;11;178
3;161;1571076567237;1571076571614;4377;4446887272;6270930094;341765930;10262363;981635024;10104965;154014729;34;0;2960;-30;75;279
3;162;1571076571636;1571076575309;3673;4126827386;6279093287;277290856;9506871;983392090;10008549;143710411;0;0;0;0;0;0
3;163;1571076575333;1571076579037;3704;4119718354;6271659160;256182563;8263369;981402576;9905567;141905947;0;0;0;0;0;0
3;164;1571076579059;1571076582958;3899;4208962460;6273703743;293256432;9500310;981959934;9868412;146935885;13;18;976;0;14;116
3;165;1571076582995;1571076586797;3802;4183924920;6270715691;281236713;9790942;981297020;9969558;145490078;0;0;0;0;0;0
3;166;1571076586819;1571076590856;4037;4302712272;6266681704;305869112;9548905;979867751;9764613;149057857;0;0;0;0;0;0
3;167;1571076590904;1571076594611;3707;4144612814;6277491973;273434330;8715955;983457878;10054204;143972552;0;0;0;0;0;0
3;168;1571076594633;1571076598636;4003;4274805248;6268934416;304604461;9894162;980658935;9843409;150029627;42;31;7376;0;93;403
3;169;1571076598657;1571076602455;3798;4194435314;6271823376;279227076;9478198;981957551;10020090;144015403;0;0;0;0;0;0
3;170;1571076602501;1571076606235;3734;4136659610;6269820268;274178150;7948455;981145631;9974039;143305567;0;0;0;0;0;0
3;171;1571076606259;1571076609947;3688;4135173914;6283449986;267312112;9730326;985127335;10049941;144518552;0;0;0;0;0;0
3;172;1571076609969;1571076614059;4090;4321400856;6280405544;307353380;9922087;984471081;10071798;150087795;14;11;784;0;12;50
3;173;1571076614093;1571076617803;3710;4141301826;6267966802;267557398;8253640;980708656;10013563;144484628;0;0;0;0;0;0
3;174;1571076617824;1571076621487;3663;4133076916;6270074588;264392578;9367814;981135453;9802422;144121992;0;0;0;0;0;0
3;175;1571076621511;1571076625245;3734;4133942550;6266409581;261676296;9619661;980100673;9946897;142678658;0;0;0;0;0;0
3;176;1571076625268;1571076629031;3763;4151102952;6273031725;274633251;8440859;981718001;9969029;143533214;47;19;6528;0;83;434
3;177;1571076629053;1571076633228;4175;4336088894;6270873188;307198380;9374141;981639449;10067811;151516652;0;0;0;0;0;0
3;178;1571076633250;1571076637718;4468;4469107888;6271779406;342863598;10260961;981956280;10047388;153969436;0;0;0;0;0;0
3;179;1571076637741;1571076641793;4052;4278868866;6267704752;296756127;8221132;980632731;9976468;148741440;0;0;0;0;0;0
3;180;1571076641815;1571076645990;4175;4355840066;6284169525;312997146;9708270;985534596;10170621;151578666;11;14;800;0;48;54
3;181;1571076646012;1571076650329;4317;4421547220;6280645345;325782856;10032766;984475797;10144680;152841564;0;0;0;0;0;0
3;182;1571076650350;1571076654067;3717;4155855398;6281774996;269225666;8555656;984826565;10178040;144116686;0;0;0;0;0;0
3;183;1571076654090;1571076657798;3708;4132728998;6273447521;264851870;9074748;981904255;9869713;142594561;0;0;0;0;0;0
4;137;1571077331400;1571077334997;3597;4121273108;6272492661;253244514;9570957;987954521;9108203;140859273;0;0;0;0;0;0
4;138;1571077335019;1571077338990;3971;4227792810;6266773375;294482827;7918687;986651960;8616633;145153639;40;20;6912;2;22;399
4;139;1571077339013;1571077342682;3669;4154223702;6271802406;264349987;9397481;987946877;9294236;141890602;14;11;760;-2;78;150
4;140;1571077342704;1571077346322;3618;4165537388;6273313609;258267441;9384565;988172136;9189708;142318722;0;0;0;0;0;0
4;141;1571077346346;1571077350350;4004;4291728400;6286676109;303082975;8307079;992596135;8976364;148255023;0;0;0;0;0;0
4;142;1571077350385;1571077354007;3622;4163461706;6269859095;264557227;9489902;987470027;9340841;142187978;0;0;0;0;0;0
4;143;1571077354033;1571077357818;3785;4183620364;6277606572;273803212;9248686;989389423;8933594;144077722;13;12;776;0;4;19
4;144;1571077357841;1571077361433;3592;4131697654;6272221252;249899009;9244261;988105461;9184554;140657048;0;0;0;0;0;0
4;145;1571077361455;1571077365194;3739;4163601866;6273322036;264902254;7972346;988474192;9104884;142731645;0;0;0;0;0;0
4;146;1571077365216;1571077369134;3918;4235972022;6274791008;290142752;10163478;988891493;8783888;145906888;434;16;45872;10;1227;1932
4;147;1571077369157;1571077373317;4160;4285019700;6267822691;314468434;9790352;986867856;8355342;148643658;73;19;4400;-10;301;570
4;148;1571077373340;1571077377315;3975;4253064242;6266141224;298207315;7969178;986318575;8697094;146122397;0;0;0;0;0;0
4;149;1571077377337;1571077381036;3699;4172070742;6264937535;267877325;9558864;986083364;9199616;141805815;0;0;0;0;0;0
4;150;1571077381058;1571077385204;4146;4366384332;6294345701;322526182;9446204;995312898;8681525;149711475;0;0;0;0;0;0
4;151;1571077385227;1571077389035;3808;4205416558;6266059244;283164195;7726174;986404455;9094569;143698459;11;13;768;0;3;10
4;152;1571077389057;1571077392696;3639;4191426108;6270109452;267308539;9387938;987568623;9276801;141552452;0;0;0;0;0;0
4;153;1571077392718;1571077396341;3623;4136565002;6265871187;259762810;9185285;986457557;9170513;140222227;0;0;0;0;0;0
4;154;1571077396363;1571077400083;3720;4226910678;6281236308;269743356;8997603;990820245;9239187;144912051;64;14;6928;0;111;857
4;155;1571077400108;1571077403898;3790;4216759006;6274760792;291918206;8366999;989198930;9115206;146046799;84;16;1568;0;70;1536
4;156;1571077403922;1571077407545;3623;4184703392;6277112606;263524934;9767462;989420055;9397589;143314126;0;0;0;0;0;0
4;157;1571077407581;1571077411156;3575;4148465316;6270393280;267311959;9476850;987454419;9185364;143626839;0;0;0;0;0;0
4;158;1571077411190;1571077414797;3607;4163608290;6265826701;271795466;7551666;986495553;9223579;143955376;0;0;0;0;0;0
4;159;1571077414822;1571077418447;3625;4164346612;6270992556;275189824;9281770;987535174;9291054;143279730;11;12;760;0;3;11
4;160;1571077418483;1571077422147;3664;4184793912;6277406160;275935322;9249317;989304690;9242572;142325774;0;0;0;0;0;0
4;161;1571077422180;1571077425895;3715;4197230630;6277576243;277853039;8555635;990098092;9568832;144377623;0;0;0;0;0;0
4;162;1571077425918;1571077429580;3662;4165991448;6266855153;277157175;8389202;986472346;9378146;143059326;0;0;0;0;0;0
4;163;1571077429603;1571077433299;3696;4183657302;6265010522;266324388;9608748;986281499;9355788;143789047;83;46;9448;0;162;1188
4;164;1571077433323;1571077437004;3681;4171269348;6273332291;276235929;9299969;988529256;9163770;145708399;0;0;0;0;0;0
4;165;1571077437027;1571077440819;3792;4190171092;6268814783;292610684;7907690;987316853;8966099;146479190;0;0;0;0;0;0
4;166;1571077440843;1571077444659;3816;4252884662;6266359316;296169520;9557484;986177481;8904289;146299787;0;0;0;0;0;0
4;167;1571077444695;1571077448362;3667;4208829600;6306009394;274737984;9445612;998324299;9529251;146239244;10;14;768;0;3;10
4;168;1571077448397;1571077452014;3617;4149503084;6264030505;262697554;8035770;985901048;9064835;144161496;0;0;0;0;0;0
4;169;1571077452037;1571077455934;3897;4234739344;6271063135;289911203;9031855;987879256;9015445;148749559;0;0;0;0;0;0
4;170;1571077455957;1571077459600;3643;4185693856;6270637643;265539249;9676306;987814657;9200776;141971685;0;0;0;0;0;0
4;171;1571077459623;1571077463394;3771;4215860376;6274025418;276631566;9497519;988843613;9168127;146380222;11;16;936;0;4;18
4;172;1571077463416;1571077467499;4083;4308401454;6280160430;319477233;7943605;990640190;8796042;150160914;50;14;6544;0;101;560
4;173;1571077467522;1571077471396;3874;4233852102;6268831370;302264382;9671385;987321246;8879574;142933082;0;0;0;0;0;0
4;174;1571077471418;1571077475145;3727;4209086706;6272999031;271835361;9438849;988264092;9070552;145685994;0;0;0;0;0;0
4;175;1571077475189;1571077478929;3740;4191220540;6272816189;274409044;7673384;988437333;8958354;145020427;15;9;768;0;12;47
4;176;1571077478952;1571077482892;3940;4235680606;6265096969;299204276;9377600;986267848;8844769;146941673;0;0;0;0;0;0
4;177;1571077482914;1571077486838;3924;4275248796;6273967964;294586854;9701355;988753730;9257736;148341168;0;0;0;0;0;0
4;178;1571077486860;1571077490785;3925;4237667374;6268797676;296682364;7621358;986955065;8779750;146801924;0;0;0;0;0;0
4;179;1571077490810;1571077495083;4273;4323104384;6280213248;319320444;9861962;990784586;8445454;152959259;9;13;776;0;7;11
4;180;1571077495105;1571077499313;4208;4344583904;6283863996;322542717;9937213;992241815;8645679;153087027;0;0;0;0;0;0
4;181;1571077499335;1571077503254;3919;4230511914;6269052923;290279011;8060839;987455235;8803855;147760600;53;24;6960;0;100;589
4;182;1571077503285;1571077506933;3648;4194605404;6266423477;267801651;9332602;986409043;9205680;144610007;0;0;0;0;0;0
4;183;1571077506956;1571077510886;3930;4262410870;6276157580;293658833;9654201;989186096;8774061;148539917;12;12;776;0;11;34
4;184;1571077510908;1571077514530;3622;4161367920;6268612227;259441791;9452891;986874982;9064726;142949223;0;0;0;0;0;0
4;185;1571077514553;1571077518187;3634;4147763932;6270949763;268644942;7585133;987702973;9196990;142664938;0;0;0;0;0;0
4;186;1571077518209;1571077522114;3905;4240673660;6267509225;292192569;9293638;986876233;8791167;147674430;0;0;0;0;0;0
