0;129;1571106284252;1571106288199;3947;4284238308;6303034668;316982342;12892475;970150299;9802110;145863068;1928;1;324072;0;665;1303
0;130;1571106288221;1571106292216;3995;4321046514;6307135443;325474090;12919706;971623767;9760106;146897575;2030;170;336648;80;730;16394
0;131;1571106292239;1571106296204;3965;4300897638;6300051916;333984214;12821463;969469137;9723733;146290954;1781;246;342736;-79;2332;26564
0;132;1571106296227;1571106300225;3998;4311671124;6304683963;320379627;12881339;971017164;9819468;147728231;1953;6;329112;-1;1789;6633
0;133;1571106300247;1571106304271;4024;4331882634;6303656378;331861233;12938807;970523836;9929776;146925082;1959;0;329112;7;1606;5681
0;134;1571106304297;1571106308284;3987;4293646548;6300684737;326896332;12807242;969963466;9651181;146489739;1971;4;329832;-7;1400;4613
0;135;1571106308310;1571106312312;4002;4279310078;6295041134;328897205;12669624;968034654;9730726;145901086;1783;434;327512;47;1982;59514
0;136;1571106312334;1571106316342;4008;4273251808;6299631862;323819527;13071441;969139503;9537835;146790508;708;1623;382952;-41;4030;88382
0;137;1571106316364;1571106320337;3973;4262273922;6300041136;318366461;12994568;969460839;9728324;145214706;1680;316;332272;-6;2062;9462
0;138;1571106320358;1571106324358;4000;4280366242;6305260229;325054855;12912863;971294031;9700227;145971957;1947;31;328608;2;1734;11447
0;139;1571106324381;1571106328398;4017;4285384554;6295395538;321090757;12809397;968009069;9730378;147185578;1966;1;330456;-2;898;2410
0;140;1571106328420;1571106332457;4037;4326430410;6301970290;333777380;12770548;970131912;9876399;147917295;1969;5;331632;0;916;2317
0;141;1571106332479;1571106336521;4042;4304837740;6303523955;332593618;12770761;970525479;9790175;147753967;1987;8;332376;1;803;2300
0;142;1571106336547;1571106340701;4154;4334522022;6301839260;332117343;13003055;969940159;9818800;148849715;2030;0;341040;0;505;665
0;143;1571106340724;1571106344758;4034;4322410884;6303840976;328091545;12490384;970358531;9798447;146954724;1864;431;354880;0;1815;41580
0;144;1571106344789;1571106348828;4039;4319270570;6303691340;322336456;12361792;970291295;9983068;147553483;1985;0;333480;-1;1743;6459
0;145;1571106348849;1571106352991;4142;4345450414;6298646714;324269810;12618385;969061227;9755467;148748780;1988;141;341816;0;2148;21950
0;146;1571106353012;1571106357005;3993;4299645834;6293682754;325244915;12908468;967761222;9732939;147245767;1955;1;328608;0;1608;5501
0;147;1571106357030;1571106361065;4035;4284686674;6302671497;324432566;13120621;970432278;9701116;145442069;1974;1;331800;1;1417;4870
0;148;1571106361089;1571106365023;3934;4265122382;6297589475;318266863;12819902;968913452;9660815;145163835;1924;0;323232;-1;1059;2891
0;149;1571106365045;1571106369078;4033;4328745240;6310853905;326994261;12760675;972578163;10024081;146449096;1956;5;326528;1;885;1987
0;150;1571106369101;1571106373036;3935;4291520642;6304042738;325683036;12841133;970711161;9877785;146861094;1921;0;322728;-1;1016;2808
0;151;1571106373059;1571106377049;3990;4306773554;6299519178;329948040;12730155;969613926;9737816;146761936;1804;531;352856;0;2450;65555
0;152;1571106377071;1571106381093;4022;4291054610;6302488926;326556771;12771256;969848224;9644901;148720123;1964;2;330288;0;1654;5738
0;153;1571106381116;1571106385139;4023;4303298608;6307213248;327391025;12936159;971092583;9880469;150383122;1974;17;331456;1;1645;5887
0;154;1571106385162;1571106389161;3999;4294329244;6307275967;328948136;12990241;971467719;9812795;149647558;1957;2;329112;-1;1463;4796
0;155;1571106389188;1571106393145;3957;4236285338;6299328679;308735608;12893820;969337478;9644315;147367333;1925;4;324072;9;1290;4122
0;156;1571106393168;1571106397240;4072;4275349098;6303469426;316261232;12985698;970552828;9827346;148399018;2001;0;336168;-9;921;2448
0;157;1571106397262;1571106401215;3953;4254518548;6296673029;304154944;13026557;968739819;9732266;147609512;1942;3;324136;0;713;2752
0;158;1571106401237;1571106405221;3984;4270284212;6311744900;311351752;13090374;972913437;9765287;148890729;2084;322;322392;18;961;61206
0;159;1571106405244;1571106409256;4012;4277461426;6307817629;316714902;13076236;971464460;9856335;149657780;1666;323;364408;-18;2438;25680
0;160;1571106409278;1571106413290;4012;4290558064;6301523548;319411048;12890956;969828147;9747885;152363926;1970;13;329432;0;1825;7110
0;161;1571106413314;1571106417297;3983;4262802296;6296882678;314462739;13045412;968678864;9754451;149806354;1949;2;327768;0;1557;5367
0;162;1571106417319;1571106421313;3994;4278838206;6300414840;312901586;13055023;969530660;9661343;149918616;1948;6;328272;0;1353;4298
0;163;1571106421338;1571106425289;3951;4357149540;6305540364;303175048;12470754;971085854;9689932;146508159;1933;2;325080;0;1166;3359
0;164;1571106425311;1571106429304;3993;4263357388;6301619009;311859828;13068852;969816323;9660537;148996772;1971;4;329176;0;866;2748
0;165;1571106429328;1571106433365;4037;4283401728;6292356581;314537649;13080950;967502822;9655219;150086729;1973;1;331632;0;992;2519
0;166;1571106433390;1571106437464;4074;4360145168;6303389939;314331371;13060358;970261560;9735057;148698525;1797;589;359144;0;2305;85245
0;167;1571106437488;1571106441524;4036;4271295992;6308168647;310759781;13084914;971757812;9618300;150043583;1947;29;331968;2;2175;14484
0;168;1571106441546;1571106445516;3970;4240223688;6297927047;301333899;13086866;968990415;9682438;149702403;1949;18;326904;-2;1615;6945
0;169;1571106445539;1571106449525;3986;4276901224;6300377480;301689012;12860655;969776716;9781510;149277123;1941;6;327096;4;1569;5267
0;170;1571106449546;1571106453635;4089;4271928026;6302429470;306193948;13085998;969908735;9721529;149620165;2001;2;336504;-4;1402;4401
0;171;1571106453658;1571106457651;3993;4249211156;6311585171;303230823;13032645;972941429;9822863;146566117;1954;0;328272;0;1123;3289
0;172;1571106457672;1571106461712;4040;4259850030;6301134824;310357046;12979701;969746872;9772576;148336728;1981;9;332192;0;763;2188
0;173;1571106461741;1571106465684;3943;4267396332;6299584753;307396417;13044234;969329124;9812835;147859576;1929;0;324072;0;498;669
0;174;1571106465707;1571106469619;3912;4238708938;6302953370;305909262;12857191;970285417;9737629;147371472;1779;611;349480;0;2304;85160
0;175;1571106469644;1571106473588;3944;4262753094;6297232680;313706470;12990345;968843735;9693976;147043819;1930;0;324240;3;1758;6311
0;176;1571106473612;1571106477658;4046;4321751694;6305416352;331159653;13210891;971105944;9766739;149745268;1992;8;332608;5;1648;6313
0;177;1571106477680;1571106481663;3983;4266468648;6301890218;317707428;12944307;969923985;9918747;147270510;1951;3;328272;-8;1436;4612
0;178;1571106481686;1571106485670;3984;4285449816;6302263714;324892473;13072043;970237277;9657499;148634712;1943;0;326424;0;1105;3163
1;128;1571107115719;1571107119738;4019;4345063368;6293900608;307322885;12992397;987825949;10041154;147166250;1885;27;317656;0;1666;7104
1;129;1571107119760;1571107123795;4035;4316255232;6287471439;295740445;13130339;986003265;9889556;147346141;1879;13;317856;0;1408;4420
1;130;1571107123817;1571107127872;4055;4367872510;6295910281;312145253;13081060;988363516;10071251;148968241;1887;15;319536;1;1217;3858
1;131;1571107127901;1571107131940;4039;4320507482;6293092899;295471646;13326207;987674476;9809322;147603863;1897;0;318696;-1;658;1428
1;132;1571107131962;1571107135919;3957;4290503898;6292895630;289746859;12968129;987720948;10003240;146787485;1860;8;311696;0;536;1183
1;133;1571107135941;1571107139964;4023;4323245420;6292277494;289432969;12759740;987284715;9957614;147258169;1853;335;344864;0;2247;27576
1;134;1571107139992;1571107144051;4059;4351671036;6295850819;298465663;13197255;988378389;9928571;148633307;1881;20;319368;1;1824;6574
1;135;1571107144075;1571107148225;4150;4302516924;6294003558;292763256;13090960;987993997;10034135;144594526;1935;10;326760;3;1658;5593
1;136;1571107148247;1571107152265;4018;4323929430;6289761898;302490553;13218569;986525405;9981021;146938898;1902;11;317824;-3;1592;6695
1;137;1571107152289;1571107156324;4035;4310094032;6294139841;292437562;13217973;987715066;9854425;146033714;1561;611;320816;33;2490;53268
1;138;1571107156347;1571107160392;4045;4283976968;6292603176;275088292;13069346;987517307;9812563;145641241;723;1555;380272;-32;4061;44175
1;139;1571107160415;1571107164462;4047;4327196764;6293263589;297054225;13029116;987742412;10060042;146959739;1916;6;320112;-2;1784;7019
1;140;1571107164485;1571107168474;3989;4310164842;6292126604;299518319;13053010;987266107;9900895;146867102;1859;14;314664;1;1528;5404
1;141;1571107168497;1571107172526;4029;4320355496;6291088895;302921323;13025185;987005709;9922604;146060889;1885;5;317520;0;912;2524
1;142;1571107172548;1571107176590;4042;4326829428;6290867668;306308541;13002013;986970767;10030691;145743664;1885;7;317856;-1;1009;2735
1;143;1571107176615;1571107180638;4023;4322141222;6296093010;291231160;13131952;988381577;9976488;145666931;1887;24;317656;0;964;3908
1;144;1571107180662;1571107184705;4043;4325311466;6299347479;297492610;13110448;989455100;10015702;145999838;1893;0;318024;0;503;890
1;145;1571107184729;1571107188791;4062;4303426942;6286856986;287508227;12760459;986149378;9747951;145188992;1784;419;343880;0;1698;27707
1;146;1571107188814;1571107192776;3962;4274282568;6291229675;281831227;12622151;987156390;10085181;145432394;1850;9;312312;0;1599;4925
1;147;1571107192801;1571107196856;4055;4282393306;6293011562;293257797;13058391;987583880;9857395;145432071;1876;111;319192;0;2130;19860
1;148;1571107196886;1571107200915;4029;4324905586;6299601031;289865026;13314269;989241392;10074975;148249302;1876;17;318024;0;1620;5426
1;149;1571107200939;1571107205024;4085;4329926964;6289987319;304893959;13348760;986805110;9817726;148337544;1906;12;322224;0;1384;4457
1;150;1571107205047;1571107209004;3957;4300830916;6301887903;302373378;12926909;990239436;10058204;146730464;1856;2;312144;0;1230;3716
1;151;1571107209028;1571107213053;4025;4333026982;6290503253;304455697;13072889;986930484;9904990;148744409;1862;47;317568;0;966;2435
1;152;1571107213075;1571107217106;4031;4349949112;6292808034;308336034;13106793;987671123;9963201;149315877;1877;12;317352;0;999;2492
1;153;1571107217128;1571107221120;3992;4309613984;6294498616;300436662;12801255;987954305;10045224;148717129;1748;404;338168;1;2139;30195
1;154;1571107221143;1571107225158;4015;4327264654;6300727752;307947530;12815360;989742120;10089483;149540189;1862;25;317016;-1;1825;6431
1;155;1571107225184;1571107229167;3983;4303941738;6298669316;294336268;13145404;989124209;10024837;147658888;1849;41;314576;3;1686;6265
1;156;1571107229192;1571107233199;4007;4312687138;6292745111;289992218;12805873;987509345;10135770;146710525;1871;7;315504;3;1543;5280
1;157;1571107233224;1571107237203;3979;4294792502;6293650815;291244103;12844405;987631352;9867660;146260101;1862;12;314832;-6;1314;4314
1;158;1571107237225;1571107241223;3998;4301381920;6291193677;296875865;12859823;987145003;10023697;148247200;1894;8;316144;0;1126;3835
1;159;1571107241247;1571107245268;4021;4313838932;6289025950;291157079;12946299;986533245;10009708;147753689;1887;0;317016;0;617;1786
1;160;1571107245290;1571107249177;3887;4254826754;6288402894;286351747;12895759;986529524;9947336;147104402;1780;303;318760;16;910;17917
1;161;1571107249203;1571107253229;4026;4298466592;6294692762;291930828;12826574;988007717;9968620;147423114;1844;69;329952;-16;2134;9967
1;162;1571107253253;1571107257291;4038;4324561902;6295103846;294885912;12755263;988289945;10137086;149199463;1882;39;319944;0;1714;6752
1;163;1571107257316;1571107261324;4008;4371009466;6293756729;297739153;13131561;987673395;10022830;148292407;1870;15;316544;0;1725;6142
1;164;1571107261347;1571107265268;3921;4269629986;6289835539;293205810;12922345;986751423;10007677;146631856;1832;1;307944;5;1432;4744
1;165;1571107265291;1571107269305;4014;4307864466;6289135503;300249634;13094186;986434039;9964715;147811073;1878;10;317184;-5;1283;4117
1;166;1571107269327;1571107273378;4051;4345384860;6300077111;310181948;13161061;989533062;9960768;148416584;1897;28;319712;0;1014;3651
1;167;1571107273409;1571107277504;4095;4360165900;6297059712;313872577;13281391;988476412;9791751;150470513;1921;3;323232;0;1060;3070
1;168;1571107277528;1571107281542;4014;4308661188;6290189046;300722441;12971705;986894743;9877780;149713057;1758;419;341128;0;2122;43573
1;169;1571107281567;1571107285596;4029;4312407256;6290787551;301205975;13163151;987050978;9816602;148546075;1877;10;317016;6;1796;6172
1;170;1571107285619;1571107289499;3880;4264046362;6294559916;283324310;12967581;988082860;9947792;147357123;1813;18;305480;4;1683;6497
1;171;1571107289523;1571107293527;4004;4303063402;6290169577;289682260;13144201;987033178;10097531;146767464;1884;2;316848;-4;1562;5413
1;172;1571107293550;1571107297537;3987;4302848198;6289263131;297736159;12956150;986628878;9905893;147883340;1862;12;314832;-3;1453;4854
1;173;1571107297561;1571107301502;3941;4274891242;6291521348;292275796;13204227;987429232;9882747;145755958;1853;1;311472;-3;1162;3432
1;174;1571107301525;1571107305505;3980;4327157198;6294397074;295473119;13216226;987913025;10018668;148152035;1877;16;314472;0;796;3529
1;175;1571107305528;1571107309631;4103;4367604016;6294973493;297066723;12747146;988190894;10047185;150718830;1917;8;323400;0;498;647
1;176;1571107309654;1571107313650;3996;4336803272;6291488297;299638203;12983035;987142987;9942429;148001973;1826;337;338784;3;1813;24097
1;177;1571107313673;1571107317582;3909;4255658516;6285561183;288772742;13054009;985378261;9857152;147411847;1833;6;308952;-2;1834;7146
2;128;1571107948190;1571107952254;4064;4373631480;6282253501;315993773;13107796;987874672;10189866;150922512;2006;0;337008;-4;1640;5686
2;129;1571107952276;1571107956260;3984;4355940222;6280793496;309790415;12964785;987709952;10241159;149931521;1977;7;329600;0;1582;7636
2;130;1571107956281;1571107960275;3994;4350246806;6285497068;305689721;13076859;989233389;10334757;148990334;1955;5;329280;0;1259;3920
2;131;1571107960298;1571107964335;4037;4405158574;6283795181;319114480;13250443;988737479;10188976;150525802;1985;0;333480;0;886;2216
2;132;1571107964356;1571107968403;4047;4377409522;6287311534;315443037;13017413;989309761;10201103;147819370;1986;0;333648;0;471;586
2;133;1571107968425;1571107972404;3979;4351971796;6283488302;307640340;13057852;988237337;10195808;148918870;1885;370;356936;1;1606;28084
2;134;1571107972425;1571107976406;3981;4368766176;6286695321;311795018;12942043;989201327;10300589;148710496;1954;0;328272;0;1897;7175
2;135;1571107976428;1571107980420;3992;4358116644;6279558012;319193458;13068608;987335185;10159435;148147725;1963;0;329784;-1;1584;5318
2;136;1571107980442;1571107984462;4020;4393342648;6284940113;325510307;13006799;989048919;10147579;148091470;1995;6;332456;2;1668;6986
2;137;1571107984484;1571107988545;4061;4380594658;6285648053;321716459;13259371;989097249;10250853;149130729;1991;0;334488;8;1331;4248
2;138;1571107988567;1571107992580;4013;4342426754;6278352461;315775516;13049571;986981092;9917143;147554972;1133;1295;368920;5;3397;91321
2;139;1571107992604;1571107996701;4097;4377010504;6280558034;306576856;13277292;987620293;10257370;148759707;1185;1065;362056;-15;3349;27606
2;140;1571107996725;1571108000704;3979;4358943296;6281038845;309994757;13012689;987425958;10127858;148234504;1968;9;329512;1;1580;5853
2;141;1571108000726;1571108004702;3976;4359370492;6283496834;305556375;13149029;988440894;10359437;149743911;1950;3;328104;-1;1241;3749
2;142;1571108004724;1571108008713;3989;4360489144;6287307311;297289452;13377953;989643250;10482984;148446353;1960;0;329280;0;746;1525
2;143;1571108008736;1571108012721;3985;4364838922;6280737852;314653879;13009702;987534587;10297327;147935391;1951;4;328440;0;896;2222
2;144;1571108012743;1571108016796;4053;4349315618;6295246090;325050640;12916986;992042685;10297832;147131930;1983;16;332120;0;626;3588
2;145;1571108016818;1571108020781;3963;4331986878;6287923915;312992532;12991331;989648656;10171276;147306518;1942;2;326592;0;504;695
2;146;1571108020803;1571108024846;4043;4376936920;6296116040;330536944;13120454;992054521;10115042;148870763;1918;377;360352;0;1807;30442
2;147;1571108024869;1571108028879;4010;4383246748;6286462164;311244266;13093923;989135593;10413435;147733712;1965;0;330120;6;1878;6421
2;148;1571108028901;1571108032909;4008;4382509886;6284250942;322950279;13080400;988588116;10097401;149350631;1944;127;333528;-6;1978;21511
2;149;1571108032932;1571108036969;4037;4397262456;6285239149;317802082;12990982;989219856;10356931;148222287;1981;2;333144;0;1508;4798
2;150;1571108036994;1571108041013;4019;4378085356;6286099562;317694367;13051627;989258951;10253183;149864938;1974;5;332472;0;1297;3985
2;151;1571108041037;1571108045035;3998;4377851026;6280817111;319641264;13157705;987563706;10174772;149783970;1963;0;329784;0;761;1925
2;152;1571108045057;1571108049065;4008;4366644942;6285917138;318828584;13105774;989248665;10339416;149154657;1980;7;330104;9;1060;3812
2;153;1571108049097;1571108053191;4094;4413377790;6293771540;317601124;13003274;991619919;10487814;151011969;1977;361;362088;7;1402;36429
2;154;1571108053213;1571108057159;3946;4351558908;6287201293;321406254;13038620;989000680;10094908;148621194;1933;28;331632;-16;2009;7309
2;155;1571108057184;1571108061176;3992;4377174608;6280045548;328671655;13102286;987682311;10267690;149702695;1956;27;330248;0;1710;7051
2;156;1571108061203;1571108065235;4032;4402401948;6287728950;336741824;13225331;989622354;10175128;150449783;1983;3;333648;0;1553;5195
2;157;1571108065257;1571108069286;4029;4370980850;6283073135;322713852;13304925;988142453;10078315;149723327;1979;0;332472;0;1329;3866
2;158;1571108069308;1571108073268;3960;4355654062;6284765947;318466234;12911175;988751499;10239826;149697120;1944;3;327096;0;1165;3418
2;159;1571108073298;1571108077290;3992;4373585928;6279035483;317970153;12823845;987194341;10157658;149742516;1974;14;330424;0;898;3588
2;160;1571108077312;1571108081226;3914;4340898864;6283712014;314672711;13119250;1151579121;10177177;148289311;1919;0;322392;0;472;598
2;161;1571108081248;1571108085321;4073;4396962864;6283079900;334409119;13098482;988025996;10097783;150720027;1888;474;364208;0;2009;48608
2;162;1571108085343;1571108089373;4030;4391624666;6289412682;332811369;13316596;990278598;10206403;150412194;1965;18;333144;0;2317;12492
2;163;1571108089406;1571108093350;3944;4342696562;6289485684;299118303;12917600;990224476;10432723;146771572;1923;44;327400;0;1720;6963
2;164;1571108093373;1571108097390;4017;4384427450;6292537264;313207115;13310371;991298588;10359111;149430162;1970;3;331464;0;1461;4783
2;165;1571108097414;1571108101428;4014;4375624526;6283811682;314695360;13316967;988162332;10077866;152190301;1975;1;331968;0;1325;4143
2;166;1571108101450;1571108105480;4030;4395412490;6284046192;310047727;13258021;988634124;10230464;150799793;1980;1;332808;0;926;2368
2;167;1571108105503;1571108109524;4021;4380194472;6285527975;315972214;13078771;989119190;10275535;151462340;1991;5;332584;0;902;2380
2;168;1571108109546;1571108113551;4005;4380265574;6289743273;316564072;13057550;990381989;10476448;151063116;1964;0;329952;0;858;1990
2;169;1571108113573;1571108117571;3998;4345559330;6281970114;310676790;13068564;987883385;10077739;150195617;1903;469;356352;1;2527;55914
2;170;1571108117594;1571108121609;4015;4361679628;6279924785;316716207;13176829;987729822;10146952;151137489;1966;9;331800;-1;1833;6567
2;171;1571108121635;1571108125658;4023;4396042626;6289158261;324019693;13341303;990206793;10434211;152149436;1983;17;333056;0;1588;5790
2;172;1571108125682;1571108129646;3964;4348751328;6278254894;318401327;12959989;986835851;10060283;150122492;1943;5;327264;0;1352;3921
2;173;1571108129669;1571108133632;3963;4338718354;6286220930;308871432;13091032;989527420;10202344;150401971;1943;4;327096;0;1311;3962
2;174;1571108133654;1571108137629;3975;4353527134;6284391094;308683526;13064578;988789181;10344437;149784147;1956;7;326392;14;942;4349
2;175;1571108137652;1571108141604;3952;4340326544;6288209774;301995023;13127255;990096680;10305198;150667832;1946;8;328272;-14;606;1345
2;176;1571108141626;1571108145615;3989;4368437384;6290652278;305859594;13060688;990739856;10433209;150660859;1843;444;345872;14;1314;43300
2;177;1571108145638;1571108149615;3977;4344472214;6293470674;302070646;13033098;991425356;10373956;151293997;1840;127;336672;-8;2153;11126
3;129;1571108780229;1571108784208;3979;4288638894;6350033548;294112307;12801713;967323308;9786750;145003608;1865;10;310768;13;1636;5867
3;130;1571108784231;1571108788235;4004;4250171690;6344299211;290518917;12614991;965593409;9726598;145294700;1887;2;318192;-10;1517;6383
3;131;1571108788261;1571108792290;4029;4246635570;6345228314;296635022;12898027;965823829;9468912;144613177;1888;2;317520;-3;1268;4232
3;132;1571108792313;1571108796304;3991;4222788952;6351968072;286927389;12680630;967940375;9458680;143900402;1870;0;314160;0;850;2184
3;133;1571108796327;1571108800267;3940;4230581264;6347846087;289093645;12541463;966936985;9653384;144776099;1859;8;310712;1;581;1725
3;134;1571108800289;1571108804310;4021;4242929506;6344209411;287334439;12891073;965648595;9515448;143904997;1845;362;341416;2;1799;39472
3;135;1571108804333;1571108808243;3910;4209089918;6347938947;285152135;12930939;966402307;9695299;144316742;1823;9;307776;-3;1793;5868
3;136;1571108808265;1571108812192;3927;4193707796;6341716797;287656448;12773213;964797461;9411286;143886107;1826;12;308784;0;1622;5491
3;137;1571108812216;1571108816175;3959;4237985946;6351102688;291517563;12678601;967790813;9794601;143409185;1853;13;310096;0;1654;6606
3;138;1571108816197;1571108820169;3972;4259227778;6353865303;289924534;12541857;968431398;9581661;144853514;1860;2;312816;0;1307;3853
3;139;1571108820193;1571108824134;3941;4237241930;6352742981;288014376;12640220;968462843;9837019;143250029;1849;0;310632;0;1152;3749
3;140;1571108824158;1571108828165;4007;4248051624;6348317962;292662850;12860224;966934275;9615279;143563757;1875;0;315000;0;786;2014
3;141;1571108828187;1571108832092;3905;4234084242;6340905188;288441183;12769687;964729302;9689590;142451963;1818;24;307328;0;988;2700
3;142;1571108832116;1571108836202;4086;4297341224;6346112133;302597235;12615646;966230366;9639753;145081832;1900;368;349464;0;2344;38253
3;143;1571108836225;1571108840270;4045;4320451272;6354368838;304599928;12735698;968617954;9771806;145123412;1894;4;318864;1;1713;5623
3;144;1571108840294;1571108844283;3989;4277223154;6350520767;296218352;12581597;967659947;9615288;144603831;1863;6;313992;-1;1695;6228
3;145;1571108844305;1571108848256;3951;4222708652;6343846428;288097790;12527002;965562216;9472976;144589999;1836;27;309432;0;1651;7662
3;146;1571108848283;1571108852324;4041;4268431910;6340220205;301160445;12425665;964474187;9469204;144795140;1893;0;318024;5;1309;4190
3;147;1571108852347;1571108856309;3962;4216653156;6349632484;280705313;12549166;967340547;9477055;143202495;1519;679;326224;13;2288;47329
3;148;1571108856331;1571108860336;4005;4262792222;6348527327;300627150;12887737;966853626;9222701;144823828;788;1428;362856;-13;3867;37725
3;149;1571108860359;1571108864370;4011;4293441418;6353274415;299735673;12826986;968326446;9671975;144566682;1894;10;317088;-5;1843;7775
3;150;1571108864395;1571108868442;4047;4299575754;6356115523;301827956;12851715;969390786;9661452;144778918;1894;3;318696;1;1481;4709
3;151;1571108868465;1571108872395;3930;4237910172;6347485029;291212268;12959694;966437813;9656957;143902756;1831;7;308784;-1;1227;4155
3;152;1571108872417;1571108876415;3998;4263349650;6345474950;285125658;12741930;966250261;9742864;145192880;1883;12;314808;0;1070;4315
3;153;1571108876437;1571108880417;3980;4214860130;6346427843;292752869;13255606;965943193;9451906;145483700;1859;2;312648;0;909;2683
3;154;1571108880440;1571108884436;3996;4244720780;6348072256;293608220;13128172;966912794;9520969;147768418;1871;0;314328;0;512;791
3;155;1571108884459;1571108888426;3967;4263623546;6349018676;299164259;13159853;966770240;9576504;146237479;1854;0;311472;0;548;938
3;156;1571108888448;1571108892481;4033;4248188572;6348436711;297219497;12817548;967022281;9543662;147505883;1896;437;344792;9;2392;57123
3;157;1571108892503;1571108896505;4002;4270514892;6349206177;299514450;12761065;967360950;9819206;146234379;1883;3;316848;-9;1789;6043
3;158;1571108896528;1571108900456;3928;4226714892;6346998319;294695075;12978112;966403334;9572298;145750591;1838;2;309120;1;1589;5321
3;159;1571108900486;1571108904512;4026;4303235536;6341030925;304201050;12664136;964662323;9410237;146691151;1890;0;317520;0;1522;5008
3;160;1571108904537;1571108908510;3973;4297607966;6356160857;298276319;13027385;969084156;9535039;147722935;1872;10;312624;6;1398;5447
3;161;1571108908532;1571108912503;3971;4251709070;6352407382;305858425;13096590;968241024;9573327;148384791;1848;19;313248;-7;988;2952
3;162;1571108912524;1571108916494;3970;4246211586;6351141114;295085422;12855583;967619846;9718186;148665108;1852;4;311808;0;925;2333
3;163;1571108916517;1571108920454;3937;4235359260;6348456520;284072416;12579176;966973657;9617628;143625346;1714;462;335928;2;1920;41113
3;164;1571108920479;1571108924475;3996;4311344960;6348746983;305653103;13166888;966980107;9628826;171654347;1860;33;317408;-2;1896;6846
3;165;1571108924497;1571108928476;3979;4225193426;6353063686;294258584;12881073;967973056;9489105;145762615;1854;9;312984;0;1557;5022
3;166;1571108928498;1571108932550;4052;4247904748;6346088678;298320543;12642997;966256662;9573941;147495922;1889;11;319200;0;1692;6395
3;167;1571108932573;1571108936499;3926;4207253092;6350028861;278588562;13209301;967212465;9468127;145942556;1837;3;309120;0;1585;6171
3;168;1571108936521;1571108940501;3980;4273621188;6352182315;293864485;12949846;968124325;9581497;148282109;1874;16;313968;0;1213;4540
3;169;1571108940524;1571108944489;3965;4212910884;6340899966;280621045;13146482;964565356;9436629;146491395;1856;0;311808;1;766;1879
3;170;1571108944513;1571108948596;4083;4352362638;6346058129;292333608;13191590;966340897;9596668;145838091;1910;0;320880;-1;516;814
3;171;1571108948621;1571108952681;4060;4259433784;6340026012;290568989;12615722;964584173;9367515;145797373;1870;391;348784;0;1821;39984
3;172;1571108952703;1571108956783;4080;4306050124;6356523369;301165932;12850565;969611609;9714321;148017593;1907;18;320616;8;1953;7021
3;173;1571108956807;1571108960824;4017;4323295352;6347436353;283111765;13194261;966742738;9606562;145653953;1879;5;316512;-1;1694;6102
3;174;1571108960846;1571108964942;4096;4292057046;6343942753;305529384;12629101;965516539;9614656;148899566;1926;1;323736;-7;1709;6224
3;175;1571108964966;1571108968981;4015;4254206546;6352082488;299192461;12636352;968024896;9774770;146614730;1892;16;317152;0;1440;5416
3;176;1571108969003;1571108972932;3929;4223484642;6351331117;283025272;12600191;967876041;9665066;146151372;1839;2;309288;0;1054;3047
3;177;1571108972954;1571108976960;4006;4273814200;6348555030;299431447;12958764;967014604;9602770;146536024;1868;0;313824;5;768;1585
3;178;1571108976987;1571108981068;4081;4278922594;6346815099;300043694;12649556;966338242;9646609;147150936;1935;213;326568;65;1332;31003
4;128;1571109613732;1571109617687;3955;4281761126;6285098249;274652969;12765583;987176763;9707227;147585372;1905;11;318336;-7;1579;8033
4;129;1571109617709;1571109621721;4012;4298974672;6275463350;283890846;12737489;984216284;9469468;149213894;1912;2;321552;0;1212;3451
4;130;1571109621742;1571109625735;3993;4322695584;6280150604;280859970;12861275;985605915;9780979;148851440;1898;0;318864;0;840;2114
4;131;1571109625758;1571109629860;4102;4325944084;6282462063;287830549;12992892;986215204;9627662;150764509;1952;2;328272;1;497;664
4;132;1571109629890;1571109633914;4024;4324631982;6285418575;285723999;12854254;986990953;9618969;148613299;1901;340;348256;-1;1605;25565
4;133;1571109633938;1571109637919;3981;4291622842;6276305609;284537152;12762662;984374277;9538623;149616697;1901;2;319704;0;1789;6250
4;134;1571109637940;1571109641966;4026;4324644246;6274980281;287187980;12985781;984260887;9720846;150921423;1919;4;323064;1;1535;4856
4;135;1571109641992;1571109646028;4036;4333126554;6277793324;304028495;12853613;984593111;9494401;151158390;1902;20;319344;5;1590;5987
4;136;1571109646049;1571109650087;4038;4349823552;6274002081;308885593;12942158;983855424;9793124;151104305;1915;0;321720;-6;1389;4231
4;137;1571109650109;1571109654107;3998;4339067586;6281190888;305308677;12737896;985533035;9488641;151015909;1912;0;321216;0;1032;2694
4;138;1571109654129;1571109658174;4045;4347001810;6274864683;298010819;12720390;983834974;9544577;150163040;1930;0;324240;0;814;1780
4;139;1571109658199;1571109662286;4087;4316652206;6276695918;289271014;12870069;984537950;9559291;149982459;1965;4;328008;0;1070;3443
4;140;1571109662308;1571109666371;4063;4335859820;6275539304;286307639;12909498;984041937;9508314;150329144;1872;365;350928;3;2230;30365
4;141;1571109666398;1571109670416;4018;4329466188;6280530079;295539372;13096708;985811981;9595749;150160413;1919;0;322392;-3;1706;5859
4;142;1571109670438;1571109674471;4033;4322881004;6279918170;295244172;12898564;985223177;9548767;150305001;1327;961;353328;6;3012;54536
4;143;1571109674495;1571109678518;4023;4303526222;6269678976;285480776;13222870;982440258;9297167;150211096;994;1239;351168;-6;3498;29729
4;144;1571109678540;1571109682539;3999;4348529992;6278023043;297387549;12675910;985002109;9736351;151360912;1910;0;320880;0;1296;3751
4;145;1571109682560;1571109686550;3990;4329139586;6278256374;292903025;13000107;985086115;9660493;150283235;1903;0;319704;0;1137;3123
4;146;1571109686573;1571109690607;4034;4354106462;6283566036;295536558;12988286;986456899;9675545;150680644;1926;0;323568;1;785;1531
4;147;1571109690630;1571109694613;3983;4308566872;6278533393;286351374;13223852;985122642;9629250;149998897;1909;7;319760;-1;1060;3606
4;148;1571109694634;1571109698625;3991;4302854622;6275284951;286327862;13162295;984151079;9490032;149843623;1904;0;319872;0;620;1079
4;149;1571109698646;1571109702598;3952;4321054252;6281141684;290408498;13062563;986037905;9790270;151812191;1879;0;315672;5;441;558
4;150;1571109702619;1571109706643;4024;4311694338;6280489114;286200056;12932952;985670046;9666137;149121621;1843;317;344008;-5;1667;13791
4;151;1571109706666;1571109710709;4043;4307987982;6277252639;289166125;12968944;984561157;9512640;151650296;1984;41;325280;0;2131;18233
4;152;1571109710731;1571109714790;4059;4340927042;6278591183;294787189;12997968;985512731;9586523;151143359;1938;0;325584;0;1634;5467
4;153;1571109714813;1571109718796;3983;4317612886;6273674463;299315880;13074975;983764077;9425824;153760588;1902;0;319536;0;1394;4365
4;154;1571109718817;1571109722814;3997;4321717238;6275783718;296838680;12881451;983955864;9682347;153736756;1924;7;321464;0;1306;4320
4;155;1571109722837;1571109726880;4043;4344774288;6282019267;300610481;13388510;986194920;9650947;153855509;1927;1;323904;0;905;2310
4;156;1571109726901;1571109730955;4054;4332606502;6286964080;299769604;13171158;987372826;9555723;152220402;1930;0;324240;1;930;2308
4;157;1571109730978;1571109734956;3978;4293967310;6277333084;289257039;13218858;984581019;9463167;151806440;1883;319;331792;16;1311;35100
4;158;1571109734980;1571109738952;3972;4304954248;6274712841;291483453;12680869;983971333;9699864;152047435;1850;90;334120;-17;2284;11277
4;159;1571109738976;1571109743003;4027;4307601666;6276198321;290382604;13042044;984073665;9528017;154346999;1926;0;323568;1;1629;5464
4;160;1571109743025;1571109747038;4013;4325871376;6275585159;294890582;13164590;984263732;9647738;153956642;1914;4;322224;0;1690;6005
4;161;1571109747060;1571109751057;3997;4322610466;6276775218;287549694;13274512;984680102;9713741;153905094;1893;20;320976;-1;1395;4464
4;162;1571109751084;1571109755046;3962;4288412010;6274015034;288553863;13103983;983531916;9581000;153150382;1892;26;319280;1;1174;3622
4;163;1571109755070;1571109759084;4014;4338924214;6281971462;280645967;12905413;986104633;9700586;152140166;1914;0;321552;-1;893;2453
4;164;1571109759107;1571109763207;4100;4336309354;6278236190;292620276;13163562;985298787;9674053;153727828;1953;0;328104;0;514;763
4;165;1571109763230;1571109767233;4003;4309855614;6281439368;285707092;12856235;985672411;9547478;152558489;1898;334;346792;0;1429;28957
4;166;1571109767254;1571109771348;4094;4384169176;6282456786;290247664;13313456;986199125;9755436;153458160;1951;26;329400;0;1956;7398
4;167;1571109771372;1571109775356;3984;4310927254;6281092032;291573868;13233325;985836987;9593782;152014607;1902;1;319704;1;1628;5490
4;168;1571109775380;1571109779428;4048;4311679884;6284493972;286869076;13003935;987070614;9709157;151575628;1933;0;324744;0;1588;5335
4;169;1571109779450;1571109783465;4015;4347561720;6278724350;290437825;12698934;985100243;9716793;153377016;1914;2;321888;0;1367;4066
4;170;1571109783490;1571109787445;3955;4303860270;6280040023;281831398;13188885;985933256;9747423;151174473;1900;8;317760;-1;1118;3564
4;171;1571109787469;1571109791457;3988;4318465380;6281787065;291093156;13115099;986088056;9567380;153244553;1905;0;320040;0;863;2314
4;172;1571109791479;1571109795471;3992;4324170330;6285473048;295119158;12942085;987145661;9497747;151707554;1904;0;319872;0;856;1762
4;173;1571109795499;1571109799463;3964;4293496314;6274811278;288449385;13131365;984128449;9548658;151691782;1817;402;341376;1;2384;38033
4;174;1571109799486;1571109803475;3989;4375347564;6279165816;296249434;13256655;985346700;9791700;153078371;1902;4;320208;-1;1751;5840
4;175;1571109803498;1571109807467;3969;4310666060;6281017164;296166074;12959395;986121412;9688475;151818180;1893;4;318560;1;1540;4920
4;176;1571109807489;1571109811426;3937;4282027868;6275649575;291540645;13061907;984171160;9458378;151372178;1875;0;315000;1;1449;4923
4;177;1571109811448;1571109815440;3992;4313374798;6282658716;296605263;13290415;986510976;9464752;153250860;1928;1;321448;-2;1259;4121
