0;129;1571085301544;1571085305510;3966;4260179260;6294777164;294779549;9135801;984098534;9981412;147995593;0;0;0;0;0;0
0;130;1571085305532;1571085309501;3969;4281282538;6297419086;302023037;8966935;985106915;10100665;149650644;44;30;7312;0;103;341
0;131;1571085309527;1571085313463;3936;4252901598;6296931708;287127806;9031787;984900274;10022772;147489753;0;0;0;0;0;0
0;132;1571085313499;1571085317387;3888;4235219246;6295733707;290048176;9107154;984404046;9989601;146225730;0;0;0;0;0;0
0;133;1571085317409;1571085321430;4021;4291395520;6300380751;297677359;9232472;986010977;9934261;147739773;0;0;0;0;0;0
0;134;1571085321452;1571085325543;4091;4305510216;6293198103;301870464;9105104;983748420;9915507;148187510;5;11;568;0;2;4
0;135;1571085325569;1571085329741;4172;4366991254;6298933623;310900323;9626485;985858166;10165584;151585844;248;24;32280;3;834;1363
0;136;1571085329766;1571085333715;3949;4285011524;6294344026;299235009;9354428;984059400;9836205;148542761;218;7;16984;-3;665;695
0;137;1571085333739;1571085337731;3992;4287215832;6294157989;298055481;8774640;984033980;10181717;148572150;0;0;0;0;0;0
0;138;1571085337755;1571085341626;3871;4235144494;6297321585;288663695;8554698;985158488;10224876;147304645;24;0;776;0;6;100
0;139;1571085341650;1571085345731;4081;4349647476;6312940695;306183416;8903360;989590429;10188812;149563227;0;0;0;0;0;0
0;140;1571085345755;1571085349855;4100;4331731086;6298745219;302907258;9024367;985504520;9941420;149344606;0;0;0;0;0;0
0;141;1571085349879;1571085353812;3933;4292551840;6296549112;293397378;9248022;984710365;10056188;146960183;7;15;760;0;3;7
0;142;1571085353835;1571085357838;4003;4284148518;6303008817;291519450;9224745;986930153;9990738;146645527;0;0;0;0;0;0
0;143;1571085357863;1571085361890;4027;4305783966;6304102227;304459980;8879475;987176020;10097365;149232653;0;0;0;0;0;0
0;144;1571085361913;1571085365840;3927;4258458796;6296912972;290962611;9197076;985073386;9982240;147822130;34;22;7440;0;111;367
0;145;1571085365886;1571085370027;4141;4348704608;6296640358;307459208;9063778;984742711;10155717;150270367;80;19;1512;0;51;1349
0;146;1571085370050;1571085374082;4032;4289211068;6294909689;305148691;8970464;984402686;10098478;149495495;0;0;0;0;0;0
0;147;1571085374106;1571085378155;4049;4298180578;6297916912;293469979;9340634;985378376;9986192;148838455;0;0;0;0;0;0
0;148;1571085378183;1571085382144;3961;4279693766;6304900218;289365805;9197684;987358938;10321885;148427738;0;0;0;0;0;0
0;149;1571085382167;1571085386109;3942;4257887498;6296482787;291517804;9004699;984231685;10047154;146931737;10;12;760;0;3;18
0;150;1571085386130;1571085390027;3897;4244406296;6305094953;287940557;8992862;987288117;10046352;147391782;0;0;0;0;0;0
0;151;1571085390053;1571085394158;4105;4296155850;6302087742;307037317;9312251;986695383;10018981;149533990;36;28;7952;0;88;416
0;152;1571085394181;1571085398248;4067;4318538964;6296312554;308568886;9066616;984397159;10148782;150784746;0;0;0;0;0;0
0;153;1571085398289;1571085402235;3946;4271632084;6299827353;307068397;9071262;985894937;9907443;149326223;8;11;592;0;11;13
0;154;1571085402259;1571085406231;3972;4299102714;6303785639;306808207;9712452;986923057;10027763;150426371;0;0;0;0;0;0
0;155;1571085406255;1571085410173;3918;4234711896;6298009441;293607890;9307259;985006909;10029873;147023354;0;0;0;0;0;0
0;156;1571085410195;1571085414234;4039;4309938688;6300892560;311615066;9237295;985970094;9992316;152403692;0;0;0;0;0;0
0;157;1571085414257;1571085418389;4132;4335580376;6297112805;318112255;8870741;985050861;9980053;151582137;16;5;752;0;4;46
0;158;1571085418412;1571085422415;4003;4324703084;6306382763;312743262;8853899;987351801;10202789;150604997;0;0;0;0;0;0
0;159;1571085422438;1571085426388;3950;4266287754;6302442875;294201925;8670685;986459301;10110933;148143090;16;26;6608;0;89;163
0;160;1571085426412;1571085430435;4023;4305744838;6296946418;307016793;8865721;985148515;9945702;149444654;8;17;784;0;12;44
0;161;1571085430457;1571085434516;4059;4355514340;6302726163;308592979;8999859;986765645;10116677;149893462;0;0;0;0;0;0
0;162;1571085434541;1571085438536;3995;4306451624;6295009337;304884223;9351070;984553760;10076638;149696256;0;0;0;0;0;0
0;163;1571085438561;1571085442598;4037;4320338706;6294829722;292012972;8932398;984431299;10129058;147083509;0;0;0;0;0;0
0;164;1571085442620;1571085446592;3972;4305102000;6301304243;300104243;8641495;986674492;10178634;149415821;9;12;752;0;3;8
0;165;1571085446615;1571085450576;3961;4273063468;6299832296;298714709;9314208;985855672;10080505;148875905;0;0;0;0;0;0
0;166;1571085450602;1571085454657;4055;4399374492;6299455841;304883529;9452143;985925860;10221219;149510882;30;18;6480;0;91;291
0;167;1571085454685;1571085458634;3949;4297937634;6295606728;294561057;8997525;984639178;10008206;148713804;0;0;0;0;0;0
0;168;1571085458656;1571085462610;3954;4320912194;6300043868;303739256;9219451;986076178;10178265;149232446;13;12;784;0;12;35
0;169;1571085462635;1571085466661;4026;4292529210;6300414830;305510852;9035893;985791256;10047555;149877220;0;0;0;0;0;0
0;170;1571085466699;1571085470704;4005;4309096414;6301025934;303680824;8912864;986274679;10102934;149898834;0;0;0;0;0;0
0;171;1571085470735;1571085474749;4014;4308517378;6302646484;303985194;8861098;986592538;10199476;149662127;0;0;0;0;0;0
0;172;1571085474772;1571085478717;3945;4275040600;6289136756;305141004;9272620;982724686;10014622;148999538;6;10;568;0;2;5
0;173;1571085478741;1571085482645;3904;4237375374;6295252333;289847593;8948472;984502183;10019592;148147820;0;0;0;0;0;0
0;174;1571085482672;1571085486741;4069;4378943690;6297344031;314493267;9087865;984931450;9969423;150577716;41;22;6960;0;141;511
0;175;1571085486767;1571085490689;3922;4263895106;6301886241;298272158;9402030;986765238;10140573;146917366;0;0;0;0;0;0
0;176;1571085490712;1571085494793;4081;4381328600;6302471966;311566458;9512600;986762720;10074013;149845257;11;13;776;0;12;24
0;177;1571085494815;1571085498643;3828;4220153652;6302723044;287896504;9097936;986424335;9974711;146188694;0;0;0;0;0;0
0;178;1571085498667;1571085502600;3933;4290794438;6303425807;304834918;9175535;986802650;10103945;149045388;0;0;0;0;0;0
1;130;1571086133487;1571086137563;4076;4318452824;6278684188;293117355;8789496;985277928;10066971;145686793;0;0;0;0;0;0
1;131;1571086137593;1571086141499;3906;4247700056;6274707643;284629016;9113100;983793822;10036751;143874408;0;0;0;0;0;0
1;132;1571086141522;1571086145443;3921;4282078968;6274450387;293825621;8761648;983768213;9958998;142976150;0;0;0;0;0;0
1;133;1571086145467;1571086149499;4032;4286485394;6269661024;294870310;8949879;982528753;9909820;144723371;39;29;7048;0;97;221
1;134;1571086149520;1571086153511;3991;4301340456;6273047167;287170888;8482888;983820969;10054000;145326630;0;0;0;0;0;0
1;135;1571086153536;1571086157480;3944;4273835662;6276116036;282907140;8735856;984471812;10256628;142845136;0;0;0;0;0;0
1;136;1571086157508;1571086161466;3958;4293504344;6266492625;290212150;9152513;981818561;10044200;144329065;0;0;0;0;0;0
1;137;1571086161499;1571086165465;3966;4286696510;6269643087;292874491;8893545;982781965;10115222;143880792;8;11;592;0;11;16
1;138;1571086165504;1571086169400;3896;4257119830;6275440843;291189352;9151200;984003164;10041706;142730923;262;24;38536;1;900;1218
1;139;1571086169425;1571086173433;4008;4274105178;6272088884;289354389;9196387;983238216;10016026;143278988;199;7;11944;-1;601;635
1;140;1571086173455;1571086177432;3977;4272241780;6270795635;279332088;8539453;982844710;10029175;144691515;0;0;0;0;0;0
1;141;1571086177453;1571086181403;3950;4289741632;6277839902;295261742;8702832;984629619;10091990;144152395;15;6;752;0;4;47
1;142;1571086181424;1571086185390;3966;4270949534;6267601501;285715227;8443368;981785190;9983366;144587807;0;0;0;0;0;0
1;143;1571086185413;1571086189313;3900;4257770114;6268732053;286428824;8922126;982276708;9925463;142097876;0;0;0;0;0;0
1;144;1571086189335;1571086193270;3935;4266738456;6264613415;289486404;8787600;980844883;10014849;143094418;0;0;0;0;0;0
1;145;1571086193297;1571086197293;3996;4290774144;6269466565;297426695;9157717;982718044;9941661;143417310;9;15;784;0;12;55
1;146;1571086197315;1571086201263;3948;4296829202;6278976459;292254639;8512237;985623354;10234439;144796371;34;30;7504;0;114;329
1;147;1571086201300;1571086205218;3918;4258622316;6272074536;275036588;8717455;983442123;10176629;143203312;0;0;0;0;0;0
1;148;1571086205241;1571086209251;4010;4283609486;6268413080;278112763;9088927;982389525;10101005;146276153;0;0;0;0;0;0
1;149;1571086209273;1571086213227;3954;4271119916;6283366621;280874366;9002529;986462643;10318490;144020870;77;19;1504;0;39;1481
1;150;1571086213249;1571086217301;4052;4296161106;6271104682;286489794;8668388;983124345;10123721;145380747;0;0;0;0;0;0
1;151;1571086217323;1571086221352;4029;4307435664;6272534649;289473386;8701749;983287162;10139437;145310796;0;0;0;0;0;0
1;152;1571086221392;1571086225396;4004;4298282632;6266839559;286442007;8725545;981928139;10150063;144848319;14;11;784;0;4;24
1;153;1571086225417;1571086229373;3956;4290977668;6270072348;286391873;8675219;982721792;9860276;146843231;37;34;8976;0;97;445
1;154;1571086229405;1571086233331;3926;4302578244;6281475267;289966988;8735328;985985343;10180925;146210505;0;0;0;0;0;0
1;155;1571086233354;1571086237324;3970;4286655776;6273149825;279192708;8974230;983730077;9991179;145048938;0;0;0;0;0;0
1;156;1571086237348;1571086241296;3948;4311774346;6269065430;285293670;9039828;982345091;10102734;145049758;7;14;752;0;3;7
1;157;1571086241319;1571086245303;3984;4306042532;6270765885;302862650;8749417;982809894;9846231;146155537;0;0;0;0;0;0
1;158;1571086245324;1571086249326;4002;4327541616;6270944346;299150801;8910255;982976699;9964004;146167835;0;0;0;0;0;0
1;159;1571086249351;1571086253300;3949;4268662006;6275075507;283873441;9288754;983854853;9915466;144881057;0;0;0;0;0;0
1;160;1571086253323;1571086257225;3902;4308797114;6274857449;286429641;8988814;984426767;10295641;146295686;20;5;784;0;5;64
1;161;1571086257248;1571086261163;3915;4277917238;6269420874;287796213;9150915;982422681;10020456;146202390;40;22;6352;0;91;450
1;162;1571086261194;1571086265128;3934;4300655278;6277170549;286286446;8709045;985060573;10101833;144801318;0;0;0;0;0;0
1;163;1571086265152;1571086269093;3941;4275462978;6271227452;280784057;9165081;983171722;10146769;143148913;0;0;0;0;0;0
1;164;1571086269115;1571086273103;3988;4294535396;6265653803;286392382;8607078;981343017;9996532;146143812;5;11;568;0;2;4
1;165;1571086273125;1571086277081;3956;4291425450;6268686894;281120573;8831735;982231961;10079695;144073661;0;0;0;0;0;0
1;166;1571086277106;1571086281004;3898;4280468588;6277665336;274425238;8887813;985151116;10218333;143527028;0;0;0;0;0;0
1;167;1571086281026;1571086285042;4016;4327444818;6268012022;294499306;9131921;982276662;10067197;146189052;0;0;0;0;0;0
1;168;1571086285065;1571086289009;3944;4302090750;6282371024;297233859;8994832;986605297;10293100;145393241;58;28;8032;0;130;571
1;169;1571086289033;1571086293061;4028;4340932882;6268301334;305489740;9351161;982112631;9933217;146746992;0;0;0;0;0;0
1;170;1571086293089;1571086297164;4075;4343852298;6268373888;315553751;8938475;982172729;9976640;147102258;0;0;0;0;0;0
1;171;1571086297202;1571086301064;3862;4297529564;6276582119;297164432;8575972;984628383;10172935;143773797;0;0;0;0;0;0
1;172;1571086301099;1571086305132;4033;4326611742;6268819443;304114438;9084626;982118712;9987746;144812789;6;15;752;0;3;5
1;173;1571086305155;1571086309144;3989;4364524876;6278173870;303500812;9095760;985279959;10207858;145132765;0;0;0;0;0;0
1;174;1571086309166;1571086313280;4114;4376691494;6278845589;304934710;9196826;985601991;10115445;147736314;0;0;0;0;0;0
1;175;1571086313305;1571086317399;4094;4360813702;6272086057;307636440;8760057;983216455;9945417;147899830;11;13;776;0;12;20
1;176;1571086317422;1571086321417;3995;4306625948;6269524604;303644111;8972202;982483651;9934215;147123559;42;20;6480;0;84;460
1;177;1571086321439;1571086325455;4016;4328287676;6267228626;305564008;9269206;982247400;10073245;147751208;0;0;0;0;0;0
1;178;1571086325489;1571086329500;4011;4332001770;6274467360;303288581;9219211;984051200;9951370;147237373;0;0;0;0;0;0
1;179;1571086329524;1571086333518;3994;4316702430;6269743487;299342961;8661663;982659053;9968833;145900374;6;15;760;0;11;44
2;131;1571086964546;1571086968487;3941;4261057304;6283813171;290720479;8974209;983706021;9280140;145062991;0;0;0;0;0;0
2;132;1571086968508;1571086972435;3927;4244989712;6282503208;283468619;8948338;982943933;9195889;144210169;0;0;0;0;0;0
2;133;1571086972457;1571086976336;3879;4257581628;6282357518;284706271;9009492;982838996;9386025;143803554;0;0;0;0;0;0
2;134;1571086976359;1571086980333;3974;4247860802;6284881421;297218445;8632397;984065886;9122304;144900476;6;15;752;0;3;4
2;135;1571086980356;1571086984446;4090;4310959082;6287903508;310425881;8776824;984744786;9019965;147568982;30;24;6416;0;94;317
2;136;1571086984488;1571086988434;3946;4258126646;6276910579;290642688;8777335;981245633;9161604;145202699;0;0;0;0;0;0
2;137;1571086988456;1571086992503;4047;4297798788;6279980908;304423194;9207257;982495186;9212518;147756633;0;0;0;0;0;0
2;138;1571086992524;1571086996479;3955;4271840134;6281538396;292650600;9035856;982886578;9341860;145931582;22;3;784;0;5;73
2;139;1571086996503;1571087000370;3867;4243127190;6278510914;284621988;8651451;982317719;9441084;143965474;0;0;0;0;0;0
2;140;1571087000393;1571087004360;3967;4269485154;6277183376;288777532;9315955;981562171;9176834;144153034;0;0;0;0;0;0
2;141;1571087004392;1571087008332;3940;4269217828;6280512049;288573291;8730135;982716259;9434629;144555463;0;0;0;0;0;0
2;142;1571087008355;1571087012420;4065;4279740632;6285236893;295355171;10069428;984115541;9335754;145585637;480;28;50248;0;1487;2024
2;143;1571087012446;1571087016529;4083;4297239900;6284673803;308604091;9179222;984037693;9068190;146529900;0;0;0;0;0;0
2;144;1571087016550;1571087020420;3870;4243477152;6277158400;288248646;8851346;981678115;9265698;143617065;0;0;0;0;0;0
2;145;1571087020441;1571087024321;3880;4227298162;6277390162;284783784;8537834;981399660;9150973;143533296;0;0;0;0;0;0
2;146;1571087024342;1571087028318;3976;4249068222;6283618819;290159184;8821483;983371166;9127816;144621209;11;14;784;0;4;11
2;147;1571087028340;1571087032246;3906;4237711320;6281119958;283612471;8595539;982981513;9314974;145254498;0;0;0;0;0;0
2;148;1571087032279;1571087036170;3891;4232978292;6282193563;281256121;8895161;982962377;9211244;143732887;0;0;0;0;0;0
2;149;1571087036192;1571087040114;3922;4270032216;6280005377;284913817;9042113;982537148;9301773;145044590;0;0;0;0;0;0
2;150;1571087040138;1571087044066;3928;4252367676;6281069076;293171622;9075371;982651455;9143622;145467954;71;14;1328;0;23;793
2;151;1571087044094;1571087047950;3856;4212306298;6286066323;270226509;8968455;983910299;9355485;142195980;48;18;7504;0;110;586
2;152;1571087047977;1571087051838;3861;4224061488;6275611820;282671241;8716938;981429497;9384037;143124944;0;0;0;0;0;0
2;153;1571087051859;1571087055903;4044;4295460306;6281155389;293708971;8812490;983200201;9304042;146150838;0;0;0;0;0;0
2;154;1571087055925;1571087059816;3891;4222085232;6273626527;269928221;8938175;980267595;9159319;141664077;17;16;912;0;13;30
2;155;1571087059840;1571087063864;4024;4305839446;6279877462;295804962;9289046;982521789;9229901;146900250;0;0;0;0;0;0
2;156;1571087063886;1571087067834;3948;4278031848;6281696140;295000531;8582481;983133075;9243415;146071153;0;0;0;0;0;0
2;157;1571087067856;1571087071716;3860;4229117906;6280305706;275833830;8621484;982879286;9171986;144282717;7;15;768;0;3;4
2;158;1571087071737;1571087075602;3865;4255663626;6282815303;278827007;8787540;983127515;9422536;144712226;48;28;7760;0;110;604
2;159;1571087075625;1571087079529;3904;4242865120;6274708247;286120040;8720085;980722177;9247034;145060987;0;0;0;0;0;0
2;160;1571087079558;1571087083452;3894;4231010212;6278209339;286083233;8537010;981732699;9191632;145831286;0;0;0;0;0;0
2;161;1571087083480;1571087087332;3852;4226349162;6280154698;275728977;8419197;982339636;9374103;144174773;15;8;760;0;4;33
2;162;1571087087353;1571087091220;3867;4241124070;6280873992;275194854;8574839;982664066;9424226;145097880;0;0;0;0;0;0
2;163;1571087091243;1571087095130;3887;4285739626;6278701798;276618070;8876212;982400404;9356140;144267661;0;0;0;0;0;0
2;164;1571087095152;1571087099163;4011;4318293246;6288900895;299886170;9288297;985004134;9352530;148686433;0;0;0;0;0;0
2;165;1571087099187;1571087103312;4125;4313682712;6276498815;304263026;9113563;981452289;9001950;149216326;16;7;776;0;4;37
2;166;1571087103332;1571087107215;3883;4263019836;6279957716;279840210;8740393;982394805;9343115;145330709;34;18;6416;0;87;356
2;167;1571087107239;1571087111149;3910;4271347530;6280290321;284570391;8860519;982560889;9320148;145828340;0;0;0;0;0;0
2;168;1571087111171;1571087115026;3855;4262092298;6293032575;278521480;9019347;986365025;9459342;145192630;0;0;0;0;0;0
2;169;1571087115048;1571087119086;4038;4302878274;6283207442;299814079;9008324;983388455;9088164;147997410;8;15;760;0;12;20
2;170;1571087119107;1571087122950;3843;4230523594;6289469803;285034577;8388764;985258846;9404571;145044105;0;0;0;0;0;0
2;171;1571087122985;1571087126947;3962;4290292490;6280060348;294635964;8693768;982335205;9369747;146872109;0;0;0;0;0;0
2;172;1571087126969;1571087130990;4021;4295428186;6291928851;297668638;8505164;985561334;9056091;147276478;0;0;0;0;0;0
2;173;1571087131012;1571087135096;4084;4322533378;6279805376;301254318;8362967;982619612;9112823;148612484;7;10;576;0;2;7
2;174;1571087135117;1571087139065;3948;4273022880;6279027223;287667968;8987946;982337320;9372885;146774992;38;24;6672;0;88;421
2;175;1571087139089;1571087143029;3940;4316000316;6286489112;285337564;9248340;984592038;9313098;145298665;0;0;0;0;0;0
2;176;1571087143059;1571087147045;3986;4288075334;6279985498;297279496;9148876;982519613;9323437;146666821;0;0;0;0;0;0
2;177;1571087147080;1571087151045;3965;4277894608;6286452120;293272943;8879939;984320839;9308150;147394555;10;14;776;0;2;6
2;178;1571087151067;1571087155026;3959;4269877018;6273446344;291229010;9163679;980536447;9179804;145057588;0;0;0;0;0;0
2;179;1571087155052;1571087159088;4036;4320476092;6279894479;302702265;9658911;982568271;9273853;148674972;0;0;0;0;0;0
2;180;1571087159110;1571087163115;4005;4299044022;6287838369;292304417;8915677;984884559;9302848;147855579;0;0;0;0;0;0
3;132;1571087794139;1571087798234;4095;4253000732;6234093782;288008612;9277228;977679104;9275721;146984287;0;0;0;0;0;0
3;133;1571087798256;1571087802170;3914;4173557898;6236738424;265054394;9474574;978405404;9322345;144120438;0;0;0;0;0;0
3;134;1571087802193;1571087806045;3852;4166961034;6236165220;257325059;9192046;978213339;9357477;143158212;0;0;0;0;0;0
3;135;1571087806083;1571087809916;3833;4166298778;6238021774;273385710;9233878;978378439;9370036;146635690;59;29;7440;0;97;590
3;136;1571087809938;1571087813886;3948;4201871240;6230481219;271565858;9130891;976369151;9245044;147778086;0;0;0;0;0;0
3;137;1571087813907;1571087817710;3803;4136944164;6232334523;264715508;9241113;976942607;9103108;145450068;0;0;0;0;0;0
3;138;1571087817734;1571087821623;3889;4183066440;6233003854;274359078;9445599;976996588;9153139;146057017;0;0;0;0;0;0
3;139;1571087821646;1571087825524;3878;4168544988;6233905346;273275410;9130494;977108340;9195031;144088451;8;15;760;0;4;15
3;140;1571087825547;1571087829452;3905;4188695032;6231025116;280048950;8857937;976587527;9318757;144884050;0;0;0;0;0;0
3;141;1571087829486;1571087833419;3933;4179611496;6244319640;273034163;8826752;980125143;9208011;145294407;0;0;0;0;0;0
3;142;1571087833440;1571087837328;3888;4206389064;6229662068;277060091;8950261;976284315;9387238;145202378;0;0;0;0;0;0
3;143;1571087837350;1571087841391;4041;4231532162;6239761838;282186573;9323984;979273004;9233943;148287148;55;31;7384;0;124;567
3;144;1571087841412;1571087845356;3944;4224440650;6230669804;274580145;9305832;976982830;9282907;147453785;0;0;0;0;0;0
3;145;1571087845390;1571087849375;3985;4219235896;6237297147;280077073;10345258;978553134;9068674;147088213;508;25;50032;0;1610;2764
3;146;1571087849396;1571087853294;3898;4181925888;6234254583;276763661;9096354;977771939;9281644;146480890;0;0;0;0;0;0
3;147;1571087853318;1571087857260;3942;4207993458;6236236366;276023107;9312522;977946099;9179817;145949554;19;6;824;0;47;91
3;148;1571087857285;1571087861135;3850;4165109900;6233524453;267094153;9003677;977257738;9257372;144638778;0;0;0;0;0;0
3;149;1571087861156;1571087865036;3880;4166071894;6232484764;269135155;9152121;977183883;9393793;145126364;0;0;0;0;0;0
3;150;1571087865058;1571087868966;3908;4191179514;6232237839;278507274;9193863;977208490;9280954;147353340;0;0;0;0;0;0
3;151;1571087868998;1571087872860;3862;4167702276;6237224246;267050069;9197777;978414925;9257862;144858970;22;1;776;0;6;106
3;152;1571087872898;1571087876848;3950;4201868904;6234233199;265927366;8810603;977281603;9114068;146916192;0;0;0;0;0;0
3;153;1571087876893;1571087880802;3909;4203671566;6236222006;272081506;9347086;978117693;9338928;148044275;104;18;8336;0;201;2437
3;154;1571087880824;1571087884736;3912;4214352488;6230278846;269165502;9327270;976509826;9191318;147741326;0;0;0;0;0;0
3;155;1571087884759;1571087888668;3909;4169980752;6232689410;268263762;9551163;977197894;9212355;146586401;85;14;1520;0;72;1684
3;156;1571087888691;1571087892673;3982;4203292258;6237339314;268896419;9513778;978519607;9320986;147296474;0;0;0;0;0;0
3;157;1571087892694;1571087896597;3903;4190267598;6235586420;273423741;9306829;978099335;9106947;147570530;0;0;0;0;0;0
3;158;1571087896620;1571087900508;3888;4197172814;6242315253;270761817;9512607;980462264;9377314;146718676;11;11;768;0;3;18
3;159;1571087900532;1571087904451;3919;4207248712;6235498365;276839355;9627015;978046769;9322094;148192708;0;0;0;0;0;0
3;160;1571087904472;1571087908358;3886;4186692934;6242985996;267083587;9168607;980242411;9384967;147677325;47;30;9088;2;37;528
3;161;1571087908392;1571087912211;3819;4174122626;6230808946;266910273;8841681;976740948;9430673;147067623;4;0;16;-2;83;153
3;162;1571087912234;1571087916190;3956;4240512330;6238877767;282827928;9087147;978994524;9189480;149479580;8;16;768;0;13;50
3;163;1571087916213;1571087920092;3879;4167252158;6235288775;257002958;9144752;977891368;9193747;143873323;0;0;0;0;0;0
3;164;1571087920114;1571087923958;3844;4157687844;6232755282;266889701;9070381;977051623;9260723;144776939;0;0;0;0;0;0
3;165;1571087923986;1571087927865;3879;4160740266;6233670057;273443479;9003749;977381730;9075275;146045345;0;0;0;0;0;0
3;166;1571087927896;1571087931904;4008;4252979416;6242253269;276881043;9456222;980132739;9286761;148557463;17;5;768;0;37;124
3;167;1571087931927;1571087935831;3904;4160574264;6239305640;268493281;9453198;978835662;9259626;145474768;0;0;0;0;0;0
3;168;1571087935853;1571087939695;3842;4163898830;6241677671;265889866;9095523;979635927;9287438;145517084;46;20;6736;0;113;550
3;169;1571087939718;1571087943557;3839;4175876086;6241264239;268896824;9022671;979942917;9415200;146744608;0;0;0;0;0;0
3;170;1571087943589;1571087947541;3952;4192710032;6230179333;277998931;9400697;976438879;9268665;147479566;8;11;584;0;3;11
3;171;1571087947566;1571087951468;3902;4206142616;6237202368;279182072;9662901;978276620;9205765;146114485;0;0;0;0;0;0
3;172;1571087951491;1571087955342;3851;4183201636;6236762027;271058152;9283368;978490179;9374017;144630359;0;0;0;0;0;0
3;173;1571087955386;1571087959246;3860;4157999408;6231379574;269289334;9051153;976862834;9353449;145515171;0;0;0;0;0;0
3;174;1571087959268;1571087963171;3903;4194127108;6239468250;276002616;9084849;979201734;9310805;146462096;21;1;768;0;5;81
3;175;1571087963205;1571087967043;3838;4135240344;6236004807;267703430;8948443;978135344;9308043;146547481;0;0;0;0;0;0
3;176;1571087967066;1571087970904;3838;4170688706;6235345785;273517643;9428315;978265879;9276678;147654515;37;24;7568;0;106;381
3;177;1571087970925;1571087974766;3841;4169360690;6231387752;279167395;9244555;977070309;9277290;146952066;0;0;0;0;0;0
3;178;1571087974799;1571087978807;4008;4222080122;6243152444;282781360;9830425;980193558;9287583;149116591;9;14;760;0;3;8
3;179;1571087978831;1571087982698;3867;4155330090;6237183082;270286660;9210210;978493920;9155335;145118418;0;0;0;0;0;0
3;180;1571087982720;1571087986630;3910;4175468308;6230283628;274820021;9162581;976784298;9297516;146159294;0;0;0;0;0;0
3;181;1571087986650;1571087990562;3912;4171949562;6239869630;274144115;9196016;979346350;9202985;145299935;0;0;0;0;0;0
4;129;1571088618142;1571088622246;4104;4320008162;6292018157;304229997;8851957;988765013;10029283;150279419;21;3;776;0;15;106
4;130;1571088622291;1571088626235;3944;4260197510;6287649490;290965906;8719049;987186788;9998806;149065390;0;0;0;0;0;0
4;131;1571088626258;1571088630164;3906;4233184298;6284345512;295814893;8880984;985967280;9882183;147940437;0;0;0;0;0;0
4;132;1571088630197;1571088634283;4086;4281405470;6283475899;307343344;8714878;985857000;9619611;151411128;0;0;0;0;0;0
4;133;1571088634304;1571088638299;3995;4274886278;6282463510;293876479;8547698;986022883;10010840;150068153;11;11;760;0;3;21
4;134;1571088638320;1571088642242;3922;4258118908;6283154712;291995874;8838177;985608965;9822719;150147222;66;16;6672;0;140;939
4;135;1571088642264;1571088646218;3954;4245067968;6288079697;287028205;8935413;987019775;9738724;149023120;0;0;0;0;0;0
4;136;1571088646251;1571088650154;3903;4240609274;6287834331;288023344;8677383;987370764;9957545;150130683;0;0;0;0;0;0
4;137;1571088650184;1571088654102;3918;4220622020;6283704840;282906341;8512226;985983621;9792528;147476151;16;3;592;0;14;65
4;138;1571088654124;1571088658009;3885;4201197158;6283015895;280089366;8347212;985835373;9855602;147224921;0;0;0;0;0;0
4;139;1571088658033;1571088661920;3887;4237051546;6283029290;281276662;8515346;985757943;9902904;149812038;0;0;0;0;0;0
4;140;1571088661945;1571088665928;3983;4256691904;6282965644;285918525;8846497;986021628;9925638;151530523;0;0;0;0;0;0
4;141;1571088665951;1571088670003;4052;4301800356;6291071002;291327047;8421039;988052940;10066895;151167016;14;7;752;0;4;43
4;142;1571088670024;1571088674006;3982;4259068200;6283687494;293760947;8561637;985971941;9815994;150416128;54;22;6480;0;124;655
4;143;1571088674028;1571088678042;4014;4274486530;6295174715;294140633;8585369;989625845;10111159;149702779;0;0;0;0;0;0
4;144;1571088678065;1571088682140;4075;4311827198;6291706570;303764341;9004965;988190192;9951443;151942410;9;16;784;0;12;56
4;145;1571088682163;1571088686118;3955;4226435302;6295404956;286841544;8965229;989456782;9743536;148655502;0;0;0;0;0;0
4;146;1571088686141;1571088690191;4050;4266780504;6282585195;295096636;8823334;985731438;9849525;150297828;0;0;0;0;0;0
4;147;1571088690216;1571088694239;4023;4262864346;6278409445;302456967;8946923;984595435;9688085;149347796;0;0;0;0;0;0
4;148;1571088694291;1571088698117;3826;4227812958;6292764053;278286292;8672714;988514399;10082017;148674019;7;14;752;0;3;6
4;149;1571088698139;1571088702172;4033;4261386242;6282894192;293575926;9761271;985685781;9800682;150273616;420;23;46424;1;1241;1889
4;150;1571088702194;1571088706223;4029;4270980048;6286603798;300877013;9442668;986727239;9929839;151311322;52;6;3096;-1;261;290
4;151;1571088706246;1571088710221;3975;4237139876;6282549920;294297485;8376322;985532329;9871152;149877540;0;0;0;0;0;0
4;152;1571088710242;1571088714198;3956;4251865582;6284476873;292935491;9070933;986535754;10020943;149092706;11;14;784;0;12;37
4;153;1571088714219;1571088718089;3870;4249675874;6296012624;297578325;8816239;989799945;10173789;148047478;0;0;0;0;0;0
4;154;1571088718110;1571088722042;3932;4262129236;6292403251;299989070;8734446;988836366;9982499;149683008;0;0;0;0;0;0
4;155;1571088722064;1571088726121;4057;4329179882;6285899183;311014154;8788170;986838593;9922840;151756562;0;0;0;0;0;0
4;156;1571088726143;1571088730152;4009;4259125140;6280656114;297461500;8762499;984737364;9870635;148515401;6;10;568;0;2;5
4;157;1571088730174;1571088734290;4116;4322592362;6284736674;313418525;9154039;986182027;9751702;151200209;62;26;7824;0;131;843
4;158;1571088734312;1571088738337;4025;4302369610;6289143134;299611552;9306206;987600417;10101194;150565257;0;0;0;0;0;0
4;159;1571088738362;1571088742390;4028;4277808906;6277676917;305333373;9022446;984266353;9692511;150381302;0;0;0;0;0;0
4;160;1571088742412;1571088746267;3855;4223645096;6288428553;292893482;8929097;987052173;9937555;147977437;82;16;1512;0;45;1318
4;161;1571088746299;1571088750206;3907;4265613234;6287715731;300295123;9000138;986987362;10064934;149103539;0;0;0;0;0;0
4;162;1571088750229;1571088754176;3947;4271086774;6285587943;300066687;9119397;986328874;9990214;149483734;0;0;0;0;0;0
4;163;1571088754199;1571088758041;3842;4260849546;6292519127;295834919;9016068;988634568;10148757;150388472;0;0;0;0;0;0
4;164;1571088758062;1571088761994;3932;4247435066;6284381169;292071355;8697049;986702818;10116787;148935751;70;30;8824;2;80;746
4;165;1571088762015;1571088765988;3973;4229357054;6282523352;299890572;8830443;985680907;9601131;149047091;4;0;16;-2;58;97
4;166;1571088766009;1571088770020;4011;4287750630;6279479917;298707982;8676935;984536550;9683392;150143689;0;0;0;0;0;0
4;167;1571088770042;1571088773982;3940;4249072310;6287332011;294712846;8660210;987356348;10036698;149832859;0;0;0;0;0;0
4;168;1571088774002;1571088777937;3935;4279064798;6292004603;294877312;8546433;988624784;9991608;150220147;11;13;776;0;12;22
4;169;1571088777960;1571088781813;3853;4248653144;6281424855;288101187;8768304;985437468;10006477;148713780;0;0;0;0;0;0
4;170;1571088781841;1571088785730;3889;4252211602;6296274394;293398925;8815922;989740971;10086323;150120002;0;0;0;0;0;0
4;171;1571088785752;1571088789723;3971;4274920880;6285386923;304477679;8895766;986359873;9954883;150739261;16;6;760;0;4;45
4;172;1571088789746;1571088793632;3886;4281821862;6284395331;301205441;8910024;986006950;9929008;150621416;34;20;6544;0;92;339
4;173;1571088793654;1571088797588;3934;4249353506;6278858307;303422511;8523026;984759563;9843221;151341624;0;0;0;0;0;0
4;174;1571088797610;1571088801564;3954;4287498634;6279460737;317025179;9186045;984874656;9823780;151882039;0;0;0;0;0;0
4;175;1571088801596;1571088805460;3864;4246218010;6280314118;304781636;8979735;985224070;9965210;150736399;20;4;776;0;23;128
4;176;1571088805494;1571088809509;4015;4271266646;6283001834;306903132;9006490;985999718;9835081;151387680;0;0;0;0;0;0
4;177;1571088809544;1571088813588;4044;4313978216;6294129929;319826102;8609254;989421595;9707083;152891360;0;0;0;0;0;0
4;178;1571088813610;1571088817593;3983;4265923046;6288639933;307415172;8677430;987510913;9787501;151165787;0;0;0;0;0;0
