0;133;1571085829404;1571085833325;3921;4241899038;6292141333;269001867;11856100;986590368;9469091;145522265;54;16;6032;0;107;634
0;134;1571085833348;1571085837224;3876;4258854456;6301097717;284628013;11992784;989097576;9726854;147185480;0;0;0;0;0;0
0;135;1571085837248;1571085841083;3835;4245693578;6301218969;272867694;11855683;989332598;9958325;144656460;0;0;0;0;0;0
0;136;1571085841106;1571085844999;3893;4267989822;6302908122;279175434;12098245;989798399;9732855;145173820;6;15;752;0;3;4
0;137;1571085845023;1571085848818;3795;4227462996;6295818020;269469872;12547134;987808720;9844504;144319587;0;0;0;0;0;0
0;138;1571085848840;1571085852807;3967;4305915366;6297285288;290499673;12324841;987882089;9470998;148521620;180;16;22064;1;629;867
0;139;1571085852830;1571085856900;4070;4327870408;6293449331;300200766;12753976;987048033;9305980;147117062;281;6;25984;-1;863;972
0;140;1571085856923;1571085860711;3788;4212063354;6294379398;268208489;11742803;987228426;9739479;144341263;10;14;768;0;12;28
0;141;1571085860732;1571085864520;3788;4220899128;6293247654;268563161;11837695;986787734;9853989;143240911;0;0;0;0;0;0
0;142;1571085864543;1571085868448;3905;4264004898;6303937680;281780832;12298819;990031434;9777962;144060214;0;0;0;0;0;0
0;143;1571085868472;1571085872266;3794;4236424768;6294854354;277125374;11812638;987456969;9702058;145010107;0;0;0;0;0;0
0;144;1571085872303;1571085876312;4009;4330836544;6297875804;299203907;12519664;988512979;9570243;148005848;5;17;760;0;19;46
0;145;1571085876334;1571085880169;3835;4250290972;6298138440;279992393;11960839;988320629;9775249;145571310;0;0;0;0;0;0
0;146;1571085880202;1571085883978;3776;4247627056;6295436549;274594389;11890405;987838866;9934678;145632032;42;22;6800;0;97;512
0;147;1571085884001;1571085888003;4002;4307010950;6297529411;297632201;11849204;988295276;9633429;148511988;0;0;0;0;0;0
0;148;1571085888024;1571085891886;3862;4269451574;6298299523;285561895;11948738;988487840;9739838;146450128;89;11;1536;0;51;1657
0;149;1571085891915;1571085895909;3994;4303186918;6292053747;286527138;11971678;986620562;9576409;146880861;0;0;0;0;0;0
0;150;1571085895930;1571085899835;3905;4287624340;6293972430;285732847;11867925;987089280;9550171;145600723;0;0;0;0;0;0
0;151;1571085899858;1571085903948;4090;4336064950;6294905513;304619015;12087542;987261305;9419774;149007725;0;0;0;0;0;0
0;152;1571085903969;1571085907867;3898;4251918726;6289997833;277471285;12107865;986094992;9682666;145986325;9;13;760;0;3;9
0;153;1571085907904;1571085911667;3763;4252537036;6300055652;273025081;12634896;988813126;9798024;146487732;0;0;0;0;0;0
0;154;1571085911704;1571085915518;3814;4255700856;6300637657;271974963;12039935;988878015;9809067;146349163;62;32;9744;0;140;872
0;155;1571085915543;1571085919347;3804;4253371572;6292559628;282158357;12343336;986735043;9655993;146185790;0;0;0;0;0;0
0;156;1571085919383;1571085923341;3958;4307508810;6300456633;292228442;12152797;989161727;9617134;148601981;15;9;768;0;4;36
0;157;1571085923363;1571085927113;3750;4205528248;6289851545;273031603;11743936;985831642;9627837;144758241;0;0;0;0;0;0
0;158;1571085927137;1571085931197;4060;4364525898;6311227668;313235153;12499856;992480681;9333152;150118399;0;0;0;0;0;0
0;159;1571085931220;1571085935120;3900;4256600508;6295917086;285948773;12210333;987620022;9536586;147730927;9;12;752;0;3;9
0;160;1571085935143;1571085938993;3850;4263424840;6301799652;284972843;12524142;989855892;9856802;146845334;0;0;0;0;0;0
0;161;1571085939015;1571085943012;3997;4297845070;6293035959;287444959;12316054;987036112;9497492;149220380;0;0;0;0;0;0
0;162;1571085943036;1571085947094;4058;4326267912;6293872913;302000948;12478775;987331315;9487297;150028454;37;22;6960;0;91;430
0;163;1571085947119;1571085951026;3907;4307308352;6298719383;285835324;11876152;988517985;9859530;144708237;7;18;776;0;12;35
0;164;1571085951047;1571085955001;3954;4306658214;6293923349;291552048;12003807;986793588;9511245;148199192;0;0;0;0;0;0
0;165;1571085955023;1571085958847;3824;4246399342;6294301172;277779946;12101749;987309851;9729757;145692138;0;0;0;0;0;0
0;166;1571085958894;1571085962739;3845;4305644974;6302567374;274399907;11928170;989466109;10071641;146177547;0;0;0;0;0;0
0;167;1571085962782;1571085966665;3883;4287050998;6294474717;292165507;12300139;987331649;9756326;146771313;13;8;752;0;4;31
0;168;1571085966691;1571085970711;4020;4310881264;6296580225;301515775;12147992;988210484;9607281;150107268;0;0;0;0;0;0
0;169;1571085970732;1571085974495;3763;4218410996;6296007231;276621090;12166868;987690135;9660121;145474564;56;14;6480;0;92;649
0;170;1571085974517;1571085978487;3970;4288363246;6294587317;295762040;11886216;987314911;9492789;149017434;0;0;0;0;0;0
0;171;1571085978511;1571085982341;3830;4255491930;6296197988;277064780;12158813;987898003;9844315;145667224;17;7;768;0;13;48
0;172;1571085982363;1571085986124;3761;4227361964;6300370216;266277834;11986093;988525661;9770860;145303925;0;0;0;0;0;0
0;173;1571085986145;1571085989924;3779;4239358784;6298893861;271300170;11924668;988796233;10013220;145293037;0;0;0;0;0;0
0;174;1571085989947;1571085993842;3895;4279995986;6295962710;281189247;12508650;988054483;9723598;146171186;0;0;0;0;0;0
0;175;1571085993882;1571085997938;4056;4357856326;6299551121;303218330;12238976;988670563;9487321;150203188;6;11;576;0;2;4
0;176;1571085997963;1571086001804;3841;4269094458;6302333513;285225092;12367301;989725629;9802055;146386655;0;0;0;0;0;0
0;177;1571086001826;1571086005746;3920;4290622158;6295831970;291128561;12064957;987555581;9617506;147729243;47;20;6896;0;86;516
0;178;1571086005768;1571086009695;3927;4287108960;6297391917;286400212;12099048;988151347;9464982;147334710;0;0;0;0;0;0
0;179;1571086009719;1571086013644;3925;4267378228;6290818031;282498236;12485607;986273704;9404164;147294679;9;14;760;0;3;7
0;180;1571086013667;1571086017713;4046;4334315870;6301184444;290384448;12564936;989194836;9652487;148644174;0;0;0;0;0;0
0;181;1571086017735;1571086021452;3717;4200062008;6299880430;264176422;12312720;988421170;9644786;145164762;0;0;0;0;0;0
0;182;1571086021483;1571086025292;3809;4236212338;6299581789;262036581;11952594;988719086;9804633;145138797;0;0;0;0;0;0
1;134;1571086655712;1571086659703;3991;4228438714;6231464251;293696103;11933929;977191641;9021418;144752418;0;0;0;0;0;0
1;135;1571086659729;1571086663648;3919;4229046512;6248641071;290624359;11859156;982326836;9237307;144450501;0;0;0;0;0;0
1;136;1571086663691;1571086667545;3854;4175009868;6232807973;281505969;12090430;977548905;8921071;144329309;0;0;0;0;0;0
1;137;1571086667567;1571086671382;3815;4151772654;6237308123;275956136;11325905;978882157;9118102;142931499;22;1;768;0;15;98
1;138;1571086671405;1571086675293;3888;4211838076;6246392411;284227919;11782247;981964796;9267078;145194159;38;16;6672;0;95;441
1;139;1571086675317;1571086679427;4110;4260870570;6240483139;292674842;11655203;979960674;8806115;146329238;0;0;0;0;0;0
1;140;1571086679451;1571086683395;3944;4216073536;6239508181;278385572;11763654;979450979;9260549;143468920;0;0;0;0;0;0
1;141;1571086683418;1571086687189;3771;4140263620;6234970344;267854346;11388052;978250015;9169005;141211966;10;13;760;0;4;14
1;142;1571086687211;1571086691157;3946;4211966994;6251070702;278955338;11707997;982754671;9179483;145194738;0;0;0;0;0;0
1;143;1571086691190;1571086694954;3764;4164605178;6240421243;271522820;11919200;979755619;9286513;142588629;0;0;0;0;0;0
1;144;1571086694991;1571086698848;3857;4182947888;6243620485;279160320;11573112;981020515;9153730;144200785;0;0;0;0;0;0
1;145;1571086698874;1571086702816;3942;4225848820;6240425489;289258580;12130723;979609612;9091935;144431262;9;13;760;0;3;14
1;146;1571086702841;1571086706577;3736;4163094954;6237647725;262942660;11355360;978822308;9220807;141398219;36;22;6672;0;101;409
1;147;1571086706604;1571086710626;4022;4249236560;6241177470;290395973;11669933;980200513;9110279;146943765;0;0;0;0;0;0
1;148;1571086710649;1571086714448;3799;4170627678;6235655923;265081111;11461886;978236254;9275834;143513519;0;0;0;0;0;0
1;149;1571086714488;1571086718312;3824;4165313570;6242439119;268324644;11701294;980291320;9129735;143548162;12;12;768;0;3;9
1;150;1571086718336;1571086722089;3753;4156153676;6240237378;262262923;12617597;979741154;9274455;142190182;472;32;50096;0;1622;2159
1;151;1571086722116;1571086726155;4039;4235239540;6241227795;286260937;11703496;979997973;9042988;146259082;0;0;0;0;0;0
1;152;1571086726178;1571086730194;4016;4231010650;6245677781;286407676;11988450;981572197;8894528;145433797;16;6;760;0;4;46
1;153;1571086730217;1571086734008;3791;4160909772;6243872763;270767970;11566717;980822332;9292345;143243792;0;0;0;0;0;0
1;154;1571086734030;1571086737990;3960;4197303338;6233927097;282696166;11592220;978236978;9066741;145200992;0;0;0;0;0;0
1;155;1571086738015;1571086741786;3771;4152037644;6235214937;274569801;11487746;978020177;9151127;141853926;0;0;0;0;0;0
1;156;1571086741816;1571086745608;3792;4156872726;6234998827;272611774;11474070;978179432;9359285;141121393;15;8;760;0;38;116
1;157;1571086745631;1571086749428;3797;4158368058;6242735601;277514424;11929731;980451028;9330851;141146603;0;0;0;0;0;0
1;158;1571086749450;1571086753241;3791;4158358714;6251453379;275284046;11490004;983027073;9219924;143194876;40;24;7120;0;110;2470
1;159;1571086753267;1571086757020;3753;4156996826;6244887232;279689181;11848716;981049398;9284765;142465399;0;0;0;0;0;0
1;160;1571086757044;1571086761048;4004;4240057394;6246865795;300841351;11547408;981620280;9070667;145555872;78;20;1512;0;41;1888
1;161;1571086761098;1571086765001;3903;4208700974;6239569665;295275213;12103307;979805617;9116510;143342403;0;0;0;0;0;0
1;162;1571086765025;1571086769050;4025;4285472154;6234379485;305192539;12013958;978071368;9168212;147374980;0;0;0;0;0;0
1;163;1571086769088;1571086773191;4103;4318411944;6261292565;306448714;12234983;986250926;9068944;148637459;0;0;0;0;0;0
1;164;1571086773213;1571086776981;3768;4132350712;6241956927;268700565;12043029;980241584;9139077;143399469;11;12;760;0;12;24
1;165;1571086777005;1571086780845;3840;4188291634;6239958490;280896340;11765788;979667861;9175287;144185053;76;30;10320;0;160;1208
1;166;1571086780890;1571086784780;3890;4202290698;6249698571;278201851;12027050;982325870;9282797;145504127;0;0;0;0;0;0
1;167;1571086784805;1571086788602;3797;4179049396;6237334053;287142773;11674678;979066751;9305084;143910804;0;0;0;0;0;0
1;168;1571086788626;1571086792519;3893;4168326280;6239485077;283630291;11848664;979603973;9246443;145433710;18;5;768;0;6;79
1;169;1571086792542;1571086796425;3883;4226360258;6235910890;298491256;11727229;978645696;9138788;146136395;0;0;0;0;0;0
1;170;1571086796447;1571086800295;3848;4180123810;6231330376;291349264;11522318;977141801;9028603;145182438;0;0;0;0;0;0
1;171;1571086800320;1571086804127;3807;4174865182;6244585567;281669680;11992779;980891016;9136011;143395556;0;0;0;0;0;0
1;172;1571086804152;1571086808025;3873;4209836562;6254026580;289516151;11629698;983910059;9430003;144913684;10;9;608;0;12;33
1;173;1571086808049;1571086811902;3853;4195079466;6236396497;285918575;11932931;978810270;9272155;143027793;54;14;6800;0;113;655
1;174;1571086811925;1571086815787;3862;4175832432;6237150258;288302957;11586686;978987331;9091413;144911854;0;0;0;0;0;0
1;175;1571086815812;1571086819828;4016;4254242608;6234627801;307221338;11736809;978161545;8982932;146076416;0;0;0;0;0;0
1;176;1571086819875;1571086823820;3945;4227904208;6244796102;305052177;11977209;981065417;9080600;145671355;8;13;752;0;3;7
1;177;1571086823844;1571086827740;3896;4205925222;6238161850;296386737;11875895;979304811;9084611;144443913;0;0;0;0;0;0
1;178;1571086827764;1571086831779;4015;4246674552;6239164431;305937094;12167523;979592034;8968529;146339728;0;0;0;0;0;0
1;179;1571086831803;1571086835498;3695;4121333114;6236598984;258296785;11684583;978813730;9349617;142005578;0;0;0;0;0;0
1;180;1571086835520;1571086839355;3835;4146237356;6241889493;269084631;11986380;980430401;9272195;145121813;8;17;776;0;13;50
1;181;1571086839391;1571086843258;3867;4181990712;6237362647;271995507;11825902;979180887;9204190;144871666;48;16;6352;0;97;556
1;182;1571086843296;1571086847289;3993;4221427064;6243855768;296191853;12315318;981231490;9008810;146695613;0;0;0;0;0;0
1;183;1571086847320;1571086851260;3940;4218510568;6238315133;289779683;11993333;979207730;8931000;146792419;0;0;0;0;0;0
2;134;1571087483077;1571087486895;3818;4169779710;6331579035;272068354;11328226;975416409;9073318;144068669;0;0;0;0;0;0
2;135;1571087486919;1571087490913;3994;4216664106;6329733924;292026855;11908908;975015743;9196783;147911897;0;0;0;0;0;0
2;136;1571087490935;1571087494988;4053;4219303348;6323172503;294948229;11578276;973461860;8993527;148056516;0;0;0;0;0;0
2;137;1571087495011;1571087498826;3815;4189017108;6321867394;276304348;11740528;973023198;9027429;145048898;21;0;744;0;6;88
2;138;1571087498850;1571087502745;3895;4149570682;6326019723;278041390;11894034;973961473;8932092;145399598;0;0;0;0;0;0
2;139;1571087502777;1571087506526;3749;4106281828;6324508561;279509340;11650798;973317254;9034539;143479011;0;0;0;0;0;0
2;140;1571087506550;1571087510454;3904;4188697368;6334738857;295504787;12127462;976770325;9114058;146033743;0;0;0;0;0;0
2;141;1571087510496;1571087514522;4026;4208980272;6319873682;303597258;11600994;972221111;8868293;147199759;65;32;7392;0;99;648
2;142;1571087514545;1571087518484;3939;4192611044;6323920887;291370458;11784273;973330391;9313939;146097457;0;0;0;0;0;0
2;143;1571087518507;1571087522395;3888;4165605132;6329134819;284504828;11477243;974972827;9133107;144750798;0;0;0;0;0;0
2;144;1571087522424;1571087526298;3874;4150658090;6326282069;282614182;11618616;974312183;9090087;144407419;8;12;736;0;3;12
2;145;1571087526320;1571087530242;3922;4168900498;6317477782;285437568;11591621;971600726;8827443;146144021;0;0;0;0;0;0
2;146;1571087530276;1571087534133;3857;4211423582;6325662111;283213863;11623489;974364397;9220207;144512457;0;0;0;0;0;0
2;147;1571087534159;1571087537953;3794;4145048332;6321730480;278501531;12272428;972808591;9349858;142493659;0;0;0;0;0;0
2;148;1571087537989;1571087542090;4101;4244852180;6330322744;315004258;11460505;975027655;8870804;148385876;9;17;792;0;13;33
2;149;1571087542111;1571087546123;4012;4211833988;6333617370;296639198;11986758;976104326;9135000;146369805;0;0;0;0;0;0
2;150;1571087546146;1571087549913;3767;4114500314;6330733939;273193219;11617104;975560862;9168571;145140284;38;24;6480;0;112;449
2;151;1571087549939;1571087553840;3901;4164775122;6327500328;285953401;11884937;974223748;9178167;146543159;0;0;0;0;0;0
2;152;1571087553862;1571087557875;4013;4215470848;6321954036;302642992;12255513;973033347;8955335;148460556;12;8;736;0;3;27
2;153;1571087557897;1571087561688;3791;4123974108;6321862440;274082641;11499441;972671207;9263076;144870688;0;0;0;0;0;0
2;154;1571087561710;1571087565590;3880;4142722990;6319337389;287158837;11823348;972044407;9169875;146089498;0;0;0;0;0;0
2;155;1571087565614;1571087569554;3940;4168017052;6332200109;288684095;11544471;976203596;9220292;147739497;263;14;35968;1;861;1141
2;156;1571087569587;1571087573781;4194;4287419356;6325983320;311525235;13175228;974196919;8842706;152289968;225;13;13192;-1;609;713
2;157;1571087573805;1571087577740;3935;4192687256;6335406845;287730347;11645416;977096980;9176940;148419319;0;0;0;0;0;0
2;158;1571087577780;1571087581636;3856;4156443194;6323743978;282557175;11633493;973274563;9184233;148268939;0;0;0;0;0;0
2;159;1571087581677;1571087585516;3839;4140464662;6322498496;284751342;11357216;972746409;9073240;146104225;0;0;0;0;0;0
2;160;1571087585539;1571087589602;4063;4227995166;6329682581;309223730;11824584;974967330;9085605;150411194;6;9;552;0;2;7
2;161;1571087589625;1571087593465;3840;4130872170;6323154186;283593266;11971188;973568437;9194346;146123144;0;0;0;0;0;0
2;162;1571087593489;1571087597322;3833;4134603784;6323714145;286383255;11620485;973303409;9119202;146269683;0;0;0;0;0;0
2;163;1571087597346;1571087601456;4110;4231509824;6316681505;304484162;11869345;971610777;8582558;149957919;0;0;0;0;0;0
2;164;1571087601482;1571087605312;3830;4153931848;6333512249;290750578;11652059;976440477;9174825;146686733;136;34;9224;0;160;2169
2;165;1571087605335;1571087609378;4043;4223355870;6328138445;306550891;12289590;974830629;8947283;150642176;0;0;0;0;0;0
2;166;1571087609401;1571087613307;3906;4126842570;6317851723;277584577;11605270;971652468;8962983;146144315;0;0;0;0;0;0
2;167;1571087613332;1571087617153;3821;4149519144;6324183452;281278179;11828283;973352003;9150040;145890053;0;0;0;0;0;0
2;168;1571087617176;1571087621039;3863;4159264498;6328566803;286170807;11617654;974754790;9051727;145928692;9;12;744;0;3;8
2;169;1571087621078;1571087624895;3817;4116905080;6321388070;281499116;11595746;972717451;8833596;144548537;0;0;0;0;0;0
2;170;1571087624917;1571087628944;4027;4226032780;6333664589;302173206;11861261;976668203;8970585;148756654;0;0;0;0;0;0
2;171;1571087628980;1571087632890;3910;4166186504;6335292888;291440902;11837453;976998027;9091899;147698845;62;26;9104;0;118;906
2;172;1571087632912;1571087636793;3881;4180172720;6327205441;294717821;12184153;974350505;9088728;146809050;21;3;776;0;14;79
2;173;1571087636816;1571087640679;3863;4166394992;6323856661;286347321;11795085;973704235;9208672;148043043;0;0;0;0;0;0
2;174;1571087640703;1571087644663;3960;4187756836;6319112880;306856522;12486937;972118424;8873392;148377098;0;0;0;0;0;0
2;175;1571087644698;1571087648497;3799;4138249988;6326724191;277161024;11696257;974324229;9181797;146415855;0;0;0;0;0;0
2;176;1571087648521;1571087652403;3882;4166830510;6320978067;283196968;11809146;972645407;9084387;147202367;3;18;744;0;13;27
2;177;1571087652427;1571087656218;3791;4114548932;6320486142;269202627;11547786;972522465;9079975;145504044;0;0;0;0;0;0
2;178;1571087656241;1571087660007;3766;4108248886;6327387537;264121278;11511569;974468197;9229401;144597865;0;0;0;0;0;0
2;179;1571087660030;1571087663919;3889;4161945496;6327112246;282188370;12243799;974684003;9092832;147795849;54;24;7120;0;110;640
2;180;1571087663941;1571087667826;3885;4149306422;6323958029;283369094;11549192;973520513;8942916;147695089;9;16;784;0;13;61
2;181;1571087667849;1571087671704;3855;4160919116;6326862725;279247322;12026192;974822571;9301375;147152713;0;0;0;0;0;0
2;182;1571087671726;1571087675487;3761;4114013696;6325125273;265693729;11587078;973486085;9149732;145962285;0;0;0;0;0;0
2;183;1571087675511;1571087679550;4039;4237798044;6333838162;299045002;11895026;976583867;9152487;149528441;0;0;0;0;0;0
3;127;1571088309863;1571088314043;4180;4643819810;6281529490;307968280;11894653;981203844;8913810;149050741;9;16;776;0;12;27
3;128;1571088314082;1571088317947;3865;4482743266;6280610700;272743393;12052298;981016148;9344794;145010434;0;0;0;0;0;0
3;129;1571088317981;1571088321900;3919;4512036706;6280191165;285723490;11824658;980799605;9203620;145210228;0;0;0;0;0;0
3;130;1571088321921;1571088325886;3965;4550496902;6293071198;290124651;11732650;984721045;9406148;147107078;0;0;0;0;0;0
3;131;1571088325911;1571088329951;4040;4581027546;6286513196;294474008;11455348;982580408;9320414;146451094;5;16;752;0;3;3
3;132;1571088329985;1571088334126;4141;4637605904;6282106007;310685415;11132300;981156725;9430447;150122010;38;12;6160;0;88;388
3;133;1571088334148;1571088338259;4111;4602498160;6283241875;299695608;11972810;981691973;9082092;149298968;0;0;0;0;0;0
3;134;1571088338281;1571088342247;3966;4552766764;6288713513;287553470;11479047;983458439;9383053;145987867;0;0;0;0;0;0
3;135;1571088342277;1571088346154;3877;4529728110;6283811306;278154203;12250995;981585725;9265729;146032813;15;4;584;0;4;38
3;136;1571088346189;1571088350380;4191;4684244436;6297033661;310938636;11210447;985821731;9294863;149149708;0;0;0;0;0;0
3;137;1571088350404;1571088354235;3831;4471713258;6285751137;273748066;12080305;982304232;9248796;144027063;0;0;0;0;0;0
3;138;1571088354258;1571088358331;4073;4609877876;6276409327;298809213;11806235;979633087;8970490;147330012;0;0;0;0;0;0
3;139;1571088358356;1571088362343;3987;4520109484;6287605888;277949336;11632902;982885484;9076895;147828459;8;14;760;0;3;9
3;140;1571088362366;1571088366332;3966;4504537562;6277986513;279586184;11710221;980259154;9115650;146194835;44;26;6544;0;93;501
3;141;1571088366354;1571088370199;3845;4475660368;6288173589;272917386;11732147;983358099;9442351;145169322;0;0;0;0;0;0
3;142;1571088370220;1571088374390;4170;4629303906;6277256708;297754491;11953607;980051700;9187917;148386955;9;14;760;0;3;7
3;143;1571088374414;1571088378442;4028;4528728886;6278318248;287052419;11259824;980338812;9132804;146161962;0;0;0;0;0;0
3;144;1571088378477;1571088382420;3943;4529014316;6280977955;287288272;12251724;981165480;9250537;147329099;0;0;0;0;0;0
3;145;1571088382443;1571088386669;4226;4702890534;6283849075;318908572;12322998;981762834;9068649;149962717;0;0;0;0;0;0
3;146;1571088386697;1571088390613;3916;4471458196;6280307438;275623302;12231910;980967429;9203963;146125769;485;35;50256;0;1500;2017
3;147;1571088390638;1571088394844;4206;4716935880;6281476158;303171923;12381340;981351776;9093865;149210507;0;0;0;0;0;0
3;148;1571088394867;1571088398902;4035;4558228186;6289585700;286769178;11804342;983364652;9247523;146893353;0;0;0;0;0;0
3;149;1571088398925;1571088402824;3899;4515355578;6285597890;277353797;12038811;982743768;9387271;143509553;0;0;0;0;0;0
3;150;1571088402846;1571088406896;4050;4552304674;6286266132;280308271;11408111;982510536;9305114;144851868;8;15;760;0;3;5
3;151;1571088406920;1571088411020;4100;4640415236;6278873221;305452314;12129226;980459816;9089496;147753786;0;0;0;0;0;0
3;152;1571088411042;1571088415154;4112;4637905934;6275881384;302915638;11492375;979554934;9336182;147703670;0;0;0;0;0;0
3;153;1571088415192;1571088419131;3939;4516850326;6285514476;285468611;12244800;982379930;9133055;147237811;0;0;0;0;0;0
3;154;1571088419153;1571088423143;3990;4560767272;6278626311;296984774;11994069;980298431;9149978;149288833;133;39;8560;0;130;1758
3;155;1571088423167;1571088427222;4055;4598452354;6279219064;298522184;11679494;980591444;9143519;147777116;0;0;0;0;0;0
3;156;1571088427246;1571088431197;3951;4531597786;6277776825;283506631;12005034;980206715;9263742;145874164;0;0;0;0;0;0
3;157;1571088431219;1571088435260;4041;4597811852;6274138404;298346217;11646771;979013707;9092082;148636911;0;0;0;0;0;0
3;158;1571088435291;1571088439427;4136;4696939428;6279412445;308586329;12224523;980436807;9066011;149603850;17;8;784;0;5;42
3;159;1571088439450;1571088443491;4041;4547025022;6280370522;288133545;11703245;980919283;9053063;148843001;0;0;0;0;0;0
3;160;1571088443515;1571088447597;4082;4620062690;6282477825;299515815;12252337;981364224;9059658;150273420;0;0;0;0;0;0
3;161;1571088447619;1571088451599;3980;4559800898;6280393710;280697943;11748665;981158422;9266293;148113930;45;41;8304;0;127;552
3;162;1571088451622;1571088455605;3983;4519221658;6278307369;283349765;12115670;980518916;9171831;148516470;0;0;0;0;0;0
3;163;1571088455629;1571088459788;4159;4608927562;6283539852;296968712;12152644;982139534;9078021;150006025;0;0;0;0;0;0
3;164;1571088459810;1571088463803;3993;4585609756;6285527584;293882541;11219329;982363019;9339906;148289992;0;0;0;0;0;0
3;165;1571088463826;1571088467695;3869;4518462458;6287233564;282345441;12137497;982924776;9318362;145583691;7;18;784;0;49;71
3;166;1571088467719;1571088471632;3913;4538002368;6278976924;273246075;11680604;980773623;9326833;147466473;0;0;0;0;0;0
3;167;1571088471656;1571088475802;4146;4651494592;6278936572;305878166;12299840;980668293;9197518;148997550;0;0;0;0;0;0
3;168;1571088475824;1571088479928;4104;4640773958;6287730183;308808025;11337291;983036404;9249347;149437900;0;0;0;0;0;0
3;169;1571088479952;1571088483891;3939;4519377586;6285194739;288213672;11870281;982358274;9325047;145501571;45;33;6976;0;104;433
3;170;1571088483913;1571088487856;3943;4531949208;6286525542;278521560;11511246;982730991;9428303;147149912;0;0;0;0;0;0
3;171;1571088487894;1571088491897;4003;4556417348;6284605958;285981935;11362566;982362416;9189465;148830685;0;0;0;0;0;0
3;172;1571088491920;1571088495910;3990;4544407826;6281202549;284535353;11716747;981259358;9121450;148184798;0;0;0;0;0;0
3;173;1571088495932;1571088499949;4017;4563812832;6278827665;293955630;11528336;980553159;9126305;149030278;17;8;784;0;5;46
3;174;1571088499971;1571088504184;4213;4717351980;6280751986;304874323;12152981;981098750;9093607;152216208;0;0;0;0;0;0
3;175;1571088504209;1571088508150;3941;4525871666;6285879264;278046453;11725851;982626513;9224082;148617108;0;0;0;0;0;0
3;176;1571088508193;1571088512153;3960;4526281196;6277735320;278956726;11937825;980305346;9076162;147819402;36;20;6672;0;102;411
4;133;1571089149138;1571089153146;4008;4217997524;6351441260;293397154;11690289;989201443;9571747;148604465;0;0;0;0;0;0
4;134;1571089153169;1571089157226;4057;4237239740;6355388390;296585795;12189663;989844708;9391942;150638914;0;0;0;0;0;0
4;135;1571089157256;1571089161071;3815;4152741656;6353661846;280711075;11419901;989472196;9688491;147541597;15;1;568;0;4;49
4;136;1571089161105;1571089164861;3756;4144825098;6350214683;281830623;11493621;988759246;9695421;148286803;0;0;0;0;0;0
4;137;1571089164895;1571089168630;3735;4140469042;6359317825;276240034;11923998;991170188;9672994;146562916;0;0;0;0;0;0
4;138;1571089168654;1571089172402;3748;4128078898;6348008359;275315216;11289493;987944631;9647708;146925351;0;0;0;0;0;0
4;139;1571089172426;1571089176294;3868;4165285100;6352822802;284997113;11914925;989177680;9527185;147267080;36;38;5968;0;105;640
4;140;1571089176316;1571089180322;4006;4229555760;6354064256;292593289;11513735;989941129;9653294;149617903;0;0;0;0;0;0
4;141;1571089180344;1571089184395;4051;4246997066;6348598579;299091458;11784574;988465663;9567059;149645746;0;0;0;0;0;0
4;142;1571089184419;1571089188247;3828;4170218878;6349864741;283160323;11573852;988805090;9730890;148025943;0;0;0;0;0;0
4;143;1571089188272;1571089192203;3931;4196728974;6346093940;289529730;12438928;987218170;9294226;148811872;480;35;50376;0;1489;2437
4;144;1571089192226;1571089196227;4001;4210057168;6353649163;296416512;11981540;989702094;9404796;150926835;0;0;0;0;0;0
4;145;1571089196249;1571089200093;3844;4184921954;6352066026;284269152;11503072;989294556;9614043;148862272;0;0;0;0;0;0
4;146;1571089200115;1571089203916;3801;4164958644;6356154482;283291362;12159780;990395476;9667823;147683022;0;0;0;0;0;0
4;147;1571089203939;1571089208023;4084;4209938470;6357339211;292860111;11260635;991067748;9718572;149612670;9;15;768;0;3;8
4;148;1571089208045;1571089211774;3729;4080398072;6346975586;268338456;11633610;987593029;9455535;144293440;0;0;0;0;0;0
4;149;1571089211811;1571089215606;3795;4115479244;6357646094;275424048;11172495;990562909;9531316;145772706;0;0;0;0;0;0
4;150;1571089215628;1571089219395;3767;4109508866;6346861578;273771545;11439640;987689655;9671557;145389521;0;0;0;0;0;0
4;151;1571089219421;1571089223304;3883;4164249960;6353352974;285434759;11704681;989503922;9575666;147518354;109;34;8424;0;134;1494
4;152;1571089223327;1571089227104;3777;4127799454;6350268780;282260756;11284283;988443431;9587664;146519689;0;0;0;0;0;0
4;153;1571089227129;1571089231227;4098;4260720044;6346663544;308098210;12439612;987504574;9282470;151272729;0;0;0;0;0;0
4;154;1571089231251;1571089234957;3706;4102205800;6352309723;271630009;11377856;989022889;9496365;146403304;0;0;0;0;0;0
4;155;1571089234998;1571089238844;3846;4168160716;6351008770;287602756;11787703;988652174;9564480;147243452;15;17;904;0;4;24
4;156;1571089238866;1571089242669;3803;4144808892;6366257647;287184680;11463487;993200164;9798234;146918144;0;0;0;0;0;0
4;157;1571089242703;1571089246659;3956;4191470784;6349059469;299768293;11763418;988381633;9506300;148968496;0;0;0;0;0;0
4;158;1571089246681;1571089250471;3790;4134587724;6346785704;284202056;11794553;987653055;9470229;147078616;0;0;0;0;0;0
4;159;1571089250496;1571089254561;4065;4253487788;6357293078;309359162;11847336;990795774;9430767;151167067;43;44;8488;0;141;463
4;160;1571089254606;1571089258406;3800;4136948398;6351288615;275946905;12063677;988919937;9586036;148749710;0;0;0;0;0;0
4;161;1571089258428;1571089262309;3881;4147974318;6349520318;283849137;11425727;988556102;9593871;147861135;0;0;0;0;0;0
4;162;1571089262333;1571089266273;3940;4211033470;6365732791;301020668;11781452;993168850;9672617;150115434;0;0;0;0;0;0
4;163;1571089266307;1571089270224;3917;4197727176;6354797142;284484735;11483983;989668078;9442986;147125884;23;44;2376;0;11;123
4;164;1571089270247;1571089274027;3780;4124070176;6354164257;274090101;11584502;989928227;9605537;147322757;0;0;0;0;0;0
4;165;1571089274051;1571089277998;3947;4175821774;6353093590;293999476;11633428;989635965;9511210;149410982;0;0;0;0;0;0
4;166;1571089278020;1571089281935;3915;4175818416;6345367281;293008525;11581690;987000437;9404741;148525603;0;0;0;0;0;0
4;167;1571089281960;1571089285750;3790;4146379122;6353058441;289443351;12114324;989401132;9560455;147538970;0;0;0;0;0;0
4;168;1571089285774;1571089289832;4058;4262851936;6355911237;321320027;12101503;990461950;9574725;151802322;40;14;6800;0;80;432
4;169;1571089289855;1571089293751;3896;4185100658;6352330003;297665096;12123351;989240688;9461043;148823339;0;0;0;0;0;0
4;170;1571089293781;1571089297658;3877;4182696914;6359411122;297411021;11475340;991169864;9552540;146280102;0;0;0;0;0;0
4;171;1571089297692;1571089301531;3839;4169896218;6361799773;298603298;11730303;992111642;9636280;149292505;5;3;200;0;1;5
4;172;1571089301553;1571089305393;3840;4168117938;6352160630;295807774;11720882;989239718;9572200;148582327;0;0;0;0;0;0
4;173;1571089305415;1571089309464;4049;4267777830;6351744741;317303664;12088529;989120995;9480247;152752337;0;0;0;0;0;0
4;174;1571089309498;1571089313393;3895;4198667854;6351680409;299304602;12294047;989115475;9344413;149951336;7;15;752;0;11;57
4;175;1571089313425;1571089317353;3928;4227242828;6351287967;293475954;11603195;989084301;9363815;150441684;44;14;6416;0;85;482
4;176;1571089317382;1571089321224;3842;4159616212;6349538431;292773445;11702876;988367044;9534900;149033363;0;0;0;0;0;0
4;177;1571089321248;1571089325451;4203;4313617304;6354419856;324047929;11912865;989931315;9322158;154048250;0;0;0;0;0;0
4;178;1571089325474;1571089329501;4027;4254304950;6354327556;310138309;12058514;990069268;9532565;152439508;9;15;776;0;11;22
4;179;1571089329524;1571089333650;4126;4268224736;6351335010;315321779;11606326;989028146;9420097;152534568;0;0;0;0;0;0
4;180;1571089333672;1571089337498;3826;4153776942;6357598735;290313681;11708546;990798096;9647490;148730704;0;0;0;0;0;0
4;181;1571089337520;1571089341304;3784;4141375848;6349124437;283815853;11417713;988318462;9495107;147447359;0;0;0;0;0;0
4;182;1571089341326;1571089345132;3806;4132337280;6353921262;290359732;11680969;989912657;9393965;149687296;11;12;784;0;13;54
