0;33;1571157702023;1571157707936;5913;17315579414;41177378953;218993140;89346869;7429235885;142315766;321662943;629;1467;1087440;-21;5913;845518
0;34;1571157707936;1571157717124;9188;17311018082;41171523058;219409001;87911456;7427861895;142430318;321735994;1051;2722;1621544;5;9188;1320625
0;35;1571157717124;1571157724871;7747;17311314900;41180531555;220156165;87691934;7430171258;142504519;321765282;761;2386;1444984;7;7748;1110486
0;36;1571157724872;1571157740998;16126;17311711436;41173675252;220563471;87742309;7428290437;142345392;321598529;1863;4793;2879936;3;16126;2191562
0;37;1571157740998;1571157747021;6023;17323327196;41172150240;219968059;89573316;7428092981;142402941;321757147;731;1662;987976;-2;6024;860268
0;38;1571157747022;1571157752856;5834;17324239258;41173201059;218698834;89537834;7428072234;142392514;321648412;604;1890;1135712;4;5834;837294
0;39;1571157752856;1571157759282;6426;17312652844;41175598684;218755585;88837684;7428783180;142352805;321678528;612;1902;1173872;-4;6426;923039
0;40;1571157759282;1571157767953;8671;17295528796;41178436254;218649757;87042886;7429526829;142294852;321886961;1071;2768;1499640;-3;8672;1294620
0;41;1571157767953;1571157784522;16569;17287460398;41172058323;219421205;85950398;7427918619;142374616;321803833;1838;3927;2976768;-103;16568;2316202
0;42;1571157784522;1571157790358;5836;17328040660;41173753090;220171232;89275572;7428354656;142329058;321973267;609;2058;1089688;110;5837;690376
0;43;1571157790358;1571157796461;6103;17322131748;41180471793;218561762;89715351;7429943398;142342006;321878025;849;1741;1012960;-10;6103;924482
0;44;1571157796462;1571157802901;6439;17334147840;41181488421;221298346;89569910;7430348662;142419238;321969479;765;1587;1149712;3;6439;922563
0;45;1571157802901;1571157811231;8330;17310623152;41177523437;220381272;87776192;7429333212;142384955;321932778;899;2586;1513104;-3;8330;1190110
0;46;1571157811231;1571157820050;8819;17311651284;41176701050;219953456;87713198;7429037876;142352279;321907223;857;2834;1611464;8;8819;1263542
0;47;1571157820050;1571157834356;14306;17319422718;41172638951;221161502;88535846;7427938861;142304032;321827583;1767;3634;2526048;-14;14306;1945898
0;48;1571157834356;1571157840090;5734;17330963288;41179418989;218253667;89776935;7429946539;142347030;321838559;681;1619;994632;23;5735;821284
0;49;1571157840090;1571157845908;5818;17322073202;41171102065;218922625;89797046;7427692908;142347795;321850697;582;1768;1090440;-6;5818;837401
0;50;1571157845908;1571157853440;7532;17318149598;41177095715;219804254;88481432;7429220062;142307076;321777319;692;2262;1327096;-19;7531;1079871
0;51;1571157853440;1571157863681;10241;17306111314;41175288461;219048596;87593270;7428492631;142359815;321939146;1300;3033;1785432;24;10241;1536393
0;52;1571157863681;1571157878543;14862;17308078080;41164505643;220836356;88234754;7425210335;142277000;321833415;1696;4279;2644392;-11;14863;1989879
0;53;1571157878544;1571157885506;6962;17332524904;41167028545;218560528;89530172;7425557171;142456681;321642129;670;2204;1232768;3;6962;997940
0;54;1571157885506;1571157891254;5748;17314325712;41161363640;220312084;88532161;7423920941;142339244;321794754;826;1644;935912;-6;5748;881886
0;55;1571157891254;1571157899471;8217;17298662832;41160281594;219227636;86513287;7423212733;142325205;321620938;924;2032;1404232;4;8218;1177283
0;56;1571157899471;1571157908489;9018;17303346074;41165279168;220058462;86351785;7424785595;142480459;321599832;968;2760;1643344;-5;9017;1294994
0;57;1571157908489;1571157923969;15480;17288037682;41157832489;218196472;86432557;7422843666;142360257;321528156;1975;4229;2758000;-64;15481;2189537
0;58;1571157923969;1571157929880;5911;17319599670;41165785551;218481624;88512075;7424919917;142326752;321587785;678;1553;983072;61;5911;815042
0;59;1571157929881;1571157935606;5725;17317571876;41156776073;219149155;88249408;7422480506;142270005;321549586;630;1811;1039264;10;5725;819793
0;60;1571157935606;1571157942340;6734;17311052976;41157928171;219022524;87923640;7423053650;142339801;321671895;651;1974;1238184;-11;6734;966208
0;61;1571157942340;1571157950212;7872;17293381720;41161190330;218831721;86262124;7423719329;142319903;321663061;752;2418;1419072;20;7872;1127601
0;62;1571157950212;1571157959696;9484;17296161122;41157232487;219140949;86103578;7422660463;142328774;321614412;1327;2697;1685072;-19;9484;1484129
0;63;1571157959696;1571157974013;14317;17316895312;41161410023;219504150;88597111;7423811453;142334331;321686344;1713;4262;2563768;13;14318;1806260
0;64;1571157974014;1571157979759;5745;17320944184;41159976267;219653810;88131150;7423445233;142339722;321533096;565;1589;1059824;-20;5745;824285
0;65;1571157979759;1571157985568;5809;17311737132;41158864604;218732078;88186212;7423136445;142261727;321576790;826;1780;1004664;16;5809;863667
0;66;1571157985568;1571157994107;8539;17288758922;41154644759;219266690;85817858;7422071938;142317268;321640981;946;2309;1494152;14;8539;1224953
0;67;1571157994107;1571158006333;12226;17264590082;41155569488;218949638;83827239;7422074878;142337715;321590734;1726;2917;1794232;-22;12226;1820154
0;68;1571158006333;1571158019432;13099;17312547432;41162590280;220000816;88359303;7424226773;142431454;321441193;1354;3456;2323712;8;13099;1708577
0;69;1571158019432;1571158025148;5716;17309646850;41155407494;217887498;88267557;7422141113;142319400;321656682;571;1733;1059864;5;5716;821129
0;70;1571158025148;1571158031173;6025;17309503186;41155713001;218429805;88293789;7422262917;142333741;321515217;831;1732;1037528;-21;6026;899413
0;71;1571158031173;1571158040170;8997;17298297832;41163192244;217818426;86737493;7424263140;142372766;321586569;1045;2362;1579480;17;8996;1299506
0;72;1571158040170;1571158048725;8555;17284112910;41155712513;216830683;85378193;7422452546;142318383;321604951;976;2544;1586600;-16;8556;1229495
0;73;1571158048725;1571158064228;15503;17285052858;41153277457;218959827;86094191;7421160738;142142620;321606428;1952;4252;2733512;11;15503;2036699
0;74;1571158064228;1571158070180;5952;17329020904;41163980779;220383256;88520660;7424366801;142355956;321503448;744;1585;1018800;2;5952;854644
0;75;1571158070181;1571158075914;5733;17314871460;41162791936;218085908;88506885;7424190048;142314004;321553896;585;1723;1066824;-9;5733;823725
0;76;1571158075914;1571158082164;6250;17303695306;41155279220;217715154;87489262;7422173761;142294739;321363558;614;1958;1150720;26;6250;897145
0;77;1571158082164;1571158090344;8180;17281866846;41157113438;218873363;85569102;7422507935;142231682;321373799;800;2307;1526864;-30;8180;1172304
0;78;1571158090344;1571158099672;9328;17294584468;41166997325;219590974;85885272;7425400654;142371250;321662773;1235;2880;1712088;15;9329;1418657
0;79;1571158099672;1571158113170;13498;17317567496;41159941505;218704968;88408693;7423327500;142263821;321675474;1571;3819;2407424;10;13497;1753896
0;80;1571158113170;1571158118900;5730;17311462652;41162845255;218674445;88108149;7424107585;142273135;321635275;570;1620;1061824;-26;5730;821323
0;81;1571158118900;1571158124725;5825;17304308360;41150137199;218954096;88056018;7420496404;142176237;321570586;839;1733;1011584;16;5826;877620
0;82;1571158124725;1571158134042;9317;17292190506;41153382658;217939486;86638704;7421413356;142305400;321613040;1012;2396;1657408;12;9316;1331665
1;35;1571158544440;1571158552619;8179;17790910154;42204417745;238756806;90533569;7369743559;142182813;324121423;1030;2422;1428328;18;8179;1281711
1;36;1571158552619;1571158562600;9981;17765054138;42197318686;238326626;88647951;7367795188;142123726;324135800;1159;2575;1727096;-7;9981;1426158
1;37;1571158562601;1571158576629;14028;17799353772;42206990926;237880673;91491223;7369309168;142025721;323969912;1413;4263;2578600;4;14029;1779903
1;38;1571158576629;1571158582485;5856;17799315228;42197720201;236624521;92516518;7367807578;142064587;323668440;901;1420;969336;7;5856;897452
1;39;1571158582485;1571158588560;6075;17798604646;42199992592;237720448;92061168;7368486809;142007759;323756797;736;1629;1048256;0;6075;869907
1;40;1571158588560;1571158596371;7811;17778440148;42203001892;236685381;90747372;7369267589;141970542;323728796;770;2477;1447576;-2;7811;1121760
1;41;1571158596371;1571158604070;7699;17785132934;42196356759;238777611;90406501;7367592041;142092018;323804191;736;2297;1410720;0;7699;1104704
1;42;1571158604070;1571158612571;8501;17776919850;42198238362;237283074;89770130;7368096579;142079871;323777463;1068;2557;1536368;-1;8501;1269721
1;43;1571158612571;1571158625874;13303;17799321068;42204840889;239045487;91509691;7369639791;142053900;323629823;1526;3422;2469720;-14;13303;1772844
1;44;1571158625874;1571158631870;5996;17804278352;42206018359;236707547;92197027;7370093128;142063544;323923258;591;1853;1068008;17;5996;859484
1;45;1571158631870;1571158637743;5873;17800114432;42202178193;239045791;91999669;7369126696;142106460;323733321;578;1775;1113424;-2;5873;840490
1;46;1571158637743;1571158646527;8784;17785047962;42201124869;239036076;90520085;7368750388;142039785;323990129;1112;2418;1517672;-10;8784;1305846
1;47;1571158646527;1571158655931;9404;17776446372;42197281554;238346828;89847023;7367718867;141996024;323876056;1100;2338;1656616;-12;9404;1349651
1;48;1571158655931;1571158669267;13336;17795088674;42203697545;238646625;91459113;7369613139;142006575;323824046;1352;4118;2443976;27;13336;1717225
1;49;1571158669267;1571158675559;6292;17793151400;42195526729;237328694;92302030;7367407944;141989652;323841074;926;1608;1036888;-18;6292;961701
1;50;1571158675559;1571158681870;6311;17796609702;42201820733;236735697;92292423;7369026704;141925833;323869475;724;1462;1088904;12;6311;904708
1;51;1571158681870;1571158690038;8168;17776697784;42199777300;238408521;90000405;7368228362;142079656;323791795;847;2624;1488224;-15;8168;1172056
1;52;1571158690038;1571158697349;7311;17789903484;42189098216;238090535;91431234;7364982559;142018460;323404913;705;2067;1326048;-1;7311;1049662
1;53;1571158697349;1571158713503;16154;17796751906;42193286673;238063997;90487785;7365728572;142226215;323273806;1909;4808;2946720;-1;16154;2266777
1;54;1571158713503;1571158719661;6158;17796403988;42187895010;239004343;91457359;7364166963;142063991;323235357;716;1674;1046104;8;6158;883010
1;55;1571158719661;1571158725523;5862;17780712784;42185052194;237865364;90764222;7363144058;142020685;323336695;617;1814;1120904;-8;5862;841127
1;56;1571158725523;1571158731619;6096;17786958664;42190423055;237768954;91153294;7364786563;142159071;323381138;592;1833;1148288;16;6096;875478
1;57;1571158731619;1571158739823;8204;17757952844;42182764847;237328399;88863173;7362799965;142037438;323322382;1062;2366;1435536;-1;8204;1226689
1;58;1571158739823;1571158749626;9803;17771453464;42190436983;236228192;89327781;7364821455;142076965;323237483;1139;2430;1684280;-19;9803;1406963
1;59;1571158749626;1571158762806;13180;17774868112;42181761726;238149150;90338005;7362456982;142000779;323267344;1355;4045;2442824;28;13180;1723383
1;60;1571158762806;1571158768704;5898;17784920942;42182810121;239436991;90975236;7362997370;142103163;323648909;763;1522;1013392;-10;5898;884005
1;61;1571158768704;1571158775311;6607;17785305360;42186183919;237550855;91012465;7363683612;142017245;323592670;804;1695;1148808;2;6607;946732
1;62;1571158775311;1571158784184;8873;17760209128;42182125532;237175703;88498510;7362602139;142076633;323590886;924;2773;1594880;4;8873;1272780
1;63;1571158784184;1571158791577;7393;17759392258;42186361642;238352908;88628399;7363763627;142084405;323696383;723;2393;1360264;-19;7393;1060597
1;64;1571158791577;1571158806649;15072;17764911204;42184918790;238279080;89144605;7363402909;141979175;323641895;1755;4122;2736144;3;15072;2136124
1;65;1571158806649;1571158812519;5870;17777855418;42183667110;238807509;90920314;7363049023;142038351;323565173;714;1488;1003048;22;5870;840226
1;66;1571158812519;1571158818410;5891;17766260390;42179182200;235803260;90671737;7361942212;142033975;323614143;604;1661;1066472;-28;5891;843590
1;67;1571158818410;1571158825068;6658;17775081126;42180741513;237738301;90427597;7362090721;141953521;323589719;649;2076;1247448;23;6658;957565
1;68;1571158825068;1571158834450;9382;17746668358;42187373147;236509628;87633753;7364146611;142022849;323613445;1156;2635;1637664;-12;9382;1431586
1;69;1571158834450;1571158852955;18505;17755844020;42180220464;236503483;88554225;7362075454;142000971;323442093;2471;4502;2907504;-55;18505;2650848
1;70;1571158852955;1571158858831;5876;17777819356;42182805435;238092539;90824927;7362597306;142082244;323653224;579;1815;1046672;54;5876;798679
1;71;1571158858832;1571158864691;5859;17782557348;42188236503;237324516;91105847;7364213647;142030422;323455666;565;1705;1052984;11;5860;840114
1;72;1571158864691;1571158870548;5857;17775841056;42180832155;236996778;90586368;7362421745;141966022;323324056;582;1748;1105320;-6;5857;840426
1;73;1571158870548;1571158879016;8468;17753687600;42176598089;236569379;88828718;7360866659;141869173;323522963;1113;2487;1470336;-4;8468;1261464
1;74;1571158879016;1571158888962;9946;17748036962;42188676023;235809530;87804247;7364306136;142072809;323536635;1117;2506;1762912;3;9947;1431511
1;75;1571158888963;1571158902080;13117;17765905172;42187544800;237774669;89414806;7364148652;142059522;323545399;1365;3829;2389872;14;13117;1776641
1;76;1571158902080;1571158908130;6050;17765324384;42180101043;236564605;89884168;7362149753;141975405;323335891;904;1700;1037688;-13;6050;922517
1;77;1571158908130;1571158914301;6171;17770274514;42181869521;237161126;90650407;7362486615;141848083;323668074;719;1279;1063512;-15;6171;883113
1;78;1571158914301;1571158922248;7947;17758430702;42191635367;235674054;89143702;7365369904;142071724;323552339;867;2549;1428232;29;7947;1139944
1;79;1571158922248;1571158930457;8209;17749865758;42184601214;238113171;88033335;7363300045;141984354;323694154;780;2521;1480416;-8;8209;1178832
1;80;1571158930457;1571158946101;15644;17769428444;42187488511;236994079;89026782;7364079997;142057031;323690845;1851;4355;2856600;-22;15644;2237419
1;81;1571158946101;1571158951934;5833;17758296966;42174712344;236095408;90753315;7360441289;141863313;323662319;707;1388;1005528;13;5833;830067
1;82;1571158951934;1571158957788;5854;17779276436;42177983144;237446900;90643383;7361370150;141933864;323625926;626;1811;1066080;14;5854;836987
1;83;1571158957788;1571158964266;6478;17766280392;42176800086;238873797;90483069;7361241390;141947435;323798592;631;1852;1204344;-23;6478;929277
1;84;1571158964266;1571158973100;8834;17740540884;42179583051;235668740;87876241;7361844430;141918176;323809770;1105;2622;1558248;16;8834;1312690
2;34;1571159378427;1571159384862;6435;18139905488;42815882252;219581075;92893666;7444661519;141969865;325343878;855;1979;1122616;9;6435;968840
2;35;1571159384862;1571159394045;9183;18119798660;42825184011;218672504;90816649;7447046412;142023091;325403643;991;2407;1651848;2;9182;1315301
2;36;1571159394045;1571159402310;8265;18105969394;42818204866;217539621;90342057;7445155864;141865345;325418225;915;2573;1491448;13;8265;1186534
2;37;1571159402310;1571159416568;14258;18128520992;42816576113;217989600;92307286;7444930455;141928679;325307896;1662;4186;2474296;-14;14259;1915686
2;38;1571159416568;1571159422543;5975;18138817350;42819903365;221994546;92551421;7445327862;141910633;325237115;697;1479;1038960;7;5975;856448
2;39;1571159422543;1571159428551;6008;18138173928;42819745556;220955127;92972109;7445634479;141851926;325288968;650;1836;1105592;-10;6007;865168
2;40;1571159428551;1571159436286;7735;18117544128;42822711924;221839144;90677067;7446410598;141823024;325071966;718;2291;1399720;-12;7736;1109820
2;41;1571159436286;1571159444587;8301;18119858228;42816254436;222214978;90910530;7444785893;141921196;325254864;784;2525;1525304;19;8301;1197626
2;42;1571159444587;1571159461020;16433;18131002846;42817774287;220979274;91642053;7445169856;141891418;325339349;2123;4623;2892904;-19;16432;2327195
2;43;1571159461020;1571159466996;5976;18138599080;42824576061;220612551;92917226;7446785107;141900193;325323010;639;1945;1126080;12;5977;858130
2;44;1571159466997;1571159472967;5970;18139573338;42825564098;219111523;93102789;7447185053;141846145;325252026;564;1777;1079984;12;5971;855297
2;45;1571159472967;1571159479591;6624;18128716194;42821871154;219988968;91925803;7446254432;141876987;325164554;936;1761;1099720;-22;6623;1019609
2;46;1571159479591;1571159489082;9491;18111944152;42820878973;220605394;89968440;7445903910;141911107;325379670;1025;2496;1696672;-1;9491;1364369
2;47;1571159489082;1571159504928;15846;18121716954;42816893250;220232088;91627980;7444831445;141795619;325254852;1718;4734;2898688;-77;15847;2105607
2;48;1571159504928;1571159511193;6265;18140220994;42823551839;220797705;93161261;7446799672;141810681;325144238;989;1899;1021776;90;6264;834084
2;49;1571159511193;1571159517417;6224;18128900592;42815215153;220846324;92785881;7444537529;141826879;325182085;740;1476;1068680;-4;6225;896274
2;50;1571159517417;1571159524375;6958;18124845442;42821479622;218978664;92557792;7446147244;141747903;325210087;713;2144;1281992;-9;6958;999589
2;51;1571159524375;1571159531880;7505;18125962050;42819496996;221405370;91173624;7445368142;141828008;324985928;719;2533;1365048;17;7504;1079996
2;52;1571159531880;1571159540262;8382;18110414656;42804919369;220076060;90310794;7440840331;141860249;324515267;1125;2454;1503664;-20;8383;1256537
2;53;1571159540262;1571159555079;14817;18118244344;42810503721;218756521;91143636;7442339291;141941215;324252417;1672;4201;2714936;29;14817;2034878
2;54;1571159555079;1571159561724;6645;18123465596;42806600666;219788547;92068218;7441273034;141879959;324490375;668;1953;1201280;-27;6645;957016
2;55;1571159561724;1571159567772;6048;18128011744;42802994755;220805070;92162488;7440006723;141855013;324867070;577;1972;1094608;-1;6048;865788
2;56;1571159567772;1571159575096;7324;18114545288;42808658598;219915992;90279503;7441715379;141945765;324921819;1003;2212;1249272;19;7324;1111200
2;57;1571159575097;1571159583947;8850;18087033924;42801230531;220204197;88183412;7439761449;141831999;324758864;1007;2379;1594488;-15;8851;1267027
2;58;1571159583947;1571159598777;14830;18103985400;42808646612;219428119;89630380;7441730638;141880783;324865591;1546;4242;2703336;3;14829;1980481
2;59;1571159598777;1571159605134;6357;18116868732;42799922282;219638600;91514161;7439351090;141793682;324883435;924;1665;1032936;3;6358;959935
2;60;1571159605134;1571159611075;5941;18106082252;42801045524;218597893;91670952;7439922916;141785193;324798885;687;1447;1035688;17;5941;857695
2;61;1571159611075;1571159618957;7882;18105476498;42804457586;218978461;90232106;7440616601;141849870;324900695;817;2487;1429024;-16;7882;1134770
2;62;1571159618958;1571159626762;7804;18106837218;42800471058;219751725;90238937;7439554850;141838256;325017146;748;2346;1422384;-12;7805;1120325
2;63;1571159626763;1571159635214;8451;18091320922;42804610500;220190921;88263377;7440692221;141908984;324792676;1093;2489;1504032;2;8452;1273941
2;64;1571159635214;1571159649001;13787;18095479732;42803149339;218417538;90444384;7440326463;141746055;324751499;1570;3664;2476616;156;13786;1924671
2;65;1571159649001;1571159654966;5965;18111312702;42801920075;218767558;91483828;7439980692;141796224;324747684;904;1360;772184;-143;5965;896983
2;66;1571159654966;1571159663456;8490;18089327146;42799572191;218876510;88939240;7439241599;141843844;323633175;872;2369;1432240;5;8491;1217467
2;67;1571159663456;1571159671441;7985;18092232108;42798916006;219991725;89636497;7438985581;141756630;322734512;797;2451;1492880;3;7985;1145227
2;68;1571159671441;1571159680672;9231;18095393008;42805987566;219932738;88960168;7441149709;141867026;322709148;1121;2821;1639352;1;9231;1365154
2;69;1571159680673;1571159694199;13526;18097393208;42798722939;218484089;90868672;7439040509;141738695;322805721;1551;3543;2423664;-10;13526;1877474
2;70;1571159694199;1571159700161;5962;18108752592;42798988862;219879745;91400820;7439148160;141773731;322794334;664;1848;1086808;8;5963;853499
2;71;1571159700161;1571159706655;6494;18114256062;42806650900;219134542;91624650;7441172006;141766699;322946693;608;1912;1153968;0;6494;932575
2;72;1571159706655;1571159714909;8254;18084930210;42799203472;218817386;88789597;7439371518;141869065;322846191;1053;2455;1423360;-7;8254;1244628
2;73;1571159714910;1571159723958;9048;18070234726;42794953684;219349488;88485520;7437808866;141667995;322735313;1022;2481;1630384;2;9048;1300332
2;74;1571159723958;1571159738242;14284;18080862212;42807109730;220303389;87950851;7441268603;141840181;322895090;1525;3789;2638144;-35;14285;1888742
2;75;1571159738242;1571159744351;6109;18117043786;42805979033;220801262;91304488;7441110227;141900727;322640296;938;1848;1033616;30;6109;917439
2;76;1571159744351;1571159750303;5952;18096408292;42798393436;218810330;90895500;7439071757;141749981;322744059;699;1398;1012184;5;5952;856345
2;77;1571159750304;1571159758057;7753;18093396166;42800210292;219055129;90331901;7439400484;141748341;322682480;861;2310;1415064;3;7754;1112376
2;78;1571159758057;1571159766176;8119;18101337836;42810167777;219736461;89535154;7442315778;141863238;322725558;774;2467;1458936;-6;8118;1164244
2;79;1571159766176;1571159774708;8532;18101170520;42803045548;219732216;89858922;7440221561;141806664;322971448;1148;2446;1484176;14;8532;1299863
2;80;1571159774708;1571159788347;13639;18103807426;42805977855;219705992;90651790;7441011269;141811783;322746572;1510;3904;2489976;-2;13640;1854430
2;81;1571159788347;1571159794292;5945;18106921168;42793266602;221367019;91528595;7437395067;141671188;322605110;657;1724;1074640;-17;5945;854467
2;82;1571159794292;1571159801047;6755;18103035086;42796459465;221292116;91061652;7438302513;141771156;322798869;647;2012;1239664;-7;6755;970506
2;83;1571159801047;1571159809205;8158;18083149302;42795326968;220846275;88441322;7438183817;141746486;322767851;1123;2565;1402320;-1;8157;1220645
3;33;1571160218505;1571160224841;6336;17913554096;42137570020;231077690;93392269;7376291282;142168814;325689462;889;1812;1103768;-15;6336;953231
3;34;1571160224842;1571160234140;9298;17897798652;42131430700;231174503;91363308;7374813582;142364065;325597558;937;2699;1682712;23;9298;1336293
3;35;1571160234140;1571160243283;9143;17900573528;42140613352;232161312;90365155;7377172038;142351836;325836669;1042;2606;1612896;-17;9143;1314810
3;36;1571160243283;1571160255821;12538;17919751212;42133728581;232551286;92713340;7375297944;142210729;325789405;1435;3898;2261128;140;12539;1748889
3;37;1571160255822;1571160261842;6020;17926488236;42136568059;231532163;93417596;7375830171;142174601;325796626;742;1404;1019504;-130;6020;878814
3;38;1571160261842;1571160268985;7143;17921184494;42133910293;231536122;91974535;7375047327;142194878;326131505;839;1982;1237968;-7;7143;1026232
3;39;1571160268985;1571160278059;9074;17915051764;42136001553;230194461;91684027;7375668380;142205424;326238984;862;2811;1644000;2;9075;1300874
3;40;1571160278059;1571160285344;7285;17924837268;42139242656;231951295;91851044;7376529250;142181491;326296667;707;2298;1360944;-3;7284;1043075
3;41;1571160285344;1571160300394;15050;17922930654;42132579874;231105403;92045899;7374839426;142227153;326333186;1876;4370;2692392;14;15050;2134277
3;42;1571160300394;1571160306383;5989;17922566530;42134311318;230311962;92202417;7375296345;142182518;326380957;669;1708;1075392;3;5990;859610
3;43;1571160306383;1571160312370;5987;17932185448;42140882827;230770303;93435584;7376834444;142179465;326471396;567;1673;1077168;-23;5986;858804
3;44;1571160312370;1571160319781;7411;17925784078;42142182064;231365176;91927916;7377325530;142194496;326260422;957;2223;1303968;9;7411;1105165
3;45;1571160319781;1571160328363;8582;17897881726;42138177705;230207622;89522718;7376300904;142289502;326151371;900;2367;1548144;-4;8582;1228528
3;46;1571160328363;1571160343816;15453;17896040958;42137098875;229749894;89898859;7375924925;142211008;326265011;1655;4197;2791720;-31;15453;2112316
3;47;1571160343816;1571160350001;6185;17929244716;42133465299;230439787;93280466;7374962484;142115591;326273264;875;1872;1053448;31;6185;922688
3;48;1571160350001;1571160355906;5905;17936814816;42139988269;230506560;93180971;7376887890;142188663;326307365;658;1474;1047624;14;5906;847263
3;49;1571160355907;1571160363596;7689;17914110940;42131651585;229484514;92103456;7374624040;142149540;326344492;866;2188;1350232;-2;7690;1100013
3;50;1571160363597;1571160372283;8686;17901797738;42137913897;229373830;90447746;7376238640;142126471;326326476;833;2596;1556408;-1;8686;1246555
3;51;1571160372283;1571160379884;7601;17894926248;42135947951;229351573;91066491;7375462160;142179605;326335122;733;2723;1423672;3;7601;1092063
3;52;1571160379884;1571160393305;13421;17895544850;42125256013;229506196;92266423;7372213999;142173671;325856706;1775;3594;2425392;-1;13421;1976834
3;53;1571160393305;1571160400050;6745;17913577456;42127264783;229537003;93223870;7372501756;142251187;325572615;745;1919;1198064;-8;6745;966869
3;54;1571160400050;1571160406343;6293;17899107688;42120556906;228818644;92469489;7370904553;142185689;325411208;590;1956;1128232;-14;6293;902259
3;55;1571160406343;1571160414387;8044;17847680648;42119421067;228037424;89560060;7370191919;142241397;324513796;1037;2565;1419016;27;8045;1215623
3;56;1571160414388;1571160423810;9422;17847063798;42124503311;227645368;88985280;7371768249;142297544;324482817;1047;2463;1708016;-23;9423;1356998
3;57;1571160423810;1571160437720;13910;17849982192;42117007320;228723911;90224708;7369797306;142208137;324459282;1454;4032;2501888;8;13910;1926433
3;58;1571160437721;1571160443627;5906;17890278776;42124685798;228392079;92319752;7371829507;142263310;324557686;833;1728;1038864;-2;5906;875256
3;59;1571160443627;1571160449709;6082;17867900042;42116154807;228948927;91972618;7369504735;142091128;324405564;639;1559;1085144;2;6082;868181
3;60;1571160449709;1571160458386;8677;17849536162;42117190682;227408482;89541484;7370035718;142233334;324345705;999;2374;1530760;-6;8677;1245899
3;61;1571160458386;1571160466504;8118;17857305406;42120440263;229201686;89915027;7370694474;142230822;324427942;783;2680;1471048;17;8118;1166225
3;62;1571160466504;1571160482779;16275;17854462932;42116508149;230543493;89456500;7369648070;142238137;324495850;2025;4436;2935176;-98;16276;2207971
3;63;1571160482779;1571160488669;5890;17874420840;42120750411;228013997;92124236;7370816339;142225344;324394462;750;1651;1011088;82;5890;769634
3;64;1571160488670;1571160494543;5873;17861300696;42119152675;227551585;91198630;7370399524;142149834;324429889;622;1841;1096960;18;5874;842148
3;65;1571160494543;1571160502326;7783;17880225508;42118155551;230531299;91889927;7370127690;142153505;324550889;1079;1666;1042160;4;7783;1314485
3;66;1571160502327;1571160514793;12466;17847204396;42113997995;229737046;88378313;7369083691;142272694;324319585;1672;2441;1765616;-18;12466;1806139
3;67;1571160514793;1571160529822;15029;17856841126;42114763503;228521125;90922656;7369033447;142102874;324316434;1619;4600;2794984;-5;15029;1951904
3;68;1571160529822;1571160535753;5931;17873353872;42121858947;227062210;92004458;7371213020;142301458;324219703;893;1481;960224;11;5931;897571
3;69;1571160535753;1571160542392;6639;17871525368;42114703239;228766062;91999781;7369135382;142211326;324412146;848;1648;1096544;-8;6639;951522
3;70;1571160542392;1571160550585;8193;17853700666;42114921751;228211365;90475160;7369234339;142164366;324384056;824;2675;1510040;9;8193;1175384
3;71;1571160550585;1571160558281;7696;17864462180;42123811444;230847147;89538639;7371457250;142157110;325146865;746;2243;1415544;-10;7696;1102532
3;72;1571160558281;1571160566498;8217;17890143434;42115336705;234256500;89753417;7369485249;142198470;326207660;1096;2586;1492192;5;8217;1283665
3;73;1571160566498;1571160580411;13913;17897001200;42111005652;232713846;91788853;7367926358;141969159;325968362;1594;3845;2513288;4;13914;1896955
3;74;1571160580411;1571160586304;5893;17902624828;42122938213;232857214;91410537;7371316177;142216368;326078803;607;1759;1091416;1;5893;844896
3;75;1571160586305;1571160592291;5986;17904176808;42121857254;232706643;91483978;7371179290;142169975;326076824;584;1754;1114560;-8;5986;859488
3;76;1571160592291;1571160601354;9063;17876411112;42114576235;233097441;89246891;7369221217;142173335;325966772;1166;2721;1563752;9;9063;1355892
3;77;1571160601354;1571160610395;9041;17866746934;42116061098;231915284;88593296;7369474322;142036564;326007198;1083;2513;1576136;5;9042;1295844
3;78;1571160610395;1571160623957;13562;17897704482;42126201777;233765183;90507826;7372420144;142219845;325941205;1373;3911;2503352;-15;13562;1830696
3;79;1571160623958;1571160630179;6221;17906082838;42118845867;232054957;92142026;7370284293;142077691;325958529;919;1574;1007864;12;6221;943039
3;80;1571160630179;1571160636586;6407;17904038108;42121843150;231423962;91732251;7371098062;142228852;326005639;755;1600;1072824;-19;6408;919947
3;81;1571160636587;1571160644581;7994;17867533874;42109027825;232185994;89229971;7367445196;142010879;325879020;801;2558;1466968;0;7994;1145798
3;82;1571160644581;1571160652334;7753;17881130562;42112225450;231578883;89776416;7368351260;142084730;325963589;756;2172;1443712;12;7754;1114326
4;33;1571161060636;1571161066625;5989;18216006382;42652833137;223718540;93468681;7366983036;142015543;324375708;584;1822;1106816;-8;5990;859180
4;34;1571161066625;1571161073667;7042;18193148330;42646821415;222369752;92093817;7365551612;142055137;324113617;928;2174;1243488;12;7041;1042104
4;35;1571161073667;1571161082889;9222;18183499190;42655998733;224025983;89708150;7367903954;142170534;324337768;1051;2273;1625912;7;9223;1320185
4;36;1571161082889;1571161098108;15219;18175384948;42649045515;221987874;90135350;7366003709;142012578;324484688;1512;4225;2756312;-70;15219;2066095
4;37;1571161098108;1571161104080;5972;18204931844;42647439632;221817381;93300630;7365790953;142058275;324449907;913;1642;988144;67;5972;875001
4;38;1571161104080;1571161110080;6000;18204542316;42648699488;223864498;93131336;7365830584;142075747;324351184;730;1569;1018384;-26;6000;861475
4;39;1571161110080;1571161118138;8058;18185310320;42650741077;223149239;91096005;7366423960;142093313;324372701;769;2414;1447280;0;8058;1159163
4;40;1571161118138;1571161125588;7450;18184343216;42653859307;222678558;90496888;7367249355;142027119;324315388;712;2460;1354408;24;7450;1068417
4;41;1571161125588;1571161134940;9352;18176641278;42647338811;222644724;90494243;7365613040;142104307;324331916;1125;2999;1689376;-15;9352;1385073
4;42;1571161134940;1571161148177;13237;18200855962;42649051666;224176450;92568085;7366059512;142054282;324500121;1523;3325;2387600;-3;13237;1819260
4;43;1571161148177;1571161154163;5986;18209689984;42655748309;223354065;93347108;7367637017;142048253;324644117;580;1748;1062176;-4;5986;857960
4;44;1571161154163;1571161160740;6577;18211767710;42656839755;223050355;93527071;7368055093;142036246;324542265;624;2004;1198528;16;6577;944751
4;45;1571161160741;1571161168890;8149;18184714494;42653008577;222059428;90705090;7367095015;142131966;324337512;1061;2565;1388328;9;8150;1208559
4;46;1571161168890;1571161178566;9676;18175608620;42651991787;222104030;89866032;7366733760;142034029;324260064;1150;2617;1724344;2;9676;1388531
4;47;1571161178566;1571161192147;13581;18188458372;42648024431;222777974;91343307;7365669650;141989077;324298547;1347;3747;2478640;-14;13581;1828792
4;48;1571161192147;1571161198708;6561;18206116780;42654702269;222549089;93098690;7367639779;142027533;324389673;1060;1537;1067280;-13;6560;1028736
4;49;1571161198708;1571161204794;6086;18214538206;42646380550;224388195;93437745;7365380073;142048744;324441018;706;1682;1036776;-1;6086;876946
4;50;1571161204794;1571161213225;8431;18190802840;42652624658;223545390;90808965;7366992588;141972163;324535166;820;2656;1527904;12;8432;1207645
4;51;1571161213225;1571161221430;8205;18180209080;42650636709;223256211;89988190;7366201509;142041975;324398100;790;2530;1519408;10;8204;1178716
4;52;1571161221430;1571161236317;14887;18185343754;42639827919;223157497;91205215;7362906421;142055873;324178593;1790;4154;2736864;-30;14887;2046016
4;53;1571161236317;1571161242687;6370;18200762668;42642359074;222863158;92291209;7363280748;142169756;323671135;741;1749;1060408;11;6370;910005
4;54;1571161242687;1571161249046;6359;18188969372;42635837722;221184737;91891922;7361495480;142068202;323777630;624;2027;1147920;16;6360;912231
4;55;1571161249046;1571161255023;5977;18164148496;42638260111;221348028;91765189;7361355155;142037533;323818691;577;1910;1106872;0;5977;856384
4;56;1571161255023;1571161263798;8775;17944813718;42656504563;220184210;88504221;7364899939;142095780;325370446;1084;2514;1513000;-19;8775;1308081
4;57;1571161263798;1571161273367;9569;17946635506;42648528833;219606550;89022045;7362864350;142035513;325368815;1139;2603;1670184;13;9568;1374267
4;58;1571161273367;1571161286414;13047;17968995990;42656400111;219606576;91076186;7364920011;142031805;325343042;1297;3631;2366704;4;13048;1723721
4;59;1571161286414;1571161292915;6501;17966759562;42647425883;219983443;91544864;7362504340;141915715;325403093;975;1565;1051544;0;6501;1004215
4;60;1571161292916;1571161300305;7389;17957672814;42648452502;220634714;90279605;7363074499;142059669;325500732;876;2109;1267744;-12;7390;1059069
4;61;1571161300305;1571161307342;7037;17942316680;42651755815;220757263;89151496;7363746812;142005036;325521587;705;2190;1315208;-1;7036;1010877
4;62;1571161307342;1571161315517;8175;17943072522;42647796180;219440441;89546129;7362686446;141954970;325561611;793;2506;1502640;8;8175;1172085
4;63;1571161315517;1571161330124;14607;17948259902;42651963341;220515319;90041862;7363833419;142009540;325453236;1821;4138;2652528;8;14608;2135320
4;64;1571161330125;1571161336027;5902;17959666590;42650493422;220891482;90690195;7363464075;141854935;325454716;682;1607;1004072;-10;5903;849045
4;65;1571161336028;1571161342274;6246;17968578576;42649368392;221938794;91696547;7363147702;141974557;325594262;613;1747;1157520;-5;6247;895995
4;66;1571161342274;1571161351583;9309;17944431782;42645203822;221943829;88867201;7362097266;142000863;325492225;1212;2442;1386760;2;9309;1492918
4;67;1571161351583;1571161362452;10869;17924873184;42646123369;220700908;87176199;7362114705;142010131;325519989;1250;2542;1637816;21;10869;1565021
4;68;1571161362453;1571161377115;14662;17962074714;42653038816;220631098;90111333;7364236809;142069561;325461424;1560;4403;2624024;-6;14662;1964644
4;69;1571161377115;1571161383372;6257;17965252696;42645836243;220990786;91784993;7362146356;141950074;325352128;939;1715;1024808;-6;6258;959928
4;70;1571161383372;1571161389914;6542;17971401632;42646086363;221956800;91616187;7362253380;141969398;325222558;781;1644;1161544;-13;6541;936289
4;71;1571161389914;1571161398063;8149;17948459338;42653713856;222013272;88958409;7364259776;141979772;325490920;881;2574;1482440;15;8149;1168370
4;72;1571161398063;1571161405763;7700;17938855166;42646273611;220137853;89681182;7362459048;141930806;325224898;757;2381;1422648;-21;7701;1107064
4;73;1571161405763;1571161421720;15957;17929250556;42642084251;220506411;88503537;7360912456;141805948;325430510;1874;4499;2890520;-30;15957;2299716
4;74;1571161421720;1571161427653;5933;17972304934;42654246255;221982603;91365927;7364381099;142069056;325423299;755;1625;1056696;55;5933;834263
4;75;1571161427653;1571161433563;5910;17956143464;42653070186;220289435;90982477;7364209274;142003406;325263239;622;1715;1090280;-14;5909;848481
4;76;1571161433563;1571161439481;5918;17968596826;42645565781;221611297;91849706;7362194769;141929342;325313944;577;1772;1103360;-1;5919;849680
4;77;1571161439481;1571161449244;9763;17930695664;42647345914;219442376;88327564;7362517327;141877938;325340660;1274;2774;1710568;-4;9763;1462463
4;78;1571161449245;1571161457120;7875;17956844702;42657245945;221396685;89179209;7365410053;142044450;325254054;929;2207;1387904;-1;7875;1130080
4;79;1571161457120;1571161471414;14294;17962960496;42650149575;220563701;91256123;7363326096;141947643;325452906;1501;4262;2591096;1;14294;1882679
4;80;1571161471414;1571161477632;6218;17974843436;42653156536;220859508;91695979;7364136804;142014141;325434267;864;1769;1039456;0;6219;940724
4;81;1571161477633;1571161484039;6406;17947928920;42640356845;219411239;91293004;7360489631;141792252;325285508;774;1591;1131376;-6;6406;914841
4;82;1571161484039;1571161492767;8728;17944511644;42643640861;220139038;89249348;7361424257;141960360;325434046;929;2781;1576744;31;8729;1252254
