0;26;1571169560913;1571169570396;9483;29861933194;4045288131;1122178756;632420767;892033078;130895515;406819580;45;20;7840;0;102;504
0;27;1571169570396;1571169579953;9557;30127169496;4045274755;1120459347;631693284;892030160;130913754;406712330;3;0;24;0;1;1
0;28;1571169579953;1571169589503;9550;30100492376;4045274091;1120693269;632201802;892030000;130855585;405595899;0;0;0;0;0;0
0;29;1571169589503;1571169599110;9607;30293477658;4045287930;1121191949;636506950;892033110;130891489;406511545;7;1;64;0;1;7
0;30;1571169599110;1571169608672;9562;30133277114;4045288193;1120025550;632741490;892033140;130851651;406149333;48;28;8144;0;150;579
0;31;1571169608672;1571169618221;9549;30091526808;4045290475;1119836926;631556907;892033619;130879363;404924440;0;0;0;0;0;0
0;32;1571169618221;1571169627780;9559;30129668870;4045274428;1120085125;632824316;892030085;130900509;405585743;4;0;32;0;9;10
0;33;1571169627780;1571169637353;9573;30111297544;4045287864;1121209456;631839317;892033063;130871783;405911794;0;0;0;0;0;0
0;34;1571169637353;1571169646844;9491;29820688340;4045296712;1116194482;624236359;892034569;130877432;404854658;1;0;8;0;0;0
0;35;1571169646844;1571169656315;9471;29810507760;4045289845;1117608304;630876292;892033406;130888278;405059809;4;0;32;0;1;3
0;36;1571169656315;1571169665769;9454;29771546492;4045287461;1119902223;631837225;892032912;130948277;405783661;37;28;8208;0;94;379
0;37;1571169665770;1571169675273;9503;29921362348;4045290107;1120914091;635737174;892033503;130880467;406653352;0;0;0;0;0;0
0;38;1571169675273;1571169684755;9482;29861055150;4045274348;1120636427;633089837;892030005;130933932;406221675;5;0;40;0;1;5
0;39;1571169684755;1571169694227;9472;29816302792;4045274330;1121231490;632445530;892029987;130880311;407030710;0;0;0;0;0;0
0;40;1571169694227;1571169703699;9472;29832966940;4045300006;1120241113;633211865;892035218;130861999;406507042;0;0;0;0;0;0
0;41;1571169703699;1571169713182;9483;29858365392;4045274014;1121051484;635399357;892029923;130854251;405980053;0;0;0;0;0;0
0;42;1571169713182;1571169722678;9496;29900388572;4045287491;1121060315;635111869;892032942;130916796;406604764;36;24;7216;0;101;340
0;43;1571169722678;1571169732147;9469;29716233078;4045298125;1119947363;630952794;892034779;130862653;406457341;1;0;8;0;0;0
0;44;1571169732148;1571169741575;9427;29580898670;4045288029;1121663418;626674954;892032976;130879814;406818397;0;0;0;0;0;0
0;45;1571169741575;1571169751150;9575;30160671532;4045288206;1121267944;636976866;892033153;130856057;405773250;3;0;24;0;1;1
0;46;1571169751150;1571169760633;9483;29762012254;4045280894;1118940671;626017035;892031090;130956062;405646968;0;0;0;0;0;0
0;47;1571169760633;1571169770060;9427;29563462036;4045303762;1117515317;617295103;892036447;130854932;405844095;51;30;8944;0;119;427
0;48;1571169770060;1571169779514;9454;29766105072;4045274646;1120944039;631294713;892030051;130897001;406525288;0;0;0;0;0;0
0;49;1571169779514;1571169789003;9489;29878632090;4045274017;1121483568;634883826;892029926;130899757;406776361;0;0;0;0;0;0
0;50;1571169789003;1571169798509;9506;29953306856;4045289887;1122907579;635306929;892033448;130881705;406572436;36;16;7344;0;94;317
0;51;1571169798510;1571169808070;9560;30131507740;4045280579;1120935251;631653733;892031079;130896207;406080505;1;0;8;0;0;0
0;52;1571169808070;1571169817625;9555;30119123144;4045287862;1121070947;632077968;892033061;130855621;405776367;0;0;0;0;0;0
0;53;1571169817625;1571169827187;9562;30131279104;4045274122;1121038448;633087053;892030012;130817317;405537142;4;0;32;0;1;4
0;54;1571169827187;1571169836774;9587;30231078426;4045274126;1118270367;637384012;892030035;130897734;404742892;0;0;0;0;0;0
0;55;1571169836774;1571169846221;9447;29723345614;4045303270;1118583803;630346382;892036373;130839713;405197643;28;22;6928;0;93;269
0;56;1571169846221;1571169855694;9473;29830124466;4045287779;1120467601;632389149;892032978;130965441;405885484;4;0;32;0;1;3
0;57;1571169855694;1571169865195;9501;29909887332;4045287795;1120560322;634506404;892032994;130868251;406658485;0;0;0;0;0;0
0;58;1571169865195;1571169874684;9489;29882819954;4045281457;1118672267;632095813;892031193;130912782;406034107;8;0;64;0;2;9
0;59;1571169874684;1571169884168;9484;29823622356;4045274797;1121555567;634233870;892030454;130901224;406835696;482;33;51440;0;1475;2111
0;60;1571169884168;1571169893664;9496;29895218712;4045290415;1121381248;635094678;892033559;130859316;406460819;0;0;0;0;0;0
0;61;1571169893664;1571169903159;9495;29906336320;4045303629;1122639673;635720644;892036480;130896568;406220910;3;0;24;0;1;2
0;62;1571169903159;1571169912663;9504;29931482338;4045290113;1120998225;636041588;892033509;130902359;406742837;38;22;8080;0;113;447
0;63;1571169912663;1571169922127;9464;29786824370;4045303605;1120664049;630713537;892036456;130906784;405729087;69;0;752;0;65;857
0;64;1571169922127;1571169931600;9473;29829760196;4045288419;1120801011;632852860;892033117;130872055;406864853;3;0;24;0;1;2
0;65;1571169931600;1571169941113;9513;29962379296;4045274705;1122049311;636809706;892030110;130833871;406882431;0;0;0;0;0;0
0;66;1571169941113;1571169950613;9500;29911323534;4045291118;1117017861;629436021;892033681;130869575;405038672;70;42;12368;0;192;933
0;67;1571169950613;1571169960118;9505;29835389956;4045310667;1119404128;625628017;892037618;130897753;405243997;0;0;0;0;0;0
0;68;1571169960118;1571169969530;9412;29616731450;4045273965;1121407343;628990132;892029874;130884748;405805322;0;0;0;0;0;0
0;69;1571169969530;1571169979014;9484;29847944204;4045274049;1119493605;631365290;892029939;130849919;405952239;3;0;24;0;1;1
0;70;1571169979015;1571169988426;9411;29619705032;4045274276;1121668185;630902755;892029933;130879897;405853723;34;26;7056;0;87;322
0;71;1571169988426;1571169997861;9435;29702614928;4045274304;1121918219;631431755;892029961;130903355;406474449;2;0;16;0;0;0
0;72;1571169997861;1571170007341;9480;29852929666;4045274670;1121813668;633042048;892030075;130877861;406793669;8;0;64;0;2;9
0;73;1571170007342;1571170016840;9498;29918099832;4045280139;1120965473;634045625;892030960;130845724;406399120;0;0;0;0;0;0
0;74;1571170016841;1571170026358;9517;30009466778;4045280480;1123980063;636006242;892031052;130860062;407091575;48;24;8336;0;118;571
0;75;1571170026358;1571170035807;9449;29721903718;4045274637;1120514272;628384742;892030045;130917476;406528339;0;0;0;0;0;0
1;26;1571170422680;1571170432124;9444;29725967044;4041407055;1118153679;633111803;888163037;129997667;406368243;4;0;16;-2;38;62
1;27;1571170432124;1571170441539;9415;29631402406;4041420427;1116427148;630118370;888165993;129989529;405824518;27;14;5080;0;82;218
1;28;1571170441539;1571170451016;9477;29842345250;4041430425;1118428683;636835959;888167796;129987247;406560801;0;0;0;0;0;0
1;29;1571170451016;1571170460434;9418;29636718996;4041421071;1118193355;632247180;888166133;130033369;406526435;3;0;24;0;1;1
1;30;1571170460434;1571170469861;9427;29670851752;4041421084;1119530046;633462918;888166146;129975303;407069011;2;0;16;0;0;0
1;31;1571170469861;1571170479302;9441;29721219708;4041420790;1117374252;633208566;888166085;130006522;406572842;0;0;0;0;0;0
1;32;1571170479302;1571170488776;9474;29837858524;4041431013;1119252147;637753151;888167945;130015143;407563289;52;20;7464;0;108;607
1;33;1571170488776;1571170498194;9418;29642294152;4041423064;1116960138;630955658;888166562;130035827;406321063;0;0;0;0;0;0
1;34;1571170498194;1571170507608;9414;29631578628;4041407024;1117492014;630545503;888163006;129983088;406600751;0;0;0;0;0;0
1;35;1571170507608;1571170517076;9468;29819839204;4041420502;1118589822;635178899;888166049;129977096;406707756;8;0;64;0;2;9
1;36;1571170517077;1571170526491;9414;29625027316;4041422848;1118319682;630562323;888166482;129988420;406797857;0;0;0;0;0;0
1;37;1571170526491;1571170535926;9435;29696227282;4041444983;1118248562;631834300;888171045;129967331;407056625;51;24;7568;0;93;576
1;38;1571170535926;1571170545344;9418;29642714048;4041407358;1119285105;630643892;888163088;129997466;406229470;4;0;32;0;1;2
1;39;1571170545344;1571170554786;9442;29707494832;4041420767;1119175169;632773526;888166081;130011619;407031444;0;0;0;0;0;0
1;40;1571170554786;1571170564363;9577;29850944650;4041417800;1117083888;636961602;888164985;129985462;406810076;1;0;8;0;0;0
1;41;1571170564363;1571170573820;9457;29629017204;4041413060;1113424053;627619888;888163994;130036157;406008375;0;0;0;0;0;0
1;42;1571170573820;1571170583186;9366;29453707120;4041420416;1117530720;625104051;888165963;130040558;406840441;53;18;6704;0;100;526
1;43;1571170583186;1571170592658;9472;29800875410;4041438953;1117921279;633980779;888170103;130022970;406212710;0;0;0;0;0;0
1;44;1571170592658;1571170602052;9394;29369792306;4041417336;1116000773;622536304;888164773;130031049;406537241;0;0;0;0;0;0
1;45;1571170602052;1571170611457;9405;29512021272;4041423374;1117312970;626520734;888166620;129977866;406842501;61;24;7568;0;112;649
1;46;1571170611458;1571170621006;9548;30095131402;4041407482;1116433886;631157609;888163212;129978947;406819556;0;0;0;0;0;0
1;47;1571170621006;1571170630567;9561;30135341262;4041407162;1115547647;632452644;888163144;129998044;406380645;0;0;0;0;0;0
1;48;1571170630567;1571170640137;9570;30180058726;4041420585;1116481929;633732748;888166151;129952936;405558404;4;0;32;0;1;4
1;49;1571170640137;1571170649648;9511;29972481474;4041413484;1116434013;626967212;888164166;129992895;406381128;0;0;0;0;0;0
1;50;1571170649648;1571170659160;9512;29939308230;4041413488;1114562984;628183156;888164170;129941867;406422446;9;0;96;0;2;10
1;51;1571170659160;1571170668685;9525;29997248622;4041429044;1115427288;628688478;888167590;130038750;405481273;11;0;160;0;35;76
1;52;1571170668686;1571170678215;9529;30018179328;4041413180;1116576433;634629807;888164114;129995566;407043372;53;26;8016;0;131;566
1;53;1571170678215;1571170687626;9411;29618018294;4041438882;1116771926;630786453;888170032;129992392;406348980;0;0;0;0;0;0
1;54;1571170687627;1571170697055;9428;29667113568;4041413113;1118281268;629342642;888164007;130020568;407091650;0;0;0;0;0;0
1;55;1571170697055;1571170706625;9570;30151054950;4041407830;1116359343;633442161;888163308;129977801;407494861;4;0;32;0;1;3
1;56;1571170706625;1571170716166;9541;30060051690;4041420553;1115391700;631280526;888166119;130000483;405464283;8;0;64;0;2;9
1;57;1571170716166;1571170725675;9509;29956968390;4041423161;1115977654;627983975;888166659;130000822;406539042;0;0;0;0;0;0
1;58;1571170725675;1571170735207;9532;30031525334;4041414007;1114889975;628268105;888164295;129974422;405835051;64;28;8112;0;117;598
1;59;1571170735207;1571170744771;9564;30135643628;4041407508;1116869307;632057537;888163219;129965404;406254681;0;0;0;0;0;0
1;60;1571170744772;1571170754297;9525;30012395830;4041407783;1116320256;629138697;888163261;129984077;406029634;0;0;0;0;0;0
1;61;1571170754298;1571170763843;9545;30052911852;4041413243;1116896007;631026307;888164137;129968442;407756649;4;0;32;0;1;3
1;62;1571170763843;1571170773313;9470;29799473664;4041413122;1113621787;625756192;888164056;130150602;407569645;0;0;0;0;0;0
1;63;1571170773313;1571170782902;9589;30174495688;4041407423;1114947518;640275958;888163405;130028565;407186907;960;96;256072;0;3272;6778
1;64;1571170782903;1571170792370;9467;29826477240;4041423113;1116202391;634723512;888166611;129989373;405467526;0;0;0;0;0;0
1;65;1571170792371;1571170801846;9475;29821377898;4041420491;1114222256;632040565;888166057;130019767;406082588;0;0;0;0;0;0
1;66;1571170801846;1571170811299;9453;29751343888;4041424746;1114732468;632699801;888166908;129991149;406921104;53;20;7944;0;104;576
1;67;1571170811299;1571170820770;9471;29817189888;4041407721;1114184161;633537030;888163199;130012512;406272266;0;0;0;0;0;0
1;68;1571170820770;1571170830278;9508;29973605090;4041439628;1116601125;638591143;888170278;130012919;407163586;74;0;752;0;50;1662
1;69;1571170830278;1571170839714;9436;29693811712;4041436478;1114930879;630838938;888169560;130011972;406864545;3;0;24;0;1;1
1;70;1571170839714;1571170849195;9481;29861965168;4041407106;1115246202;634344140;888163069;130033784;407034745;0;0;0;0;0;0
1;71;1571170849195;1571170858673;9478;29856645950;4041420484;1115424589;633186602;888166050;130042261;406432665;46;38;11864;0;172;694
1;72;1571170858674;1571170868198;9524;30004938734;4041443113;1115796807;633644523;888170775;130027769;406676835;4;0;32;0;1;4
1;73;1571170868198;1571170877692;9494;29917536856;4041426554;1115456792;631233177;888167072;129987136;407107576;0;0;0;0;0;0
1;74;1571170877692;1571170887158;9466;29822639338;4041413452;1120423116;631649425;888164118;129961313;407977775;9;0;96;0;11;21
1;75;1571170887158;1571170896732;9574;29817949088;4041421115;1113850069;625604548;888166177;130009373;406425709;0;0;0;0;0;0
2;26;1571171283325;1571171292864;9539;30074653734;4045265492;1119203612;630786145;892010553;129901259;406497398;0;0;0;0;0;0
2;27;1571171292864;1571171302426;9562;30138179064;4045262534;1118362295;632618309;892009446;129921842;407341359;80;32;12328;0;199;708
2;28;1571171302427;1571171311977;9550;30069207058;4045252106;1117694716;635771751;892007583;129923521;406641892;0;0;0;0;0;0
2;29;1571171311977;1571171321500;9523;29983161812;4045265168;1118497327;633580693;892010481;129917414;407090522;0;0;0;0;0;0
2;30;1571171321500;1571171331053;9553;30116838828;4045258826;1118189431;632278938;892008675;129920779;406988570;5;0;40;0;1;5
2;31;1571171331054;1571171340591;9537;30062551648;4045252101;1117576117;631589561;892007578;129913980;406834359;0;0;0;0;0;0
2;32;1571171340591;1571171350167;9576;30179630508;4045274880;1117212321;636859844;892012211;129906159;406139587;8;0;64;0;2;11
2;33;1571171350167;1571171359628;9461;29797444994;4045257494;1115894731;627305491;892008367;129931214;405481898;60;22;8176;0;134;589
2;34;1571171359628;1571171369120;9492;29858701338;4045274416;1117767020;623305011;892012050;129951139;405993361;0;0;0;0;0;0
2;35;1571171369120;1571171378575;9455;29726298756;4045251339;1120932067;628517421;892007320;129892729;406737933;0;0;0;0;0;0
2;36;1571171378575;1571171388045;9470;29827342290;4045252011;1121185402;635575627;892007485;129922520;406573046;0;0;0;0;0;0
2;37;1571171388045;1571171397505;9460;29796052592;4045251687;1120102516;632673025;892007416;129937110;406941393;29;20;7152;0;102;236
2;38;1571171397505;1571171407001;9496;29922147682;4045280620;1115374086;628523229;892013837;129940170;406726988;2;0;16;0;0;0
2;39;1571171407001;1571171416475;9474;29842712002;4045265108;1115511231;627507151;892010421;129914882;406887735;0;0;0;0;0;0
2;40;1571171416475;1571171426026;9551;30113627704;4045265191;1116114571;636033190;892010485;129905113;406837712;3;0;24;0;1;1
2;41;1571171426026;1571171435472;9446;29742686672;4045265388;1114295453;625859480;892010449;129943677;407022281;42;18;7376;0;135;788
2;42;1571171435472;1571171444876;9404;29458772006;4045267051;1117284972;622367834;892010819;129931826;407307898;0;0;0;0;0;0
2;43;1571171444876;1571171454327;9451;29740784876;4045251995;1119967154;634961103;892007472;129952641;406561203;0;0;0;0;0;0
2;44;1571171454327;1571171463792;9465;29681205926;4045261578;1116880172;626147415;892009123;129931514;406130844;0;0;0;0;0;0
2;45;1571171463792;1571171473229;9437;29714452316;4045251345;1121224452;632480388;892007326;129941508;407216932;58;24;8392;0;153;730
2;46;1571171473229;1571171482685;9456;29780812382;4045251366;1120759261;634089076;892007347;130068342;407079154;2;0;16;0;0;0
2;47;1571171482685;1571171492160;9475;29693935812;4045251378;1117621584;628000260;892007340;129928284;406420395;0;0;0;0;0;0
2;48;1571171492160;1571171501622;9462;29786324028;4045264787;1121190563;634142341;892010352;129911211;407448454;31;22;7592;0;105;215
2;49;1571171501622;1571171511075;9453;29758494530;4045265087;1121266041;633549428;892010400;129921322;407069846;1;0;8;0;0;0
2;50;1571171511075;1571171520506;9431;29688928742;4045265056;1121123708;631394676;892010369;129969337;407500716;0;0;0;0;0;0
2;51;1571171520506;1571171530035;9529;30021837796;4045265479;1120844679;639384740;892010540;129930900;407166061;74;12;8256;2;103;957
2;52;1571171530035;1571171539556;9521;30004547162;4045265473;1118257583;630925989;892010534;129919931;406359730;4;0;16;-2;32;45
2;53;1571171539556;1571171549109;9553;30119207678;4045257521;1117484522;632680386;892008434;129925375;407177723;0;0;0;0;0;0
2;54;1571171549109;1571171558671;9562;30153652290;4045265188;1116752070;634072558;892010501;129951740;405717935;3;0;24;0;1;1
2;55;1571171558671;1571171568252;9581;30213359866;4045252145;1118005601;636551251;892007603;129902721;407009280;0;0;0;0;0;0
2;56;1571171568252;1571171577786;9534;30054035906;4045251766;1118662881;632160951;892007495;129899250;407300845;8;0;64;0;10;33
2;57;1571171577786;1571171587334;9548;30105238690;4045265179;1118435358;631213938;892010492;129919383;407256448;0;0;0;0;0;0
2;58;1571171587334;1571171596809;9475;29841037820;4045252073;1120560546;634736343;892007550;130045774;407382784;63;24;8144;0;116;664
2;59;1571171596810;1571171606261;9451;29737760194;4045280579;1122482346;632979542;892013796;129915897;408046085;0;0;0;0;0;0
2;60;1571171606261;1571171615749;9488;29853291454;4045267426;1120089667;635459480;892010923;129931747;406474191;0;0;0;0;0;0
2;61;1571171615749;1571171625317;9568;30172634188;4045281053;1118079159;634429292;892014018;129894248;406381894;487;12;59560;0;1552;2116
2;62;1571171625317;1571171634896;9579;30206260470;4045251802;1118532905;634755288;892007531;129919926;407226915;2;0;16;0;0;0
2;63;1571171634896;1571171644471;9575;30167617920;4045264871;1118403053;636758431;892010436;129916592;406854659;0;0;0;0;0;0
2;64;1571171644472;1571171653969;9497;29859324320;4045257850;1116348756;634486172;892008471;129933172;407127547;132;14;8848;0;292;1920
2;65;1571171653969;1571171663409;9440;29702397826;4045251368;1118601352;631969689;892007349;129937937;405976214;0;0;0;0;0;0
2;66;1571171663409;1571171672889;9480;29833733732;4045266426;1121040018;636155531;892010659;129947762;407497400;1;0;8;0;0;0
2;67;1571171672889;1571171682352;9463;29809943470;4045251389;1120849828;636669831;892007351;129915028;406896222;82;36;10320;0;158;1137
2;68;1571171682352;1571171691799;9447;29742197864;4045251350;1116427659;627845714;892007331;129920648;406640112;0;0;0;0;0;0
2;69;1571171691799;1571171701262;9463;29798878860;4045253414;1114680175;624599902;892007831;129924300;406394455;0;0;0;0;0;0
2;70;1571171701263;1571171710754;9491;29802680700;4045251688;1117125768;624903459;892007417;129888316;406764294;3;0;24;0;1;2
2;71;1571171710754;1571171720283;9529;29964514108;4045252085;1117656688;627363812;892007547;129904610;406944918;45;12;6544;0;97;476
2;72;1571171720283;1571171729732;9449;29745124726;4045251680;1121973590;632028571;892007409;129942751;407909363;2;0;16;0;1;1
2;73;1571171729732;1571171739174;9442;29732125762;4045251994;1121343206;632638342;892007472;129917171;406886895;0;0;0;0;0;0
2;74;1571171739174;1571171748640;9466;29819962282;4045265093;1121579733;636582805;892010410;129932086;407311842;3;0;24;0;1;1
2;75;1571171748641;1571171758103;9462;29770298046;4045267752;1118243490;634904899;892011001;129946426;406430851;64;18;8112;0;145;673
3;26;1571172140864;1571172150354;9490;29877315608;4045225107;1117551580;635518960;891968667;129708892;406406368;0;0;0;0;0;0
3;27;1571172150354;1571172159829;9475;29822248204;4045225372;1116882395;635313586;891968767;129682857;406851155;109;18;8376;0;213;2546
3;28;1571172159829;1571172169325;9496;29907886840;4045219231;1115827519;637489396;891966944;129694489;405835511;0;0;0;0;0;0
3;29;1571172169325;1571172178828;9503;29927905484;4045222734;1116108556;638829770;891968184;129671769;406510585;0;0;0;0;0;0
3;30;1571172178828;1571172188301;9473;29809523720;4045223364;1115591701;634973710;891968310;129681050;406568346;83;6;6056;0;163;1302
3;31;1571172188302;1571172197752;9450;29741267406;4045223004;1114933789;632966730;891968202;129696427;406657930;0;0;0;0;0;0
3;32;1571172197752;1571172207224;9472;29825558462;4045233738;1115939099;634667117;891970139;129684854;406360520;2;0;16;0;1;1
3;33;1571172207225;1571172216721;9496;29912540736;4045225683;1117654539;638547003;891968826;129682305;407153166;8;0;64;0;2;9
3;34;1571172216721;1571172226198;9477;29835053864;4045209301;1116004403;634705114;891965190;129714049;405235695;0;0;0;0;0;0
3;35;1571172226198;1571172235659;9461;29774248660;4045209272;1115098226;633756911;891965180;129706005;405941798;99;14;7280;0;164;1612
3;36;1571172235659;1571172245135;9476;29845993936;4045209271;1116648352;635058075;891965179;129685762;406681317;0;0;0;0;0;0
3;37;1571172245135;1571172254644;9509;29981383678;4045244607;1117667293;638436630;891972661;129678009;407091511;0;0;0;0;0;0
3;38;1571172254644;1571172264119;9475;29812225158;4045215404;1117205516;634801708;891966204;129694478;406379455;83;4;5928;0;173;1239
3;39;1571172264119;1571172273620;9501;29927003934;4045225437;1118044257;639671521;891968745;129663495;406454546;0;0;0;0;0;0
3;40;1571172273621;1571172283047;9426;29666872960;4045245964;1119380696;633712608;891972347;129696642;406190062;2;0;16;0;0;0
3;41;1571172283048;1571172292499;9451;29754325792;4045209562;1119449706;636164263;891965218;129673975;405737426;3;0;24;0;1;1
3;42;1571172292499;1571172301992;9493;29743944170;4045209567;1115054444;629883240;891965223;129689933;405496316;0;0;0;0;0;0
3;43;1571172301992;1571172311446;9454;29732019328;4045209252;1113994101;632848574;891965160;129694892;406584839;91;12;7632;0;182;1452
3;44;1571172311446;1571172320864;9418;29523498770;4045209168;1117162922;626902582;891965076;129684251;406713946;0;0;0;0;0;0
3;45;1571172320865;1571172330308;9443;29718392856;4045209238;1115656996;632748545;891965146;129754432;406060279;0;0;0;0;0;0
3;46;1571172330308;1571172339832;9524;29984446174;4045222768;1116892374;640390552;891968218;129675121;405604484;71;6;5736;0;140;926
3;47;1571172339832;1571172349269;9437;29552012862;4045222622;1114416503;625935027;891968072;129659630;405524639;0;0;0;0;0;0
3;48;1571172349269;1571172358718;9449;29732141092;4045223338;1117098549;632154082;891968284;129663567;406182782;2;0;16;0;1;2
3;49;1571172358718;1571172368184;9466;29804574320;4045223349;1117880948;635197040;891968295;129675490;406435091;0;0;0;0;0;0
3;50;1571172368184;1571172377733;9549;30093021264;4045215425;1117153462;635697402;891966245;129659207;405383487;8;0;64;0;2;9
3;51;1571172377733;1571172387291;9558;30139212598;4045222801;1117029326;636093204;891968251;129682142;405299826;78;10;6800;0;148;1221
3;52;1571172387292;1571172396859;9567;30161432484;4045210007;1117420647;635161301;891965411;129641950;406641183;0;0;0;0;0;0
3;53;1571172396860;1571172406385;9525;30004311956;4045215702;1115887132;631891808;891966310;129670450;405934159;4;0;32;0;1;4
3;54;1571172406385;1571172415954;9569;30167715886;4045223456;1117196560;636175756;891968402;129652331;405262108;9;0;96;0;2;9
3;55;1571172415954;1571172425533;9579;30196208078;4045210013;1117350965;641471515;891965417;129660033;405591434;0;0;0;0;0;0
3;56;1571172425533;1571172434961;9428;29663482256;4045209542;1118117523;634502696;891965198;129691274;405118245;98;8;6928;0;214;1827
3;57;1571172434961;1571172444429;9468;29793402108;4045232364;1114438947;630935426;891969878;129672782;405818865;0;0;0;0;0;0
3;58;1571172444429;1571172453945;9516;29965335066;4045231462;1116396244;635919134;891969769;129672620;406278179;4;0;32;0;1;2
3;59;1571172453945;1571172463466;9521;30003020294;4045216364;1117821758;640116521;891966391;129671632;406299252;9;0;96;0;2;10
3;60;1571172463466;1571172472972;9506;29900257902;4045232817;1116821671;638124545;891970459;129706811;406584444;539;17;50800;0;1607;4453
3;61;1571172472972;1571172482541;9569;29815172460;4045225966;1114545975;634821217;891968857;129712806;405506445;0;0;0;0;0;0
3;62;1571172482541;1571172492025;9484;29867587190;4045209283;1115820889;635456483;891965191;129688842;406751809;4;0;32;0;1;3
3;63;1571172492025;1571172501567;9542;30080461322;4045216263;1117206003;640131618;891966410;129694947;406567156;90;8;6736;0;160;1551
3;64;1571172501567;1571172511047;9480;29836693590;4045209975;1116445922;634765996;891965360;129668711;406622559;74;0;744;0;46;1060
3;65;1571172511047;1571172520544;9497;29899683684;4045209931;1115121458;636232109;891965335;129665532;405814074;0;0;0;0;0;0
3;66;1571172520544;1571172530016;9472;29809099590;4045209298;1114927137;632976803;891965206;129674402;406161767;4;0;32;0;1;4
3;67;1571172530016;1571172539514;9498;29908286442;4045215337;1118941503;636948663;891966197;129683034;407086890;10;0;128;0;16;46
3;68;1571172539514;1571172549016;9502;29939169092;4045209999;1116417399;638744977;891965406;129685547;406476293;148;24;10224;0;266;5648
3;69;1571172549016;1571172558468;9452;29714429686;4045225946;1115230659;632283821;891968837;129704373;406447448;0;0;0;0;0;0
3;70;1571172558468;1571172567976;9508;29829239998;4045225423;1116154633;629823272;891968731;129688151;405339697;0;0;0;0;0;0
3;71;1571172567976;1571172577510;9534;30046843362;4045215454;1116975254;632019667;891966254;129683612;405249393;75;6;6560;2;127;1041
3;72;1571172577510;1571172586956;9446;29659275266;4045211524;1115972238;629673447;891965661;129671669;405172787;5;0;24;-2;23;33
3;73;1571172586956;1571172596413;9457;29753548634;4045209884;1115548878;632351500;891965288;129657763;406190069;0;0;0;0;0;0
3;74;1571172596413;1571172605971;9558;30123833542;4045247335;1119373827;632557310;891973314;129675075;406681800;4;0;32;0;1;4
3;75;1571172605971;1571172615544;9573;30186747424;4045239195;1117529793;636162116;891971880;129687751;405939197;1;0;8;0;0;0
4;25;1571172992792;1571173002302;9510;29928746736;3987910939;1117174975;630084952;890576092;130434536;407311629;0;0;0;0;0;0
4;26;1571173002302;1571173011781;9479;29833844984;3987905146;1114391149;627867866;890575128;130437051;407242897;0;0;0;0;0;0
4;27;1571173011781;1571173021364;9583;29854161468;3987945375;1116168323;633562306;890583518;130451049;406475252;39;16;5968;0;90;343
4;28;1571173021364;1571173031242;9878;29842774928;3987921677;1117382381;634024346;890578742;130448704;406528437;2;0;16;0;0;0
4;29;1571173031242;1571173040743;9501;29923284438;3987918846;1115753928;635792115;890578118;130448840;406827231;0;0;0;0;0;0
4;30;1571173040743;1571173050221;9478;29826727776;3987919157;1115512422;634011916;890578178;130457421;406552245;11;0;160;0;2;12
4;31;1571173050221;1571173059898;9677;29821036988;3987918823;1116501474;634084461;890578095;130453996;406409388;0;0;0;0;0;0
4;32;1571173059898;1571173069354;9456;29760812134;3987931436;1116275904;632462305;890580442;130474425;406602095;60;18;8048;0;163;687
4;33;1571173069354;1571173078868;9514;29969261590;3987951191;1116155793;635149826;890585244;130437969;406889156;0;0;0;0;0;0
4;34;1571173078868;1571173088344;9476;29697084302;3987910950;1113081585;626177632;890576044;130410276;406241871;0;0;0;0;0;0
4;35;1571173088344;1571173097783;9439;29698652342;3987950783;1116814312;628928985;890585090;130459840;407279394;4;0;40;0;1;3
4;36;1571173097783;1571173107252;9469;29809419476;3987905128;1116883545;632419078;890575110;130423114;406942129;0;0;0;0;0;0
4;37;1571173107252;1571173116770;9518;29869660536;3987943029;1117961428;629965297;890583157;130637015;407477373;32;30;7536;0;119;255
4;38;1571173116770;1571173126324;9554;30000976002;3987935093;1118353011;631369722;890581699;130405380;408015260;0;0;0;0;0;0
4;39;1571173126324;1571173135915;9591;29866716154;3987911832;1116081788;631494515;890576273;130448554;406548563;0;0;0;0;0;0
4;40;1571173135915;1571173145395;9480;29846566548;3987905142;1117245403;633629272;890575124;130428282;406919810;4;0;32;0;1;3
4;41;1571173145396;1571173154887;9491;29887787166;3987921358;1118175897;634666531;890578674;130453878;408696742;1;0;8;0;0;0
4;42;1571173154887;1571173164502;9615;29964092898;3987905170;1117016744;636908952;890575152;130457205;406919199;0;0;0;0;0;0
4;43;1571173164502;1571173174109;9607;29789470912;3987934601;1113241467;626336987;890581574;130482117;406470844;35;14;6448;0;113;344
4;44;1571173174109;1571173184015;9906;29507324306;3987929058;1110894260;617515963;890579853;130443802;405069733;0;0;0;0;0;0
4;45;1571173184015;1571173193693;9678;29837039610;3987919494;1112995575;627001502;890578264;130444814;406702543;0;0;0;0;0;0
4;46;1571173193694;1571173203206;9512;29934289772;3987921754;1114559445;635287461;890578819;130464879;406889094;41;16;6000;0;142;290
4;47;1571173203206;1571173212745;9539;30038016786;3987926795;1118350995;633645582;890579609;130452592;407142310;0;0;0;0;0;0
4;48;1571173212745;1571173222239;9494;29795974190;3987912048;1114473644;622866525;890576293;130432679;405393724;0;0;0;0;0;0
4;49;1571173222239;1571173231924;9685;29871075276;3987905796;1113347202;628540733;890575276;130430270;406159976;38;18;7440;0;100;337
4;50;1571173231924;1571173241639;9715;29995868484;3987905191;1114631733;631151542;890575173;130424497;407061202;0;0;0;0;0;0
4;51;1571173241639;1571173251414;9775;29840545800;3987905462;1114053667;626950026;890575193;130464695;406588078;1;0;8;0;0;0
4;52;1571173251415;1571173261036;9621;30001417944;3987921293;1115666219;632223415;890578725;130412323;407418550;0;0;0;0;0;0
4;53;1571173261037;1571173270619;9582;29855697680;3987921358;1115167402;626885386;890578674;130447045;407870811;44;20;6760;0;130;494
4;54;1571173270619;1571173280185;9566;30127436822;3987918914;1115738572;633475054;890578186;130410585;407370767;2;0;16;0;0;0
4;55;1571173280185;1571173289696;9511;29916041670;3987912284;1114698476;628206675;890576347;130430271;406625216;0;0;0;0;0;0
4;56;1571173289697;1571173299234;9537;30037308540;3987905846;1114373398;635539115;890575326;130420826;406439337;8;0;64;0;2;9
4;57;1571173299234;1571173308770;9536;29673024524;3987919111;1116090646;629917358;890578132;130445402;406719758;0;0;0;0;0;0
4;58;1571173308770;1571173318505;9735;29538510636;3987920952;1113629181;623285748;890578562;130428580;406482447;41;18;7376;0;87;444
4;59;1571173318505;1571173328143;9638;30038954836;3987921772;1114382504;633790127;890578837;130470504;407123467;459;13;46864;0;1433;1743
4;60;1571173328143;1571173337868;9725;29997749840;3987934982;1113882512;632608281;890581704;130435395;405926819;0;0;0;0;0;0
4;61;1571173337868;1571173347335;9467;29786829042;3987919145;1113407300;626853503;890578166;130481847;407259807;1;0;8;0;0;0
4;62;1571173347335;1571173356938;9603;29915322912;3987919177;1114553194;629894861;890578198;130451577;406322469;133;20;8416;0;280;2008
4;63;1571173356938;1571173366523;9585;29918395482;3987919179;1114720905;629439866;890578200;130434120;406480673;0;0;0;0;0;0
4;64;1571173366523;1571173376033;9510;29946261042;3987921070;1114835206;631079002;890578641;130414805;406483140;1;0;8;0;0;0
4;65;1571173376033;1571173385638;9605;29918028146;3987927420;1115649518;629086075;890579695;130435379;406998034;11;0;160;0;44;118
4;66;1571173385638;1571173395234;9596;29893972164;3987905481;1116068824;631030569;890575212;130428292;407199256;67;26;9872;0;172;907
4;67;1571173395234;1571173404815;9581;29839156902;3987905147;1120895925;636410520;890575129;130438132;406557217;0;0;0;0;0;0
4;68;1571173404815;1571173414289;9474;29816142776;3987910913;1118486150;632793823;890576066;130440100;406617810;0;0;0;0;0;0
4;69;1571173414289;1571173424066;9777;30166364218;3987911030;1115308547;637138141;890576183;130437994;407012604;50;12;6568;0;117;533
4;70;1571173424066;1571173433692;9626;29979426694;3987905189;1114455284;632166833;890575171;130438526;406180535;2;0;16;0;0;0
4;71;1571173433692;1571173443196;9504;29900949796;3987921731;1114890498;629155795;890578796;130453512;406360664;0;0;0;0;0;0
4;72;1571173443196;1571173452773;9577;29824199932;3987905467;1113533394;627948300;890575198;130435333;406532747;8;0;64;0;2;11
4;73;1571173452773;1571173462298;9525;29983784502;3987905181;1113105350;632579063;890575163;130414972;406032327;53;16;7312;0;120;626
4;74;1571173462298;1571173471795;9497;29894720852;3987905488;1114291392;629228455;890575219;130431323;407088532;0;0;0;0;0;0
