0;28;1571198883959;1571198893084;9125;28653282852;4025432515;1117395921;598823750;890032978;130409541;404726464;43;112;1256;0;47;821
0;29;1571198893084;1571198902165;9081;28494152196;4025437824;1117423343;596482347;890034524;130432112;404242834;37;8;4880;0;75;348
0;30;1571198902165;1571198911269;9104;28587124704;4025422028;1116779975;598527356;890031076;130420125;404366944;0;0;0;0;0;0
0;31;1571198911270;1571198920412;9142;28720030110;4025422061;1118735420;602326856;890031110;130415997;405505172;0;0;0;0;0;0
0;32;1571198920412;1571198929585;9173;28749046880;4025448363;1114761697;594059834;890036470;130478006;404872780;76;121;6208;0;117;673
0;33;1571198929586;1571198938744;9158;28628633088;4025424115;1115579790;594395977;890031503;130398425;404535672;0;0;0;0;0;0
0;34;1571198938744;1571198947865;9121;28640003130;4025408276;1117231139;600743811;890028031;130447248;404821810;0;0;0;0;0;0
0;35;1571198947865;1571198956998;9133;28688668434;4025408289;1118994590;601795089;890028044;130432768;404972117;39;117;1264;0;11;253
0;36;1571198956998;1571198966113;9115;28620916696;4025408272;1118416559;600320001;890028027;130408502;404815031;25;16;4880;0;78;214
0;37;1571198966113;1571198975218;9105;28588963866;4025408264;1118172399;600252988;890028019;130408424;404958842;0;0;0;0;0;0
0;38;1571198975218;1571198984323;9105;28581312736;4025424322;1117004986;599384881;890031564;130405827;404668764;0;0;0;0;0;0
0;39;1571198984323;1571198993514;9191;28871370060;4025438528;1113051349;599419120;890034811;130432951;405410639;75;119;6072;0;91;631
0;40;1571198993514;1571199002661;9147;28714808712;4025437893;1115497612;597196134;890034593;130419719;404790227;0;0;0;0;0;0
0;41;1571199002661;1571199011827;9166;28768466340;4025431518;1115136421;598314003;890032803;130400016;405380025;0;0;0;0;0;0
0;42;1571199011828;1571199021083;9255;29114484880;4025438019;1114263252;601044667;890034719;130446326;404941674;67;130;6208;0;100;585
0;43;1571199021083;1571199030303;9220;28988507904;4025422125;1114375069;597905113;890031173;130419839;405395652;0;0;0;0;0;0
0;44;1571199030303;1571199039551;9248;29080242916;4025422148;1115043075;600531636;890031196;130407303;404233243;0;0;0;0;0;0
0;45;1571199039551;1571199048785;9234;29041127180;4025448152;1115040575;598921067;890036534;130401357;405013651;61;138;8320;0;111;619
0;46;1571199048786;1571199058028;9242;29065558236;4025422147;1112603404;599703927;890031195;130396204;404107279;0;0;0;0;0;0
0;47;1571199058028;1571199067277;9249;29090033092;4025422143;1114604638;600058352;890031191;130439874;405433344;0;0;0;0;0;0
0;48;1571199067277;1571199076508;9231;29033054110;4025422126;1114014957;599255286;890031174;130411435;403861015;0;0;0;0;0;0
0;49;1571199076508;1571199085764;9256;29123666966;4025408426;1114401003;601395818;890028181;130456478;404856416;55;144;7928;0;102;541
0;50;1571199085764;1571199094986;9222;29000392888;4025437950;1114297501;597595848;890034650;130394767;404775059;0;0;0;0;0;0
0;51;1571199094986;1571199104226;9240;29040717212;4025422151;1114231456;599218041;890031199;130410802;404483964;0;0;0;0;0;0
0;52;1571199104226;1571199113464;9238;29053612662;4025437998;1115925597;600314802;890034698;130421046;404608893;97;123;8000;0;121;850
0;53;1571199113464;1571199122700;9236;29051028462;4025422145;1114572412;599394264;890031193;130382153;405090447;0;0;0;0;0;0
0;54;1571199122700;1571199131947;9247;29086106130;4025422166;1114208500;600207605;890031195;130379781;404644426;0;0;0;0;0;0
0;55;1571199131947;1571199141174;9227;29002488280;4025437979;1114250239;597708336;890034679;130438839;404628334;101;127;8128;0;117;1002
0;56;1571199141174;1571199150420;9246;29080635072;4025422148;1115318872;599852842;890031196;130427588;404428456;0;0;0;0;0;0
0;57;1571199150420;1571199159635;9215;28977879250;4025437946;1114579290;596887229;890034646;130382256;404535590;0;0;0;0;0;0
0;58;1571199159635;1571199168842;9207;28945742314;4025422112;1114772943;599759407;890031160;130393527;404724466;0;0;0;0;0;0
0;59;1571199168842;1571199177966;9124;28657219888;4025422063;1118797693;600720574;890031092;130475178;405931091;73;136;6456;0;153;2731
0;60;1571199177966;1571199187120;9154;28750682810;4025422078;1119237802;604023205;890031126;130402261;405207849;445;6;43560;0;1404;1613
0;61;1571199187120;1571199196266;9146;28726822030;4025422385;1118049193;603303097;890031184;130397823;404605087;0;0;0;0;0;0
0;62;1571199196266;1571199205376;9110;28609610602;4025437859;1118166574;599924672;890034559;130450949;405144222;82;12;7680;0;117;1051
0;63;1571199205376;1571199214515;9139;28704485636;4025422062;1118393460;602290251;890031110;130432284;404888927;0;0;0;0;0;0
0;64;1571199214515;1571199223654;9139;28697304626;4025437880;1118589207;601864138;890034580;130431461;403927323;77;0;760;0;47;1242
0;65;1571199223654;1571199232782;9128;28667603700;4025422044;1118242701;602274323;890031092;130408722;405097790;69;12;6496;0;131;896
0;66;1571199232782;1571199241936;9154;28755780692;4025424134;1118364301;603862891;890031541;130398717;404533797;0;0;0;0;0;0
0;67;1571199241936;1571199251046;9110;28602909786;4025408288;1116801631;598518242;890028040;130464283;403906987;0;0;0;0;0;0
0;68;1571199251046;1571199260202;9156;28761042824;4025407325;1116885531;600637133;890027913;130409262;404274749;53;4;4688;0;115;630
0;69;1571199260202;1571199269532;9330;29031213342;4025440263;1113605700;598287746;890035157;130393402;403576119;5;0;56;0;2;6
0;70;1571199269532;1571199278759;9227;29020489496;4025424511;1113654156;598843555;890031669;130395770;403613511;0;0;0;0;0;0
0;71;1571199278759;1571199288010;9251;29093862380;4025438238;1113915775;601286107;890034754;130417130;404204956;0;0;0;0;0;0
0;72;1571199288010;1571199297245;9235;29044967710;4025408393;1112392017;599262281;890028148;130411049;403225062;56;4;4744;0;88;556
0;73;1571199297245;1571199306495;9250;29096352556;4025408396;1114141643;599942977;890028151;130473125;404396644;0;0;0;0;0;0
0;74;1571199306495;1571199315718;9223;28996336862;4025424185;1114071983;598420780;890031592;130410030;404038102;0;0;0;0;0;0
0;75;1571199315718;1571199324862;9144;28714077398;4025424367;1117989737;602690896;890031609;130422934;404434425;39;4;4608;0;84;349
0;76;1571199324862;1571199334037;9175;28819944188;4025408328;1115485097;602336823;890028083;130400527;403670470;0;0;0;0;0;0
0;77;1571199334038;1571199343272;9234;29048035754;4025437969;1114942050;598855656;890034669;130408324;404309580;1;0;8;0;0;0
1;28;1571199736469;1571199745856;9387;28865383184;4045234133;1113045698;595331354;891970014;129744877;404949910;9;0;152;0;46;90
1;29;1571199745856;1571199755080;9224;28641009654;4045239415;1117008803;599391605;891971553;129706565;405661659;41;10;4864;0;81;359
1;30;1571199755080;1571199764219;9139;28692415086;4045223609;1116599569;601342218;891968095;129723167;405745649;0;0;0;0;0;0
1;31;1571199764219;1571199773325;9106;28579444958;4045223573;1115195219;598203589;891968059;129725900;405083923;1;0;8;0;0;0
1;32;1571199773325;1571199782433;9108;28584686650;4045223574;1115512658;598172172;891968060;129716194;405238181;29;10;4560;0;90;296
1;33;1571199782433;1571199791593;9160;28713196434;4045225719;1116586096;601575664;891968521;129716775;405702609;2;2;48;0;0;0
1;34;1571199791593;1571199800715;9122;28634887582;4045209879;1115269611;599965270;891965029;129704860;404679062;1;0;8;0;0;0
1;35;1571199800715;1571199809830;9115;28602862044;4045223600;1115065596;598920322;891968067;129700717;404507377;0;0;0;0;0;0
1;36;1571199809830;1571199819000;9170;28803923316;4045209945;1114257060;600854922;891965092;129689798;405657213;25;14;4608;0;84;201
1;37;1571199819000;1571199828164;9164;28760854630;4045209922;1111655109;590601042;891965069;129707420;406810501;0;0;0;0;0;0
1;38;1571199828164;1571199837745;9581;28839242614;4045226291;1113192617;599402400;891968709;129728912;404681892;1;0;8;0;0;0
1;39;1571199837745;1571199846878;9133;28670947100;4045209878;1115543395;600803826;891965028;129703253;404088519;35;6;4608;0;77;296
1;40;1571199846878;1571199856005;9127;28641590442;4045239420;1115941773;600058790;891971558;129713576;405601438;0;0;0;0;0;0
1;41;1571199856005;1571199865152;9147;28720643310;4045243968;1116892319;602043652;891971714;129730339;405490833;1;0;8;0;0;0
1;42;1571199865152;1571199874249;9097;28509597682;4045240855;1111603002;588930471;891971871;129683589;404515475;17;12;4560;0;65;136
1;43;1571199874249;1571199883320;9071;28436159828;4045225636;1111210155;588451709;891968438;129731549;403946701;4;0;48;0;1;3
1;44;1571199883320;1571199892536;9216;28966552278;4045225779;1114398635;599743132;891968581;129690792;404144104;1;0;8;0;0;0
1;45;1571199892536;1571199902152;9616;28695875870;4045233578;1112168713;589822088;891969869;129719625;404685770;17;14;4624;0;71;101
1;46;1571199902152;1571199911346;9194;28861237952;4045239481;1111898067;594629788;891971619;129712078;405362553;2;2;48;0;0;0
1;47;1571199911346;1571199920570;9224;28985534322;4045223673;1112492457;597327214;891968159;129726215;405481351;0;0;0;0;0;0
1;48;1571199920570;1571199929815;9245;29061035448;4045239537;1113346387;598675160;891971656;129700579;405950580;1;0;8;0;0;0
1;49;1571199929815;1571199939060;9245;29062796792;4045223720;1113077326;598702285;891968206;129698283;406065616;31;14;4608;0;73;215
1;50;1571199939060;1571199948286;9226;28986137594;4045223676;1113266896;597343426;891968162;129693581;406124195;0;0;0;0;0;0
1;51;1571199948286;1571199957536;9250;29079337716;4045223709;1112354172;599185741;891968195;129711562;404749523;1;0;8;0;0;0
1;52;1571199957536;1571199966765;9229;29009015648;4045239509;1112267736;596867517;891971647;129725265;405455466;23;12;4560;0;57;151
1;53;1571199966765;1571199976001;9236;29031307512;4045223690;1113116568;598301207;891968173;129701689;405240940;2;2;48;0;0;0
1;54;1571199976001;1571199985252;9251;29092368654;4045223707;1113164514;599691287;891968190;129689615;405446964;0;0;0;0;0;0
1;55;1571199985252;1571199994464;9212;28948304176;4045223661;1111593630;595878469;891968147;129711227;404611059;27;12;4624;0;75;237
1;56;1571199994464;1571200003703;9239;29048570844;4045223699;1113627471;598275497;891968185;129722359;406310323;5;0;56;0;1;3
1;57;1571200003703;1571200013042;9339;29052902372;4045223687;1112790985;598370962;891968173;129714859;405310409;0;0;0;0;0;0
1;58;1571200013042;1571200022465;9423;28990098136;4045239496;1112621647;596940681;891971634;129729038;404582382;25;14;4624;0;76;211
1;59;1571200022465;1571200031707;9242;29055577238;4045223696;1111824364;598414388;891968182;129724618;404660676;2;2;48;0;0;0
1;60;1571200031708;1571200041040;9332;29024440402;4045223684;1113426355;597914743;891968170;129718576;406155590;0;0;0;0;0;0
1;61;1571200041040;1571200050281;9241;29027936664;4045239532;1112029361;598823675;891971670;129687089;405307111;322;122;35528;1;918;1259
1;62;1571200050281;1571200059558;9277;29171739218;4045223739;1113984873;602514674;891968225;129742019;406540446;182;24;14808;-1;545;660
1;63;1571200059558;1571200068778;9220;28971647824;4045223674;1111190853;596317968;891968160;129714321;404356348;0;0;0;0;0;0
1;64;1571200068778;1571200078021;9243;29048016190;4045239546;1113106149;598359165;891971665;129696587;404972230;85;145;2008;0;68;2055
1;65;1571200078021;1571200087281;9260;29120673674;4045223706;1112875305;600164515;891968192;129718010;405476448;28;26;8240;0;112;195
1;66;1571200087281;1571200096511;9230;29017672280;4045209963;1112835674;597777646;891965109;129704832;405147151;0;0;0;0;0;0
1;67;1571200096511;1571200105750;9239;29043373974;4045209289;1112216845;598309408;891965019;129744504;404885965;0;0;0;0;0;0
1;68;1571200105750;1571200115185;9435;29036251802;4045209979;1112242167;597741213;891965129;129695871;404915724;34;10;6464;0;82;263
1;69;1571200115186;1571200124545;9359;29024529170;4045210284;1111644845;597170544;891965182;129743822;405805151;1;0;8;0;0;0
1;70;1571200124545;1571200133714;9169;28758803038;4045231804;1111693685;589279367;891969518;129737031;405321572;0;0;0;0;0;0
1;71;1571200133715;1571200142960;9245;29058934216;4045226356;1112824555;598654581;891968770;129680227;404844697;71;129;7552;0;102;461
1;72;1571200142960;1571200152163;9203;28905022622;4045209941;1110916050;594424020;891965091;129710365;405306644;0;0;0;0;0;0
1;73;1571200152163;1571200161390;9227;29006328664;4045209977;1112690535;597544262;891965127;129687494;405751924;0;0;0;0;0;0
1;74;1571200161390;1571200170628;9238;29046651090;4045210300;1112664544;598934749;891965198;129710869;405014288;39;117;1264;0;16;178
1;75;1571200170629;1571200179855;9226;28995172950;4045209958;1109787989;596858212;891965108;129681997;404469711;29;12;6768;0;95;238
1;76;1571200179855;1571200189088;9233;29019903890;4045223702;1112777810;597662666;891968188;129716665;405828426;0;0;0;0;0;0
1;77;1571200189088;1571200198286;9198;28894400538;4045209955;1114652247;601457896;891965105;129692074;405149931;0;0;0;0;0;0
2;29;1571200604842;1571200613967;9125;28650495128;4043368864;1114764604;600022965;890101001;129899300;405794365;35;12;4896;0;128;332
2;30;1571200613967;1571200623064;9097;28562466618;4043353007;1114614847;597497968;890097492;129916812;405622980;4;0;48;0;1;3
2;31;1571200623064;1571200632201;9137;28698406342;4043353077;1112305587;598722200;890097536;129865050;406667719;0;0;0;0;0;0
2;32;1571200632201;1571200641301;9100;28558462860;4043363720;1112739198;594078697;890099408;129872940;405586430;1;0;8;0;0;0
2;33;1571200641302;1571200650410;9108;28607819182;4043349225;1113110317;598638856;890096199;129892725;405548744;24;15;4536;0;62;152
2;34;1571200650410;1571200659508;9098;28467015614;4043369030;1113296691;591534546;890101031;129846684;406460450;0;0;0;0;0;0
2;35;1571200659508;1571200668659;9151;28635578600;4043339315;1111129507;591758705;890094464;129843788;405072975;1;0;8;0;0;0
2;36;1571200668659;1571200677792;9133;28683114010;4043339356;1113763526;601094861;890094486;129902815;404629262;23;14;4496;0;75;185
2;37;1571200677792;1571200686918;9126;28667878618;4043339326;1115240125;600468713;890094475;129873613;406997351;4;0;48;0;1;3
2;38;1571200686918;1571200696048;9130;28662077162;4043355369;1112512055;598034297;890098034;129872954;405944997;0;0;0;0;0;0
2;39;1571200696048;1571200705193;9145;28727473920;4043369424;1113450443;602249933;890101173;129854049;405009886;27;12;4496;0;73;228
2;40;1571200705193;1571200714298;9105;28587425610;4043368851;1113839017;598233954;890100988;129869249;405516497;4;1;56;0;1;3
2;41;1571200714298;1571200723429;9131;28684622920;4043363435;1115175047;601267599;890099375;129924972;406420886;0;0;0;0;0;0
2;42;1571200723429;1571200732551;9122;28652131058;4043368864;1114448259;599899584;890101001;129934374;406491849;0;0;0;0;0;0
2;43;1571200732551;1571200741672;9121;28639288898;4043353034;1114294298;600382432;890097519;129863676;406690927;28;10;4552;0;71;190
2;44;1571200741672;1571200750815;9143;28729174820;4043368887;1114794755;602377627;890101024;129855941;405781644;0;0;0;0;0;0
2;45;1571200750816;1571200759922;9106;28499648804;4043362905;1114112977;595811816;890099216;129898358;405776176;0;0;0;0;0;0
2;46;1571200759923;1571200769041;9118;28640913586;4043353020;1114070654;599783543;890097505;129873469;406304568;25;10;4496;0;67;186
2;47;1571200769041;1571200778181;9140;28712693172;4043353050;1113274876;601065306;890097535;129864262;406381933;3;1;48;0;1;1
2;48;1571200778181;1571200787310;9129;28667399446;4043353039;1110751535;597319178;890097524;129888545;406050694;1;0;8;0;0;0
2;49;1571200787310;1571200796465;9155;28754489468;4043368901;1114590599;601711143;890101038;129881337;406136998;29;8;4496;0;81;276
2;50;1571200796465;1571200805579;9114;28619656424;4043353029;1114790003;599677663;890097514;129915585;406404455;4;0;48;0;1;3
2;51;1571200805579;1571200814700;9121;28589148702;4043353027;1112522698;595758831;890097512;129874940;405998586;0;0;0;0;0;0
2;52;1571200814701;1571200823841;9140;28656645524;4043368865;1110673859;591450066;890101002;129879308;406124953;30;6;4504;0;70;236
2;53;1571200823841;1571200832977;9136;28698078280;4043353048;1114576171;601289062;890097533;129898606;405587788;3;1;48;0;1;1
2;54;1571200832978;1571200842100;9122;28648202198;4043368856;1114880738;600213212;890100993;129910171;406138049;0;0;0;0;0;0
2;55;1571200842100;1571200851218;9118;28629575664;4043353058;1113720034;599785253;890097543;129897829;404235173;38;118;1256;0;9;218
2;56;1571200851218;1571200860365;9147;28728614326;4043353068;1115036727;601943073;890097553;129915219;405806331;36;16;6416;0;84;330
2;57;1571200860365;1571200869468;9103;28589652110;4043353018;1114723981;598733962;890097503;129878367;406419796;0;0;0;0;0;0
2;58;1571200869468;1571200878611;9143;28710097292;4043353076;1113502651;599231502;890097561;129861286;406418884;0;0;0;0;0;0
2;59;1571200878611;1571200887735;9124;28638170830;4043368892;1114431935;600009656;890101029;129872000;405436359;39;12;6408;0;74;282
2;60;1571200887735;1571200896856;9121;28640375868;4043353025;1112742937;599478377;890097510;129881606;405067971;0;0;0;0;0;0
2;61;1571200896856;1571200905996;9140;28711326612;4043353052;1115214317;601590018;890097537;129878805;406145785;0;0;0;0;0;0
2;62;1571200905996;1571200915103;9107;28593894140;4043339337;1114860646;598671888;890094486;129909563;406459755;79;129;7488;0;102;632
2;63;1571200915103;1571200924279;9176;28791669536;4043369208;1115260416;604640546;890101345;129834776;405632993;445;8;43624;0;1381;1583
2;64;1571200924279;1571200933396;9117;28632146870;4043353030;1113355789;599505892;890097515;129879976;405388643;0;0;0;0;0;0
2;65;1571200933396;1571200942521;9125;28661310662;4043368871;1115016768;600739399;890101008;129868561;405812804;4;0;48;0;1;4
2;66;1571200942521;1571200951662;9141;28709190778;4043355716;1114596602;601437712;890098121;129881772;406451499;36;20;7184;0;84;334
2;67;1571200951662;1571200960773;9111;28610910878;4043339642;1113699607;599689236;890094539;129889598;405547309;78;0;776;0;51;1526
2;68;1571200960773;1571200969913;9140;28707712820;4043339330;1114172602;601446833;890094479;129860210;405251487;0;0;0;0;0;0
2;69;1571200969913;1571200979071;9158;28675597200;4043355166;1112574640;597290449;890097967;129843653;405145008;46;24;8096;0;104;436
2;70;1571200979071;1571200988251;9180;28841967266;4043368894;1109136650;593152278;890101031;129852052;405443044;1;0;8;0;0;0
2;71;1571200988251;1571200997427;9176;28820403066;4043353074;1108719082;594719156;890097559;129850752;405735087;0;0;0;0;0;0
2;72;1571200997427;1571201006564;9137;28697452524;4043369131;1114411838;601248279;890101132;129893792;406374507;31;162;6080;0;133;285
2;73;1571201006564;1571201015684;9120;28641872514;4043339639;1113811411;599368417;890094540;129876517;405230252;0;0;0;0;0;0
2;74;1571201015684;1571201024825;9141;28719105930;4043353372;1113288320;601997369;890097609;129893448;405183106;0;0;0;0;0;0
2;75;1571201024825;1571201033934;9109;28604390664;4043355679;1113697760;599578964;890098077;129860719;405674140;15;141;1264;0;14;121
2;76;1571201033934;1571201043057;9123;28647284442;4043369400;1112714290;600141975;890101153;129862253;405711877;31;16;5968;0;84;281
2;77;1571201043057;1571201052186;9129;28675379952;4043339663;1113154782;601366797;890094541;129865901;404822390;0;0;0;0;0;0
2;78;1571201052186;1571201061304;9118;28629483246;4043339325;1114966304;599952232;890094474;129852801;405981044;0;0;0;0;0;0
3;29;1571201462357;1571201471466;9109;28610241614;3986033285;1109628117;596866064;888679164;130545398;405530705;57;16;6240;0;118;587
3;30;1571201471467;1571201480601;9134;28672435424;3986017515;1107826779;595522546;888675693;130530760;405356045;0;0;0;0;0;0
3;31;1571201480601;1571201489716;9115;28604723398;3986017507;1109572136;596161664;888675685;130558442;406562855;0;0;0;0;0;0
3;32;1571201489716;1571201498852;9136;28677491842;3986017525;1109381387;597891171;888675703;130551163;405049029;77;129;7544;0;204;929
3;33;1571201498852;1571201508027;9175;28757803960;3986003527;1107691519;594153336;888672670;130531676;404963947;0;0;0;0;0;0
3;34;1571201508027;1571201517179;9152;28604733034;3986033747;1108361154;586015546;888679240;130547375;405414442;0;0;0;0;0;0
3;35;1571201517179;1571201526374;9195;28888024572;3986017592;1106912830;594793563;888675751;130533520;404826728;31;14;6024;0;91;248
3;36;1571201526375;1571201535540;9165;28806892664;3986010079;1106678807;592608215;888673776;130606883;403836465;0;0;0;0;0;0
3;37;1571201535540;1571201544742;9202;28926915322;3986003569;1108447979;596021706;888672712;130517952;405206381;1;0;8;0;0;0
3;38;1571201544742;1571201554011;9269;28820961662;3986003861;1107574853;593538539;888672753;130541083;406112540;38;118;1264;0;9;222
3;39;1571201554011;1571201563138;9127;28651335650;3986003834;1107284513;595508333;888672726;130560164;405089291;29;12;5904;0;88;262
3;40;1571201563138;1571201572264;9126;28655890850;3986033737;1108803649;597485074;888679249;130562279;404818999;0;0;0;0;0;0
3;41;1571201572264;1571201581378;9114;28622755274;3986036202;1109497293;597987029;888679066;130569306;405575713;0;0;0;0;0;0
3;42;1571201581378;1571201590465;9087;28462895056;3986017477;1109790562;591776643;888675655;130560450;406069229;83;132;7552;0;196;824
3;43;1571201590465;1571201599620;9155;28691570476;3986003501;1106869687;588156615;888672644;130547293;404607017;0;0;0;0;0;0
3;44;1571201599620;1571201608826;9206;28945955766;3986003577;1108584651;596885306;888672720;130529046;405081064;0;0;0;0;0;0
3;45;1571201608826;1571201618034;9208;28816545600;3986029292;1107727416;592966058;888677931;130530526;405118600;63;128;7104;0;92;501
3;46;1571201618034;1571201627217;9183;28863418754;3986026299;1106866937;595071109;888677341;130534359;404516160;0;0;0;0;0;0
3;47;1571201627217;1571201636411;9194;28897460698;3986003558;1108272030;594849259;888672701;130537327;405354685;0;0;0;0;0;0
3;48;1571201636411;1571201645606;9195;28877242618;3986003577;1107440966;595878593;888672720;130531906;404830461;38;115;1264;0;76;730
3;49;1571201645606;1571201654662;9056;28403942884;3986017466;1110762276;593500578;888675644;130547344;405202012;35;12;5968;0;100;344
3;50;1571201654662;1571201663757;9095;28539088368;3986003475;1111525840;598912606;888672618;130561161;404759327;0;0;0;0;0;0
3;51;1571201663757;1571201672828;9071;28458063478;3986003449;1109785250;595074675;888672592;130573397;404200551;0;0;0;0;0;0
3;52;1571201672828;1571201681904;9076;28342911818;3986003739;1110543501;589700034;888672631;130595453;404765605;67;130;7240;0;105;584
3;53;1571201681904;1571201691008;9104;28563749812;3986017499;1106081208;590592895;888675677;130573409;405931159;0;0;0;0;0;0
3;54;1571201691008;1571201700121;9113;28604841804;3986033282;1110428971;596855871;888679161;130580351;405142037;0;0;0;0;0;0
3;55;1571201700121;1571201709317;9196;28897129278;3986017909;1107701019;595170614;888675836;130546255;403541747;68;133;7232;0;132;536
3;56;1571201709317;1571201718532;9215;28968884190;3986017598;1108762350;597535202;888675776;130508649;405182818;0;0;0;0;0;0
3;57;1571201718532;1571201727713;9181;28853377896;3986017563;1108039176;594615951;888675741;130540092;404795124;0;0;0;0;0;0
3;58;1571201727713;1571201736877;9164;28791167588;3986033329;1109372489;595298714;888679208;130540294;405650234;0;0;0;0;0;0
3;59;1571201736877;1571201745938;9061;28432083654;3986033288;1110388548;594524946;888679167;130568642;404659128;75;121;7232;0;102;638
3;60;1571201745938;1571201755028;9090;28527894402;3986019259;1107392337;590916620;888676103;130565820;404374872;0;0;0;0;0;0
3;61;1571201755028;1571201764019;8991;28193985248;3986017735;1110010315;586783875;888675639;130562397;405623532;0;0;0;0;0;0
3;62;1571201764020;1571201773104;9084;28516571080;3986019267;1113138364;596972291;888676111;130549765;403971122;62;148;7552;0;151;845
3;63;1571201773104;1571201782135;9031;28315946494;3986019186;1110637850;591735011;888676030;130564701;404049271;0;0;0;0;0;0
3;64;1571201782135;1571201791226;9091;28539922758;3986019267;1109368814;594084276;888676111;130566205;404206600;0;0;0;0;0;0
3;65;1571201791226;1571201800278;9052;28400665330;3986019221;1111947440;593003189;888676065;130562808;404478395;35;10;5696;0;99;316
3;66;1571201800278;1571201809383;9105;28552356994;3986019711;1111615528;599992376;888676559;130583182;405319475;447;6;43624;0;1370;1578
3;67;1571201809383;1571201818444;9061;28426034874;3986003788;1110496554;593151645;888672680;130599126;404523455;85;145;1992;0;162;1906
3;68;1571201818444;1571201827552;9108;28606176098;3986019271;1110151260;595672294;888676115;130554078;404522342;0;0;0;0;0;0
3;69;1571201827552;1571201836540;8988;28176942522;3986019600;1111464442;586066219;888676077;130601670;404395181;59;18;8048;0;135;725
3;70;1571201836540;1571201845601;9061;28435759788;3986003764;1112027906;594176572;888672656;130548942;405483832;4;0;48;0;1;4
3;71;1571201845601;1571201854742;9141;28698625342;3986003869;1111743255;598947388;888672757;130558424;404735893;0;0;0;0;0;0
3;72;1571201854742;1571201863940;9198;28908389674;3986019370;1107895134;595350123;888676195;130566301;405485879;27;14;6360;0;99;180
3;73;1571201863940;1571201873036;9096;28534760928;3986019587;1106649292;589188467;888676176;130566206;403580370;0;0;0;0;0;0
3;74;1571201873036;1571201882125;9089;28519299674;3986003469;1112178295;598087492;888672612;130547919;404867744;4;0;48;0;1;3
3;75;1571201882125;1571201891172;9047;28380037136;3986003746;1109749392;593057942;888672634;130549142;404278508;26;14;6288;0;79;159
3;76;1571201891172;1571201900175;9003;28222902738;3986017713;1110896153;586329298;888675640;130595857;403752853;0;0;0;0;0;0
3;77;1571201900175;1571201909256;9081;28507653108;3986019678;1112279797;596681801;888676155;130544568;405451197;4;1;56;0;1;2
3;78;1571201909257;1571201918287;9030;28315140282;3986019184;1112454529;592100900;888676028;130579675;404814482;0;0;0;0;0;0
4;29;1571202325278;1571202334411;9133;28678699846;3987961390;1111683192;597691931;890619568;130790002;405935692;21;16;4752;0;66;160
4;30;1571202334411;1571202343538;9127;28657943464;3987977166;1111554285;596739228;890623045;130770290;405585824;4;0;48;0;1;3
4;31;1571202343538;1571202352698;9160;28773316898;3987970214;1112053221;600303450;890621216;130778841;405992329;0;0;0;0;0;0
4;32;1571202352698;1571202361786;9088;28507293218;3987972616;1110352714;593092967;890621647;130754790;405094733;0;0;0;0;0;0
4;33;1571202361786;1571202370931;9145;28721298558;3987977629;1109576946;599348950;890623141;130763436;404775874;32;14;4672;0;77;241
4;34;1571202370931;1571202380055;9124;28496422934;3987963109;1110731008;591866773;890619953;130784112;405065935;0;0;0;0;0;0
4;35;1571202380055;1571202389225;9170;28745145614;3987947388;1109943005;592795156;890616531;130764015;406132068;0;0;0;0;0;0
4;36;1571202389225;1571202398463;9238;29057196816;3987993489;1110633541;598175078;890626702;130754727;405818805;36;8;4616;0;78;286
4;37;1571202398463;1571202407662;9199;28915735956;3987947759;1110006660;594577691;890616651;130774967;405947774;0;0;0;0;0;0
4;38;1571202407663;1571202416885;9222;29000108918;3987963670;1109572319;596926300;890620147;130775140;404720626;0;0;0;0;0;0
4;39;1571202416885;1571202426103;9218;28967584498;3987978018;1110101251;596403131;890623260;130746609;405087531;23;14;4688;0;70;179
4;40;1571202426103;1571202435308;9205;28939100774;3987961454;1108636876;595507905;890619632;130769719;405224225;5;0;56;0;1;5
4;41;1571202435308;1571202444539;9231;29033892734;3987971936;1110182361;597377144;890621529;130730104;406351341;0;0;0;0;0;0
4;42;1571202444539;1571202453714;9175;28833557958;3987977214;1109943300;595802285;890623093;130790390;405246913;25;12;4560;0;80;218
4;43;1571202453714;1571202462864;9150;28735992290;3987961421;1111010554;599581055;890619599;130752956;405364644;5;0;56;0;9;12
4;44;1571202462864;1571202472008;9144;28715293578;3987977205;1112078400;598697878;890623065;130786929;405959312;0;0;0;0;0;0
4;45;1571202472008;1571202481126;9118;28583507846;3987963109;1111061509;594687348;890619975;130763768;405577973;0;0;0;0;0;0
4;46;1571202481126;1571202490228;9102;28442430090;3987961331;1111150304;590433463;890619509;130770063;405993861;25;14;4688;0;82;219
4;47;1571202490228;1571202499365;9137;28689904616;3987961409;1108807473;595637960;890619587;130762096;405706395;5;0;56;0;1;5
4;48;1571202499365;1571202508516;9151;28743027592;3987961417;1110185014;600051374;890619595;130771689;405314152;0;0;0;0;0;0
4;49;1571202508516;1571202517660;9144;28707759102;3987987654;1112018156;599498119;890624939;130777471;405357057;27;8;4496;0;75;235
4;50;1571202517660;1571202526808;9148;28735444936;3987961417;1111956955;600137867;890619595;130781706;406764998;5;0;56;0;9;12
4;51;1571202526808;1571202535967;9159;28767549460;3987961444;1111330328;600607738;890619603;130765547;405537298;0;0;0;0;0;0
4;52;1571202535967;1571202545075;9108;28556394478;3987947343;1109985404;594142137;890616486;130775975;405792379;25;12;4688;0;76;212
4;53;1571202545075;1571202554217;9142;28703911564;3987977182;1112762433;597865295;890623061;130769195;406688003;4;0;48;0;1;3
4;54;1571202554217;1571202563385;9168;28798937124;3987961453;1109613348;599891108;890619631;130768217;405211684;0;0;0;0;0;0
4;55;1571202563385;1571202572504;9119;28629731300;3987977162;1111648187;597368700;890623041;130778256;405799822;1;0;8;0;0;0
4;56;1571202572504;1571202581643;9139;28700581742;3987961407;1112050084;599851290;890619585;130770009;405868887;27;12;4560;0;82;244
4;57;1571202581643;1571202590751;9108;28605012332;3987961370;1113897080;598815570;890619548;130768957;406724377;4;0;48;0;1;3
4;58;1571202590751;1571202599859;9108;28595887916;3987961392;1112702176;599209496;890619551;130788821;404237575;38;118;1256;0;7;148
4;59;1571202599859;1571202608986;9127;28668812142;3987977167;1114940408;601309537;890623046;130792190;405725240;32;12;6416;0;75;269
4;60;1571202608987;1571202618086;9099;28569476516;3987961383;1110172557;595851093;890619542;130754947;404764608;0;0;0;0;0;0
4;61;1571202618086;1571202627357;9271;29132304472;3987961588;1112190334;611021214;890619766;130786569;406738567;950;60;249088;0;3039;6868
4;62;1571202627357;1571202636459;9102;28576424948;3987947352;1112887057;598616176;890616495;130759847;405934969;143;167;11184;0;224;2858
4;63;1571202636459;1571202645613;9154;28736926836;3987977219;1111140677;598558553;890623098;130774145;405716806;0;0;0;0;0;0
4;64;1571202645613;1571202654774;9161;28779058786;3987961428;1110253034;600949091;890619606;130763826;405315538;0;0;0;0;0;0
4;65;1571202654774;1571202663912;9138;28702814374;3987977202;1111663860;599664217;890623062;130784700;405270078;4;0;48;0;1;4
4;66;1571202663912;1571202673062;9150;28739030696;3987963926;1111831838;600033633;890620160;130788977;405696827;21;12;5776;0;74;167
4;67;1571202673062;1571202682195;9133;28677711864;3987947722;1111511075;598658019;890616595;130773572;405948376;1;0;8;0;0;0
4;68;1571202682195;1571202691353;9158;28766848952;3987957863;1111202069;600123372;890618421;130780683;404811105;38;118;1264;0;10;253
4;69;1571202691353;1571202700509;9156;28763054996;3987963180;1111188967;600700177;890620024;130775074;405143180;41;14;5840;0;84;409
4;70;1571202700509;1571202709641;9132;28670974110;3987977177;1112835300;598661516;890623056;130791081;406360658;0;0;0;0;0;0
4;71;1571202709641;1571202718805;9164;28780527546;3987961441;1108561032;597126270;890619619;130795058;405473424;0;0;0;0;0;0
4;72;1571202718805;1571202727924;9119;28617851864;3987977614;1110956963;595584395;890623107;130784872;405699866;73;130;7296;0;103;632
4;73;1571202727924;1571202737038;9114;28457643290;3987949358;1110247916;590354224;890616934;130796594;404459215;0;0;0;0;0;0
4;74;1571202737038;1571202746159;9121;28649312674;3987961369;1112651508;596528506;890619547;130772497;405427382;0;0;0;0;0;0
4;75;1571202746160;1571202755369;9209;28957072790;3987964010;1110256349;596379971;890620232;130782038;405803753;79;125;7456;0;99;626
4;76;1571202755369;1571202764616;9247;29090397362;3987978040;1111030181;598933795;890623297;130767589;406050455;0;0;0;0;0;0
4;77;1571202764616;1571202773811;9195;28910839408;3987947748;1109377936;593899853;890616640;130778116;404958940;0;0;0;0;0;0
4;78;1571202773811;1571202783038;9227;29023216922;3987947473;1109070351;597489259;890616616;130765539;405247173;39;114;1256;0;83;705
