0;22;1571198202613;1571198211828;9215;28934381324;3986489495;1114049524;603572387;888250328;130217739;406074239;1015;4;2077968;48;9215;1309783
0;23;1571198211828;1571198220907;9079;28390437592;3986489236;1111675713;587401353;888250320;130258059;405650743;1031;28;1978656;-3;9079;1306741
0;24;1571198220907;1571198229779;8872;27760122158;3986490673;1109922418;569852707;888250423;130265194;403955251;991;35;1891248;7;8872;1276105
0;25;1571198229779;1571198238704;8925;27953935406;3986490646;1106236780;564681620;888250396;130275933;404932268;958;1;1956160;2;8925;1284934
0;26;1571198238704;1571198247149;8445;26243625852;3986504721;1102353851;516363138;888253251;130322598;402253117;937;3;1906456;-9;8445;1215524
0;27;1571198247149;1571198256120;8971;28008786146;3986484622;1109084740;577767382;888248812;130270418;404698543;1030;49;1915400;-8;8971;1048620
0;28;1571198256120;1571198265272;9152;28684625694;3986489107;1110076334;587019432;888250191;130223524;405228485;1009;2;2030080;15;9152;1308029
0;29;1571198265272;1571198282228;16956;28227684092;3986488959;1110145801;570847201;888250043;130240737;404414100;1878;7;3768872;10;16956;2434714
0;30;1571198282228;1571198290884;8656;27045400474;3986504404;1106495907;532142764;888253189;130293996;403472484;984;26;1863192;-24;8656;1240140
0;31;1571198290884;1571198299655;8771;27446426850;3986496315;1104869589;549662442;888251205;130310388;403071801;964;6;1911576;26;8771;1080377
0;32;1571198299655;1571198308922;9267;28998235154;3986474824;1112647901;602941863;888247461;130269348;406168912;1033;6;2059272;-8;9268;1327752
0;33;1571198308923;1571198317896;8973;28079796312;3986521018;1113595572;579141545;888257137;130259823;405259474;1047;35;1975688;2;8973;1293248
0;34;1571198317896;1571198326728;8832;27658423668;3986474795;1109820618;568883066;888246844;130268783;404098882;986;5;1955136;6;8833;1264646
0;35;1571198326729;1571198335349;8620;26906886624;3986489246;1107225781;542324684;888249824;130305892;403534217;942;6;1863504;-14;8620;1235654
0;36;1571198335349;1571198344015;8666;27060859246;3986481465;1107617305;552204871;888247828;130313031;403708669;974;7;1934864;-7;8666;1214100
0;37;1571198344015;1571198355658;11643;28598471532;3986475257;1110902950;590396786;888247306;130256413;405125145;1371;35;2541328;-2;11643;1669920
0;38;1571198355658;1571198364635;8977;27955045152;3986505714;1110082669;573801936;888254106;130300075;405032486;986;2;1940752;6;8977;1290737
0;39;1571198364635;1571198373544;8909;27818741158;3986520936;1108894317;562995822;888257055;130271101;404184832;1016;4;1999936;8;8909;1280199
0;40;1571198373544;1571198382229;8685;27167743364;3986514541;1105262128;536963047;888254984;130270101;403439057;1026;24;1894696;-3;8685;1245574
0;41;1571198382229;1571198390985;8756;27385959344;3986485751;1105067589;548184411;888248740;130300275;403240021;970;5;1896712;-10;8756;1115384
0;42;1571198390985;1571198404420;13435;28730945362;3986490867;1112021097;587302623;888250617;130263239;405620540;1520;6;2964648;16;13435;1928248
0;43;1571198404420;1571198413381;8961;28003450284;3986488986;1108316021;571328374;888250070;130276605;404162425;1078;22;1965080;-15;8961;1285503
0;44;1571198413381;1571198422221;8840;27666905246;3986490575;1106732827;554940219;888250325;130249422;403317630;996;2;1924480;-4;8840;1267826
0;45;1571198422221;1571198430808;8587;26832272594;3986514072;1104087356;526304518;888254842;130280204;402898351;977;5;1894616;15;8588;1233079
0;46;1571198430808;1571198439917;9109;28568889012;3986475376;1109199278;583494969;888247174;130259577;404190015;1059;4;2048232;-2;9108;1307769
0;47;1571198439917;1571198449046;9129;28659648014;3986489080;1111503721;584177499;888250161;130241087;404850708;1097;43;1975664;11;9130;1309772
0;48;1571198449047;1571198457934;8887;27752680246;3986475407;1107521834;562305763;888247205;130299038;404747314;1004;6;1953616;-12;8887;1275571
0;49;1571198457934;1571198466817;8883;27592462620;3986505229;1108276739;561983195;888253759;130323788;404011919;1033;7;1990368;-9;8884;1274658
0;50;1571198466818;1571198481075;14257;28291783932;3986481176;1110345471;573732870;888248066;130231524;404691785;1685;40;3070264;11;14257;2019230
0;51;1571198481075;1571198490392;9317;29255761050;3986481125;1112779544;604180618;888248294;130200827;406311095;1059;4;2038104;-2;9317;1337445
0;52;1571198490392;1571198499366;8974;28136595860;3986474932;1106607665;567338889;888246981;130272748;404616186;1055;11;2034408;1;8974;1287378
0;53;1571198499366;1571198508491;9125;27859463186;3986475104;1107574636;565477749;888247153;130324308;405089339;1095;34;1974048;-11;9125;1307331
0;54;1571198508491;1571198517478;8987;28128060116;3986475062;1108919773;570602707;888247111;130279296;404095794;1033;7;1970480;23;8987;1289166
0;55;1571198517478;1571198525912;8434;26175994710;3986474688;1101622642;514436508;888246737;130360231;402292554;997;9;1881872;-33;8434;1162776
0;56;1571198525912;1571198535218;9306;29082302392;3986489724;1112776270;607720732;888250789;130256596;406387789;1261;37;1801088;36;9307;1337821
0;57;1571198535219;1571198544127;8908;27922504818;3986488874;1111375729;570069798;888249958;130254924;404662916;1132;8;1784080;-14;8908;1280816
0;58;1571198544127;1571198562198;18071;27769651432;3986490967;1109822634;569264889;888250717;130295563;404357279;2104;12;3965720;8;18071;2592441
0;59;1571198562198;1571198570663;8465;26226241778;3986504641;1104155824;517910314;888253426;130340970;403429494;1120;36;1836136;-16;8466;1222762
0;60;1571198570664;1571198579791;9127;28426862986;3986475951;1110180460;589077108;888247749;130296119;404718750;1061;5;1976296;1;9127;1276097
0;61;1571198579791;1571198588929;9138;28577208530;3986489272;1111051992;588162054;888250356;130246314;406251027;1084;4;2008880;4;9138;1310560
0;62;1571198588929;1571198605638;16709;27682056542;3986489092;1107745183;564491724;888250176;130304409;404536133;2014;46;3652504;6;16709;2392630
0;63;1571198605638;1571198614200;8562;26707497052;3986504305;1107678483;534273188;888253090;130287292;403854703;991;4;1848448;1;8562;1229206
0;64;1571198614200;1571198622920;8720;27232990326;3986490451;1105324528;553149064;888250201;130286318;403699881;1063;5;1972352;-1;8720;1069769
0;65;1571198622920;1571198632247;9327;28934305258;3986490934;1108414482;595183225;888250684;130237216;405668516;1155;54;1979512;-2;9327;1348697
0;66;1571198632247;1571198641142;8895;27842658148;3986488885;1111954898;572328154;888249950;130285429;405481042;1079;4;1968072;9;8895;1275847
0;67;1571198641142;1571198650063;8921;27912509512;3986488892;1111747512;575282755;888249976;130289715;404863474;1061;6;1953600;-5;8921;1281429
0;68;1571198650063;1571198658788;8725;26919842080;3986474582;1105807181;541698646;888246631;130294447;403450888;1126;29;1931320;-21;8725;1252788
0;69;1571198658788;1571198667443;8655;27043755638;3986474933;1102046845;539164662;888246731;130291067;403484160;1033;6;1898528;23;8655;1241387
0;70;1571198667443;1571198679173;11730;28648292280;3986475634;1110680249;589564728;888247432;130272277;405002779;1405;11;2587056;3;11730;1681416
0;71;1571198679173;1571198688116;8943;27986639698;3986504758;1107901438;566254876;888253543;130280136;405354345;1134;33;1926184;-27;8943;1287147
1;23;1571199028804;1571199045012;16208;28282842600;3986043672;1106417886;587426400;888700497;130482629;404521350;1771;7;3614152;-2;16208;2315607
1;24;1571199045012;1571199054127;9115;28453696472;3986042388;1108472008;588247240;888700566;130612798;405345295;1026;31;1934200;-14;9116;1312282
1;25;1571199054128;1571199063059;8931;27979550230;3986028099;1099779328;568104134;888696991;130457130;403860861;962;3;1945616;-2;8932;1282343
1;26;1571199063060;1571199071995;8935;28054376398;3986043569;1099239577;567748826;888700413;130496678;403159455;1042;20;1989000;-10;8936;1279601
1;27;1571199071995;1571199086955;14960;27670198714;3986057497;1099259146;554256553;888703357;130500437;403419943;1621;3;3270280;15;14960;2074230
1;28;1571199086955;1571199096184;9229;28981643568;3986043985;1108107981;601806318;888699983;130464934;406023220;1010;3;2035536;14;9228;1326117
1;29;1571199096184;1571199105058;8874;27766211234;3986059734;1105694819;568020111;888703912;130481972;403798898;1029;28;1952720;-12;8874;1274226
1;30;1571199105058;1571199113930;8872;27638068786;3986059979;1103589397;563709477;888704157;130571855;403985740;977;3;1955184;-17;8873;1268230
1;31;1571199113930;1571199122788;8858;27664782698;3986043923;1100372173;557331345;888700512;130496018;402956758;979;0;1933504;13;8858;1270623
1;32;1571199122788;1571199131122;8334;25953852206;3986058907;1094180538;501958340;888702508;130546183;403827299;930;0;1858584;-142;8260;1094072
1;33;1571199131122;1571199140757;9635;29193175522;3986042156;1103643952;598934988;888700334;130445598;405785231;1144;42;2038600;140;9625;1265388
1;34;1571199140757;1571199149796;9039;28337190078;3986028526;1104159137;575216073;888697163;130505021;405538442;1010;2;1987384;16;9039;1297740
1;35;1571199149796;1571199167731;17935;27662680590;3986043489;1103893761;560940806;888700333;130522530;404152175;2100;29;3951632;-26;17935;2578605
1;36;1571199167731;1571199176047;8316;25881304076;3986027830;1101789010;511421994;888696467;130580560;403706669;934;2;1838928;-29;8316;1180606
1;37;1571199176047;1571199185168;9121;28581798478;3986028008;1109595550;596987911;888697151;130468336;405168815;1028;5;1999856;57;9121;1213051
1;38;1571199185168;1571199194280;9112;28539535274;3986042463;1111816737;593716098;888700390;130543715;406031644;1116;22;2017968;-9;9112;1313523
1;39;1571199194280;1571199203177;8897;27833938444;3986043532;1102988132;565722448;888700376;130502325;403954300;1027;7;1980520;-3;8897;1287234
1;40;1571199203177;1571199212059;8882;27814026964;3986054025;1100736746;562618918;888702244;130503558;403822955;991;5;1926712;1;8882;1271362
1;41;1571199212059;1571199220537;8478;26449341458;3986067601;1098118722;516088986;888704875;130516429;403425132;981;3;1893792;11;8478;1214224
1;42;1571199220537;1571199233605;13068;27980873866;3986028127;1101341413;568830613;888697000;130477780;403614941;1504;57;2804344;-29;13068;1737061
1;43;1571199233605;1571199242715;9110;28573306534;3986041968;1106570072;581332519;888700146;130441663;404855680;1028;5;1993280;28;9109;1309952
1;44;1571199242715;1571199251336;8621;26941919908;3986043264;1104434617;545270670;888700108;130544822;403287779;1010;4;1926032;-18;8622;1238124
1;45;1571199251337;1571199260315;8978;28085119764;3986053313;1105320526;581300587;888702173;130526259;403734595;1128;51;1955032;16;8978;1285092
1;46;1571199260315;1571199268643;8328;25922170790;3986027497;1094904166;505569226;888696385;130500346;403144358;936;6;1812872;-79;8328;1162153
1;47;1571199268643;1571199278275;9632;29031697040;3986028080;1105833802;599055002;888697223;130444867;405392638;1128;6;2126680;81;9632;1359606
1;48;1571199278275;1571199287395;9120;28648616400;3986049567;1103446749;584938696;888701535;130449732;403953145;1120;27;2002704;-24;9121;1311623
1;49;1571199287395;1571199296070;8675;27041144866;3986043390;1102692044;544213918;888700234;130550657;404097870;975;6;1860096;17;8675;1243709
1;50;1571199296070;1571199304502;8432;26280465302;3986059597;1094966606;514654947;888703520;130482457;402169259;984;4;1826912;-137;8432;1138266
1;51;1571199304502;1571199313722;9220;28952407068;3986028048;1103254764;597880260;888697191;130460609;404759223;1083;9;2044528;117;9155;1159876
1;52;1571199313722;1571199328888;15166;28295351004;3986044082;1101922248;574073922;888700559;130480890;404988781;1784;45;3231032;1;15166;2185419
1;53;1571199328888;1571199338227;9339;27972136934;3986027775;1103104448;563656634;888696918;130494443;404220473;1096;7;2064120;24;9339;1341280
1;54;1571199338227;1571199347247;9020;27949564312;3986028081;1104548899;561645326;888696973;130550945;404007850;1065;6;1982416;-3;9019;1298354
1;55;1571199347247;1571199355640;8393;26163484992;3986057364;1098287933;508303043;888702988;130515093;403266082;1012;29;1778600;-80;8394;1122084
1;56;1571199355640;1571199369119;13479;28842221598;3986028727;1110041791;603265092;888697600;130491631;406015843;1568;10;2916984;61;13479;1899435
1;57;1571199369119;1571199378369;9250;28728847050;3986043761;1103982284;590053969;888700605;130451382;403821747;1179;35;2037792;23;9250;1326518
1;58;1571199378369;1571199387249;8880;27825783176;3986027722;1102491732;561046941;888696865;130424485;403418479;1190;19;1698208;-3;8880;1280351
1;59;1571199387249;1571199395946;8697;27203411310;3986027876;1101256737;538909483;888696768;130516498;403813300;1131;11;1703912;4;8697;1249759
1;60;1571199395946;1571199404569;8623;26944807934;3986043568;1098734688;534489829;888700161;130471533;403344342;1025;12;1912160;-10;8623;1046398
1;61;1571199404569;1571199413795;9226;28904549290;3986043956;1106891418;596447070;888700800;130494709;404456866;1126;14;2068792;-4;9226;1321947
1;62;1571199413795;1571199422765;8970;28086355362;3986041836;1101670173;571526782;888700014;130472990;404576590;1072;55;1867376;-15;8970;1282784
1;63;1571199422766;1571199431597;8831;27605353544;3986043440;1099700460;557957925;888700284;130514867;403663016;1097;12;1893320;31;8832;1278440
1;64;1571199431597;1571199449917;18320;27994561658;3986058009;1102492097;569693408;888703633;130565700;404407601;2292;54;4022960;-78;18319;2642347
1;65;1571199449917;1571199459160;9243;28975209494;3986028483;1105181141;601121287;888697375;130494089;404398524;1091;14;1982504;60;9243;1309955
1;66;1571199459160;1571199468233;9073;28338672270;3986057973;1106787597;582088298;888703852;130526509;405619741;1116;9;2035704;4;9074;1304685
1;67;1571199468233;1571199477068;8835;27636097494;3986042439;1099329991;558196002;888700122;130556433;403937977;1108;34;1884720;-15;8835;1270048
1;68;1571199477068;1571199486005;8937;27657408092;3986043914;1099668178;558377485;888700391;130533877;403971830;1082;8;1932480;6;8937;1280850
1;69;1571199486006;1571199494432;8426;26277290824;3986043056;1098356604;511911358;888699900;130538204;403411904;1020;11;1824736;4;8427;1210826
1;70;1571199494433;1571199503377;8944;27986319812;3986044009;1104772466;574391121;888700486;130516028;404356782;1117;5;1985680;16;8944;1124515
1;71;1571199503377;1571199512547;9170;28770742772;3986044214;1105673056;595497656;888700691;130462485;405570794;1189;44;1996984;-26;9171;1312543
1;72;1571199512547;1571199528026;15479;27638361808;3986041714;1099969451;560879687;888699892;130528776;403298408;1872;13;3370448;16;15479;2216223
2;22;1571199881207;1571199890375;9168;28756596832;4045240695;1114279553;596026045;891983422;129889135;405627781;985;7;2015424;107;9069;1124598
2;23;1571199890375;1571199899564;9189;28732057882;4045238819;1113259197;593662388;891983187;129914439;406069999;1080;38;2042256;3;9189;1326701
2;24;1571199899564;1571199908815;9251;27886165126;4045238503;1110660966;565355149;891982872;129912446;406057101;991;6;2016984;1;9252;1325553
2;25;1571199908816;1571199918307;9491;27867144100;4045240490;1108108895;565152917;891983217;129915806;404316095;1124;26;2087472;0;9491;1359131
2;26;1571199918307;1571199926604;8297;25821104334;4045253886;1105610017;508281933;891985657;129943367;401836606;893;2;1803200;3;8298;1189824
2;27;1571199926604;1571199935786;9182;28806109082;4045225167;1112291993;594899265;891979990;129857287;405110120;987;2;1974768;-9;9181;1292202
2;28;1571199935786;1571199944772;8986;28153973656;4045248213;1108551036;569885113;891984493;129878236;405547341;1041;21;1939200;0;8986;1289338
2;29;1571199944772;1571199959781;15009;28113390182;4045240586;1111171866;573464871;891983313;129930278;404643847;1645;5;3290664;-11;15009;2163093
2;30;1571199959781;1571199968394;8613;26914915894;4045238033;1105380139;532366540;891982401;129909985;404074303;959;5;1917016;1;8613;1240450
2;31;1571199968394;1571199977233;8839;27644178740;4045240347;1105213987;559400560;891983074;129922639;403199771;1076;43;1952808;10;8839;1187359
2;32;1571199977233;1571199986510;9277;28930602844;4045239215;1116199149;601739811;891983583;129937683;407270981;1014;5;2000784;10;9277;1330205
2;33;1571199986510;1571199995390;8880;27660478910;4045234726;1112351386;564748936;891981657;129978395;404173853;986;5;1943216;7;8880;1276703
2;34;1571199995390;1571200004240;8850;27670900682;4045240344;1114369495;565992436;891983071;129891830;404432369;1011;4;1999552;-19;8850;1272137
2;35;1571200004240;1571200012979;8739;27310660574;4045224734;1112220169;553838384;891979560;129907031;404981437;1051;35;1891712;2;8739;1258740
2;36;1571200012979;1571200021530;8551;26681489196;4045256443;1108755554;535564383;891986408;129958836;403584594;934;7;1835928;-3;8551;1199346
2;37;1571200021530;1571200032149;10619;28797363244;4045240655;1112974546;594853220;891983382;129887106;405720335;1204;5;2369376;12;10619;1517234
2;38;1571200032149;1571200041172;9023;28268344362;4045240762;1110281014;574914329;891983324;129889603;404710685;1105;28;2001504;3;9023;1299323
2;39;1571200041172;1571200050047;8875;27785151814;4045234999;1107576040;560539256;891981486;129895365;404744695;986;4;1926392;6;8875;1266048
2;40;1571200050047;1571200058846;8799;27453355718;4045240487;1106979292;549999106;891983214;129954212;403752732;968;10;1886112;-8;8799;1262900
2;41;1571200058846;1571200067445;8599;26820016332;4045250543;1105291177;534372053;891984806;129937222;403343721;1000;6;1948320;-11;8599;1168052
2;42;1571200067445;1571200078682;11237;28729125180;4045240680;1116935557;596737227;891983407;129851617;405039262;1355;53;2395552;7;11237;1612695
2;43;1571200078682;1571200087599;8917;27926982200;4045238347;1114478845;574750400;891982715;129888281;405307192;1007;5;1943064;-15;8917;1278888
2;44;1571200087599;1571200096459;8860;27706017916;4045240351;1113776312;567037916;891983078;129914003;404030187;1036;8;1989392;20;8860;1273834
2;45;1571200096459;1571200105103;8644;26976136906;4045264188;1108691680;537090792;891987744;129916781;404410971;1079;30;1898576;6;8644;1243427
2;46;1571200105103;1571200113731;8628;26929515602;4045224610;1104795991;540758506;891979433;129927562;402347162;987;4;1881336;-2;8628;1138475
2;47;1571200113731;1571200123020;9289;29161516444;4045224951;1114521299;603945773;891980026;129872202;405012334;1085;9;2060160;3;9289;1328272
2;48;1571200123020;1571200131994;8974;28105064678;4045254258;1115449154;579807212;891986259;129933495;405471131;1117;25;1981008;-20;8974;1291225
2;49;1571200131994;1571200140920;8926;27864220742;4045240709;1111667831;568484945;891983436;129935044;404707371;1031;6;1937936;-7;8926;1281538
2;50;1571200140920;1571200157109;16189;27471998312;4045240818;1111607385;557352379;891983545;129949922;405103542;1906;16;3601832;-77;16189;2297179
2;51;1571200157109;1571200166488;9379;29484970538;4045240854;1117209575;609739809;891983581;129838038;406344478;1187;47;1977688;74;9379;1285397
2;52;1571200166488;1571200175655;9167;28765088192;4045238582;1111599541;590045014;891982950;129883681;405861250;1065;10;2012600;23;9167;1315418
2;53;1571200175655;1571200184522;8867;27700853458;4045238720;1107178203;560697852;891982839;129948753;404544028;1040;6;1956968;-16;8867;1266980
2;54;1571200184522;1571200193517;8995;28022881424;4045225403;1113310047;575147806;891980214;129970543;404844289;1086;45;1975144;21;8995;1295567
2;55;1571200193517;1571200201924;8407;26065573888;4045254216;1107304465;514856509;891985987;130001917;403074714;974;7;1820224;-14;8408;1205802
2;56;1571200201925;1571200210923;8998;28186632834;4045224986;1110271322;576083385;891979809;129893006;404560806;1056;10;1946712;8;8998;1191917
2;57;1571200210923;1571200220148;9225;28830856958;4045239228;1114651342;597160559;891983344;129921895;405913900;1138;7;2106552;-18;9225;1324143
2;58;1571200220148;1571200236925;16777;27849611690;4045238619;1111500053;568537147;891982987;129968062;404858262;2170;52;3400632;16;16777;2411773
2;59;1571200236925;1571200245585;8660;27048571156;4045254073;1106539779;537039155;891986093;129952268;402976187;1327;82;1515408;-7;8660;1258784
2;60;1571200245585;1571200254293;8708;27205952586;4045230790;1103777031;546571715;891980514;129883537;402841832;1101;7;1897872;7;8708;1251100
2;61;1571200254293;1571200263298;9005;28248093578;4045224978;1108866928;576095214;891979801;129882576;405338660;1061;6;1957168;-3;9005;1295517
2;62;1571200263298;1571200281409;18111;28474011204;4045257004;1114740283;585904936;891987218;129913777;405537543;2289;57;3898688;-7;18111;2616971
2;63;1571200281409;1571200290378;8969;27995671258;4045225151;1109868294;567117496;891979974;129901855;404348786;1079;11;1968408;17;8969;1283218
2;64;1571200290378;1571200299000;8622;26905352894;4045224343;1108156458;544574273;891979415;129950446;401962692;1154;66;1882896;2;8622;1114507
2;65;1571200299000;1571200308241;9241;29015686096;4045238670;1118168237;604705981;891983035;129877817;405659507;1115;9;2019752;-27;9241;1322957
2;66;1571200308241;1571200317151;8910;27945606836;4045238377;1114142693;574672423;891982745;129878685;404934126;1070;10;1941504;18;8911;1275469
2;67;1571200317152;1571200326044;8892;27813578160;4045241953;1113058887;571005493;891983424;129900408;404175905;1104;10;1982928;-16;8892;1279506
2;68;1571200326044;1571200334839;8795;27510203154;4045254717;1113420727;561177577;891986236;129917799;405075268;1158;27;1945776;16;8795;1263958
2;69;1571200334839;1571200343151;8312;25861145564;4045236668;1105922571;511083620;891981169;129962450;403017583;1002;8;1797600;-45;8312;1166977
2;70;1571200343151;1571200356768;13617;29001644984;4045241115;1116039289;606563141;891983677;129918880;405316736;1658;12;3014688;42;13617;1944825
2;71;1571200356768;1571200365623;8855;27485304898;4045240696;1111243319;557691864;891983423;129999466;405141399;1162;34;1920800;-17;8855;1271875
3;22;1571200718204;1571200727464;9260;28997626042;3985986454;1110533322;598715420;888655346;130490791;404318964;1020;3;2061920;150;9253;1184674
3;23;1571200727464;1571200736650;9186;28721822844;3985999978;1113154640;592698513;888658156;130508541;406592982;1077;23;2031248;-3;9186;1318125
3;24;1571200736650;1571200745555;8905;27897244482;3985999588;1106034922;561894087;888657766;130530027;404862402;967;3;1928408;-7;8905;1276912
3;25;1571200745555;1571200754404;8849;27674705880;3986001308;1105801296;558715939;888658133;130557188;404630121;1031;25;1940568;-1;8849;1269906
3;26;1571200754404;1571200762828;8424;26225076990;3986015212;1102003414;513813367;888660836;130557449;403003254;938;3;1848024;-10;8424;1208743
3;27;1571200762828;1571200771748;8920;27900039652;3985985898;1104917185;567468641;888654790;130512747;404120102;971;6;1919400;4;8920;1241701
3;28;1571200771748;1571200780819;9071;28433597528;3986009610;1110884855;583284570;888659673;130530534;405482237;1014;3;2014592;10;9071;1305142
3;29;1571200780819;1571200798382;17563;27786237324;3985985856;1106070011;558282459;888654748;130529110;403743497;2047;32;3817896;7;17563;2520504
3;30;1571200798382;1571200807686;9304;26498813850;3985999215;1102038719;521155540;888657393;130569464;404476955;1046;5;2059224;-22;9304;1336377
3;31;1571200807686;1571200816537;8851;27714647392;3985985833;1102827568;560072560;888654725;130538921;404362496;1085;43;1940000;7;8851;1163553
3;32;1571200816537;1571200825786;9249;28709850698;3986009531;1108606410;589171119;888659748;130539847;404526629;1024;3;1987168;1;9249;1329433
3;33;1571200825786;1571200834803;9017;27607386886;3986001276;1108298647;560293966;888658120;130554725;404412206;1029;5;1986944;-5;9017;1295956
3;34;1571200834803;1571200843731;8928;27974973422;3985986003;1112620946;575709774;888654895;130550710;404875159;1017;2;1970728;7;8929;1285581
3;35;1571200843732;1571200852308;8576;26770799002;3986016125;1104489150;530069403;888661131;130542708;403700030;1084;33;1933528;-6;8576;1234602
3;36;1571200852308;1571200861034;8726;27240066362;3985985518;1101763560;548230619;888654661;130598885;402645287;970;8;1873424;-2;8727;1233172
3;37;1571200861034;1571200873745;12711;28407404544;3986015547;1107736460;579400562;888661407;130527729;404184448;1491;9;2843656;13;12710;1828253
3;38;1571200873745;1571200882601;8856;27690537828;3985985830;1106281455;560073652;888654722;130517831;404496142;1080;28;1911864;-9;8856;1272647
3;39;1571200882601;1571200891434;8833;27506583668;3986026363;1107947981;558084413;888663433;130600501;404519826;992;4;1883584;0;8834;1266950
3;40;1571200891435;1571200899919;8484;26454960998;3986001739;1107183285;523806613;888657200;130604845;403598464;988;7;1869216;4;8484;1217604
3;41;1571200899919;1571200915004;15085;27793348984;3985999596;1110211449;574377931;888657755;130567778;404821591;1829;45;3290864;-1;15085;2098228
3;42;1571200915004;1571200924481;9477;27818959428;3985985555;1107253717;567168646;888654698;130548790;403914545;1126;6;2104696;-6;9477;1356381
3;43;1571200924481;1571200933390;8909;27632597728;3986001263;1105821646;556913819;888658107;130558838;403417864;1038;7;1947912;18;8909;1279169
3;44;1571200933390;1571200942090;8700;27198633898;3985985381;1109332243;548442685;888654524;130566921;404450331;1119;22;1928792;-9;8701;1251611
3;45;1571200942090;1571200950467;8377;26098788596;3986017628;1104150256;520749743;888660604;130570161;401920898;950;6;1780392;-40;8298;994893
3;46;1571200950467;1571200959625;9158;28720260206;3985986148;1113861804;596300408;888655040;130501209;405060625;1089;10;2017360;42;9158;1295844
3;47;1571200959625;1571200968771;9146;28691213506;3986031837;1111227156;584736856;888665031;130494406;404700558;1141;29;1987280;-11;9147;1315275
3;48;1571200968771;1571200977573;8802;27530830618;3985985796;1112093308;558369572;888654688;130555921;404846717;1044;10;1937560;12;8802;1265074
3;49;1571200977573;1571200994357;16784;27713730804;3985985847;1111164949;564423910;888654735;130527019;404007082;1984;13;3694976;-110;16783;2358171
3;50;1571200994357;1571201003586;9229;28955327360;3985986369;1112733279;601585079;888655261;130489029;404042449;1198;40;1947824;101;9229;1231723
3;51;1571201003586;1571201012678;9092;28519415306;3985999779;1113227187;590269712;888657957;130485936;405987434;1079;7;1988496;11;9092;1305178
3;52;1571201012678;1571201021649;8971;28113827160;3986001414;1109515933;568944613;888658258;130525909;403132029;1078;12;1985976;10;8971;1279547
3;53;1571201021649;1571201030471;8822;27602524794;3986001274;1109626166;564464398;888658118;130521018;403795763;1099;45;1894160;-25;8822;1271515
3;54;1571201030471;1571201038929;8458;26326681456;3986015376;1101340442;517033344;888661000;130581358;402200019;1058;9;1938944;-2;8458;1205236
3;55;1571201038929;1571201047859;8930;27939640546;3985985907;1106470769;571326135;888654799;130547886;403760195;1078;7;1931808;6;8931;1262007
3;56;1571201047860;1571201056986;9126;28429013128;3986001155;1114605250;586615530;888659082;130574657;404971669;1391;39;1586096;-5;9126;1336968
3;57;1571201056986;1571201074027;17041;27636271526;3986001268;1107261855;557678851;888658112;130551712;404164408;2068;15;3737624;12;17041;2443909
3;58;1571201074027;1571201082589;8562;26694215724;3985999248;1107260083;531630464;888657426;130655247;403505480;1120;48;1858840;-11;8563;1227828
3;59;1571201082589;1571201091201;8612;26851063962;3985985651;1106305621;543678251;888654543;130561604;403216712;1051;5;1882040;8;8611;1077979
3;60;1571201091201;1571201100481;9280;29143526324;3986001781;1112070190;602519089;888658625;130515443;404665993;1194;14;2007056;-1;9280;1338801
3;61;1571201100481;1571201109776;9295;28062278940;3985999644;1108030737;569905658;888657822;130495767;405778002;1156;14;2067968;-4;9296;1332858
3;62;1571201109776;1571201118617;8841;27676904494;3985985838;1109291320;563049733;888654730;130527883;403600447;1154;49;1916080;26;8840;1262141
3;63;1571201118617;1571201127339;8722;27283999368;3986001178;1110826355;552398567;888658022;130533374;404378837;1039;8;1863648;-15;8722;1252560
3;64;1571201127339;1571201135860;8521;26576992032;3986007611;1107274323;535313564;888658949;130589260;403258241;1062;9;1885384;3;8521;1153054
3;65;1571201135860;1571201147637;11777;28934703400;3986002094;1110764165;597536501;888658571;130482491;404979674;1528;50;2598064;-1;11778;1699082
3;66;1571201147637;1571201156539;8902;27860511174;3986015708;1111353511;571000370;888661332;130555320;404371124;1086;7;1932816;2;8902;1277196
3;67;1571201156539;1571201165430;8891;27868547890;3985985555;1105600587;561043374;888654702;130543482;403390663;1113;8;1957696;7;8890;1277368
3;68;1571201165430;1571201174105;8675;27115531428;3985985677;1106256184;542472986;888654569;130529260;403918606;1117;42;1882328;3;8675;1249487
3;69;1571201174105;1571201182673;8568;26758163578;3985985233;1102782833;530024726;888654376;130563675;402850124;1061;6;1858584;-15;8482;1021850
3;70;1571201182673;1571201192865;10192;29014177332;3985992071;1114023982;605305478;888656385;130503122;405415068;1257;9;2227976;-9;10192;1460928
3;71;1571201192865;1571201202409;9544;28090631848;3985985709;1108281968;573172172;888654852;130537416;404602179;1205;12;2127400;11;9544;1370301
4;23;1571201549683;1571201567377;17694;28643629916;4043281193;1107451225;588330157;890036091;130316745;404957005;1985;45;3897248;17;17694;2429549
4;24;1571201567377;1571201576579;9202;28907863782;4043281078;1106540277;587782890;890035976;130268860;405831154;976;4;1990368;-16;9202;1325186
4;25;1571201576579;1571201585566;8987;28175973520;4043310294;1102088979;568214537;890042296;130321850;403359592;982;2;1994888;10;8986;1286238
4;26;1571201585566;1571201594392;8826;27591426896;4043280719;1106951873;559252420;890035617;130334026;403393833;1014;25;1932800;13;8826;1266455
4;27;1571201594392;1571201610754;16362;27497260254;4043320377;1103719557;554924032;890043922;130315716;403962074;1750;7;3526408;-12;16273;2109965
4;28;1571201610754;1571201620077;9323;29321694650;4043287273;1111331610;604672093;890037083;130255341;404936611;1056;3;2123736;0;9323;1333640
4;29;1571201620077;1571201629190;9113;28582364812;4043297065;1107990545;581846305;890039479;130282219;404769929;1055;24;1976240;13;9113;1303688
4;30;1571201629190;1571201638038;8848;27683297980;4043312277;1104134455;559753306;890042595;130286689;403272922;976;5;1940424;-16;8847;1270052
4;31;1571201638038;1571201646834;8796;27534955410;4043280678;1101870836;551413530;890035576;130331112;403749751;960;4;1919752;0;8797;1264069
4;32;1571201646834;1571201655283;8449;26338102744;4043289590;1097099074;519122328;890036882;130364903;401065709;1031;40;1855432;-3;8448;1128019
4;33;1571201655283;1571201664502;9219;28945495866;4043296614;1112112500;605457359;890039416;130309151;404779425;1008;4;1993496;16;9219;1318315
4;34;1571201664502;1571201673470;8968;28075121246;4043280859;1107755916;572411888;890035757;130293050;404982249;979;1;1937696;-17;8968;1286734
4;35;1571201673470;1571201690558;17088;27464266444;4043280468;1107496694;560058310;890035618;130320726;403955198;2018;27;3807032;22;17088;2451329
4;36;1571201690558;1571201698943;8385;26017192700;4043280525;1100116360;508458375;890035427;130375230;402409306;933;2;1824680;-24;8386;1205047
4;37;1571201698943;1571201708013;9070;28397977470;4043294378;1104927492;582333041;890038864;130304212;404664669;1024;1;2009016;-2;9070;1093392
4;38;1571201708013;1571201717138;9125;28602101676;4043294735;1111292252;593218612;890038969;130265412;405652623;1118;24;1996688;8;9124;1314351
4;39;1571201717138;1571201725985;8847;27647919552;4043296216;1105015747;559821474;890039018;130334326;404058971;1007;6;1947168;17;8848;1269571
4;40;1571201725985;1571201734900;8915;27478898418;4043306830;1102048842;552484320;890041027;130341641;403275315;979;2;1920728;-19;8915;1282041
4;41;1571201734900;1571201743425;8525;26633112096;4043320052;1100023530;523155686;890043636;130335087;403883638;995;4;1925496;-3;8525;1223189
4;42;1571201743426;1571201757004;13578;27938438966;4043281121;1105610179;571821874;890036019;130391619;403686170;1659;53;2926872;3;13579;1837056
4;43;1571201757004;1571201766054;9050;28260249976;4043294651;1110031287;579166855;890039137;130329683;404623259;1035;2;1990216;21;9050;1300798
4;44;1571201766054;1571201774867;8813;27551170754;4043296187;1102231637;553170197;890038989;130349583;404033240;1027;5;1960912;-3;8813;1265900
4;45;1571201774867;1571201783749;8882;27808804106;4043309982;1103302453;560130448;890042120;130306900;404437100;1098;19;1931880;-16;8882;1276293
4;46;1571201783749;1571201792146;8397;26168989922;4043280285;1096979749;508633790;890035183;130300869;403461558;950;3;1830304;-58;8396;1124636
4;47;1571201792146;1571201801580;9434;29020957864;4043296631;1107469750;598652914;890039422;130260705;405036704;1089;6;2076936;49;9435;1316813
4;48;1571201801580;1571201810655;9075;28390218592;4043294461;1106701775;579391780;890038928;130291390;405332527;1133;28;1992720;13;9075;1310020
4;49;1571201810655;1571201819502;8847;27617344670;4043296318;1104508740;556020050;890039120;130337041;403134603;1007;7;1916312;17;8847;1266494
4;50;1571201819502;1571201828409;8907;27825267504;4043296280;1103379937;560844340;890039082;130320419;403569993;1031;2;1957696;-7;8907;1282465
4;51;1571201828409;1571201844354;15945;28370223308;4043296766;1108701373;584003458;890039568;130351319;404130297;1968;47;3484680;-17;15945;2220324
4;52;1571201844354;1571201853605;9251;28912900782;4043294885;1110389680;599072566;890039371;130332440;405115404;1080;6;2043584;8;9251;1329991
4;53;1571201853605;1571201862434;8829;27616451150;4043309922;1102874533;555226521;890042060;130325321;403335628;1018;6;1921128;6;8829;1264534
4;54;1571201862435;1571201871280;8845;27662812720;4043296258;1108019204;564858482;890039060;130315355;404340211;1157;21;1935600;-11;8845;1274632
4;55;1571201871280;1571201886870;15590;27707189274;4043310002;1105002784;558310526;890042140;130317373;404092626;1850;13;3434432;11;15591;2222110
4;56;1571201886870;1571201896198;9328;29162656704;4043287895;1111095908;604434098;890037670;130323271;406389153;1405;39;1734744;7;9327;1396588
4;57;1571201896198;1571201905012;8814;27413436252;4043312700;1107377316;557313731;890043018;130359315;403830946;1079;11;1835528;-18;8814;1267262
4;58;1571201905012;1571201913883;8871;27753252128;4043312293;1105621867;563154555;890042611;130302664;403705902;1058;10;1975440;-2;8871;1274083
4;59;1571201913883;1571201922801;8918;27967728756;4043296322;1106138496;563516737;890039124;130297131;404033126;1122;9;1949616;5;8919;1282361
4;60;1571201922801;1571201931203;8402;26197499342;4043280292;1098330299;506294082;890035190;130377402;402527449;1144;31;1777072;-84;8401;1192013
4;61;1571201931203;1571201940424;9221;28598052950;4043280968;1110272812;589429198;890036118;130301569;405005191;1070;13;1974760;71;9222;1272608
4;62;1571201940424;1571201949583;9159;28648284542;4043281210;1107289742;589649454;890036108;130328451;404550953;1113;10;2039560;8;9159;1314976
4;63;1571201949583;1571201964302;14719;28430633436;4043296544;1108577781;577260197;890039346;130277550;404489261;1868;36;3158960;4;14719;2119215
4;64;1571201964303;1571201972929;8626;26874995114;4043294141;1101744939;529790164;890038627;130374736;403387416;1029;8;1865192;-5;8627;1238730
4;65;1571201972929;1571201981731;8802;27547154148;4043296180;1099521030;556634127;890038982;130335259;402520310;1062;7;1938960;13;8802;1197883
4;66;1571201981732;1571201990941;9209;28851359300;4043296730;1111997511;598551640;890039532;130295485;404772847;1207;42;2047088;-7;9210;1323950
4;67;1571201990941;1571201999905;8964;28081708620;4043296345;1107400164;574736266;890039147;130310706;404287817;1068;7;1944592;-12;8963;1284916
4;68;1571201999905;1571202008796;8891;27839757128;4043280799;1107783622;568341979;890035697;130323919;403713544;1093;6;1985280;27;8891;1273623
4;69;1571202008796;1571202017513;8717;27285193648;4043296322;1100706629;540162959;890038987;130341858;404467264;1075;5;1928416;-19;8718;1253525
4;70;1571202017513;1571202026146;8633;26920336874;4043296110;1098606510;537748468;890038912;130343994;402875412;1091;36;1853800;-5;8633;1154989
4;71;1571202026146;1571202037477;11331;28819567946;4043286763;1107143134;588345291;890036865;130296841;405232954;1397;12;2499728;11;11331;1624052
4;72;1571202037477;1571202046343;8866;27757525694;4043296776;1103096865;559036681;890039194;130313822;404216458;1100;8;1973920;-12;8866;1268569
