0;53;1571232010881;1571232017477;6596;22669866906;67507851382;2665424154;745298;2813896207;316976;1406717945;3032;89;534912;-14;3440;14451
0;54;1571232017477;1571232024365;6888;22674731480;67507850623;2635689386;999993;2813895448;312346;1406802787;3221;21;544336;0;2656;8363
0;55;1571232024365;1571232031052;6687;22674562266;67507850598;2634471181;1045537;2813895423;319768;1406771418;3119;17;526848;5;2493;7756
0;56;1571232031052;1571232037781;6729;22687896154;67507853233;2733381534;1047498;2813898058;313750;1406702281;3157;12;532392;-5;1399;3162
0;57;1571232037781;1571232048699;10918;22714898708;67507866949;2749950609;5930802;2813903297;314215;1406874491;5108;345;894472;0;4319;31702
0;58;1571232048699;1571232060633;11934;22704784850;67507866186;2681326665;6358305;2813902874;319527;1406872962;5633;16;948712;1;4404;13966
0;59;1571232060633;1571232067204;6571;22696225454;67507853184;2735862575;1075240;2813898009;316814;1406604918;3083;3;518448;-1;1880;5626
0;60;1571232067204;1571232073733;6529;22683927582;67507853474;2726171218;731847;2813898299;321834;1406982480;3009;333;540584;0;2203;25959
0;61;1571232073733;1571232080262;6529;22690213174;67507853520;2740170125;804304;2813898345;320015;1406730103;3026;52;517104;0;2886;9467
0;62;1571232080262;1571232086795;6533;22698517362;67507853573;2717661121;984530;2813898398;310550;1406829944;3057;24;517288;0;2389;7158
0;63;1571232086795;1571232093324;6529;22683791802;67507853580;2738820396;813166;2813898405;319856;1406951074;3075;0;516600;0;2314;7244
0;64;1571232093324;1571232099854;6530;22679641314;67507853633;2741294293;773883;2813898458;323254;1406909832;3053;24;516256;0;1286;2816
0;65;1571232099854;1571232107111;7257;22686855758;67507864252;2740912530;1777011;2813900564;325108;1406897891;3349;386;599856;0;2907;38303
0;66;1571232107111;1571232113629;6518;22696169098;67507850612;2748509181;935834;2813895437;325002;1406951228;3060;7;515256;0;2857;9303
0;67;1571232113629;1571232120321;6692;22692573118;67507850605;2742613611;1045502;2813895430;310259;1406782894;3140;16;529728;0;2313;6765
0;68;1571232120321;1571232126819;6498;22711977102;67507850607;2729365014;1125444;2813895432;321388;1406925956;3049;9;513744;1;1984;5854
0;69;1571232126819;1571232133312;6493;22693167922;67507850599;2749868371;849535;2813895424;324054;1406918679;3056;4;513456;-1;1579;4123
0;70;1571232133312;1571232139806;6494;22696902164;67507850612;2758355015;869485;2813895437;324892;1406893222;3048;329;539288;0;3242;31655
0;71;1571232139807;1571232146301;6494;22698631242;67507850601;2753236139;940869;2813895426;324297;1406929833;3039;18;513576;1;2503;7949
0;72;1571232146301;1571232152794;6493;22694328914;67507850602;2757150572;879715;2813895427;319486;1406856063;3036;23;513592;0;2388;8311
0;73;1571232152794;1571232159287;6493;22693239462;67507850607;2746976142;892486;2813895432;317497;1406916780;3050;3;512904;-1;1595;4272
0;74;1571232159287;1571232165779;6492;22693694398;67507850601;2755559840;853863;2813895426;308129;1406942124;2910;445;536440;1;2068;34682
0;75;1571232165779;1571232172274;6495;22699142826;67507850603;2744177942;944435;2813895428;319245;1406866744;3020;34;513072;5;2882;9886
0;76;1571232172274;1571232178864;6590;22683724788;67507850606;2682339039;918772;2813895431;322209;1406731926;3052;58;521912;-3;2570;8843
0;77;1571232178864;1571232185574;6710;22680591044;67507850613;2653408305;1277585;2813895438;323328;1406789831;2649;860;550992;3;3727;67835
0;78;1571232185574;1571232192182;6608;22691701936;67507851740;2731421371;1027350;2813896565;332583;1406723956;1993;1433;558008;-3;4947;47983
0;79;1571232192183;1571232198911;6728;22685861352;67507853585;2735721519;966940;2813898410;320075;1406822576;3165;10;532624;0;2487;7975
0;80;1571232198912;1571232205540;6628;22679256020;67507853623;2744603195;854342;2813898448;306513;1406649204;3122;0;524496;-3;1654;4219
0;81;1571232205540;1571232212071;6531;22683701866;67507853661;2727979417;864829;2813898486;308765;1406650185;3071;0;515608;0;991;1937
0;82;1571232212071;1571232218601;6530;22689850656;67507853540;2751653954;761874;2813898365;322421;1406955929;3086;335;538104;0;2422;41192
0;83;1571232218601;1571232225226;6625;22685593296;67507853492;2743645961;868200;2813898317;321945;1406912288;3092;103;524304;2;3169;21747
0;84;1571232225226;1571232231756;6530;22685375756;67507853583;2756710571;797701;2813898408;321820;1406688359;3069;5;516432;3;2275;7055
0;85;1571232231756;1571232238290;6534;22698836226;67507853600;2688979288;1073155;2813898425;319114;1406868385;3075;6;517608;-5;2242;6829
0;86;1571232238290;1571232244822;6532;22689823500;67507853619;2723974742;875866;2813898444;321954;1406881703;3064;3;514936;8;1588;4195
0;87;1571232244822;1571232251350;6528;22690150540;67507853438;2738426360;853618;2813898263;324816;1406991385;3019;373;543352;-8;3279;39089
0;88;1571232251351;1571232257977;6626;22683333800;67507853580;2754002727;804299;2813898405;320473;1406802507;3119;6;524376;1;2779;9176
0;89;1571232257977;1571232264704;6727;22678587924;67507853590;2729034249;748622;2813898415;319888;1406532591;3168;2;532560;-1;2551;8785
0;90;1571232264704;1571232271233;6529;22685367142;67507853602;2729679838;876093;2813898427;306872;1406752711;3061;15;516456;0;1899;5815
0;91;1571232271234;1571232277896;6662;22667798378;67507853445;2737019307;617854;2813898270;315428;1406909914;2981;408;549984;0;1893;20088
0;92;1571232277896;1571232284423;6527;22682750822;67507853560;2749575578;848197;2813898385;307751;1406704287;3055;23;517104;0;2808;9623
0;93;1571232284423;1571232290949;6526;22670002832;67507853582;2738621032;530895;2813898407;323663;1406684304;3047;11;513120;0;2435;7567
0;94;1571232290949;1571232297478;6529;22681891904;67507853576;2743270396;816718;2813898401;323242;1406831492;3061;9;515760;0;2282;6944
0;95;1571232297478;1571232304005;6527;22671956312;67507853596;2731840560;583301;2813898421;311258;1406843625;3066;10;516448;0;1752;4959
0;96;1571232304005;1571232310537;6532;22686913574;67507853522;2743252608;855284;2813898347;298628;1406755814;3080;235;537744;0;2163;13090
0;97;1571232310537;1571232317055;6518;22677100038;67507852942;2716357062;804140;2813897767;325428;1406946773;3061;10;515312;1;2938;10301
0;98;1571232317055;1571232323584;6529;22685351374;67507853323;2746038303;829212;2813898148;308534;1406802332;3067;8;516464;-1;2301;7152
0;99;1571232323584;1571232330215;6631;22688298968;67507853626;2746876853;843124;2813898451;317971;1406692214;3124;1;525000;0;2091;5740
0;100;1571232330215;1571232336744;6529;22677720976;67507853632;2742426859;812664;2813898457;302490;1406655529;3066;7;515944;0;1129;2564
0;101;1571232336744;1571232343340;6596;22671397862;67507851108;2643608524;895987;2813895933;318823;1406787616;3037;339;543840;8;3074;30183
0;102;1571232343340;1571232356308;12968;22704660166;67507870810;2681747463;6778483;2813903998;319616;1406480638;6135;29;1034768;-8;4849;15820
1;53;1571232831391;1571232837881;6490;22684272726;67507850598;2636509005;970770;2813895423;322733;1407051436;3059;11;514816;1;2493;7903
1;54;1571232837881;1571232844370;6489;22675740924;67507850595;2638072489;880988;2813895420;316314;1406890484;3063;0;514584;-1;2285;7201
1;55;1571232844370;1571232850860;6490;22679170756;67507850597;2628887482;924476;2813895422;312413;1406786093;3059;4;514584;0;1830;4890
1;56;1571232850860;1571232857349;6489;22676499248;67507850596;2633894935;895728;2813895421;297127;1407056083;3053;314;538888;0;2493;37876
1;57;1571232857349;1571232863841;6492;22688320722;67507850598;2604486368;1107234;2813895423;296472;1406929452;3047;15;514416;2;2906;10718
1;58;1571232863842;1571232873798;9956;22709100756;67507864640;2677924755;5476186;2813900979;307523;1407063164;4694;31;792584;-2;3769;12042
1;59;1571232873798;1571232881206;7408;22694324680;67507861009;2748609331;1946498;2813897853;314084;1406844526;3494;0;586992;0;1796;4542
1;60;1571232881207;1571232888589;7382;22679027530;67507851957;2748225325;1119440;2813896782;311644;1406952334;3484;292;609984;6;2337;33263
1;61;1571232888589;1571232895796;7207;22680328390;67507851917;2702392295;1041933;2813896742;305420;1406861185;3395;20;573720;-6;3175;11134
1;62;1571232895796;1571232902286;6490;22679172216;67507850607;2640652470;879050;2813895432;297643;1406991688;3048;25;515320;0;2232;6705
1;63;1571232902286;1571232908778;6492;22687215502;67507850605;2620490997;1061936;2813895430;296804;1406910522;3058;7;514920;0;2098;5997
1;64;1571232908778;1571232915269;6491;22683213788;67507850599;2626055068;1004219;2813895424;324186;1407046453;3058;1;513912;1;1580;3925
1;65;1571232915269;1571232927185;11916;22713128458;67507865967;2660464157;6582782;2813902315;316969;1406940453;5585;370;975256;-1;5445;37197
1;66;1571232927185;1571232933978;6793;22691237510;67507850618;2677642415;1127625;2813895443;304129;1406693677;3186;27;538840;0;2392;7457
1;67;1571232933979;1571232940466;6487;22667040346;67507850595;2624201211;673585;2813895420;297651;1406855643;3047;14;514248;0;1852;4548
1;68;1571232940466;1571232946959;6493;22691324380;67507850601;2618182085;1132968;2813895426;320894;1407019084;3047;265;520480;10;1139;20323
1;69;1571232946959;1571232953448;6489;22671754832;67507850595;2612876880;791666;2813895420;311444;1406588953;2871;218;532744;-10;3374;17398
1;70;1571232953448;1571232962918;9470;22702512360;67507863908;2677960309;4578530;2813900592;305912;1406931566;4483;4;753192;10;3348;9949
1;71;1571232962918;1571232969541;6623;22671216238;67507851189;2649472825;788822;2813896014;301580;1406711704;3122;12;526512;-7;2302;7327
1;72;1571232969541;1571232976030;6489;22679976238;67507850597;2637001731;942169;2813895422;297670;1407023377;3052;9;513928;1;1646;4310
1;73;1571232976030;1571232982519;6489;22679067388;67507850597;2657911054;814444;2813895422;296854;1407025396;2909;437;540664;-4;3335;27606
1;74;1571232982519;1571232989007;6488;22675091662;67507850594;2630259751;890514;2813895419;296655;1407039580;3063;0;514584;0;2608;8243
1;75;1571232989007;1571232995498;6491;22683096550;67507850601;2635524076;973970;2813895426;296589;1406995348;3058;8;514304;7;2269;6942
1;76;1571232995498;1571233001988;6490;22677988740;67507850596;2632973317;868625;2813895421;297208;1406766258;3048;4;512736;-7;1980;5719
1;77;1571233001988;1571233008477;6489;22678423966;67507850596;2641751682;793062;2813895421;298164;1407090969;3058;266;519016;11;1232;21981
1;78;1571233008477;1571233014966;6489;22679514732;67507850597;2626131869;956201;2813895422;296434;1406944699;2987;93;533232;-9;3345;14443
1;79;1571233014966;1571233021452;6486;22667985696;67507850594;2636763998;641525;2813895419;305686;1406837540;3020;45;513808;-2;2615;8244
1;80;1571233021452;1571233027942;6490;22676668316;67507850594;2632994057;896525;2813895419;297696;1406681509;3062;1;514584;1;2261;6875
1;81;1571233027942;1571233034427;6485;22668793952;67507850593;2618706095;726029;2813895418;298638;1407025613;3058;0;513744;0;1843;4993
1;82;1571233034427;1571233040917;6490;22681324110;67507850596;2636430917;929468;2813895421;296279;1407029772;3046;282;536712;-1;2325;20549
1;83;1571233040917;1571233047406;6489;22675314312;67507850597;2611290440;760979;2813895422;296700;1406779692;3064;4;515424;0;2997;10267
1;84;1571233047406;1571233054305;6899;22691184804;67507851185;2755703816;1162018;2813896010;297922;1406804982;3258;7;547576;0;2593;7888
1;85;1571233054305;1571233061308;7003;22671039286;67507851993;2717573311;832555;2813896818;319389;1406935455;3307;0;555576;0;2276;6329
1;86;1571233061308;1571233068211;6903;22691320876;67507851302;2728179364;1242648;2813896127;297993;1406890308;3255;4;547352;0;1214;2534
1;87;1571233068211;1571233075029;6818;22680392338;67507851691;2721013340;835872;2813896516;299234;1406898479;1666;2156;595376;1;5917;69394
1;88;1571233075029;1571233082127;7098;22698692562;67507851072;2747158698;1300383;2813895897;298431;1406695878;3336;3;560952;-1;2835;9909
1;89;1571233082128;1571233088819;6691;22693426342;67507850605;2757870732;987918;2813895430;296977;1406841886;3148;1;528088;8;2413;7754
1;90;1571233088819;1571233095597;6778;22697490252;67507850602;2734202554;1222812;2813895427;303129;1406870951;3198;2;537600;-7;1915;5397
1;91;1571233095597;1571233102289;6692;22695769058;67507850610;2733780795;1052479;2813895435;299076;1407011292;3117;296;552488;-1;2377;21574
1;92;1571233102289;1571233108917;6628;22692243012;67507853465;2728572065;988708;2813898290;316446;1406843003;3119;10;525672;2;3072;11211
1;93;1571233108917;1571233115445;6528;22684773944;67507853542;2728572784;877798;2813898368;312458;1406952635;3084;84;519296;-2;2728;18924
1;94;1571233115446;1571233122167;6721;22682576936;67507852963;2705739053;935554;2813897788;309200;1406387165;3162;3;531584;10;2306;7097
1;95;1571233122167;1571233128961;6794;22681264104;67507850955;2747290233;874477;2813895780;299461;1406893337;3215;0;539960;-10;1281;2766
1;96;1571233128961;1571233136063;7102;22675427608;67507851528;2675003159;906235;2813896353;309301;1406602078;3316;327;589584;0;2819;23531
1;97;1571233136063;1571233142555;6492;22688795514;67507850603;2625109177;1057208;2813895428;324146;1407030858;3065;1;515088;4;2615;8985
1;98;1571233142555;1571233149044;6489;22674618330;67507850602;2638778464;851453;2813895427;309571;1406895216;3070;6;515984;-4;2353;7271
1;99;1571233149045;1571233155533;6488;22675479730;67507850598;2687619463;807688;2813895423;321746;1407013593;3050;5;513104;0;2062;6541
1;100;1571233155533;1571233162022;6489;22672316494;67507850597;2663369432;801870;2813895422;297554;1406738512;3065;254;516728;10;1909;21946
1;101;1571233162022;1571233168512;6490;22682666288;67507850597;2631042440;975919;2813895422;321127;1407113920;3021;53;534912;-10;3300;13220
1;102;1571233168512;1571233181526;13014;22703385002;67507873281;2680453540;6598661;2813904822;317835;1406728387;6184;4;1038800;0;4856;15911
2;50;1571233654854;1571233667428;12574;22712582710;67507866457;2685605220;6737620;2813903141;313879;1406764529;6000;25;1011416;-9;4581;13939
2;51;1571233667428;1571233674560;7132;22693651182;67507850607;2757053422;1201876;2813895432;318104;1406512620;3364;19;568344;1;2167;6233
2;52;1571233674560;1571233681404;6844;22677582422;67507850602;2644941018;952934;2813895427;300868;1406651347;3059;413;563984;-1;2696;22674
2;53;1571233681404;1571233687991;6587;22678426302;67507850599;2631219432;984367;2813895424;305004;1406633195;3087;23;522208;0;2937;9927
2;54;1571233687991;1571233694542;6551;22675495060;67507850597;2639013557;951302;2813895422;325581;1406736145;3093;12;520856;6;2532;8592
2;55;1571233694542;1571233701029;6487;22679125642;67507850595;2632263673;921248;2813895420;325337;1406674479;3076;11;518616;-6;2208;6620
2;56;1571233701029;1571233707817;6788;22681463102;67507850603;2639738477;1226598;2813895428;318814;1406793575;3211;0;539448;4;1169;2137
2;57;1571233707817;1571233720303;12486;22715950784;67507866427;2675723073;7342416;2813903245;318567;1406717137;5945;337;1029176;-4;5482;38735
2;58;1571233720303;1571233726808;6505;22678232268;67507850603;2643250033;924055;2813895428;324609;1406664252;3042;39;516664;0;2268;6376
2;59;1571233726808;1571233733321;6513;22674144268;67507850594;2627414566;904334;2813895419;321379;1406693166;3062;28;519120;0;2103;6214
2;60;1571233733321;1571233745317;11996;22725507214;67507866330;2680293017;6887095;2813902669;318452;1406723023;5543;510;990464;0;4681;58234
2;61;1571233745317;1571233752137;6820;22692663346;67507850613;2622436257;1488785;2813895438;324525;1406470035;3221;14;543480;0;2744;8936
2;62;1571233752137;1571233758627;6490;22688876252;67507850597;2621138451;1018739;2813895422;326350;1406844505;3066;19;517496;0;2114;6001
2;63;1571233758627;1571233765218;6591;22690753812;67507850598;2626172147;1203444;2813895423;326214;1406716108;3110;6;523488;0;1938;5096
2;64;1571233765219;1571233772331;7112;22694124368;67507852099;2706576287;1210348;2813896924;324676;1406721428;3362;321;591320;0;1723;32298
2;65;1571233772332;1571233779160;6828;22687249958;67507853597;2753647088;1071073;2813898422;311948;1406583143;3205;36;544488;0;2893;9288
2;66;1571233779160;1571233786228;7068;22691036468;67507863736;2755523674;1658350;2813900475;307705;1406665609;3320;43;564224;4;2601;7685
2;67;1571233786228;1571233792753;6525;22678484264;67507850597;2635700482;997067;2813895422;325965;1406793432;3088;4;519456;-4;2123;6060
2;68;1571233792753;1571233799241;6488;22682600150;67507850601;2633328099;988305;2813895426;327274;1406736194;3061;7;515424;0;1750;4793
2;69;1571233799241;1571233805732;6491;22690606206;67507850598;2634458512;1070827;2813895423;326114;1406770548;3036;331;540600;5;2745;31150
2;70;1571233805732;1571233812631;6899;22708709622;67507850619;2737652805;1294234;2813895444;319963;1406632785;3266;15;551208;-5;3022;10109
2;71;1571233812631;1571233819924;7293;22693692646;67507850608;2735310753;1432505;2813895433;322964;1406540211;3442;31;582136;0;2697;8286
2;72;1571233819924;1571233826611;6687;22676759128;67507850610;2624966832;959564;2813895435;314471;1406777952;3165;5;532560;0;2154;6790
2;73;1571233826612;1571233833206;6594;22693644174;67507850633;2617632599;1309611;2813895458;299249;1406676005;3101;352;546560;2;1472;36231
2;74;1571233833206;1571233839790;6584;22666365388;67507850601;2633731574;667615;2813895426;305662;1406533195;3094;32;525672;-2;3183;11628
2;75;1571233839790;1571233846278;6488;22682099954;67507850594;2633446823;1036269;2813895419;297991;1406800174;3063;13;516768;0;2470;7686
2;76;1571233846278;1571233853220;6942;22677486938;67507850616;2636926442;1148168;2813895441;318283;1406472999;3281;17;553288;0;2513;8494
2;77;1571233853220;1571233860116;6896;22671519334;67507850599;2635584339;1193125;2813895424;306126;1406523657;3259;3;548016;9;1960;5250
2;78;1571233860116;1571233867104;6988;22680132020;67507850616;2694986743;917847;2813895441;321077;1406565799;1731;2309;615816;-1;6124;134458
2;79;1571233867104;1571233873997;6893;22693121348;67507850618;2748420790;1280984;2813895443;320457;1406588073;3237;45;556040;-7;2923;10210
2;80;1571233873997;1571233880686;6689;22678453020;67507850623;2670859833;918017;2813895448;297708;1406751234;3152;19;532104;0;2312;6990
2;81;1571233880687;1571233887776;7089;22684035914;67507850611;2662226890;1352747;2813895436;312948;1406657351;3346;7;563304;-1;1650;4401
2;82;1571233887776;1571233894660;6884;22670770500;67507850601;2631579968;1100272;2813895426;309099;1406551805;3309;373;573152;1;1744;48047
2;83;1571233894660;1571233901248;6588;22680149248;67507850599;2634495176;1057753;2813895424;305041;1406731171;3103;27;526344;0;3153;11114
2;84;1571233901248;1571233907969;6721;22678344688;67507853060;2744925281;825051;2813897885;318084;1406606966;3184;9;536424;-1;2467;7422
2;85;1571233907969;1571233914588;6619;22690904922;67507852718;2687827795;1037275;2813897543;296629;1406756943;3125;31;527648;0;2382;8452
2;86;1571233914589;1571233921483;6894;22682503060;67507850605;2753170409;980292;2813895430;317760;1406663147;3252;14;548552;0;1852;4606
2;87;1571233921483;1571233928596;7113;22700261916;67507852160;2732330955;1355552;2813896985;311352;1406552826;3387;383;593872;0;3000;62723
2;88;1571233928597;1571233935427;6830;22690380928;67507853618;2741439382;1159803;2813898443;303308;1406621815;3216;17;543008;0;2844;9777
2;89;1571233935427;1571233941957;6530;22685000536;67507853616;2749639107;801970;2813898441;326044;1406645049;3093;16;521528;0;2216;6964
2;90;1571233941957;1571233948492;6535;22701589494;67507853609;2704648876;1134548;2813898434;325533;1406724246;3073;27;520392;1;1978;5406
2;91;1571233948493;1571233955126;6633;22690661248;67507853669;2720549061;991198;2813898494;326338;1406743446;3145;2;528376;-1;947;1612
2;92;1571233955126;1571233961738;6612;22683004278;67507851875;2684492745;994956;2813896700;315575;1406661044;3026;539;552584;8;3730;77366
2;93;1571233961738;1571233968827;7089;22682836086;67507850612;2638431055;1216205;2813895437;321475;1406629142;3347;31;567504;-8;2803;8692
2;94;1571233968827;1571233975314;6487;22679525536;67507850602;2634651129;940104;2813895427;298128;1406444670;3067;10;516312;0;2251;6642
2;95;1571233975314;1571233982206;6892;22685715644;67507850701;2646026756;1222066;2813895526;313984;1406658757;3251;11;547512;5;1980;5500
2;96;1571233982207;1571233988802;6595;22677719662;67507850696;2647944227;1007051;2813895521;301827;1406507002;2876;657;550496;0;2954;85639
2;97;1571233988802;1571233995633;6831;22698442756;67507853602;2725438552;1399581;2813898427;299010;1406752713;3239;12;546168;-5;3229;11092
2;98;1571233995633;1571234002164;6531;22689842042;67507853605;2719922054;887601;2813898430;325113;1406722702;3080;26;521024;0;2401;7581
2;99;1571234002164;1571234008792;6628;22680856472;67507853641;2753019185;807907;2813898466;296853;1406816143;3142;4;528528;0;1985;5278
3;54;1571234504947;1571234511478;6531;22684953962;67507853658;2747629522;987951;2813898483;315346;1406807371;3098;13;525968;0;1567;5349
3;55;1571234511478;1571234518300;6822;22685165662;67507853155;2747809436;1054421;2813897980;318599;1406903333;3127;458;563160;-6;3807;54531
3;56;1571234518301;1571234524797;6496;22711257906;67507850605;2732450710;1121843;2813895430;323971;1407063385;3080;5;518280;0;2482;8113
3;57;1571234524797;1571234531289;6492;22694388482;67507850599;2745201297;919366;2813895424;321902;1407073471;3065;23;517848;0;2181;6245
3;58;1571234531289;1571234538815;7526;22704559572;67507862063;2752121694;2601787;2813898402;322718;1407102788;3565;9;600296;0;1737;4322
3;59;1571234538815;1571234545335;6520;22691247730;67507850603;2758971217;938184;2813895428;297228;1406748752;2875;603;544136;0;2730;85121
3;60;1571234545335;1571234551824;6489;22684365728;67507850596;2741327817;812407;2813895421;296608;1407138467;3069;12;517608;3;2966;10568
3;61;1571234551824;1571234558316;6492;22695655616;67507850599;2742954619;1010647;2813895424;320966;1407025126;3088;0;518000;-2;2276;6487
3;62;1571234558316;1571234564809;6493;22697759768;67507850601;2720620267;1042547;2813895426;323426;1406868254;3082;0;517776;2;2069;5817
3;63;1571234564809;1571234575718;10909;22720873758;67507864932;2707965779;6123362;2813901260;320929;1407058879;5176;418;899816;-2;3762;66915
3;64;1571234575719;1571234582239;6520;22673741162;67507850603;2623870909;1001413;2813895428;312450;1406868181;3088;6;519792;-1;2818;9438
3;65;1571234582239;1571234588726;6487;22677535994;67507850601;2636955833;954197;2813895426;322379;1407036156;3079;5;517328;0;2378;7270
3;66;1571234588726;1571234598706;9980;22701642346;67507863725;2637280058;5571358;2813900512;322250;1406959114;4738;7;797160;0;2895;8052
3;67;1571234598706;1571234605553;6847;22676996962;67507853514;2756244481;807086;2813898339;311775;1406929734;3199;434;568928;0;2365;65929
3;68;1571234605553;1571234612282;6729;22689145184;67507853604;2735054749;1105715;2813898429;314988;1406623643;3195;4;537432;0;2863;9618
3;69;1571234612282;1571234619106;6824;22671170686;67507853584;2758232106;710167;2813898409;314383;1406847820;3224;26;545064;0;2682;9965
3;70;1571234619106;1571234626071;6965;22683799832;67507853648;2742825136;1074671;2813898473;308103;1406739080;3301;12;556584;0;2288;6667
3;71;1571234626071;1571234632701;6630;22678270958;67507853635;2747628303;831239;2813898460;310379;1406814293;3128;19;528696;0;1615;4169
3;72;1571234632702;1571234639627;6925;22682348446;67507853519;2745857230;974514;2813898344;308394;1406761184;3229;388;574424;0;3293;49837
3;73;1571234639628;1571234646555;6927;22681246000;67507853607;2749674081;1072788;2813898432;309455;1406920139;3249;36;551880;10;2787;8485
3;74;1571234646555;1571234653150;6595;22689961324;67507850815;2751081499;854247;2813895640;321720;1407038862;3106;29;525896;0;2364;7479
3;75;1571234653150;1571234659642;6492;22697009766;67507850599;2746657086;1022536;2813895424;308040;1407068086;3072;16;518784;-10;1721;4425
3;76;1571234659642;1571234666137;6495;22698529772;67507850602;2711610475;1041778;2813895427;322308;1406781788;3103;312;540040;5;1631;43104
3;77;1571234666137;1571234672630;6493;22694548644;67507850599;2738914464;1024270;2813895424;324474;1406943925;3052;40;519456;-5;2888;9774
3;78;1571234672630;1571234679123;6493;22694208902;67507850599;2745457399;913419;2813895424;318041;1406719164;3067;24;519288;0;2473;7756
3;79;1571234679124;1571234685616;6492;22698173386;67507850601;2744677851;1038774;2813895426;323297;1407159302;3070;13;517160;1;2431;7694
3;80;1571234685616;1571234692109;6493;22698330190;67507850600;2739390676;944181;2813895425;324066;1407009382;1481;2221;569616;-1;6026;78849
3;81;1571234692109;1571234698604;6495;22699706824;67507850601;2726406936;962028;2813895426;323023;1406837971;3070;18;518624;0;2512;8059
3;82;1571234698604;1571234705097;6493;22698402314;67507850601;2729470373;1019611;2813895426;319185;1407056235;3062;16;517104;1;1805;4390
3;83;1571234705097;1571234711594;6497;22712208950;67507850605;2706666035;1360827;2813895430;324449;1406881851;3082;3;517336;-1;1368;3215
3;84;1571234711595;1571234718087;6492;22696391456;67507850600;2727741298;963213;2813895425;319484;1406782998;3079;327;541112;1;1857;37625
3;85;1571234718088;1571234724580;6492;22696604616;67507850600;2736534304;1018472;2813895425;324952;1407066289;3063;17;517440;-1;2979;10842
3;86;1571234724580;1571234731074;6494;22698923096;67507850600;2742085090;938111;2813895425;323473;1406775295;3093;70;519240;0;2809;18314
3;87;1571234731074;1571234737570;6496;22708166502;67507850604;2720974341;1199027;2813895429;323164;1407029820;3064;20;517840;0;2305;6941
3;88;1571234737571;1571234744063;6492;22698532838;67507850602;2719992443;1047890;2813895427;321554;1406978858;3085;0;517496;0;1634;4083
3;89;1571234744063;1571234750553;6490;22687268500;67507850596;2732977714;812621;2813895421;321539;1407140654;2891;487;541520;9;2893;39214
3;90;1571234750553;1571234757046;6493;22699957068;67507850602;2732167984;1127639;2813895427;321373;1407022290;3094;2;519816;-9;2781;9054
3;91;1571234757046;1571234763533;6487;22679086222;67507850593;2733560743;678805;2813895418;321130;1407093343;3063;0;514584;3;2411;7704
3;92;1571234763533;1571234770025;6492;22696855882;67507850600;2747673970;1091260;2813895425;321760;1407043543;3078;2;517440;-3;2078;5771
3;93;1571234770025;1571234776516;6491;22683773844;67507850597;2714527145;754129;2813895422;310461;1406746105;3065;9;515808;0;1137;2390
3;94;1571234776516;1571234783010;6494;22700982864;67507850601;2734109111;1076848;2813895426;323601;1406984484;3040;307;540456;2;3005;28649
3;95;1571234783010;1571234789500;6490;22689048094;67507850597;2726320702;739003;2813895422;317685;1406888809;3078;0;516944;1;2725;8940
3;96;1571234789501;1571234795995;6494;22699243420;67507850607;2733039827;1086890;2813895432;314433;1406774525;3076;5;517608;-2;2259;6919
3;97;1571234795995;1571234802482;6487;22677986112;67507850593;2738863869;714958;2813895418;297712;1406961073;3086;4;518184;-1;2032;5923
3;98;1571234802482;1571234808974;6492;22692296740;67507850602;2739508362;922725;2813895427;297682;1406621297;3043;325;532216;20;2007;41667
3;99;1571234808975;1571234815465;6490;22684531292;67507850599;2736906623;811773;2813895424;303102;1406838559;2962;135;527184;-13;3369;16007
3;100;1571234815465;1571234821957;6492;22695541590;67507850599;2733483550;1067316;2813895424;298406;1407041901;3075;12;518616;-7;2408;7097
3;101;1571234821957;1571234828449;6492;22693673958;67507850598;2738916660;956425;2813895423;296918;1406760777;3076;10;518448;1;2368;9426
3;102;1571234828449;1571234834941;6492;22695919876;67507850601;2739927783;1018299;2813895426;318482;1407021554;3069;10;516336;-1;1660;4640
3;103;1571234834942;1571234848007;13065;22701409768;67507873087;2702061982;6649935;2813904877;318142;1406305450;6215;344;1074648;0;5199;44516
4;52;1571235332100;1571235338599;6499;22681032256;67507850599;2645562120;994099;2813895424;325254;1406493673;3072;0;516096;0;1938;4903
4;53;1571235338599;1571235345093;6494;22685763970;67507850601;2629994635;1068208;2813895426;310123;1406533173;3059;3;514096;0;1560;4101
4;54;1571235345093;1571235351580;6487;22677740978;67507850594;2643193171;855108;2813895419;325513;1406873701;3071;279;538816;1;3390;25599
4;55;1571235351580;1571235358083;6503;22712607676;67507850620;2708227594;1402376;2813895445;300739;1406532462;3070;4;516432;0;2574;8888
4;56;1571235358083;1571235364578;6495;22701601174;67507850609;2750703137;1115423;2813895434;296766;1406878996;3062;3;514296;9;2308;7544
4;57;1571235364578;1571235371074;6496;22700063064;67507850610;2743484521;1050038;2813895435;296923;1406687835;3075;0;516600;-10;1815;4891
4;58;1571235371074;1571235382934;11860;22708734296;67507865429;2677423545;6352421;2813902167;310672;1406754351;5602;271;967008;1;4137;23227
4;59;1571235382934;1571235389474;6540;22689064592;67507851368;2654282982;1053774;2813896193;317913;1406801782;3087;5;519456;-1;2512;7603
4;60;1571235389475;1571235396064;6589;22683631786;67507850602;2618649245;1165198;2813895427;323054;1406599014;3111;3;522208;0;2222;6141
4;61;1571235396064;1571235406442;10378;22708511354;67507864801;2652224949;5604488;2813901149;319503;1406546921;4918;0;826064;1;2631;6859
4;62;1571235406442;1571235412973;6531;22679296024;67507850609;2646273305;937247;2813895434;326113;1406677527;3058;289;538144;8;3354;28360
4;63;1571235412973;1571235419463;6490;22681835110;67507850595;2620031005;1044890;2813895420;312986;1406442716;3067;1;515424;-2;2522;8167
4;64;1571235419463;1571235425952;6489;22682555766;67507850598;2635973148;1043897;2813895423;296733;1406852574;3053;12;514296;-7;2340;6762
4;65;1571235425952;1571235432440;6488;22675635366;67507850593;2628715686;953282;2813895418;296509;1406167997;3064;2;515088;0;1826;4738
4;66;1571235432440;1571235438929;6489;22681051966;67507850595;2630082222;943271;2813895420;323877;1406844017;3071;285;535792;8;1538;25558
4;67;1571235438929;1571235445419;6490;22683369716;67507850606;2629979334;1064573;2813895431;299929;1406515437;3042;32;516432;-8;2942;9588
4;68;1571235445420;1571235458219;12799;22702854292;67507865915;2663483235;6373765;2813902557;312680;1406645797;6037;59;1023368;3;4653;14976
4;69;1571235458219;1571235464836;6617;22692191620;67507850605;2748676578;987654;2813895430;300088;1406598720;3125;0;525000;-3;1842;5265
4;70;1571235464836;1571235471429;6593;22692917678;67507850603;2756994916;916363;2813895428;323715;1406683664;3115;288;546968;0;2328;29881
4;71;1571235471429;1571235477923;6494;22695399678;67507850602;2755045792;884248;2813895427;309862;1406574134;3068;1;515592;1;3119;12149
4;72;1571235477923;1571235484416;6493;22695457202;67507850602;2736756523;1022263;2813895427;305463;1406662494;3075;4;516488;-1;2392;7690
4;73;1571235484417;1571235490910;6493;22697307752;67507850610;2746786214;938852;2813895435;308969;1406525891;3067;0;515256;3;2166;6044
4;74;1571235490911;1571235497405;6494;22692172640;67507850600;2754961174;892133;2813895425;323290;1406832527;3067;0;515256;-3;1211;2381
4;75;1571235497405;1571235503900;6495;22694404834;67507850603;2749346069;939423;2813895428;322764;1406706635;2928;413;538576;1;3073;28802
4;76;1571235503901;1571235510393;6492;22693189822;67507850606;2742628132;1036659;2813895431;320980;1406613471;3036;31;515256;0;2742;9002
4;77;1571235510393;1571235516891;6498;22699918962;67507850609;2747325813;970927;2813895434;314748;1406769608;3049;22;514992;4;2400;7661
4;78;1571235516891;1571235523511;6620;22702868016;67507860515;2730659709;1278873;2813897299;324057;1406543699;3123;10;526344;-5;2082;6023
4;79;1571235523511;1571235530016;6505;22670165184;67507850603;2637428796;722789;2813895428;297620;1406692918;2522;932;531864;14;3449;70997
4;80;1571235530016;1571235536512;6496;22694894956;67507850642;2625715197;1529967;2813895467;296702;1406736863;1231;2349;640816;-11;6250;57933
4;81;1571235536512;1571235543099;6587;22672267730;67507850605;2635716861;824882;2813895430;296487;1406761504;2643;752;632232;-3;3657;22777
4;82;1571235543099;1571235549591;6492;22686668732;67507850598;2625391002;1156928;2813895423;297076;1406609968;3036;29;513976;0;2312;6636
4;83;1571235549591;1571235556078;6487;22674062800;67507850595;2630290565;713393;2813895420;296664;1406761171;3046;11;513576;0;1190;2395
4;84;1571235556078;1571235562569;6491;22683552946;67507850595;2622668374;1118864;2813895420;296722;1406552842;3060;355;538392;0;2005;40013
4;85;1571235562569;1571235569060;6491;22687620360;67507850597;2628704083;964568;2813895422;322346;1406555874;3025;33;513744;8;2961;9896
4;86;1571235569061;1571235575553;6492;22686585658;67507850600;2626102874;1196888;2813895425;314099;1406658529;3072;18;516648;-8;2487;7749
4;87;1571235575553;1571235582043;6490;22685366704;67507850596;2644856755;973131;2813895421;296795;1406797084;3057;7;514752;0;2483;8098
4;88;1571235582043;1571235588534;6491;22684565456;67507850594;2634540894;985714;2813895419;296693;1406518588;3057;1;513744;0;1751;4957
4;89;1571235588534;1571235595032;6498;22708215266;67507850604;2605119410;1356521;2813895429;296661;1406666204;3039;395;540528;0;2930;52022
4;90;1571235595032;1571235601522;6490;22680037412;67507850596;2635936107;959018;2813895421;322700;1406503977;3052;12;514752;0;2768;8577
4;91;1571235601522;1571235608017;6495;22697727940;67507850601;2604647737;1183154;2813895426;319829;1406829015;3042;20;513632;9;2248;6352
4;92;1571235608017;1571235614511;6494;22696260640;67507850598;2592796559;1287024;2813895423;326748;1406483723;3073;0;516264;-9;2150;6396
4;93;1571235614511;1571235621002;6491;22686845976;67507850598;2632504297;1106574;2813895423;318510;1406861321;3051;3;512760;0;1098;2015
4;94;1571235621002;1571235627492;6490;22682961792;67507850596;2620739385;1023692;2813895421;319501;1406711933;3061;361;540744;0;3326;57366
4;95;1571235627492;1571235633984;6492;22683794722;67507850595;2622786417;1027842;2813895420;296457;1406517009;3058;0;513744;0;2605;8555
4;96;1571235633984;1571235640472;6488;22676588746;67507850595;2634203533;968313;2813895421;297209;1406544504;3018;31;511608;0;2244;6500
4;97;1571235640472;1571235646969;6497;22701033526;67507850603;2613873234;1408350;2813895428;306314;1406618725;3045;21;515088;0;1984;5596
4;98;1571235646969;1571235653458;6489;22678712462;67507850591;2658134054;829652;2813895416;305170;1406414843;3016;352;537024;1;2073;37458
4;99;1571235653458;1571235659947;6489;22680376424;67507850594;2623152093;982818;2813895419;300886;1406832783;2987;82;515592;2;3047;11176
4;100;1571235659947;1571235666437;6490;22680859246;67507850593;2655878068;936111;2813895418;311495;1406527624;3053;13;515088;-3;2491;7734
4;101;1571235666437;1571235672926;6489;22681390686;67507850595;2637784655;970382;2813895420;296828;1406840658;3044;3;511272;6;2232;7103
