0;53;1571265377974;1571265384458;6484;22660384060;67507850619;2627152285;692244;2813895444;323496;1406625877;1472;6310;690776;79;6484;907931
0;54;1571265384458;1571265390936;6478;22651333520;67507850587;2633735779;561374;2813895412;318031;1407090960;1008;7937;833592;15;6478;926643
0;55;1571265390936;1571265397415;6479;22645627840;67507850586;2636277933;388692;2813895411;305068;1406801985;795;8780;1006936;10;6479;926008
0;56;1571265397415;1571265403893;6478;22650742658;67507850594;2629719621;536228;2813895419;297877;1407036372;916;9984;1115520;-17;6478;926799
0;57;1571265403893;1571265410368;6475;22645763620;67507850589;2629077283;480434;2813895414;296779;1407044432;1069;9904;1141360;1;6475;1027191
0;58;1571265410368;1571265416841;6473;22633194626;67507850579;2617309853;131147;2813895404;296287;1406960997;1145;6972;991080;9;6473;827872
0;59;1571265416841;1571265428488;11647;22676407560;67507862452;2635526706;4618710;2813898791;305505;1406890393;1826;13012;1457912;-4;11647;1662144
0;60;1571265428488;1571265435187;6699;22656010922;67507850612;2739164585;309409;2813895437;301697;1406798337;878;9797;1064688;-2;6699;961085
0;61;1571265435187;1571265441865;6678;22641307700;67507850597;2620897428;436248;2813895422;300108;1406749336;1148;10273;1177240;5;6678;1059353
0;62;1571265441865;1571265451475;9610;22650261734;67507861387;2652895520;3128081;2813898095;300310;1406985935;1828;10051;1304824;-5;9610;1357374
0;63;1571265451475;1571265458062;6587;22662314472;67507850691;2666436377;725745;2813895516;320100;1406755637;928;7635;889320;0;6587;938064
0;64;1571265458062;1571265465068;7006;22666821054;67507851435;2744193926;613210;2813896260;297416;1406715630;911;9491;1071384;-15;7007;996334
0;65;1571265465069;1571265471647;6578;22641624520;67507850655;2629372071;375165;2813895480;299128;1407017467;1327;9540;1077024;-1;6578;1043471
0;66;1571265471647;1571265478121;6474;22637246126;67507850582;2620591978;253538;2813895407;318898;1407100006;1014;8734;1106288;10;6474;924208
0;67;1571265478121;1571265485696;7575;22653587176;67507860675;2650856870;1421939;2813897359;316496;1407004518;1431;8276;844752;11;7575;1082005
0;68;1571265485696;1571265492503;6807;22652417278;67507850604;2706134308;400011;2813895429;313647;1406770856;889;8285;953656;7;6807;969338
0;69;1571265492503;1571265498982;6479;22647906900;67507850596;2620191933;522453;2813895421;303053;1406659012;1108;8564;994176;-10;6479;923176
0;70;1571265498982;1571265505456;6474;22641310620;67507850587;2621678680;333016;2813895412;303648;1406902350;1264;9515;1150184;-8;6474;1011174
0;71;1571265505456;1571265511929;6473;22638041826;67507850582;2624038132;237710;2813895407;318735;1407120231;1322;6765;836880;-10;6474;925346
0;72;1571265511930;1571265518410;6480;22654857376;67507850589;2614609521;618765;2813895414;307733;1406592823;1073;8299;801392;15;6480;926153
0;73;1571265518410;1571265524888;6478;22643505292;67507850584;2613516428;477919;2813895409;298031;1406757594;755;7731;965440;12;6478;924115
0;74;1571265524888;1571265531367;6479;22649464136;67507850589;2627005323;528643;2813895414;307680;1406768218;1404;8570;972464;132;6479;999308
0;75;1571265531367;1571265537837;6470;22628968218;67507850579;2602565095;118937;2813895404;296617;1407040015;968;10402;1210072;-160;6470;945246
0;76;1571265537837;1571265544314;6477;22643722248;67507850585;2626992697;178696;2813895410;296541;1406773496;1481;5252;760792;4;6477;837670
0;77;1571265544314;1571265550793;6479;22651755022;67507850592;2614529333;674200;2813895417;323341;1406714163;1438;5095;602712;5;6480;1146211
0;78;1571265550794;1571265557262;6468;22626677916;67507850579;2623752029;52270;2813895404;319716;1407015563;862;7377;820256;15;6469;930276
0;79;1571265557263;1571265563735;6472;22637083336;67507850580;2608262376;125842;2813895405;318809;1407144649;1352;4727;769768;-6;6472;766264
0;80;1571265563735;1571265570217;6482;22660186376;67507850592;2634770749;668934;2813895417;314011;1406866979;1035;9142;1055920;1;6483;939601
0;81;1571265570218;1571265576701;6483;22656523966;67507850590;2625833513;628822;2813895415;300467;1406755154;923;10826;1161016;-3;6483;932556
0;82;1571265576701;1571265583182;6481;22660171192;67507850594;2638621034;681515;2813895419;296452;1407026373;1278;9995;1084512;-4;6481;1001301
0;83;1571265583182;1571265589662;6480;22656433592;67507850590;2615646534;632457;2813895415;296644;1407042831;1163;5780;885456;-11;6480;927085
0;84;1571265589662;1571265596140;6478;22647998588;67507850585;2595626257;508812;2813895410;296805;1406739853;1074;7358;816584;14;6478;927806
0;85;1571265596140;1571265602616;6476;22637678432;67507850585;2625959222;320479;2813895410;299020;1406705116;900;8513;938752;-3;6476;917940
0;86;1571265602616;1571265609091;6475;22639291440;67507850584;2619034192;266925;2813895409;300175;1406937074;1058;10937;1118608;137;6475;952986
0;87;1571265609091;1571265615573;6482;22657795626;67507850589;2636268480;591680;2813895414;317044;1406879688;1182;8072;1088624;-131;6483;963043
0;88;1571265615574;1571265622052;6478;22654076130;67507850587;2625535599;632479;2813895412;296841;1406942743;1379;6093;708984;-3;6478;923887
0;89;1571265622052;1571265628528;6476;22645702592;67507850585;2621288366;380837;2813895410;296405;1407109922;957;7523;871552;0;6476;926332
0;90;1571265628528;1571265635004;6476;22645323138;67507850589;2604716917;489888;2813895414;296370;1406861829;1221;4815;728192;-5;6476;924218
0;91;1571265635004;1571265641472;6468;22622487278;67507850576;2615940446;35002;2813895401;297322;1407056992;1508;5975;691432;11;6468;1026241
0;92;1571265641472;1571265647945;6473;22634008722;67507850581;2619104199;147705;2813895406;296502;1406915001;1294;7519;977664;6;6473;833670
0;93;1571265647945;1571265654424;6479;22655318444;67507850588;2630614433;615326;2813895413;297396;1407052881;1253;6803;701192;-6;6480;928616
0;94;1571265654425;1571265660905;6480;22652784906;67507850587;2624587039;621815;2813895412;296793;1406964032;819;7267;944568;-19;6480;920134
0;95;1571265660905;1571265667379;6474;22642058432;67507850586;2619142995;453128;2813895411;297900;1407148000;1549;4306;616184;19;6474;934221
0;96;1571265667379;1571265673848;6469;22627285130;67507850580;2599979008;33445;2813895405;296116;1406910905;1288;8819;1029160;-62;6469;995619
0;97;1571265673848;1571265680327;6479;22651961466;67507850586;2632994608;483929;2813895411;298761;1406775938;1378;5997;732800;67;6480;903915
0;98;1571265680328;1571265686918;6590;22669156178;67507850721;2734642036;711421;2813895546;297116;1406852166;972;7227;827704;-11;6590;950063
0;99;1571265686918;1571265693519;6601;22667687418;67507851368;2729430072;508779;2813896193;296561;1406897559;834;7163;911608;2;6601;938976
0;100;1571265693519;1571265700212;6693;22658792076;67507851368;2712643026;419298;2813896193;306597;1406806170;1178;7516;781072;6;6693;961035
0;101;1571265700212;1571265706688;6476;22643592746;67507850591;2624111315;532148;2813895416;302493;1406731312;1215;9536;1147864;-22;6477;1048336
0;102;1571265706689;1571265713162;6473;22634113550;67507850582;2628531241;139555;2813895407;296548;1406988013;1130;6936;971056;25;6473;808236
1;47;1571266216834;1571266223519;6685;22663214708;67507850608;2726951280;606349;2813895433;317732;1406608892;878;8094;1005376;-13;6685;956771
1;48;1571266223519;1571266229995;6476;22638672108;67507850592;2645318678;350821;2813895417;310748;1406832021;1848;5389;712488;6;6476;1053452
1;49;1571266229995;1571266236465;6470;22629536888;67507850578;2607719465;104061;2813895403;297891;1406856986;1174;9075;1045160;-1;6470;847405
1;50;1571266236465;1571266242949;6484;22659859628;67507850606;2657417343;640094;2813895431;301126;1406918876;1261;5340;730272;-13;6485;927134
1;51;1571266242950;1571266249540;6590;22659253582;67507850921;2679927455;634525;2813895746;304357;1406859346;910;8389;888088;18;6590;937975
1;52;1571266249540;1571266256237;6697;22661162824;67507851180;2698852305;567768;2813896005;318886;1406841587;1007;6970;949984;-15;6697;955111
1;53;1571266256237;1571266262709;6472;22635157158;67507850586;2625211950;259090;2813895411;321080;1406960903;1661;6101;663136;-1;6472;1057901
1;54;1571266262709;1571266269181;6472;22635549022;67507850580;2629131661;216269;2813895405;321887;1407043972;1079;8507;1044512;10;6473;930672
1;55;1571266269181;1571266279317;10136;22673714444;67507861891;2652630253;4197036;2813898230;314622;1406818187;1705;11143;1211016;-8;10136;1448432
1;56;1571266279317;1571266287381;8064;22650827338;67507861334;2616537567;1995388;2813897682;321924;1406702350;1009;9406;1231696;14;8064;1149136
1;57;1571266287381;1571266293857;6476;22639531464;67507850591;2622886403;410454;2813895416;296518;1406907068;1881;6265;704944;-14;6476;1017461
1;58;1571266293857;1571266300330;6473;22635133360;67507850579;2633041451;224270;2813895404;297720;1406985456;1095;8619;1021672;-7;6472;925160
1;59;1571266300330;1571266307209;6879;22655615554;67507861021;2623524410;1069904;2813897341;313830;1406964930;1270;6923;761776;12;6880;982314
1;60;1571266307209;1571266313715;6506;22642561986;67507850585;2645109060;303394;2813895410;322327;1406635906;829;7982;933472;3;6506;925167
1;61;1571266313716;1571266320193;6477;22647278954;67507850587;2623709418;439412;2813895412;323934;1406883773;1277;6110;822624;137;6477;995876
1;62;1571266320193;1571266326663;6470;22629408700;67507850579;2610515450;90709;2813895404;321926;1406454496;1440;7548;823752;-133;6470;964901
1;63;1571266326663;1571266333136;6473;22634807488;67507850580;2622681321;149045;2813895405;321642;1406847197;1234;6911;936424;-13;6473;851209
1;64;1571266333136;1571266339619;6483;22657293094;67507850587;2614020711;633608;2813895412;322579;1406687136;1182;6275;703656;4;6484;925497
1;65;1571266339619;1571266346099;6480;22653510818;67507850586;2621466870;640937;2813895411;321636;1406937985;813;8131;919792;-9;6479;917799
1;66;1571266346099;1571266352578;6479;22647080248;67507850586;2630350695;493132;2813895411;324988;1406753575;1228;6263;908888;19;6479;1038828
1;67;1571266352578;1571266359049;6471;22631377656;67507850580;2627618816;107669;2813895405;325715;1407051639;1323;8654;859928;-8;6471;928666
1;68;1571266359049;1571266367825;8776;22651564054;67507861624;2637846210;2523438;2813897972;303818;1406685535;1642;9205;1111072;-9;8777;1245825
1;69;1571266367825;1571266374540;6715;22651266652;67507850902;2670705632;467412;2813895727;301016;1406967188;938;8765;907520;22;6715;957679
1;70;1571266374540;1571266381019;6479;22646340320;67507850584;2623049065;491640;2813895409;315055;1406494553;799;7658;978752;1;6478;920215
1;71;1571266381019;1571266387494;6475;22646527054;67507850586;2623227427;604955;2813895411;323472;1406973340;1967;4841;615000;-21;6476;1101605
1;72;1571266387494;1571266393964;6470;22630695982;67507850578;2622227794;77835;2813895403;320849;1406847121;999;8869;1152144;-4;6470;827752
1;73;1571266393964;1571266400446;6482;22662027436;67507850588;2626393099;816847;2813895413;325906;1406975086;1360;5946;701176;16;6481;932737
1;74;1571266400446;1571266406927;6481;22654951108;67507850590;2633824213;572395;2813895415;327475;1406855167;923;8800;897920;7;6482;923313
1;75;1571266406927;1571266413403;6476;22643524126;67507850581;2625776162;401197;2813895406;322207;1407064388;836;7542;1006632;1;6475;923743
1;76;1571266413403;1571266419876;6473;22635219646;67507850587;2624235767;269651;2813895412;297240;1406549636;1959;4218;597912;-14;6473;1114378
1;77;1571266419876;1571266426345;6469;22626844210;67507850582;2620004493;38645;2813895407;296603;1407006903;931;8184;1034760;-99;6469;888910
1;78;1571266426345;1571266432823;6478;22648025160;67507850585;2609662485;297372;2813895410;296564;1406947274;1493;6025;681056;93;6479;858708
1;79;1571266432823;1571266439305;6482;22657758396;67507850587;2609522971;685751;2813895412;298100;1406965092;1065;7119;819368;-3;6481;925388
1;80;1571266439305;1571266445780;6475;22643730278;67507850583;2625239333;334219;2813895408;323279;1406992953;815;8922;960920;17;6476;920463
1;81;1571266445780;1571266452257;6477;22644952444;67507850587;2608443081;438530;2813895412;308617;1406735269;1694;5277;770280;-19;6476;1062503
1;82;1571266452257;1571266458725;6468;22625268432;67507850579;2613222721;77605;2813895404;296797;1406929333;1045;8302;1050728;4;6469;922719
1;83;1571266458725;1571266465206;6481;22655040314;67507850585;2632751491;639035;2813895410;296991;1406911303;1318;6418;683440;26;6480;929657
1;84;1571266465206;1571266471685;6479;22651479812;67507850587;2630284814;635249;2813895412;296671;1406739438;884;7842;915160;-20;6480;930332
1;85;1571266471685;1571266478160;6475;22642652798;67507850584;2608275381;376872;2813895409;297141;1407014662;1276;6014;806136;10;6474;925428
1;86;1571266478160;1571266484630;6470;22627861100;67507850579;2621747711;33209;2813895404;298219;1406759308;1400;9619;1016232;-21;6471;1099369
1;87;1571266484630;1571266491107;6477;22639091420;67507850582;2615043693;176250;2813895407;325370;1407001652;1359;5146;807312;16;6476;843171
1;88;1571266491107;1571266497588;6481;22660766434;67507850587;2629554470;725698;2813895412;326824;1406962661;1070;7286;768712;-14;6482;922601
1;89;1571266497588;1571266504066;6478;22647557376;67507850584;2608437385;460667;2813895409;321958;1406994269;736;8190;977464;0;6478;923256
1;90;1571266504066;1571266510543;6477;22642890340;67507850586;2633114799;326472;2813895411;321112;1406836296;1285;6105;816976;161;6476;936663
1;91;1571266510543;1571266517013;6470;22630255646;67507850580;2613450635;193491;2813895405;324774;1407075691;1357;10386;1065624;-148;6471;1049035
1;92;1571266517013;1571266523488;6475;22641571084;67507850583;2623006887;158592;2813895408;321564;1406879958;1308;6065;863808;4;6475;932787
1;93;1571266523488;1571266529965;6477;22644846156;67507850583;2610034020;340674;2813895408;319198;1406717672;1009;7608;790160;-16;6477;925967
1;94;1571266529965;1571266536444;6479;22644911272;67507850583;2616314359;356932;2813895408;326340;1406585553;785;8164;949448;15;6479;922395
1;95;1571266536444;1571266542924;6480;22652989306;67507850588;2603964901;645988;2813895413;321652;1406842565;1306;6992;944304;142;6479;996773
1;96;1571266542924;1571266549393;6469;22626869468;67507850580;2623630538;87621;2813895405;320755;1406952894;1048;10842;1110912;-159;6469;966358
2;53;1571267034767;1571267042191;7424;22657727736;67507860759;2615712862;1711624;2813897443;312990;1406848664;1169;8002;939016;-18;7424;1053426
2;54;1571267042191;1571267048795;6604;22661844206;67507851335;2742868893;496511;2813896160;307584;1406667373;829;8994;961744;5;6604;944647
2;55;1571267048795;1571267055595;6800;22656108012;67507851106;2724090460;466127;2813895931;307292;1406677428;1382;9260;1050344;7;6800;1094061
2;56;1571267055596;1571267062070;6474;22645030554;67507850583;2747170911;68202;2813895408;303023;1406926002;848;9384;1239528;14;6475;888563
2;57;1571267062071;1571267072509;10438;22675418848;67507862424;2702410681;4047241;2813898761;310250;1406726499;2010;10309;1184608;-25;10438;1488544
2;58;1571267072509;1571267083490;10981;22670182266;67507861490;2675985019;4365691;2813898229;315265;1406723354;1362;15239;1706088;15;10981;1569749
2;59;1571267083490;1571267090068;6578;22641762782;67507850620;2623475865;501331;2813895445;302511;1406969529;1331;9420;1085504;-8;6579;1062164
2;60;1571267090068;1571267096541;6473;22635321408;67507850581;2625386804;137495;2813895406;297214;1406958151;1231;6987;995192;8;6473;822283
2;61;1571267096541;1571267103021;6480;22653188596;67507850587;2624493263;530519;2813895412;296682;1406980081;1215;6348;741832;1;6480;927180
2;62;1571267103021;1571267109501;6480;22653407742;67507850588;2620639497;655042;2813895413;319298;1407026064;869;8455;885592;-4;6480;923131
2;63;1571267109501;1571267115979;6478;22646842268;67507850583;2629735229;441839;2813895408;312939;1406836710;791;9724;1042104;11;6478;920321
2;64;1571267115979;1571267122455;6476;22642707110;67507850584;2644547381;479097;2813895409;317875;1406980693;1147;9568;1141056;7;6475;1031662
2;65;1571267122455;1571267128929;6474;22638983964;67507850581;2621927544;162134;2813895406;296889;1406280867;1319;6223;856888;-7;6475;932384
2;66;1571267128929;1571267141296;12367;22673624800;67507862078;2677589966;4662372;2813898398;308715;1406536951;1733;15161;1671464;-4;12366;1763604
2;67;1571267141296;1571267147887;6591;22662365864;67507850596;2736802227;403234;2813895421;316709;1406643497;1012;9019;1018704;-8;6592;939066
2;68;1571267147887;1571267154465;6578;22652520938;67507850590;2728522267;419631;2813895415;322233;1406764457;1183;10093;1134664;-5;6577;1025746
2;69;1571267154465;1571267161248;6783;22660604520;67507850606;2744809284;366192;2813895431;302659;1406753391;1347;5758;892664;5;6784;882009
2;70;1571267161248;1571267168246;6998;22671689278;67507851044;2723191445;906752;2813895869;306901;1406756496;1172;8271;843088;-7;6998;1008407
2;71;1571267168246;1571267174829;6583;22661549432;67507850597;2726905125;409773;2813895422;306636;1406624063;789;8763;999568;11;6583;939679
2;72;1571267174829;1571267181413;6584;22666851422;67507850593;2723070429;603070;2813895418;304646;1406760855;1315;8586;1016328;9;6584;1021851
2;73;1571267181414;1571267188189;6775;22646071680;67507850584;2737821881;230848;2813895409;313875;1406694109;1061;9391;1242456;-21;6776;864964
2;74;1571267188189;1571267195325;7136;22668952070;67507850977;2686484253;913964;2813895802;305209;1406896123;1444;6959;779560;25;7135;1015522
2;75;1571267195325;1571267202010;6685;22671287486;67507850615;2762198072;679499;2813895440;317646;1406582308;899;7867;907296;-13;6686;957052
2;76;1571267202010;1571267208592;6582;22663628618;67507850592;2728795883;546298;2813895417;297220;1406705437;868;9031;968248;-4;6582;935136
2;77;1571267208593;1571267215075;6482;22667243140;67507850595;2736179309;576092;2813895420;315942;1406692179;1224;10031;1124240;8;6482;1007955
2;78;1571267215075;1571267222154;7079;22652747530;67507850606;2745795609;503634;2813895431;316390;1406417017;1300;7010;1146160;-13;7080;880550
2;79;1571267222154;1571267229038;6884;22664488850;67507850615;2695218817;763373;2813895440;309373;1406903375;1354;7892;743056;15;6884;982517
2;80;1571267229038;1571267235517;6479;22652446770;67507850588;2625316057;641361;2813895413;321871;1406997388;770;7914;958672;3;6478;925945
2;81;1571267235517;1571267241996;6479;22651619534;67507850586;2616219203;529200;2813895411;319560;1406981410;865;9724;1066888;10;6479;931273
2;82;1571267241996;1571267248468;6472;22635508288;67507850584;2611990043;187498;2813895409;320354;1406963211;1324;9607;1060880;-7;6473;1056298
2;83;1571267248468;1571267254941;6473;22630589548;67507850588;2605214862;103482;2813895413;325993;1406835010;1330;4249;819472;1;6473;1079424
2;84;1571267254941;1571267261425;6484;22657782778;67507850596;2619981178;655340;2813895421;301273;1406851270;1337;5792;580976;-9;6483;927704
2;85;1571267261425;1571267267905;6480;22653299118;67507850588;2624120165;665352;2813895413;297465;1406763681;873;7818;903920;4;6480;926491
2;86;1571267267905;1571267274380;6475;22644697820;67507850582;2618989049;390554;2813895407;296718;1406933515;856;8972;987664;-14;6476;921406
2;87;1571267274381;1571267280859;6478;22647076160;67507850586;2611162323;541606;2813895411;322577;1406687213;942;10212;1157824;18;6478;925829
2;88;1571267280859;1571267287335;6476;22641066508;67507850585;2608223015;268481;2813895410;320659;1406867469;1252;8896;1083608;-23;6476;1017328
2;89;1571267287335;1571267293806;6471;22630832930;67507850579;2629390323;115129;2813895404;318480;1406993443;944;8604;1155000;20;6471;922592
2;90;1571267293806;1571267300283;6477;22642980422;67507850582;2609994814;179009;2813895407;308997;1406679356;1349;7494;696744;-5;6477;933698
2;91;1571267300283;1571267306756;6473;22638880596;67507850583;2609216499;521601;2813895408;296618;1407054631;768;8375;903064;0;6473;928767
2;92;1571267306756;1571267313228;6472;22635221836;67507850580;2618283175;144425;2813895405;317134;1406886562;903;8761;995416;4;6473;929277
2;93;1571267313228;1571267319709;6481;22657667438;67507850587;2607495021;688362;2813895412;308821;1406795333;1359;9241;1013224;-8;6481;1045263
2;94;1571267319710;1571267326189;6479;22652379172;67507850589;2618520316;619693;2813895414;296985;1406310368;1294;5876;848496;-14;6480;929465
2;95;1571267326189;1571267332766;6577;22639393494;67507850596;2631736454;410544;2813895421;300038;1406704961;957;7083;835896;3;6577;942499
2;96;1571267332766;1571267339240;6474;22639989466;67507850580;2601174799;290417;2813895405;319695;1406948951;1061;5878;775128;-5;6474;930037
2;97;1571267339240;1571267345715;6475;22642647688;67507850586;2637156234;265372;2813895411;319694;1406985970;1025;9270;1168168;0;6475;931923
2;98;1571267345716;1571267352194;6478;22649397268;67507850586;2629895518;591025;2813895411;319356;1406885814;1396;9238;1038696;22;6479;1017117
2;99;1571267352194;1571267358674;6480;22657836214;67507850589;2625868555;667093;2813895414;317449;1407078651;1322;6268;726648;-10;6480;922826
2;100;1571267358674;1571267365148;6474;22639344438;67507850581;2630548471;271915;2813895406;313601;1406889957;899;7918;878104;-3;6474;927190
2;101;1571267365148;1571267371625;6477;22644739138;67507850584;2627813412;367243;2813895409;318792;1406891998;879;8420;953712;17;6477;918158
2;102;1571267371625;1571267378105;6480;22651593400;67507850586;2626351011;572732;2813895411;308084;1406807827;961;10502;1156656;-1;6480;930361
3;52;1571267876967;1571267883442;6475;22647091052;67507850583;2738524930;107724;2813895408;296259;1406964551;1173;8113;1130640;2;6476;848079
3;53;1571267883443;1571267889948;6505;22671249964;67507851521;2732183415;627134;2813896346;317574;1406964864;1217;5631;704368;-1;6506;925646
3;54;1571267889948;1571267896453;6505;22670020936;67507851475;2725225790;537615;2813896300;325945;1407057994;912;8570;856792;11;6504;935767
3;55;1571267896453;1571267903260;6807;22667954744;67507851343;2732563975;509662;2813896168;318423;1406703044;850;9689;1123072;-18;6808;970067
3;56;1571267903260;1571267910161;6901;22659458128;67507851249;2714899265;569866;2813896074;313071;1406857924;1255;10308;1197896;25;6901;1093391
3;57;1571267910161;1571267917792;7631;22653731862;67507862087;2721614542;1325863;2813898435;311989;1406756360;1383;7630;1089584;4;7631;1022282
3;58;1571267917793;1571267924311;6518;22673088250;67507851652;2737046425;670928;2813896477;309559;1407014883;1104;7673;774856;-16;6519;935019
3;59;1571267924311;1571267931113;6802;22666315456;67507851392;2733801561;733714;2813896217;315304;1406754526;841;8828;1014376;2;6802;967694
3;60;1571267931114;1571267937816;6702;22654239358;67507851458;2732737066;462840;2813896283;307076;1406741736;1301;9108;1023792;13;6702;1040169
3;61;1571267937816;1571267944504;6688;22647011628;67507860851;2741868779;277517;2813897785;299625;1406722874;951;9444;1271080;-30;6688;861160
3;62;1571267944504;1571267951417;6913;22659919342;67507850940;2651442115;789107;2813895765;303216;1406820378;1387;6123;747880;10;6914;992994
3;63;1571267951418;1571267957999;6581;22654036418;67507850614;2664294774;569369;2813895439;302013;1406657790;937;7805;841080;-7;6582;940029
3;64;1571267957999;1571267964485;6486;22671130244;67507850592;2702515518;557599;2813895417;296864;1406910084;793;9162;1002408;7;6486;920155
3;65;1571267964485;1571267970964;6479;22658970488;67507850592;2746254227;305677;2813895417;300873;1406930958;1139;9066;1101856;-1;6479;1016758
3;66;1571267970965;1571267978303;7338;22645640250;67507860662;2728903353;1021237;2813897401;313135;1406890881;1269;8786;1161824;2;7316;924606
3;67;1571267978303;1571267984803;6500;22669608486;67507850614;2764075737;580810;2813895439;325232;1406692508;1177;6374;729048;6;6501;921521
3;68;1571267984803;1571267991287;6484;22668819794;67507850591;2746075525;577400;2813895416;320852;1406964082;865;7665;888400;-13;6483;923514
3;69;1571267991287;1571267997768;6481;22662479306;67507850590;2746471144;452510;2813895415;315035;1407022377;831;9194;992416;3;6481;925365
3;70;1571267997768;1571268004247;6479;22658570740;67507850589;2741273233;395723;2813895414;319742;1406777567;1262;9956;1086704;10;6480;1020441
3;71;1571268004247;1571268010725;6478;22650061130;67507850584;2737348724;144551;2813895409;317498;1406926661;1197;7223;1021872;-13;6478;927252
3;72;1571268010725;1571268017210;6485;22669621188;67507850592;2744872062;590167;2813895417;296551;1406543110;1121;7109;709688;13;6485;927087
3;73;1571268017210;1571268023689;6479;22656756252;67507850586;2744786739;360323;2813895411;296396;1406954180;729;7931;943944;7;6479;925293
3;74;1571268023689;1571268030173;6484;22665706490;67507850590;2744056406;530073;2813895415;296606;1406680966;902;9560;1067408;-4;6483;929364
3;75;1571268030173;1571268036773;6600;22659068454;67507851468;2749056749;451460;2813896293;303174;1406803561;1265;9911;1131872;-10;6601;1049898
3;76;1571268036773;1571268043467;6694;22650531104;67507851330;2695535975;251588;2813896155;296916;1406813045;1314;6999;995296;-7;6694;862252
3;77;1571268043467;1571268050259;6792;22667439218;67507850864;2719058138;742017;2813895689;299912;1406845856;1211;7069;794912;11;6791;978185
3;78;1571268050259;1571268056743;6484;22665583850;67507850591;2751058801;521623;2813895416;297232;1406905357;830;8780;916208;5;6484;925859
3;79;1571268056743;1571268063227;6484;22665941404;67507850589;2737042798;543245;2813895414;296846;1406736942;1060;7996;1072448;134;6485;1016039
3;80;1571268063228;1571268069704;6476;22647985594;67507850588;2742363009;172765;2813895413;324896;1406644528;948;11089;1178144;-149;6477;957759
3;81;1571268069704;1571268076184;6480;22653609952;67507850585;2740840436;144227;2813895410;297033;1406938944;1338;5587;769144;24;6480;826573
3;82;1571268076184;1571268082667;6483;22667461556;67507850598;2739107288;551073;2813895423;296900;1406936373;1362;4196;601320;-4;6483;1120218
3;83;1571268082667;1571268089143;6476;22648062098;67507850582;2721529957;110423;2813895407;296338;1407045316;975;7645;759144;-1;6475;939160
3;84;1571268089143;1571268095621;6478;22653715364;67507850587;2722546799;132689;2813895412;296533;1406889554;1188;6515;829560;9;6478;933230
3;85;1571268095621;1571268102107;6486;22664792530;67507850595;2715365892;607300;2813895420;311807;1406946822;939;10185;1099720;-11;6486;918691
3;86;1571268102107;1571268108593;6486;22665062338;67507850626;2724349003;620176;2813895425;300653;1406875598;941;10479;1172016;9;6486;934484
3;87;1571268108593;1571268115072;6479;22656910866;67507850589;2750694723;461219;2813895414;315023;1406652160;1157;10158;1138320;-12;6480;1020797
3;88;1571268115073;1571268121550;6477;22649272438;67507850585;2749086890;171111;2813895410;296344;1406773176;1200;5665;929832;-12;6478;871291
3;89;1571268121550;1571268128034;6484;22670548288;67507850591;2748510229;603732;2813895416;306094;1406982445;1224;7381;715744;46;6484;927776
3;90;1571268128035;1571268134517;6482;22666350788;67507850590;2738279557;644572;2813895415;318453;1406918428;768;7690;945008;-32;6482;925896
3;91;1571268134517;1571268140998;6481;22652813814;67507850593;2691601473;380493;2813895418;309345;1406901373;1016;9862;1059208;154;6481;961138
3;92;1571268140998;1571268147468;6470;22629450894;67507850584;2619450945;162877;2813895409;305088;1406575735;1035;10079;1179904;-169;6471;981159
3;93;1571268147468;1571268154247;6779;22642035656;67507850696;2630017043;334523;2813895521;315472;1406975623;1353;5663;823072;19;6779;879932
3;94;1571268154247;1571268160834;6587;22668111694;67507850766;2750507066;550896;2813895591;296882;1406875078;1040;7475;823056;-17;6587;935621
3;95;1571268160835;1571268167314;6479;22658435106;67507850588;2742678484;388424;2813895413;319730;1407021902;827;8641;948416;5;6480;924731
3;96;1571268167314;1571268173797;6483;22662161318;67507850593;2735104197;443562;2813895418;323570;1406656437;1190;9038;1067968;13;6482;1011863
3;97;1571268173797;1571268180273;6476;22643495802;67507850584;2751704700;48934;2813895409;309616;1406781831;849;9260;1230904;-27;6477;922273
3;98;1571268180273;1571268186758;6485;22669314734;67507850595;2740945932;632285;2813895420;298404;1406886564;1353;6397;684536;30;6484;921229
3;99;1571268186758;1571268193242;6484;22667579524;67507850598;2737947394;601796;2813895423;325751;1407086629;978;7406;882472;-17;6484;920142
3;100;1571268193242;1571268199724;6482;22661963634;67507850591;2754382169;466889;2813895416;315667;1406810177;837;8591;942040;3;6482;927866
3;101;1571268199724;1571268224490;24766;22673521140;67507866335;2695841800;5281835;2813899850;305881;1406497628;4184;30497;3640896;4;24767;3596651
4;50;1571268698237;1571268711805;13568;22663340998;67507861351;2707378805;2552410;2813897671;314245;1406616979;2278;16597;2184496;-10;13568;2120056
4;51;1571268711805;1571268718340;6535;22651977526;67507850598;2633973990;548869;2813895423;325966;1406592150;1444;6099;665952;6;6536;904583
4;52;1571268718341;1571268724820;6479;22650542346;67507850587;2635337100;591751;2813895412;317180;1406616892;1017;7722;847576;20;6479;931219
4;53;1571268724820;1571268731296;6476;22645125746;67507850584;2631184031;410953;2813895409;325000;1407044581;894;8138;926192;-29;6477;919374
4;54;1571268731296;1571268737773;6477;22645234516;67507850591;2604391185;514297;2813895416;328635;1406707945;1261;9754;1058184;21;6477;1042828
4;55;1571268737773;1571268744244;6471;22628742210;67507850578;2618056370;82148;2813895403;325761;1406810447;1263;5945;983136;-15;6471;926505
4;56;1571268744244;1571268750745;6501;22667988032;67507851455;2704317480;654850;2813896280;304218;1406911301;1355;6330;683392;21;6500;930529
4;57;1571268750745;1571268762690;11945;22682144192;67507862036;2716307392;5089386;2813898843;312650;1406799971;1556;14776;1657872;-20;11945;1696317
4;58;1571268762690;1571268779740;17050;22655512332;67507861696;2645812326;3665699;2813898380;313900;1406846652;3020;20502;2598976;-97;17050;2492830
4;59;1571268779740;1571268786351;6611;22674507224;67507850600;2733766009;732887;2813895425;308691;1406663477;1145;7811;831632;92;6611;913829
4;60;1571268786351;1571268792837;6486;22676154834;67507850596;2734423543;774129;2813895421;297100;1407060654;902;8730;917112;18;6486;929174
4;61;1571268792837;1571268799819;6982;22663707750;67507850606;2734499660;779384;2813895431;311296;1406846521;1292;9058;1117904;-6;6983;1115771
4;62;1571268799819;1571268806411;6592;22645238458;67507851106;2723868646;155381;2813895931;297739;1407014109;911;8995;1190696;-15;6591;948421
4;63;1571268806411;1571268813204;6793;22665964764;67507851111;2763178505;610878;2813895936;317340;1406856473;1514;8175;708440;22;6793;971390
4;64;1571268813204;1571268819780;6576;22646994400;67507850586;2733721832;169078;2813895411;325383;1406927188;751;8132;938464;-16;6576;945262
4;65;1571268819780;1571268830603;10823;22660985288;67507862164;2698159798;3859579;2813898484;318365;1406799737;1975;14935;1626600;23;10824;1649077
4;66;1571268830604;1571268837110;6506;22654584940;67507850599;2626481161;661873;2813895424;322439;1406938839;1118;8034;1049408;-27;6507;937302
4;67;1571268837110;1571268843585;6475;22639129672;67507850583;2613746554;350455;2813895408;317865;1406695281;1210;6036;763544;6;6474;928808
4;68;1571268843585;1571268850362;6777;22645639228;67507850596;2627510608;532138;2813895421;306111;1406882238;970;7970;930024;22;6777;966090
4;69;1571268850362;1571268857247;6885;22651374984;67507850610;2630824416;704274;2813895435;308993;1406749254;945;9726;1092752;-17;6885;985460
4;70;1571268857247;1571268863922;6675;22641639996;67507850593;2623625726;558561;2813895418;308605;1406664360;1364;9955;1118416;2;6676;1062162
4;71;1571268863922;1571268870701;6779;22642966698;67507850601;2614854127;448346;2813895426;306252;1406937976;1235;9005;1022568;14;6778;966575
4;72;1571268870701;1571268877278;6577;22645288974;67507850587;2638687256;495274;2813895412;307247;1407039731;1241;6241;715440;-24;6577;937759
4;73;1571268877278;1571268884055;6777;22644317928;67507850605;2632024360;460974;2813895430;313349;1406775827;817;8701;994696;15;6777;968282
4;74;1571268884055;1571268890845;6790;22645991672;67507850636;2625617921;617155;2813895461;305138;1406801353;1035;9432;1067912;-11;6791;967664
4;75;1571268890845;1571268897732;6887;22653622946;67507850636;2689148391;648016;2813895461;316952;1406734608;1427;10368;1153320;16;6886;1094317
4;76;1571268897732;1571268904509;6777;22648503456;67507850589;2759340033;232457;2813895414;309743;1406680086;1379;4256;805672;1;6778;1086342
4;77;1571268904509;1571268911305;6796;22660579846;67507851266;2719602978;460959;2813896091;307669;1406761999;1540;5115;542904;-4;6796;973688
4;78;1571268911306;1571268917901;6595;22650797408;67507851445;2749057222;170641;2813896270;320946;1406693804;937;8369;903360;-6;6595;941836
4;79;1571268917901;1571268924503;6602;22656515498;67507851386;2726728688;390789;2813896211;325072;1407035641;1059;7291;927888;-4;6602;964052
4;80;1571268924503;1571268931320;6817;22678046556;67507851454;2747021126;914289;2813896279;316582;1406757928;1122;9103;1130840;5;6818;990658
4;81;1571268931320;1571268937917;6597;22648091882;67507852184;2731904218;170852;2813897009;300489;1406970477;1903;4024;615576;-18;6596;1011311
4;82;1571268937917;1571268944413;6496;22652992810;67507851387;2737908399;147524;2813896212;317376;1406726493;1086;8947;1040232;4;6496;932782
4;83;1571268944413;1571268950998;6585;22663278656;67507850614;2651223909;795282;2813895439;319288;1406869252;1405;6791;683760;4;6586;935298
4;84;1571268950998;1571268957474;6476;22643217526;67507850587;2615070554;415231;2813895412;320789;1406648944;930;7454;874808;-2;6475;922646
4;85;1571268957474;1571268964159;6685;22664619374;67507850601;2716351543;515006;2813895426;312804;1406799534;913;9152;1013056;15;6685;948946
4;86;1571268964159;1571268970947;6788;22653408326;67507851201;2741387724;345912;2813896026;318820;1406597719;1579;6706;998976;8;6788;1072917
4;87;1571268970947;1571268977439;6492;22643610558;67507852168;2727809693;67081;2813896993;325493;1406769673;1618;4295;589440;-18;6493;935377
4;88;1571268977439;1571268984450;7011;22672317808;67507851888;2738980201;829446;2813896713;309390;1406764379;1444;6817;699264;-4;7010;1006293
4;89;1571268984450;1571268991040;6590;22655705490;67507851079;2732450469;304044;2813895904;303043;1406796616;893;7918;919216;12;6590;939487
4;90;1571268991040;1571268997521;6481;22653786758;67507850606;2666027089;440121;2813895431;319644;1406894913;1412;5887;842480;-9;6481;1022275
4;91;1571268997521;1571269003990;6469;22626544618;67507850581;2624529737;90374;2813895406;325828;1406717783;1704;5590;638840;-6;6470;934291
4;92;1571269003990;1571269010562;6572;22631758132;67507850584;2619747204;181065;2813895409;296851;1406938813;1315;7442;955544;27;6571;862745
4;93;1571269010562;1571269017147;6585;22672278680;67507850599;2743220793;733579;2813895424;304305;1406848900;1244;5479;734792;-27;6586;947438
4;94;1571269017147;1571269023732;6585;22669419854;67507850596;2748177094;804835;2813895421;315032;1406521016;926;8153;864088;2;6585;932277
4;95;1571269023732;1571269030611;6879;22647678702;67507850620;2673853196;468553;2813895445;313536;1406762442;1222;8793;1026184;2;6879;1113684
4;96;1571269030612;1571269037080;6468;22623625494;67507850579;2622020310;34422;2813895404;307602;1406677402;1407;4564;730472;1;6468;925603
4;97;1571269037080;1571269043656;6576;22635614284;67507850585;2598635092;213499;2813895410;321936;1406730077;1500;6248;783320;8;6576;881652
4;98;1571269043656;1571269050245;6589;22658306772;67507850626;2653682429;702062;2813895451;304283;1406847987;1239;6316;720808;9;6589;945666
4;99;1571269050245;1571269057128;6883;22665299588;67507850597;2720430293;850974;2813895422;315918;1406681464;916;8839;968976;-21;6883;977128
