0;53;1571248850319;1571248857130;6811;22829392200;67507861916;2728496946;8941544;2813898649;319497;1406898904;0;0;0;0;0;0
0;54;1571248857130;1571248863690;6560;22816800576;67507850654;2638939922;8786683;2813895479;320919;1406592414;51;22;5848;0;87;374
0;55;1571248863690;1571248870218;6528;22828550802;67507850649;2629835821;8992615;2813895474;320251;1406935631;0;0;0;0;0;0
0;56;1571248870218;1571248876743;6525;22815495190;67507850648;2635611906;8629523;2813895473;317775;1406884361;27;1;944;0;7;131
0;57;1571248876743;1571248883270;6527;22821423812;67507850647;2634922876;8548528;2813895472;317640;1406931708;0;0;0;0;0;0
0;58;1571248883270;1571248892422;9152;22854576762;67507876025;2658300766;10304008;2813912693;316642;1406925997;8;13;744;0;3;11
0;59;1571248892422;1571248898984;6562;22839661840;67507850645;2728818635;8862536;2813895470;296612;1406889307;31;14;4816;0;82;293
0;60;1571248898984;1571248905517;6533;22845648570;67507850644;2744754561;8653189;2813895469;303831;1406954709;11;12;760;0;4;23
0;61;1571248905518;1571248912050;6532;22843352574;67507850639;2740449852;9104977;2813895464;296439;1406853988;0;0;0;0;0;0
0;62;1571248912050;1571248921810;9760;22939502918;67507880517;2729005779;14520917;2813917190;310641;1407021749;19;7;928;0;6;76
0;63;1571248921810;1571248928394;6584;22947780534;67507850709;2723118665;13751166;2813895534;316877;1406599150;33;14;5008;0;83;286
0;64;1571248928394;1571248934928;6534;22842686376;67507850654;2735992992;9161976;2813895479;320582;1406896932;7;16;760;0;3;5
0;65;1571248934928;1571248941561;6633;22833356976;67507850653;2725558119;8704562;2813895478;322543;1406512942;0;0;0;0;0;0
0;66;1571248941561;1571248950437;8876;22850865880;67507870288;2729599028;9830180;2813906900;316738;1406935304;12;9;744;0;4;25
0;67;1571248950437;1571248957014;6577;22853028286;67507850653;2742339070;9099072;2813895478;320077;1406852110;21;12;4496;0;73;176
0;68;1571248957014;1571248963644;6630;22836200472;67507850644;2740477121;8664445;2813895469;296762;1406922370;0;0;0;0;0;0
0;69;1571248963645;1571248970176;6531;22841513850;67507850641;2735630371;8616563;2813895466;302098;1406834920;7;16;760;0;3;8
0;70;1571248970177;1571248976711;6534;22851001076;67507850644;2739192088;9097552;2813895469;313714;1406937285;0;0;0;0;0;0
0;71;1571248976711;1571248983242;6531;22838831684;67507850638;2743646432;8671989;2813895463;319567;1406885120;6;14;736;0;2;6
0;72;1571248983243;1571248989777;6534;22849902864;67507850641;2744883340;9062488;2813895466;297361;1406915337;0;0;0;0;0;0
0;73;1571248989777;1571248996306;6529;22832454112;67507850638;2741054292;8637627;2813895463;311415;1406893826;47;31;9488;0;140;414
0;74;1571248996306;1571249002836;6530;22834069164;67507850636;2743557103;8596399;2813895461;313802;1406885878;0;0;0;0;0;0
0;75;1571249002836;1571249009368;6532;22844290332;67507850641;2744601114;9055142;2813895466;303719;1406620004;0;0;0;0;0;0
0;76;1571249009369;1571249015898;6529;22837876114;67507850641;2741949332;8621105;2813895466;297694;1406443350;6;19;920;0;3;4
0;77;1571249015899;1571249022430;6531;22840582662;67507850644;2742742382;9071663;2813895469;297332;1406798761;0;0;0;0;0;0
0;78;1571249022430;1571249029295;6865;22947853680;67507850753;2736033938;14543590;2813895578;301594;1406876468;506;27;61936;0;1879;2774
0;79;1571249029295;1571249035873;6578;22997875762;67507850700;2721950381;15899977;2813895525;298005;1406851748;0;0;0;0;0;0
0;80;1571249035873;1571249042409;6536;22849979076;67507850657;2735537306;9115137;2813895482;297975;1406907552;4;16;736;0;2;2
0;81;1571249042409;1571249049041;6632;22836395236;67507850649;2733578360;8680432;2813895474;296630;1406801432;0;0;0;0;0;0
0;82;1571249049041;1571249055574;6533;22840586020;67507850649;2741886745;9215687;2813895474;317793;1406905661;0;0;0;0;0;0
0;83;1571249055575;1571249062208;6633;22839329836;67507850676;2737259639;8747657;2813895501;296416;1406790193;128;37;8032;0;301;11362
0;84;1571249062209;1571249068840;6631;22837817568;67507850647;2732760487;8682194;2813895472;296698;1406806833;0;0;0;0;0;0
0;85;1571249068840;1571249075375;6535;22842560816;67507850656;2732121715;9146994;2813895481;314001;1406694909;3;18;744;0;25;26
0;86;1571249075375;1571249081905;6530;22834736092;67507850646;2742802879;8643533;2813895471;320221;1406955534;0;0;0;0;0;0
0;87;1571249081906;1571249088441;6535;22846871904;67507850668;2733270116;9153413;2813895493;319993;1406849487;61;38;8256;0;183;1216
0;88;1571249088441;1571249094972;6531;22832273364;67507850645;2739736251;8677339;2813895470;314361;1406797195;0;0;0;0;0;0
0;89;1571249094972;1571249101504;6532;22832251026;67507850649;2733493767;8641798;2813895474;296867;1406868772;0;0;0;0;0;0
0;90;1571249101504;1571249108038;6534;22845959550;67507850652;2731946322;9127087;2813895477;296595;1406885085;13;8;744;0;4;27
0;91;1571249108038;1571249114571;6533;22838183152;67507850651;2739792053;8619665;2813895476;297063;1406838980;0;0;0;0;0;0
0;92;1571249114571;1571249121105;6534;22840888532;67507850673;2736055389;9095829;2813895498;312213;1406989264;66;17;6216;0;96;651
0;93;1571249121105;1571249127639;6534;22844140098;67507850651;2738876316;8602440;2813895476;304564;1406815545;0;0;0;0;0;0
0;94;1571249127640;1571249134172;6532;22836231716;67507850660;2732915539;8683860;2813895485;296387;1406947789;8;18;928;0;3;4
0;95;1571249134172;1571249140706;6534;22843854230;67507850659;2743976627;9013174;2813895484;296356;1406878015;0;0;0;0;0;0
0;96;1571249140706;1571249147237;6531;22830249950;67507850649;2730930632;8593321;2813895474;298925;1406901380;0;0;0;0;0;0
0;97;1571249147237;1571249153771;6534;22843994682;67507850675;2730563559;9031469;2813895500;296356;1406907746;55;18;6408;0;109;513
0;98;1571249153772;1571249160303;6531;22832679974;67507850653;2731244822;8656590;2813895478;308973;1406898447;0;0;0;0;0;0
0;99;1571249160303;1571249166836;6533;22834325248;67507850653;2738397025;8567748;2813895478;314100;1406877305;8;13;744;0;3;8
0;100;1571249166836;1571249173367;6531;22834353280;67507850653;2731445196;9025698;2813895478;320323;1406993245;0;0;0;0;0;0
0;101;1571249173367;1571249179899;6532;22834701928;67507850654;2739872240;8573255;2813895479;319613;1406855080;14;9;760;0;4;41
0;102;1571249179899;1571249186432;6533;22839211868;67507850668;2731040988;9124913;2813895493;316267;1406938084;48;8;5520;0;84;495
1;52;1571249674319;1571249680847;6528;22825506994;67507850650;2638493340;8786121;2813895475;296437;1406769891;9;12;744;0;3;7
1;53;1571249680847;1571249687378;6531;22834070770;67507850650;2635950477;9269866;2813895475;296516;1406768839;0;0;0;0;0;0
1;54;1571249687378;1571249693908;6530;22830421062;67507850666;2699217692;8655817;2813895491;303957;1406803745;9;19;944;0;2;5
1;55;1571249693908;1571249700438;6530;22839184128;67507850654;2743366946;8613818;2813895479;296523;1406738504;23;16;5072;0;65;174
1;56;1571249700438;1571249709332;8894;22864999848;67507874406;2723438406;10221692;2813911093;315429;1406812521;8;13;744;0;3;18
1;57;1571249709332;1571249721518;12186;22861279622;67507886577;2669942500;10716732;2813923304;311869;1406923658;0;0;0;0;0;0
1;58;1571249721518;1571249728070;6552;22826964658;67507850651;2626312339;9017296;2813895476;325005;1406571491;54;15;5864;0;107;392
1;59;1571249728070;1571249734623;6553;22822983530;67507860543;2644027724;8669360;2813897250;327312;1406784575;0;0;0;0;0;0
1;60;1571249734623;1571249741181;6558;22832368994;67507850651;2629974102;9135337;2813895476;326287;1406468778;4;16;736;0;2;2
1;61;1571249741181;1571249747708;6527;22824175766;67507850647;2640857704;8646759;2813895472;327633;1406744195;0;0;0;0;0;0
1;62;1571249747708;1571249754233;6525;22819238046;67507850645;2632043819;8725645;2813895470;312853;1406813083;6;18;768;0;12;24
1;63;1571249754233;1571249760761;6528;22823879824;67507850649;2638565073;9236075;2813895474;296147;1406715857;0;0;0;0;0;0
1;64;1571249760761;1571249767288;6527;22821898750;67507850648;2636465109;8705295;2813895473;320369;1406785375;19;14;4752;0;90;136
1;65;1571249767288;1571249773817;6529;22825540136;67507850649;2643179992;9164785;2813895474;320076;1406814255;21;4;920;0;5;75
1;66;1571249773818;1571249780348;6530;22824482220;67507850648;2638942618;8709960;2813895473;313026;1406658610;0;0;0;0;0;0
1;67;1571249780348;1571249788093;7745;22835524492;67507867650;2641106185;9394159;2813903970;318102;1406821535;13;11;768;0;13;33
1;68;1571249788093;1571249794633;6540;22850675788;67507850669;2736882186;9117940;2813895494;322833;1406758325;38;12;6672;0;83;356
1;69;1571249794633;1571249801267;6634;22850504968;67507850643;2744130633;8675234;2813895468;323733;1406718539;7;13;736;0;3;13
1;70;1571249801267;1571249807899;6632;22839633224;67507850649;2662466100;9328116;2813895474;323047;1406830789;0;0;0;0;0;0
1;71;1571249807899;1571249814422;6523;22809345232;67507850642;2636141525;8954183;2813895467;325917;1406688684;0;0;0;0;0;0
1;72;1571249814423;1571249820949;6526;22820127770;67507850651;2631373638;8647016;2813895476;318143;1406801737;8;15;760;0;3;7
1;73;1571249820949;1571249827480;6531;22829746396;67507850649;2637759073;9164649;2813895474;325300;1406792524;27;16;6416;0;87;196
1;74;1571249827480;1571249834008;6528;22821927950;67507850650;2632974378;8696137;2813895475;302950;1406753713;4;22;928;0;15;31
1;75;1571249834008;1571249840536;6528;22825834764;67507850649;2640463619;9159611;2813895474;324974;1406750209;0;0;0;0;0;0
1;76;1571249840536;1571249847062;6526;22816212342;67507850648;2628087189;8883476;2813895473;321500;1406838323;10;13;760;0;12;27
1;77;1571249847062;1571249853590;6528;22819749484;67507850655;2634518297;8651743;2813895480;320989;1406700982;343;10;41288;1;1273;1632
1;78;1571249853590;1571249860223;6633;22845156988;67507850697;2746311982;9086597;2813895522;300924;1406597132;124;6;7328;-1;488;512
1;79;1571249860223;1571249866754;6531;22841975648;67507850642;2738115107;8584148;2813895467;319325;1406693756;9;12;744;0;3;8
1;80;1571249866754;1571249873288;6534;22855284278;67507850639;2749055517;8852121;2813895464;321118;1406816761;0;0;0;0;0;0
1;81;1571249873289;1571249879817;6528;22834089458;67507850645;2741234850;8888889;2813895470;310795;1406765104;7;16;760;0;3;6
1;82;1571249879817;1571249886347;6530;22837396796;67507850652;2745844933;8612278;2813895477;296363;1406771138;40;14;6096;0;83;436
1;83;1571249886347;1571249892881;6534;22847297202;67507850658;2734686314;9171847;2813895483;318089;1406717058;78;19;1504;0;44;1117
1;84;1571249892881;1571249899412;6531;22841965574;67507850639;2746597402;8615992;2813895464;296810;1406820129;0;0;0;0;0;0
1;85;1571249899412;1571249906041;6629;22822854174;67507850646;2635370604;8869719;2813895471;297601;1406674417;0;0;0;0;0;0
1;86;1571249906041;1571249912570;6529;22825549918;67507850654;2624408791;9074209;2813895479;325096;1406837022;63;40;9224;0;120;586
1;87;1571249912570;1571249919097;6527;22821845314;67507850647;2639182010;8733312;2813895472;326329;1406663505;0;0;0;0;0;0
1;88;1571249919097;1571249925625;6528;22824287602;67507850650;2638298962;9309822;2813895475;321565;1406802335;5;15;736;0;2;3
1;89;1571249925626;1571249932151;6525;22813863494;67507850644;2633675489;8698914;2813895469;320266;1406742738;0;0;0;0;0;0
1;90;1571249932151;1571249938681;6530;22831616364;67507850654;2641257786;9016192;2813895479;321232;1406761709;18;5;760;0;5;53
1;91;1571249938682;1571249945209;6527;22815215308;67507850660;2638141604;8734660;2813895485;318695;1406718259;36;10;5392;0;82;340
1;92;1571249945210;1571249951737;6527;22821200432;67507850655;2643672093;8614227;2813895480;321701;1406835179;0;0;0;0;0;0
1;93;1571249951737;1571249958266;6529;22826216408;67507850647;2626886963;9225532;2813895472;322995;1406709962;4;17;744;0;10;27
1;94;1571249958266;1571249964795;6529;22826581116;67507850654;2647015639;8717583;2813895479;320290;1406838012;0;0;0;0;0;0
1;95;1571249964795;1571249971322;6527;22822407268;67507850648;2634164155;9216495;2813895473;296559;1406688812;7;16;760;0;3;7
1;96;1571249971322;1571249977849;6527;22811122782;67507850651;2646145203;9073621;2813895476;296683;1406781743;54;6;5584;0;103;623
1;97;1571249977849;1571249984375;6526;22818710402;67507850647;2633676518;8698711;2813895472;296569;1406789145;19;7;928;0;15;231
1;98;1571249984375;1571249990906;6531;22828577228;67507850652;2639871961;9203474;2813895477;320915;1406662919;0;0;0;0;0;0
1;99;1571249990906;1571249997436;6530;22823669730;67507850664;2626312528;8727008;2813895489;313601;1406713183;0;0;0;0;0;0
1;100;1571249997436;1571250003966;6530;22829778224;67507850652;2644051620;9190954;2813895477;298403;1406795486;56;23;6152;0;90;496
1;101;1571250003966;1571250010491;6525;22812930700;67507850644;2641252609;8884357;2813895469;319170;1406744689;0;0;0;0;0;0
2;53;1571250490871;1571250499807;8936;22836346910;67507873079;2654600454;9579927;2813909427;300551;1407099434;0;0;0;0;0;0
2;54;1571250499807;1571250506363;6556;22833674964;67507850655;2731562350;8667363;2813895480;322877;1406838669;20;5;920;0;5;77
2;55;1571250506364;1571250513534;7170;22840661794;67507850656;2732252970;9293419;2813895481;310700;1407071887;0;0;0;0;0;0
2;56;1571250513534;1571250520065;6531;22834872018;67507850665;2737255652;8647737;2813895490;296632;1406803967;34;30;5832;0;72;213
2;57;1571250520065;1571250527396;7331;22853914652;67507866778;2727210581;9733745;2813903107;298878;1407110777;0;0;0;0;0;0
2;58;1571250527396;1571250536709;9313;23033519034;67507879328;2692090389;19002630;2813916152;321563;1407103142;6;15;744;0;3;3
2;59;1571250536709;1571250543269;6560;22829568276;67507850649;2721674235;9002262;2813895474;297557;1407040451;0;0;0;0;0;0
2;60;1571250543269;1571250549802;6533;22838458362;67507850658;2738861095;8732688;2813895483;313155;1407103555;9;19;944;0;12;19
2;61;1571250549802;1571250556339;6537;22850803246;67507850673;2709824078;9159751;2813895498;296913;1406841878;32;16;5104;0;67;258
2;62;1571250556339;1571250562873;6534;22841843664;67507850649;2732959820;8679996;2813895474;296178;1407052019;0;0;0;0;0;0
2;63;1571250562873;1571250569407;6534;22840808524;67507850659;2728237065;9093079;2813895484;296688;1406914309;4;16;736;0;2;2
2;64;1571250569407;1571250576082;6675;22982860976;67507850690;2737255994;16997457;2813895515;302876;1407016482;0;0;0;0;0;0
2;65;1571250576082;1571250586518;10436;22953439494;67507881444;2710409576;14352296;2813918309;319147;1407139194;5;19;768;0;12;22
2;66;1571250586518;1571250593085;6567;22836382096;67507850664;2729298680;8692374;2813895489;308425;1406915267;29;8;4496;0;61;220
2;67;1571250593085;1571250599619;6534;22840194740;67507850655;2730791764;9206785;2813895480;323557;1406757701;4;16;736;0;2;2
2;68;1571250599619;1571250606651;7032;22834559432;67507850653;2732279726;8805276;2813895478;323992;1406762262;0;0;0;0;0;0
2;69;1571250606651;1571250613283;6632;22838041824;67507850642;2740951903;8626586;2813895467;304720;1407072425;9;15;768;0;4;13
2;70;1571250613283;1571250619816;6533;22844045928;67507850643;2742950018;9280506;2813895468;296434;1407069933;0;0;0;0;0;0
2;71;1571250619816;1571250626349;6533;22837082166;67507850643;2745594754;8696049;2813895468;301809;1407066467;49;30;7528;0;84;348
2;72;1571250626349;1571250632882;6533;22842610456;67507850640;2743139176;9153901;2813895465;319182;1407068510;0;0;0;0;0;0
2;73;1571250632882;1571250639413;6531;22836980696;67507850638;2746222421;8697583;2813895463;313467;1407034133;0;0;0;0;0;0
2;74;1571250639414;1571250645944;6530;22830513042;67507850638;2740932794;8612814;2813895463;314359;1407154548;9;14;760;0;3;6
2;75;1571250645944;1571250652479;6535;22849647656;67507850643;2740025064;9199158;2813895468;310399;1406981177;0;0;0;0;0;0
2;76;1571250652479;1571250659012;6533;22838195854;67507850645;2738230068;8732398;2813895470;314783;1407121472;9;12;744;0;2;2
2;77;1571250659012;1571250665548;6536;22849576408;67507850643;2742503852;9175956;2813895468;322362;1407039199;40;12;6032;0;85;412
2;78;1571250665548;1571250672078;6530;22832558064;67507850638;2737746359;8799052;2813895463;320182;1407090356;17;6;760;0;5;58
2;79;1571250672078;1571250678612;6534;22841504360;67507850641;2750992528;9079844;2813895466;324654;1407050872;0;0;0;0;0;0
2;80;1571250678612;1571250685196;6584;23018640466;67507850695;2738973938;17164160;2813895520;320320;1407071169;0;0;0;0;0;0
2;81;1571250685196;1571250691754;6558;22927619978;67507850667;2745480184;12535212;2813895492;319892;1406993996;41;30;6392;0;81;339
2;82;1571250691754;1571250698290;6536;22847510216;67507850640;2731620671;9145727;2813895465;322871;1407172887;0;0;0;0;0;0
2;83;1571250698290;1571250704821;6531;22837939770;67507850642;2744295931;8704351;2813895467;317284;1406955510;7;16;760;0;3;5
2;84;1571250704821;1571250711352;6531;22834476650;67507850637;2739868533;8802790;2813895462;314209;1407128196;0;0;0;0;0;0
2;85;1571250711352;1571250717885;6533;22840422354;67507850640;2746585303;9157404;2813895465;315499;1407012845;7;13;736;0;2;10
2;86;1571250717886;1571250724418;6532;22835356008;67507850649;2707227878;8635591;2813895474;300245;1407081873;0;0;0;0;0;0
2;87;1571250724418;1571250730945;6527;22824954676;67507850657;2639246087;9066827;2813895482;320181;1406847114;32;10;5392;0;81;289
2;88;1571250730945;1571250737657;6712;23103414490;67507850757;2699863557;25799066;2813895582;303559;1406983708;476;33;48032;0;1863;2425
2;89;1571250737657;1571250744274;6617;23132977008;67507850725;2732216629;23081757;2813895550;308656;1406992301;0;0;0;0;0;0
2;90;1571250744274;1571250750809;6535;22844914044;67507850639;2737495090;9160237;2813895464;296220;1407154341;6;14;736;0;2;5
2;91;1571250750809;1571250757342;6533;22840830716;67507850640;2742056064;8814812;2813895465;300480;1406962136;0;0;0;0;0;0
2;92;1571250757342;1571250763872;6530;22827607642;67507850659;2642469149;9045532;2813895484;302383;1407116890;79;19;1584;0;43;1067
2;93;1571250763872;1571250770504;6632;22833516846;67507850649;2736088148;8875827;2813895474;298110;1407022522;38;16;6352;0;96;386
2;94;1571250770504;1571250777036;6532;22838336306;67507850640;2748583718;8747988;2813895465;298163;1407073306;0;0;0;0;0;0
2;95;1571250777036;1571250783569;6533;22843436816;67507850641;2741551955;9230005;2813895466;296331;1407068936;8;21;880;0;41;53
2;96;1571250783569;1571250790100;6531;22836051844;67507850636;2749259349;8764758;2813895461;296098;1407052100;0;0;0;0;0;0
2;97;1571250790100;1571250796636;6536;22847585990;67507850644;2742576126;9213091;2813895469;314167;1407030700;8;15;760;0;3;8
2;98;1571250796636;1571250803166;6530;22832482144;67507850637;2743343824;8896109;2813895462;320167;1407167244;55;16;7984;0;108;654
2;99;1571250803166;1571250809697;6531;22834001712;67507850644;2740989155;8766601;2813895469;319317;1407006696;7;14;744;0;2;3
2;100;1571250809697;1571250816229;6532;22841041248;67507850639;2741807947;9172600;2813895464;319684;1407117663;0;0;0;0;0;0
2;101;1571250816229;1571250822764;6535;22841183890;67507850641;2743886762;8732074;2813895466;306570;1407068200;0;0;0;0;0;0
2;102;1571250822764;1571250835781;13017;22879296168;67507891669;2727786130;10622372;2813923501;311994;1406705609;7;16;760;0;3;5
3;54;1571251321110;1571251327666;6556;22829390156;67507850651;2634842052;9130614;2813895476;326327;1406687675;0;0;0;0;0;0
3;55;1571251327667;1571251334194;6527;22826067050;67507850651;2641997426;8591401;2813895476;296704;1406922997;10;10;736;0;3;21
3;56;1571251334194;1571251340721;6527;22820023818;67507850648;2630996748;8595878;2813895473;296520;1406973596;0;0;0;0;0;0
3;57;1571251340722;1571251347379;6657;22828874046;67507861481;2644861991;9058146;2813898228;315430;1407004864;9;15;768;0;3;8
3;58;1571251347379;1571251353905;6526;22814013874;67507850645;2634058318;8549867;2813895470;324268;1406621095;23;16;5392;0;72;172
3;59;1571251353906;1571251365383;11477;22865342218;67507883281;2676147718;10817513;2813920059;311420;1406983828;7;13;736;0;3;5
3;60;1571251365383;1571251371928;6545;22852176814;67507850659;2730315928;9455864;2813895484;298134;1406909692;0;0;0;0;0;0
3;61;1571251371928;1571251378460;6532;22833297116;67507850668;2703629627;8685915;2813895493;316578;1406973953;8;16;768;0;12;21
3;62;1571251378460;1571251384988;6528;22825174260;67507850657;2626315261;8483729;2813895482;319353;1407033957;17;16;4688;0;43;99
3;63;1571251384988;1571251391518;6530;22833135640;67507850654;2642271804;9122145;2813895479;315102;1406936414;5;20;920;0;2;2
3;64;1571251391518;1571251398045;6527;22826630318;67507850649;2636692143;8540305;2813895474;316411;1407006970;0;0;0;0;0;0
3;65;1571251398046;1571251406515;8469;22835655600;67507867948;2652441101;10052477;2813904632;314067;1406970106;10;13;760;0;35;196
3;66;1571251406515;1571251413090;6575;22837324672;67507850653;2636552545;9036207;2813895478;321297;1406963736;0;0;0;0;0;0
3;67;1571251413091;1571251419624;6533;22841314852;67507850659;2724850128;8731137;2813895484;296958;1406970654;24;12;4976;0;94;177
3;68;1571251419624;1571251426158;6534;22841745990;67507850653;2729658615;9268086;2813895478;297882;1406938882;5;16;744;0;2;2
3;69;1571251426159;1571251432691;6532;22834519574;67507850649;2725221204;8728884;2813895474;300202;1406943965;0;0;0;0;0;0
3;70;1571251432691;1571251439224;6533;22835761742;67507850655;2724921694;8707493;2813895480;318149;1407061432;9;14;760;0;4;14
3;71;1571251439224;1571251445859;6635;22846291700;67507850652;2716671823;9212920;2813895477;319404;1406913142;0;0;0;0;0;0
3;72;1571251445859;1571251452390;6531;22820327790;67507850629;2634254677;8583937;2813895454;319008;1407025547;28;30;5544;0;83;210
3;73;1571251452390;1571251458926;6536;22833934990;67507850636;2645673976;9118932;2813895461;318931;1406955516;0;0;0;0;0;0
3;74;1571251458926;1571251465457;6531;22821832320;67507850647;2681727025;8768462;2813895472;309639;1406836368;0;0;0;0;0;0
3;75;1571251465457;1571251471991;6534;22835029114;67507850656;2696631504;8682434;2813895481;296794;1406941017;8;16;768;0;13;50
3;76;1571251471991;1571251478527;6536;22840245548;67507850665;2690992604;9210602;2813895490;309860;1406653331;0;0;0;0;0;0
3;77;1571251478528;1571251485061;6533;22837118228;67507850654;2732333313;8884714;2813895479;297616;1406897808;35;41;6640;0;98;434
3;78;1571251485061;1571251491596;6535;22846154314;67507850657;2731175303;9297021;2813895482;296764;1407011091;0;0;0;0;0;0
3;79;1571251491596;1571251498126;6530;22824917154;67507850652;2731596712;8968043;2813895477;296262;1406861121;25;4;952;0;41;258
3;80;1571251498126;1571251504656;6530;22822663498;67507850669;2635054404;8645142;2813895494;306305;1407003438;0;0;0;0;0;0
3;81;1571251504656;1571251511187;6531;22827465584;67507850638;2639920837;9054267;2813895463;296258;1406890265;0;0;0;0;0;0
3;82;1571251511187;1571251517719;6532;22823235234;67507850650;2663114926;8650755;2813895476;296596;1406978477;36;31;6832;0;89;293
3;83;1571251517719;1571251524254;6535;22844696650;67507850657;2732534264;9261790;2813895482;301794;1406913468;0;0;0;0;0;0
3;84;1571251524254;1571251530784;6530;22825569774;67507850652;2728814245;9040536;2813895477;321304;1406979321;7;16;760;0;3;5
3;85;1571251530784;1571251537317;6533;22836376548;67507850652;2724388537;8647082;2813895477;303892;1406788741;0;0;0;0;0;0
3;86;1571251537317;1571251543851;6534;22839635852;67507850651;2731056713;9243892;2813895476;298077;1407049519;46;33;7128;0;120;514
3;87;1571251543851;1571251550381;6530;22827762986;67507850648;2737977597;8653503;2813895473;301496;1406845694;0;0;0;0;0;0
3;88;1571251550381;1571251556916;6535;22842057554;67507850653;2732638552;9254987;2813895478;296502;1407003469;341;12;40840;1;1202;1671
3;89;1571251556916;1571251563444;6528;22820331878;67507850646;2739489748;8974207;2813895471;296586;1406895702;148;10;8272;-1;424;554
3;90;1571251563444;1571251569976;6532;22834481176;67507850652;2723482752;8744101;2813895477;314375;1406995721;0;0;0;0;0;0
3;91;1571251569976;1571251576514;6538;22856383512;67507850655;2737553006;9368933;2813895480;312582;1406943184;13;8;744;0;4;34
3;92;1571251576515;1571251583047;6532;22835608880;67507850654;2732862998;8748711;2813895479;314256;1406981620;0;0;0;0;0;0
3;93;1571251583047;1571251589580;6533;22839212598;67507850653;2732198195;9095656;2813895478;315816;1406923659;144;28;7784;0;154;2211
3;94;1571251589581;1571251596113;6532;22829167944;67507850650;2725066590;8877020;2813895475;296578;1407040078;0;0;0;0;0;0
3;95;1571251596113;1571251602646;6533;22838501578;67507850650;2731267149;8754311;2813895475;319340;1406901054;0;0;0;0;0;0
3;96;1571251602646;1571251609182;6536;22845444608;67507850652;2726658887;9263248;2813895477;315649;1407016688;7;18;920;0;3;6
3;97;1571251609182;1571251615713;6531;22830882714;67507850647;2732465250;8740219;2813895472;320430;1406964510;0;0;0;0;0;0
3;98;1571251615713;1571251622248;6535;22842990786;67507850654;2734813410;9163391;2813895479;320844;1406999698;16;8;768;0;4;39
3;99;1571251622248;1571251628777;6529;22822610938;67507850662;2731617766;8999392;2813895487;296213;1406964715;50;24;7888;0;115;545
3;100;1571251628777;1571251635312;6535;22837015736;67507850657;2732630497;8665720;2813895482;317509;1406956396;0;0;0;0;0;0
3;101;1571251635312;1571251641846;6534;22840705448;67507850654;2725484928;9129939;2813895479;323413;1406962512;13;7;736;0;4;38
3;102;1571251641847;1571251655394;13547;22894421768;67507920947;2679156742;10672366;2813953987;309349;1407120990;64;23;6472;0;100;579
3;103;1571251655394;1571251668498;13104;22876563048;67507897272;2671008037;10701005;2813934436;309321;1407158183;5;15;736;0;2;2
4;50;1571252158602;1571252165126;6524;22818979188;67507850645;2636105863;9089994;2813895470;306973;1407032178;12;8;736;0;3;26
4;51;1571252165126;1571252172446;7320;22821877580;67507850657;2633667761;8968743;2813895482;303912;1406775855;0;0;0;0;0;0
4;52;1571252172447;1571252179175;6728;22829208094;67507850662;2688288169;8869829;2813895487;311518;1406789060;39;6;5136;0;70;376
4;53;1571252179175;1571252185710;6535;22849034602;67507850643;2744859248;9226729;2813895468;323021;1407072436;7;16;768;0;12;27
4;54;1571252185710;1571252192243;6533;22839177704;67507850641;2740615538;8725632;2813895466;296381;1406978228;0;0;0;0;0;0
4;55;1571252192243;1571252198777;6534;22846506028;67507850648;2739941445;9329816;2813895473;296200;1407028533;6;14;736;0;2;3
4;56;1571252198777;1571252205309;6532;22839439920;67507850638;2743821877;8873651;2813895463;296462;1407090628;0;0;0;0;0;0
4;57;1571252205309;1571252214829;9520;22858956616;67507879366;2723777937;10225945;2813916113;298005;1407089291;48;34;6024;0;85;417
4;58;1571252214829;1571252221399;6570;22833543564;67507850636;2737355035;8741657;2813895461;296949;1406855250;0;0;0;0;0;0
4;59;1571252221399;1571252233096;11697;22881310822;67507888275;2714821762;10714410;2813924595;309445;1407136880;4;16;736;0;2;4
4;60;1571252233096;1571252239647;6551;22840539154;67507850654;2728271949;9443502;2813895479;326453;1406898396;0;0;0;0;0;0
4;61;1571252239647;1571252246180;6533;22829296570;67507850654;2730722143;8880820;2813895479;296940;1406925003;14;9;760;0;22;246
4;62;1571252246180;1571252252716;6536;22846653196;67507850664;2713876174;9347030;2813895489;296492;1407001922;31;10;5072;0;69;265
4;63;1571252252716;1571252259246;6530;22828753742;67507850646;2732492426;8886998;2813895471;296380;1407017118;3;18;744;0;21;22
4;64;1571252259246;1571252265777;6531;22830579618;67507850644;2730795027;8823199;2813895469;296392;1406949500;0;0;0;0;0;0
4;65;1571252265777;1571252272313;6536;22847758270;67507850655;2726896808;9541650;2813895480;296737;1406954929;9;14;760;0;3;7
4;66;1571252272313;1571252278845;6532;22835584206;67507850647;2733952107;9078922;2813895472;296381;1406764802;0;0;0;0;0;0
4;67;1571252278845;1571252285379;6534;22841635614;67507850660;2729394516;9426029;2813895485;296525;1407006309;31;14;4752;0;61;252
4;68;1571252285379;1571252291911;6532;22833158854;67507850651;2732603525;8997365;2813895476;296510;1406944375;6;20;928;0;3;4
4;69;1571252291911;1571252300901;8990;22862336954;67507880625;2709060167;10185624;2813916962;318720;1407169696;0;0;0;0;0;0
4;70;1571252300901;1571252307454;6553;22832445206;67507850646;2635043198;9457213;2813895471;307516;1406659755;9;14;760;0;4;10
4;71;1571252307454;1571252313981;6527;22810814722;67507850636;2633030138;9227535;2813895461;296585;1406968831;0;0;0;0;0;0
4;72;1571252313981;1571252320512;6531;22826215240;67507850641;2661358303;8923392;2813895466;318915;1407109103;45;22;7152;0;81;275
4;73;1571252320512;1571252327045;6533;22840529226;67507850648;2726835180;9313224;2813895473;325587;1406936160;0;0;0;0;0;0
4;74;1571252327045;1571252333576;6531;22831811128;67507850657;2730856616;8882398;2813895482;325444;1407085905;10;19;952;0;11;12
4;75;1571252333576;1571252340109;6533;22840122178;67507850650;2737758861;9367754;2813895475;296724;1406972857;0;0;0;0;0;0
4;76;1571252340109;1571252346640;6531;22824324686;67507850651;2725117348;9097086;2813895476;296469;1407042689;0;0;0;0;0;0
4;77;1571252346640;1571252353197;6557;22886998544;67507851099;2736987745;11352952;2813895924;297331;1406991547;482;23;49544;0;1806;2223
4;78;1571252353197;1571252359786;6589;23033231706;67507850704;2735561933;17307682;2813895529;297032;1407007331;0;0;0;0;0;0
4;79;1571252359786;1571252366337;6551;22910887502;67507850661;2720845959;10847990;2813895486;296394;1406920022;7;16;760;0;3;11
4;80;1571252366338;1571252372868;6530;22840939486;67507850641;2755553418;9199277;2813895466;297527;1407110616;0;0;0;0;0;0
4;81;1571252372868;1571252379403;6535;22844234852;67507850661;2737931860;9111052;2813895486;296590;1406916618;0;0;0;0;0;0
4;82;1571252379404;1571252385935;6531;22839261508;67507850642;2746018044;8817626;2813895467;325202;1407092554;49;29;7280;0;88;314
4;83;1571252385935;1571252392469;6534;22844206090;67507850639;2738780750;9160398;2813895464;296334;1406956700;0;0;0;0;0;0
4;84;1571252392469;1571252399001;6532;22839771194;67507850646;2740078159;8850611;2813895468;296287;1407033936;83;18;1528;0;51;1391
4;85;1571252399001;1571252405532;6531;22838260970;67507850640;2740177814;8965275;2813895462;296092;1406984028;0;0;0;0;0;0
4;86;1571252405532;1571252412066;6534;22843303810;67507850642;2738536582;9098985;2813895467;324419;1407026047;5;16;744;0;3;3
4;87;1571252412066;1571252418598;6532;22839461674;67507850639;2748783100;8825524;2813895464;324729;1406955370;0;0;0;0;0;0
4;88;1571252418598;1571252425131;6533;22844185358;67507850641;2739515105;9247104;2813895466;296789;1407110734;29;30;7024;0;112;231
4;89;1571252425131;1571252431665;6534;22844839876;67507850642;2744439039;8774120;2813895467;324804;1406922042;18;5;760;0;6;71
4;90;1571252431665;1571252438199;6534;22849196808;67507850643;2737648958;8990339;2813895468;296259;1407068362;0;0;0;0;0;0
4;91;1571252438200;1571252444732;6532;22841459100;67507850639;2744407719;9045963;2813895464;296198;1406978464;11;9;736;0;3;25
4;92;1571252444732;1571252451263;6531;22835524930;67507850654;2741133043;8759526;2813895479;296307;1407035991;24;18;5904;0;77;217
4;93;1571252451263;1571252457797;6534;22846642830;67507850647;2741555125;9338050;2813895472;296420;1407013516;8;16;768;0;12;34
4;94;1571252457797;1571252464329;6532;22836918062;67507850643;2746644839;8980305;2813895468;296705;1407008276;0;0;0;0;0;0
4;95;1571252464329;1571252470861;6532;22842209248;67507850641;2746510829;9128849;2813895466;296220;1406990332;0;0;0;0;0;0
4;96;1571252470862;1571252477392;6530;22834590238;67507850641;2740828027;9038681;2813895466;296396;1407103342;9;11;736;0;3;12
4;97;1571252477392;1571252483923;6531;22834797120;67507850649;2745333008;8716877;2813895474;296573;1406948084;20;14;5648;0;73;122
4;98;1571252483923;1571252490458;6535;22848842904;67507850654;2738337496;9266680;2813895479;296200;1407070677;13;11;768;0;5;33
4;99;1571252490458;1571252496988;6530;22830827964;67507850636;2740973729;8561864;2813895461;296235;1407016523;0;0;0;0;0;0
