0;10;1571307708863;1571307720727;11864;41222676454;6764428672;1993559689;1563905280;492711862;17149632;2245251464;3;0;24;0;9;10
0;11;1571307720728;1571307732700;11972;41229075926;6764399851;1836658835;1591385238;492706624;17152361;2244360137;27;10;4304;0;81;227
0;12;1571307732701;1571307744603;11902;41340374062;6764437492;2257992178;1598125853;492712295;17154237;2244331615;1;0;8;0;0;0
0;13;1571307744604;1571307756493;11889;41299889138;6764426017;2153625810;1590336986;492710972;17150578;2243526528;3;0;24;0;1;1
0;14;1571307756493;1571307768484;11991;41675247984;6764443845;2174916168;1568458488;492713998;17151351;2243776714;23;10;4304;0;60;154
0;15;1571307768484;1571307780306;11822;41082502146;6764413138;1908198754;1589865653;492708452;17152327;2244131416;4;0;32;0;1;4
0;16;1571307780306;1571307792117;11811;41060033330;6764423717;1848104095;1591265867;492710349;17143058;2243196617;0;0;0;0;0;0
0;17;1571307792117;1571307804013;11896;41354006520;6764444170;1973427997;1567032894;492713910;17150180;2243731105;4;3;56;0;1;3
0;18;1571307804013;1571307815950;11937;41457684916;6764454565;1837316436;1607528588;492715276;17150787;2243683304;34;8;4360;0;106;278
0;19;1571307815951;1571307827853;11902;41334085696;6764423089;1834197166;1600413919;492710233;17146764;2244312249;0;0;0;0;0;0
0;20;1571307827853;1571307839795;11942;41164287258;6764438282;2268134061;1581867323;492712518;17152014;2244309766;0;0;0;0;0;0
0;21;1571307839795;1571307851629;11834;41141347300;6764457129;1812743679;1584293915;492715754;17149210;2243754305;37;6;4592;0;79;322
0;22;1571307851629;1571307863512;11883;41301242850;6764405020;1945481944;1582459298;492707865;17145238;2243326389;1;0;8;0;0;0
0;23;1571307863512;1571307875437;11925;41462371662;6764441472;2109907029;1594369647;492712837;17152746;2244042026;26;8;4200;0;95;225
0;24;1571307875437;1571307887345;11908;41362080758;6764426534;1891472524;1593962205;492711807;17149969;2242798047;0;0;0;0;0;0
0;25;1571307887345;1571307899250;11905;41341776830;6764432949;1788037774;1607544221;492712447;17143816;2243790012;1;0;8;0;0;0
0;26;1571307899250;1571307911251;12001;41705917036;6764396916;2379092600;1577789114;492706009;17151154;2242703120;3;0;24;0;1;2
0;27;1571307911251;1571307923402;12151;41539353812;6764420750;1868537376;1581820969;492709878;17154885;2243882172;19;8;4304;0;78;164
0;28;1571307923402;1571307935301;11899;41331791160;6764483073;1809178110;1602413245;492719392;17147004;2243133384;4;0;32;0;1;4
0;29;1571307935301;1571307947376;12075;41600544602;6764415212;1834397269;1600039419;492709253;17148446;2243357363;0;0;0;0;0;0
0;30;1571307947376;1571307959536;12160;41565894860;6764439427;1791210668;1607284187;492712655;17145500;2244466825;0;0;0;0;0;0
0;31;1571307959536;1571307971450;11914;41393347680;6764450082;1841332074;1597417286;492715022;17146259;2243685961;26;14;4360;0;71;170
0;32;1571307971450;1571307983582;12132;41830643814;6764481641;2114889201;1604899042;492719532;17148546;2243399164;0;0;0;0;0;0
0;33;1571307983582;1571307995421;11839;41156253024;6764416402;1778562574;1588504914;492709166;17146256;2243049075;3;0;24;0;1;1
0;34;1571307995421;1571308007356;11935;41457822740;6764408827;2108830719;1586080517;492708116;17144709;2243730765;21;10;4368;0;74;171
0;35;1571308007356;1571308019329;11973;41609053482;6764401776;1986966027;1590398390;492706875;17153301;2243451083;1;0;8;0;0;0
0;36;1571308019329;1571308031239;11910;41361229432;6764472419;1886061983;1605743659;492718302;17144979;2248116499;3;0;24;0;1;2
0;37;1571308031239;1571308043068;11829;41109627194;6764424983;2032527642;1577921964;492710004;17150686;2244109743;22;10;4248;0;71;168
0;38;1571308043068;1571308054992;11924;41405906600;6764403996;2035417808;1603849855;492707214;17146764;2245857160;0;0;0;0;0;0
0;39;1571308054992;1571308066894;11902;41349003976;6764386373;1861261988;1606569474;492704358;17143716;2244581865;3;0;24;0;1;1
0;40;1571308066894;1571308078856;11962;41553478874;6764399773;1864820930;1599181726;492706726;17149198;2245638522;1;0;8;0;0;0
0;41;1571308078856;1571308090694;11838;41139990960;6764379592;1817919581;1573498482;492702859;17154347;2243123701;24;10;4328;0;56;137
0;42;1571308090694;1571308102619;11925;41449003610;6764406618;2125073928;1577794495;492707828;17151821;2243693977;0;0;0;0;0;0
0;43;1571308102619;1571308114526;11907;41389415754;6764416449;1768625696;1580548756;492709306;17146749;2244004799;1;0;8;0;1;1
0;44;1571308114526;1571308126436;11910;41397908282;6764426049;2094989014;1578414819;492710812;17146486;2243125491;3;0;24;0;1;1
0;45;1571308126437;1571308138487;12050;41550199568;6764421094;1957864221;1597429343;492709873;17148196;2244229190;21;12;4240;0;72;164
0;46;1571308138487;1571308150369;11882;41292535556;6764388818;1875423081;1571880463;492704816;17149366;2244153223;4;0;32;0;1;3
0;47;1571308150369;1571308162470;12101;41664652034;6764395491;2078733887;1582118770;492706123;17151075;2244665344;449;22;47376;0;1350;1613
0;48;1571308162470;1571308174416;11946;41500734330;6764411860;1865809257;1589220799;492708242;17147620;2244066604;0;0;0;0;0;0
0;49;1571308174416;1571308186474;12058;41911422110;6764467755;2101748245;1578899992;492717235;17147145;2244001626;106;20;6280;0;141;1799
0;50;1571308186474;1571308198342;11868;41252214590;6764404280;1850933056;1590116927;492707449;17150374;2244280675;1;0;8;0;0;0
0;51;1571308198342;1571308210298;11956;41555295844;6764423024;1994531288;1599061575;492710288;17143466;2244459003;3;0;24;0;1;1
0;52;1571308210298;1571308222251;11953;41506664996;6764419277;1977705673;1602144804;492709781;17150713;2244226389;17;12;4368;0;69;138
0;53;1571308222251;1571308234200;11949;41533531332;6764453748;1811105872;1577192604;492715071;17146180;2245110855;1;0;8;0;0;0
0;54;1571308234200;1571308246184;11984;41666024726;6764392905;2173556849;1570377968;492704800;17146916;2244046982;3;0;24;0;1;2
0;55;1571308246185;1571308258247;12062;41932969520;6764414096;2274580884;1577290136;492709091;17152086;2243516625;0;0;0;0;0;0
0;56;1571308258247;1571308269989;11742;40796585966;6764438324;2147283485;1530156003;492712663;17148520;2246913956;19;10;4304;0;58;137
0;57;1571308269989;1571308282001;12012;41750546024;6764468155;1964340334;1580540533;492717367;17151738;2244666480;4;0;32;0;1;4
0;58;1571308282001;1571308294000;11999;41665089888;6764442163;2096860071;1606919476;492713507;17147024;2245319604;5;2;56;0;1;3
0;59;1571308294000;1571308306009;12009;41703507598;6764486496;2038971790;1610263074;492721626;17146036;2244616078;34;12;4680;0;93;226
1;9;1571308520050;1571308531706;11656;40510154552;6764412865;2058650894;1521528123;492708398;17151392;2245886394;1;0;8;0;0;0
1;10;1571308531706;1571308543289;11583;40241620548;6764429933;1926954959;1498957501;492712229;17144661;2250516055;38;8;4264;0;89;350
1;11;1571308543289;1571308554759;11470;39873466656;6764404566;2022491709;1491870674;492706868;17149824;2244231636;0;0;0;0;0;0
1;12;1571308554759;1571308567103;12344;42889098992;6764421795;1889792594;1650396046;492710834;17153300;2243172052;0;0;0;0;0;0
1;13;1571308567104;1571308579562;12458;43319948642;6764455383;1877217758;1659206234;492715952;17141846;2241927583;39;7;4360;0;93;335
1;14;1571308579562;1571308591944;12382;43047067050;6764412600;1950498422;1653166264;492709158;17148657;2242080219;0;0;0;0;0;0
1;15;1571308591944;1571308604342;12398;43104221232;6764458086;1868032333;1671576863;492716122;17152016;2243027043;3;0;24;0;1;1
1;16;1571308604342;1571308616683;12341;42887005790;6764447957;1942272960;1661326040;492714903;17151644;2242365023;35;8;4240;0;87;323
1;17;1571308616683;1571308629005;12322;42823801952;6764444859;1778163765;1656178698;492714283;17154883;2242845262;1;0;8;0;0;0
1;18;1571308629005;1571308641365;12360;42957780604;6764438009;1804935128;1660656857;492712941;17148305;2242494404;3;0;24;0;1;2
1;19;1571308641365;1571308653783;12418;43157939450;6764421887;1835828812;1671432165;492710191;17152050;2242986620;28;12;4248;0;85;230
1;20;1571308653783;1571308666210;12427;43179866606;6764438267;1771609201;1673861022;492713008;17149892;2242698968;3;0;24;0;1;1
1;21;1571308666210;1571308678666;12456;43281477350;6764380796;2073856576;1676566284;492703903;17146205;2242819894;29;14;4688;0;101;246
1;22;1571308678666;1571308691087;12421;43159986516;6764416114;2080921418;1657815903;492710068;17146367;2242567431;0;0;0;0;0;0
1;23;1571308691087;1571308703535;12448;43261313582;6764425265;1804698960;1672092478;492710886;17149581;2242779883;0;0;0;0;0;0
1;24;1571308703535;1571308715942;12407;43116330326;6764403375;1933395788;1671725593;492708347;17145200;2242237790;24;10;4392;0;68;159
1;25;1571308715942;1571308728349;12407;43116094390;6764475562;1804253624;1665251649;492719268;17151536;2241972218;1;0;8;0;0;0
1;26;1571308728349;1571308740909;12560;43652511676;6764420352;2020423132;1678275094;492710249;17152053;2242681798;1;2;24;0;0;0
1;27;1571308740909;1571308753314;12405;43108822130;6764403114;1810871556;1671068013;492707580;17146938;2242505420;0;0;0;0;0;0
1;28;1571308753314;1571308765712;12398;43082929614;6764394675;1754513150;1666777918;492705953;17148254;2242315218;26;6;4248;0;84;212
1;29;1571308765712;1571308778113;12401;43102259722;6764475980;1927127698;1672323174;492718972;17154221;2242245146;3;0;24;0;1;1
1;30;1571308778113;1571308790513;12400;43093771720;6764416069;1769488018;1662121611;492709719;17146286;2242075652;1;0;8;0;0;0
1;31;1571308790513;1571308802935;12422;43189053364;6764465463;1743846322;1668206967;492716961;17148642;2241844483;5;0;1048;2;2;4
1;32;1571308802935;1571308815315;12380;43050004862;6764403284;1739940677;1660178739;492707718;17147469;2241599878;19;8;3216;-2;65;142
1;33;1571308815315;1571308827769;12454;43310257016;6764447024;1740989255;1668893713;492713940;17146332;2242093368;0;0;0;0;0;0
1;34;1571308827769;1571308840157;12388;43063121502;6764419792;1944705592;1659237887;492710240;17141844;2241919976;4;3;56;0;9;18
1;35;1571308840157;1571308852617;12460;43329668300;6764394175;1766429724;1656194906;492706202;17148539;2242111255;0;0;0;0;0;0
1;36;1571308852617;1571308865035;12418;43158617036;6764438659;1937733604;1669938032;492713112;17149515;2243214025;40;6;4328;0;98;385
1;37;1571308865036;1571308877414;12378;43044643450;6764383950;1903972903;1651913791;492704442;17147172;2242360189;0;0;0;0;0;0
1;38;1571308877414;1571308889773;12359;42971471170;6764407774;1980283831;1655685161;492708099;17152063;2242199542;1;0;8;0;0;0
1;39;1571308889773;1571308902111;12338;42900928204;6764476760;1815809290;1655596673;492718578;17151483;2242080808;6;1;56;0;10;29
1;40;1571308902111;1571308914456;12345;42911407500;6764421475;1957152891;1666940985;492710663;17146084;2241808844;19;8;4304;0;74;157
1;41;1571308914456;1571308926816;12360;42617546584;6764460152;1801756613;1644122336;492716326;17151062;2242167382;3;0;24;0;1;2
1;42;1571308926816;1571308939149;12333;42869841884;6764447997;1813574980;1653438029;492714534;17150470;2242235360;0;0;0;0;0;0
1;43;1571308939149;1571308951443;12294;42736108658;6764425228;1763588429;1650875229;492710902;17150128;2241979855;3;4;56;0;9;10
1;44;1571308951443;1571308963776;12333;42864182048;6764476879;1874070663;1662799808;492718894;17145475;2242560374;33;8;3784;0;82;500
1;45;1571308963777;1571308976094;12317;42802998120;6764379928;1742326245;1665951596;492703694;17152957;2242816537;0;0;0;0;0;0
1;46;1571308976094;1571308988450;12356;42929602604;6764378494;1924410106;1660159363;492703222;17145996;2242270987;461;22;47752;0;1420;1794
1;47;1571308988450;1571309000754;12304;42749524744;6764439460;1779233682;1649597000;492712922;17148597;2242383225;0;0;0;0;0;0
1;48;1571309000755;1571309013086;12331;42848686338;6764444811;1819374971;1668213377;492713651;17151515;2243007533;122;22;6408;0;139;1918
1;49;1571309013086;1571309025408;12322;42833611108;6764403417;1841002194;1651081766;492707511;17148314;2242678175;0;0;0;0;0;0
1;50;1571309025408;1571309037814;12406;42746867544;6764485817;1854988882;1646303038;492720541;17152412;2242353053;3;0;24;0;1;1
1;51;1571309037814;1571309050127;12313;42812018584;6764457310;1836152795;1648649707;492715360;17155771;2242828500;28;8;4376;0;83;230
1;52;1571309050127;1571309062419;12292;42737107882;6764391077;1862273734;1645435234;492705355;17152970;2242695090;0;0;0;0;0;0
1;53;1571309062419;1571309074759;12340;42912437384;6764500887;1729089878;1659847198;492723127;17150468;2242305094;3;0;24;0;1;1
1;54;1571309074760;1571309087074;12314;42818481128;6764435586;1802614637;1650312369;492712090;17149486;2242275336;40;10;4488;0;95;363
1;55;1571309087074;1571309099437;12363;42975458868;6764426233;2069113068;1639662714;492711368;17147084;2242778224;0;0;0;0;0;0
1;56;1571309099437;1571309111741;12304;42777749172;6764486481;1859504410;1645773938;492720286;17146242;2242625729;4;0;32;0;2;5
1;57;1571309111741;1571309124039;12298;42736415696;6764461366;1802875836;1660928133;492716717;17146849;2242749265;29;10;4432;0;82;254
1;58;1571309124039;1571309136481;12442;43259601586;6764467032;1798496521;1640268549;492717440;17152151;2242993947;0;0;0;0;0;0
2;11;1571309377957;1571309389770;11813;41044863200;6764421848;1968883511;1583999444;492710261;17149190;2246523648;1;0;8;0;0;0
2;12;1571309389770;1571309401546;11776;40911598780;6764447447;1836171708;1580558044;492713702;17147159;2245482799;0;0;0;0;0;0
2;13;1571309401546;1571309413330;11784;40962628700;6764429659;1797039530;1561470019;492711454;17146485;2247733519;41;13;3528;0;72;483
2;14;1571309413330;1571309425171;11841;41159915580;6764419755;1914335073;1570037930;492709781;17146903;2245364047;0;0;0;0;0;0
2;15;1571309425171;1571309436957;11786;40952043262;6764389011;1826663645;1564496558;492704754;17148864;2246452462;38;4;4264;0;99;374
2;16;1571309436957;1571309448859;11902;41350639322;6764407533;2283241323;1572327054;492707713;17151472;2245962876;0;0;0;0;0;0
2;17;1571309448859;1571309460620;11761;40849256196;6764444597;1910269583;1576203346;492713628;17147830;2245278717;1;0;8;0;0;0
2;18;1571309460620;1571309472419;11799;41016707830;6764382356;1769743633;1557913390;492703761;17149800;2246205785;45;9;4424;0;102;440
2;19;1571309472419;1571309484212;11793;40977917236;6764423265;1791612852;1585387470;492709742;17147800;2247065019;0;0;0;0;0;0
2;20;1571309484212;1571309496027;11815;41062674324;6764456892;1795373301;1563576694;492715134;17142734;2244936757;0;0;0;0;0;0
2;21;1571309496027;1571309507898;11871;41259161708;6764482723;1760369449;1563379232;492719468;17150855;2245823102;40;4;4328;0;98;389
2;22;1571309507898;1571309519760;11862;41231964390;6764422478;1811780544;1560454492;492710570;17156632;2245796212;35;8;4064;0;90;318
2;23;1571309519760;1571309531607;11847;41147886202;6764442701;1819809152;1585543510;492713830;17146020;2246238757;3;0;24;0;1;1
2;24;1571309531607;1571309543428;11821;41084221588;6764469502;1770064592;1566502655;492718101;17145695;2245707066;5;2;56;0;2;6
2;25;1571309543428;1571309555244;11816;41067980548;6764422272;1805945076;1560609967;492710169;17143009;2246473858;0;0;0;0;0;0
2;26;1571309555244;1571309567115;11871;41251906530;6764427249;2262915382;1586981341;492711058;17147371;2245561249;45;7;4616;0;103;385
2;27;1571309567115;1571309579079;11964;41571402564;6764447391;2252718492;1599254006;492713711;17148986;2244604690;0;0;0;0;0;0
2;28;1571309579079;1571309590982;11903;41350263226;6764445127;2154233740;1583601622;492713420;17146531;2243821106;6;1;56;0;1;4
2;29;1571309590982;1571309602764;11782;40949695874;6764415370;1865402048;1569264165;492708999;17149307;2246294519;39;10;4496;0;89;412
2;30;1571309602764;1571309614601;11837;41148993466;6764483581;2498754287;1572026557;492720029;17149935;2244762254;0;0;0;0;0;0
2;31;1571309614601;1571309626412;11811;41040265222;6764409864;1949891809;1575463229;492707998;17144858;2244901859;4;0;56;0;1;4
2;32;1571309626412;1571309638255;11843;41145659702;6764437282;2052770771;1590899157;492712319;17151598;2245561334;44;12;5104;0;135;472
2;33;1571309638255;1571309650053;11798;40982087872;6764398261;2174148863;1577657555;492706291;17148990;2245661501;0;0;0;0;0;0
2;34;1571309650053;1571309661933;11880;41304397910;6764436403;1935257232;1562070644;492712309;17151462;2245049343;3;0;24;0;1;1
2;35;1571309661933;1571309673811;11878;41281656658;6764464495;2111543241;1568835315;492716555;17147405;2245668031;1;0;8;0;0;0
2;36;1571309673811;1571309685721;11910;41386661464;6764391003;1838203399;1601283229;492705133;17152964;2245432875;34;8;4328;0;88;296
2;37;1571309685721;1571309697633;11912;41377193656;6764414007;2057883118;1587108145;492708941;17152519;2247865728;0;0;0;0;0;0
2;38;1571309697633;1571309709459;11826;41110951122;6764430522;2039151107;1573148944;492710782;17148926;2245381071;0;0;0;0;0;0
2;39;1571309709460;1571309721357;11897;41337190824;6764402131;2143842946;1590074516;492706975;17150319;2245438400;4;0;32;0;1;4
2;40;1571309721357;1571309733214;11857;41218104172;6764452533;2213830181;1578826107;492715052;17148733;2244730752;0;0;0;0;0;0
2;41;1571309733214;1571309745040;11826;41101299062;6764415479;1906989723;1589524973;492708705;17148294;2244731244;38;13;4776;0;95;285
2;42;1571309745040;1571309756921;11881;41277040284;6764457846;2142113130;1586951437;492715563;17149318;2245717354;0;0;0;0;0;0
2;43;1571309756921;1571309768818;11897;41362183250;6764416758;2235032484;1583589605;492709390;17147455;2244151339;0;0;0;0;0;0
2;44;1571309768818;1571309780719;11901;41358951540;6764423095;2041946330;1593827904;492710782;17147763;2246438734;31;10;4528;0;79;220
2;45;1571309780719;1571309792505;11786;40971651208;6764436757;2086907997;1573835307;492712175;17153237;2245193618;0;0;0;0;0;0
2;46;1571309792505;1571309804429;11924;41440353840;6764404174;2146483310;1595557368;492707022;17148112;2245321194;5;2;56;0;10;22
2;47;1571309804429;1571309816260;11831;41124553358;6764427101;2136813794;1575813237;492710896;17147058;2244930651;0;0;0;0;0;0
2;48;1571309816260;1571309828121;11861;41217742530;6764395284;1976726710;1587633820;492705621;17141432;2244414444;7;0;56;0;1;7
2;49;1571309828121;1571309839912;11791;40989382324;6764423722;1796235474;1575432045;492710794;17143690;2244406584;465;20;47696;0;1385;1763
2;50;1571309839912;1571309851783;11871;41244734134;6764376590;1824145977;1590715870;492702483;17154322;2245333503;3;0;24;0;1;1
2;51;1571309851783;1571309863579;11796;40994456554;6764478425;1792019016;1582264636;492718669;17150495;2246106474;0;0;0;0;0;0
2;52;1571309863580;1571309875438;11858;41211541910;6764456699;1818970981;1567570807;492715337;17147408;2246567394;127;12;6160;0;149;1852
2;53;1571309875438;1571309887470;12032;41811223332;6764445664;2036241363;1605107398;492713891;17151429;2247199752;3;0;24;0;1;2
2;54;1571309887471;1571309899235;11764;40859918868;6764471641;1883047802;1576461822;492718033;17149229;2246658510;5;2;56;0;2;7
2;55;1571309899235;1571309911059;11824;41084447888;6764443411;1965367660;1583763832;492713467;17149338;2245475331;43;10;5328;0;108;521
2;56;1571309911059;1571309922850;11791;40955296288;6764408253;1825534364;1569586453;492708079;17150023;2244903702;0;0;0;0;0;0
2;57;1571309922850;1571309934760;11910;41408397214;6764389139;1776418781;1568538687;492704720;17150032;2245522459;3;0;24;0;1;1
2;58;1571309934760;1571309946615;11855;41172387630;6764443059;1864394283;1580599995;492713795;17153898;2246161433;28;8;4440;0;86;233
2;59;1571309946615;1571309958469;11854;41186056004;6764440640;2086602585;1592024395;492714446;17148446;2245187360;6;1;56;0;10;32
2;60;1571309958469;1571309970240;11771;40882284608;6764404799;1794518730;1577207134;492707486;17147936;2245313930;0;0;0;0;0;0
3;7;1571310165814;1571310179008;13194;42639280144;6764455054;1776940485;1620155953;492715291;17146022;2241840133;20;8;4264;0;104;141
3;8;1571310179008;1571310192343;13335;42544983708;6764489378;1929568462;1615635860;492721570;17146073;2242310409;1;0;8;0;0;0
3;9;1571310192343;1571310204843;12500;42742697638;6764483954;2280946128;1623475431;492720233;17156780;2242237617;7;0;56;0;2;9
3;10;1571310204844;1571310217951;13107;42425809894;6764416929;1873865756;1616858614;492710357;17156109;2242487065;37;8;4496;0;82;358
3;11;1571310217951;1571310231780;13829;42461690270;6764409935;1809809554;1621313707;492708598;17153339;2242174539;0;0;0;0;0;0
3;12;1571310231780;1571310245679;13899;42392285082;6764419415;1989372388;1615611160;492710144;17140877;2242504029;22;10;4392;0;78;113
3;13;1571310245679;1571310257912;12233;42522906172;6764453411;2093441555;1632330323;492715127;17149679;2242269663;1;0;8;0;0;0
3;14;1571310257912;1571310270158;12246;42577128090;6764429364;2175764285;1623397211;492711078;17148414;2242264798;6;1;56;0;10;32
3;15;1571310270158;1571310283391;13233;42553649538;6764413920;1958750835;1615157121;492709198;17149394;2241944689;25;15;4424;0;84;141
3;16;1571310283392;1571310297048;13656;42627497360;6764447032;1836816444;1622238914;492714160;17153849;2242159899;0;0;0;0;0;0
3;17;1571310297048;1571310310320;13272;42652099966;6764499675;1782743472;1619132422;492723314;17147181;2242723031;7;0;56;0;1;7
3;18;1571310310321;1571310322593;12272;42658830566;6764459846;2045653592;1635308803;492716070;17151431;2242527957;17;10;4496;0;79;111
3;19;1571310322593;1571310334858;12265;42630277200;6764420004;2274449432;1632479745;492709290;17150498;2242463990;0;0;0;0;0;0
3;20;1571310334858;1571310347073;12215;42453131604;6764386649;1797298837;1628670044;492704640;17151402;2242790237;19;10;3912;0;63;115
3;21;1571310347073;1571310359273;12200;42407763272;6764437850;1797488194;1630117608;492713116;17150487;2243002882;1;0;8;0;0;0
3;22;1571310359273;1571310371951;12678;42652138364;6764426903;2312204075;1616713956;492711978;17146626;2242288185;6;1;56;0;2;6
3;23;1571310371951;1571310386083;14132;42741877118;6764392799;2068812731;1618147080;492705576;17153296;2242378793;19;14;4496;0;83;129
3;24;1571310386083;1571310398728;12645;42349871060;6764469086;1778666205;1616723082;492718893;17152666;2242332196;0;0;0;0;0;0
3;25;1571310398728;1571310410895;12167;42280374768;6764457321;1854337684;1630151573;492715943;17150332;2242390424;24;10;4392;0;69;161
3;26;1571310410895;1571310423098;12203;42411525692;6764414858;1824443961;1631861422;492709292;17147501;2242344346;1;0;8;0;0;0
3;27;1571310423098;1571310435411;12313;42781407348;6764463760;1922537673;1631758180;492716832;17147399;2242268673;3;0;24;0;1;1
3;28;1571310435411;1571310448135;12724;42837566248;6764412474;2229810899;1620590210;492709106;17151279;2242994809;0;0;0;0;0;0
3;29;1571310448135;1571310461272;13137;43044365612;6764454706;2016293057;1631586581;492715413;17150721;2242366121;26;12;4248;0;76;203
3;30;1571310461272;1571310474164;12892;42676059296;6764406558;2076439153;1623562795;492708003;17146677;2242692617;3;0;24;0;1;1
3;31;1571310474165;1571310486892;12727;42365894998;6764451310;1770815993;1622934387;492714643;17142582;2242318711;1;0;8;0;0;0
3;32;1571310486892;1571310499888;12996;42389457354;6764465974;1767725938;1619301919;492717291;17143158;2242338982;22;6;4264;0;69;145
3;33;1571310499888;1571310513508;13620;42466090272;6764443132;1774381165;1622551934;492714184;17149331;2242170673;1;0;8;0;0;0
3;34;1571310513508;1571310526537;13029;41823748964;6764431359;1911425711;1584441021;492711172;17149480;2242601046;3;0;24;0;1;2
3;35;1571310526537;1571310540234;13697;42403256982;6764447724;1847643241;1601917554;492714334;17151535;2242163749;0;0;0;0;0;0
3;36;1571310540234;1571310552958;12724;41795509644;6764432497;1778682555;1585036808;492712293;17147566;2242505357;33;8;3864;0;92;330
3;37;1571310552958;1571310565675;12717;41777636616;6764367191;1816930544;1577621983;492701214;17154832;2242258910;3;0;24;0;1;1
3;38;1571310565675;1571310578992;13317;41704824226;6764378641;1768134561;1582014831;492703190;17150877;2242454362;25;6;4304;0;77;211
3;39;1571310578992;1571310592589;13597;42057763896;6764429001;2087831513;1593398111;492711484;17149376;2242470571;5;2;56;0;9;12
3;40;1571310592589;1571310605312;12723;41812635736;6764431073;1821138217;1578903242;492712219;17145907;2242536165;0;0;0;0;0;0
3;41;1571310605312;1571310617349;12037;41832769574;6764404287;1902670920;1609176743;492707055;17147459;2242686800;27;12;4496;0;86;237
3;42;1571310617349;1571310629568;12219;42466894002;6764421969;1863200696;1639244758;492710551;17149162;2242314340;3;0;24;0;1;1
3;43;1571310629568;1571310641914;12346;42912203200;6764394071;2222953025;1643917934;492706281;17152728;2242615160;1;0;8;0;0;0
3;44;1571310641914;1571310653942;12028;41774062390;6764411322;1817949398;1608863854;492708793;17149234;2242714671;458;24;47528;0;1421;1811
3;45;1571310653942;1571310666061;12119;42118794086;6764468478;2032440824;1617504711;492717639;17144158;2243523350;1;0;8;0;0;0
3;46;1571310666061;1571310678286;12225;42133120190;6764440325;2010688674;1613148757;492713376;17156160;2243347481;29;18;4944;0;91;270
3;47;1571310678286;1571310690366;12080;41984419482;6764385834;2116290415;1611355142;492703851;17143952;2242688806;85;1;864;0;66;1619
3;48;1571310690366;1571310702378;12012;41746798058;6764416964;1978102818;1609741610;492708911;17150616;2242570981;0;0;0;0;0;0
3;49;1571310702378;1571310714383;12005;41705893092;6764440849;1883431763;1602122231;492713626;17149130;2243327840;40;18;5320;0;90;363
3;50;1571310714383;1571310726574;12191;42002182280;6764433638;1960927576;1599632869;492712359;17147881;2243705066;0;0;0;0;0;0
3;51;1571310726574;1571310738670;12096;42036456364;6764433352;1987354179;1612322934;492711845;17146709;2243306816;0;0;0;0;0;0
3;52;1571310738671;1571310750751;12080;41987657762;6764399406;1966428789;1618507837;492706695;17147286;2243290872;38;10;4552;0;85;297
3;53;1571310750751;1571310763287;12536;41845349518;6764376999;1866438646;1595237235;492702868;17145309;2242440094;0;0;0;0;0;0
3;54;1571310763287;1571310775321;12034;41831399948;6764407738;2045683981;1611700365;492707831;17148293;2242214076;6;1;56;0;1;4
3;55;1571310775321;1571310787322;12001;41711505770;6764433205;1912857459;1609156179;492711579;17150532;2243307775;33;8;4432;0;87;316
3;56;1571310787322;1571310800686;13364;41903412404;6764459951;2144476658;1590685339;492715961;17148325;2242795821;0;0;0;0;0;0
4;10;1571311028536;1571311040973;12437;42882368246;6764455995;1812433091;1610885051;492716927;17152377;2244677885;7;0;56;0;10;41
4;11;1571311040973;1571311053310;12337;42175260462;6764462354;1879530980;1597488198;492716857;17147421;2243894703;35;10;4432;0;92;357
4;12;1571311053310;1571311065469;12159;42292593946;6764417277;1840184854;1585876732;492709348;17146001;2243140409;0;0;0;0;0;0
4;13;1571311065469;1571311077821;12352;42947854648;6764401173;1871029951;1633450547;492707035;17143989;2243019379;3;0;24;0;1;2
4;14;1571311077821;1571311089997;12176;42310936218;6764467735;1887993404;1612568522;492717545;17150961;2244586964;1;0;8;0;0;0
4;15;1571311089997;1571311102201;12204;42418867448;6764451104;2054750040;1615042550;492715151;17144453;2243910462;26;12;4392;0;70;172
4;16;1571311102201;1571311114345;12144;42227608616;6764420860;1926324153;1597836342;492710433;17151488;2243569968;7;0;56;0;1;7
4;17;1571311114345;1571311126620;12275;42649933910;6764410969;2086365510;1608764542;492709022;17146231;2243946209;0;0;0;0;0;0
4;18;1571311126620;1571311138767;12147;42221996230;6764454654;2093676350;1593118869;492715627;17150403;2243329807;28;10;4424;0;75;179
4;19;1571311138767;1571311150950;12183;42352855738;6764429919;2154914570;1598275888;492711034;17150031;2243782724;0;0;0;0;0;0
4;20;1571311150950;1571311163101;12151;42228984812;6764451626;1851709181;1614886206;492714641;17150829;2244310893;4;0;32;0;1;2
4;21;1571311163101;1571311175372;12271;42298284734;6764432567;1843210793;1618098134;492711844;17146524;2244750194;24;16;4784;0;119;261
4;22;1571311175372;1571311187545;12173;42304577626;6764412183;2104547764;1606695885;492709401;17152404;2242856791;18;10;3800;0;67;122
4;23;1571311187545;1571311199711;12166;42268316774;6764474705;1796004314;1609594973;492718371;17152080;2243093169;4;0;32;0;1;3
4;24;1571311199712;1571311211877;12165;42267945642;6764430182;1792904778;1615517554;492712719;17151274;2244297759;7;0;56;0;1;7
4;25;1571311211877;1571311224012;12135;42188489084;6764435252;1971632100;1600072381;492712475;17145947;2243597707;5;2;56;0;1;3
4;26;1571311224012;1571311236186;12174;42314206764;6764394394;2013069477;1600819347;492705894;17152239;2243659469;25;10;4432;0;81;219
4;27;1571311236186;1571311248357;12171;42292579346;6764470427;1847903679;1621854052;492718084;17151865;2244167408;0;0;0;0;0;0
4;28;1571311248357;1571311260555;12198;42393352050;6764408379;1959966138;1618819483;492708458;17153046;2242749462;3;0;24;0;1;1
4;29;1571311260555;1571311272689;12134;42182924732;6764413629;1768138862;1604268786;492709035;17150173;2244043993;7;0;56;0;10;33
4;30;1571311272689;1571311284879;12190;42376490218;6764427525;2012628827;1617749541;492710727;17151620;2242862645;7;0;56;0;1;7
4;31;1571311284879;1571311297038;12159;42249940046;6764457044;1956100757;1604374660;492715431;17146475;2244040863;23;10;4304;0;80;196
4;32;1571311297038;1571311309159;12121;42137938190;6764426778;1882455413;1598414767;492711359;17155341;2243681456;0;0;0;0;0;0
4;33;1571311309159;1571311321302;12143;42227085206;6764432894;1809867817;1600532204;492711352;17148355;2243224610;4;0;32;0;1;2
4;34;1571311321303;1571311333463;12160;42269083566;6764430170;1925583599;1605084420;492711974;17154793;2244102374;19;14;4368;0;77;174
4;35;1571311333463;1571311345593;12130;42158252192;6764400973;1782363753;1615436034;492706680;17149915;2243530204;7;0;56;0;10;33
4;36;1571311345593;1571311357575;11982;41653815622;6764412250;1839854518;1564142810;492708306;17145662;2243856903;0;0;0;0;0;0
4;37;1571311357575;1571311369562;11987;41672343606;6764443178;1782775379;1578950902;492713496;17148625;2243988104;0;0;0;0;0;0
4;38;1571311369563;1571311381612;12049;41881680012;6764398696;2188931108;1582399315;492706329;17148528;2244098007;34;8;4456;0;97;323
4;39;1571311381612;1571311393767;12155;42244444460;6764401714;2178616416;1609996666;492707068;17149127;2245778140;1;0;8;0;0;0
4;40;1571311393767;1571311405771;12004;41703855954;6764446549;1835033459;1584561694;492714214;17149427;2243719017;3;0;24;0;1;2
4;41;1571311405771;1571311417840;12069;41933642288;6764454718;1885759461;1603632615;492715022;17149845;2243663791;0;0;0;0;0;0
4;42;1571311417841;1571311429894;12053;41887447596;6764445678;1814840542;1605783479;492713831;17146399;2245005449;26;10;4296;0;65;145
4;43;1571311429894;1571311441926;12032;41800127332;6764418790;1833094789;1589260875;492709811;17145489;2244622848;0;0;0;0;0;0
4;44;1571311441926;1571311453978;12052;41894080960;6764478606;1965879882;1588477213;492719021;17146082;2244128732;4;0;32;0;1;2
4;45;1571311453978;1571311466030;12052;41881691984;6764392577;2043280786;1586192237;492705492;17147514;2243476938;27;10;4432;0;101;262
4;46;1571311466030;1571311478094;12064;41595700176;6764408112;1836946944;1581313513;492708137;17149303;2244359792;0;0;0;0;0;0
4;47;1571311478094;1571311490353;12259;42627713148;6764417971;1748690781;1630514672;492709732;17146126;2242788559;7;0;56;0;10;33
4;48;1571311490353;1571311502405;12052;41884743530;6764423158;1858288723;1602468404;492710796;17144315;2244135084;460;20;47560;0;1391;1754
4;49;1571311502405;1571311514283;11878;41281162740;6764426637;1825064619;1566346086;492710985;17147030;2245494288;0;0;0;0;0;0
4;50;1571311514283;1571311526169;11886;41309291538;6764414936;1845128234;1566812139;492708886;17150315;2245351691;0;0;0;0;0;0
4;51;1571311526169;1571311538147;11978;41631485944;6764487105;1850519580;1578998226;492720271;17145536;2244256124;119;16;6472;0;167;2424
4;52;1571311538147;1571311549984;11837;41143542410;6764428127;1850224430;1563716016;492710605;17141324;2244756741;0;0;0;0;0;0
4;53;1571311549984;1571311561889;11905;41383173962;6764434414;2007773046;1567579357;492712279;17151409;2244172196;4;0;56;0;1;4
4;54;1571311561889;1571311573909;12020;41779726460;6764407847;2229005554;1563314419;492708140;17144327;2243664386;23;10;4368;0;66;168
4;55;1571311573909;1571311585860;11951;41554447584;6764388556;2042994649;1556462723;492704543;17150896;2244310927;0;0;0;0;0;0
4;56;1571311585860;1571311597791;11931;41462360274;6764438813;1932412942;1564651122;492712595;17152960;2244995579;3;0;24;0;1;1
4;57;1571311597791;1571311609667;11876;41285289576;6764421887;1980190354;1548903130;492710317;17149149;2245440203;20;12;4312;0;81;165
4;58;1571311609667;1571311621588;11921;41422601554;6764409098;1932511577;1565122441;492708446;17143256;2245602786;3;0;24;0;1;1
4;59;1571311621589;1571311633521;11932;41474402938;6764438342;1901379674;1555536358;492714093;17149493;2245582243;0;0;0;0;0;0
