0;63;1571345110660;1571345117055;6395;17194008718;34169259966;353894855;132314682;5745417088;208201681;392064774;4167;2577;565640;1;3086;32181
0;64;1571345117055;1571345123392;6337;17197069900;34170742668;353217014;132435627;5745668536;208222180;392081505;3420;3643;594544;17;3115;113836
0;65;1571345123392;1571345129717;6325;17204355884;34176121729;353411983;132547303;5746763753;208156778;392473855;3084;3658;565608;-14;5955;243566
0;66;1571345129717;1571345136042;6325;17195313374;34172206973;353871019;132375873;5746018267;208190871;392134059;4304;2380;564568;14;4275;46680
0;67;1571345136042;1571345142365;6323;17195460104;34170790598;353556114;132406291;5745573059;208212244;392321103;4310;2401;565896;-15;3836;35006
0;68;1571345142365;1571345148696;6331;17195232344;34167135481;355022389;132428468;5744736686;208237939;392167481;4260;2434;564336;2;3200;27643
0;69;1571345148696;1571345155047;6351;17197634336;34170372292;353149886;132456016;5745423379;208240046;392057527;3231;3800;568088;137;4314;223782
0;70;1571345155047;1571345161409;6362;17202903622;34166804370;352535216;132560363;5744663350;208302282;391892527;2707;4176;602008;-139;6004;341122
0;71;1571345161409;1571345167738;6329;17201249442;34166121761;354749597;132469432;5744532327;208295310;392070389;4260;2451;562800;20;4145;37591
0;72;1571345167738;1571345174053;6315;17199178724;34167389023;353078105;132399381;5744991837;208304964;392121893;4276;2470;568200;-18;3790;34034
0;73;1571345174053;1571345180391;6338;17196436406;34164911097;354371983;132394986;5744318856;208292941;391966759;4086;2652;565896;-4;2482;32298
0;74;1571345180392;1571345186774;6382;17198417042;34169340728;352877377;132438920;5745322671;208279242;391853423;3013;4001;541992;122;4870;311814
0;75;1571345186774;1571345193104;6330;17202139020;34169042579;353614443;132526617;5745211097;208258061;392170164;3008;3820;620424;-116;5920;205368
0;76;1571345193104;1571345199466;6362;17197867060;34172442187;353007506;132447313;5746082898;208242602;392408655;4234;2519;565896;12;4168;40793
0;77;1571345199466;1571345205781;6315;17197366280;34167065769;352403672;132490941;5744980101;208268184;391970744;4209;2521;566448;-18;3821;34514
0;78;1571345205782;1571345212101;6319;17194920488;34163006418;355282043;132275889;5743927666;208313091;392337102;4268;2418;564832;0;2812;29350
0;79;1571345212101;1571345218460;6359;17203557410;34164775284;352192645;132587284;5744465623;208298975;392050604;2482;4636;537288;58;5865;474150
0;80;1571345218460;1571345224803;6343;17200561344;34177888964;353250813;132493988;5747243388;208185113;392265398;3465;3336;627400;-58;5706;120879
0;81;1571345224803;1571345231114;6311;17199195368;34168108314;352484624;132471819;5745011780;208262291;392035292;4400;2317;565288;0;4060;36291
0;82;1571345231114;1571345237453;6339;17194845736;34168040298;353429937;132434155;5745097161;208204534;392100666;4346;2390;564200;9;3891;35553
0;83;1571345237453;1571345243824;6371;17191033384;34168612971;356681968;132268130;5745283081;208157792;392004193;4041;3088;575432;61;1997;54166
0;84;1571345243824;1571345250540;6716;17202124274;34166132496;352329326;132546984;5744773346;208269034;392121173;2205;4595;593424;-67;6460;397434
0;85;1571345250540;1571345256857;6317;17198992136;34169417462;353377039;132442979;5745418128;208211088;391913943;3994;2737;566752;1;4839;55937
0;86;1571345256857;1571345263191;6334;17201017594;34172700480;354377826;132498119;5746230094;208225889;392134024;4338;2407;565656;-1;4436;44530
0;87;1571345263191;1571345269509;6318;17199977198;34168551747;353432371;132459427;5745175311;208287800;392044598;4189;2537;565048;2;3936;42513
0;88;1571345269509;1571345275844;6335;17199351588;34171488839;353741353;132488147;5745682406;208239043;391786438;3876;3266;567288;44;3263;130268
0;89;1571345275844;1571345282362;6518;17202846682;34163464797;352282136;132483467;5743992111;208382537;391831693;2034;5018;602256;63;6519;448126
0;90;1571345282362;1571345288740;6378;17203785024;34173443483;351818560;132707828;5746318758;208179187;392294512;1303;5898;609264;-83;6378;484638
0;91;1571345288740;1571345295126;6386;17234980698;34170872804;353577832;134048295;5745668476;208271799;392128740;1332;6007;799760;-25;6129;119375
0;92;1571345295126;1571345301451;6325;17198176434;34172769696;353761577;132479127;5746093847;208224990;392133808;4034;2680;565584;-2;3543;30223
0;93;1571345301451;1571345307822;6371;17195997384;34170498780;353395716;132457632;5745664844;208229833;392179397;4171;2599;566504;-2;1918;10386
0;94;1571345307822;1571345314140;6318;17194845444;34172319113;355124200;132285342;5745911869;208223003;391833662;4050;2663;565416;-1;1071;3550
0;95;1571345314140;1571345320566;6426;17203349068;34173004460;352972809;132543732;5746014589;208229793;392585845;2647;4575;539448;64;5478;404417
0;96;1571345320566;1571345326957;6391;17198958994;34168440574;352831333;132476419;5745303570;208209171;392229057;3459;3315;632144;-62;5286;116192
0;97;1571345326957;1571345333322;6365;17197045664;34169760912;353505441;132383251;5745589153;208224213;392121709;4249;2470;564280;8;4070;40188
0;98;1571345333322;1571345339685;6363;17196876012;34169835911;353996083;132340675;5745450228;208222412;392138732;4318;2409;565296;1;3796;35465
0;99;1571345339685;1571345346005;6320;17196744466;34169124010;352893991;132454363;5745405420;208208703;392144119;4272;2450;566856;-10;2521;15587
0;100;1571345346005;1571345352357;6352;17202555266;34171323622;353503684;132519377;5745713372;208237650;391711266;2302;4833;555984;37;5716;393851
0;101;1571345352357;1571345358689;6332;17202733678;34166252973;353073445;132514255;5744875958;208313535;391722233;3759;3005;612016;-37;5498;102232
0;102;1571345358690;1571345365023;6333;17197686896;34170864120;354022417;132412862;5745831704;208225792;392234838;4346;2404;565888;0;4072;36564
0;103;1571345365023;1571345371348;6325;17202403718;34171750583;353222519;132598563;5745845472;208232257;392225489;4146;2550;563720;16;3641;33064
0;104;1571345371348;1571345377755;6407;17196894408;34161652575;352809372;132531146;5743653377;208276605;391668363;3983;3177;573040;-1;1933;58608
0;105;1571345377755;1571345384157;6402;17203882406;34169212479;352717316;132508015;5745497458;208221843;392345162;1916;4852;577776;11;6162;409298
0;106;1571345384157;1571345390541;6384;17197884872;34172230789;353137335;132511661;5745870853;208147923;392195504;4016;2722;582840;-26;4797;60597
0;107;1571345390541;1571345396855;6314;17198396456;34166266043;353524308;132460026;5744638532;208234652;391937076;4285;2417;564936;1;4106;37259
0;108;1571345396855;1571345403231;6376;17198117158;34172017041;352707165;132442530;5746063552;208232282;392285324;4202;2511;565416;-1;4224;50807
0;109;1571345403232;1571345409573;6341;17199007758;34177792659;353363423;132478651;5747317257;208185256;392603128;3875;3146;559816;61;3148;117103
0;110;1571345409573;1571345415943;6370;17199463570;34175269560;352474698;132477927;5746481794;208186522;392271249;2050;4729;599456;-33;6130;405204
0;111;1571345415943;1571345422341;6398;17201160236;34166558195;353156242;132485375;5744670207;208325900;391884886;4320;2470;566792;-14;4409;43562
0;112;1571345422341;1571345428662;6321;17197382340;34174234226;353692654;132470351;5746442123;208135276;392082503;4220;2511;567384;-14;4043;34963
1;64;1571345934316;1571345940556;6240;16924350514;33954891123;353072793;131559138;5725594520;206352141;393267077;4358;2227;564392;-10;4398;44003
1;65;1571345940556;1571345946811;6255;16923369832;33960841843;353456684;131511566;5726962902;206302475;393617548;4283;2314;565352;-13;3910;32536
1;66;1571345946811;1571345953070;6259;16925094092;33956686074;354530481;131593092;5726092501;206319734;393242986;4157;2449;563968;-6;2996;34369
1;67;1571345953070;1571345959412;6342;16917702550;33955203947;353142753;131419531;5725636952;206309587;393082862;3330;3805;580216;18;3187;213003
1;68;1571345959412;1571345965689;6277;16927831300;33951603179;352786920;131654946;5724833080;206331720;393023709;2500;4101;582568;-17;6236;367440
1;69;1571345965690;1571345971977;6287;16926313338;33954828024;353015038;131614442;5725519437;206363053;393211075;4411;2180;563256;0;4476;49877
1;70;1571345971977;1571345978210;6233;16923932516;33951220944;353653052;131463273;5724738965;206431753;392885918;4080;2391;555920;33;4199;38684
1;71;1571345978211;1571345984541;6330;16925865848;33950644488;353807750;131644162;5724657398;206384513;392729648;4276;2387;569296;-28;3775;39824
1;72;1571345984541;1571345990804;6263;16923313622;33951771760;353324523;131472440;5725025405;206404815;392781678;3337;3780;585160;11;3876;261912
1;73;1571345990804;1571345997074;6270;16931136156;33949313052;352389424;131721436;5724378667;206418020;392412449;2598;4019;574688;-2;6217;391714
1;74;1571345997074;1571346003314;6240;16929392624;33953537793;352780517;131720822;5725264151;206389415;392805410;4229;2386;564336;-7;4500;48466
1;75;1571346003314;1571346009611;6297;16925486978;33953626207;354381292;131547943;5725339364;206391890;393077290;4185;2386;563376;13;3894;35494
1;76;1571346009611;1571346015926;6315;16927763994;33956927798;354441046;131632882;5726164468;206342805;393220755;4016;2637;564872;-20;3153;36947
1;77;1571346015926;1571346022174;6248;16923673512;33951057900;354020979;131514443;5724816179;206384855;392833468;3192;3924;593096;24;3471;199221
1;78;1571346022174;1571346028418;6244;16926066744;33947577945;351603269;131616121;5724052177;206409576;392869351;2437;4107;568224;-24;6182;398830
1;79;1571346028418;1571346034693;6275;16926184128;33948651619;352439688;131657409;5724226349;206410393;392867829;4243;2366;563536;0;4197;40211
1;80;1571346034693;1571346040971;6278;16924777564;33962133806;353215166;131570912;5727205907;206283438;392993273;4207;2345;562608;0;4221;42549
1;81;1571346040971;1571346047252;6281;16924117352;33952478942;352790073;131533734;5725052443;206397002;392850799;4168;2417;563144;0;3489;34426
1;82;1571346047252;1571346053521;6269;16920147028;33952344312;353301452;131498173;5725090691;206306982;392746207;3363;3643;585640;20;4070;238535
1;83;1571346053521;1571346059800;6279;16925857964;33953124587;350984657;131765051;5725404953;206264360;392905964;2405;4183;569600;-20;6189;420979
1;84;1571346059800;1571346066047;6247;16924591560;33950479937;353411769;131525450;5724769331;206373440;392924610;4216;2353;562080;24;4304;43830
1;85;1571346066047;1571346072297;6250;16924458700;33953678889;353753713;131518078;5725400524;206322317;392963521;4231;2345;563808;-24;3868;36454
1;86;1571346072297;1571346078619;6322;16923191274;33956730963;353977793;131527751;5726075462;206327096;393027873;3959;2642;563416;0;3034;40830
1;87;1571346078619;1571346084946;6327;16927115754;33953009664;351893769;131666507;5725222223;206367737;392779070;3299;3682;580696;115;3767;210126
1;88;1571346084946;1571346091194;6248;16930018526;33955991096;352402661;131714609;5725783269;206362496;392966345;2574;4097;581048;-103;6237;386584
1;89;1571346091194;1571346097506;6312;16929074344;33947866514;352788042;131647006;5724044183;206490074;392703809;4210;2383;564360;-12;4722;50674
1;90;1571346097506;1571346103808;6302;16924900496;33957922646;353930396;131627084;5726362917;206289948;393239393;4288;2318;562560;10;3588;29203
1;91;1571346103808;1571346110048;6240;16927046988;33955385490;354219522;131613205;5725775133;206366478;393298318;4110;2501;564504;-10;3126;25538
1;92;1571346110048;1571346116340;6292;16925659112;33957032838;353470545;131574476;5726061476;206329707;393199656;3004;3816;554512;137;4386;322728
1;93;1571346116340;1571346123025;6685;16927734794;33954690696;351601271;131732934;5725597172;206316693;392762388;2169;5120;616328;-51;6685;449407
1;94;1571346123025;1571346129295;6270;16934913030;33956888028;352078989;131904196;5726051505;206341904;392569124;1181;5823;622944;-71;6269;606667
1;95;1571346129295;1571346135540;6245;16926241944;33957621601;353563118;131544889;5726175856;206366696;393296304;4187;2444;577160;-15;4430;40347
1;96;1571346135540;1571346141784;6244;16920553784;33952751440;353231191;131594884;5725298836;206290042;392919069;4153;2416;562888;0;2911;18403
1;97;1571346141784;1571346148039;6255;16920452314;33954048156;354940570;131529435;5725566330;206311511;392977976;4100;2517;563832;-1;1571;7589
1;98;1571346148039;1571346154436;6397;16919051736;33954235850;353466470;131490950;5725486226;206305824;392817668;3990;3058;570000;19;1735;61814
1;99;1571346154436;1571346160696;6260;16930025096;33953454429;352632594;131694515;5725397347;206329251;392892107;2099;4525;576120;12;6261;346714
1;100;1571346160697;1571346166972;6275;16925013938;33955552205;353135052;131583879;5725673722;206356256;392784366;4007;2593;578776;-16;5097;79807
1;101;1571346166972;1571346173257;6285;16927193426;33950302004;352675441;131670420;5724734889;206454153;392715495;4242;2375;563744;-6;4078;41171
1;102;1571346173257;1571346179546;6289;16920316826;33955177985;353615033;131548506;5725833293;206324951;393085518;4206;2386;564480;-8;3564;33692
1;103;1571346179546;1571346185849;6303;16924539146;33956402630;353665743;131654847;5725997893;206336656;392869348;3939;3042;576480;124;2723;77772
1;104;1571346185849;1571346192139;6290;16932396282;33946252633;352136595;131788322;5723795719;206414632;392557662;2220;4524;580616;-112;6290;380511
1;105;1571346192139;1571346198379;6240;16928573564;33953484679;353611366;131732404;5725458631;206354264;393154894;4164;2417;563760;19;4689;59386
1;106;1571346198380;1571346204688;6308;16925119204;33957018505;354092357;131596442;5726146374;206267457;393164817;4323;2296;569832;-31;4498;48247
1;107;1571346204688;1571346211000;6312;16926563582;33950675905;353895301;131697670;5724696528;206374929;392776520;4213;2419;563928;0;3374;35214
1;108;1571346211000;1571346217273;6273;16926590738;33956176578;354372014;131614351;5725960968;206371642;393177353;3725;3324;583392;38;2222;112761
1;109;1571346217273;1571346223563;6290;16930758892;33962129583;352396875;131753420;5727288781;206289729;393442451;2125;4467;576216;-8;6290;396219
1;110;1571346223564;1571346229808;6244;16926670016;33959759521;352813147;131564422;5726598667;206299336;393308517;4275;2372;568520;-30;4695;55886
1;111;1571346229808;1571346236052;6244;16929223702;33951078727;353350093;131764632;5724768983;206393093;392463343;4264;2335;563232;1;4142;45054
1;112;1571346236053;1571346242325;6272;16925472670;33958564004;352758870;131690126;5726473867;206263069;392851595;4149;2461;562656;6;3991;41816
1;113;1571346242325;1571346248590;6265;16931953318;33952954018;353372372;131744134;5725050838;206466643;392831701;3557;3483;576664;14;3379;141422
2;62;1571346753135;1571346759472;6337;17254479144;34205735596;352974084;132364915;5703843255;208395850;393356639;4371;2297;565984;-15;4310;42993
2;63;1571346759472;1571346765807;6335;17251388032;34206059880;353911677;132304451;5704010179;208355243;393298495;4246;2356;561280;14;4107;40614
2;64;1571346765807;1571346772187;6380;17255566260;34207214386;353610476;132407828;5704117253;208377523;393516028;4107;2583;568848;-26;2730;28989
2;65;1571346772187;1571346778537;6350;17254043626;34212716773;353437046;132380086;5705200388;208332780;393742615;3103;3894;556016;127;4203;274812
2;66;1571346778537;1571346784929;6392;17264153688;34208983907;353017019;132671854;5704560089;208362988;393706821;2885;3982;611160;-116;5739;278827
2;67;1571346784929;1571346791333;6404;17257469662;34207416949;352774388;132507431;5704093130;208382524;393675466;4215;2513;566064;-11;4239;43457
2;68;1571346791333;1571346797667;6334;17257796118;34204078912;352498757;132544724;5703458251;208372757;393395903;4273;2407;564720;0;3786;32622
2;69;1571346797667;1571346804013;6346;17255895636;34207001774;353883142;132435704;5704017264;208427457;393919789;4081;2567;564192;0;3497;49298
2;70;1571346804013;1571346810413;6400;17261630808;34203621441;353810211;132463569;5703360206;208481782;393306399;3043;3986;546160;119;5073;340040
2;71;1571346810413;1571346816815;6402;17261068124;34203092852;352203549;132639178;5703291575;208424653;393477032;3457;3353;619800;-114;5134;144867
2;72;1571346816815;1571346823153;6338;17259888590;34204029772;353347940;132589613;5703541410;208430081;393287560;4380;2343;566176;-5;4138;39205
2;73;1571346823153;1571346829489;6336;17258065050;34201771778;353523369;132449508;5703043252;208478611;393305678;4237;2443;564720;0;3929;33563
2;74;1571346829489;1571346835826;6337;17256599502;34206122807;354117692;132491911;5703944181;208429460;393409399;4089;2596;564792;0;2265;22902
2;75;1571346835827;1571346842223;6396;17261514154;34205957505;352482021;132570459;5703873177;208384645;393592257;2462;4659;557352;41;5707;417754
2;76;1571346842223;1571346848566;6343;17260692028;34209141675;352397302;132585942;5704573807;208395343;393788159;3650;3071;608792;-41;5194;88490
2;77;1571346848566;1571346854940;6374;17258734460;34203675815;352939546;132490017;5703502682;208419255;393405363;4307;2371;563528;8;4445;45529
2;78;1571346854940;1571346861310;6370;17257401042;34200088523;353048783;132381586;5702731112;208486504;393727112;4156;2466;560464;26;4024;42613
2;79;1571346861310;1571346867707;6397;17260968990;34201417046;353986872;132636747;5703015098;208445069;393615610;4045;3028;572728;74;3041;78236
2;80;1571346867707;1571346874063;6356;17261136744;34214294460;352209795;132616292;5705540782;208339121;393689600;2015;4790;582320;-73;6356;419301
2;81;1571346874063;1571346880392;6329;17259026314;34204899044;352500747;132536185;5703633870;208425854;393341403;4207;2503;580232;-30;4678;64228
2;82;1571346880392;1571346886742;6350;17254565868;34204767544;354119899;132465625;5703680714;208354263;393679220;4242;2454;564344;6;4140;34799
2;83;1571346886742;1571346893077;6335;17258206670;34205550442;354249400;132487353;5703935460;208316662;393649012;4109;2547;559488;24;3765;38333
2;84;1571346893077;1571346899434;6357;17258107098;34203012163;353821023;132585540;5703414065;208451408;393441665;3695;3376;581544;37;2515;111949
2;85;1571346899435;1571346905825;6390;17258734606;34205962907;352696854;132504619;5703910863;208403441;393501729;2442;4277;586024;-57;6151;286959
2;86;1571346905825;1571346912201;6376;17257157952;34209116911;354223645;132415899;5704582011;208385153;393653435;4237;2471;565984;-6;4491;43900
2;87;1571346912201;1571346918539;6338;17260522668;34205310930;352930106;132537008;5703742007;208449506;393393986;4240;2449;566120;-9;3770;29873
2;88;1571346918539;1571346924910;6371;17261567298;34208457981;352908411;132618945;5704365739;208424612;393493244;3122;4098;533488;75;4818;384783
2;89;1571346924910;1571346931237;6327;17228327916;34200313704;352818725;131496058;5702721319;208502140;393174276;1410;4841;519864;46;6327;891506
2;90;1571346931237;1571346937684;6447;17259289114;34210352045;353129700;132551495;5704869931;208322868;393838351;2917;3921;709280;-108;5199;215103
2;91;1571346937684;1571346944022;6338;17260621656;34207447948;352368195;132548653;5704146553;208420945;393589334;3969;2761;566296;-11;4134;57490
2;92;1571346944023;1571346950375;6352;17253162516;34209635958;353815452;132404228;5704689813;208409119;393601371;4053;2597;564528;-2;1184;3653
2;93;1571346950375;1571346956812;6437;17259779382;34207317013;353423412;132595386;5704225999;208376946;393612365;3396;3796;589752;16;3123;143729
2;94;1571346956812;1571346963195;6383;17262142976;34208924838;352155189;132518754;5704398576;208409085;393380767;2348;4436;574880;3;6143;407268
2;95;1571346963195;1571346969579;6384;17259771352;34209669129;353114000;132457084;5704546672;208408061;394196476;4217;2447;564144;0;4285;38255
2;96;1571346969579;1571346975925;6346;17261166528;34205271283;353769695;132570221;5703908490;208382584;393811896;4192;2533;567752;-17;4175;37050
2;97;1571346975925;1571346982318;6393;17256968882;34206583950;354481542;132464812;5704141073;208364407;393875798;4146;2553;565232;-3;3224;24128
2;98;1571346982318;1571346988718;6400;17253898648;34206566713;353443622;132380129;5704001352;208346374;393557304;3291;3616;564640;143;4484;204516
2;99;1571346988718;1571346995061;6343;17251273276;34205810319;352119336;132361252;5703915113;208355612;393372304;2673;4070;599160;-139;6001;328444
2;100;1571346995061;1571347001444;6383;17261697676;34207890831;352504478;132636374;5704187898;208411276;393356617;4357;2374;565776;-3;4257;46459
2;101;1571347001444;1571347007818;6374;17260130366;34202995758;352704781;132521814;5703436769;208448641;393370671;4317;2417;564688;16;4080;35687
2;102;1571347007818;1571347014210;6392;17255173812;34207509434;355014591;132484598;5704313885;208345428;393697351;4233;2479;566184;-16;2216;22473
2;103;1571347014210;1571347020568;6358;17258981930;34208429746;352960399;132522370;5704343492;208385465;393616979;3066;3927;548872;149;4587;318749
2;104;1571347020568;1571347026907;6339;17261198648;34198531856;352703012;132578859;5702418650;208450778;393321657;3035;3815;616264;-136;5633;202144
2;105;1571347026907;1571347033316;6409;17258888052;34205879858;353066864;132619324;5703977335;208364582;393815837;4298;2444;567728;-13;4233;40469
2;106;1571347033317;1571347039699;6382;17254873198;34208890761;353737589;132479894;5704428530;208331967;393481066;4265;2421;564832;0;4193;39904
2;107;1571347039699;1571347046113;6414;17259513078;34203183274;353638396;132632633;5703364354;208382432;393663360;4065;2635;565112;0;2682;17849
2;108;1571347046113;1571347052504;6391;17257609384;34208385169;352931616;132412817;5704390561;208406635;393684368;2673;4326;526960;58;5697;435969
2;109;1571347052504;1571347058879;6375;17258488742;34214393869;352010819;132514613;5705673020;208338874;394180672;3526;3258;632488;-56;5542;111509
2;110;1571347058879;1571347065279;6400;17262277442;34211816110;353540568;132664222;5704945770;208389663;394084354;4350;2380;565680;-2;3988;34121
2;111;1571347065279;1571347071637;6358;17259631192;34203419241;352902720;132571051;5703350457;208460905;393452307;4266;2415;556328;37;3700;36087
3;60;1571347569587;1571347576101;6514;17750649778;34176021544;353932653;132718875;5898060819;208971851;394036542;2853;3987;598432;-32;6268;289483
3;61;1571347576102;1571347582624;6522;17754733544;34176737277;355855869;132715657;5898112502;209066663;394218420;4376;2528;568296;10;4316;42472
3;62;1571347582625;1571347589117;6492;17751690612;34176494844;354726650;132715531;5897894964;209022417;393885226;4417;2464;568096;-9;3902;32742
3;63;1571347589117;1571347595599;6482;17751643016;34177428427;355747390;132723903;5898395195;208968045;393992624;3997;2861;567848;-2;2981;38005
3;64;1571347595599;1571347602093;6494;17752988260;34178383319;355802301;132736124;5898503949;208979442;394039990;3269;3921;561920;143;4190;227685
3;65;1571347602094;1571347608633;6539;17755890302;34185862167;355269636;132797145;5900711178;208936910;394486611;3350;3671;609776;-133;5866;227543
3;66;1571347608633;1571347615110;6477;17754243422;34181520030;354786564;132825378;5899373891;208985974;394251033;4192;2699;569312;-9;4005;33229
3;67;1571347615110;1571347621669;6559;17751631628;34178543493;356501322;132672091;5898585655;208989563;394451624;4372;2503;565808;15;3983;34210
3;68;1571347621669;1571347628194;6525;17745350416;34173912856;355612588;132534815;5897366280;208995649;394182716;4244;2596;569512;-15;2650;18455
3;69;1571347628195;1571347634929;6734;17755149206;34177332540;354282324;132833723;5898383519;209023854;394138350;2678;4591;552560;43;5395;412143
3;70;1571347634929;1571347641413;6484;17756418530;34173156348;354956057;132795942;5896980439;209091819;394042757;3725;3205;619792;-42;5543;106147
3;71;1571347641413;1571347647895;6482;17750236890;34172349000;356397600;132632152;5897007820;209035626;394239278;4292;2603;568296;-1;4150;42005
3;72;1571347647895;1571347654371;6476;17753861632;34174964329;354659614;132771958;5897695455;209071338;394066393;4265;2576;554664;31;3693;35658
3;73;1571347654371;1571347660865;6494;17751878076;34170769507;355724141;132688666;5896438422;209064542;393628278;4056;3245;605880;5;2483;76460
3;74;1571347660865;1571347667398;6533;17756639282;34177181944;354927571;132788334;5898145531;209056523;394014491;2478;4418;574920;-24;6405;319432
3;75;1571347667398;1571347673917;6519;17752826784;34176823765;355109303;132699704;5898086709;209029330;394367371;4272;2630;567288;12;4420;39832
3;76;1571347673917;1571347680393;6476;17749287160;34181563909;355214842;132640272;5899528451;208972474;394362932;4297;2548;570792;-24;3986;32540
3;77;1571347680393;1571347686874;6481;17749911894;34174041305;355836704;132629300;5897562181;209033442;394010536;4233;2671;568416;0;4037;40857
3;78;1571347686874;1571347693445;6571;17754172612;34168940269;355425897;132820565;5895992749;209063947;394101173;3442;3910;596088;13;3774;184808
3;79;1571347693445;1571347699972;6527;17755791460;34170709333;354693545;132745185;5896484011;209057179;394095684;2945;3939;578792;-12;5933;300649
3;80;1571347699972;1571347706493;6521;17753250038;34189198683;354900663;132744237;5901331371;208931768;394390988;4427;2456;568200;-1;4281;40214
3;81;1571347706493;1571347713017;6524;17755730432;34174602084;355704403;132776674;5897743494;209065332;393927899;4351;2546;566472;7;4277;39005
3;82;1571347713017;1571347719543;6526;17752852918;34175705044;354994412;132856259;5897749467;208960711;393990336;3840;3072;570392;-7;3418;56607
3;83;1571347719543;1571347726238;6695;17751844788;34177876202;355247763;132822714;5898435636;208917040;394135240;3244;4078;550184;95;4987;342756
3;84;1571347726238;1571347733008;6770;17747686562;34173255959;354652214;132599897;5897333081;209049563;394061908;3574;3515;626056;-86;5141;103367
3;85;1571347733008;1571347739571;6563;17746897870;34177079199;355125415;132602343;5898497359;208982366;394050457;4357;2498;568672;-8;3990;32941
3;86;1571347739571;1571347746047;6476;17751110992;34181257121;354617659;132696363;5899432044;208980165;394099923;4291;2561;567528;4;3575;27151
3;87;1571347746047;1571347752538;6491;17751858366;34176427951;355825235;132730666;5898021772;209001549;394085378;4265;2871;570488;152;3434;55269
3;88;1571347752538;1571347759021;6483;17760730494;34179870220;355301036;132868688;5898864044;209008581;394057862;2216;4960;586368;-125;6483;531674
3;89;1571347759021;1571347765496;6475;17751166910;34168346364;354668269;132583512;5895669731;209167613;393914521;4089;2751;583192;-32;4657;66628
3;90;1571347765496;1571347771986;6490;17747120520;34183552312;356585744;132501563;5900085558;208934124;394434248;4317;2481;566680;0;3831;31416
3;91;1571347771986;1571347778551;6565;17753370050;34178698674;355046753;132711340;5898844618;209029031;394268022;4119;2769;568152;0;4296;53954
3;92;1571347778551;1571347785151;6600;17752237820;34181895009;355530856;132715893;5899430018;208985285;394284513;2317;3967;504064;143;5738;630302
3;93;1571347785151;1571347791719;6568;17754947726;34179427896;353216047;132892103;5898913135;208980496;394053309;1464;6843;703376;-118;6567;652780
3;94;1571347791719;1571347798243;6524;17750340988;34180789196;355939699;132630584;5899189872;209040658;393990627;4414;2453;573064;-19;4216;42263
3;95;1571347798243;1571347804767;6524;17752437402;34181058421;354550177;132700533;5899322160;209002332;394472561;4026;2852;568896;-6;4380;65639
3;96;1571347804767;1571347811287;6520;17750433698;34176762665;355815600;132692493;5898245174;208953565;394373599;3540;3795;570312;34;3768;183199
3;97;1571347811287;1571347817767;6480;17752116640;34178526417;354217451;132684631;5898824840;208947381;394219848;2244;4692;594936;-10;6383;450912
3;98;1571347817767;1571347824297;6530;17748690166;34177394877;355195287;132610196;5898603800;208961892;394153131;4366;2482;571128;-24;4832;50684
3;99;1571347824297;1571347830821;6524;17746787202;34177179563;355402122;132601657;5898350788;208986530;394211850;4346;2509;567616;0;4063;34803
3;100;1571347830821;1571347837326;6505;17753015562;34179226924;355019311;132668927;5898985614;209016749;393978118;3938;2918;567624;0;4076;55924
3;101;1571347837326;1571347843878;6552;17751990350;34173330001;355200336;132650137;5897229459;209070580;393827732;3190;4061;581160;127;3843;204911
3;102;1571347843878;1571347850358;6480;17752980960;34180524827;354455808;132638395;5899143002;208985469;394222947;3051;4004;594848;-127;5860;294876
3;103;1571347850358;1571347856914;6556;17753779434;34180484463;355576092;132740183;5899134599;208987486;394184610;4333;2571;568416;0;4221;37002
3;104;1571347856914;1571347863402;6488;17751357294;34166805613;355676587;132676952;5895522441;209079178;393982691;4511;2385;568296;0;3968;35805
3;105;1571347863402;1571347869955;6553;17748364586;34178412129;354814598;132610953;5898592418;208961554;394355334;3874;2943;565856;8;3379;56061
3;106;1571347869955;1571347876477;6522;17754435704;34180793991;355220364;132850290;5899275163;208922395;394070570;3023;4317;537560;59;5497;346064
3;107;1571347876477;1571347882976;6499;17750263024;34172995542;354629080;132643968;5897114552;209033250;394000582;3222;3691;634480;-57;5225;114388
3;108;1571347882976;1571347889471;6495;17754561410;34180559356;354701494;132725027;5899292606;209036221;394366373;4319;2569;567136;7;4117;37571
3;109;1571347889471;1571347895960;6489;17754156844;34189040904;354822751;132746363;5901513381;208922886;394563570;4331;2553;569760;-12;3665;29722
4;62;1571348400307;1571348406684;6377;17358597146;34807771232;353899522;132786340;6026555846;203556304;394956474;4344;2352;562560;16;4580;50072
4;63;1571348406684;1571348413051;6367;17353398086;34808985492;353394841;132668880;6026986193;203498365;394918335;4194;2508;567360;-15;4206;40196
4;64;1571348413051;1571348419429;6378;17356816384;34810062431;354556239;132684977;6027204408;203550138;394954445;4082;2664;566112;-2;3453;48370
4;65;1571348419429;1571348426266;6837;17359868368;34817474361;355811974;132730328;6029396823;203484369;395440211;3726;3285;569728;101;3765;151391
4;66;1571348426266;1571348432635;6369;17360794738;34812886354;353427963;132788341;6028063609;203500800;394989586;3025;3766;594136;-96;5887;252517
4;67;1571348432635;1571348438993;6358;17359500740;34810182235;354063056;132759916;6027230573;203519168;394984476;4339;2401;566472;-5;4302;43383
4;68;1571348438993;1571348445359;6366;17356178218;34805748454;354709932;132722499;6026005298;203519685;394933652;4327;2374;563400;11;4192;42091
4;69;1571348445359;1571348451733;6374;17361855866;34809221783;355794443;132730191;6026993553;203568782;395179622;4270;2468;567192;-10;3109;24326
4;70;1571348451733;1571348458154;6421;17364081782;34804619866;353808522;132872118;6025577151;203666599;394907513;2831;4168;523048;127;5047;383270
4;71;1571348458154;1571348464520;6366;17361915142;34804357938;352840804;132849459;6025552658;203594606;394975266;3162;3670;639016;-120;5588;176338
4;72;1571348464520;1571348470965;6445;17360482736;34806933781;353366690;132754843;6026271484;203608268;394864367;4289;2458;566040;5;4133;37995
4;73;1571348470965;1571348477397;6432;17356696518;34802790839;353583618;132705029;6025115024;203612847;394598086;4273;2467;566888;-12;3935;37476
4;74;1571348477398;1571348483784;6386;17358103812;34808641493;355172126;132749694;6026666515;203597256;394925770;4046;2682;565512;0;2044;27451
4;75;1571348483785;1571348490199;6414;17367332326;34808381260;354237713;132839422;6026709182;203604177;395193678;2321;4768;570776;35;6102;424891
4;76;1571348490199;1571348496599;6400;17362031796;34813442777;355273336;132695448;6028253813;203527734;395383616;4102;2675;590632;-33;4964;75895
4;77;1571348496599;1571348502980;6381;17361270552;34806296810;354732961;132785868;6026123676;203597310;394960940;4379;2336;562760;20;4198;37722
4;78;1571348502980;1571348509342;6362;17356911576;34801223083;353797289;132654770;6024627985;203605302;395099953;4193;2535;567760;0;4090;36949
4;79;1571348509342;1571348515952;6610;17357703188;34803013596;354825297;132737510;6025170841;203611143;394770362;4053;3018;575440;85;2913;115075
4;80;1571348515952;1571348522318;6366;17358947108;34820071235;352621481;132684272;6030028203;203476652;395091825;1945;4857;584472;-74;6366;381164
4;81;1571348522318;1571348528682;6364;17361003372;34807004323;353627926;132754441;6026260597;203600476;394864498;4290;2460;574096;-22;4623;58588
4;82;1571348528682;1571348535066;6384;17354871956;34807324378;353465175;132652424;6026467231;203505205;395146561;4247;2499;567200;-11;3954;31978
4;83;1571348535066;1571348541469;6403;17357056846;34808871239;354312220;132794113;6027043905;203457856;395080781;3970;2758;565512;0;3710;50754
4;84;1571348541469;1571348547872;6403;17358390994;34805278629;356157280;132769781;6025811860;203584080;395154235;3381;3818;579760;23;2841;160537
4;85;1571348547872;1571348554298;6426;17362103774;34808933738;354702616;132729986;6026983218;203556544;394927717;2744;4039;588312;-23;6054;306419
4;86;1571348554298;1571348560676;6378;17359090334;34813238948;355579709;132682705;6028145378;203547006;395091608;4401;2296;562880;15;4248;37463
4;87;1571348560676;1571348567057;6381;17355705324;34808296347;353447961;132564203;6026687261;203573962;394961627;4306;2404;564440;9;4264;37708
4;88;1571348567057;1571348573521;6464;17360365790;34811448784;353940973;132751971;6027579243;203577217;395071176;3028;4115;542560;95;4960;330891
4;89;1571348573521;1571348580065;6544;17368904308;34800823708;353595888;133010246;6024369449;203718440;394762870;1472;5608;539936;-10;6545;901784
4;90;1571348580066;1571348586460;6394;17360982640;34815145847;354132554;132718178;6028730845;203490783;395193232;3124;3729;692616;-109;5053;177039
4;91;1571348586460;1571348592825;6365;17358921704;34810552079;353316669;132709481;6027366040;203562448;395254371;4114;2622;565640;0;4465;56977
4;92;1571348592825;1571348599206;6381;17354484180;34813322267;355370248;132671408;6028106962;203502355;395249421;4150;2578;565512;0;1201;5064
4;93;1571348599206;1571348605596;6390;17360213074;34811446649;354292072;132832606;6027629858;203538699;395120701;3401;3730;588280;90;3674;170837
4;94;1571348605596;1571348612003;6407;17360376886;34812508730;352936753;132733647;6027850091;203558166;394985600;2448;4437;581776;-90;6253;410655
4;95;1571348612003;1571348618410;6407;17357922042;34812798189;354832597;132647409;6027943136;203557687;395271037;4315;2417;563976;12;4386;40461
4;96;1571348618410;1571348624817;6407;17361577006;34808444846;354468205;132879354;6026824632;203521972;395333468;4342;2406;567440;-12;3880;32865
4;97;1571348624817;1571348631184;6367;17355423836;34810505328;353917004;132683189;6027447641;203513716;395246501;4140;2605;565944;-1;3292;25086
4;98;1571348631184;1571348637584;6400;17360007360;34809404606;354667140;132835621;6027122986;203525065;394967656;3097;4028;540552;126;4675;324224
4;99;1571348637585;1571348644375;6790;17359398540;34809318327;356297640;132644015;6027057742;203517877;395085462;3564;3309;629264;-125;5760;152405
4;100;1571348644375;1571348650753;6378;17360286804;34811219091;355594248;132689357;6027527531;203562582;395138277;4193;2545;564840;6;4149;38356
4;101;1571348650753;1571348657131;6378;17361232738;34805598355;354514907;132744537;6025898779;203634250;394899736;4240;2480;565464;-1;3924;37446
4;102;1571348657131;1571348663501;6370;17354258902;34811490119;355699498;132663714;6027702428;203518677;395132055;3997;2736;566352;-5;1782;22952
4;103;1571348663501;1571348669938;6437;17361624748;34812069577;353865043;132770992;6027799663;203535085;394834177;2256;4884;560968;42;6096;461007
4;104;1571348669938;1571348676554;6616;17356891574;34799043120;354821029;132709530;6024135937;203620683;394778783;3862;2868;604616;-34;4506;48985
4;105;1571348676554;1571348682917;6363;17359310064;34809615661;353882883;132823142;6027116303;203514985;395215843;4357;2379;566856;-8;4380;50728
4;106;1571348682917;1571348689277;6360;17359691562;34812130194;355062212;132786881;6028010460;203471638;395092523;4264;2470;565624;0;3969;39188
4;107;1571348689277;1571348696078;6801;17360370900;34804574561;355641898;132793199;6025673551;203564620;394857370;4266;2876;583040;48;3359;95853
4;108;1571348696078;1571348702598;6520;17363973450;34812471135;352828302;132776929;6027860953;203592183;395332233;2348;4483;585168;-48;6338;373689
4;109;1571348702598;1571348708973;6375;17360010572;34820470135;353999549;132711181;6030189668;203461528;395623799;4364;2332;564984;0;4630;55812
4;110;1571348708973;1571348715352;6379;17358199004;34815598926;354198830;132679923;6028764191;203518856;395273921;4324;2394;565360;0;4235;39550
4;111;1571348715352;1571348721719;6367;17362858010;34805269515;354340221;132822876;6025875024;203608085;394805931;4076;2636;565248;0;3294;39188
