0;58;1571333610782;1571333617479;6697;18101842850;34354969458;363011570;139559904;5933399971;209905055;394606055;2996;6;504016;0;2323;8342
0;59;1571333617479;1571333624141;6662;18095036184;34364063468;354145106;138453416;5935736133;209780893;394200545;2992;10;504064;0;2198;7590
0;60;1571333624141;1571333630810;6669;18086726156;34362957083;352802173;139690676;5935527088;209749514;394277610;2939;494;523416;11;2193;78994
0;61;1571333630810;1571333637438;6628;18082333746;34363598623;355521184;138948067;5935513441;209855074;394509216;2948;63;512400;-11;2312;8529
0;62;1571333637438;1571333644080;6642;18106447836;34363495015;358494631;139400182;5935377257;209799068;394220555;2995;6;504008;0;2644;9397
0;63;1571333644080;1571333650747;6667;18092151516;34364352977;358853081;139450242;5935828572;209750462;394427104;3001;0;504168;-1;2144;7309
0;64;1571333650748;1571333657419;6671;18100630904;34365282815;359697225;138583003;5935938538;209781004;394589153;2987;12;503832;1;2214;7922
0;65;1571333657419;1571333664066;6647;18071767872;34373091184;354367240;139195063;5938283355;209684058;394770969;2893;587;537488;0;2761;79204
0;66;1571333664067;1571333670707;6640;18080218644;34368618406;356720374;138199735;5936886437;209774908;394787655;2999;1;504000;0;2512;8735
0;67;1571333670707;1571333677410;6703;18215016064;34365501386;357114547;142804522;5936043452;209749924;394854578;2986;10;503168;5;2313;8227
0;68;1571333677410;1571333684094;6684;18177108916;34360677268;358569343;141035836;5934760339;209735043;394537443;3005;0;504840;-5;2125;7275
0;69;1571333684094;1571333690745;6651;18079747210;34364316976;353298465;139039844;5935847128;209794630;394580130;3002;1;503880;1;1488;4860
0;70;1571333690745;1571333697423;6678;18067266108;34359810014;357142374;138340829;5934299911;209859181;394421189;2881;567;535224;-1;2995;79764
0;71;1571333697423;1571333704065;6642;18100211008;34358966938;356154337;138996443;5934323794;209807019;394499394;2993;7;504000;0;2811;9883
0;72;1571333704065;1571333710718;6653;18080174844;34361685289;355756846;139001636;5935028076;209851876;394584937;2995;8;504056;0;2380;8670
0;73;1571333710718;1571333717367;6649;18092127426;34357769210;355346927;138730175;5933930281;209833602;394058008;2996;4;504000;0;2100;7262
0;74;1571333717368;1571333724045;6677;18079649682;34363811614;353810539;139122216;5935462784;209823880;394420975;2827;613;532848;-1;2823;74592
0;75;1571333724045;1571333730668;6623;18078273194;34363726410;356520707;138511271;5935537349;209838515;394667711;2999;0;503832;1;2233;7103
0;76;1571333730668;1571333737305;6637;18075016518;34368420796;354541454;139204069;5936942384;209770519;394788510;2997;4;504008;0;2407;8590
0;77;1571333737305;1571333743952;6647;18072892948;34361036916;355535250;138475065;5935019436;209832911;394403419;2996;4;504000;0;2281;7507
0;78;1571333743953;1571333750617;6664;18075605336;34356093075;355642582;139328712;5933522286;209862959;394623312;2997;3;504000;0;1775;5875
0;79;1571333750617;1571333757276;6659;18079436522;34357829193;354204647;138849538;5933998915;209828599;394379600;2936;444;531472;0;2549;42720
0;80;1571333757276;1571333763904;6628;18057552582;34376089279;356126972;138039772;5938751258;209704119;394843281;2997;3;504000;0;2432;8310
0;81;1571333763905;1571333770545;6640;18079665888;34361461661;353683908;139104928;5935151328;209838775;394361374;2995;5;504000;0;2272;8010
0;82;1571333770545;1571333777300;6755;18107157396;34362564260;354729022;139135395;5935184112;209761877;394498052;2350;1246;557944;5;4220;73256
0;83;1571333777300;1571333784004;6704;18160590038;34364823843;358209577;141073633;5935878930;209694568;394645975;2428;787;522704;-6;3845;24136
0;84;1571333784004;1571333790667;6663;18123768546;34359902437;356589470;139851168;5934641730;209817142;394607533;2989;10;503832;1;2469;8935
0;85;1571333790667;1571333797361;6694;18118123748;34363700346;358273388;140355131;5935811033;209774944;394552342;2960;37;503176;5;2002;6928
0;86;1571333797361;1571333804017;6656;18078941144;34368149834;353772669;138406022;5936885566;209764805;394413321;2997;8;504840;-5;1153;3161
0;87;1571333804017;1571333810657;6640;18068956058;34363450673;354405563;139225449;5935490183;209774102;394303567;2907;417;529256;1;2387;36447
0;88;1571333810657;1571333817297;6640;18086384954;34367085093;356833745;139343985;5936400805;209796161;394484630;3026;34;504936;-1;2917;11160
0;89;1571333817297;1571333823942;6645;18073454756;34355143318;354990457;138375495;5933057934;209934042;394370211;3000;0;504000;0;2118;7188
0;90;1571333823942;1571333830613;6671;18086658266;34370505252;358827972;139165309;5937543043;209737397;394908370;3001;0;504008;0;2039;6592
0;91;1571333830613;1571333837260;6647;18067189896;34365632003;352835347;138286176;5936282235;209814130;394592277;2958;469;539728;0;2531;47685
0;92;1571333837260;1571333843887;6627;18075193616;34368959700;355378360;139156073;5936946863;209789549;394810437;2988;17;504056;0;2309;7315
0;93;1571333843887;1571333850514;6627;18071980010;34366355905;353278456;138392690;5936337466;209769006;394460843;2974;26;504000;0;2306;7628
0;94;1571333850514;1571333857152;6638;18061788480;34367559922;351888112;139139626;5936560295;209794583;394452704;2982;19;504168;-1;2243;7705
0;95;1571333857152;1571333863804;6652;18070356782;34368071984;352611030;138661292;5936823290;209761680;394843263;2998;3;503856;1;1494;4512
0;96;1571333863804;1571333870441;6637;18077548012;34363562263;353981472;139038366;5935625001;209751436;394593458;2896;447;533200;0;2521;40515
0;97;1571333870441;1571333877058;6617;18055671080;34365279977;353749151;138945451;5936207293;209740400;394659343;2995;10;504080;0;2508;8200
0;98;1571333877058;1571333883755;6697;18227858954;34364333690;356481961;142215961;5936030074;209704352;394685088;2987;13;504000;0;2305;8133
0;99;1571333883756;1571333890445;6689;18163341992;34364254014;356983362;141423087;5935851574;209758651;394665846;2975;28;504024;0;2210;7834
0;100;1571333890445;1571333897128;6683;18093010726;34366010424;354203244;138683114;5936383912;209776325;394319691;3012;345;527872;10;2396;45125
0;101;1571333897128;1571333903752;6624;18066969728;34360370382;358015866;138579844;5934723341;209875317;394367484;2913;97;509712;-10;2390;9152
0;102;1571333903752;1571333910442;6690;18091167622;34367513700;360201697;138253593;5936594023;209784008;394849972;2998;7;504216;-1;2780;10336
0;103;1571333910442;1571333917102;6660;18071167374;34367498159;358199956;139068068;5936619669;209790626;394699573;2991;5;503328;4;2118;7100
0;104;1571333917102;1571333923757;6655;18078799962;34353855993;357421215;139123330;5933007173;209823121;394263025;3003;1;504512;-3;1804;5984
0;105;1571333923758;1571333930420;6662;18092626016;34365383973;358031905;138673834;5936055211;209758761;394844239;2866;488;530896;0;2299;53469
0;106;1571333930420;1571333937063;6643;18093140812;34367820929;355254010;139544087;5936772122;209703541;394625972;2997;7;503728;2;2684;9332
0;107;1571333937063;1571333943723;6660;18154205166;34359745025;356034297;140519955;5934496405;209775125;394354586;3002;0;504336;-2;2253;7476
1;61;1571334450245;1571334456721;6476;17548264432;34597825863;356278362;138409313;5993952725;202132034;394402738;2995;5;503360;4;2540;8419
1;62;1571334456721;1571334463196;6475;17543659884;34597436375;353656623;139788673;5993984070;202084912;394356693;3000;5;504840;-5;1906;5747
1;63;1571334463196;1571334469686;6490;17532598632;34598718607;350950926;138912888;5994454329;202059218;394266640;2994;6;504000;0;1750;5199
1;64;1571334469686;1571334476215;6529;17513477742;34599881398;360842798;138413250;5994661638;202136320;394279584;2989;319;530032;0;1636;29816
1;65;1571334476215;1571334482681;6466;17507696288;34607232955;356298196;138002956;5996799878;202056087;394730731;2994;5;503832;1;2169;6534
1;66;1571334482681;1571334489158;6477;17536228922;34602614204;350622866;139281771;5995557960;202055131;394585093;3004;0;504032;0;2342;7978
1;67;1571334489158;1571334495639;6481;17531798406;34599851222;349219484;138677705;5994662360;202047616;394428667;2998;2;504000;0;1972;5865
1;68;1571334495639;1571334502146;6507;17519648286;34595412316;354835609;138953877;5993411809;202086696;394564388;2998;6;504096;0;1869;5871
1;69;1571334502146;1571334508633;6487;17519385486;34598559982;351798178;138224213;5994263350;202130524;394805215;2891;392;527456;2;2137;20662
1;70;1571334508633;1571334515103;6470;17539019566;34594330894;352383687;139245069;5992961812;202189922;394196982;2994;8;504336;-2;2307;7486
1;71;1571334515103;1571334521608;6505;17572428892;34593903672;354912993;140403599;5992886761;202152208;394501908;3000;4;504040;0;2292;7973
1;72;1571334521608;1571334528110;6502;17554234226;34596558654;355033568;139543334;5993682292;202166302;394352890;2998;2;504000;0;2006;6191
1;73;1571334528110;1571334534602;6492;17536514790;34592540558;350468963;138990855;5992543081;202118879;393978941;3001;1;504032;0;1356;3779
1;74;1571334534602;1571334541102;6500;17568483096;34598175640;350728054;139400966;5994106476;202147444;394289743;2907;399;532368;0;2225;28049
1;75;1571334541103;1571334547609;6506;17612606048;34598214062;354222510;140917449;5994227198;202120356;394803665;2997;7;504032;0;2695;8987
1;76;1571334547609;1571334554177;6568;17554445634;34602833627;352871858;138920269;5995590757;202088322;394705192;2994;8;504064;0;2073;6142
1;77;1571334554177;1571334560670;6493;17557451190;34595931915;353348169;139801631;5993572013;202120888;394385766;2995;5;504000;0;1920;5869
1;78;1571334560670;1571334567193;6523;17610676366;34590976505;350314037;140801175;5992087591;202139316;394457607;3008;273;515264;9;1812;18932
1;79;1571334567194;1571334573690;6496;17580445460;34592798560;355503543;140810565;5992657544;202185244;394384115;2908;105;519768;-9;2095;7186
1;80;1571334573690;1571334580163;6473;17541001078;34609637737;348712994;138909984;5997415826;202020024;394568657;3004;0;504032;0;2768;10889
1;81;1571334580163;1571334586657;6494;17515587734;34596727454;356185519;138641195;5993693320;202178257;394313790;2988;9;503360;4;1943;5976
1;82;1571334586658;1571334593174;6516;17524626448;34597063697;357283210;138806720;5993929742;202077443;394272887;3004;0;504672;-4;1701;4971
1;83;1571334593174;1571334599688;6514;17514125398;34598834174;357824402;138124233;5994620146;202067816;394332239;2963;386;532640;-1;1858;28896
1;84;1571334599688;1571334606151;6463;17551730326;34595286389;352908402;139267839;5993434158;202119491;394388393;2989;3;502656;8;2435;7673
1;85;1571334606151;1571334612644;6493;17526488094;34598734603;356509092;138195964;5994449478;202135566;394440521;3009;2;505368;-8;2232;7180
1;86;1571334612644;1571334619128;6484;17527173418;34602774049;351156633;138781810;5995534768;202075372;394478806;2990;10;503896;1;2165;6707
1;87;1571334619128;1571334625635;6507;17547880306;34597808838;349878264;138768358;5994089955;202113647;394199317;3001;1;504032;0;1862;6032
1;88;1571334625635;1571334632125;6490;17535989628;34601080109;352751963;139503458;5994970898;202122985;394389284;2937;377;532032;2;2088;32086
1;89;1571334632125;1571334638644;6519;17561612190;34590477144;356329451;139383107;5991788205;202279187;394216264;2995;1;503328;4;2344;7609
1;90;1571334638645;1571334645118;6473;17528468000;34604841639;350371557;139272546;5996223781;202007659;394586496;3005;7;505088;-6;2294;8351
1;91;1571334645118;1571334651630;6512;17525992424;34600181040;356282959;138274277;5994784789;202176856;394656790;2989;12;504032;0;1961;5855
1;92;1571334651630;1571334658126;6496;17542087756;34603007191;350627691;139226631;5995557870;202033010;394561208;2996;7;504064;0;1178;3029
1;93;1571334658126;1571334664705;6579;17555352294;34600912628;350781916;139874743;5995001152;202108166;394561285;2236;1553;577528;2;4314;76257
1;94;1571334664705;1571334671230;6525;17598296442;34602187415;352806745;140443446;5995277066;202130029;394483546;2535;638;515616;-2;3532;16045
1;95;1571334671230;1571334677715;6485;17551403724;34602922700;351433124;139901466;5995524000;202072708;394877736;2996;4;504000;0;2056;6287
1;96;1571334677715;1571334684209;6494;17521149604;34598133253;353668554;138611884;5994280895;202076022;394862508;2995;5;504000;0;1843;5344
1;97;1571334684209;1571334690717;6508;17508530678;34600254569;354627736;138995535;5994969476;202076914;394402666;2989;15;504232;-1;1598;4906
1;98;1571334690717;1571334697212;6495;17540786458;34598838166;354203616;138867962;5994459097;202035987;394327668;2940;360;532264;1;1791;19097
1;99;1571334697213;1571334703683;6470;17517436240;34598906677;354265263;139286784;5994510872;202093140;394548588;3039;19;504472;1;2482;10144
1;100;1571334703683;1571334710177;6494;17519768882;34600878620;355442323;138458209;5994973501;202131927;394198280;2989;14;504232;-1;2221;7066
1;101;1571334710178;1571334716674;6496;17532333788;34595370220;353429827;139138623;5993437709;202203564;394005292;2996;2;503520;3;2064;6593
1;102;1571334716675;1571334723158;6483;17518505106;34601540196;349814234;138495169;5995343744;202040022;394565182;2993;10;504504;-3;1817;5329
1;103;1571334723158;1571334729656;6498;17530664424;34601816498;348780256;138697661;5995279278;202048640;394322291;2912;445;534608;0;2267;37898
1;104;1571334729656;1571334736134;6478;17544312358;34588788376;353107266;139534414;5991551262;202162784;394027347;2994;11;504040;0;2493;7953
1;105;1571334736134;1571334742636;6502;17602963040;34599419013;350585744;140639750;5994697509;202035658;394595021;2996;0;503328;4;2172;6814
1;106;1571334742636;1571334749123;6487;17528276302;34601708697;350932072;139583018;5995317293;201984163;394558361;3000;6;504704;-4;1985;5952
1;107;1571334749123;1571334755642;6519;17502468466;34594160244;358218432;138191522;5993063907;202129583;394378080;2999;1;504000;0;1213;3192
1;108;1571334755642;1571334762129;6487;17526487656;34602458636;354012710;138976006;5995430994;202117868;394513369;2934;393;532176;0;2244;35750
1;109;1571334762129;1571334768614;6485;17540244506;34610086379;354346486;139019167;5997627363;202057995;394993707;2985;20;504064;0;2596;8933
1;110;1571334768614;1571334775160;6546;17632354008;34604875821;357718020;142283498;5995995940;202053411;394898829;2999;1;504000;0;2080;6878
2;61;1571335277139;1571335283624;6485;17566526842;34751358053;354089931;140322520;6027001231;202458938;395478308;2961;37;503024;6;2728;9676
2;62;1571335283624;1571335290100;6476;17529094194;34750536744;351889330;138486024;6026832106;202402594;395381235;3001;6;505176;-7;1896;5905
2;63;1571335290100;1571335296605;6505;17513934430;34751876594;356181548;139124849;6027310889;202407660;395517237;2997;5;503880;1;1696;5258
2;64;1571335296605;1571335303160;6555;17552506608;34752820454;351548071;139593353;6027466080;202400681;395488131;2870;379;527512;-1;1802;12483
2;65;1571335303160;1571335309628;6468;17524543812;34760316563;355771356;139302058;6029689072;202345627;396134782;2978;21;503832;1;2231;7011
2;66;1571335309628;1571335316099;6471;17542977334;34755601951;349899119;138913578;6028313054;202365693;395621664;2992;12;504032;0;2120;6633
2;67;1571335316099;1571335322580;6481;17527166410;34752913740;351678783;139058794;6027495589;202362278;395593439;3001;0;504168;-1;2034;6549
2;68;1571335322580;1571335329068;6488;17534325520;34748502419;350826936;138684004;6026265341;202395259;395477323;2992;11;503928;1;1800;5314
2;69;1571335329068;1571335335571;6503;17536553188;34752040433;355697883;139349225;6027276803;202444348;395835887;2893;437;532688;0;2145;32496
2;70;1571335335572;1571335342036;6464;17540920194;34747454936;352312342;138860796;6025848350;202494997;395364287;2974;26;504000;0;2555;9108
2;71;1571335342036;1571335348509;6473;17545252452;34747072650;351747412;139496668;6025777410;202430262;395643494;2973;29;503544;3;2069;6451
2;72;1571335348509;1571335355004;6495;17540860334;34749500388;352644413;139420331;6026443082;202453884;395513788;2975;28;504504;-3;1905;5237
2;73;1571335355004;1571335361511;6507;17539919364;34745499524;353340647;138996289;6025372349;202473444;395155194;2989;12;504024;0;1240;2818
2;74;1571335361512;1571335367999;6487;17549257524;34751600457;356764325;139657130;6027027798;202445263;395407652;2879;380;526624;6;2103;17498
2;75;1571335367999;1571335374463;6464;17542885646;34751551717;351380963;138901315;6027136186;202438568;395912160;3004;8;505056;-6;2550;8791
2;76;1571335374463;1571335380932;6469;17512526260;34756255986;350363375;138703517;6028516785;202388119;395995431;2987;13;504000;0;2014;5851
2;77;1571335380932;1571335387432;6500;17531107388;34749044259;350574698;138691751;6026385416;202433606;395431415;2980;21;504032;0;1779;5124
2;78;1571335387432;1571335393943;6511;17541495288;34744012589;351952185;139475353;6024884917;202479334;395753985;2875;384;522200;11;1996;19145
2;79;1571335393943;1571335400401;6458;17535475708;34745832957;352525761;138945289;6025451993;202491699;395479579;2919;92;512400;-11;1951;5627
2;80;1571335400401;1571335406925;6524;17554146042;34762872935;352007159;140043873;6030296915;202355483;395887521;2988;17;504064;0;2493;8364
2;81;1571335406925;1571335413410;6485;17535950792;34749806832;351582638;138809612;6026542769;202461532;395485363;2990;11;504032;0;2026;6294
2;82;1571335413410;1571335419925;6515;17543298972;34750022779;351909512;139620215;6026694688;202365515;395581537;2995;9;504072;0;1689;5134
2;83;1571335419925;1571335426424;6499;17533872920;34751988259;354320110;139252499;6027439847;202315181;395507324;2933;370;530128;0;1814;23145
2;84;1571335426424;1571335432885;6461;17551292910;34748206266;351777736;139305181;6026143684;202453256;395508585;2991;8;503832;1;2490;8438
2;85;1571335432885;1571335439381;6496;17602381522;34751609623;353598377;141072477;6027202053;202380599;395662381;2980;25;504200;-1;2121;6897
2;86;1571335439381;1571335445877;6496;17564513210;34756023343;353427169;139538560;6028396541;202395055;395672972;2978;22;504000;0;2134;7031
2;87;1571335445877;1571335452377;6500;17542448522;34750837496;352383315;139321783;6026835395;202446215;395486137;2972;30;504032;0;1880;5693
2;88;1571335452377;1571335458869;6492;17535686824;34754159350;352126816;138691412;6027813781;202410668;395473374;2893;418;531728;0;2217;33657
2;89;1571335458869;1571335465330;6461;17540057188;34743531774;353701071;139295144;6024595979;202560338;395591595;2986;15;504032;0;2440;8222
2;90;1571335465330;1571335471810;6480;17532288528;34758059909;352951261;138550067;6029036956;202329539;395823770;3002;3;504040;0;2164;6895
2;91;1571335471810;1571335478309;6499;17537369328;34753460182;351064768;139451370;6027690125;202439808;395713962;2983;13;503328;4;2054;6621
2;92;1571335478309;1571335484809;6500;17559945892;34756103956;354515186;139176629;6028364089;202365295;395613618;2997;8;504696;-4;1251;2979
2;93;1571335484809;1571335491386;6577;17553382608;34754118211;354545788;139954460;6027835312;202430851;395762919;2918;661;551256;10;2689;55693
2;94;1571335491386;1571335497935;6549;17616643824;34755240285;352369032;141212095;6028106825;202422586;395573075;1789;1647;548520;-10;5005;29610
2;95;1571335497936;1571335504427;6491;17557793414;34755732249;354096625;139690853;6028287221;202397899;395924330;2988;13;504032;0;1990;6053
2;96;1571335504427;1571335510928;6501;17545206316;34751332052;353892404;139654465;6027141673;202379858;395769166;2988;9;503496;3;1877;5851
2;97;1571335510928;1571335517457;6529;17594919024;34753267354;354280454;140577847;6027677155;202367361;395734737;2996;10;504568;-3;1530;3949
2;98;1571335517457;1571335523967;6510;17579446528;34752155084;353109030;140805385;6027385664;202341292;395601337;2959;423;532992;6;1849;42059
2;99;1571335523967;1571335530428;6461;17548235524;34752024733;353993246;139106367;6027306946;202386739;395673731;3063;8;505744;-6;2617;11188
2;100;1571335530428;1571335536909;6481;17517252718;34753865109;355217158;139235854;6027751136;202461020;395669836;2994;6;504000;0;2191;7387
2;101;1571335536909;1571335543394;6485;17542668398;34748780898;351360838;138995578;6026304085;202510549;395351351;2990;14;504080;0;2128;6811
2;102;1571335543394;1571335549885;6491;17541763636;34754331268;351941594;140037179;6028010342;202376187;395594500;2991;10;504032;0;1677;4504
2;103;1571335549885;1571335556376;6491;17543533740;34754570316;351761782;139607902;6027982539;202391385;395578896;2940;449;537080;-1;2216;48418
2;104;1571335556376;1571335562842;6466;17530833930;34742075900;354860691;139453034;6024495064;202508722;395352173;2992;11;503864;1;2492;8776
2;105;1571335562842;1571335569325;6483;17531277332;34752501092;356673991;139198417;6027462243;202373067;395730664;2992;8;504000;0;2161;6938
2;106;1571335569325;1571335575829;6504;17533231396;34754996218;357385888;138901988;6028315088;202347708;395902091;2998;4;504032;0;1988;6310
2;107;1571335575829;1571335582327;6498;17530743410;34747701610;351286814;139297680;6026087483;202396349;395374959;2999;1;504000;0;1119;2263
2;108;1571335582328;1571335588806;6478;17561702126;34755502361;354075193;139267991;6028242778;202435878;395774152;2960;402;529520;8;2316;41311
2;109;1571335588806;1571335595276;6470;17520444570;34763222694;352941960;139117330;6030433241;202365421;396249633;3001;0;504168;-1;2578;8471
2;110;1571335595276;1571335601747;6471;17536207752;34758418497;352568248;139005318;6029051796;202362127;395904024;3001;6;505176;-7;1950;6118
3;58;1571336100149;1571336106816;6667;18020184904;34121030720;356864253;139399236;5877406041;209822616;395537562;2889;365;527408;0;2128;16966
3;59;1571336106816;1571336113434;6618;18019521042;34130028957;354978853;138572145;5879734810;209734852;395399077;2973;27;504000;0;2363;8266
3;60;1571336113434;1571336120090;6656;18019390372;34129070944;352485427;139464278;5879536418;209693863;395464037;2970;34;504032;0;2264;7741
3;61;1571336120091;1571336126740;6649;18027993568;34129514819;356527492;138588758;5879483541;209810235;395727220;2949;51;504000;0;2200;7537
3;62;1571336126740;1571336133384;6644;18034090528;34129672662;356366720;139755662;5879451425;209724517;395312807;2975;25;503400;4;1476;5121
3;63;1571336133384;1571336140019;6635;18036196432;34130569949;353584502;138842653;5879906131;209680340;395467162;2920;400;531824;-4;2356;36751
3;64;1571336140020;1571336146655;6635;18075512918;34131424623;351151598;140758250;5880025286;209690059;395386332;2926;80;504232;-1;2848;9504
3;65;1571336146655;1571336153308;6653;18077043290;34138943363;355043944;140092979;5882224722;209629517;396055211;2978;21;503832;1;2079;6593
3;66;1571336153308;1571336159963;6655;18054496218;34134768565;356492987;140064625;5880925566;209691765;395701077;2988;12;504000;0;2169;7335
3;67;1571336159963;1571336166638;6675;18029661034;34131756575;358951484;138743621;5880150193;209730288;395876531;2934;381;530248;0;2161;29050
3;68;1571336166638;1571336173274;6636;18038177360;34126796228;358794436;139428627;5878805441;209712103;395757977;2977;23;504000;0;2411;8123
3;69;1571336173274;1571336179889;6615;18027604916;34130576679;353462102;138970428;5879945353;209750028;395654074;2980;26;504048;0;2234;7130
3;70;1571336179889;1571336186519;6630;18021128356;34125808370;350128555;139635069;5878299004;209785200;395312055;2994;6;504000;0;1990;6079
3;71;1571336186519;1571336193207;6688;18142861258;34125078095;351649293;141939656;5878354574;209709673;395445771;2978;24;504056;0;1508;4712
3;72;1571336193207;1571336199901;6694;18144304906;34127828947;352664166;142474528;5879059506;209736214;395524851;2913;388;529968;0;2327;28268
3;73;1571336199901;1571336206567;6666;18139359594;34123771616;357416204;141652198;5877932379;209775197;395302749;2983;17;504000;0;2591;8622
3;74;1571336206567;1571336213236;6669;18048898286;34130075400;360183274;140162842;5879568516;209793211;395633046;2957;45;503696;2;2289;7778
3;75;1571336213236;1571336219875;6639;18025464994;34129868152;353531854;138960378;5879573064;209736362;395655870;2988;14;504336;-2;2122;6839
3;76;1571336219875;1571336226551;6676;18024985238;34134515728;357785055;138987443;5880995800;209709733;395934572;2972;392;528096;3;2320;41644
3;77;1571336226551;1571336233152;6601;18036039190;34127097254;351154335;139683534;5879034445;209751044;395335905;2972;31;507192;-3;2082;6501
3;78;1571336233152;1571336239828;6676;18105638704;34121964714;353808111;141015435;5877494674;209791617;395631302;2996;8;504032;0;2435;8439
3;79;1571336239828;1571336246471;6643;18058710800;34123835552;353439445;140699894;5877990751;209784282;395364767;2994;6;504000;0;2088;6905
3;80;1571336246471;1571336253103;6632;18031733942;34142109645;354655044;139011346;5882730381;209641907;395754822;2997;3;504000;0;1706;5273
3;81;1571336253103;1571336259749;6646;18013230194;34127203244;356050958;139153445;5879036051;209764362;395416243;2923;433;532072;0;2060;46723
3;82;1571336259749;1571336266368;6619;18027239916;34128536656;355295796;138696491;5879136429;209683046;395699451;2976;24;504000;0;2486;8392
3;83;1571336266368;1571336273017;6649;18095353296;34130761421;356288088;141322898;5879814622;209593829;395639875;2989;9;502704;8;2306;8424
3;84;1571336273017;1571336279672;6655;18089163918;34126164927;358120866;140291390;5878734088;209742875;395487417;2993;16;505512;-9;2189;7298
3;85;1571336279673;1571336286441;6768;18043667690;34129797919;360076956;139598113;5879828178;209743382;395638919;2981;432;523024;5;2718;62817
3;86;1571336286441;1571336293133;6692;18049123418;34134292296;353247114;139697400;5880920710;209734898;395569528;1283;2350;605544;28;6318;55628
3;87;1571336293133;1571336299791;6658;18053007602;34129343964;353704334;140673145;5879430879;209761977;395508946;2420;905;658272;-32;4009;36202
3;88;1571336299792;1571336306422;6630;18020684808;34133083413;353196681;138962929;5880418811;209735670;395549148;2990;10;504000;0;2031;6515
3;89;1571336306422;1571336313069;6647;18014472216;34121373881;353335754;139482714;5877116735;209872832;395252591;2988;12;504000;0;1653;5193
3;90;1571336313070;1571336319797;6727;18036805690;34136483307;359981965;138659935;5881511003;209678420;396037681;2958;436;532912;0;1887;40152
3;91;1571336319797;1571336326445;6648;18028226146;34131355671;354413290;139487167;5880182874;209739856;395892968;2961;39;504000;0;2420;7605
3;92;1571336326445;1571336333086;6641;18029367136;34134538613;356889613;138643654;5880701224;209744638;395946595;2995;72;503968;5;2506;17032
3;93;1571336333086;1571336339772;6686;18010803236;34132395275;352528565;139288230;5880333577;209712207;395589637;2981;24;504432;-2;2178;6930
3;94;1571336339772;1571336346406;6634;18031759054;34134008501;352754538;139161402;5880763842;209738636;395475031;2985;21;504552;-3;1873;6085
3;95;1571336346406;1571336353077;6671;18009641806;34134220445;350832313;139494138;5880860241;209723148;395907772;2929;469;536528;0;2323;43740
3;96;1571336353077;1571336359675;6598;18007442462;34129517885;351961188;138749437;5879579758;209670644;395680853;2956;44;504000;0;2341;7536
3;97;1571336359675;1571336366291;6616;18007573862;34131427102;353104517;139477998;5880235098;209662070;395590588;2981;19;503360;4;2144;7232
3;98;1571336366291;1571336372926;6635;18002573654;34129968677;356272289;138641266;5879911572;209716392;395657780;2992;12;504672;-4;2130;6973
3;99;1571336372926;1571336379591;6665;18045123748;34130286439;351626711;139909552;5879851880;209687630;395576443;3062;172;510272;69;1330;16771
3;100;1571336379591;1571336386204;6613;18017653556;34131948847;352705293;139006805;5880367121;209711502;395502379;2826;240;521336;-62;2401;21532
3;101;1571336386204;1571336392829;6625;18038094724;34126312924;351937419;139251472;5878691280;209791070;395402679;2992;19;505208;-7;2626;9010
3;102;1571336392829;1571336399479;6650;18026420272;34133391125;358327321;139285075;5880534968;209717048;396000411;2976;24;504000;0;2115;6884
3;103;1571336399479;1571336406144;6665;18031946226;34133413726;358001275;138949170;5880602809;209718469;395793439;2982;16;503664;2;2124;7097
3;104;1571336406144;1571336412848;6704;18058654152;34119634295;360379460;140378312;5876923133;209814447;395527350;2924;404;531664;2;2347;37153
3;105;1571336412848;1571336419459;6611;18026094400;34131538549;353709810;139109283;5880084055;209698606;395796338;2971;33;504672;-4;2469;8255
3;106;1571336419459;1571336426096;6637;18023325072;34133648039;354396967;139311222;5880749934;209659456;395693669;2999;4;504024;0;2188;7146
3;107;1571336426096;1571336432739;6643;18014781006;34126051927;354145837;138587842;5878596362;209747475;395517052;2992;6;503664;2;2154;7266
4;63;1571336942379;1571336948753;6374;17094567388;33878156450;353599650;138806173;5782722568;210235370;390038082;2998;2;504000;0;1858;5314
4;64;1571336948753;1571336955123;6370;17090351784;33879517036;354725810;138348643;5782919291;210228686;389901763;2999;2;504168;-1;1711;4760
4;65;1571336955123;1571336961497;6374;17086608490;33884513999;349149938;138807190;5784147116;210156373;390190886;3088;229;495968;114;1288;46160
4;66;1571336961497;1571336967859;6362;17107275082;33881028706;354045760;138539693;5783391102;210228151;390103637;2923;194;538056;-113;2297;19501
4;67;1571336967859;1571336974277;6418;17171936000;33879629543;354618913;140845081;5782895334;210269808;390127408;3005;3;504240;-1;2378;7556
4;68;1571336974277;1571336980645;6368;17127257956;33876552915;353683363;139246282;5782145425;210238516;389970503;2991;4;503160;5;1762;4795
4;69;1571336980645;1571336987019;6374;17096121412;33879407367;350430052;138997961;5782805313;210259013;390048915;2992;6;503664;2;1794;4856
4;70;1571336987019;1571336993408;6389;17099382322;33876119306;357251576;138316526;5781988357;210355936;389873380;2959;401;533632;-6;1896;42722
4;71;1571336993408;1571336999765;6357;17104590726;33875606137;356328387;138978456;5781938764;210301977;390047193;2993;7;504000;0;2064;6308
4;72;1571336999765;1571337006179;6414;17248318382;33876683940;353824800;142964507;5782374018;210259430;389835698;2991;16;504232;-1;2240;7655
4;73;1571337006180;1571337012588;6408;17208311900;33874326315;355148313;141470274;5781639815;210306372;389546837;2988;11;503832;1;1895;5766
4;74;1571337012589;1571337019049;6460;17197947944;33878651201;351473678;141738763;5782731226;210244693;389860336;2998;3;504008;0;1463;3913
4;75;1571337019050;1571337025440;6390;17128308280;33878316721;354365484;139152504;5782665814;210282055;390119093;2944;409;534480;0;2010;37877
4;76;1571337025440;1571337031790;6350;17106361852;33881245421;351944361;138814323;5783468564;210231053;390199320;2986;13;503832;1;2356;7389
4;77;1571337031790;1571337038144;6354;17088024982;33876200170;349464784;138295243;5782262970;210273607;389804525;2986;21;504256;-1;1951;5580
4;78;1571337038145;1571337044504;6359;17088140176;33872768657;350112432;138841355;5781326560;210301969;389927933;2985;16;504032;0;1798;4925
4;79;1571337044504;1571337050867;6363;17103397614;33874061638;353198000;138604917;5781686721;210292956;389876962;2999;2;504016;0;1538;4367
4;80;1571337050867;1571337057250;6383;17107937338;33885973870;356456091;138996402;5784523035;210222554;390224366;2951;368;530064;0;2091;28400
4;81;1571337057250;1571337063620;6370;17124132242;33876846045;356583851;139693684;5782203577;210285554;389944530;2988;12;504000;0;2243;7052
4;82;1571337063620;1571337069983;6363;17094028940;33877022238;356067783;138428671;5782388801;210218253;390005700;3002;3;504056;0;2172;7596
4;83;1571337069983;1571337076366;6383;17096990404;33877750883;356307076;138816551;5782698640;210187084;390143994;2992;9;504168;-1;1847;5280
4;84;1571337076367;1571337082742;6375;17092158972;33875472615;354201539;138411006;5782129806;210280449;389908726;2989;11;503840;1;1024;1846
4;85;1571337082742;1571337089102;6360;17094459494;33878296765;349698600;138887806;5782730919;210235399;389915674;2947;396;533432;-1;2123;42154
4;86;1571337089102;1571337095448;6346;17098532748;33881384853;353916105;138186557;5783506963;210240027;390072400;2975;24;503832;1;2478;7938
4;87;1571337095448;1571337101842;6394;17091010536;33877425451;352951897;138795594;5782445466;210291086;389921377;3006;206;510016;104;2021;16331
4;88;1571337101843;1571337108252;6409;17113869172;33880574687;353819050;138742717;5783128003;210289574;390024625;1561;1987;577816;-98;5555;75176
4;89;1571337108252;1571337114609;6357;17115528024;33873318985;353856212;139001758;5781368823;210376165;389864002;2977;27;503368;-2;2444;7979
4;90;1571337114609;1571337121005;6396;17112653722;33882312689;353697706;139352460;5783780234;210176359;390296849;3001;3;505680;-4;1626;4155
4;91;1571337121005;1571337127374;6369;17097253350;33879839280;351529016;138345731;5783041570;210243415;390100966;2994;12;504088;0;1213;2426
4;92;1571337127375;1571337133771;6396;17107894122;33881553764;356922708;139114226;5783476969;210250665;390294896;3000;0;504000;0;1036;2178
4;93;1571337133771;1571337140162;6391;17091873542;33879525607;358695645;138092028;5783068641;210268560;390313259;2926;452;531992;-1;2319;49400
4;94;1571337140162;1571337146523;6361;17097652660;33881385579;356630168;138633096;5783367950;210287375;390185474;3005;63;504680;1;2638;12664
4;95;1571337146523;1571337152871;6348;17073005232;33881361049;350275596;138135252;5783254366;210247707;390404797;3000;0;504000;0;1854;4992
4;96;1571337152871;1571337159248;6377;17072552486;33877403479;351296475;138722950;5782618276;210202479;390151508;2992;15;504120;0;1845;5545
4;97;1571337159249;1571337165652;6403;17150562914;33878799165;353802635;139955044;5782963415;210221354;390192117;2982;21;504232;-1;1482;3553
4;98;1571337165652;1571337172026;6374;17132579218;33878640902;354546991;139699356;5782718828;210247861;390106187;2893;506;538024;1;2536;57608
4;99;1571337172026;1571337178393;6367;17099252090;33878171219;352169512;139221450;5782773662;210239888;390063214;2989;13;504016;0;2392;7946
4;100;1571337178393;1571337184736;6343;17085066146;33880235295;351448943;138205852;5783072875;210226002;389780923;2987;13;504000;0;1950;5607
4;101;1571337184736;1571337191103;6367;17087463028;33875488560;352763771;138659812;5782159852;210374228;389795417;2976;29;504080;0;1701;4706
4;102;1571337191103;1571337197510;6407;17086528920;33879859657;357495161;138085892;5783255430;210254998;390315194;2907;419;532464;0;1667;31431
4;103;1571337197510;1571337203874;6364;17075872526;33880730831;360960933;138311144;5783286225;210299825;390357722;2996;7;504184;-1;2108;6246
4;104;1571337203874;1571337210245;6371;17147828480;33871543410;351424500;139927569;5781060223;210296797;389590870;2998;1;503832;1;2407;9370
4;105;1571337210245;1571337216623;6378;17158897178;33878250099;355113080;140664110;5782881942;210223516;390149247;3000;0;504000;0;1834;5213
4;106;1571337216623;1571337223024;6401;17181183202;33880779889;354228850;140827670;5783176250;210143406;389940059;2973;37;504216;0;1916;6097
4;107;1571337223025;1571337229427;6402;17138339794;33875547166;355080359;140102738;5781976569;210243123;389817677;2969;446;534320;0;1946;43917
4;108;1571337229427;1571337235758;6331;17099301292;33880662925;349339156;139092572;5783317598;210259005;390143593;2990;11;504008;0;2167;7014
4;109;1571337235758;1571337242093;6335;17078745660;33885899650;349731772;138065329;5784623413;210150538;390499684;2995;5;504000;0;1964;5978
4;110;1571337242093;1571337248449;6356;17091380646;33883805018;349062857;138904431;5783839659;210191899;390265911;2995;5;504000;0;1739;4278
4;111;1571337248449;1571337254837;6388;17157138754;33875884165;353540691;140029339;5782027479;210284832;389753369;3003;2;504056;0;1246;3038
4;112;1571337254837;1571337261236;6399;17155137824;33882946823;353898004;140604415;5783857031;210145553;389921428;2942;354;528304;0;1917;24386
