0;61;1571388690062;1571388696434;6372;9978719962;13846741617;105291516;5533857;2214978381;217009142;162539433;1167;11130;1190904;-40;6371;877350
0;62;1571388696434;1571388702770;6336;9979587202;13846724489;103316025;5754925;2214972685;216960338;162670359;1499;9049;893736;56;6337;810403
0;63;1571388702770;1571388709107;6337;9965679096;13846708147;100308981;5256343;2214968435;216887564;163388438;1029;8607;778368;-5;6336;900006
0;64;1571388709107;1571388715332;6225;9968542010;13846719659;101841921;5233767;2214971051;217030733;163406431;939;9546;881616;-11;6225;884676
0;65;1571388715332;1571388721706;6374;9970925314;13846813571;101014084;5343505;2215002705;217040759;162626447;1015;11489;1086400;17;6374;910630
0;66;1571388721706;1571388728003;6297;9972732940;13846751280;101722549;5483910;2214981891;216816597;163029749;1069;11198;1129080;-13;6297;903752
0;67;1571388728003;1571388734576;6573;9970921372;13846714147;102742191;5462374;2214969581;216848671;162995960;1549;8483;938456;12;6574;990421
0;68;1571388734576;1571388740846;6270;9975661700;13846717224;104290670;5582319;2214970373;216828001;163431908;1117;9045;800288;3;6269;897437
0;69;1571388740846;1571388747308;6462;9975718348;13846747288;103423936;5729995;2214980415;216848184;162731150;1021;9969;978928;-21;6463;920995
0;70;1571388747309;1571388753640;6331;9974590498;13846838098;103415711;5770737;2215010589;216859748;162541422;1037;10926;1048656;-3;6331;902234
0;71;1571388753640;1571388759984;6344;9970254444;13846828684;103715538;5486658;2215008460;216844120;163263449;1181;11995;1204912;3;6345;913751
0;72;1571388759985;1571388767204;7219;9975692214;13846720547;105126059;5570910;2214971630;216873027;163386132;1580;9012;916608;-1;7220;910602
0;73;1571388767204;1571388773465;6261;9973688510;13846815201;104735113;5519517;2215003318;216856152;162921463;956;9216;860200;4;6260;889782
0;74;1571388773465;1571388779819;6354;9977451368;13846752844;104591798;5674440;2214981871;216845625;162862005;1012;11017;1002944;17;6355;906261
0;75;1571388779819;1571388786130;6311;9976950880;13846711320;105867443;5620833;2214969183;216909433;163713923;1118;11031;1166672;-25;6311;897443
0;76;1571388786130;1571388792506;6376;9992752752;13846718195;107654417;5749070;2214971492;217161677;163805815;1321;10012;1125568;-106;6375;589116
0;77;1571388792506;1571388798836;6330;9974984698;13846712613;102189631;5647611;2214969587;216782521;163717725;1461;8788;724792;127;6331;884636
0;78;1571388798836;1571388805092;6256;9971799562;13846739568;101152198;5423354;2214977841;216825625;162633589;976;9027;884904;-16;6255;892566
0;79;1571388805092;1571388811490;6398;9972083386;13846831114;102307214;5511246;2215008616;216817697;162967784;980;10497;966040;12;6398;913118
0;80;1571388811490;1571388817846;6356;9972624024;13846711591;102129588;5616440;2214969201;216837729;163262873;1099;11726;1171552;-7;6356;904077
0;81;1571388817846;1571388824168;6322;9981765376;13846717474;102872205;5837390;2214970856;216968664;162904935;1486;10326;1144112;-49;6323;655842
0;82;1571388824168;1571388830486;6318;9972382540;13846810108;101691177;5717587;2215001642;216837265;162717450;1190;8434;723920;63;6317;867566
0;83;1571388830486;1571388836790;6304;9966828262;13846758136;101528001;5447510;2214984344;216785416;163127304;968;9022;878240;-27;6304;899208
0;84;1571388836790;1571388843122;6332;9964195444;13846774109;101219657;5365487;2214989321;216827907;162916596;979;10318;980792;3;6333;905897
0;85;1571388843122;1571388849398;6276;9969898350;13846794718;101706959;5546938;2214996406;216876631;162847208;1076;12022;1155704;13;6275;897244
0;86;1571388849398;1571388855882;6484;9973375924;13846741140;102035274;5824097;2214978681;216881605;162614441;1428;9233;921608;-7;6485;982372
0;87;1571388855883;1571388862396;6513;9970033108;13846834037;101251139;5791958;2215008575;216853125;163527426;1251;7101;705560;15;6513;929701
0;88;1571388862396;1571388868687;6291;9964188290;13846710537;99835396;5504856;2214969093;216789059;164300913;973;8767;849240;-8;6292;894706
0;89;1571388868687;1571388875246;6559;9972366626;13846714963;101857416;5646516;2214969756;216907567;163567017;950;10156;955440;-9;6559;939787
0;90;1571388875246;1571388881592;6346;9967509790;13846716718;99945922;5479177;2214970352;216817618;162882257;970;11260;1086240;0;6345;907905
0;91;1571388881592;1571388891343;9751;9967990130;13846713826;99654290;5612618;2214969708;216874521;163243114;2103;13595;1443880;20;9751;1232320
0;92;1571388891343;1571388897833;6490;9965831228;13846780378;100065331;5638267;2214991610;216856379;163433209;1013;9035;863248;-19;6490;924383
0;93;1571388897833;1571388904095;6262;9964281876;13846780804;98872762;5705174;2214992522;216877426;163172725;980;10451;942144;20;6263;896166
0;94;1571388904095;1571388910472;6377;9966488958;13846749470;99813670;5679022;2214981049;216863523;163128875;1067;11184;1125240;-11;6377;909050
0;95;1571388910473;1571388917084;6611;9978076540;13846813269;101347425;5536235;2215003195;216997423;163486996;1197;10311;1178872;-114;6611;789127
0;96;1571388917084;1571388923429;6345;9973545576;13846724044;104616008;5500618;2214972055;216876732;163599245;1540;8626;749584;104;6342;877614
0;97;1571388923429;1571388929708;6279;9963456246;13846709066;99868301;5667393;2214968644;216809081;162733339;968;8984;844136;-8;6279;887716
0;98;1571388929708;1571388936011;6303;9969582552;13846722292;101508741;5714934;2214971391;216861109;163781131;988;10336;987208;10;6303;901189
0;99;1571388936011;1571388942354;6343;9964526864;13846806573;101714689;5582608;2215000379;216855259;163387431;1053;11727;1123144;3;6343;901265
0;100;1571388942355;1571388949034;6679;9980538100;13846837398;102942348;5623209;2215010655;217037194;163739364;1376;10676;1218528;31;6680;768515
0;101;1571388949035;1571388955282;6247;9976447764;13847427409;102751872;5423327;2215186950;216847965;162713378;1458;8266;709328;-39;6248;873315
0;102;1571388955283;1571388961558;6275;9969296976;13846799091;104046694;5043692;2214997555;216916913;162889718;951;9287;866168;9;6275;893426
0;103;1571388961558;1571388967945;6387;9973934228;13846711741;103287639;5470818;2214969212;216826332;162991488;979;10475;968040;14;6388;915742
0;104;1571388967945;1571388974305;6360;9975541396;13846722951;104524568;5650248;2214972535;216889751;163912387;1070;11793;1164504;0;6360;909758
0;105;1571388974306;1571388981417;7111;9984212920;13846828580;103059312;5765316;2215008911;216924687;162862087;1762;10334;1156496;-36;7027;871707
0;106;1571388981417;1571388987663;6246;9969510720;13846725206;101863543;5453240;2214973396;216864781;163226925;1148;8336;736528;27;6246;866633
0;107;1571388987664;1571388993896;6232;9963633490;13846713717;101806446;5296633;2214969542;216791367;163845711;939;9121;856448;-11;6233;881479
0;108;1571388993896;1571389000286;6390;9964471238;13846796252;101771270;5379883;2214996616;216816205;162932996;984;10608;1023416;-2;6390;916701
0;109;1571389000286;1571389006650;6364;9969159882;13846769553;101319857;5703839;2214988646;216845490;163275869;1098;12038;1184704;22;6364;910038
0;110;1571389006650;1571389013321;6671;9977534880;13846719424;101772742;5774497;2214971353;216932990;162915598;1506;10166;1067912;-4;6670;837998
1;60;1571389529121;1571389535411;6290;9946770782;13846619534;116671701;4923282;2214983679;217105449;163488701;1019;11128;1079328;7;6290;893619
1;61;1571389535411;1571389541820;6409;9951919618;13846640347;117672855;5198610;2214992668;217101680;163814300;1153;12019;1187312;9;6409;920267
1;62;1571389541820;1571389548299;6479;9948201144;13846582690;118603670;5716492;2214970414;216732366;163605404;1675;7616;891376;-18;6480;996660
1;63;1571389548300;1571389554568;6268;9945592854;13846566169;117823643;5549237;2214968471;216703557;163283608;1122;8917;772728;-2;6268;895042
1;64;1571389554568;1571389560896;6328;9947696568;13846573609;118310038;5232831;2214968271;216987168;163586077;976;9976;926688;16;6328;898307
1;65;1571389560896;1571389567225;6329;9948804270;13846673035;117947139;5842976;2215003158;216759868;163498185;1014;10852;1047528;-4;6329;908757
1;66;1571389567225;1571389573496;6271;9949429442;13846692572;117891403;5635115;2215007961;216824249;163302121;1139;11742;1175256;-17;6272;904080
1;67;1571389573497;1571389580208;6711;9952498070;13846620530;118965498;5684611;2214986061;216811983;163603835;1614;8220;901536;14;6711;1053715
1;68;1571389580208;1571389586463;6255;9941975266;13846628360;118123994;5466877;2214986011;216688188;163168219;1089;8577;778032;-1;6255;891327
1;69;1571389586463;1571389592771;6308;9944899208;13846656532;119334098;5569286;2214997851;216765339;163975054;980;9866;906384;12;6308;893951
1;70;1571389592771;1571389599064;6293;9942774616;13846595929;115939902;5602258;2214975355;216787217;163350330;1018;10514;1047944;-21;6293;895873
1;71;1571389599064;1571389605644;6580;9947303098;13846690270;117124492;5896436;2215009147;216793308;163903438;1156;12243;1202752;9;6581;945042
1;72;1571389605644;1571389612206;6562;9941243368;13846690338;115992612;5614860;2215007291;216726208;163726923;1574;8583;912360;15;6561;1005252
1;73;1571389612206;1571389618517;6311;9944426314;13846586089;116598262;5465183;2214974156;216866382;163425975;1071;8577;788184;-15;6311;898576
1;74;1571389618517;1571389624813;6296;9953918796;13846670542;118455286;5016210;2214999844;217399016;163432992;1021;10004;947032;3;6296;894154
1;75;1571389624813;1571389631138;6325;9947991050;13846690197;117408690;5620526;2215009120;216852959;163454517;1092;11455;1110776;-4;6325;899683
1;76;1571389631138;1571389637421;6283;9941112552;13846695772;115743217;5560048;2215008292;216750000;163361495;1162;11525;1156584;4;6283;906868
1;77;1571389637421;1571389644000;6579;9940925818;13846649583;116503313;5782732;2214995552;216698567;163345427;1576;8510;881224;-5;6579;1009049
1;78;1571389644000;1571389650363;6363;9942935216;13846600016;116770499;5555591;2214976488;216717286;163073887;1059;8744;840960;-2;6364;903044
1;79;1571389650363;1571389660851;10488;9951495196;13846689796;117391711;5708901;2215009337;216868998;164062920;3266;12886;1612272;-137;10038;1145254
1;80;1571389660851;1571389667117;6266;9961037610;13846690924;118720148;5805959;2215008658;217107791;163763729;4698;6372;958672;31;5027;122971
1;81;1571389667117;1571389673404;6287;9953205440;13846577322;116665137;5821245;2214972178;216941521;164062280;3170;7244;794016;115;5696;688543
1;82;1571389673405;1571389679651;6246;9939225356;13846572124;115418996;5643698;2214967802;216706440;163805772;1075;8599;802512;-18;6246;892392
1;83;1571389679651;1571389686010;6359;9941763128;13846570932;114704476;5790659;2214969395;216726021;163888674;963;10472;950280;29;6359;907831
1;84;1571389686010;1571389692274;6264;9940598778;13846637937;115685194;5550734;2214989445;216782487;163246073;1036;11155;1074640;-12;6264;891069
1;85;1571389692274;1571389698605;6331;9943434390;13846687761;115232422;5630909;2215008646;216790188;163768050;1148;11079;1160504;-17;6331;893641
1;86;1571389698605;1571389705217;6612;9946442866;13846665634;116584666;5801482;2214998545;216840513;163580044;1562;7026;777248;1;6612;956947
1;87;1571389705217;1571389711507;6290;9943432054;13846598114;115941772;5851007;2214977153;216780248;163709756;1169;5713;571432;27;6290;909844
1;88;1571389711507;1571389720869;9362;9959504610;13846691003;119371661;6601192;2215007450;216932214;163553787;1516;12460;1279008;-20;9362;1359201
1;89;1571389720869;1571389727162;6293;9948438832;13846574482;120220634;5713330;2214970372;216826900;163655888;1000;10878;1036192;-8;6293;896685
1;90;1571389727162;1571389733835;6673;9944883148;13846678233;116659775;5559510;2215002477;216820799;163153443;1408;11961;1174928;16;6674;1008850
1;91;1571389733835;1571389740269;6434;9945803532;13846689416;116422320;5761014;2215008867;216719888;163376962;1224;7613;811936;-7;6433;920967
1;92;1571389740269;1571389746663;6394;9946165320;13846623323;117079513;5601515;2214984360;216807907;163284844;993;9261;880928;4;6394;915810
1;93;1571389746663;1571389756217;9554;9952829928;13846570561;117618046;5886349;2214969284;216786425;163515119;1503;15497;1536440;6;9554;1363963
1;94;1571389756217;1571389762510;6293;9954688946;13846575281;116224714;5840643;2214969121;216974881;163378881;1262;10109;1140560;-116;6293;614870
1;95;1571389762510;1571389768802;6292;9949201682;13846596717;117316418;5758721;2214977943;216782977;163412263;1491;8584;728008;121;6292;901107
1;96;1571389768802;1571389775054;6252;9939580866;13846698271;115647270;5524324;2215009016;216718347;163581650;994;9206;850744;-2;6252;889464
1;97;1571389775054;1571389781620;6566;9947637584;13846687295;117627531;5292150;2215008668;216887992;163201230;1008;10080;988320;-10;6567;938642
1;98;1571389781620;1571389787889;6269;9949384766;13846583586;119059156;5607666;2214971135;216768677;163683137;1061;11470;1110032;-3;6268;899056
1;99;1571389787889;1571389794292;6403;9954758588;13846569730;118931500;5756030;2214969325;216803952;163775455;1386;11078;1140928;68;6403;898654
1;100;1571389794292;1571389800558;6266;9939768184;13846575948;115204731;5601276;2214968586;216748820;163187024;1289;7640;761928;-69;6266;893475
1;101;1571389800558;1571389807027;6469;9942712128;13846570248;115500031;5700890;2214969054;216687306;163266477;1008;9783;895720;17;6469;920594
1;102;1571389807027;1571389813338;6311;9944403100;13846573263;116842227;5620732;2214967937;216768885;163367700;963;10066;948088;-3;6312;893466
1;103;1571389813338;1571389819686;6348;9943793696;13846599910;114934979;5647358;2214978894;216781406;163558735;1068;11676;1143336;0;6348;910048
1;104;1571389819686;1571389826250;6564;9939975650;13846677801;113867215;5771738;2215002930;216803613;163374007;1437;10879;1132568;5;6563;961117
1;105;1571389826250;1571389832538;6288;9941603258;13846567517;115458667;5804814;2214968638;216725727;163976415;1201;7733;769440;-16;6288;894376
1;106;1571389832538;1571389838824;6286;9943889764;13846824205;115137978;5773610;2215046668;216762411;163171435;1002;9178;854432;-8;6286;893091
1;107;1571389838824;1571389845129;6305;9944055036;13846588501;114958160;5680546;2214975302;216780772;163580147;994;10328;969328;13;6305;897470
1;108;1571389845129;1571389851438;6309;9951175602;13846574928;118258132;5610420;2214968390;216838010;163639674;1074;11497;1143472;-17;6310;904138
1;109;1571389851438;1571389858012;6574;9944573628;13846640249;115567482;5645596;2214992389;216753963;163206213;1492;10825;1121128;6;6573;1005735
2;60;1571390381028;1571390387281;6253;9934861270;13846837710;102454302;5029884;2215020041;216804720;162705893;991;10235;977856;1;6253;887937
2;61;1571390387281;1571390393772;6491;9928072416;13846822588;97210061;5405811;2215015532;216502318;162415846;1115;12089;1186088;8;6491;927421
2;62;1571390393773;1571390402199;8426;9930188978;13846743067;97504884;5289119;2214989371;216550317;162465839;2051;10873;1234392;-7;8427;1020999
2;63;1571390402199;1571390408411;6212;9927062388;13846824894;99824050;5305564;2215017015;216456122;163208245;1032;8909;786888;3;6212;886438
2;64;1571390408411;1571390414750;6339;9919449072;13846710500;96541318;5260838;2214978440;216435811;162016048;969;10531;974344;23;6339;902922
2;65;1571390414750;1571390420972;6222;9924577030;13846715785;96138236;5389142;2214980485;216457911;162270708;1026;11084;1048800;-1;6221;886972
2;66;1571390420972;1571390427231;6259;9930358046;13846809500;98544130;5403810;2215010908;216507214;162969519;1172;10339;1161184;-83;6260;790826
2;67;1571390427231;1571390433526;6295;9932722224;13846832289;96755621;5433613;2215019003;216634168;162143005;1502;8100;792384;59;6295;787620
2;68;1571390433526;1571390439774;6248;9926083312;13846837486;97414769;5286697;2215020733;216447555;162649694;1013;9017;792704;12;6248;887076
2;69;1571390439774;1571390446071;6297;9930623182;13846792407;100413172;5325227;2215005504;216516496;162721845;965;10060;939408;9;6297;901482
2;70;1571390446071;1571390452390;6319;9928336676;13846739012;98178586;5468832;2214987399;216487814;162530173;1004;10893;1075016;-18;6319;905970
2;71;1571390452390;1571390459544;7154;9929159970;13846942668;97498226;5464706;2215060208;216488060;162565248;1266;12209;1341896;-84;7153;977454
2;72;1571390459544;1571390465949;6405;9932709522;13846827798;102135469;5495569;2215018174;216486332;162510665;1625;8324;742000;80;6406;867870
2;73;1571390465949;1571390472187;6238;9930140798;13846834420;98949709;5400276;2215019260;216479191;162535612;952;9176;846504;9;6238;885631
2;74;1571390472188;1571390478530;6342;9931617296;13846839036;98287820;5380791;2215021390;216461552;162205905;980;10125;979888;-10;6343;902873
2;75;1571390478530;1571390484854;6324;9930615006;13846907858;101121983;5380376;2215041486;216459964;162435020;1035;11806;1108176;21;6324;902434
2;76;1571390484854;1571390492302;7448;9935926194;13846775654;99363425;5593448;2214999783;216616557;162197508;1747;10879;1215208;-21;7447;875822
2;77;1571390492302;1571390498607;6305;9929747036;13846712713;98915407;5426039;2214980217;216461094;162063626;1185;7876;735480;6;6306;877955
2;78;1571390498607;1571390504885;6278;9932820190;13846742937;101460896;5479884;2214988809;216538225;162487793;993;9490;872328;-1;6278;894107
2;79;1571390504885;1571390511261;6376;9928523410;13846820102;99078471;5474758;2215014571;216536751;162187268;975;10099;966016;-3;6375;908320
2;80;1571390511261;1571390517825;6564;9932003612;13846713010;98882937;5363699;2214980268;216593630;162648370;1088;12124;1185440;2;6565;934390
2;81;1571390517825;1571390524291;6466;9930907152;13846713550;100835801;5502627;2214978922;216440459;162712404;1507;9988;1092312;3;6466;964161
2;82;1571390524291;1571390530513;6222;9923266534;13846814424;97763433;5278794;2215012422;216387051;161950769;1211;7867;712800;5;6221;879062
2;83;1571390530513;1571390536833;6320;9925779048;13846747679;96123392;5411279;2214991408;216476760;162403795;1002;9425;867864;-8;6321;903995
2;84;1571390536833;1571390543463;6630;9926962232;13846781827;99512806;5508570;2215001592;216438308;163112572;1053;10957;1047872;5;6630;944719
2;85;1571390543463;1571390549788;6325;9920777672;13846830656;95524487;5407743;2215018197;216403840;162014363;1098;11599;1155608;-8;6325;901235
2;86;1571390549788;1571390556049;6261;9923572404;13846837714;97132240;5332960;2215020800;216404868;162642090;1430;9433;1018240;16;6260;981062
2;87;1571390556049;1571390562330;6281;9925238118;13846822203;99514536;5243176;2215014283;216406001;162888370;1195;8182;745232;-11;6282;897832
2;88;1571390562330;1571390568585;6255;9921421970;13846713910;95261249;5366651;2214979121;216482172;162586497;1012;9484;866120;12;6254;890816
2;89;1571390568585;1571390574933;6348;9923155720;13846706634;96899758;5500390;2214978733;216465701;162288939;971;10149;984552;-7;6349;910283
2;90;1571390574933;1571390581484;6551;9927792972;13846718870;98607209;5595543;2214980284;216518604;162396703;1161;10269;989304;10;6551;953551
2;91;1571390581484;1571390588095;6611;9922420610;13846804321;96110450;5540668;2215009392;216450982;162500304;1445;9502;949912;3;6611;1039442
2;92;1571390588095;1571390594604;6509;9920335000;13846758976;95321015;5368319;2214994979;216384252;162525294;1182;7397;850760;2;6509;926780
2;93;1571390594604;1571390605417;10813;9931452170;13846770083;99787991;5723230;2214997888;216510078;162667571;1682;16339;1590792;-19;10813;1545973
2;94;1571390605417;1571390611739;6322;9928177828;13846804943;97627781;5526960;2215008163;216496717;162244200;1188;10424;1087200;-48;6322;851100
2;95;1571390611739;1571390618099;6360;9940586222;13846713448;99571081;5738434;2214980960;216621684;162243218;1525;10104;991248;38;6360;568954
2;96;1571390618099;1571390624327;6228;9932669956;13846732720;101583693;5459512;2214984799;216418491;162824974;1166;8349;745408;28;6228;880196
2;97;1571390624328;1571390630646;6318;9925231840;13846826542;96784334;5305614;2215017547;216448037;161807297;953;8991;876152;-25;6319;897995
2;98;1571390630647;1571390637005;6358;9929876830;13846720349;97646385;5312042;2214982436;216535025;162565298;1023;11342;1033880;24;6359;915088
2;99;1571390637005;1571390643321;6316;9933645382;13846715795;100363651;5492970;2214979513;216550163;162538542;1117;11396;1167944;3;6315;901631
2;100;1571390643321;1571390649888;6567;9932539432;13846800432;97906422;5673074;2215008139;216511287;162380282;1469;9979;1038648;-21;6567;886934
2;101;1571390649888;1571390656200;6312;9926916972;13846831676;97657986;5475234;2215019876;216419139;162202116;1169;7815;749016;15;6312;905644
2;102;1571390656200;1571390662556;6356;9931156082;13846837440;102245457;5426736;2215019802;216453413;163117270;982;9503;902472;-13;6357;911105
2;103;1571390662557;1571390668853;6296;9925099418;13846830887;97213970;5334806;2215018471;216469903;162274862;995;10864;1010096;14;6297;903301
2;104;1571390668853;1571390676515;7662;9936322584;13846815753;98925016;5624776;2215014690;216576067;162479409;2378;11094;1405968;-152;7257;839626
2;105;1571390676515;1571390682833;6318;9944639328;13846708872;104328727;5448084;2214979038;216706527;163341721;3824;7058;801776;157;5521;587204
2;106;1571390682833;1571390689085;6252;9922385278;13846715443;96793128;4931561;2214979686;216596441;163157815;1056;8634;808040;0;6252;890811
2;107;1571390689085;1571390695353;6268;9924327954;13846713058;96899254;5432737;2214980105;216421290;162389468;948;9676;925640;-13;6267;896819
2;108;1571390695353;1571390701716;6363;9928817016;13846806764;99177401;5407959;2215009877;216528911;162671027;1031;11331;1061120;3;6363;914899
2;109;1571390701716;1571390708033;6317;9925269216;13846831384;96049173;5374894;2215018478;216509826;162120845;1139;11083;1148816;-9;6318;904328
3;60;1571391214794;1571391223971;9177;9929686300;13846719057;90758668;5707544;2214977755;216960921;162583246;1713;12576;1451848;-99;9177;1119007
3;61;1571391223971;1571391230319;6348;9943970210;13846754712;92299009;5801596;2214988143;217135860;162176300;3821;7312;981208;-32;5374;151044
3;62;1571391230319;1571391236619;6300;9938021732;13846841326;91806794;5827991;2215018655;216900268;162404559;2671;8180;847488;141;6006;544413
3;63;1571391236619;1571391242898;6279;9927178020;13846838447;90579533;5620204;2215015829;216655955;162134503;1066;8445;762432;-5;6279;898200
3;64;1571391242898;1571391249203;6305;9928991924;13846839274;90097897;5448233;2215017841;216778632;162189203;939;9737;894472;-6;6305;902973
3;65;1571391249203;1571391255598;6395;9936061828;13846738504;91582399;5511056;2214982316;216992456;162309852;1006;11445;1072064;25;6395;915967
3;66;1571391255598;1571391261940;6342;9930827582;13846720854;91053268;5898298;2214978111;216805730;162453359;1146;11296;1170928;-15;6342;900174
3;67;1571391261940;1571391268516;6576;9934829734;13846793823;91313916;5919685;2215000593;216813685;162035039;1561;8884;972072;9;6576;867804
3;68;1571391268516;1571391274771;6255;9927084872;13846838150;91722972;5649031;2215017339;216693032;162583265;1071;8450;748992;-15;6255;887907
3;69;1571391274771;1571391281076;6305;9926717974;13846806689;92132807;5633688;2215004630;216702075;162999183;956;9962;909256;4;6306;903103
3;70;1571391281077;1571391287376;6299;9932330360;13846716271;90831159;5900461;2214977242;216724614;162523219;995;10870;1044824;7;6299;900499
3;71;1571391287376;1571391293751;6375;9932166986;13846724278;92826915;6236545;2214977437;216697720;162943071;1118;11987;1204344;2;6375;914586
3;72;1571391293751;1571391300008;6257;9932662218;13846832340;93337516;5966115;2215016469;216759641;162059214;1471;8349;923168;-11;6257;917951
3;73;1571391300008;1571391306386;6378;9929324658;13846732855;93790618;5749938;2214980304;216696709;162702023;1129;8585;775288;-8;6379;910232
3;74;1571391306387;1571391315642;9255;9932645866;13846816043;94884126;5681602;2215009533;216755198;162120362;1345;13189;1411824;-77;9255;1218739
3;75;1571391315642;1571391321935;6293;9947124540;13846766683;96382553;5847839;2214992325;216953993;162998030;2174;8977;1019120;-50;5780;299378
3;76;1571391321935;1571391328229;6294;9948015724;13846718751;94515685;5956037;2214978612;217047794;162413646;2429;9045;945616;118;5972;239442
3;77;1571391328229;1571391334524;6295;9934402100;13846724305;92397413;6117485;2214977125;216786420;162561198;1142;8601;718912;39;6295;872898
3;78;1571391334524;1571391340977;6453;9928996742;13846720087;92654725;5919877;2214977803;216666928;162448783;1015;9278;912744;-22;6453;917126
3;79;1571391340977;1571391347279;6302;9928826506;13846732850;91533817;5761087;2214979982;216705707;161959138;971;10496;983112;1;6302;899643
3;80;1571391347279;1571391353605;6326;9932498552;13846833678;93415551;5788609;2215016495;216757392;163262865;1115;11630;1167040;6;6327;909805
3;81;1571391353606;1571391361068;7462;9936631666;13846729345;92201522;5711062;2214979461;216817510;162564197;1828;9914;1141864;-36;7391;754617
3;82;1571391361069;1571391367389;6320;9923742202;13846717358;90006693;5946311;2214977448;216672729;162117843;1138;8683;748936;23;6320;894348
3;83;1571391367389;1571391373696;6307;9926105212;13846808642;90735687;6053609;2215004897;216679095;162487775;984;9867;897080;7;6307;898801
3;84;1571391373696;1571391379972;6276;9926892444;13846772182;91477177;5919195;2214995431;216755200;162459479;999;10704;1033792;-2;6277;898374
3;85;1571391379972;1571391386630;6658;9931947256;13846722210;90219638;5774206;2214976724;216793314;161631893;1212;10867;1217224;-78;6657;852206
3;86;1571391386630;1571391392956;6326;9944269218;13846749650;93500406;5855187;2214988506;216927871;162449303;1505;9394;922864;81;6326;599517
3;87;1571391392956;1571391399257;6301;9932801064;13846835573;92853211;5722614;2215013305;216731204;162246917;1059;8663;757944;-3;6302;899141
3;88;1571391399257;1571391409998;10741;9936272652;13846714146;91848231;6111558;2214976908;216817415;162048911;1695;11930;1342984;-94;10740;1261240
3;89;1571391409998;1571391416307;6309;9954321610;13846725892;95364031;6201262;2214978943;217048484;162708866;2815;8306;1000136;-20;5732;190693
3;90;1571391416307;1571391422815;6508;9954983866;13846719840;96065369;5988319;2214979395;216995786;162821995;3657;7904;931200;77;5739;327007
3;91;1571391422815;1571391429055;6240;9934976610;13846815715;95280116;5695268;2215007758;216711370;162053493;1110;8405;764256;33;6240;884061
3;92;1571391429055;1571391435443;6388;9933873580;13846841945;94153150;5687174;2215018206;216710103;162397228;995;9712;911976;13;6388;919596
3;93;1571391435443;1571391441682;6239;9930396882;13846844316;94141423;5830569;2215016700;216692055;162293196;1035;10831;989056;3;6239;892006
3;94;1571391441682;1571391448019;6337;9930019326;13846799465;93934736;6059610;2215004487;216676676;161671921;1098;11110;1150856;-17;6337;904664
3;95;1571391448019;1571391454492;6473;9939017452;13846720996;95000236;6034856;2214976603;216727792;162543650;1466;9453;1016688;21;6473;867564
3;96;1571391454492;1571391460818;6326;9930297456;13846735646;93161472;5792147;2214982291;216685727;162060870;1137;8294;755064;-17;6326;898822
3;97;1571391460818;1571391469612;8794;9930448420;13846838359;92008915;5645449;2215015589;216654431;162453502;1307;12394;1324800;-81;8794;1173918
3;98;1571391469612;1571391475892;6280;9947745916;13846843086;94615727;5901597;2215019323;216963113;162351601;2182;8971;1009560;-52;6047;318958
3;99;1571391475892;1571391482218;6326;9955947320;13846747546;97438304;5969305;2214986344;217017054;162769766;5649;5437;968480;18;4556;84053
3;100;1571391482218;1571391488585;6367;9941158104;13846720564;91699490;6255107;2214978689;216846124;162173352;2052;8277;750992;117;6234;765893
3;101;1571391488585;1571391494873;6288;9933501718;13846788877;92748324;5943539;2214998581;216692747;162312400;964;9044;858544;-3;6288;894265
3;102;1571391494873;1571391501151;6278;9929871428;13846790115;93174101;5799918;2215001511;216690196;162419602;980;10624;966624;14;6279;894151
3;103;1571391501152;1571391507473;6321;9927327378;13846754534;90776944;5674916;2214986996;216692102;161701663;1050;11243;1134296;-16;6321;903410
3;104;1571391507473;1571391514089;6616;9939511370;13846822426;91805192;6006727;2215012394;216798114;162270326;1218;10687;1181760;73;6616;764506
3;105;1571391514089;1571391520314;6225;9932192536;13846716469;92707333;5869541;2214975802;216836771;162240904;1365;8441;697144;-45;6226;873756
3;106;1571391520315;1571391526566;6251;9924634846;13846719044;90292937;5705696;2214977620;216876365;162130000;975;8949;853536;-15;6252;888702
3;107;1571391526566;1571391532797;6231;9924729892;13846823850;92322093;5847118;2215010257;216675206;162047354;953;10105;959984;-4;6230;894068
3;108;1571391532797;1571391539302;6505;9927562438;13846837336;92494306;5787729;2215017160;216710727;162180215;1068;12117;1167128;15;6505;933812
3;109;1571391539302;1571391545987;6685;9930975626;13846840926;91035077;5783610;2215016362;216803660;161767399;1475;10838;1178816;-37;6685;876319
4;61;1571392066936;1571392073286;6350;9924020478;13846471752;100999165;5699563;2214952529;216574369;163040361;1158;11033;1181256;-52;6350;853600
4;62;1571392073287;1571392079709;6422;9924463004;13846481770;101751598;5034195;2214952586;216872710;163511432;1446;9025;873040;59;6422;750030
4;63;1571392079709;1571392085924;6215;9916365114;13846467323;101083849;5701675;2214951371;216377829;162770349;1010;8324;773528;-18;6216;883614
4;64;1571392085924;1571392092499;6575;9910461458;13846591540;101757342;5024654;2214989909;216404682;163687307;984;10495;976512;10;6575;936890
4;65;1571392092499;1571392098757;6258;9917046642;13846591656;101453718;5331576;2214992008;216514138;162808625;1008;10842;1055112;-10;6257;896689
4;66;1571392098757;1571392105121;6364;9918996034;13846595788;101436262;5814841;2214991001;216436289;163404643;1156;11606;1182744;0;6365;897905
4;67;1571392105121;1571392111676;6555;9927543458;13846591323;103098905;5771864;2214992227;216528251;163102142;1541;7983;851920;4;6555;931188
4;68;1571392111677;1571392117909;6232;9917946002;13846596861;102201721;5567766;2214991353;216389505;163297127;1016;9144;804816;8;6233;884892
4;69;1571392117909;1571392124223;6314;9916813188;13846591955;102451099;5711382;2214992175;216319622;163244537;926;10000;922696;2;6314;898539
4;70;1571392124223;1571392130575;6352;9921223994;13846574572;102554399;5668429;2214984130;216479435;163568761;1002;11300;1075264;5;6352;905568
4;71;1571392130575;1571392136902;6327;9918735862;13846472897;101484847;5814924;2214952315;216438664;162927473;1147;11887;1210800;5;6327;904508
4;72;1571392136903;1571392143367;6464;9921887710;13846469512;106566642;5859954;2214949813;216342168;163869604;1562;7666;849488;-30;6465;954836
4;73;1571392143367;1571392149721;6354;9921246916;13846470789;104237203;5772775;2214951907;216358157;163295385;1031;9502;836416;26;6354;905570
4;74;1571392149721;1571392156031;6310;9918904492;13846571718;104537340;5582703;2214982759;216329637;163355629;954;10098;947888;5;6310;896564
4;75;1571392156031;1571392162383;6352;9921448834;13846589060;104693848;5691365;2214991522;216406568;162842649;1025;11138;1087272;-1;6352;907816
4;76;1571392162383;1571392170376;7993;9921368096;13846595536;105786060;5634125;2214991065;216431021;163249994;1791;11934;1404600;-137;7897;1037660
4;77;1571392170377;1571392176653;6276;9917280096;13846550553;101470341;5767015;2214978662;216434612;162842776;1212;8941;721440;123;6277;758217
4;78;1571392176653;1571392182908;6255;9915727386;13846504771;101329440;5781950;2214960442;216398422;163670832;949;9184;847560;14;6255;888705
4;79;1571392182908;1571392189240;6332;9913830846;13846576460;101820357;5623634;2214987413;216392824;162678593;967;10034;971440;-17;6332;904659
4;80;1571392189240;1571392195558;6318;9916494616;13846473338;101064321;5649189;2214950756;216405303;163903712;1098;11707;1165312;-7;6317;904558
4;81;1571392195558;1571392202143;6585;9929761344;13846469684;104182079;5967337;2214952352;216498909;163731015;1514;10288;1095632;10;6586;804738
4;82;1571392202143;1571392208524;6381;9915004540;13846475186;102075371;5548218;2214951068;216341617;163371107;1169;8301;745688;1;6381;901468
4;83;1571392208524;1571392217082;8558;9918724328;13846557004;102592919;5768451;2214980535;216378809;162775157;1294;11537;1278672;-93;8557;1138667
4;84;1571392217082;1571392223566;6484;9932432414;13846528907;103446614;5812290;2214969642;216613637;163537832;1971;9150;1003304;-19;6387;400877
4;85;1571392223566;1571392229900;6334;9941102770;13846473530;105973527;5740631;2214953694;216784313;162971140;5012;6090;977312;-1;4920;112898
4;86;1571392229900;1571392236161;6261;9921660096;13846472634;101224415;5760374;2214951014;216445376;163775080;2538;7314;751480;99;5987;710218
4;87;1571392236161;1571392242406;6245;9917240092;13846504126;100624120;5711951;2214961427;216389018;162866726;1051;8890;811816;9;6245;891545
4;88;1571392242406;1571392248750;6344;9913024488;13846595736;99164146;5785589;2214990934;216363459;163230555;1086;7466;685032;11;6344;916543
4;89;1571392248750;1571392255710;6960;9916933638;13846585334;100665407;5888534;2214990693;216427435;162671884;1050;11389;1089824;-5;6959;993176
4;90;1571392255710;1571392262031;6321;9916142902;13846491199;99771191;5690261;2214956157;216417574;163163257;1030;12202;1177096;3;6322;905584
4;91;1571392262031;1571392268329;6298;9917297762;13846472388;102725783;5599657;2214952142;216351147;162973487;1398;8535;959360;-13;6297;997761
4;92;1571392268329;1571392274632;6303;9920093516;13846549881;103858460;5752166;2214975942;216318693;163535730;1073;8339;730432;15;6304;900969
4;93;1571392274632;1571392281370;6738;9920839576;13846594073;102812934;5835242;2214992349;216428374;162860629;1059;9571;933040;-16;6738;960716
4;94;1571392281370;1571392287832;6462;9917062264;13846548030;102034112;5709026;2214975861;216360107;163430774;1042;11508;1066920;14;6462;918765
4;95;1571392287832;1571392294339;6507;9921732366;13846501698;103266456;5844293;2214961722;216400451;162661899;1111;11835;1194336;-16;6507;932563
4;96;1571392294339;1571392300963;6624;9913053688;13846587286;100160691;5801964;2214987633;216321961;163454937;1501;8504;915432;-4;6624;993212
4;97;1571392300963;1571392307214;6251;9914331480;13846468251;100761779;5602254;2214951500;216292999;163709316;1019;8867;820104;8;6250;892421
4;98;1571392307214;1571392313552;6338;9915186456;13846475491;100684685;5721167;2214951089;216396426;163750817;1021;10090;951720;8;6339;904884
4;99;1571392313552;1571392319812;6260;9913360580;13846473805;100774166;5686139;2214952329;216367076;163005355;1036;10970;1066544;-12;6259;890244
4;100;1571392319812;1571392326326;6514;9913442778;13846563859;100747513;5694029;2214980416;216416764;163097004;1432;11395;1108456;17;6515;1009584
4;101;1571392326326;1571392332572;6246;9919565580;13846592191;101891038;5731770;2214991997;216391069;163158117;1213;8662;914432;3;6246;890391
4;102;1571392332572;1571392338867;6295;9917468144;13846542764;101138705;5654150;2214973515;216383082;163691923;1036;8702;818960;-12;6295;897956
4;103;1571392338868;1571392345472;6604;9919663400;13846503800;102276913;5639285;2214963246;216369157;163346571;1063;10260;987888;-7;6605;934745
4;104;1571392345472;1571392351845;6373;9919886050;13846574762;101349656;5646302;2214983890;216453111;163450183;1087;11525;1110576;1;6373;912002
4;105;1571392351845;1571392358191;6346;9919421332;13846473857;102264216;5620073;2214952366;216417657;162924641;1420;11300;1116592;18;6345;958715
4;106;1571392358191;1571392364470;6279;9908954154;13846470802;99164524;5675074;2214950095;216299775;163852346;1235;8038;838776;-19;6279;900452
4;107;1571392364470;1571392370829;6359;9914549312;13846469409;100527409;5805458;2214951616;216364359;163159702;1035;8539;850896;-6;6360;907707
4;108;1571392370829;1571392377343;6514;9913927206;13846477290;101431790;5692588;2214951509;216329731;163240314;1085;10805;1002392;3;6514;923600
4;109;1571392377343;1571392383611;6268;9916222764;13846472951;101174458;5687349;2214952380;216407701;163193796;1085;11394;1108680;4;6268;895495
4;110;1571392383611;1571392390197;6586;9912903746;13846535126;99468031;5767800;2214970947;216288032;163474251;1485;11421;1129872;8;6586;986832
