0;48;1571406907376;1571406913715;6339;9943849030;13846749357;100661529;3558658;2214996127;217392423;163555920;1433;7718;685128;8;6338;906672
0;49;1571406913715;1571406919968;6253;9942309022;13846647533;100448481;3619895;2214961274;217361863;163448434;928;9573;927680;1;6254;897570
0;50;1571406919968;1571406926215;6247;9942923098;13846635323;101380786;3603654;2214957114;217409231;163742540;884;9989;926568;6;6247;892361
0;51;1571406926215;1571406932477;6262;9945359692;13846633181;100653699;3635232;2214956636;217448980;163472634;912;10250;995592;-16;6261;894293
0;52;1571406932477;1571406939209;6732;9946506960;13846634441;101182723;3630422;2214957057;217413226;163144968;1353;8908;937688;28;6732;1118789
0;53;1571406939209;1571406948143;8934;9944745616;13846631088;100985578;3651770;2214956295;217422461;163233219;1944;8923;971864;-13;8935;1285036
0;54;1571406948144;1571406955584;7440;9944599616;13846664722;102357819;3647892;2214966812;217378424;163376238;1249;10955;1014648;0;7441;1057637
0;55;1571406955584;1571406962079;6495;9935534476;13846717691;100645539;3586699;2214984024;217148439;163436489;1046;10996;1059440;-17;6495;925187
0;56;1571406962079;1571406968592;6513;9925484128;13846631835;99957513;3418009;2214956447;216969761;162187560;1445;9141;946936;16;6513;1061389
0;57;1571406968592;1571406976024;7432;9948161140;13846751342;102874435;3625537;2214996079;217595724;162764257;1405;7935;896072;3;7432;1063942
0;58;1571406976024;1571406984279;8255;9954473888;13846758690;104623960;3714397;2214998221;217849391;163225624;1647;10942;1043552;-15;8255;1180961
0;59;1571406984279;1571406991072;6793;9946147946;13846751126;102578291;3615563;2214996214;217517321;163130973;1121;11165;1019208;-1;6793;964097
0;60;1571406991072;1571406997352;6280;9942318366;13846757674;103120883;3595014;2214997556;217264413;163057677;1027;10798;1042848;23;6280;904615
0;61;1571406997352;1571407004014;6662;9943693248;13846699356;99305119;3598701;2214978770;217355145;163236404;1476;8396;970088;-15;6662;1052182
0;62;1571407004015;1571407012746;8731;9943969772;13846675125;99628034;3746915;2214970374;217317011;162700127;1983;8911;928056;1;8732;1249752
0;63;1571407012746;1571407019777;7031;9943550168;13846752664;99810742;3694219;2214996445;217372542;163279038;1133;10660;1006232;-13;7031;998393
0;64;1571407019777;1571407026193;6416;9939264192;13846748666;99133964;3682785;2214995095;217344266;162819365;1102;11534;1050272;18;6416;912244
0;65;1571407026193;1571407032438;6245;9941494634;13846626548;100416390;3691071;2214955272;217315256;163218828;1420;7805;867992;11;6244;1010250
0;66;1571407032438;1571407047313;14875;9944351124;13846636204;100901703;3597019;2214957438;217456176;162877087;3014;16141;1798048;-88;14876;1821421
0;67;1571407047313;1571407053601;6288;9959930784;13846731129;103688341;3759092;2214989100;217668176;163202294;1126;9943;914024;57;6288;681053
0;68;1571407053601;1571407059888;6287;9954965324;13846755325;102937691;3824450;2214997320;217548833;163675986;1202;9990;1069184;-91;6287;562491
0;69;1571407059888;1571407066216;6328;9951078220;13846689207;101056947;3688742;2214975691;217568208;163405516;1758;7394;706112;119;6328;835391
0;70;1571407066216;1571407072448;6232;9946574120;13846681740;101224043;3632715;2214972720;217359609;163106984;1398;6730;670264;-17;6232;890446
0;71;1571407072448;1571407078770;6322;9945707610;13846754086;100115491;3628105;2214996747;217422523;163250295;1033;10006;900304;-9;6322;894567
0;72;1571407078770;1571407088325;9555;9944376382;13846740695;99656913;3648650;2214992473;217398148;162957131;1312;15661;1522048;16;9555;1365768
0;73;1571407088325;1571407094872;6547;9943613678;13846626543;100874512;3622867;2214955300;217323478;163028399;1392;9398;933272;-1;6547;1025990
0;74;1571407094872;1571407105155;10283;9947008324;13846757014;103257183;3605969;2214997215;217313027;162994254;2283;9619;1127592;-8;10283;1443566
0;75;1571407105155;1571407111446;6291;9949824664;13846752806;102176993;3675457;2214996587;217401953;163051105;1282;8611;819096;134;6291;1028472
0;76;1571407111446;1571407117696;6250;9943010114;13846668112;100940450;3654072;2214968050;217208226;162825634;1276;5034;619384;-133;6250;938720
0;77;1571407117696;1571407126994;9298;9926909964;13846703433;98663188;3583891;2214980043;216837756;163022932;1961;9672;930488;-3;9298;1341621
0;78;1571407126994;1571407133601;6607;9946538788;13846756234;101018155;3649346;2214997434;217378740;163276251;1047;12033;1088520;9;6607;940811
0;79;1571407133601;1571407139882;6281;9945479266;13846716384;101442425;3628273;2214984561;217307879;163202867;909;9984;959184;-13;6281;889202
0;80;1571407139883;1571407146192;6309;9946953866;13846659357;101005633;3654680;2214965164;217359911;163474836;1177;8007;949176;29;6310;992456
0;81;1571407146192;1571407152839;6647;9939596926;13846745996;100509909;3629074;2214994295;217314247;163114791;1109;9559;893088;-6;6647;953126
0;82;1571407152839;1571407162027;9188;9940091866;13846629416;99946980;3731201;2214955999;217326698;163002094;2017;10647;1066808;-1;9188;1311775
0;83;1571407162027;1571407168855;6828;9945726736;13846633789;104362944;3684211;2214956867;217400888;163151358;1102;10622;1002424;-11;6828;978629
0;84;1571407168855;1571407175165;6310;9942754760;13846636017;100509421;3658416;2214957361;217390219;163723485;1039;11239;1031992;17;6310;898764
0;85;1571407175165;1571407181610;6445;9940969910;13846712639;101377749;3558370;2214983403;217266566;163578096;1376;7813;914896;-23;6444;1036461
0;86;1571407181610;1571407190688;9078;9949491930;13846691719;101810711;3706689;2214975841;217407101;163711397;1884;8996;972920;4;9079;1308469
0;87;1571407190688;1571407198427;7739;9923642046;13846641066;100373832;3391753;2214958476;216857292;163053017;1426;12119;1059392;14;7739;1114154
0;88;1571407198428;1571407204681;6253;9942966606;13846638532;100238174;3631493;2214957736;217358280;162886321;1062;10211;1007128;-3;6254;892788
0;89;1571407204681;1571407216198;11517;9946503456;13846634694;100658757;3702886;2214957093;217422760;163708832;2459;13640;1544864;-9;11517;1617168
0;90;1571407216198;1571407222520;6322;9942347858;13846638306;101052948;3617256;2214957990;217273904;163364470;1476;7556;678992;-3;6322;903158
0;91;1571407222520;1571407231950;9430;9951505416;13846746850;100444730;3692184;2214995386;217590180;162932235;1575;13051;1420904;-62;9430;989584
0;92;1571407231950;1571407238217;6267;9955528884;13846906022;101313042;3712802;2215051909;217712224;163343095;1229;9901;1011056;-28;6267;357271
0;93;1571407238217;1571407244796;6579;9944949724;13846753749;101364952;3670271;2214996687;217386838;163190777;1629;7572;747304;88;6579;822591
0;94;1571407244796;1571407251029;6233;9946084290;13846754871;103187972;3621004;2214997079;217373526;163228933;1455;6384;600048;17;6233;882467
0;95;1571407251029;1571407262257;11228;9953243984;13846686857;102138632;3756647;2214975589;217561436;163251502;1788;15381;1635680;-94;11228;1241392
0;96;1571407262257;1571407268540;6283;9958315002;13846641892;102633978;3799806;2214958750;217602595;163671661;1133;9990;1000800;-22;6283;284130
0;97;1571407268540;1571407275377;6837;9953284718;13846663086;103631715;3738756;2214966214;217517092;163731656;1820;8875;842632;111;6837;658545
1;48;1571407772773;1571407779002;6229;9938947226;13846621016;115760177;3604727;2214995490;216658852;162914764;1027;10458;1013072;7;6229;892196
1;49;1571407779002;1571407785451;6449;9933475584;13846515482;116496575;3565614;2214959343;216579736;162346986;1468;8730;927488;2;6449;1058938
1;50;1571407785451;1571407795040;9589;9940077266;13846508570;118287092;3671880;2214957007;216620567;162896189;2085;8275;977400;-5;9589;1366942
1;51;1571407795040;1571407802275;7235;9944546034;13846595666;118135501;3647533;2214985969;216683615;162646432;1290;11086;1022800;-9;7236;1031303
1;52;1571407802276;1571407808650;6374;9943692956;13846561345;119319943;3645289;2214974549;216611849;162625190;1131;11119;1036008;23;6375;908772
1;53;1571407808651;1571407819831;11180;9946884516;13846561514;119633232;3491890;2214975147;216898916;162897867;2593;12023;1410704;-25;11180;1667212
1;54;1571407819831;1571407826180;6349;9947807674;13846587956;120125750;3500481;2214984404;216984785;162980915;1367;8577;734824;9;6350;910844
1;55;1571407826180;1571407832405;6225;9944482670;13846520270;115619683;3542847;2214959721;216559288;162540623;961;9698;925136;11;6224;891876
1;56;1571407832405;1571407838827;6422;9952195850;13846508662;117209178;3667642;2214957062;216663778;163452215;998;10524;1010064;-19;6423;919700
1;57;1571407838827;1571407845430;6603;9947886952;13846505385;116647405;3551712;2214956821;216806092;162852292;1516;9354;913064;24;6603;1095735
1;58;1571407845430;1571407852213;6783;9949709616;13846615476;116600530;3521793;2214993009;216887654;163703342;1302;6529;819072;-20;6783;973906
1;59;1571407852213;1571407860875;8662;9943808150;13846630886;114952191;3708296;2214997451;216623126;162568710;1687;12071;1094816;11;8661;1240689
1;60;1571407860875;1571407867405;6530;9947873520;13846625741;116840543;3608162;2214996571;216661157;162893025;1039;9690;954496;-22;6531;934309
1;61;1571407867405;1571407873692;6287;9948351670;13846630107;116552377;3709182;2214997380;216634459;162984154;1010;10979;1049696;4;6286;902338
1;62;1571407873692;1571407880872;7180;9945752140;13846577510;115432059;3615240;2214980602;216615142;162944343;1490;9782;1013544;-1;7180;1153180
1;63;1571407880872;1571407889322;8450;9940064272;13846540047;113017327;3614686;2214967379;216633047;162679987;1762;7013;847056;-2;8450;1204844
1;64;1571407889322;1571407896856;7534;9944443980;13846629305;114689029;3705212;2214996919;216601525;162733304;1350;11919;1059456;26;7535;1073062
1;65;1571407896856;1571407903234;6378;9945910696;13846623593;114061931;3643876;2214996175;216722306;163044005;1064;10789;1036040;-1;6378;912954
1;66;1571407903234;1571407909918;6684;9940243560;13846509093;113420456;3542302;2214957255;216551819;163057379;1475;9188;971672;-17;6684;1091787
1;67;1571407909918;1571407917854;7936;9943879836;13846613881;113767312;3679895;2214991934;216589941;162625268;1641;7774;876600;3;7935;1139233
1;68;1571407917854;1571407926287;8433;9949377320;13846625401;113978246;3738733;2214996303;216658481;163356566;1614;12170;1111528;19;8434;1203871
1;69;1571407926287;1571407932657;6370;9943759678;13846737981;113602081;3607399;2215036622;216577670;162978982;1075;10118;979400;-16;6370;909494
1;70;1571407932657;1571407939407;6750;9948169754;13846568284;114715181;3674489;2214977216;216673505;163223732;1418;9388;994464;1;6750;1071096
1;71;1571407939407;1571407946106;6699;9945367430;13846512632;116913128;3575629;2214958052;216618609;162821710;1161;8315;924544;-9;6699;959997
1;72;1571407946107;1571407956687;10580;9943184146;13846509190;116353523;3683922;2214957139;216605180;163168653;2207;12525;1198352;1;10581;1511561
1;73;1571407956687;1571407962907;6220;9938363810;13846520562;113926136;3554096;2214960982;216615563;162968002;1067;9839;917304;0;6220;892248
1;74;1571407962907;1571407969123;6216;9945097768;13846623476;116617962;3569068;2214996090;216506938;163311815;1064;10274;1016208;-4;6216;891376
1;75;1571407969123;1571407975488;6365;9945322170;13846515361;113796279;3621576;2214959461;216657724;163241249;1413;8453;893552;9;6365;1055901
1;76;1571407975488;1571407984850;9362;9933553986;13846607409;114283973;3607430;2214989816;216205707;162619820;2002;8543;903792;17;9362;1339949
1;77;1571407984851;1571407992165;7314;9934017974;13846628574;113756637;3591202;2214997057;216341293;162452010;1253;10889;1032824;-5;7315;1048144
1;78;1571407992166;1571407998569;6403;9947104246;13846923480;117715557;3644098;2215104980;216587821;163080710;1091;10705;1037392;-18;6404;916352
1;79;1571407998569;1571408005769;7200;9945431524;13846576660;114614745;3609764;2214979969;216659499;162929066;1527;10434;1005064;7;7199;1185998
1;80;1571408005769;1571408022509;16740;9949962634;13846505695;115188720;3664920;2214956502;216759849;163340331;3485;14323;1754176;-86;16741;2257397
1;81;1571408022509;1571408028772;6263;9954967368;13846511707;114282480;3651317;2214957808;216967570;163016348;1192;9888;930248;38;6263;636985
1;82;1571408028773;1571408035049;6276;9957529814;13846506438;115162228;3656454;2214956647;217017205;163340668;1166;9984;1032176;-47;6277;522656
1;83;1571408035049;1571408041295;6246;9953741698;13846504878;114384657;3672988;2214956558;216952347;162547192;1069;9938;913624;108;6246;563015
1;84;1571408041295;1571408047896;6601;9948512270;13846508209;115550782;3637634;2214956933;216691074;162792140;1700;7560;790368;-20;6600;975723
1;85;1571408047896;1571408054108;6212;9945880766;13846607024;114165872;3568728;2214989598;216676661;162976004;1420;5976;605696;-7;6213;885370
1;86;1571408054108;1571408060815;6707;9935612440;13846627983;113455865;3538142;2214996772;216318895;162929430;1187;10261;924848;14;6706;964566
1;87;1571408060815;1571408067298;6483;9939440268;13846577218;114318486;3602304;2214978645;216489363;162813011;1025;10945;1027032;0;6484;922751
1;88;1571408067299;1571408073796;6497;9944713788;13846509876;114949439;3630740;2214957513;216634167;163306820;1034;10884;1071424;-9;6498;930350
1;89;1571408073796;1571408080714;6918;9943949916;13846543696;114233717;3636965;2214968451;216650039;163276747;1553;9466;971280;24;6918;1128742
1;90;1571408080715;1571408088649;7934;9945692572;13846604560;115156534;3681343;2214989852;216617011;163568024;1751;7213;821512;-23;7935;1134829
1;91;1571408088649;1571408096176;7527;9945386410;13846508770;113321870;3655318;2214957239;216699309;162891565;1269;11496;1034040;11;7527;1080108
1;92;1571408096177;1571408102564;6387;9948876394;13846500919;116543119;3589213;2214955519;216684081;163407383;1053;11024;1042688;12;6388;914014
1;93;1571408102565;1571408108858;6293;9946316868;13846510351;114559967;3639834;2214957613;216646248;163111678;1523;7706;904600;-25;6294;1062296
1;94;1571408108858;1571408116104;7246;9949766556;13846600884;117533146;3611128;2214987914;216715577;163118880;1218;9396;990728;-2;7245;1033207
1;95;1571408116104;1571408129200;13096;9953377282;13846632733;117831512;3664873;2214997889;216816452;162556655;2615;16772;1637008;10;13096;1834357
1;96;1571408129200;1571408136350;7150;9957052978;13846630861;119765955;3671889;2214997604;216829675;163397041;1777;9653;1141048;-120;7002;675964
1;97;1571408136350;1571408142927;6577;9957244092;13846586864;117583239;3631231;2214983408;216983790;162784889;2555;7510;808600;130;6425;606382
2;49;1571408642864;1571408649669;6805;9947584732;13846619987;117356395;3466373;2214993715;217589003;163008506;1381;9768;978816;-2;6805;1079471
2;50;1571408649669;1571408656040;6371;9953884924;13846514993;116383234;3411612;2214962751;217648741;164126629;1270;6403;762536;12;6371;915851
2;51;1571408656040;1571408664551;8511;9948555778;13846585054;118119257;3581587;2214982812;217648387;163944006;1648;11339;1067832;-16;8511;1219687
2;52;1571408664551;1571408671187;6636;9938232994;13846548203;115702082;3297094;2214972577;217425054;162848335;1065;10990;999960;23;6637;942382
2;53;1571408671187;1571408677453;6266;9952949210;13846551101;116831728;3497279;2214972466;217662183;163494003;1001;10559;1043704;3;6265;897873
2;54;1571408677453;1571408684409;6956;9946157144;13846580824;117713670;3438700;2214983784;217593099;163510510;1442;9654;1041960;-21;6956;1075638
2;55;1571408684409;1571408692767;8358;9949446670;13846506575;117297468;3573014;2214956125;217509422;162869138;1780;7467;837664;12;8358;1201927
2;56;1571408692767;1571408700276;7509;9957620918;13846502895;117066391;3541612;2214958194;217632434;164204494;1315;11802;1048800;0;7509;1077450
2;57;1571408700276;1571408706540;6264;9954523090;13846615121;119892233;3460378;2214993384;217944570;163371792;1062;10463;1018288;5;6265;896321
2;58;1571408706540;1571408717837;11297;9955981630;13846618560;118670968;3456168;2214996481;217921555;163476709;2383;14238;1620952;-2;11164;1530227
2;59;1571408717837;1571408724263;6426;9958406690;13846619150;116781017;3540772;2214995196;217672023;164143236;1551;7030;644048;-13;6427;914623
2;60;1571408724264;1571408730524;6260;9953743012;13846616135;118655497;3529185;2214995219;217611287;163393778;1029;9666;886376;7;6260;892414
2;61;1571408730524;1571408736863;6339;9954433008;13846619340;117336747;3485203;2214994140;217604867;163381341;1012;10363;999072;-9;6339;905478
2;62;1571408736863;1571408743453;6590;9962969920;13846569286;117892699;3529604;2214981315;217703170;163990215;1374;9806;971368;11;6591;1044976
2;63;1571408743454;1571408749694;6240;9944653052;13846501270;119110473;3439863;2214954563;217364071;163766814;1237;7085;817048;14;6240;890055
2;64;1571408749694;1571408757645;7951;9948265092;13846511334;115592154;3530821;2214960238;217608714;163185573;1624;9631;929072;-22;7952;1144332
2;65;1571408757645;1571408764499;6854;9951866912;13846613941;117688057;3561586;2214994306;217524406;163803095;1087;11005;1016864;10;6854;978741
2;66;1571408764499;1571408770863;6364;9952495734;13846500585;120354249;3503628;2214956754;217734926;164236766;1006;11104;1064504;10;6364;907537
2;67;1571408770863;1571408777829;6966;9960515806;13846600436;117779148;3430069;2214988463;218215311;163143437;1396;9926;1000704;-16;6965;1075184
2;68;1571408777829;1571408785546;7717;9957572154;13846615952;116154800;3454725;2214996265;218054970;163471939;1631;6304;805080;5;7717;1106454
2;69;1571408785546;1571408797972;12426;9956785068;13846620299;118555321;3574092;2214994428;217764589;163520144;2224;17331;1762480;-64;12426;1387030
2;70;1571408797972;1571408804406;6434;9961611536;13846564320;117641297;3541328;2214977985;217854145;163248790;1740;9430;1041952;-47;6319;354669
2;71;1571408804406;1571408810855;6449;9960104524;13846499150;120371375;3480870;2214955520;217637393;164059651;1978;6683;616048;101;6450;898507
2;72;1571408810855;1571408817092;6237;9952463468;13846495243;119709404;3478617;2214955221;217616731;163979150;1339;6703;723360;9;6237;887708
2;73;1571408817093;1571408823363;6270;9940748866;13846504169;118504992;3397262;2214955973;217216086;163196457;1050;10237;896568;6;6270;891857
2;74;1571408823363;1571408829795;6432;9954401034;13846616179;118615650;3527122;2214996601;217599921;164000169;921;10184;975288;-10;6432;919987
2;75;1571408829795;1571408836212;6417;9955366824;13846511948;120465888;3523681;2214957991;217598607;163889649;950;11060;1011224;17;6417;920316
2;76;1571408836212;1571408842868;6656;9951385696;13846592947;116723862;3493294;2214987294;217566250;162966129;1490;8336;962344;-7;6657;1101393
2;77;1571408842868;1571408852104;9236;9952945414;13846537704;116265438;3576963;2214968352;217517870;163826203;2084;9279;979472;-4;9235;1328471
2;78;1571408852104;1571408859320;7216;9956162962;13846560373;118500242;3547205;2214976723;217652447;163789839;1170;10349;996144;-18;7216;1023794
2;79;1571408859320;1571408865849;6529;9954872030;13846572022;116969197;3528478;2214978206;217606016;163609987;1088;11532;1061264;2;6529;933735
2;80;1571408865849;1571408872208;6359;9957421190;13846528376;116365098;3494138;2214966880;217607625;164401197;1483;7391;791944;26;6359;1136475
2;81;1571408872208;1571408883179;10971;9956699512;13846616261;118487184;3794452;2214993589;217649469;163833030;2035;9732;1118056;-25;10971;1581153
2;82;1571408883179;1571408891354;8175;9950999380;13846617997;116285756;3605900;2214995533;217668584;163135402;1635;11310;1053360;-3;8175;1168852
2;83;1571408891354;1571408897886;6532;9961185362;13846492736;116334906;3533387;2214954137;217582421;163893644;1094;10725;993712;6;6532;930956
2;84;1571408897886;1571408904398;6512;9944385288;13846600526;116888857;3453621;2214990155;217373503;163846280;1536;9312;991432;9;6513;1036935
2;85;1571408904398;1571408912723;8325;9944135774;13846526218;115289601;3590468;2214963134;217547609;163173867;1755;7673;894480;-13;8324;1191818
2;86;1571408912723;1571408921037;8314;9951108004;13846574452;118302171;3622118;2214982520;217599488;163947005;1611;11967;1087624;21;8314;1182852
2;87;1571408921037;1571408927762;6725;9947953090;13846568201;118399761;3569813;2214976103;217642502;163937127;1105;10664;1009904;-5;6726;961642
2;88;1571408927762;1571408933987;6225;9942106374;13846496075;115035826;3518037;2214955250;217528109;163449254;1409;7733;859448;74;6224;1044560
2;89;1571408933987;1571408941605;7618;9958899878;13846531548;117718695;3485578;2214965751;217681628;163884944;1307;10183;1074512;-84;7619;1098317
2;90;1571408941606;1571408950818;9212;9961395894;13846619474;118433239;3669222;2214996324;218102586;163688503;2041;9995;979584;7;9213;1315375
2;91;1571408950818;1571408957842;7024;9945969680;13846612585;116106618;3538411;2214992868;217620821;163270153;1141;10492;997024;12;7023;993201
2;92;1571408957842;1571408968568;10726;9963936586;13846500219;117563914;3548610;2214957728;217954486;163648706;2388;14304;1579120;-11;10727;1291479
2;93;1571408968568;1571408974885;6317;9954517980;13846601563;118606028;3406530;2214988438;218040765;164171824;1525;6655;600624;12;6316;901156
2;94;1571408974885;1571408981554;6669;9930184306;13846615841;115187201;3336236;2214995246;217267916;162611930;1100;9946;918960;-4;6669;947016
2;95;1571408981554;1571408987845;6291;9959649004;13846549107;116409588;3456176;2214971977;217969466;163984916;926;9698;907288;2;6291;895754
2;96;1571408987845;1571408994177;6332;9946899116;13846559604;117141505;3517225;2214975538;217627567;164046413;917;9975;981200;-21;6332;903851
2;97;1571408994177;1571409001037;6860;9950468670;13846578625;116454642;3547530;2214980815;217597779;163255724;1467;9579;977448;24;6861;1095958
2;98;1571409001038;1571409009743;8705;9954444688;13846521253;116771057;3583281;2214964815;217648376;163662159;1781;8054;948136;-21;8705;1237910
3;48;1571409500068;1571409506732;6664;9926048856;13846887460;105915853;3549521;2215016772;217226716;163546662;1057;10740;1023576;-1;6664;944761
3;49;1571409506732;1571409517806;11074;9930271468;13846900758;105903605;3609111;2215019608;217238512;163189069;2178;15453;1704544;11;11074;1594777
3;50;1571409517806;1571409524017;6211;9926835650;13846895111;106458092;3533317;2215018261;217226602;163529194;1607;6285;576448;-10;6211;886837
3;51;1571409524017;1571409530612;6595;9925866648;13846897796;103236820;3605161;2215019000;217180781;162668457;1178;9745;921608;11;6595;940893
3;52;1571409530612;1571409536927;6315;9930318042;13846853436;106435030;3557640;2215004567;217271162;163730738;948;10282;950280;12;6316;896928
3;53;1571409536927;1571409543211;6284;9929975818;13847129210;104682732;3592842;2215105186;217313638;162926467;977;10444;1005120;-6;6284;896081
3;54;1571409543212;1571409549973;6761;9930051300;13846860162;105827066;3549576;2215007014;217198086;163733450;1445;7142;866712;-8;6762;1090389
3;55;1571409549973;1571409558295;8322;9933673268;13846802113;104522754;3595640;2214987066;217488021;162872231;1872;8635;859520;18;8321;1197016
3;56;1571409558295;1571409565476;7181;9930424184;13846891378;105537428;3408777;2215017167;217486598;163460323;1106;11092;1020760;-17;7182;1018371
3;57;1571409565477;1571409571829;6352;9926058200;13846771680;103394410;3561650;2214978055;217245649;162859257;1009;10842;1034080;-7;6352;905888
3;58;1571409571829;1571409578339;6510;9935551266;13846773513;107301828;3450994;2214978238;217627734;163757411;1486;8175;927408;9;6511;1070095
3;59;1571409578339;1571409585807;7468;9931126590;13846777139;104818900;3505291;2214979205;217486994;162811519;1438;8915;905488;2;7467;1070138
3;60;1571409585807;1571409599047;13240;9937352176;13846814666;107975531;3673368;2214992002;217367506;163444123;2423;17166;1797776;-69;13240;1563851
3;61;1571409599047;1571409605373;6326;9944937460;13846774718;107196946;3656231;2214978613;217628580;163121320;1260;9907;1021896;-43;6326;452571
3;62;1571409605373;1571409611808;6435;9940608852;13846782653;109138716;3643353;2214980265;217392611;163864434;2148;7363;745720;120;6433;776344
3;63;1571409611808;1571409618047;6239;9930920292;13846806116;107015879;3531389;2214988447;217158696;162467013;1464;6130;583992;-24;6239;891544
3;64;1571409618047;1571409625153;7106;9931354204;13846893610;108124906;3583470;2215018031;217142573;163468395;1158;10757;984360;27;7106;1016343
3;65;1571409625153;1571409631401;6248;9927345628;13846891495;105420041;3570242;2215017867;217207747;162718876;932;10063;946392;-11;6248;892886
3;66;1571409631401;1571409637681;6280;9930934746;13846892769;108777776;3569009;2215017981;217203473;163441787;872;9765;941120;-5;6281;900868
3;67;1571409637681;1571409644026;6345;9931922728;13846794169;106398167;3545153;2214984967;217277396;162610660;1178;8535;949896;4;6345;1035840
3;68;1571409644026;1571409658789;14763;9937055796;13846859551;109584113;3619496;2215006761;217323892;163395774;2901;16153;1766128;-84;14762;1929983
3;69;1571409658789;1571409665139;6350;9945279538;13846897711;109341326;3673557;2215019108;217571935;163275941;1169;9928;969328;4;6350;438578
3;70;1571409665139;1571409671747;6608;9946940872;13846892202;111111380;3622742;2215017853;217548625;163921853;1328;10224;1024264;127;6608;432906
3;71;1571409671747;1571409677939;6192;9924721716;13846861500;104132397;3583297;2215007056;217072814;162626020;1684;5514;541672;-58;6192;908846
3;72;1571409677939;1571409684415;6476;9927821734;13846772601;106803029;3542788;2214977909;217069587;163608304;1327;8543;762328;18;6476;925642
3;73;1571409684415;1571409691040;6625;9910517960;13846776499;103305274;3483132;2214978841;216762994;162068056;930;9670;912432;-2;6625;943076
3;74;1571409691040;1571409697514;6474;9929621330;13846772705;106605830;3519509;2214977948;217208997;163743383;935;10302;999704;-19;6475;925164
3;75;1571409697514;1571409704114;6600;9930794294;13846779471;105807593;3637399;2214979536;217157762;163063240;1333;9087;978976;17;6600;1047104
3;76;1571409704115;1571409711225;7110;9930516310;13846870969;106830192;3555294;2215010425;217238783;164054543;1172;9304;1001464;-15;7110;1011842
3;77;1571409711225;1571409720040;8815;9926947486;13846815249;103902221;3692927;2214991821;217138427;163074774;1980;10596;1000064;4;8815;1266618
3;78;1571409720040;1571409726650;6610;9932895088;13846772626;107663232;3585274;2214977978;217197119;163696177;1073;10991;1004840;15;6611;941867
3;79;1571409726651;1571409733148;6497;9927005448;13846774663;104788079;3657154;2214978698;217157412;162898517;1307;8376;942264;143;6497;1232730
3;80;1571409733148;1571409740889;7741;9932624112;13846805753;106033231;3697678;2214988498;217321252;163470202;1364;9741;902424;-156;7742;1229750
3;81;1571409740890;1571409751874;10984;9926485688;13846899143;103820114;3794758;2215019113;217225040;162918391;2331;9887;1148456;-4;10985;1571435
3;82;1571409751874;1571409759020;7146;9927751216;13846891004;105748025;3606888;2215017266;217190540;163464992;1145;10616;989216;9;7145;1020846
3;83;1571409759020;1571409765587;6567;9903519888;13846773720;101637436;3430642;2214978233;216552099;163024371;1056;10787;1001696;154;6567;957027
3;84;1571409765587;1571409773141;7554;9935343362;13846774853;109600860;3566043;2214978403;217188601;164457340;1595;9336;1057144;-164;7554;1234837
3;85;1571409773141;1571409781890;8749;9929535920;13846869885;105046198;3725254;2215009810;217227764;162694894;2078;8698;912016;5;8750;1253190
3;86;1571409781891;1571409789164;7273;9935337230;13846894136;107401083;3550299;2215018447;217521880;163546424;1179;10648;1002296;6;7273;1037350
3;87;1571409789164;1571409795762;6598;9935912908;13846842307;106182666;3519828;2215000289;217568065;162497107;1085;11354;1031272;10;6598;940894
3;88;1571409795762;1571409802321;6559;9927609012;13846774057;105925571;3568602;2214978150;217185642;164256110;1438;9410;965784;-4;6559;1075159
3;89;1571409802321;1571409811726;9405;9923985584;13846807355;103134953;3658232;2214988871;217211309;162967745;1926;8171;967344;-5;9405;1345482
3;90;1571409811726;1571409819178;7452;9935056034;13846893256;108934075;3538746;2215018272;217567225;164114884;1383;11123;1018240;-7;7453;1074761
3;91;1571409819179;1571409825843;6664;9924689304;13846891384;103308078;3540831;2215017807;217272923;162377849;1104;11273;1062008;16;6665;948193
3;92;1571409825844;1571409832317;6473;9930071886;13846894892;105943840;3551188;2215018221;217238362;163378752;1482;8365;918672;-22;6473;1056488
3;93;1571409832317;1571409840611;8294;9912763294;13846898305;102532308;3509360;2215019040;216821246;162491541;1675;8562;956768;23;8295;1192922
3;94;1571409840612;1571409848403;7791;9913856396;13846802013;105640069;3529236;2214987433;216760807;163679661;1544;10842;1009072;-8;7791;1115452
3;95;1571409848403;1571409854956;6553;9928735840;13846849738;105152055;3647300;2215003410;217193093;162765650;1141;10962;1010056;13;6554;934248
3;96;1571409854957;1571409861645;6688;9934103092;13846841156;108127198;3558774;2215000360;217289409;164254402;1254;10705;1088400;132;6689;999108
3;97;1571409861645;1571409868382;6737;9934171420;13846817849;105785751;3566987;2214993077;217484939;163402463;1566;8234;900312;-142;6736;1049936
4;48;1571410362396;1571410369002;6606;9935463666;13846724802;105302538;3654175;2214977401;216989083;162889181;1119;10773;1043792;-17;6606;945064
4;49;1571410369003;1571410375290;6287;9940259328;13846843638;105365009;3669207;2215016656;217053328;163160349;1432;8540;934992;5;6287;1024114
4;50;1571410375290;1571410383515;8225;9933111460;13846849348;106539756;3681508;2215018070;216861828;163101552;1669;8807;950808;1;8226;1173850
4;51;1571410383516;1571410391769;8253;9939763220;13846765782;105706157;3746620;2214989941;217069210;163253201;1634;10966;1023544;-2;8254;1182674
4;52;1571410391769;1571410398503;6734;9944247756;13846729821;107323667;3669065;2214978543;217287316;163086057;1149;10797;1024168;-8;6734;957317
4;53;1571410398504;1571410404848;6344;9944703860;13846784623;107624178;3518343;2214996836;217388902;163376002;1445;9288;987736;149;6345;1008224
4;54;1571410404848;1571410416344;11496;9941307462;13846810130;106375574;3498521;2215005995;217305252;162831902;2469;13069;1406776;-146;11496;1540413
4;55;1571410416345;1571410425678;9333;9938764580;13846765190;105338559;3583069;2214990150;217189902;163458627;2153;12019;1327536;-92;9274;996488
4;56;1571410425678;1571410432006;6328;9946516596;13846852274;107919312;3768678;2215018884;217302352;163192532;1213;9885;976648;-1;6328;397952
4;57;1571410432006;1571410438750;6744;9947081908;13846848018;111127428;3772961;2215019249;217240002;164164583;1712;9002;875272;97;6745;617459
4;58;1571410438750;1571410445039;6289;9943746392;13846742502;106388749;3531523;2214983985;217402073;163536363;1473;5463;597088;-1;6289;899978
4;59;1571410445039;1571410451321;6282;9936951406;13846827051;105826045;3605171;2215010705;217088461;162864292;1147;9864;828312;13;6282;894960
4;60;1571410451321;1571410457770;6449;9932884430;13846848091;106300646;3667677;2215019136;216896358;163396103;922;9492;910528;6;6449;915762
4;61;1571410457770;1571410464198;6428;9931839800;13846851387;104183155;3648399;2215019853;216921298;163317911;943;10811;999728;-13;6428;916808
4;62;1571410464198;1571410470927;6729;9937278154;13846810386;105569134;3588287;2215004792;217098662;163441482;1403;9234;999000;5;6728;1080422
4;63;1571410470927;1571410478884;7957;9938151672;13846729685;106499501;3787005;2214979665;216967513;163368862;1500;8118;933920;5;7958;1145368
4;64;1571410478884;1571410487280;8396;9934432468;13846743606;105547583;3828884;2214984262;216889914;163223153;1662;11656;1051632;2;8396;1203306
4;65;1571410487280;1571410494019;6739;9935722962;13846846459;106081020;3703611;2215017679;216997220;162677723;1060;10423;996680;-24;6739;962843
4;66;1571410494019;1571410500695;6676;9928358284;13846731879;107039721;3576769;2214980358;216684288;162710379;1360;10874;1047504;174;6675;1039587
4;67;1571410500695;1571410506959;6264;9921159754;13846837479;105343602;3531971;2215015151;216428129;163145682;1077;7338;881600;-155;6264;934719
4;68;1571410506959;1571410516677;9718;9940428688;13846757175;106146231;3890526;2214987558;216957408;163308402;2133;10706;1017544;11;9718;1387799
4;69;1571410516677;1571410523543;6866;9935936998;13846807959;106155927;3682727;2215005049;217029027;162788968;1091;10251;999360;-3;6866;981797
4;70;1571410523543;1571410529967;6424;9936883662;13846792247;106196462;3698921;2215000344;217015391;163522598;1050;10796;1029584;-23;6425;917192
4;71;1571410529967;1571410536304;6337;9933713126;13846730790;105629239;3655503;2214978700;216923618;163121040;1425;8121;879152;3;6337;1086763
4;72;1571410536304;1571410545849;9545;9932982104;13846756179;106038440;3727843;2214987958;216900370;163429804;1917;9414;1034640;7;9544;1363414
4;73;1571410545849;1571410553311;7462;9934226608;13846850794;105130259;3731880;2215019690;216919184;163377206;1379;11024;1023128;-3;7463;1069703
4;74;1571410553311;1571410559798;6487;9939222728;13846848670;107320520;3729434;2215018119;217015457;162829816;1102;11173;1036592;18;6487;923292
4;75;1571410559798;1571410566317;6519;9934385602;13846739825;107225726;3680425;2214982415;216888001;163283808;1515;8794;963040;-27;6518;1057711
4;76;1571410566317;1571410574579;8262;9935640326;13846726602;104708051;3722526;2214978860;216935146;163369643;1582;8182;911544;21;8263;1189528
4;77;1571410574580;1571410582960;8380;9914840144;13846730871;103242049;3403653;2214978537;216333170;162856604;1673;11101;1043848;-9;8381;1190325
4;78;1571410582960;1571410589731;6771;9937877776;13846727542;106095015;3731272;2214978974;216988705;163459253;1147;11164;1007416;15;6771;969650
4;79;1571410589731;1571410596323;6592;9942601898;13846731303;106567488;3724482;2214980011;217099483;164175942;1488;8824;996928;-11;6592;1059624
4;80;1571410596323;1571410603050;6727;9933932418;13846729102;104956770;3713191;2214978347;216897633;162830370;1241;8858;954232;10;6726;960375
4;81;1571410603050;1571410616812;13762;9935249338;13846754716;105058276;3799391;2214987441;217017100;163017475;3223;15376;1530984;-7;13763;2112719
4;82;1571410616812;1571410623076;6264;9937088208;13846848143;104506936;3826985;2215019057;216912202;163872609;1303;3655;500928;-5;6263;893334
4;83;1571410623076;1571410630602;7526;9936089714;13846848025;107003452;3696334;2215018082;216882022;163518885;1286;12599;1110688;-4;7527;1069665
4;84;1571410630602;1571410636883;6281;9936077888;13846848975;106068296;3679333;2215019241;216969704;163162467;954;11229;1021584;10;6281;898783
4;85;1571410636883;1571410643154;6271;9935976272;13846755354;104698579;3690043;2214987829;216912661;163643856;936;9815;965768;-8;6270;892516
4;86;1571410643154;1571410649613;6459;9938842398;13846810412;106354867;3695187;2215005369;216951250;163507807;1476;8254;919560;-10;6460;1033317
4;87;1571410649613;1571410657601;7988;9916116768;13846799358;102373609;3418804;2215001002;216447215;163119023;1490;8706;923792;12;7988;1144227
4;88;1571410657602;1571410665873;8271;9927599522;13846728513;104157536;3753768;2214979161;216697681;163422565;1623;10844;1033392;12;8272;1185754
4;89;1571410665874;1571410672735;6861;9936218778;13846732024;106116389;3715848;2214978927;216944159;163059797;1153;11228;1051096;-20;6862;978883
4;90;1571410672735;1571410678991;6256;9934765786;13846749129;105220669;3648407;2214985799;216962464;163152232;1048;10927;1048224;31;6255;897559
4;91;1571410678991;1571410689402;10411;9937428826;13846852639;104339882;3668523;2215020050;216957758;163948004;2518;11179;1256608;-8;10412;1668425
4;92;1571410689402;1571410695652;6250;9938901090;13846844215;106864596;3681366;2215017174;216957419;163270481;1431;6552;696400;-23;6250;896824
4;93;1571410695653;1571410702086;6433;9933485512;13846749536;105810801;3712695;2214985601;216934170;163276794;1046;9816;912584;11;6434;911871
4;94;1571410702086;1571410708576;6490;9938562808;13846821290;104294537;3666409;2215010071;217055068;163541511;1086;11377;1042960;10;6489;922039
4;95;1571410708576;1571410715191;6615;9935003620;13846851142;104616384;3693218;2215018588;216964613;163048930;1647;7645;905008;-24;6615;1132726
4;96;1571410715191;1571410723584;8393;9932355618;13846797190;105543723;3719017;2215001318;216910251;163229934;1661;9112;963568;3;8393;1204527
4;97;1571410723584;1571410731931;8347;9928177098;13846734104;104677459;3723466;2214980409;216787286;163484254;1609;11623;1081688;-1;8347;1196613
