0;49;1572421880132;1572421886854;6722;19647224964;42800146838;169593626;67862947;5552718682;127424935;139769769;33;14;5392;0;89;337
0;50;1572421886886;1572421893924;7038;19698180862;42800008154;190231233;68356056;5552711110;128607222;144421995;7;8;424;0;11;15
0;51;1572421893963;1572421901374;7411;19810624514;42799527178;201236997;69269536;5552648471;129509461;148879289;0;0;0;0;0;0
0;52;1572421901420;1572421908641;7221;19726016054;42799463990;193675769;68767686;5552632118;128829244;147800957;6;13;584;0;3;7
0;53;1572421908694;1572421916007;7313;19824885794;42799556014;198282209;69909824;5552653199;129092292;146638549;0;0;0;0;0;0
0;54;1572421916040;1572421923655;7615;19922193626;42799391818;210360624;70515327;5552640843;130054116;150034387;54;22;6224;0;102;466
0;55;1572421923706;1572421931366;7660;19886402018;42799469940;205124853;70624899;5552650199;129824753;146401260;0;0;0;0;0;0
0;56;1572421931412;1572421938716;7304;19777277968;42799399777;193650736;69303020;5552634567;129268710;146348423;7;12;584;0;3;9
0;57;1572421938775;1572421946145;7370;19755500608;42799549383;188509565;69012022;5552654353;128783127;143525114;0;0;0;0;0;0
0;58;1572421946191;1572421953140;6949;19670577810;42799360462;186626621;68284908;5552616092;128230777;142604275;35;31;5488;0;108;323
0;59;1572421953233;1572421960053;6820;19611319914;42799378338;178553463;68242762;5552609311;127592935;143161903;0;0;0;0;0;0
0;60;1572421960103;1572421967490;7387;19881886384;42799260078;207596397;69830993;5552624143;129895296;147974624;4;8;384;0;2;5
0;61;1572421967538;1572421975271;7733;19869498284;42799422083;199451946;71029014;5552652364;129850228;146582210;0;0;0;0;0;0
0;62;1572421975319;1572421982548;7229;19827805794;42799438475;195031864;70473093;5552649400;129433262;146855675;50;33;5952;0;107;509
0;63;1572421982603;1572421989983;7380;19732608246;42799817264;189484961;69399733;5552723045;128770569;143359648;0;0;0;0;0;0
0;64;1572421990016;1572421996701;6685;19672494352;42799660601;178312749;67995368;5552664506;127825741;140519017;0;0;0;0;0;0
0;65;1572421996764;1572422003465;6701;19600268006;42799163167;169792665;68516440;5552568427;127484051;138699128;6;11;568;0;2;6
0;66;1572422003516;1572422010871;7355;19726349226;42799355021;188015066;69061093;5552624925;128723412;142975558;0;0;0;0;0;0
0;67;1572422010924;1572422017851;6927;19697862436;42799262145;188013095;68238379;5552604520;128462399;143627940;51;25;9504;0;141;402
0;68;1572422017901;1572422025220;7319;19788324620;42799274356;202654016;68994966;5552626629;129577453;147193772;0;0;0;0;0;0
0;69;1572422025273;1572422032431;7158;19815860804;42799165254;197416667;69732647;5552601324;129109170;146163004;7;10;568;0;3;5
0;70;1572422032491;1572422039598;7107;19811477592;42799165986;186878767;70142168;5552585317;128427678;143440743;0;0;0;0;0;0
0;71;1572422039632;1572422046658;7026;19711534606;42799228478;191016408;68579840;5552604762;128726389;141932156;13;8;616;0;4;30
0;72;1572422046701;1572422053847;7146;19769189130;42799066450;195098870;68671195;5552580479;129189368;144733313;57;22;8560;0;135;682
0;73;1572422053901;1572422061207;7306;19669265562;42799008416;180958219;69004691;5552555817;128397534;140979498;398;24;45992;1;1148;1493
0;74;1572422061275;1572422068215;6940;19636101516;42799039036;173790174;68533790;5552551025;127644656;138415134;74;9;15952;-1;366;461
0;75;1572422068262;1572422075972;7710;19746312828;42799214848;184285099;69383000;5552597146;128551474;143084687;17;3;608;0;4;48
0;76;1572422076007;1572422083310;7303;19742354914;42799087454;194943926;68506396;5552586289;129256094;146136897;0;0;0;0;0;0
0;77;1572422083350;1572422090761;7411;19707835550;42799079838;189044581;68823257;5552578015;128812444;143567736;83;2;1192;0;62;1809
0;78;1572422090806;1572422098267;7461;19853929282;42799023532;214639183;69616200;5552591146;130174960;150022529;57;38;10032;0;157;736
0;79;1572422098312;1572422105952;7640;19873753308;42799044073;216745681;69234373;5552604829;130635567;150212134;16;13;752;0;13;77
0;80;1572422106000;1572422113787;7787;19831225990;42799154424;196589168;70601748;5552600042;129122383;144253840;0;0;0;0;0;0
0;81;1572422113820;1572422121528;7708;19957987278;42798972706;219093171;71160726;5552593890;130609201;150190571;18;0;576;0;5;60
0;82;1572422121563;1572422128904;7341;19852573380;42798947075;198371882;69612169;5552572085;129544159;145194473;60;40;11440;0;185;862
0;83;1572422128958;1572422136230;7272;19795132892;42798929636;194643756;69713442;5552561232;129307108;143971759;9;12;616;0;12;40
0;84;1572422136264;1572422143348;7084;19688440472;42799072755;184453596;68611381;5552576693;128516038;141956407;0;0;0;0;0;0
0;85;1572422143396;1572422150736;7340;19704296656;42799240988;189663153;68915453;5552624485;128966587;144004387;0;0;0;0;0;0
0;86;1572422150785;1572422157707;6922;19607048976;42799190436;171398502;68179814;5552582137;127609160;139045068;15;3;576;0;12;62
0;87;1572422157770;1572422165162;7392;19654150620;42798854064;182303995;69237197;5552531355;128270483;140296311;50;22;7920;0;131;628
0;88;1572422165205;1572422172386;7181;19646852080;42798822907;177109144;68631104;5552520673;128138518;138424184;11;6;464;0;29;47
0;89;1572422172420;1572422179522;7102;19689572118;42798857202;187586708;68799457;5552536494;128616408;140318056;0;0;0;0;0;0
0;90;1572422179560;1572422186826;7266;19751491886;42798877384;190551475;69138176;5552545356;128881207;141810553;11;6;568;0;4;23
0;91;1572422186875;1572422194244;7369;19717631274;42798855556;192627561;68926644;5552544929;129014040;143015139;65;20;10320;0;150;874
0;92;1572422194293;1572422201680;7387;19732166304;42798850349;188102285;69096279;5552537780;128648253;143910571;9;12;616;0;12;40
0;93;1572422201732;1572422208554;6822;19574922552;42798851003;171708281;67768674;5552519173;127402745;139444799;0;0;0;0;0;0
0;94;1572422208586;1572422215619;7033;19718630060;42798957813;191309145;68837169;5552559069;128664711;145700244;10;8;576;0;12;55
0;95;1572422215683;1572422223000;7317;19739020128;42798902987;194286703;68984324;5552556514;129009994;143534647;0;0;0;0;0;0
0;96;1572422223033;1572422230130;7097;19731498062;42799074198;194861796;68625624;5552584464;129036419;143770319;70;29;8664;0;139;638
0;97;1572422230181;1572422237408;7227;19720327310;42798649586;192179799;68805433;5552512231;128862359;142728804;0;0;0;0;0;0
0;98;1572422237458;1572422244507;7049;19640739352;42798733390;177989512;68486680;5552513213;128119390;138909994;11;8;608;0;4;20
1;48;1572422720263;1572422727759;7496;19801447246;42770973962;190602944;69270433;5548545799;132193156;141466714;8;11;584;0;3;16
1;49;1572422727805;1572422734996;7191;19905326538;42771240575;187134856;69748412;5548598496;132223319;140423512;49;14;5904;0;101;512
1;50;1572422735045;1572422742572;7527;19952962542;42771159749;199593641;70502397;5548593018;133111881;144773145;9;11;608;0;12;26
1;51;1572422742638;1572422750283;7645;19955678872;42770544285;212338136;69816699;5548503448;133514703;146086753;0;0;0;0;0;0
1;52;1572422750332;1572422757698;7366;19808444004;42770638317;178073135;69211982;5548485888;132044571;140190366;8;11;584;0;3;15
1;53;1572422757744;1572422765259;7515;19898543816;42770552445;208454184;69249734;5548506392;133411499;145666902;31;18;5520;0;103;353
1;54;1572422765308;1572422772833;7525;19838272096;42770434224;192027751;69221373;5548468789;132602331;143125210;9;11;600;0;11;14
1;55;1572422772882;1572422780064;7182;19855944666;42770494406;194931522;68894571;5548488979;132435461;142240841;0;0;0;0;0;0
1;56;1572422780126;1572422787203;7077;19791235714;42770417295;189429032;68609602;5548469292;132075370;142806963;8;11;584;0;3;13
1;57;1572422787274;1572422794467;7193;19866096192;42770575635;194363372;68942430;5548504017;132658001;143549931;0;0;0;0;0;0
1;58;1572422794516;1572422801864;7348;19768293858;42770487932;177230789;68658835;5548471557;131715054;138825790;43;12;5392;0;108;520
1;59;1572422801922;1572422808936;7014;19794032782;42770316090;185691425;68483875;5548445517;131637629;140115552;7;13;608;0;11;23
1;60;1572422808980;1572422816127;7147;19817754278;42770431797;190216408;68892227;5548472166;132197238;140488808;0;0;0;0;0;0
1;61;1572422816161;1572422823270;7109;19862768414;42770517437;191774818;68609411;5548497656;132505467;142564470;8;11;584;0;3;10
1;62;1572422823303;1572422830530;7227;19837541074;42770517003;193040601;69111339;5548498592;132352879;142065562;0;0;0;0;0;0
1;63;1572422830592;1572422837964;7372;19863279852;42770739576;192861290;69192063;5548554070;132510147;142517774;51;25;10008;0;154;489
1;64;1572422838004;1572422845755;7751;19973740532;42770760758;206369571;69680076;5548559766;133610817;146424928;0;0;0;0;0;0
1;65;1572422845789;1572422852823;7034;19836865970;42770360808;184257654;68953108;5548456026;131592200;139473198;8;11;584;0;11;13
1;66;1572422852856;1572422860218;7362;19874840132;42770394019;196282160;69546013;5548482926;132607772;143422635;0;0;0;0;0;0
1;67;1572422860271;1572422867747;7476;19935910326;42770256014;204291869;69535074;5548466239;133156196;145532813;8;12;608;0;3;7
1;68;1572422867779;1572422875312;7533;19853687506;42770211464;188521072;69055911;5548442395;132129662;141808933;45;20;7504;0;157;636
1;69;1572422875360;1572422882465;7105;19795486358;42770156819;181333622;68899077;5548422938;131640850;140279075;8;11;584;0;3;11
1;70;1572422882498;1572422889870;7372;19939558136;42770254779;204407192;70651601;5548466335;133128898;144669476;0;0;0;0;0;0
1;71;1572422889920;1572422897612;7692;19987624110;42770094540;206462735;70405503;5548444397;133458758;145909996;6;13;600;0;2;5
1;72;1572422897649;1572422904776;7127;19850912484;42770143582;192817866;68537206;5548436853;132464902;143157922;0;0;0;0;0;0
1;73;1572422904822;1572422912310;7488;19781513574;42770082667;190482440;68999501;5548420004;132178570;141660432;35;35;7072;0;121;234
1;74;1572422912367;1572422919355;6988;19751296392;42769942262;174533700;68830320;5548378630;131488823;137972851;468;26;49552;0;1434;1857
1;75;1572422919394;1572422926483;7089;19822116612;42770044405;177926528;69265434;5548400457;131495993;137229546;21;1;696;0;73;142
1;76;1572422926528;1572422934264;7736;19992663154;42770013840;196504253;71275214;5548425236;133220969;142766708;0;0;0;0;0;0
1;77;1572422934312;1572422941376;7064;19850873648;42770030226;183752187;69847111;5548402591;131653271;139535405;19;1;592;0;6;75
1;78;1572422941429;1572422948744;7315;19849757040;42769858751;181530826;70136394;5548378102;131760664;139338473;38;36;9488;0;158;553
1;79;1572422948797;1572422956367;7570;19844193126;42769859938;183498910;69238783;5548380816;132001583;140657140;83;12;1408;0;204;1573
1;80;1572422956415;1572422963703;7288;19781871274;42769989890;180334626;69349976;5548397247;131864269;140174340;0;0;0;0;0;0
1;81;1572422963749;1572422971272;7523;19916269092;42769921686;203333881;69604623;5548410301;133088915;145707204;21;0;624;0;16;77
1;82;1572422971354;1572422978692;7338;19866353152;42769907321;181603329;70043360;5548387880;132064815;140590361;0;0;0;0;0;0
1;83;1572422978731;1572422985999;7268;20039469586;42769943657;198379699;71621051;5548409020;132839517;143613567;66;38;11056;0;185;896
1;84;1572422986052;1572422993433;7381;19928126628;42770035077;202070791;69977052;5548431876;132957938;145307519;17;3;632;0;6;54
1;85;1572422993489;1572423000731;7242;19836826550;42770154569;193646462;69082653;5548446887;132551230;141773287;0;0;0;0;0;0
1;86;1572423000769;1572423007881;7112;19773476274;42769940807;187009643;68351766;5548393421;131912335;140626777;10;6;464;0;3;15
1;87;1572423007917;1572423014771;6854;19805276680;42769899138;186984142;68856766;5548385401;131783326;140746505;0;0;0;0;0;0
1;88;1572423014821;1572423022144;7323;19904838460;42769781676;196789690;70323664;5548373984;132608517;142908306;58;33;8688;0;129;671
1;89;1572423022178;1572423029104;6926;19821783148;42769870521;178995130;69897110;5548371374;131591562;139051817;0;0;0;0;0;0
1;90;1572423029152;1572423036419;7267;19888645016;42769896282;189974045;69252564;5548398434;132704413;144254780;18;1;584;0;4;58
1;91;1572423036489;1572423043982;7493;19858985408;42769810489;196180678;69136238;5548383312;132563265;142701071;0;0;0;0;0;0
1;92;1572423044014;1572423051245;7231;19839336728;42769884223;184063826;68923315;5548378861;131875147;139906961;67;35;8528;0;138;676
1;93;1572423051299;1572423058427;7128;19834733348;42770163298;187487095;69327783;5548435455;132017836;140212925;0;0;0;0;0;0
1;94;1572423058480;1572423065638;7158;19954870470;42769910906;194377817;70132383;5548397438;132454272;142281969;10;9;584;0;3;22
1;95;1572423065704;1572423073351;7647;19893460680;42769840872;198428012;70350109;5548393315;132797447;145520575;0;0;0;0;0;0
1;96;1572423073388;1572423081056;7668;19967508522;42770213697;207649652;69856479;5548468369;133547508;147276171;13;7;608;0;5;34
1;97;1572423081102;1572423087827;6725;19794847170;42769739564;178612871;68269508;5548353044;131255439;139486943;56;28;8496;0;154;669
2;48;1572423562241;1572423569454;7213;19654617382;42801920543;174549294;69149413;5543009893;130653394;139040963;38;30;5976;0;100;334
2;49;1572423569534;1572423576548;7014;19700309542;42802246019;174245592;69423126;5543076247;130615226;139015511;0;0;0;0;0;0
2;50;1572423576641;1572423584498;7857;19775776650;42801877749;193495786;69702882;5543031704;132225300;143612192;5;15;608;0;11;13
2;51;1572423584582;1572423591733;7151;19660383798;42801356348;180038582;68565708;5542924668;130954715;140930564;0;0;0;0;0;0
2;52;1572423591782;1572423599342;7560;19866083052;42801453052;207687984;70723069;5542977057;132567680;146242203;43;27;6104;0;85;357
2;53;1572423599391;1572423607238;7847;19785174378;42801236462;196703656;69893221;5542932894;132384660;144435939;0;0;0;0;0;0
2;54;1572423607289;1572423615076;7787;19799751894;42801247511;197808964;69529702;5542938374;132501499;144727740;8;12;600;0;3;8
2;55;1572423615123;1572423622055;6932;19740585832;42801273156;187421803;69037069;5542929648;131213822;142016650;0;0;0;0;0;0
2;56;1572423622087;1572423629506;7419;19842269138;42801361924;205026153;70167909;5542965858;132193256;145331396;8;11;584;0;3;4
2;57;1572423629563;1572423637420;7857;19820983360;42801473112;200756800;70264409;5542984916;132478360;145884889;31;20;5712;0;103;334
2;58;1572423637467;1572423645296;7829;19866309206;42801493849;205475894;70172547;5542997096;132791369;146227653;5;14;600;0;10;12
2;59;1572423645344;1572423652447;7103;19701011656;42801308396;191762022;68783848;5542944509;131490031;141971577;0;0;0;0;0;0
2;60;1572423652501;1572423660262;7761;19800741336;42801192736;202973001;69715282;5542947074;132612352;145963095;10;10;592;0;3;15
2;61;1572423660316;1572423667753;7437;19861493688;42801306334;201958954;70549035;5542968154;132441608;145419554;44;12;5872;0;103;496
2;62;1572423667807;1572423674922;7115;19786844034;42801328703;187151348;69662058;5542951318;131632032;142914221;0;0;0;0;0;0
2;63;1572423674976;1572423682442;7466;19844293720;42801716373;194873699;71055621;5543045649;132192376;143634163;6;8;416;0;10;14
2;64;1572423682493;1572423689435;6942;19679446434;42801531169;176144888;69460941;5542975049;130768792;139344681;0;0;0;0;0;0
2;65;1572423689477;1572423697276;7799;19786152432;42801229767;203439861;69735001;5542947332;132514043;145898944;56;30;8224;0;118;571
2;66;1572423697347;1572423704689;7342;19785863206;42801161402;197360097;69726945;5542931065;132149766;144708880;0;0;0;0;0;0
2;67;1572423704741;1572423712526;7785;19910559032;42801220577;206287523;71118378;5542954804;132880587;147602041;7;12;600;0;11;15
2;68;1572423712568;1572423719936;7368;19714190492;42801127594;187009198;69174760;5542918664;131800979;142394019;0;0;0;0;0;0
2;69;1572423719975;1572423727158;7183;19721079502;42801047970;184135009;68939692;5542897496;131458793;140655136;8;11;584;0;3;9
2;70;1572423727204;1572423735055;7851;19849428978;42801119159;196615435;70845593;5542928109;132292369;144722086;35;22;7056;0;101;359
2;71;1572423735088;1572423742333;7245;19825690546;42800890470;197585595;69970253;5542890661;132201625;143657727;6;14;608;0;11;13
2;72;1572423742392;1572423749713;7321;19729750004;42800959028;186981216;69098325;5542889866;131421121;141902338;0;0;0;0;0;0
2;73;1572423749752;1572423756644;6892;19626478218;42800965242;166403041;68170446;5542863927;130140375;137162286;7;11;576;0;3;11
2;74;1572423756692;1572423763770;7078;19744675292;42800952436;183078679;68791548;5542881257;131222378;140020544;43;18;7120;0;104;494
2;75;1572423763834;1572423770781;6947;19639151456;42801011333;176761065;68631516;5542888698;130715679;139180027;9;12;616;0;12;26
2;76;1572423770815;1572423778098;7283;19728496302;42800956050;186343753;68469546;5542892161;131509201;142064808;0;0;0;0;0;0
2;77;1572423778142;1572423785249;7107;19674738956;42800779989;181637182;68669803;5542852064;131265476;139767400;490;28;50992;0;1533;3035
2;78;1572423785301;1572423792761;7460;19783442964;42800694909;196628285;69249843;5542855883;132062286;145179206;0;0;0;0;0;0
2;79;1572423792817;1572423799940;7123;19693194378;42800778491;184999774;68674994;5542856348;131222777;141493058;21;1;672;0;17;64
2;80;1572423799983;1572423807186;7203;19779351460;42800779458;198221913;68855769;5542868342;132047914;145643522;0;0;0;0;0;0
2;81;1572423807219;1572423814487;7268;19765673158;42800785613;193130620;69045084;5542868375;131824276;145375172;132;35;8632;0;328;16925
2;82;1572423814520;1572423821792;7272;19775763656;42800794075;194084154;68996630;5542871707;131907354;142839699;0;0;0;0;0;0
2;83;1572423821854;1572423829030;7176;19718981336;42800692833;186937014;69070803;5542842407;131348846;141636063;23;2;688;0;15;239
2;84;1572423829073;1572423836133;7060;19755037204;42800957352;193424152;68526073;5542901238;131714005;145162110;0;0;0;0;0;0
2;85;1572423836179;1572423843043;6864;19654409916;42801108331;178228491;68454577;5542913463;130616028;140806615;0;0;0;0;0;0
2;86;1572423843097;1572423850815;7718;19790591270;42800800979;193960075;69314926;5542875392;132167224;145700522;73;43;10776;0;162;1176
2;87;1572423850869;1572423858137;7268;19710797306;42800736015;182931798;68604499;5542847906;131338517;141954629;0;0;0;0;0;0
2;88;1572423858170;1572423865093;6923;19664688024;42800710637;177758451;68368326;5542837285;130744497;140465594;15;5;632;0;12;47
2;89;1572423865127;1572423872407;7280;19697846230;42800734579;183329758;69119719;5542844313;131258414;141075410;0;0;0;0;0;0
2;90;1572423872456;1572423879821;7365;19778402168;42800776005;197389854;69546871;5542872526;132156379;144732734;58;34;8024;0;131;636
2;91;1572423879879;1572423886556;6677;19605707090;42800712949;164220776;68348972;5542820168;130061709;136874694;0;0;0;0;0;0
2;92;1572423886588;1572423893760;7172;19758943580;42800765660;196272250;68643925;5542865693;132057691;143974330;13;7;608;0;12;81
2;93;1572423893810;1572423901193;7383;19813076584;42800889191;201719452;69434870;5542894905;132307863;145620915;0;0;0;0;0;0
2;94;1572423901228;1572423908719;7491;19853323966;42800675064;197349137;70132598;5542855346;132217150;146105638;62;38;10136;0;160;613
2;95;1572423908781;1572423916322;7541;19791197608;42800797738;188699891;70160899;5542866318;131685321;141331286;0;0;0;0;0;0
2;96;1572423916373;1572423924064;7691;19780372584;42800834655;190451280;69690291;5542873304;131925885;143521468;12;8;608;0;4;22
2;97;1572423924097;1572423931426;7329;19755478562;42800744714;188037959;69319817;5542856043;131620870;142196330;0;0;0;0;0;0
3;49;1572424413067;1572424420157;7090;19791111030;42555932593;196377141;68932084;5550989753;129756471;144660872;5;9;400;0;10;11
3;50;1572424420200;1572424427331;7131;19686619998;42555768245;180663220;68660999;5550943049;128788505;139551861;0;0;0;0;0;0
3;51;1572424427406;1572424434475;7069;19740805708;42555280456;191561686;68743527;5550874237;129478775;143521588;9;11;608;0;12;32
3;52;1572424434509;1572424441457;6948;19772979144;42555269021;196853403;68215890;5550876742;129562573;144249611;0;0;0;0;0;0
3;53;1572424441521;1572424448123;6602;19639905984;42555157039;175938743;68130404;5550840506;128201693;138712718;34;28;6104;0;86;257
3;54;1572424448177;1572424455299;7122;19766480392;42555090261;194151662;68971964;5550853698;129605772;143442183;0;0;0;0;0;0
3;55;1572424455347;1572424462580;7233;19640930612;42555193798;175516637;68873454;5550861483;128737417;137980724;8;12;608;0;11;21
3;56;1572424462614;1572424469652;7038;19760655430;42555161298;198395111;68791382;5550870629;129389070;143511635;0;0;0;0;0;0
3;57;1572424469699;1572424476872;7173;19747331908;42555272208;182584245;69579472;5550877360;128843079;140585834;8;11;584;0;3;13
3;58;1572424476920;1572424484242;7322;19927491820;42555244574;211027019;70730254;5550893762;130250532;146653009;37;18;5712;0;112;453
3;59;1572424484296;1572424491573;7277;19726630714;42555064588;186605925;69090789;5550846253;129103558;142410156;5;9;416;0;10;12
3;60;1572424491606;1572424498676;7070;19756194546;42555045826;191553172;69322565;5550856422;129429479;142575070;0;0;0;0;0;0
3;61;1572424498711;1572424505782;7071;19900057690;42555186444;194685721;71391745;5550877752;129378392;143132249;7;13;592;0;3;9
3;62;1572424505815;1572424513102;7287;19921679706;42555268989;207870516;71490642;5550905576;130350410;146448132;0;0;0;0;0;0
3;63;1572424513159;1572424520467;7308;19960523444;42555517817;197877491;71670494;5550963652;130106187;145335846;35;16;5712;0;88;378
3;64;1572424520502;1572424527946;7444;19890592218;42555801610;204237386;70405230;5551000581;130394049;147262640;8;11;600;0;11;14
3;65;1572424527979;1572424535086;7107;19831759620;42555038383;201972153;68940625;5550860312;129905190;147355031;0;0;0;0;0;0
3;66;1572424535129;1572424542383;7254;19781017612;42555105862;195464829;68796742;5550868236;129607280;144856903;8;12;592;0;3;15
3;67;1572424542447;1572424549601;7154;19798098152;42554807506;198863356;68992766;5550819193;129820228;144880351;0;0;0;0;0;0
3;68;1572424549654;1572424557338;7684;19809467610;42554883070;200323845;69285960;5550838242;130233980;145356723;46;33;8104;0;113;403
3;69;1572424557407;1572424565032;7625;19855693108;42554826911;196614892;69960751;5550825912;130226839;145315021;0;0;0;0;0;0
3;70;1572424565078;1572424572214;7136;19769143870;42554952044;191569365;69211889;5550841720;129632911;142984974;8;11;584;0;3;10
3;71;1572424572257;1572424579315;7058;19571977878;42554788950;163174429;68133971;5550782634;127738100;135131251;0;0;0;0;0;0
3;72;1572424579350;1572424586162;6812;19699998124;42554819557;177640316;68808300;5550802224;128490367;140789866;6;14;608;0;3;9
3;73;1572424586224;1572424593479;7255;19818389378;42554722492;199674164;69513653;5550814070;130257322;145179245;42;22;6736;0;114;520
3;74;1572424593533;1572424600980;7447;19809475348;42554666168;190893105;70091406;5550786774;129360458;143159061;5;8;392;0;2;4
3;75;1572424601015;1572424608353;7338;19820436298;42554781089;192512438;69917674;5550814900;129574011;143664659;135;16;13784;1;411;976
3;76;1572424608406;1572424615138;6732;19693111450;42554692883;185749612;68694767;5550789050;128873334;140605438;349;19;36064;-1;1078;1203
3;77;1572424615181;1572424622288;7107;19779291162;42554674581;191573970;69381966;5550794581;129463400;144304556;0;0;0;0;0;0
3;78;1572424622337;1572424629315;6978;19779261378;42554563090;187288449;69878634;5550766557;128987945;141726333;14;4;576;0;4;36
3;79;1572424629372;1572424636768;7396;19780889424;42554581386;190115557;70019562;5550777158;129636600;142580926;0;0;0;0;0;0
3;80;1572424636807;1572424643866;7059;19720723700;42554714187;185137885;68754613;5550793927;128985958;140912540;40;28;7568;0;125;542
3;81;1572424643922;1572424651183;7261;19762722206;42554633651;187328214;69289175;5550790665;129644740;144042408;89;0;1192;0;158;2344
3;82;1572424651238;1572424658335;7097;19747075240;42554610113;187365572;68904291;5550778970;129446801;141040140;0;0;0;0;0;0
3;83;1572424658407;1572424665749;7342;19766829624;42554648241;190112203;69249663;5550792109;129511956;143026001;18;1;584;0;5;44
3;84;1572424665804;1572424673140;7336;19757365028;42554707641;186166822;69374066;5550799246;129348719;140949248;0;0;0;0;0;0
3;85;1572424673175;1572424680015;6840;19693366950;42554740424;188794289;68369482;5550802708;129035026;144121188;96;38;10992;0;214;1590
3;86;1572424680062;1572424687766;7704;19924817830;42554698214;215999497;69903181;5550824129;130869385;150172787;0;0;0;0;0;0
3;87;1572424687826;1572424695079;7253;19806093988;42554622280;200318714;69007991;5550793170;129870029;145501748;19;0;584;0;5;81
3;88;1572424695124;1572424702233;7109;19707693346;42554586898;182670067;68842363;5550768722;129083682;141659818;0;0;0;0;0;0
3;89;1572424702267;1572424709839;7572;19962348736;42554657580;215143049;70936728;5550816072;131045260;148175887;81;28;9224;0;149;998
3;90;1572424709900;1572424717268;7368;19859786218;42554634811;208862014;69914061;5550800464;130488156;147225210;0;0;0;0;0;0
3;91;1572424717320;1572424725099;7779;19915855912;42554551191;216215984;70115817;5550797960;130999490;148078097;14;7;648;0;29;190
3;92;1572424725147;1572424732360;7213;19726440038;42554506638;185055611;69699544;5550756974;129222218;139615580;0;0;0;0;0;0
3;93;1572424732416;1572424739940;7524;19863635800;42554781709;206718345;69300520;5550834802;130379729;146597626;68;43;10672;0;153;780
3;94;1572424739991;1572424747712;7721;19966672672;42554726029;219935788;70355444;5550833560;131228140;150514552;0;0;0;0;0;0
3;95;1572424747748;1572424754602;6854;19828567038;42554663911;188972711;69778697;5550792172;129232784;141633108;15;6;648;0;24;55
3;96;1572424754656;1572424761738;7082;19840796290;42554901328;192592865;69959585;5550835423;129494021;142461786;0;0;0;0;0;0
3;97;1572424761789;1572424768848;7059;19739683552;42554462813;177388077;69538615;5550742114;128635812;138912196;12;3;424;0;4;25
3;98;1572424768901;1572424776028;7127;19750633990;42554436524;190035841;69472236;5550752479;129252273;141301286;86;20;10096;0;165;1398
4;49;1572425259246;1572425266481;7235;19825576812;42835474890;192782491;68551193;5551820161;132974355;144671134;0;0;0;0;0;0
4;50;1572425266550;1572425273866;7316;19904485286;42835290375;192590537;70316295;5551780801;132922328;141796350;6;14;608;0;11;25
4;51;1572425273945;1572425280876;6931;19773421670;42834765366;181340061;69041041;5551678771;132082333;139955485;0;0;0;0;0;0
4;52;1572425280938;1572425287871;6933;19741136106;42834720912;179097485;68542247;5551677905;132104962;140229792;8;11;584;0;3;11
4;53;1572425287927;1572425294931;7004;19740762784;42834769529;181433042;67896550;5551683208;132135844;140171864;39;16;5456;0;85;426
4;54;1572425294986;1572425302074;7088;19785431776;42834583697;191237364;68468610;5551668166;132731322;142571053;0;0;0;0;0;0
4;55;1572425302113;1572425309358;7245;19811637900;42834735573;201018935;68675334;5551705204;133087954;146615849;7;13;608;0;11;22
4;56;1572425309399;1572425316545;7146;19764804166;42834658924;191637060;68244824;5551685287;132536342;143196882;0;0;0;0;0;0
4;57;1572425316578;1572425323249;6671;19656048912;42834794533;174704534;67708443;5551692275;131464926;140473131;9;10;584;0;3;13
4;58;1572425323317;1572425330372;7055;19784579282;42834610440;174952804;68615829;5551664287;132004888;141411664;37;16;5648;0;96;420
4;59;1572425330424;1572425337909;7485;19870217772;42834679271;189867579;69606872;5551694509;133172465;144218486;5;9;416;0;10;12
4;60;1572425337963;1572425345644;7681;20012731730;42834583833;210190339;71079355;5551708387;134412638;148547819;0;0;0;0;0;0
4;61;1572425345699;1572425352840;7141;19797503640;42834673079;179346715;68595294;5551684155;132388402;140668997;6;13;584;0;11;14
4;62;1572425352874;1572425360442;7568;19895685136;42834759491;195258762;69561713;5551720439;133438152;143328289;23;20;5440;2;12;135
4;63;1572425360515;1572425368153;7638;19901197804;42835036119;206997106;69736768;5551800586;133840219;147852080;10;14;624;-2;83;143
4;64;1572425368186;1572425375705;7519;19953936508;42835401146;215417797;68921775;5551852946;134284708;150889607;0;0;0;0;0;0
4;65;1572425375740;1572425382917;7177;19863089322;42834565276;190877180;69147766;5551680943;133038548;145769357;8;11;584;0;3;11
4;66;1572425382951;1572425390016;7065;19747646246;42834610451;181103133;68767678;5551678714;132275728;139637612;0;0;0;0;0;0
4;67;1572425390069;1572425397270;7201;19772618232;42834403712;182607886;69103071;5551643174;132562345;138766397;41;37;8048;0;130;408
4;68;1572425397302;1572425404515;7213;19814606518;42834639211;195926716;69149240;5551700948;133155610;143190962;0;0;0;0;0;0
4;69;1572425404573;1572425412373;7800;19844975540;42834350176;198661599;69901695;5551657370;133593004;144528738;8;10;576;0;3;15
4;70;1572425412425;1572425419790;7365;19791064164;42834343330;180587777;69490366;5551633036;132508343;139909010;0;0;0;0;0;0
4;71;1572425419872;1572425427177;7305;19952191224;42834481111;202844223;71078122;5551680688;133574485;144831112;46;33;7856;0;118;440
4;72;1572425427233;1572425434150;6917;19749085806;42834388495;184009483;68493090;5551644739;132398949;140429025;0;0;0;0;0;0
4;73;1572425434185;1572425441708;7523;19901468780;42834357337;208969071;69675719;5551670329;134131204;147017959;7;12;584;0;3;10
4;74;1572425441760;1572425448580;6820;19823096710;42834320093;183839152;69646370;5551629209;132367168;141061629;0;0;0;0;0;0
4;75;1572425448648;1572425456380;7732;19807826862;42834477546;178984227;70154832;5551652395;132334294;139652751;13;8;640;0;16;30
4;76;1572425456460;1572425463792;7332;19739623546;42834328403;176160614;69146028;5551627542;132634823;138466022;479;34;51632;0;1527;2177
4;77;1572425463844;1572425471723;7879;19935164558;42834384566;211601024;69908072;5551677262;134313319;147756839;3;11;400;0;1;1
4;78;1572425471756;1572425479256;7500;19930722362;42834288220;204312326;69383565;5551656702;133892623;147845279;0;0;0;0;0;0
4;79;1572425479299;1572425486430;7131;19807326958;42834271159;185380869;69549141;5551625696;132562988;141008511;0;0;0;0;0;0
4;80;1572425486476;1572425494433;7957;19822778868;42834301434;182540360;70701476;5551628129;132678644;140751434;118;22;6720;0;230;12899
4;81;1572425494499;1572425502064;7565;19824830898;42834100064;194743996;69469480;5551610876;133312480;142998500;0;0;0;0;0;0
4;82;1572425502100;1572425509309;7209;19855561708;42834158354;193441721;68872702;5551615459;133097088;143294059;29;2;800;0;70;950
4;83;1572425509344;1572425516259;6915;19772946732;42834077480;192087219;68871643;5551602192;132867438;141900360;0;0;0;0;0;0
4;84;1572425516296;1572425523431;7135;19783293168;42834265758;185768118;68730425;5551633419;132626669;140897439;71;38;9544;0;227;3363
4;85;1572425523463;1572425530191;6728;19683306090;42834163313;172966364;68333944;5551595617;131717422;137806571;0;0;0;0;0;0
4;86;1572425530224;1572425537094;6870;19746913326;42834248733;182408996;68363227;5551621258;132077595;139873500;16;3;584;0;4;41
4;87;1572425537164;1572425543991;6827;19742267898;42834011651;181429800;68401117;5551573801;132176499;141145649;0;0;0;0;0;0
4;88;1572425544038;1572425551544;7506;19891860228;42834130062;202800051;69566166;5551622907;133813839;145590836;65;43;11024;0;183;962
4;89;1572425551576;1572425559052;7476;19792153908;42834135371;190330635;69340747;5551607925;132841491;141742334;0;0;0;0;0;0
4;90;1572425559105;1572425565996;6891;19738660968;42834025871;174497777;68466458;5551574767;131926129;140111873;10;8;576;0;3;11
4;91;1572425566072;1572425572992;6920;19699420548;42834008027;168683354;68542543;5551559835;131371214;137026245;0;0;0;0;0;0
4;92;1572425573036;1572425580161;7125;19780213152;42834120195;185621014;68997945;5551598437;132385388;141753561;50;22;6872;0;120;515
4;93;1572425580212;1572425587365;7153;19771636966;42834233742;182938742;68688035;5551622455;132669058;140861394;0;0;0;0;0;0
4;94;1572425587421;1572425594207;6786;19785551496;42834215286;187265641;68645344;5551617353;132365259;143862802;0;0;0;0;0;0
4;95;1572425594244;1572425601197;6953;19817014058;42834167888;182772176;69713827;5551606360;132251805;141147851;12;6;576;0;3;19
4;96;1572425601254;1572425608805;7551;19891256664;42834435871;198210277;69328421;5551671160;133509621;145030930;59;22;8864;2;54;632
4;97;1572425608852;1572425616150;7298;19896543032;42834019730;196815238;69498567;5551596660;133140263;145774966;17;8;632;-2;84;174
4;98;1572425616197;1572425623514;7317;19873593000;42834017147;203008294;69411259;5551606641;133528097;146640197;0;0;0;0;0;0
