0;44;1573555299324;1573555305759;6435;19436185030;42732220136;153249663;63470824;5543131562;132521457;133900083;1012;9595;940520;20;6465;925837
0;45;1573555305812;1573555315659;9847;19465368678;42732233640;164985411;63576122;5543151412;132132620;137062714;2322;11021;1236720;-12;9900;1513145
0;46;1573555315722;1573555323055;7333;19592352762;42732422221;176423948;63607762;5543200722;133695102;139826244;1546;7186;730872;-10;7396;1056196
0;47;1573555323110;1573555329560;6450;19360598786;42732265100;148358970;62828036;5543139341;131231658;133000722;1019;8612;828120;5;6504;926564
0;48;1573555329598;1573555336222;6624;19432630952;42732209283;158000495;63465515;5543135402;132429949;134321885;1023;9644;928744;1;6662;949118
0;49;1573555336258;1573555343133;6875;19513802864;42732488882;159859947;63437876;5543192776;132517580;136707309;1501;10386;992952;6;6912;1117622
0;50;1573555343180;1573555350332;7152;19476382042;42732217889;164892463;63720516;5543149151;132615664;136343229;1625;5741;711664;10;7199;1029806
0;51;1573555350375;1573555363224;12849;19389920842;42732128070;152162640;62696336;5543118264;131609227;133015066;2189;14793;1494584;-13;12892;1840934
0;52;1573555363288;1573555370120;6832;19439902774;42731756810;160714784;63337802;5543072093;132093497;134507842;1075;10546;989440;14;6895;983729
0;53;1573555370165;1573555377321;7156;19661334842;42731815175;160262178;63617718;5543080228;138495399;134506637;1709;8911;999712;3;7202;1133278
0;54;1573555377371;1573555384412;7041;19371427898;42731540226;151323323;63472314;5543029037;131269280;133362971;1600;5934;613616;1;7091;1012815
0;55;1573555384443;1573555390405;5962;19290251752;42731719913;144750700;62339802;5543065604;129527741;130708628;1124;7023;652496;-4;5992;861471
0;56;1573555390434;1573555396956;6522;19386664750;42731654666;155360479;62941656;5543056562;131897466;132058566;1016;9057;864560;-24;6552;930653
0;57;1573555396986;1573555408901;11915;19475536848;42731733775;159375256;63573542;5543080979;132284169;136299417;2339;15770;1711352;2;11944;1840346
0;58;1573555408956;1573555415169;6213;19371768224;42731890689;149090602;62366268;5543093873;130727012;132446454;1433;5243;526304;8;6268;896476
0;59;1573555415200;1573555421214;6014;19318492240;42731678430;148223965;60969965;5543059661;130230320;132453949;1094;6862;676008;-6;6046;862680
0;60;1573555421243;1573555427694;6451;19378580584;42731562817;161209270;62211797;5543062089;130736011;136225696;1099;7267;827168;-70;6479;495266
0;61;1573555427724;1573555435072;7348;19520944162;42731687294;165062585;63942188;5543080064;134639513;135825242;1626;9229;944552;83;7379;532741
0;62;1573555435110;1573555441913;6803;19494422386;42731671742;167028783;63759318;5543082001;132336948;137264778;1610;5581;568184;-10;6840;973195
0;63;1573555441944;1573555453626;11682;19588911542;42731983928;167271405;64149549;5543155226;135142642;136640196;2017;14455;1393600;2;11714;1670054
0;64;1573555453659;1573555460835;7176;19543184050;42731831755;157794305;63942314;5543098547;134450669;134572213;1109;11443;1117568;11;7208;1031513
0;65;1573555460889;1573555468503;7614;19558994974;42731448047;160640633;64221863;5543034132;135037645;134658704;1624;11096;1166664;-2;7669;1225236
0;66;1573555468533;1573555474744;6211;19420725528;42731612582;156058674;63365503;5543058471;130622975;133363505;1455;4456;517824;-15;6241;883952
0;67;1573555474797;1573555481870;7073;19519851498;42731534370;166273176;63809548;5543057345;133200716;136816064;1261;7959;772528;1;7126;1021174
0;68;1573555481900;1573555488105;6205;19407323312;42731347671;158537459;63379853;5543019445;131582755;135288595;989;8951;808336;8;6235;887230
0;69;1573555488134;1573555499981;11847;19513816734;42731331079;155781217;63583959;5543010152;134405559;133405662;2239;17215;1750824;-8;11876;1871320
0;70;1573555500010;1573555507190;7180;19484007184;42731387762;162169767;63632035;5543027380;132862198;134332535;1463;6436;788376;9;7209;1027093
0;71;1573555507235;1573555513710;6475;19392419486;42731245324;148554115;62643024;5542989488;132174207;132674288;1309;7269;661040;3;6519;930076
0;72;1573555513742;1573555520646;6904;19530670244;42731367086;154438670;63510230;5543010977;134850827;131722247;1086;8891;861976;2;6937;986004
0;73;1573555520677;1573555527980;7303;19569161976;42731338684;158291698;64343118;5543012280;135434864;134659673;1157;10455;1002824;7;7334;1050464
0;74;1573555528413;1573555535076;6663;19473954354;42731332499;161562899;63651270;5543018906;133215348;135704500;1616;8752;982824;-21;7095;1109331
0;75;1573555535107;1573555551733;16626;19514517534;42731594200;180764182;64587204;5543098877;132237935;140470047;3257;18286;1811824;7;16657;2381763
0;76;1573555551782;1573555558215;6433;19400307282;42731316119;151817115;61978625;5543005872;130822410;134793429;1024;10244;973440;0;6483;923836
0;77;1573555558244;1573555564683;6439;19385876058;42731251357;163221892;62392294;5543016679;131000114;135576789;1774;4672;663696;3;6355;762569
0;78;1573555564716;1573555571691;6975;19508147992;42731299484;170333080;63595479;5543028858;131840159;140771545;1427;6809;676336;13;7008;1002594
0;79;1573555571723;1573555577948;6225;19327662938;42731152913;149233109;62009926;5542977993;131385764;132031814;1149;7128;791744;-124;6256;545566
0;80;1573555578009;1573555585988;7979;19637343976;42731534292;181183684;64716722;5543077371;135267177;139406507;1528;10760;1105456;-8;8040;560351
0;81;1573555586019;1573555593231;7212;19504300162;42731059522;166171982;63923015;5542982298;133128696;136879265;3381;7186;861184;118;6700;428801
0;82;1573555593288;1573555601093;7805;19574550106;42731237710;165523678;64901596;5543006402;135126457;135119812;1779;6626;701416;13;7861;1123821
0;83;1573555601124;1573555608065;6941;19502486696;42730966616;154697411;63610966;5542947159;134145715;134649194;1199;8333;820680;-15;6972;998322
0;84;1573555608121;1573555615021;6900;19568798728;42731106836;161226743;63846982;5542987078;134509606;135996797;1087;10252;991280;1;6955;987473
0;85;1573555615069;1573555625664;10595;19410753582;42731334661;156190872;63309282;5543021171;131880778;133144203;2144;15784;1585192;7;10643;1604213
0;86;1573555625693;1573555632243;6550;19413604378;42731042023;158719818;63476541;5542971072;131344954;135159031;1537;5495;621616;-1;6580;943536
0;87;1573555632275;1573555638815;6540;19433399496;42730905481;160686196;63407140;5542950238;131906777;134226115;1254;6532;675448;-3;6572;939250
0;88;1573555638845;1573555645810;6965;19559157034;42730887785;172948616;63798937;5542960475;133483036;139810448;1114;9402;884024;10;6994;995388
0;89;1573555645846;1573555652499;6653;19518154248;42730879321;154532920;63497882;5542931469;134974408;132404615;1015;9529;956048;-15;6690;958639
0;90;1573555652529;1573555659437;6908;19531020206;42730911845;170582585;63753164;5542961651;133599243;136354360;1502;9598;994648;-4;6937;1107808
0;91;1573555659483;1573555672501;13018;19426336454;42731007798;155421023;63242954;5542958895;131854474;135658684;2770;12348;1292872;14;13064;1872155
0;92;1573555672554;1573555679296;6742;19421077388;42730905966;157307001;63412971;5542945310;131481454;134023329;1063;9003;851376;-2;6796;969307
0;93;1573555679342;1573555686055;6713;19437002046;42731062613;160401285;63680795;5542976682;131320082;135815343;1169;9506;921728;154;6759;1024755
1;45;1573556187337;1573556193549;6212;19007138188;42652110224;147043940;62250182;5554552843;125001495;132548483;1436;4638;599240;-11;6241;873820
1;46;1573556193591;1573556200696;7105;19106906996;42652009156;160406128;63791213;5554546902;126793848;134460540;1305;8307;762496;7;7148;1016634
1;47;1573556200740;1573556210604;9864;19136214890;42652093340;151387146;63377799;5554551706;127878636;132268230;1527;13214;1328440;-20;9908;1407449
1;48;1573556210637;1573556217853;7216;19150058464;42652156358;171344382;63777572;5554591010;127048062;138538798;1541;10398;978256;4;7249;1144059
1;49;1573556217895;1573556224704;6809;19180248782;42652394469;154201596;63564233;5554613466;129048550;136414143;1535;6154;738872;1;6851;975540
1;50;1573556224760;1573556231832;7072;19158014442;42652116507;153845720;63749382;5554560307;128825676;133911549;1410;7768;758600;-2;7127;1017881
1;51;1573556231879;1573556238803;6924;19124810538;42651653606;155619749;63732010;5554485312;127904945;134012078;1089;9062;891832;-1;6972;992198
1;52;1573556238858;1573556245661;6803;19125776182;42651534029;159777356;63685498;5554474156;127445374;134824569;1042;10761;986248;14;6857;976579
1;53;1573556245720;1573556255969;10249;19068623752;42651634784;150635384;63193336;5554484565;126007995;132766900;2416;11115;1255600;14;10308;1579971
1;54;1573556256007;1573556262697;6690;19047786486;42651334744;150526544;62701273;5554427581;126136908;132245765;1324;6545;662160;-12;6728;962959
1;55;1573556262727;1573556269297;6570;19022421614;42651520471;146239228;63172291;5554463887;126473265;132091087;1033;8196;825936;-8;6601;934974
1;56;1573556269342;1573556276170;6828;19132242668;42651663810;154287960;63679168;5554502924;128321726;133506068;1046;9606;913504;11;6873;977750
1;57;1573556276215;1573556283703;7488;19227175080;42651534923;165358332;64253340;5554494352;130044666;136614241;1662;10989;1060560;8;7533;1220747
1;58;1573556283771;1573556290435;6664;19061516618;42651444923;150655652;63343883;5554458703;126899747;132907582;1552;4796;641976;-16;6732;958523
1;59;1573556290492;1573556303577;13085;19127653158;42651463893;154025703;62949293;5554462830;128255094;135901382;2593;13867;1519360;-76;13142;1459796
1;60;1573556303607;1573556310473;6866;19132542114;42651479182;163060380;64038806;5554481044;127236614;136296596;1296;9365;933632;-8;6896;275072
1;61;1573556310503;1573556316670;6167;19095186554;42651378684;151266947;63105543;5554450868;126438783;133509305;1713;5393;576992;91;6197;918376
1;62;1573556316702;1573556323835;7133;19154710462;42651554046;165323129;63963956;5554503766;127999090;135888192;1364;7575;711728;-20;7165;1028217
1;63;1573556323882;1573556331417;7535;19183019132;42651789792;160897613;64254679;5554555255;129870203;132839479;1203;10431;983720;13;7581;1079390
1;64;1573556331469;1573556338428;6959;19277165772;42652053407;169529276;64122573;5554593749;130140371;137387271;1047;11367;1076864;9;7012;997836
1;65;1573556338459;1573556347865;9406;19279999778;42651205804;165170053;64226997;5554435330;131268323;134435261;2071;11974;1327616;0;9436;1445038
1;66;1573556347914;1573556354604;6690;19128274534;42651424219;168655211;63847758;5554487754;127475141;137823491;1466;6352;622600;-23;6740;961911
1;67;1573556354639;1573556361349;6710;19102162434;42651359889;151607310;63631988;5554450391;127659100;132518261;1092;8894;849336;28;6745;964049
1;68;1573556361383;1573556368763;7380;19282260880;42651283704;193018710;64339881;5554492823;129304330;143524754;1142;10458;1013504;-22;7414;1057304
1;69;1573556368817;1573556374924;6107;18969911254;42651426810;141197228;60768486;5554458709;125486285;131169516;1307;8120;870864;-3;6161;990391
1;70;1573556374954;1573556382085;7131;19118189438;42651186210;154388792;63450031;5554424529;127953534;134221932;1714;5254;677896;5;7160;853846
1;71;1573556382116;1573556391775;9659;19071324898;42651184791;160658328;63623826;5554437937;126344392;135536232;1730;11900;1125632;-1;9691;1384120
1;72;1573556391805;1573556397897;6092;19049578782;42651081206;149527261;63032944;5554401045;126331968;132183419;930;8556;839336;8;6121;873050
1;73;1573556397948;1573556405081;7133;19119684478;42651069278;147384879;63427345;5554398594;128000075;132333314;1067;10849;1113024;-71;7185;948507
1;74;1573556405217;1573556411968;6751;19113843748;42651091183;157275685;64030502;5554412832;127460498;134559468;1940;5713;619976;69;6887;1024038
1;75;1573556411999;1573556419573;7574;19069687508;42651192318;150937327;62679528;5554426715;126795968;132913164;1419;8125;790912;-11;7605;1080043
1;76;1573556419603;1573556425960;6357;19043980558;42651173695;152381475;63262392;5554427177;126362461;132464513;1134;7794;822736;-28;6387;599052
1;77;1573556425990;1573556435426;9436;19136431116;42651175373;163813803;64232406;5554441399;127177400;135424861;1606;11051;1019016;37;9465;1229457
1;78;1573556435475;1573556441859;6384;19080194982;42651061931;156493074;63393729;5554412596;126668451;132712790;1557;7176;891312;11;6434;1016883
1;79;1573556441914;1573556449049;7135;19234529100;42650977246;176504772;64422528;5554415547;129109809;139216503;1596;6156;612496;4;7189;1029731
1;80;1573556449132;1573556456332;7200;19286333112;42651164716;160325425;63932123;5554430784;131904876;134142913;1219;8751;842824;-3;7284;1038914
1;81;1573556456362;1573556463396;7034;19122859394;42651040175;157926249;64011995;5554407985;127954135;134312824;1111;9870;972808;-14;7063;1010066
1;82;1573556463445;1573556470217;6772;19149408034;42651099514;158550578;63587889;5554418196;128345361;134128992;1390;10718;1000592;22;6822;1070047
1;83;1573556470252;1573556476960;6708;19104822554;42651099310;159095367;63516840;5554422925;127098198;134860335;1338;7290;855272;-25;6743;963623
1;84;1573556477014;1573556490069;13055;19130690834;42651065945;156889455;63456061;5554417229;127266449;134126003;2358;14625;1436392;10;13108;1874184
1;85;1573556490141;1573556497047;6906;19133587766;42650989307;154217547;63726990;5554396276;127838835;133012321;1065;9443;934672;-9;6979;990405
1;86;1573556497077;1573556503673;6596;19072327188;42651216433;155344668;63524568;5554439824;126676750;134028597;1477;9092;891592;-2;6626;1076173
1;87;1573556503742;1573556510335;6593;19078097400;42650892599;152529492;63531576;5554375574;125905680;133649523;1437;6815;780752;4;6662;953439
1;88;1573556510392;1573556517303;6911;19089587600;42651098020;148199085;63362692;5554404798;127405530;132629890;1404;7188;691384;5;6968;995689
1;89;1573556517334;1573556523938;6604;19153308862;42650882677;150832005;63297205;5554371127;128751107;131912823;1054;8046;848056;2;6634;944535
1;90;1573556523970;1573556535162;11192;19105205658;42650824688;148414527;62833687;5554361448;127560675;133064096;2169;15730;1484016;-8;11225;1698778
1;91;1573556535194;1573556541668;6474;19103217284;42650863343;152615461;63099250;5554370746;128080673;132333822;1389;6881;798840;20;6506;927781
1;92;1573556541719;1573556548290;6571;19183261346;42650769277;153454758;63061837;5554352987;128375313;132662086;1325;6184;657824;-13;6622;948287
1;93;1573556548319;1573556554600;6281;19084883918;42650991605;146566640;62948279;5554393180;127178292;132137189;1033;7537;751304;-9;6310;894006
1;94;1573556554641;1573556560205;5564;18924840032;42650853152;142011259;60369518;5554361965;123874155;131351345;860;7800;827368;-75;5604;776027
2;45;1573557047692;1573557059013;11321;19072397852;42739942023;149983569;62992295;5495783201;123951206;133313251;2449;13816;1475472;-3;11350;1684880
2;46;1573557059055;1573557065316;6261;19049794716;42739921574;146850843;62405066;5495777438;123599667;133853273;1260;5892;633208;20;6303;905966
2;47;1573557065358;1573557072040;6682;19168321750;42739851323;152665005;63410242;5495766827;126930927;132120642;1132;8899;818440;-12;6724;956772
2;48;1573557072069;1573557078842;6773;19256959810;42739780973;160853788;63562470;5495763116;127542516;134856133;1065;9401;909752;-7;6801;971019
2;49;1573557078871;1573557085762;6891;19145261196;42740143071;160339211;63592425;5495838042;126363127;133528957;1469;10589;980712;16;6921;1101715
2;50;1573557085791;1573557092187;6396;19125698656;42739767504;154798334;63420693;5495756981;124610626;133557597;1480;4840;676968;-8;6425;919876
2;51;1573557092218;1573557098415;6197;19051826890;42739357498;148568091;62725313;5495683596;124026175;132374079;1174;6648;636464;10;6228;888941
2;52;1573557104681;1573557112293;7612;19289474448;42739232279;167883980;64192333;5495689690;128699666;136650009;2219;19350;1887960;-3;13878;1981790
2;53;1573557112345;1573557118215;5870;19019510958;42739374689;148627962;60865689;5495693774;124248544;132834443;1358;7912;895648;-64;5922;940711
2;54;1573557118244;1573557125259;7015;19213524080;42739146073;155930186;63728659;5495659380;127389948;132882581;1797;5804;585824;68;7044;918950
2;55;1573557125318;1573557132277;6959;19150350172;42739206382;150046353;63610591;5495674034;126077374;132991677;1204;8071;810472;-17;7017;998568
2;56;1573557132313;1573557139211;6898;19118914474;42739247591;151786877;63833477;5495679534;125589008;132144267;1051;9271;894224;5;6934;985463
2;57;1573557139244;1573557149762;10518;19105148864;42739331912;153258938;63035978;5495701845;125429839;134090295;2037;12915;1393928;-6;10551;1549970
2;58;1573557149792;1573557157099;7307;19219587168;42739375369;168519525;64346655;5495729346;126602938;137697260;1696;6211;638120;0;7338;1052288
2;59;1573557157161;1573557163426;6265;19052911232;42739146355;150439728;61697233;5495669130;124565914;131819163;1037;6577;771512;-98;6326;842920
2;60;1573557163479;1573557170479;7000;19109271320;42739135815;156451100;63868436;5495679535;125392982;133187717;1512;8884;932824;-30;7053;283180
2;61;1573557170534;1573557177374;6840;19194922804;42739152011;156394755;63652979;5495676228;126823491;133799102;2918;7338;814432;121;6585;325285
2;62;1573557177429;1573557183706;6277;19089850254;42739211626;149971992;63429226;5495683168;124092200;133190882;1453;5337;554904;19;6331;908857
2;63;1573557183739;1573557190650;6911;19175442608;42739546129;174430272;63953393;5495794413;125317107;139350837;1334;7849;771800;10;6945;991974
2;64;1573557194496;1573557200992;6496;19116704180;42739572628;147952399;63587731;5495746508;124966654;133886938;1522;14948;1389168;-17;10341;1476603
2;65;1573557201022;1573557207358;6336;19106349714;42738995989;151692384;62783197;5495647756;124834239;133266927;1111;10251;1024000;134;6367;919216
2;66;1573557207390;1573557214068;6678;19104552308;42739140502;147380626;63056829;5495667509;124153006;134712064;1772;4829;645984;-123;6702;836787
2;67;1573557214099;1573557220963;6864;19117900796;42739021124;153728681;63716497;5495651265;125688951;132280324;1356;6792;714952;-12;6895;981551
2;68;1573557221021;1573557227772;6751;19205802870;42739007790;163325423;63673602;5495665662;126687983;136387229;1072;9406;881936;-11;6809;970108
2;69;1573557227802;1573557234157;6355;19110231124;42739108340;152665163;63506748;5495668776;124801402;132538882;898;9332;875144;-1;6384;911590
2;70;1573557234214;1573557243737;9523;19195539508;42739016345;167901832;63966361;5495673914;126314744;135882615;2115;11844;1323408;25;9581;1483870
2;71;1573557243775;1573557250739;6964;19205179742;42738970242;158106086;63659689;5495648136;128023789;133025809;1524;6660;672072;-20;7003;1001477
2;72;1573557250787;1573557257994;7207;19210350624;42739041021;162678298;64058350;5495670183;127393867;134743981;1265;9122;853104;-5;7254;1035289
2;73;1573557258037;1573557264309;6272;19107585166;42738809830;151187258;63498006;5495617741;124479766;132591282;945;9345;869160;15;6315;905687
2;74;1573557264339;1573557271398;7059;19130649224;42738912031;153791333;62927806;5495634012;126658893;133097090;1406;10017;944432;16;7089;1096067
2;75;1573557271433;1573557278941;7508;19186134626;42739042299;153739336;64108976;5495659228;126590844;135485996;1648;7637;910488;-16;7542;1077337
2;76;1573557278977;1573557292269;13292;19068396722;42739032497;151706591;62377555;5495658688;124252771;133530251;2445;12612;1287304;11;13328;1911062
2;77;1573557292329;1573557298780;6451;19101428930;42738826668;156584760;63491193;5495626974;124610924;134790147;976;9293;906152;-15;6511;926455
2;78;1573557298829;1573557305600;6771;19271966274;42738770368;157559005;63665462;5495614119;127820638;136220191;1457;9960;937704;20;6821;1116820
2;79;1573557305642;1573557312173;6531;19120623696;42738798063;150545401;63282994;5495615513;125552469;134880735;1377;4496;626672;-1;6572;937004
2;80;1573557312218;1573557318649;6431;19108199680;42738819251;148864185;63116881;5495614765;125443491;131173133;1349;6605;655296;1;6477;927442
2;81;1573557318682;1573557324688;6006;19047054150;42738739337;151146086;62773124;5495607279;123440180;135924829;972;8064;780096;-12;6039;859078
2;82;1573557324744;1573557336567;11823;19132032428;42738774324;148658845;63388435;5495610599;125757952;133587388;2223;17954;1709056;0;11879;1782103
2;83;1573557336607;1573557343528;6921;19124779148;42738789828;155148567;63712426;5495616689;125924791;132534774;1541;6365;776512;-2;6960;993119
2;84;1573557343562;1573557349861;6299;19109410166;42738885233;152859313;63063164;5495633750;125387812;133189497;1236;6507;656288;12;6333;900854
2;85;1573557349918;1573557356466;6548;19113177258;42739051641;150056495;63468765;5495663769;126280672;132404170;1073;8379;829616;-17;6605;948075
2;86;1573557356496;1573557363320;6824;19199155052;42738973640;156441766;63885670;5495647628;127856048;132676629;1102;10013;936584;19;6855;982763
2;87;1573557363351;1573557369887;6536;19081851206;42738705070;150568206;63615715;5495596429;124635513;134549978;1385;9602;958672;-20;6566;1029859
2;88;1573557369930;1573557383561;13631;19086811556;42739120274;151678672;63498383;5495666869;124952461;132732581;2807;12290;1404712;9;13675;1953080
2;89;1573557383594;1573557390439;6845;19151430426;42738618715;161538432;63492923;5495600067;125961012;136649498;1132;9232;882104;-12;6877;979545
2;90;1573557390471;1573557397236;6765;19152600616;42738493139;155047252;63193694;5495560750;126394464;134026534;1353;9802;928248;157;6801;1050022
2;91;1573557397298;1573557404578;7280;19267165794;42738608161;160661546;64018060;5495597140;128849778;135045220;1496;8452;968408;-148;7339;1073542
2;92;1573557404619;1573557410886;6267;19059045130;42738507715;151049014;62974389;5495569251;123813523;133313212;1395;5827;600680;13;6308;901830
2;93;1573557410928;1573557417391;6463;19124283478;42738644166;155516320;62986042;5495602772;125126805;134973504;1116;8029;793816;-26;6505;932062
2;94;1573557417437;1573557430138;12701;19267034102;42738731584;164110963;64214398;5495615861;128479810;135369338;2540;17650;1713992;7;12747;1951217
3;42;1573557925362;1573557932374;7012;19762896822;43391897115;157563121;63475279;5404135905;130594074;132447219;1070;10182;987800;-11;7042;1004015
3;43;1573557932419;1573557938999;6580;19718603196;43391527212;151219783;63517173;5404063841;129218834;130755806;1635;8661;924944;-3;6626;1091827
3;44;1573557939061;1573557946160;7099;19783633202;43391493326;152271530;63637891;5404053101;132374789;130193008;1625;5485;627760;7;7161;1032156
3;45;1573557946190;1573557958399;12209;19713291424;43391564862;149224247;63375491;5404066908;130210170;131217520;2061;15662;1488032;20;12239;1740990
3;46;1573557958429;1573557965174;6745;19738397292;43391513272;148781410;63493870;5404058028;129929736;129635200;1026;10074;973280;-1;6774;966036
3;47;1573557965214;1573557972750;7536;19914609948;43391466277;174104507;64146151;5404081309;132097546;137323199;1687;10366;1182304;-12;7577;1179951
3;48;1573557972784;1573557979681;6897;19714142750;43391498056;153195978;63373221;5404061346;128976756;132534959;1591;5952;591320;9;6931;988602
3;49;1573557979711;1573557985444;5733;19571696536;43391542468;147200687;60083221;5404065910;126672572;131164477;1021;5896;682760;-124;5763;782750
3;50;1573557985498;1573557992725;7227;19827437728;43391428669;175036106;64133011;5404080422;130396730;138572362;1369;9489;943128;27;7280;454114
3;51;1573557992757;1573558000629;7872;19839207226;43391009328;161922159;64137906;5403987459;132402130;132973553;2488;9247;935688;86;7905;389053
3;52;1573558000659;1573558007925;7266;19801552658;43391058305;154221980;63912612;5403990137;131922809;130086440;1696;5760;669480;0;7296;1042511
3;53;1573558007976;1573558013887;5911;19590177216;43390867282;144381534;60932429;5403953067;127362509;129880059;1097;6419;620424;-9;5962;852437
3;54;1573558013930;1573558020982;7052;19669758458;43390909361;148645142;63703874;5403970910;128359576;130264689;1232;8935;914424;3;7095;749113
3;55;1573558021029;1573558028401;7372;19801999418;43390852479;155980630;63905800;5403972969;131788131;132854796;1457;9602;1061088;-118;7339;495458
3;56;1573558028433;1573558035417;6984;19748051542;43390932163;167511923;64131092;5404008118;129095400;137171942;2368;7243;788032;111;6887;674451
3;57;1573558035447;1573558041833;6386;19664045040;43391072777;157725440;63546501;5404014660;128080097;132916356;1343;6060;610976;1;6416;917574
3;58;1573558041879;1573558049089;7210;19796850728;43391025684;176482047;64278911;5404033258;129477686;139345913;1242;9288;874584;6;7255;1038556
3;59;1573558049153;1573558056187;7034;19728512946;43390892588;160185551;64050191;5403989012;129219352;132269349;1058;10105;967088;0;7098;1010726
3;60;1573558059996;1573558067205;7209;19792585630;43390892728;158421945;63698778;5403992513;131065374;133357156;2099;16850;1690704;13;11019;1705460
3;61;1573558067237;1573558074593;7356;19804356588;43390920053;158430498;64004571;5403990600;131533032;132030944;1713;5457;681312;-17;7388;1056539
3;62;1573558074623;1573558081857;7234;19816505102;43390832263;155048915;63792297;5403972499;131870900;131585199;1241;8689;809432;7;7264;1034742
3;63;1573558081954;1573558089261;7307;19824304130;43391355612;156417778;64082528;5404087541;131550081;131912265;1128;10362;1015216;-8;7404;1048465
3;64;1573558089306;1573558096653;7347;19825444244;43391022818;165724635;63961640;5404022902;130959169;135201385;1458;10737;998256;8;7392;1180928
3;65;1573558096694;1573558110358;13664;19770482982;43390746993;161357555;63456182;5403964069;130396915;133941187;2747;14276;1500176;5;13704;1967741
3;66;1573558110403;1573558117510;7107;19757912820;43390812753;150889497;63674193;5403962456;130996179;129997960;1131;8991;918352;-11;7153;1018971
3;67;1573558117542;1573558123968;6426;19756522316;43390875839;159010797;63404603;5403987930;129087951;135386626;991;9069;893936;1;6458;919946
3;68;1573558124028;1573558131178;7150;19789680960;43390964436;161032682;64052967;5404006878;130324315;133188055;1559;11263;1091104;3;7210;1154759
3;69;1573558131254;1573558138275;7021;19732421512;43390571766;151201897;63605931;5403928539;129260070;132102662;1584;5101;670176;16;7097;1007184
3;70;1573558138305;1573558145497;7192;19805918204;43390768674;154264628;63390676;5403960215;132194443;131523599;1328;8217;796424;-16;7222;1029480
3;71;1573558145548;1573558158698;13150;19686271788;43390557323;151894648;63688500;5403929246;128018335;131213249;2465;17633;1710264;15;13200;2027880
3;72;1573558158728;1573558165357;6629;19684784778;43390690122;155276717;63306599;5403959374;128653207;132492382;1179;8634;961424;161;6659;970887
3;73;1573558165409;1573558172419;7010;19718332950;43390475743;153077546;63079898;5403910168;129628072;130395093;1722;3608;458536;-157;7063;1168221
3;74;1573558172449;1573558179165;6716;19751968576;43390565312;157311227;62540752;5403932556;130071120;132681542;1267;6986;623592;-11;6746;966163
3;75;1573558179219;1573558186430;7211;19719272022;43390812180;156540999;63975475;5403976286;129874823;132906788;1139;9248;935744;-18;7265;1038301
3;76;1573558186464;1573558193618;7154;19844426580;43390665316;166172159;64270759;5403964206;131330224;135641959;1166;10940;1027208;18;7188;1023172
3;77;1573558193665;1573558204589;10924;19799355504;43390552062;156309336;63893841;5403931475;131154463;132469011;2151;16246;1680952;9;10970;1650708
3;78;1573558204620;1573558211329;6709;19712595004;43390490846;149434946;63549514;5403909736;129672374;132850377;1743;4788;589104;-10;6741;971644
3;79;1573558211362;1573558217680;6318;19671634120;43390533040;147709025;62947226;5403917530;128588957;130221675;1198;7347;676816;-14;6351;907640
3;80;1573558217710;1573558225129;7419;19770422246;43390559209;162038660;64049671;5403939634;130704789;133461510;1173;9765;947608;11;7449;1062272
3;81;1573558225175;1573558231403;6228;19670787320;43390419792;146565848;63049409;5403901108;127510400;130434886;1220;8788;861304;133;6274;987104
3;82;1573558231433;1573558238211;6778;19705480278;43390399635;161096609;63516430;5403911381;129176769;132613244;1358;8311;963928;-142;6808;992867
3;83;1573558238244;1573558251935;13691;19769896938;43390439074;156143320;63564973;5403907533;130502752;130232364;2950;13763;1399696;-4;13723;1966853
3;84;1573558251989;1573558258442;6453;19662789148;43390482970;148191351;63346691;5403915071;128240608;131453732;1101;9490;909536;19;6508;927105
3;85;1573558258474;1573558264723;6249;19601221678;43390839375;145889204;63684083;5403979921;127265882;129886824;1376;8414;813608;10;6280;1014053
3;86;1573558264789;1573558271378;6589;19634766784;43390449216;146185696;63538556;5403902692;127872780;130378435;1488;6996;816096;-16;6656;950429
3;87;1573558271427;1573558277779;6352;19613870534;43390309707;147726971;62609252;5403876669;127985852;131836225;1321;5723;611600;-9;6401;915672
3;88;1573558277821;1573558284853;7032;19792277278;43390387811;159547349;63738113;5403908144;129805319;132794904;1185;9167;898720;-1;7074;1008832
3;89;1573558284910;1573558297140;12230;19783449972;43390432251;153822215;63584317;5403907134;131144593;132472389;2457;17753;1713144;1;12286;1889808
3;90;1573558297196;1573558304308;7112;19719084266;43390270291;150852454;63744517;5403874414;129517452;130840840;1485;7052;805336;21;7168;1014463
3;91;1573558304339;1573558311336;6997;19759706868;43390386701;155257200;62936813;5403897578;129724918;130499177;1451;6536;668680;-11;7029;1014488
4;43;1573558811279;1573558818248;6969;19241008872;42665920524;163115473;63878564;5558036325;129018457;137117727;1470;9592;925552;30;7019;1112847
4;44;1573558818278;1573558824890;6612;19132561094;42665495911;167858503;63502754;5557973787;125692548;138109583;1261;8416;935232;-6;6642;945714
4;45;1573558824935;1573558839965;15030;19314758728;42665572175;187732481;64253101;5558012972;128126899;143567225;2942;15844;1597992;3;15075;2154918
4;46;1573558840000;1573558846807;6807;19177481206;42665564728;162837649;63323738;5557977923;127692305;137733077;1116;9273;941856;-28;6843;980580
4;47;1573558846854;1573558854133;7279;19292549062;42665478976;159341022;63959104;5557951798;130785302;134787109;1697;9022;982912;16;7326;1160882
4;48;1573558854190;1573558860930;6740;19154692358;42665463905;164649210;63125444;5557965865;125940715;138210802;1635;5938;581168;-2;6796;975502
4;49;1573558860962;1573558867555;6593;19223467848;42665583674;183816954;63535174;5558007748;126876804;142837335;1190;7507;778016;-6;6625;942878
4;50;1573558867584;1573558874172;6588;19126379162;42665518211;156640714;63100638;5557962330;126297098;137032694;1065;9000;888136;-9;6617;942662
4;51;1573558874233;1573558885636;11403;19160259484;42665263573;156260529;63316307;5557921651;126935228;134951015;2248;17643;1736424;17;11464;1737238
4;52;1573558885693;1573558892587;6894;19137123302;42664850825;153953044;63567754;5557855024;127060113;134272723;1699;5525;612984;0;6951;991791
4;53;1573558892626;1573558898311;5685;18998125024;42665178078;149282129;61672088;5557912162;124409756;134306525;1024;6488;669944;0;5724;816523
4;54;1573558898358;1573558905558;7200;19223942640;42664749795;165760973;63731724;5557854169;127529959;138450140;1152;9238;909320;0;7247;1030171
4;55;1573558905635;1573558912602;6967;19267574594;42664911922;168964084;63771204;5557896232;128888458;138694713;1258;9753;969720;129;7044;1029324
4;56;1573558912633;1573558919457;6824;19237089356;42664840548;164489582;63625043;5557872520;129139528;138108889;1589;8307;939584;-144;6855;1026007
4;57;1573558919514;1573558933275;13761;19123011234;42665264956;156846012;63361426;5557942899;126343699;135201547;2767;14812;1417376;17;13818;1968768
4;58;1573558933318;1573558939758;6440;19134661304;42664743287;158815776;63317845;5557856284;125481182;136521438;1037;9081;903472;-13;6483;925122
4;59;1573558939839;1573558946310;6471;19150774448;42664744776;154696354;62968643;5557851522;127117121;137671416;1335;8376;844312;22;6552;1014893
4;60;1573558946354;1573558953246;6892;19205144410;42664695719;159398306;63451858;5557846136;129015650;136263718;1546;7309;824384;-9;6936;984571
4;61;1573558953276;1573558959348;6072;19089851422;42664841569;149630832;62746167;5557869729;126328912;133692874;1297;5542;568160;-17;6102;870816
4;62;1573558959384;1573558965909;6525;19085650564;42664878033;152038050;62977890;5557876187;126409991;135291139;1115;8469;820896;5;6561;935753
4;63;1573558965965;1573558978343;12378;19128359068;42665156225;166420100;63847127;5557956922;125996087;137538405;2895;13959;1590656;4;12434;1318488
4;64;1573558978389;1573558985325;6936;19210626856;42665225745;172039845;63927326;5557958266;128321169;139592040;1519;6313;638112;-13;6982;994781
4;65;1573558985374;1573558992442;7068;19263649530;42664685768;179974858;63950300;5557875180;128383808;141677409;1232;9428;876680;16;7117;1013382
4;66;1573558992473;1573558999315;6842;19166708742;42664767703;170218304;63760017;5557877574;126459543;138243069;1087;10026;934384;3;6873;980016
4;67;1573558999347;1573559006251;6904;19236980440;42664773309;172247673;63887136;5557882460;127696955;140138998;1069;11574;1131560;-8;6936;988838
4;68;1573559006304;1573559012966;6662;19157470738;42664740081;165003480;63548415;5557868927;126961093;138100765;1877;6439;797336;-8;6716;1075707
4;69;1573559017091;1573559023607;6516;19100359918;42664635946;160305191;63496927;5557846235;126142375;134466559;2049;10792;1090984;-1;10640;1518665
4;70;1573559023666;1573559030198;6532;19094466482;42664494121;155722668;62953990;5557818382;125583433;135911820;1266;8534;796408;62;6591;1110021
4;71;1573559030261;1573559036694;6433;19199030806;42664545121;157709589;63571884;5557824057;128375617;137087652;1135;6701;718984;-41;6496;940025
4;72;1573559036726;1573559043482;6756;19153604658;42664722797;155521550;62439293;5557851065;127741343;133944394;1519;4590;586264;-17;6789;974760
4;73;1573559043521;1573559050268;6747;19169058758;42664476255;154985435;62912630;5557808564;127754327;134422562;1273;7444;712480;8;6785;973262
4;74;1573559050304;1573559056708;6404;19200798428;42664496487;159433957;63194258;5557820975;125724241;137968889;1011;9231;848328;13;6440;919670
4;75;1573559056757;1573559069221;12464;19304592164;42664830411;162135030;64415120;5557876938;130389046;135749834;2682;13552;1565624;4;12513;1892600
4;76;1573559069297;1573559075544;6247;19084813400;42664479351;152250328;62428457;5557805186;125739007;135599064;1339;6877;608096;-27;6323;904942
4;77;1573559075574;1573559082093;6519;19106145460;42664511746;160277122;63154247;5557823897;125545212;136589164;995;8387;851888;-3;6550;933467
4;78;1573559082141;1573559088864;6723;19199595534;42664344552;172715338;63489706;5557808051;126633294;140779080;1102;9724;925088;19;6770;967117
4;79;1573559088895;1573559095557;6662;19175013806;42664469542;162188955;63162493;5557816360;126591881;138545389;1440;8660;973352;-16;6693;1014531
4;80;1573559095588;1573559102455;6867;19230722442;42664364312;179814305;63660033;5557821213;126926579;139911124;1680;5497;606768;16;6898;982797
4;81;1573559102516;1573559114805;12289;19105726294;42664428713;157740722;62917949;5557804495;125938161;136974697;2366;14482;1512480;-97;12350;1505820
4;82;1573559114854;1573559122170;7316;19226203304;42664421164;167525326;64236883;5557813250;128439594;137112234;1747;9911;985440;169;7331;368045
4;83;1573559122208;1573559128858;6650;19115024304;42664322600;151770097;63540681;5557781760;125708613;134759039;1667;4903;608256;-61;6688;964261
4;84;1573559128888;1573559135335;6447;19085132118;42664613371;151613666;63232772;5557833010;125199462;134098557;1304;7300;699688;-24;6477;922212
4;85;1573559135380;1573559142839;7459;19231647060;42664584859;185924156;64291588;5557874854;126768838;143748107;1203;10111;951088;15;7504;1069359
4;86;1573559142869;1573559149177;6308;19081087480;42664433719;151647993;63466133;5557797998;124646648;133871709;897;9711;901392;-1;6338;905607
4;87;1573559149231;1573559159031;9800;19124887626;42664301683;153342445;63443636;5557781009;125480827;137448392;2117;12998;1474720;5;9854;1467339
4;88;1573559159062;1573559166058;6996;19200796968;42664491989;162720604;63552123;5557820978;127393057;136439918;1575;6407;613512;-7;7027;999782
4;89;1573559166105;1573559173101;6996;19267646426;42664244392;159063706;63226218;5557773069;129818057;137124708;1158;9004;835432;-4;7043;1011459
4;90;1573559173132;1573559179850;6718;19131791674;42664188900;158375352;63413143;5557764741;126451667;136470421;1060;9418;940560;-4;6749;961454
4;91;1573559179882;1573559186213;6331;19113883752;42664200738;153428223;63158370;5557764159;125082882;140756890;1344;8659;836136;52;6363;1016497
4;92;1573559186249;1573559193221;6972;19257063324;42664226526;178209160;63790698;5557798614;127684681;144864308;1333;8833;981672;-48;7008;1004654
