0;52;1573568270374;1573568277070;6696;19599936878;42840885321;146805838;73753193;5557854421;131514606;131519575;333;0;650904;0;1490;2730
0;53;1573568277139;1573568284234;7095;19594850968;42840738513;148207751;73829258;5557830547;132099521;130510862;507;39;752872;3;2081;9645
0;54;1573568284297;1573568291443;7146;19596889128;42840698160;149716333;73714504;5557825318;131756027;132633006;362;0;704144;-3;1839;3302
0;55;1573568291482;1573568298363;6881;19610668900;42840777244;150354382;74586769;5557849181;132046386;132207887;388;0;745680;0;1861;3383
0;56;1573568298458;1573568305380;6922;19592331738;42840730428;149067935;73102415;5557839932;131975267;133402083;365;0;705064;3;1666;3105
0;57;1573568305418;1573568312598;7180;19589246174;42840957390;148351671;74192889;5557878801;131615041;130586338;379;0;738864;0;1724;3110
0;58;1573568312676;1573568320130;7454;19628106994;42840672421;150081677;75082929;5557828874;132101298;132725408;510;58;809216;-2;2367;7468
0;59;1573568320185;1573568327528;7343;19606909254;42840616805;146789427;72663371;5557820849;132377071;132550677;425;1;824112;-1;2016;3606
0;60;1573568327578;1573568334376;6798;19592515698;42840664526;146764942;74196689;5557832516;131687010;130409492;380;0;733032;0;1834;3347
0;61;1573568334425;1573568341066;6641;19589599640;42840856696;150160577;72701336;5557867236;132073983;130993297;344;0;664016;0;1661;3114
0;62;1573568341121;1573568348280;7159;19636681866;42840507633;148368980;74236092;5557806116;132017996;131131429;516;48;774408;1;2307;11492
0;63;1573568348324;1573568355331;7007;19613801038;42841241650;146848621;74382601;5557954398;131719620;129950067;367;1;717176;-1;1843;3323
0;64;1573568355374;1573568362506;7132;19629163012;42840723297;147997704;74073382;5557842386;132205396;131164606;390;0;746144;0;1801;3265
0;65;1573568362566;1573568369285;6719;19541854428;42840643366;147072379;72027879;5557827775;131786264;130227526;355;0;687016;0;1583;2885
0;66;1573568369339;1573568376641;7302;19614514102;42840512071;149388807;74811680;5557806140;131913745;131434192;520;59;775416;0;2178;8479
0;67;1573568376688;1573568383411;6723;19603848072;42840571194;148127152;73217731;5557817226;132050446;131536861;358;1;693336;0;1778;3161
0;68;1573568383483;1573568391024;7541;19603508768;42840701164;147770148;74559353;5557841119;131794420;131467148;410;0;791672;0;1902;3446
0;69;1573568391058;1573568397724;6666;19599212572;42840486442;145894720;73939665;5557802924;132176902;130186175;347;0;669880;0;1613;3007
0;70;1573568397776;1573568404791;7015;19602554658;42840427827;148767736;73030240;5557794728;131988386;130886677;371;0;716792;0;1651;3085
0;71;1573568404828;1573568411821;6993;19584191800;42840404371;148279563;74064685;5557789673;131699125;131232768;464;56;698584;0;2106;8214
0;72;1573568411891;1573568418638;6747;19606357374;42840463460;149770049;73580673;5557801934;131959207;131646703;362;0;699200;0;1699;3045
0;73;1573568418688;1573568425639;6951;19564617434;42840263898;145436591;73772654;5557764300;131656993;131535523;380;1;733048;0;1720;3078
0;74;1573568425699;1573568433360;7661;19625650544;42840346360;146731850;75160430;5557777979;132309025;130308749;423;0;816480;0;1910;3428
0;75;1573568433396;1573568440679;7283;19609122176;42840568460;147912132;73838110;5557818448;132116529;132090114;962;75;732000;6;4718;21391
0;76;1573568440748;1573568447198;6450;19585697498;42840440390;146732814;74089974;5557797985;131603054;131428501;393;4;688720;-1;2229;6041
0;77;1573568447262;1573568454368;7106;19596996000;42840241522;149408947;73568819;5557761299;132027366;132171521;392;1;734416;-5;1784;3341
0;78;1573568454419;1573568461508;7089;19576713680;42840299382;148051027;73298095;5557772299;132180011;129952911;385;1;728520;0;1686;3159
0;79;1573568461565;1573568468246;6681;19577467624;42840337322;146723788;74123128;5557779374;131662892;129869835;338;2;645120;0;1518;2822
0;80;1573568468319;1573568475281;6962;19555771586;42840301324;145983482;73256032;5557772936;131856730;129947520;491;59;672664;0;2114;14551
0;81;1573568475330;1573568482287;6957;19596795542;42840132839;148921194;73504384;5557744879;131724596;130173774;365;2;703680;0;1868;3416
0;82;1573568482334;1573568490162;7828;19641326710;42840212613;147448440;75429169;5557758805;132163069;130709721;552;7;887688;0;2348;7357
0;83;1573568490233;1573568497652;7419;19628604270;42840119523;150148256;74198924;5557744180;132360844;131288421;394;3;746112;0;1780;3376
0;84;1573568497702;1573568505070;7368;19601730488;42840292432;147158814;73940455;5557775417;131755345;130858072;524;68;771600;0;2254;9718
0;85;1573568505105;1573568511825;6720;19623438206;42840801095;149384001;73839228;5557868313;132034596;131639997;360;7;681232;3;1794;3266
0;86;1573568511888;1573568519109;7221;19638833322;42840330843;149108946;73145018;5557780446;132102959;132152476;403;3;752024;-3;1908;3627
0;87;1573568519149;1573568526155;7006;19624864188;42840146060;146391645;74614394;5557747414;131717690;129142353;380;0;721272;0;1716;3140
0;88;1573568526232;1573568533709;7477;19620009250;42840027894;148197961;74225940;5557726883;132332130;130590047;528;48;782064;0;2165;8567
0;89;1573568533755;1573568541009;7254;19583004090;42840137467;147868840;72847036;5557745393;131881034;129781136;387;5;727600;0;1894;3438
0;90;1573568541043;1573568547300;6257;19623220958;42840141647;148326627;73862244;5557746737;131969514;130680348;335;8;634264;3;1609;2982
0;91;1573568547353;1573568554289;6936;19614408836;42840145530;146978832;72796869;5557747575;132025788;129893864;388;6;726752;-2;1684;3235
0;92;1573568554335;1573568561598;7263;19645414710;42840040949;146763577;73717430;5557728819;131700795;131334729;355;2;658616;-1;1544;2942
0;93;1573568561631;1573568568627;6996;19619205520;42840262547;147399853;74235517;5557770583;132000239;131285500;503;64;752552;0;2102;7178
0;94;1573568568678;1573568575804;7126;19573007908;42840253361;147130431;73133256;5557767503;131959018;130563192;394;10;730792;2;1892;3467
0;95;1573568575847;1573568583296;7449;19653399158;42840209697;147861827;75831068;5557761900;131886162;132222288;436;3;818712;-2;1856;3370
0;96;1573568583361;1573568589932;6571;19631786924;42840121543;147210788;73483817;5557743655;132030242;130462718;353;7;652360;3;1587;3049
0;97;1573568590003;1573568597046;7043;19633740696;42840019993;147121512;73460210;5557726010;131679892;130114786;481;56;716064;-3;2057;10788
0;98;1573568597089;1573568603772;6683;19596885770;42840030702;147622893;73593054;5557728010;132022173;130803036;346;0;634232;0;1669;3127
0;99;1573568603878;1573568610951;7073;19620369140;42840130123;146187660;73158580;5557745550;132060181;130849984;425;4;769608;0;1842;3485
0;100;1573568610985;1573568618415;7430;19679420884;42840012008;146568244;75425606;5557724044;131784964;132202732;401;1;748824;1;1716;3208
0;101;1573568618450;1573568625945;7495;19646318596;42840122056;148139420;73831271;5557744795;132288676;131102215;523;57;772112;-1;2102;7550
1;55;1573569141918;1573569148545;6627;19331418934;42601359276;146186967;73706890;5556989402;125629888;132614902;453;38;686520;0;1960;8333
1;56;1573569148597;1573569155787;7190;19342497998;42601516666;146312043;74344626;5557014106;126266057;131373788;394;0;763704;0;1987;3525
1;57;1573569155823;1573569162563;6740;19264212506;42601314338;146048008;72490385;5556980053;125643247;132279714;345;0;657288;0;1627;3000
1;58;1573569162620;1573569169265;6645;19308639576;42601265385;150258939;73236507;5556971888;126180548;132944464;374;0;728056;3;1658;3046
1;59;1573569169312;1573569176481;7169;19319496136;42601290606;146898579;73256063;5556976886;126070368;132585537;531;50;782432;-3;2216;11670
1;60;1573569176553;1573569183119;6566;19270043308;42601245945;143643735;72293189;5556972975;125662157;130394811;327;0;634240;3;1723;3146
1;61;1573569183174;1573569189731;6557;19299939728;42601294801;146121003;72914852;5556982073;125572909;132334712;344;0;668952;-3;1623;2884
1;62;1573569189769;1573569196756;6987;19296138034;42601296081;143626944;73083841;5556982920;125832534;130908098;380;0;722704;0;1709;3229
1;63;1573569196810;1573569203663;6853;19285984172;42601640656;142507013;72995916;5557059065;125687965;129412431;375;0;727600;2;1679;3079
1;64;1573569203716;1573569210236;6520;19321786876;42601547237;145177076;73179774;5557025810;125910684;131561876;489;57;657856;0;2080;18090
1;65;1573569210276;1573569216941;6665;19338181508;42601032141;147886708;73055676;5556934797;126011581;133121400;362;0;696688;0;1845;3304
1;66;1573569216984;1573569223587;6603;19310461510;42601207476;144886263;72944235;5556966691;125501211;131549391;338;0;645088;-2;1628;3108
1;67;1573569223654;1573569230461;6807;19328223724;42601051099;146431517;73975185;5556939182;125858903;130808137;402;0;775432;0;1787;3249
1;68;1573569230518;1573569237240;6722;19291167902;42601156904;144703041;72300789;5556959461;125643447;132748829;455;53;679496;1;1877;7381
1;69;1573569237299;1573569244741;7442;19352254594;42600985314;146338708;74316920;5556929256;125914309;131439105;415;0;805592;-1;2116;3700
1;70;1573569244814;1573569251892;7078;19365009592;42600941726;146117646;73716917;5556922213;126270040;131365086;396;2;763704;0;1851;3337
1;71;1573569251939;1573569259289;7350;19301462508;42601003783;143288135;73225187;5556932329;126036865;130339721;397;1;756984;0;1745;3244
1;72;1573569259323;1573569266613;7290;19356827022;42601106654;145759336;74613100;5556950850;125994467;129983076;416;1;804288;3;1864;3334
1;73;1573569266647;1573569273472;6825;19299957540;42600937593;144323109;72995271;5556923995;125705596;130950546;468;47;680632;-3;2006;7190
1;74;1573569273518;1573569280385;6867;19306252622;42600836516;144028505;73421547;5556905043;125562211;130429263;372;1;725368;1;1729;3085
1;75;1573569280459;1573569287517;7058;19325761726;42600885733;145883273;74490936;5556918543;126014744;131527636;379;0;718608;-1;1795;3314
1;76;1573569287584;1573569294323;6739;19301498278;42600924535;144374230;72344136;5556921999;126002509;131575789;347;1;668112;1;1595;2963
1;77;1573569294370;1573569301129;6759;19300132448;42600824829;143940935;73488580;5556903303;125581191;130542799;453;57;662184;-1;1959;15812
1;78;1573569301204;1573569308489;7285;19353961188;42600730593;146560336;74193592;5556887346;126392808;131340185;421;0;810616;0;2036;3595
1;79;1573569308540;1573569315290;6750;19261875922;42600829343;143309682;72595664;5556904887;125593912;130372864;364;0;692464;0;2134;4340
1;80;1573569315391;1573569322688;7297;19336106264;42600714604;143060249;74077862;5556884464;125837609;130980682;389;0;751512;0;1772;3252
1;81;1573569322790;1573569329202;6412;19287052454;42600801187;145001696;72314027;5556899687;125548320;130963699;468;49;686200;4;2064;9758
1;82;1573569329246;1573569336209;6963;19277364770;42600861946;144904650;73551332;5556910406;125651798;130208616;357;0;693720;-4;1832;3263
1;83;1573569336264;1573569342822;6558;19332503276;42600683225;147495356;73888879;5556881219;126137983;131652842;915;59;758736;2;5419;43580
1;84;1573569342880;1573569349826;6946;19322426794;42600762008;145507343;73000002;5556896915;125952789;130844903;413;2;753944;-2;1882;3683
1;85;1573569349879;1573569356985;7106;19315863364;42600779278;144671751;73619281;5556898987;125733228;130000882;362;1;697816;0;1578;2895
1;86;1573569357041;1573569363888;6847;19321403480;42600808567;144975576;73598713;5556901030;125671353;132454775;392;1;746160;0;1802;3292
1;87;1573569363939;1573569370536;6597;19279497684;42600814183;146258343;72598368;5556903223;125706936;133772673;472;51;634056;0;1844;13387
1;88;1573569370600;1573569377651;7051;19302517212;42600831759;144383197;73727846;5556904513;125617491;132132598;423;5;658520;0;2027;7016
1;89;1573569377705;1573569385365;7660;19350782622;42600527618;147243798;74889461;5556855576;126303820;131723522;467;2;886848;0;2158;3928
1;90;1573569385422;1573569391970;6548;19309111886;42600507848;144000765;72392259;5556850358;125578290;132856528;345;2;650968;0;1590;2929
1;91;1573569392006;1573569398734;6728;19310022634;42600728242;146041256;73847106;5556890866;125764196;131738114;384;0;728520;0;1882;3808
1;92;1573569398783;1573569405543;6760;19291914400;42600576017;145074079;72252201;5556863149;125880258;130255259;482;58;713712;0;2203;9441
1;93;1573569405596;1573569412390;6794;19282205254;42600623296;144033952;73463332;5556872119;125525709;130190766;342;4;639224;0;1616;2920
1;94;1573569412423;1573569419169;6746;19307872784;42600603158;144815923;73482905;5556868317;125702139;131221147;369;4;705064;0;1702;3124
1;95;1573569419216;1573569426504;7288;19318849648;42600650229;145122896;73596969;5556878469;125868511;132548817;416;2;780424;0;1798;3403
1;96;1573569426559;1573569433605;7046;19304065834;42600583615;145312946;73628712;5556864949;125818837;130591702;479;50;717096;0;1880;6855
1;97;1573569433661;1573569440532;6871;19324386698;42600486588;146349957;73103288;5556848438;126079570;130646161;364;3;679896;1;1740;3085
1;98;1573569440588;1573569447481;6893;19293111892;42600504171;142682803;72115556;5556851573;125542517;130642633;315;6;598592;0;1451;2689
1;99;1573569447518;1573569454615;7097;19331344036;42600501464;144298324;73587862;5556851063;125718756;130838153;385;2;724016;-1;1684;3159
1;100;1573569454672;1573569461404;6732;19344055526;42600590324;144104658;72586860;5556866396;125796544;130506077;362;4;675744;0;1566;2923
1;101;1573569461451;1573569468255;6804;19337553562;42600491535;144610090;73622536;5556849590;125609620;130714169;500;47;687896;0;2082;12056
1;102;1573569468314;1573569475309;6995;19325763624;42600485272;144042652;73697780;5556847600;125832642;131366520;390;2;728520;0;1806;3373
1;103;1573569475362;1573569481857;6495;19266178980;42600582062;145118999;72182631;5556865077;125675985;131526346;346;7;657696;0;1550;2832
1;104;1573569481893;1573569488538;6645;19297789440;42600530615;143764803;73460602;5556857818;125490206;130873310;377;1;692464;0;1643;3136
2;56;1573570026958;1573570033097;6139;19302125494;42699219256;147783974;72833660;5540107371;120044754;129977450;318;0;619200;2;1514;2718
2;57;1573570033144;1573570039736;6592;19317758152;42699370448;146328124;72196428;5540133372;119923648;129957857;387;0;737744;-2;1778;3256
2;58;1573570039781;1573570046627;6846;19376175234;42699316569;145188933;74612663;5540123303;119831356;130524801;396;0;774048;3;1800;3214
2;59;1573570046692;1573570053572;6880;19336492580;42699123974;148133229;73154969;5540090987;120271187;129654421;458;48;727384;-2;1977;5978
2;60;1573570053616;1573570060482;6866;19299207684;42699063680;146338520;71970158;5540084300;120105354;130648448;345;0;670728;-1;1770;3163
2;61;1573570060544;1573570067661;7117;19323731304;42699150671;146749597;73814737;5540101312;120083629;129816174;387;0;739824;0;1835;3416
2;62;1573570067745;1573570074187;6442;19302963534;42699183862;146891156;72012277;5540108325;120061187;130095816;314;1;605376;0;1532;2853
2;63;1573570074258;1573570081065;6807;19332583722;42699519271;147095807;73582495;5540177595;119958420;128601805;374;0;727136;0;1724;3105
2;64;1573570081108;1573570087418;6310;19310220464;42699545698;147178605;72753178;5540169869;119836307;129568269;435;49;676776;0;2109;9098
2;65;1573570087452;1573570093872;6420;19284024852;42699181096;146542348;72112876;5540105786;119948198;130179134;343;0;658152;0;1660;3079
2;66;1573570093939;1573570100390;6451;19322302840;42699041430;144968449;73904630;5540082347;119785714;129227318;360;0;686128;0;1641;3013
2;67;1573570100476;1573570107340;6864;19396752620;42699061792;146179910;73040538;5540089426;120066031;130618744;392;1;757840;0;1771;3249
2;68;1573570107389;1573570114076;6687;19332893534;42699162910;146175581;72945881;5540104318;119772100;130378445;446;47;651648;0;1750;8208
2;69;1573570114117;1573570120947;6830;19356365224;42699026395;147275884;73623315;5540080944;120363617;129739090;366;0;705064;0;1842;3256
2;70;1573570120998;1573570127764;6766;19303635572;42699045628;145991785;72644332;5540085483;119921054;128931147;375;1;715912;0;1745;3221
2;71;1573570127814;1573570134485;6671;19329077094;42698835519;147390809;73408452;5540048964;120133607;130528335;338;1;650056;1;1645;3084
2;72;1573570134551;1573570141646;7095;19356297480;42698968898;147282455;73579604;5540072606;120678404;130812155;400;0;771336;-1;1820;3331
2;73;1573570141691;1573570148527;6836;19390662230;42698970481;148574697;73943980;5540070552;119859572;130426343;470;55;733504;0;2157;7976
2;74;1573570148623;1573570155625;7002;19345569108;42698754338;148253435;73826963;5540034122;120441005;130753363;375;0;722656;0;1836;3289
2;75;1573570155678;1573570163004;7326;19332798780;42699059783;148722181;73185445;5540088363;120082896;129911073;414;0;780896;0;1946;3617
2;76;1573570163039;1573570169530;6491;19301577264;42698871500;146143794;73097312;5540055030;119790027;128794893;325;1;627904;3;1462;2662
2;77;1573570169562;1573570176069;6507;19328589308;42698772862;146261124;72504915;5540037789;120007494;129549280;439;50;672696;-1;1871;6437
2;78;1573570176162;1573570182846;6684;19318384054;42698860388;146542014;73460223;5540058148;119836438;129622537;340;2;660384;-2;1732;3086
2;79;1573570182896;1573570189643;6747;19337749786;42698707957;144670135;73490608;5540027094;120060223;130071788;363;0;687512;0;1745;3135
2;80;1573570189689;1573570196827;7138;19334027808;42699087273;145908161;73442303;5540091816;120229075;129889046;895;61;740928;1;5114;25002
2;81;1573570196889;1573570204246;7357;19372193814;42698614169;146958125;75180511;5540013374;120209628;129091778;415;2;797960;0;1982;3591
2;82;1573570204311;1573570211488;7177;19343364070;42698567713;146408536;73795963;5540006265;120318667;129271489;411;1;781368;0;1820;3452
2;83;1573570211548;1573570218285;6737;19310024094;42698598298;145938359;72604895;5540011627;119722578;129151651;348;2;670264;-1;1578;2910
2;84;1573570218320;1573570224566;6246;19320074880;42698650678;147518062;72987573;5540023564;120235253;129075851;332;2;623008;3;1492;2801
2;85;1573570224627;1573570231281;6654;19308155586;42698649214;147085767;72237138;5540021941;120042380;129680127;466;62;691296;-1;2007;7587
2;86;1573570231349;1573570238666;7317;19343262892;42698571110;145207880;74551741;5540006487;120176225;129988255;468;5;743832;-2;2181;5749
2;87;1573570238739;1573570245187;6448;19317634052;42698443071;146488825;72802851;5539984541;120168873;130017801;339;0;646424;0;1580;2906
2;88;1573570245237;1573570251795;6558;19335982456;42698400346;146372900;73092888;5539975072;119839427;129555747;338;1;639232;0;1581;2977
2;89;1573570251840;1573570258980;7140;19333029752;42698533883;144990802;74330607;5539999246;120034881;129125623;538;69;772568;3;2318;14055
2;90;1573570259014;1573570265036;6022;19326033578;42698551473;144636644;71631961;5540002343;119740713;129485589;310;1;592728;-3;1576;3080
2;91;1573570265083;1573570271444;6361;19314380734;42698533441;146508436;72915260;5539999800;120090498;128540524;320;1;604968;3;1536;2828
2;92;1573570271539;1573570278129;6590;19322871218;42698536463;147508366;72640908;5540000460;120283000;129702083;365;0;687472;-3;1627;3095
2;93;1573570278182;1573570285012;6830;19310606926;42698673450;146579145;73136793;5540026700;119837805;129524972;336;2;641560;2;1529;2858
2;94;1573570285046;1573570291373;6327;19292562932;42698642048;146174241;72350568;5540019710;119841079;129246406;448;46;650008;-2;1837;6537
2;95;1573570291427;1573570298111;6684;19301094880;42698547787;145632477;72666081;5540004047;120115100;129486983;373;2;704680;0;1782;3189
2;96;1573570298164;1573570305012;6848;19306200646;42698421942;144064649;73512558;5539980446;119946043;129753907;351;2;674816;0;1571;2937
2;97;1573570305076;1573570311618;6542;19334499242;42698511434;144905351;72838195;5539996216;120071194;130298595;352;1;669888;0;1581;2939
2;98;1573570311653;1573570318504;6851;19317432718;42698514339;145435771;73719283;5539996477;119879502;129903597;486;42;726912;0;1951;7489
2;99;1573570318589;1573570325257;6668;19333513012;42698507927;146542317;73273946;5539995461;120136628;128780316;348;3;658152;0;1703;3086
2;100;1573570325353;1573570332272;6919;19333516224;42698510635;147288177;72962057;5539996486;120112339;130151796;393;4;734464;0;1847;3403
2;101;1573570332341;1573570338628;6287;19315444052;42698505278;146216221;73318121;5539995587;119866473;129063329;326;4;621584;0;1389;2568
2;102;1573570338692;1573570345787;7095;19301295046;42698507023;147266667;72832783;5539995275;120162122;130243275;372;1;687504;0;1687;3181
2;103;1573570345853;1573570353182;7329;19311955674;42698500504;149228191;73804773;5539994269;120081319;129954685;501;44;756520;0;2152;8133
2;104;1573570353215;1573570359263;6048;19330007698;42698560722;147289390;72528314;5540007581;120012906;129453403;316;4;581984;0;1503;2790
2;105;1573570359308;1573570366076;6768;19291605318;42698431794;144229949;72458550;5539981961;119908157;129629522;368;6;686552;0;1656;3086
3;56;1573570900165;1573570906607;6442;19212978916;42634080460;149419941;73086050;5553245494;125180778;130505483;315;0;609888;0;1559;2873
3;57;1573570906661;1573570913151;6490;19219008278;42633953576;149725777;73199883;5553222759;125281585;131347796;313;0;605376;0;1456;2735
3;58;1573570913195;1573570919887;6692;19234005106;42634146932;148717383;72994002;5553257395;125167336;132148675;342;0;656848;3;1614;2922
3;59;1573570919932;1573570926406;6474;19202587220;42634158533;149508358;72506325;5553258721;125181063;130342478;453;68;671824;-2;2011;10934
3;60;1573570926469;1573570932869;6400;19184926914;42633963710;148322523;70998835;5553224922;125109882;132752202;326;0;630600;-1;1626;2972
3;61;1573570932925;1573570938809;5884;19192565196;42634050409;151644188;71941353;5553242220;124830477;132408206;298;0;574688;0;1394;2601
3;62;1573570938877;1573570945656;6779;19225994378;42633997236;150200803;73325812;5553236615;125449911;132887428;368;0;710928;0;1658;3079
3;63;1573570945704;1573570952026;6322;19168890858;42634435624;145439763;71271089;5553331882;125208551;132333911;437;58;632232;0;1920;10828
3;64;1573570952061;1573570958584;6523;19254794338;42634361395;147381319;73757562;5553300691;125191119;131737344;362;0;698736;0;1843;3376
3;65;1573570958623;1573570965172;6549;19186581532;42633827319;147829794;72124183;5553206403;125376673;132564004;328;0;628848;0;1691;3132
3;66;1573570965234;1573570971625;6391;19218192138;42633902257;150023534;73468882;5553220335;124986532;132122234;347;0;674360;0;1547;2829
3;67;1573570971683;1573570978684;7001;19222826032;42633866251;147127982;73510641;5553213412;125360033;129542155;371;0;716792;0;1718;3147
3;68;1573570978737;1573570985836;7099;19244968246;42633904926;147599267;73254428;5553221273;125181571;131504214;518;52;760600;0;2241;13332
3;69;1573570985890;1573570992010;6120;19220354836;42633818002;149818245;72669444;5553206268;125292888;130603428;293;0;564328;0;1434;2569
3;70;1573570992080;1573570998626;6546;19171100130;42633762729;150381829;71371558;5553196284;125119471;131168443;326;0;622544;0;1556;2872
3;71;1573570998664;1573571005246;6582;19232841048;42633693534;147730884;73235373;5553184482;125291444;130902274;319;1;620272;0;1465;2716
3;72;1573571005343;1573571012425;7082;19218493190;42633873441;147468838;73279694;5553217036;125463405;130564737;374;0;706912;0;1766;3342
3;73;1573571012465;1573571019207;6742;19224553358;42633584923;149390045;73659252;5553167022;125104496;130806776;473;56;690184;0;2158;12615
3;74;1573571019274;1573571025988;6714;19217674860;42633561440;147870415;73346253;5553163213;125245205;130535764;358;0;687488;0;1782;3188
3;75;1573571026037;1573571032960;6923;19170834410;42633776723;149129934;72453542;5553204315;125472829;130436950;351;0;675288;0;1635;2943
3;76;1573571032994;1573571040100;7106;19268684048;42633722547;147606306;74594645;5553191190;125409473;131195321;395;0;768640;0;1798;3234
3;77;1573571040175;1573571046862;6687;19198920138;42633515904;147939665;72931712;5553155264;125543726;131162670;465;79;691696;0;2038;8830
3;78;1573571046913;1573571053618;6705;19169341122;42633604109;148900706;72856006;5553169860;125112315;129993187;333;0;645040;0;1674;3059
3;79;1573571053654;1573571059764;6110;19232509628;42633622798;148870021;73060594;5553173986;125311337;129701948;304;1;581936;0;1487;2686
3;80;1573571059811;1573571066350;6539;19223559974;42633613928;146546164;72151287;5553171718;125384423;130423217;498;53;636976;7;2464;12276
3;81;1573571066429;1573571073014;6585;19221177254;42633623751;148726968;73772922;5553175008;125348213;131095345;719;3;683424;-7;4330;17437
3;82;1573571073078;1573571079760;6682;19209047428;42633638376;149545453;72601935;5553177307;125655386;130951768;372;1;710928;0;1787;3244
3;83;1573571079839;1573571086686;6847;19221175064;42633592795;147338668;74212880;5553169864;125083265;131484062;359;1;691952;0;1589;2981
3;84;1573571086737;1573571093522;6785;19218659192;42633670259;147399317;73085916;5553184766;125298710;130097948;369;1;693368;0;1677;3179
3;85;1573571093575;1573571100115;6540;19199228052;42633802920;148368473;72785542;5553210948;125035797;130422284;444;75;632680;14;1697;10216
3;86;1573571100163;1573571107016;6853;19279013548;42633786293;147476658;74278986;5553202210;125619551;131582460;454;1;735152;-11;2182;8529
3;87;1573571107052;1573571113958;6906;19209500758;42633626748;147914550;72916784;5553176365;125576080;130889068;379;2;722656;-3;1867;3395
3;88;1573571114015;1573571121395;7380;19245585826;42633838868;149673589;74156399;5553210167;125258942;130864854;381;3;733016;0;1722;3186
3;89;1573571121455;1573571128352;6897;19257698132;42633354416;147920377;73215646;5553130385;125423916;131537240;359;2;681616;0;1585;2983
3;90;1573571128398;1573571135381;6983;19194010012;42633443063;147466504;72691437;5553145593;125140186;129040850;479;76;685920;0;2058;11933
3;91;1573571135439;1573571142317;6878;19264760590;42633421569;148287448;73710992;5553143063;125536688;130090296;357;1;675744;0;1696;3182
3;92;1573571142391;1573571149263;6872;19239990084;42633380996;148090040;72922748;5553134755;125557951;130829583;374;3;710944;0;1744;3265
3;93;1573571149318;1573571155936;6618;19197485104;42633459159;147239942;72992745;5553149479;125108674;130950586;305;2;586400;0;1415;2732
3;94;1573571156014;1573571162777;6763;19241816106;42633436853;149698758;72870091;5553145364;125368132;130826395;474;63;752248;2;2128;8134
3;95;1573571162833;1573571169616;6783;19219241002;42633417928;148775614;73082381;5553144299;125320890;131344365;372;2;701872;-2;1812;3285
3;96;1573571169653;1573571176535;6882;19213525248;42633367840;147288176;73898246;5553133641;125513811;130487483;357;3;681144;0;1708;3125
3;97;1573571176603;1573571183214;6611;19168302186;42633296114;148406143;72265848;5553121506;125258072;130485858;352;3;662280;4;1882;3921
3;98;1573571183268;1573571190387;7119;19248678544;42633390804;148350283;74264014;5553137953;125141906;131410794;389;5;746496;-1;1873;3681
3;99;1573571190448;1573571197126;6678;19242757222;42633274593;149310058;73291243;5553118410;125549306;130903310;527;62;750600;-3;2141;12303
3;100;1573571197176;1573571204185;7009;19208000608;42633259125;145980951;73107205;5553114860;125233930;130827057;350;5;670872;2;1707;3076
3;101;1573571204255;1573571210911;6656;19250997900;42633272992;148550789;73090950;5553118251;125402262;131479879;356;4;667528;-2;1647;3134
3;102;1573571210969;1573571217729;6760;19189666512;42633369828;150248061;71830819;5553134492;125345108;132192424;366;5;693336;0;1599;2977
3;103;1573571217783;1573571225075;7292;19295084644;42633362118;149913843;74054313;5553132619;125310995;130843779;527;63;754112;0;2181;10669
3;104;1573571225130;1573571231405;6275;19191431506;42633404140;146556339;72650414;5553141811;125244771;130347844;366;2;675832;0;1777;3286
3;105;1573571231440;1573571238496;7056;19231221470;42633405928;148686543;73759500;5553141128;125180666;131136388;373;3;703680;3;1696;3082
4;54;1573571749310;1573571756162;6852;19487304594;42641199778;145631267;73650648;5552934502;128951018;132153211;489;54;694096;2;2148;12364
4;55;1573571756197;1573571763069;6872;19456645908;42641269950;146601891;72807177;5552949318;128828368;130908528;344;0;666864;1;1685;3053
4;56;1573571763111;1573571770797;7686;19537941044;42641249956;145595997;75238215;5552953217;128799245;132265112;401;0;774536;-3;1862;3367
4;57;1573571770845;1573571777375;6530;19435875802;42641307438;145591846;72918971;5552962476;128723964;131479997;322;0;622968;0;1525;2773
4;58;1573571777434;1573571785072;7638;19529272440;42641296618;147332246;74653696;5552960832;129306319;131651379;548;62;796648;0;2278;12351
4;59;1573571785118;1573571792330;7212;19478242520;42641213577;145610315;74528723;5552946734;128852891;130962353;374;0;730152;2;1852;3307
4;60;1573571792380;1573571798955;6575;19422881072;42641170505;144860404;72050150;5552942748;128614747;130651813;356;0;679080;-2;1728;3211
4;61;1573571799015;1573571806034;7019;19463126556;42641221379;144349403;73125945;5552951999;128712376;130641179;382;0;741576;2;1742;3192
4;62;1573571806071;1573571812765;6694;19473791418;42641283642;145333641;73842434;5552965087;129286808;130801577;457;62;682768;-2;1947;8534
4;63;1573571812850;1573571819988;7138;19436909482;42641653526;145976132;73394264;5553046815;129048281;130857370;387;0;746112;0;1950;3566
4;64;1573571820031;1573571827000;6969;19464122422;42642114962;145459804;73659641;5553108012;128639135;131247173;369;0;709592;0;1817;3273
4;65;1573571827067;1573571833325;6258;19478214926;42641107337;145862151;73158022;5552931588;128875280;131341834;346;0;668120;1;1602;2931
4;66;1573571833372;1573571840231;6859;19428259712;42641137900;145195626;72626313;5552939237;128711088;131750789;370;0;717640;-1;1670;3009
4;67;1573571840287;1573571847419;7132;19493046336;42640955392;144342447;74037461;5552906631;128952584;130887472;525;71;788800;1;2252;10993
4;68;1573571847480;1573571854242;6762;19466126418;42641025181;145933341;72520674;5552919798;129003532;131581599;346;0;665784;-1;1746;3143
4;69;1573571854291;1573571860509;6218;19432799436;42641025052;143935444;72799288;5552920810;128403898;131283813;332;0;639208;0;1632;2928
4;70;1573571860566;1573571867262;6696;19459510866;42640988834;146307797;72986251;5552913869;128907207;131905962;353;0;681608;0;1593;2885
4;71;1573571867328;1573571874239;6911;19439384474;42640955600;144395726;73590758;5552906755;128651288;131037298;505;64;731136;0;2066;10205
4;72;1573571874288;1573571881316;7028;19493216280;42640982187;144949590;74225313;5552912545;128888273;131328977;406;0;786696;3;2018;3607
4;73;1573571881385;1573571889266;7881;19520222484;42640928950;145945847;74341150;5552903047;129276440;132631625;455;7;875152;0;2183;3942
4;74;1573571889300;1573571896262;6962;19415821826;42641041616;143763231;72926965;5552922403;128623924;130225908;363;1;703680;-3;1682;3114
4;75;1573571896335;1573571905687;9352;19449043250;42641495309;147473293;74299673;5553006816;129425428;131309176;629;64;906640;1;2540;14292
4;76;1573571905722;1573571912754;7032;19447577702;42640997933;145559490;73074757;5552916493;128981902;130508101;382;0;728520;0;1910;3452
4;77;1573571912807;1573571920025;7218;19471050414;42640890753;144251291;73588201;5552897029;128770659;131222303;377;3;717688;-1;1793;3270
4;78;1573571920092;1573571926754;6662;19477785540;42640938124;145323611;73774516;5552906453;128926054;130905436;358;0;687008;0;1628;2958
4;79;1573571926816;1573571933682;6866;19461195998;42640814117;144202362;73064098;5552884707;128976761;131921740;377;3;716856;3;1732;3177
4;80;1573571933741;1573571940989;7248;19496038606;42641030317;146119230;74063240;5552923004;128637045;132386800;487;62;717512;-2;2160;9442
4;81;1573571941022;1573571947440;6418;19424204854;42640805289;145377960;72602620;5552884935;128834291;131425656;346;0;659920;2;1708;3036
4;82;1573571947487;1573571954174;6687;19460425264;42640885504;143045341;73050537;5552898081;128612417;131973605;379;2;721304;-3;1696;3079
4;83;1573571954213;1573571960947;6734;19451978288;42640987786;144436834;73596414;5552917787;128972805;129996992;346;3;668112;1;1547;2871
4;84;1573571961023;1573571967992;6969;19428652306;42640849460;144300811;73488391;5552894416;129023124;130284351;976;89;772680;9;5938;41398
4;85;1573571968061;1573571975404;7343;19470988510;42640960211;144641681;74988053;5552912989;128934819;129743937;796;66;907352;-10;4205;25923
4;86;1573571975467;1573571981759;6292;19443023962;42640835326;146451597;72775357;5552890463;128783500;131236370;369;6;685736;1;1624;3093
4;87;1573571981797;1573571988636;6839;19446718638;42640791399;143912548;73261107;5552882026;128623897;129114459;364;4;680224;0;1532;2980
4;88;1573571988700;1573571995375;6675;19436234962;42640717568;144603344;72863214;5552869469;128845404;131203125;420;3;672240;-1;1766;4340
4;89;1573571995412;1573572002071;6659;19410491220;42640672068;144712457;71665807;5552863936;128743031;130006220;523;70;690384;1;2141;13667
4;90;1573572002120;1573572008627;6507;19420565658;42640803898;144226205;72672806;5552885590;128469006;131708309;338;4;630136;-1;1663;3065
4;91;1573572008683;1573572015416;6733;19443074040;42640557624;143267558;72599116;5552843761;128660690;131827212;356;10;640760;0;1528;2890
4;92;1573572015458;1573572022568;7110;19451193392;42640523288;145500222;74148371;5552836974;128681042;131746897;384;2;715408;0;1611;2980
4;93;1573572022606;1573572029804;7198;19492272390;42640730506;145658729;74798765;5552874786;129115717;131439554;570;100;807656;5;2284;14378
4;94;1573572029838;1573572036328;6490;19427619502;42640616012;145297422;72272302;5552855749;128764641;131953874;363;13;675744;-5;1758;3159
4;95;1573572036366;1573572043399;7033;19474934014;42640562231;146869385;73757784;5552846578;128772400;132950299;388;2;713664;1;1856;3519
4;96;1573572043434;1573572050216;6782;19430464020;42640566375;143974920;72839674;5552846190;128663427;131042233;395;2;722656;0;1671;3155
4;97;1573572050271;1573572057135;6864;19454734330;42640423871;144646276;73488687;5552821558;128691583;132161304;362;0;652760;-1;1575;2983
4;98;1573572057183;1573572063938;6755;19453354192;42640524892;144508545;73500851;5552839621;128874844;131243692;494;60;689680;1;2138;10483
4;99;1573572064003;1573572070550;6547;19413767606;42640510443;145406079;72574698;5552836426;128522185;131863330;379;7;688808;-1;1800;3356
4;100;1573572070604;1573572077546;6942;19469990746;42640388245;145435026;74188872;5552814673;128734328;131035790;389;7;715888;0;1742;3399
4;101;1573572077609;1573572083959;6350;19448030448;42640513935;146371971;72633616;5552838283;128737227;131044319;385;11;705064;3;1647;3100
4;102;1573572084035;1573572091166;7131;19475135202;42640514727;145800711;73539570;5552837289;128604906;132370442;545;70;754760;0;2305;14902
4;103;1573572091237;1573572097617;6380;19467973464;42640404492;146617940;72486260;5552819039;128846566;132099223;372;4;681608;-3;1734;3203
