0;50;1573564109565;1573564116858;7293;19675837460;42762843291;148446057;69864049;5548211049;130778901;132804236;0;0;0;0;0;0
0;51;1573564116898;1573564124762;7864;19687913266;42762340240;147805113;70505798;5548128035;130715209;131660244;94;133;9640;0;129;1023
0;52;1573564124802;1573564131226;6424;19707381198;42762292363;148746002;69979286;5548125146;130489474;133053007;0;0;0;0;0;0
0;53;1573564131270;1573564138348;7078;19654386556;42762333539;148780643;69398565;5548132243;130561413;131101383;0;0;0;0;0;0
0;54;1573564138399;1573564145433;7034;19641673752;42762281408;149540613;69361636;5548122662;130459812;133014126;0;0;0;0;0;0
0;55;1573564145520;1573564152497;6977;19689729944;42762350065;149143474;70006218;5548144109;130599869;132859063;41;118;1304;0;18;535
0;56;1573564152542;1573564159345;6803;19668484754;42762303441;149942486;70226142;5548135316;130644583;131603494;52;20;8592;0;131;559
0;57;1573564159402;1573564166575;7173;19668596444;42762472634;150800314;69983772;5548164713;130763329;133577518;0;0;0;0;0;0
0;58;1573564166607;1573564173895;7288;19709055234;42762268137;149754950;70548797;5548128242;130724691;132947977;1;0;8;0;0;0
0;59;1573564173930;1573564180939;7009;19638726888;42762295143;148867234;69529588;5548134176;130630434;133325727;0;0;0;0;0;0
0;60;1573564180992;1573564188357;7365;19681590882;42762176851;147973043;70186053;5548113110;130690624;132796529;101;128;9704;0;139;1231
0;61;1573564188450;1573564195654;7204;19652023984;42762401831;148738952;69978098;5548152292;130615181;133902673;0;0;0;0;0;0
0;62;1573564195687;1573564202872;7185;19671370736;42762319346;151700228;69832256;5548143482;130727504;133211950;0;0;0;0;0;0
0;63;1573564202942;1573564210274;7332;19681131858;42762707382;146694801;69976203;5548228771;130673909;133079362;0;0;0;0;0;0
0;64;1573564210334;1573564217275;6941;19661934902;42762549165;149909199;69955664;5548183891;130604201;131835874;92;134;9768;0;121;1183
0;65;1573564217345;1573564224767;7422;19670648474;42762108129;148106811;70260263;5548105072;130710065;132379839;0;0;0;0;0;0
0;66;1573564224848;1573564232254;7406;19657288890;42762109883;148238268;70130678;5548106337;130724483;131510564;1;0;8;0;0;0
0;67;1573564232289;1573564239291;7002;19658630776;42762158085;148298034;70008252;5548114341;130594853;132992351;0;0;0;0;0;0
0;68;1573564239358;1573564246665;7307;19661821314;42762152324;149296345;70215905;5548115209;130712774;133494013;112;128;9824;0;149;1341
0;69;1573564246716;1573564253692;6976;19660141438;42762078556;147064696;69850535;5548102716;130680925;133179505;0;0;0;0;0;0
0;70;1573564253759;1573564261245;7486;19689691254;42762022969;147505304;70287087;5548094363;130848451;133019242;0;0;0;0;0;0
0;71;1573564261341;1573564268734;7393;19748831766;42761867066;151189127;71155601;5548067578;130711973;134015333;0;0;0;0;0;0
0;72;1573564268793;1573564275763;6970;19748723872;42761944840;148629259;70336435;5548081521;130747267;133265423;80;141;8360;0;253;2860
0;73;1573564275799;1573564283152;7353;19698736976;42761839465;148341092;70170787;5548062146;130640011;132857520;0;0;0;0;0;0
0;74;1573564283220;1573564290050;6830;19655240072;42761764317;147915662;69628695;5548048925;130593002;133509691;0;0;0;0;0;0
0;75;1573564290115;1573564297485;7370;19680092922;42761835832;147860773;69767935;5548064518;130657643;133801044;0;0;0;0;0;0
0;76;1573564297518;1573564304260;6742;19702542758;42761943916;149855721;69981423;5548082313;130626819;132553813;452;33;49648;0;1897;2170
0;77;1573564304293;1573564311898;7605;19753288416;42761952818;149231232;71349196;5548081786;131045271;133274612;5;2;72;0;10;37
0;78;1573564311960;1573564319631;7671;19685312130;42761787420;151093265;70675647;5548053520;130853880;133909041;0;0;0;0;0;0
0;79;1573564319683;1573564327069;7386;19704914528;42761932434;148353885;70695107;5548079377;130764277;131866597;1;0;8;0;0;0
0;80;1573564327132;1573564334167;7035;19697638326;42761696488;147269200;70010726;5548037937;130648638;133762125;43;22;7344;0;179;539
0;81;1573564334199;1573564341524;7325;19686739864;42761709402;147974374;70131142;5548040740;130764793;132348279;88;3;1400;0;176;3897
0;82;1573564341604;1573564349007;7403;19746885732;42761820548;149695078;70868536;5548059702;130785443;131997904;0;0;0;0;0;0
0;83;1573564349043;1573564356463;7420;19773886534;42761876482;147546532;71372458;5548070980;130818161;131406628;1;0;8;0;0;0
0;84;1573564356525;1573564363794;7269;19685180584;42761769206;148456780;70346463;5548054280;130808105;132175431;47;22;7952;0;106;559
0;85;1573564363827;1573564370862;7035;19671540826;42762113231;149381177;69948542;5548119040;130582474;133612761;7;0;72;0;2;11
0;86;1573564370933;1573564378059;7126;19679798878;42761806920;149481226;70112508;5548058422;130751266;133465763;0;0;0;0;0;0
0;87;1573564378110;1573564385445;7335;19683286964;42761656460;146573900;70167749;5548032204;130691990;131762714;0;0;0;0;0;0
0;88;1573564385499;1573564392710;7211;19682371836;42761655508;147676490;70381310;5548031230;130726976;132091838;32;18;6032;0;74;285
0;89;1573564392742;1573564399649;6907;19653414342;42761759469;149019853;69878774;5548049890;130668281;131173873;6;2;80;0;1;6
0;90;1573564399709;1573564406536;6827;19696361556;42761906838;148940189;69855072;5548076088;130578339;130732123;0;0;0;0;0;0
0;91;1573564406602;1573564414098;7496;19675371282;42761689512;149218178;70452281;5548038274;130834484;133243221;0;0;0;0;0;0
0;92;1573564414177;1573564421076;6899;19675557578;42761763077;147820299;69892860;5548051652;130506078;132797894;0;0;0;0;0;0
0;93;1573564421166;1573564428585;7419;19687617178;42761854316;148279973;70373013;5548067222;130770383;132806089;38;16;5904;0;92;403
0;94;1573564428645;1573564435804;7159;19671338908;42761634857;150912292;69754810;5548028558;130672109;132069923;8;0;80;0;2;13
0;95;1573564435925;1573564443023;7098;19685317386;42761772300;148001380;69987981;5548054775;130659827;133994566;0;0;0;0;0;0
0;96;1573564443055;1573564449872;6817;19673595338;42762111811;147796117;69798947;5548110799;130611074;132972746;0;0;0;0;0;0
0;97;1573564449950;1573564456931;6981;19662632344;42761601371;149339993;69929711;5548025508;130624434;132732261;28;14;5904;0;76;252
0;98;1573564457020;1573564464410;7390;19687047924;42761588274;149796926;70368502;5548022402;130708352;132370851;6;2;80;0;9;12
0;99;1573564464521;1573564471595;7074;19658368268;42761595999;150260766;69805293;5548024208;130593923;133177853;0;0;0;0;0;0
1;50;1573564979043;1573564986441;7398;19667945576;43386020033;149899674;70053957;5584108059;126249735;133904181;0;0;0;0;0;0
1;51;1573564986540;1573564993853;7313;19669219572;43385691478;149032830;69731895;5584054467;126337865;132802349;22;135;1304;0;14;250
1;52;1573564993916;1573565000865;6949;19665325460;43385354449;146762779;69413202;5583999696;126067524;132254831;51;26;8880;0;151;648
1;53;1573565000917;1573565007961;7044;19680388718;43385504957;145874825;70182163;5584026577;126163123;131439391;0;0;0;0;0;0
1;54;1573565008034;1573565015168;7134;19751214486;43385282973;147147458;70425602;5583989652;126225771;132215825;0;0;0;0;0;0
1;55;1573565015210;1573565022272;7062;19708507442;43385454217;147561230;71095381;5584029243;125989918;133065438;0;0;0;0;0;0
1;56;1573565022306;1573565029493;7187;19728570470;43385390083;148935954;70802804;5584017204;126237041;132886372;118;119;10024;0;161;1341
1;57;1573565029578;1573565036361;6783;19636151156;43385434867;146515253;69766961;5584024745;125924727;132091697;0;0;0;0;0;0
1;58;1573565036420;1573565043637;7217;19696232638;43385543581;148427498;70861382;5584043659;126065917;133176577;0;0;0;0;0;0
1;59;1573565043671;1573565050862;7191;19719447368;43385397483;146720720;70441921;5584018617;126179832;132970521;0;0;0;0;0;0
1;60;1573565050894;1573565058086;7192;19749703386;43385345509;147999658;70842056;5584013798;126188782;132354119;98;142;10280;0;192;1970
1;61;1573565058121;1573565065272;7151;19666515214;43385435529;147894572;69855651;5584031021;126132534;135381806;0;0;0;0;0;0
1;62;1573565065342;1573565072526;7184;19660514322;43385463073;148396529;69996218;5584034745;126074807;133271627;0;0;0;0;0;0
1;63;1573565072561;1573565079675;7114;19683844684;43385978194;146532138;70252821;5584145541;126191233;131877524;0;0;0;0;0;0
1;64;1573565079707;1573565086777;7070;19686556196;43385672025;147492959;69747849;5584069925;126107702;132510869;95;119;6560;0;188;7192
1;65;1573565086810;1573565094202;7392;19711467446;43385287120;146164359;70393107;5584003465;126233316;131558975;0;0;0;0;0;0
1;66;1573565094294;1573565101428;7134;19702430192;43385333886;149606904;69674320;5584013243;126088985;132105276;1;0;8;0;0;0
1;67;1573565101522;1573565108365;6843;19762996832;43385201631;148044933;70874503;5583989299;126049111;132946845;0;0;0;0;0;0
1;68;1573565108398;1573565115597;7199;19767144546;43385433402;150322263;71063845;5584032454;126220076;132362637;40;19;6584;0;107;428
1;69;1573565115629;1573565122675;7046;19675877172;43385217899;146750455;69877885;5583995116;126055645;132215621;0;0;0;0;0;0
1;70;1573565122724;1573565129907;7183;19689444514;43385098265;149361420;69896979;5583974035;126164386;134640997;0;0;0;0;0;0
1;71;1573565129967;1573565137195;7228;19691385876;43384942104;145098114;70102993;5583948511;126081244;132420518;1;0;8;0;0;0
1;72;1573565137282;1573565144601;7319;19672846942;43385143852;149078304;70172499;5583985143;126161453;133381868;0;0;0;0;0;0
1;73;1573565144634;1573565151495;6861;19677739694;43385063135;145724784;69282632;5583968559;126031178;132799283;44;19;6104;0;92;392
1;74;1573565151550;1573565158730;7180;19684031856;43384957574;146679040;69570882;5583951057;126091684;132267295;0;0;0;0;0;0
1;75;1573565158804;1573565166261;7457;19693698078;43384918477;147427379;70159385;5583945309;126155765;135134980;0;0;0;0;0;0
1;76;1573565166325;1573565173639;7314;19701393884;43384958838;149781038;70498787;5583951929;126387195;132763565;465;27;49296;0;1814;2200
1;77;1573565173671;1573565180370;6699;19750553544;43384952001;148022289;70620012;5583950427;126114415;133280456;7;1;80;0;1;7
1;78;1573565180442;1573565187474;7032;19711691264;43384952444;148630064;70590478;5583950773;126156195;133366600;0;0;0;0;0;0
1;79;1573565187546;1573565194821;7275;19679759896;43384937675;147244637;70458677;5583948388;126234501;130902509;0;0;0;0;0;0
1;80;1573565194882;1573565202327;7445;19669673924;43384869058;147690173;70158293;5583936553;126292421;132426641;36;22;7056;0;104;430
1;81;1573565202369;1573565209286;6917;19706950644;43384889755;144880919;70109370;5583940417;126081030;131685912;81;4;832;0;35;1168
1;82;1573565209350;1573565216383;7033;19657993340;43384877463;148212904;70096745;5583938030;126056226;131335615;0;0;0;0;0;0
1;83;1573565216441;1573565223900;7459;19696377178;43384893892;144643651;70473856;5583941821;126196960;132524153;0;0;0;0;0;0
1;84;1573565223965;1573565231155;7190;19714276632;43384981761;148479376;70521270;5583959633;126052462;132987339;36;18;7056;0;90;393
1;85;1573565231219;1573565238478;7259;19758458276;43384995350;147101765;71033776;5583964382;126228808;134593077;8;0;80;0;2;9
1;86;1573565238511;1573565246029;7518;19721646420;43385198402;148998697;70742265;5583993151;126303862;134454624;0;0;0;0;0;0
1;87;1573565246066;1573565253251;7185;19749428176;43384851809;148605551;70230069;5583933444;126091340;133276173;0;0;0;0;0;0
1;88;1573565253283;1573565259929;6646;19688308050;43384834663;147361305;69688554;5583930368;125871641;131292930;0;0;0;0;0;0
1;89;1573565259993;1573565267152;7159;19725906700;43384754751;147189445;70585979;5583916672;126207100;132278144;32;20;6032;0;74;297
1;90;1573565267231;1573565274453;7222;19834221326;43384855926;150288126;71348383;5583934529;126070275;133323840;6;1;72;0;1;6
1;91;1573565274500;1573565281471;6971;19748033146;43384848580;148848133;70781002;5583933078;126029284;133724364;0;0;0;0;0;0
1;92;1573565281525;1573565288528;7003;19735770022;43384846135;148015341;70565556;5583932269;126073483;134578124;1;0;8;0;0;0
1;93;1573565288605;1573565296090;7485;19746692866;43385105727;146852337;71655687;5583982078;125957695;132843330;40;20;6032;0;84;433
1;94;1573565296159;1573565303668;7509;19734548148;43384860663;147911315;70997755;5583936378;126221825;133516199;7;0;72;0;1;7
1;95;1573565303731;1573565310846;7115;19717997588;43384891087;148321180;69853665;5583942844;126029301;131977096;0;0;0;0;0;0
1;96;1573565310923;1573565317961;7038;19738313634;43385100118;148801192;69994735;5583977424;126045280;132470368;1;0;8;0;0;0
1;97;1573565317994;1573565324866;6872;19690736760;43384720867;148620607;69676705;5583913894;126078604;132948834;32;18;6032;0;84;304
1;98;1573565324916;1573565332319;7403;19706922466;43384614315;147391312;70102230;5583895433;126186607;133165970;6;1;72;0;1;6
1;99;1573565332389;1573565339360;6971;19668818948;43384707071;146065238;70030904;5583911282;126022755;131893061;0;0;0;0;0;0
2;51;1573565864192;1573565871434;7242;19477349146;42680354147;148459717;70172074;5519031680;124965395;131571943;0;0;0;0;0;0
2;52;1573565871467;1573565878591;7124;19531364766;42680407208;147245157;69634824;5519045287;125156265;134585928;72;148;10088;0;111;820
2;53;1573565878649;1573565885491;6842;19473787768;42680344781;146982360;69735430;5519036193;124980547;132499050;0;0;0;0;0;0
2;54;1573565885523;1573565892085;6562;19550063862;42680241554;148298893;69475008;5519020143;124954517;133056829;1;0;8;0;0;0
2;55;1573565892146;1573565899185;7039;19522263856;42680309134;148322234;69979724;5519034001;125140111;133429678;0;0;0;0;0;0
2;56;1573565899217;1573565906156;6939;19539394474;42680454253;150981821;69798885;5519065741;125122605;132512110;87;135;9048;1;63;753
2;57;1573565906215;1573565913119;6904;19465795290;42680209297;148320452;69931677;5519023569;124964640;132865780;5;0;656;-1;71;76
2;58;1573565913173;1573565919690;6517;19505824110;42680223459;148633732;69632012;5519025104;124883254;132430351;0;0;0;0;0;0
2;59;1573565919740;1573565927036;7296;19502782200;42680239035;148430730;69887544;5519028305;125187020;135947424;0;0;0;0;0;0
2;60;1573565927086;1573565934283;7197;19490060636;42680293745;149180884;69870887;5519037881;125286234;136324466;0;0;0;0;0;0
2;61;1573565934347;1573565941579;7232;19492534314;42680207027;149275544;70268230;5519024477;125023473;137122700;75;142;9704;0;125;703
2;62;1573565941612;1573565948291;6679;19501870284;42680246075;147624324;69501674;5519034765;124981450;135665532;0;0;0;0;0;0
2;63;1573565948327;1573565955364;7037;19491215496;42680765315;148169782;70346572;5519144492;125040622;133338114;0;0;0;0;0;0
2;64;1573565955406;1573565962241;6835;19511719590;42680400566;147402944;69767046;5519061834;124991681;133423547;0;0;0;0;0;0
2;65;1573565962291;1573565969202;6911;19526219434;42680004062;149332207;69838985;5518991187;125002798;132431772;84;137;10208;0;136;1065
2;66;1573565969295;1573565976490;7195;19588928916;42680093411;148220044;70686092;5519009690;125106397;133116199;0;0;0;0;0;0
2;67;1573565976579;1573565983513;6934;19486144624;42680009041;146316079;69756238;5518994329;125006506;133402057;1;0;8;0;0;0
2;68;1573565983567;1573565990811;7244;19527514162;42680002034;148558873;70219509;5518994836;125100580;133862543;0;0;0;0;0;0
2;69;1573565990862;1573565997692;6830;19467882944;42679962663;147479626;69809067;5518986254;125015620;131803004;50;160;9000;0;160;592
2;70;1573565997748;1573566004672;6924;19478061626;42679883110;147612555;69822637;5518973014;124979491;133940920;0;0;0;0;0;0
2;71;1573566004735;1573566011600;6865;19495929398;42679857148;148507187;70102057;5518968703;124979788;132766121;0;0;0;0;0;0
2;72;1573566011684;1573566019036;7352;19512577486;42679926025;147769019;70050375;5518981592;125106504;132650037;0;0;0;0;0;0
2;73;1573566019080;1573566026359;7279;19495388614;42679901070;148944295;70126838;5518978221;125062393;132432392;0;0;0;0;0;0
2;74;1573566026390;1573566033179;6789;19515805546;42679896126;148909028;69822828;5518977208;125045334;132425243;37;19;6112;0;77;262
2;75;1573566033266;1573566040558;7292;19506455706;42679795947;148915277;70230730;5518963335;125182646;131865488;0;0;0;0;0;0
2;76;1573566040592;1573566047705;7113;19521073372;42679891297;149127338;70077855;5518978784;125146549;134466613;0;0;0;0;0;0
2;77;1573566047743;1573566054955;7212;19466388196;42679789285;146947613;70342163;5518958509;125269832;130796452;477;27;49232;0;1823;2305
2;78;1573566055006;1573566062291;7285;19504004950;42679796223;147465916;70584033;5518959829;125116908;131733110;7;0;72;0;1;7
2;79;1573566062371;1573566069204;6833;19500059154;42679808621;147827515;69880650;5518962930;124915753;132099339;0;0;0;0;0;0
2;80;1573566069285;1573566076456;7171;19527003746;42679696215;147941812;70265408;5518942459;125051243;132023136;125;118;2072;0;107;4385
2;81;1573566076533;1573566083613;7080;19522368392;42679887838;148796627;70275141;5518975889;125078272;134202214;40;34;7760;0;113;422
2;82;1573566083646;1573566090531;6885;19500793972;42679739177;146505484;70254665;5518950417;124993326;131612549;0;0;0;0;0;0
2;83;1573566090603;1573566098108;7505;19552749094;42679657073;148002802;71215994;5518937031;125277437;132128020;0;0;0;0;0;0
2;84;1573566098142;1573566105180;7038;19591765258;42679825782;150064223;70813526;5518968258;125123415;132677939;7;0;72;0;1;7
2;85;1573566105214;1573566112227;7013;19517031362;42680082535;149880200;70426751;5519018345;125115850;131817087;0;0;0;0;0;0
2;86;1573566112277;1573566119650;7373;19535469994;42680108297;148458723;70498422;5519015963;125190945;133870392;37;24;6552;0;132;391
2;87;1573566119715;1573566127418;7703;19552027708;42679610582;148012146;71901668;5518928472;125245740;130888040;0;0;0;0;0;0
2;88;1573566127463;1573566134830;7367;19484553954;42679683709;148747668;70630257;5518940398;125194072;131432248;0;0;0;0;0;0
2;89;1573566134876;1573566141878;7002;19488266004;42679605317;148971665;69690099;5518927422;124969642;130874242;53;108;1304;0;14;446
2;90;1573566141934;1573566149187;7253;19493351184;42679789939;147123683;70278483;5518959946;125118830;130562567;44;20;6672;0;100;486
2;91;1573566149249;1573566156854;7605;19568449788;42679691007;149404677;71420463;5518943116;125159143;132171620;0;0;0;0;0;0
2;92;1573566156897;1573566163181;6284;19532648398;42679686864;147015243;69746669;5518941827;124921280;134187097;0;0;0;0;0;0
2;93;1573566163265;1573566170750;7485;19604099484;42679692804;150441229;71297230;5518943756;125290285;131494284;8;0;80;0;10;17
2;94;1573566170816;1573566178052;7236;19545922280;42679594603;148620698;70487093;5518926350;125220192;133832378;39;20;6800;0;101;426
2;95;1573566178119;1573566185296;7177;19531820286;42679783920;149908424;70187265;5518962273;125103347;136384841;0;0;0;0;0;0
2;96;1573566185333;1573566192406;7073;19546387874;42679592585;150833274;70461901;5518927425;125127218;132374663;0;0;0;0;0;0
2;97;1573566192438;1573566199067;6629;19566302420;42679553573;151508074;70504886;5518920966;124943484;130908069;8;0;80;0;2;12
2;98;1573566199105;1573566206217;7112;19547742462;42679562575;149541667;70938740;5518922989;125136876;130889161;37;18;6800;0;93;373
2;99;1573566206290;1573566214095;7805;19588151320;42679548500;148795362;71495668;5518919795;125393489;134370335;0;0;0;0;0;0
2;100;1573566214126;1573566221031;6905;19553461136;42679546798;147470673;70027349;5518920188;125141167;133037182;0;0;0;0;0;0
3;52;1573566714108;1573566721161;7053;19493392502;42735494608;150889027;69960490;5517690966;123268650;133332604;43;114;1304;0;12;300
3;53;1573566721192;1573566728254;7062;19498101878;42735695288;150856575;69752530;5517727934;123355003;134943486;43;26;8368;0;150;463
3;54;1573566728318;1573566734969;6651;19423385210;42735340875;147413239;68960002;5517667977;123094865;132703618;0;0;0;0;0;0
3;55;1573566735055;1573566742274;7219;19484244288;42735478786;149676008;70152374;5517693390;123340106;134324523;0;0;0;0;0;0
3;56;1573566742352;1573566749111;6759;19432298802;42735473937;149560153;69266383;5517700599;123202533;132874701;0;0;0;0;0;0
3;57;1573566749200;1573566756207;7007;19475658758;42735620347;150861816;69331757;5517725350;123336436;133528394;87;142;9960;0;147;859
3;58;1573566756265;1573566763131;6866;19473514164;42735511184;149640730;69644468;5517706134;123289389;133296334;0;0;0;0;0;0
3;59;1573566763182;1573566769805;6623;19534927166;42735431292;150505404;69886620;5517691670;122992728;133634391;0;0;0;0;0;0
3;60;1573566769837;1573566776904;7067;19537181698;42735397891;151466800;70045514;5517690979;123301214;135404664;0;0;0;0;0;0
3;61;1573566777007;1573566783638;6631;19532703002;42735483564;149033631;69559441;5517707381;123196481;133397941;106;134;9928;0;202;1305
3;62;1573566783703;1573566790629;6926;19485180732;42735379722;149628283;69792789;5517689574;123154777;134209900;0;0;0;0;0;0
3;63;1573566790690;1573566797566;6876;19527396778;42735816673;148914396;70236226;5517784061;123216817;132734131;0;0;0;0;0;0
3;64;1573566797642;1573566804311;6669;19517670842;42735733011;150239415;70322822;5517750224;123182616;134603895;0;0;0;0;0;0
3;65;1573566804352;1573566811248;6896;19493445500;42735277588;149941401;69427555;5517669386;123238604;134042593;0;0;0;0;0;0
3;66;1573566811323;1573566818624;7301;19478467068;42735311408;148839188;70291462;5517677626;123405343;131607677;95;142;9800;0;117;1234
3;67;1573566818717;1573566825837;7120;19515312650;42735207068;148327680;70035185;5517658872;123392843;132833306;0;0;0;0;0;0
3;68;1573566825899;1573566833157;7258;19514526002;42735153523;151297366;69913216;5517651185;123482766;133190386;1;0;8;0;0;0
3;69;1573566833207;1573566840133;6926;19479485564;42735310865;149479900;69742504;5517678748;123275522;132801154;0;0;0;0;0;0
3;70;1573566840184;1573566847350;7166;19500312172;42735102524;150994216;69694212;5517643195;123341298;132756554;84;140;7976;0;146;1075
3;71;1573566847383;1573566854680;7297;19502225064;42735077694;151141148;70140248;5517640664;123415844;133192069;0;0;0;0;0;0
3;72;1573566854739;1573566861724;6985;19514677550;42735067970;148667032;70121606;5517638438;123317935;131624585;1;0;8;0;0;0
3;73;1573566861756;1573566868539;6783;19518330324;42735116094;150399066;70496009;5517646154;123265196;132420294;0;0;0;0;0;0
3;74;1573566868598;1573566875734;7136;19487132898;42734902811;149650634;70111963;5517608576;123370148;132778953;55;14;6424;0;119;606
3;75;1573566875767;1573566882698;6931;19502806290;42735061364;150638556;69587044;5517640001;123287704;134090593;0;0;0;0;0;0
3;76;1573566882761;1573566889677;6916;19481705494;42735056584;149650328;69571571;5517637550;123228384;131915151;0;0;0;0;0;0
3;77;1573566889709;1573566896721;7012;19481970046;42735098549;148994645;69754439;5517643074;123310994;131881907;0;0;0;0;0;0
3;78;1573566896784;1573566903838;7054;19450980670;42734872765;149929448;69642810;5517603661;123288458;134094243;66;8;5968;0;109;847
3;79;1573566903901;1573566910847;6946;19467307996;42734878158;148521099;69137984;5517604794;123267496;133433537;8;0;80;0;2;9
3;80;1573566910898;1573566917855;6957;19470577958;42734868731;150158272;69747905;5517602620;123443248;135118265;483;19;49232;0;1689;2397
3;81;1573566917907;1573566925018;7111;19516344578;42734930276;148305064;70005494;5517614010;123258212;132737398;0;0;0;0;0;0
3;82;1573566925101;1573566932353;7252;19470920036;42734916168;150363916;70097032;5517611556;123370513;133783675;0;0;0;0;0;0
3;83;1573566932390;1573566939538;7148;19508821052;42734928966;150569101;70124670;5517614435;123403275;133399049;7;1;80;0;1;7
3;84;1573566939584;1573566946565;6981;19473931870;42735010055;149312212;69741502;5517631076;123293604;132796645;0;0;0;0;0;0
3;85;1573566946624;1573566953852;7228;19546627460;42735343760;148332170;70018294;5517690360;123374576;133282539;145;14;8112;0;205;2550
3;86;1573566953883;1573566960814;6931;19457892602;42734939461;149448356;69579501;5517616861;123305142;132881398;0;0;0;0;0;0
3;87;1573566960885;1573566967564;6679;19485104812;42734779238;151261846;69594247;5517587783;123196822;134152180;8;0;80;0;2;9
3;88;1573566967595;1573566974626;7031;19458457768;42734870943;151009077;69884463;5517603772;123260149;132989394;0;0;0;0;0;0
3;89;1573566974681;1573566981868;7187;19528458198;42734779896;149839519;70148529;5517587807;123374527;133873945;58;18;8784;0;120;734
3;90;1573566981899;1573566988597;6698;19477203000;42735078019;149982038;69582142;5517640927;123255102;133435074;0;0;0;0;0;0
3;91;1573566988664;1573566995746;7082;19506094356;42734785089;147842722;70119002;5517589782;123293588;132236017;0;0;0;0;0;0
3;92;1573566995838;1573567002841;7003;19483868484;42734866269;151029363;69744492;5517603592;123301223;134745956;8;0;80;0;2;9
3;93;1573567002883;1573567010503;7620;19526671596;42734984714;151298023;71372543;5517625363;123266705;133914998;62;20;7824;0;137;784
3;94;1573567010561;1573567017403;6842;19512831818;42734784141;150933127;69488856;5517590224;123290438;134755489;0;0;0;0;0;0
3;95;1573567017470;1573567024623;7153;19507284402;42734905066;149851046;70152264;5517612271;123362883;135436596;0;0;0;0;0;0
3;96;1573567024654;1573567031732;7078;19531693850;42735192446;151184110;70020139;5517659527;123309002;133601759;8;0;80;0;2;9
3;97;1573567031803;1573567038809;7006;19519937492;42734646514;150204940;70071308;5517568098;123290843;132712268;0;0;0;0;0;0
3;98;1573567038862;1573567046054;7192;19493186350;42734662091;151222640;69700032;5517571472;123293608;134412676;35;20;7056;0;97;362
3;99;1573567046088;1573567052953;6865;19529511150;42734637587;150536710;69806262;5517566908;123305533;134887507;0;0;0;0;0;0
3;100;1573567053002;1573567059891;6889;19497215366;42734633413;150576675;69533957;5517566043;123268313;134328130;8;0;80;0;2;9
3;101;1573567059956;1573567066610;6654;19489513574;42734640049;149473205;69630569;5517567641;123245936;134263535;0;0;0;0;0;0
4;51;1573567553590;1573567560520;6930;19314949550;42678412022;146872174;69809365;5561268361;123305161;131044396;0;0;0;0;0;0
4;52;1573567560551;1573567568007;7456;19364213892;42678244240;148486804;71544718;5561246921;123140014;129636939;77;136;8168;0;114;971
4;53;1573567568056;1573567575381;7325;19437518302;42677996552;150541955;71482112;5561202992;123424600;131064617;0;0;0;0;0;0
4;54;1573567575413;1573567582356;6943;19417679676;42678080609;151372644;70638066;5561217912;123370595;130279696;1;0;8;0;0;0
4;55;1573567582417;1573567589539;7122;19386153458;42678160273;149610517;70443108;5561241756;123385331;131958636;0;0;0;0;0;0
4;56;1573567589573;1573567596918;7345;19347486234;42678425684;148476709;70517288;5561285012;123335071;130578595;94;134;8904;0;119;935
4;57;1573567597007;1573567604891;7884;19398697924;42678082915;148490043;71575429;5561226804;123318014;132277556;0;0;0;0;0;0
4;58;1573567604945;1573567612263;7318;19337987036;42678136364;148466822;70673392;5561236146;123297214;132725759;0;0;0;0;0;0
4;59;1573567612320;1573567619262;6942;19349540454;42678103126;148142892;70328076;5561230960;123242112;131223312;0;0;0;0;0;0
4;60;1573567619310;1573567626527;7217;19341482860;42677960321;149295232;69949307;5561209802;123338818;130812839;35;126;1304;0;17;489
4;61;1573567626560;1573567633663;7103;19331782766;42678213945;146713936;70208904;5561255385;123443254;130338279;34;16;6672;0;82;279
4;62;1573567633705;1573567640407;6702;19355881818;42678109678;148436788;69629216;5561237562;123297519;130730845;0;0;0;0;0;0
4;63;1573567640442;1573567647323;6881;19314171370;42678477481;147989936;70188896;5561318668;123322853;130448399;0;0;0;0;0;0
4;64;1573567647377;1573567654253;6876;19438445256;42678315348;150462372;70902126;5561272722;123354379;131176536;0;0;0;0;0;0
4;65;1573567654285;1573567661262;6977;19404504928;42677992089;146883230;70822015;5561214468;123405627;130058799;87;138;8296;0;138;1164
4;66;1573567661314;1573567668280;6966;19426352952;42677900926;150359725;70877322;5561200013;123380144;132693343;0;0;0;0;0;0
4;67;1573567668314;1573567675189;6875;19360440814;42677975429;147942501;70481794;5561213415;123353241;131115369;1;0;8;0;0;0
4;68;1573567675280;1573567682585;7305;19341062234;42677911650;149092366;70253140;5561204425;123486107;131298291;0;0;0;0;0;0
4;69;1573567682650;1573567689672;7022;19323343236;42677812481;145976551;69889738;5561185747;123352415;130574122;73;157;9824;0;124;855
4;70;1573567689745;1573567696807;7062;19374679318;42677779621;148235698;70088693;5561181710;123306757;132332649;0;0;0;0;0;0
4;71;1573567696841;1573567703338;6497;19298642956;42677728715;145815682;69547473;5561172976;123213705;130433884;1;0;8;0;0;0
4;72;1573567703372;1573567710750;7378;19383533488;42677735660;148369049;70532176;5561175168;123492726;130601189;0;0;0;0;0;0
4;73;1573567710818;1573567717498;6680;19311580162;42677721226;147541299;69445808;5561172546;123268058;133056026;76;150;7832;2;39;846
4;74;1573567717549;1573567724915;7366;19437728542;42677660952;148210118;70358193;5561162596;123389133;131371354;4;0;16;-2;126;240
4;75;1573567724982;1573567733047;8065;19360975758;42677659499;149632180;71033634;5561165869;123721382;130355050;0;0;0;0;0;0
4;76;1573567733117;1573567740285;7168;19348939956;42677737258;147883214;70318450;5561175133;123328373;131774472;0;0;0;0;0;0
4;77;1573567740317;1573567746608;6291;19301476378;42677631275;145487716;68966261;5561156695;123001690;129898617;0;0;0;0;0;0
4;78;1573567746641;1573567753942;7301;19336963576;42677608106;149237492;70081035;5561153776;123518758;130408540;38;20;6304;0;90;322
4;79;1573567754010;1573567761385;7375;19325119034;42677502572;147547104;69737054;5561134494;123489913;132135560;0;0;0;0;0;0
4;80;1573567761461;1573567768812;7351;19365630968;42677683348;148669959;70746658;5561167955;123536261;131852647;467;37;49424;0;1798;2308
4;81;1573567768866;1573567775864;6998;19370400350;42677464002;147934998;70345445;5561128168;123312040;131456289;0;0;0;0;0;0
4;82;1573567775897;1573567782776;6879;19379876042;42677563458;148770131;70552065;5561145824;123330711;129541912;8;0;80;0;2;9
4;83;1573567782867;1573567789999;7132;19350187672;42677470530;146456027;70031451;5561130013;123362570;130996494;0;0;0;0;0;0
4;84;1573567790069;1573567797094;7025;19349857420;42677641373;150260511;70020418;5561161663;123338728;133421152;131;20;7752;0;159;1787
4;85;1573567797127;1573567804274;7147;19343377502;42677697182;146189270;70302076;5561171630;123361405;129798323;0;0;0;0;0;0
4;86;1573567804306;1573567811444;7138;19383921118;42677606784;148205997;70055219;5561153194;123402897;131212180;16;1;224;0;4;38
4;87;1573567811480;1573567818815;7335;19346287428;42677607439;149793228;70150831;5561154191;123376873;130771302;0;0;0;0;0;0
4;88;1573567818931;1573567826338;7407;19348874256;42677997277;149897325;70136423;5561275543;123351498;131664496;38;30;8848;0;139;605
4;89;1573567826478;1573567833433;6955;19318600864;42677436319;145963426;69938205;5561125498;123297889;130873374;0;0;0;0;0;0
4;90;1573567833475;1573567840496;7021;19351341948;42677417210;148531749;70153743;5561122561;123316650;131848948;7;0;72;0;1;7
4;91;1573567840558;1573567847336;6778;19341901296;42677408777;146914486;69779996;5561122402;123300543;132540870;0;0;0;0;0;0
4;92;1573567847381;1573567854692;7311;19407946586;42677399675;149306535;70448630;5561120143;123527594;131499564;45;30;8304;0;123;576
4;93;1573567854771;1573567861727;6956;19368946190;42677524520;148177025;69956841;5561142680;123262795;132718889;1;0;8;0;0;0
4;94;1573567861780;1573567869171;7391;19336151086;42677480596;147567148;70254984;5561134126;123464490;130906216;0;0;0;0;0;0
4;95;1573567869206;1573567876356;7150;19369554718;42677448088;145996002;70119158;5561130513;123408281;131441555;7;0;72;0;1;7
4;96;1573567876409;1573567883707;7298;19372391060;42677373596;148490216;70471038;5561115072;123454296;131544107;0;0;0;0;0;0
4;97;1573567883739;1573567890878;7139;19362967344;42677380862;146979256;70290625;5561116578;123426799;130861802;44;22;7128;0;117;524
4;98;1573567890910;1573567897733;6823;19327328890;42677392777;147505001;69573253;5561119012;123169014;130615159;0;0;0;0;0;0
4;99;1573567897821;1573567905128;7307;19363789616;42677393608;147353728;70387454;5561119575;123483191;130587364;7;0;72;0;1;7
4;100;1573567905190;1573567912148;6958;19387077930;42677387959;150636700;69917255;5561118805;123399888;130746324;0;0;0;0;0;0
