0;59;1572425100110;1572425106244;6134;18910920684;42628009219;148820431;66654760;5520407272;122379784;131490296;425;919;22176;0;169;671
0;60;1572425106275;1572425112441;6166;19011440516;42628046065;160567997;67631981;5520436601;123141418;134064562;1198;668;68336;0;876;53885
0;61;1572425112476;1572425119432;6956;19196247462;42628075377;190024645;69502973;5520474018;125227101;142338064;1039;530;25904;0;313;3014
0;62;1572425119487;1572425125919;6432;18986027026;42627934791;155461622;68828485;5520410302;122905742;133172341;862;436;21696;0;223;2152
0;63;1572425125953;1572425132452;6499;19019477816;42628457392;162852617;68104957;5520524816;123407224;136319849;499;893;22968;0;202;978
0;64;1572425132511;1572425139008;6497;19052438776;42628062919;165673132;68046709;5520440727;123469386;139266079;738;1208;73016;0;826;55842
0;65;1572425139052;1572425145645;6593;19121065054;42628005380;177506940;68734904;5520446056;124524813;140478133;1076;323;23344;12;314;3428
0;66;1572425145678;1572425152468;6790;19086042574;42627983890;174128156;68431001;5520439050;124271060;138031947;950;618;25872;-12;288;2478
0;67;1572425152502;1572425158630;6128;18975719280;42627855903;154508888;66997499;5520391368;122572562;134055855;772;510;21432;0;202;1804
0;68;1572425158663;1572425165198;6535;19087400958;42627965616;173434589;69073583;5520437293;124093381;137737764;488;920;23232;0;199;926
0;69;1572425165257;1572425172026;6769;19128825830;42627677522;179511815;68767056;5520394521;124570102;139319410;1085;1087;77904;14;1027;68703
0;70;1572425172086;1572425178862;6776;19086391514;42627807805;168488576;69113715;5520404914;124083327;136834438;1307;179;24544;-14;345;4332
0;71;1572425178896;1572425185168;6272;19068831072;42627697612;169846795;68220184;5520391133;123837701;138858710;658;638;21384;0;193;1412
0;72;1572425185256;1572425191801;6545;19042024888;42627683516;161844241;68565870;5520376634;123351202;135526778;739;655;23304;0;256;1852
0;73;1572425191847;1572425198488;6641;19086998728;42627755395;165751762;69001463;5520393759;123738861;136063587;410;982;22968;0;176;698
0;74;1572425198526;1572425204919;6393;19099783656;42627682442;172511534;68324060;5520388250;123980903;137423855;1228;856;82240;0;1055;74116
0;75;1572425204966;1572425211737;6771;19112511352;42627702509;175710123;69338972;5520397843;124426681;138298406;1024;368;22968;0;315;3270
0;76;1572425211791;1572425218190;6399;19023451206;42627634992;159759604;68488941;5520364316;123167575;133898835;834;527;22744;0;283;2161
0;77;1572425218222;1572425225255;7033;19257957428;42627522962;200104998;69219212;5520394966;126016267;144869596;695;858;25640;0;229;1254
0;78;1572425225300;1572425232015;6715;19072019274;42627644163;170948907;68486528;5520387839;124110736;138163355;950;1058;64312;0;860;67141
0;79;1572425232049;1572425238679;6630;19070930114;42627572826;167783135;68425374;5520363842;123926937;135688945;1136;279;23608;0;308;3650
0;80;1572425238739;1572425244816;6077;18963650190;42627496470;148563244;67760903;5520328601;122394362;131927225;553;631;19536;0;168;1447
0;81;1572425244848;1572425251096;6248;19037749862;42627519159;162959808;68179460;5520350782;123474195;134374300;890;347;20736;0;259;2126
0;82;1572425251129;1572425258462;7333;19347859410;42627600293;220671332;69890562;5520430088;127231593;150055685;650;998;27192;0;283;1203
0;83;1572425258516;1572425264929;6413;19025877142;42627523538;151708077;68958241;5520339895;123187881;132956048;1361;960;111800;0;2518;67356
0;84;1572425264992;1572425271214;6222;19047294612;42627697319;164354408;68211046;5520386844;123543773;134758740;1115;133;20592;0;305;3800
0;85;1572425271300;1572425277907;6607;19095520310;42627860744;170882304;68779063;5520426505;123906902;137065010;836;623;24120;0;372;2378
0;86;1572425277939;1572425285145;7206;19170450868;42627685230;186776489;69457108;5520408664;125102594;141431999;845;758;26744;0;298;1797
0;87;1572425285210;1572425291594;6384;19010318506;42627493002;155966080;68249614;5520339948;122974262;132405453;376;872;20592;0;135;704
0;88;1572425291642;1572425298683;7041;19182232630;42627398495;180250968;69226722;5520349422;125059952;140533636;1907;747;87984;0;1926;226976
0;89;1572425298715;1572425305550;6835;19172715912;42627545353;188412243;69300606;5520383859;125389910;140640934;915;493;23232;0;265;2745
0;90;1572425305605;1572425312705;7100;19239933436;42627467334;200287521;69618134;5520382164;125885677;142911009;1061;461;25392;0;312;2708
0;91;1572425312739;1572425319048;6309;19065618342;42627513975;169879998;68167409;5520358325;123822315;137232913;416;944;22440;0;177;740
0;92;1572425319101;1572425325801;6700;19118574294;42627507827;178560764;68197721;5520366798;124462128;139332647;1005;1110;68784;0;1120;73196
0;93;1572425325855;1572425331944;6089;19013024908;42627643084;163898547;67466544;5520370434;123189185;133953260;1029;171;19800;0;295;3670
0;94;1572425331976;1572425338286;6310;19043386338;42627600782;162608800;68535296;5520362803;123214733;136048499;661;587;20592;0;222;1896
0;95;1572425338356;1572425344624;6268;18995914146;42627516222;153213989;68560544;5520341489;122634071;132504600;919;346;21160;0;245;2457
0;96;1572425344683;1572425351469;6786;19095169326;42627476071;171511338;69130111;5520355348;124281319;137354060;526;978;24816;0;214;993
0;97;1572425351519;1572425358277;6758;19003999334;42627352095;153936708;68422666;5520313373;123082710;132441487;1080;984;73440;0;1063;84075
0;98;1572425358313;1572425364866;6553;19059084550;42627495055;168286191;68600694;5520355939;123920964;135830851;1197;147;22176;0;338;4085
0;99;1572425364907;1572425370981;6074;18988121688;42627350139;154747062;68156999;5520312820;122696622;133777435;603;629;20328;0;203;1555
0;100;1572425371023;1572425377497;6474;19041007268;42627366013;164442606;68934769;5520329515;123627189;135769839;785;544;22216;0;233;1944
0;101;1572425377550;1572425383403;5853;18936246282;42627434443;146645422;67884662;5520318296;122267576;129851482;340;764;18216;0;130;640
0;102;1572425383440;1572425390110;6670;19114596524;42627491091;177646777;68805456;5520361883;124389923;137753741;1166;780;59576;0;919;77755
0;103;1572425390155;1572425397253;7098;19238649512;42627837446;202773810;69512739;5520448905;125989546;145854094;1283;371;27384;0;462;4282
0;104;1572425397302;1572425403967;6665;19147632674;42627594596;180347821;69151113;5520384071;124556692;140661746;922;520;24072;0;257;2399
0;105;1572425404001;1572425410406;6405;19015314772;42627353784;160520941;68237905;5520322960;123238650;135710519;486;842;21912;0;187;970
0;106;1572425410450;1572425416926;6476;19036476596;42627286055;161951015;68457108;5520313926;123300913;137018956;484;956;23760;0;192;889
0;107;1572425416974;1572425423544;6570;19028875106;42627546226;159460485;68867191;5520357841;123506764;132680681;1415;709;84816;0;1124;117699
0;108;1572425423576;1572425430830;7254;19232347130;42627031028;200427782;69724895;5520313563;125765524;144672516;1033;567;26400;0;374;3076
1;59;1572425967022;1572425973091;6069;19005683298;42750386641;150821249;66616091;5541406057;122365603;133090519;466;1107;39336;111;302;16821
1;60;1572425973147;1572425978987;5840;18980389966;42750132231;146772331;66326277;5541357773;121740370;133380480;971;376;38656;-111;616;19643
1;61;1572425979039;1572425985468;6429;19108483650;42750284249;167333768;68326660;5541413060;123196809;137290526;996;496;24904;0;351;2946
1;62;1572425985522;1572425992453;6931;19197161860;42750265617;174128534;69055410;5541424163;123952755;140097906;979;573;25608;0;265;2182
1;63;1572425992494;1572425999776;7282;19333577836;42750684507;200789790;69854711;5541546285;125749064;147510899;687;1077;29368;0;220;1108
1;64;1572425999809;1572426006246;6437;19075398882;42750594119;157001659;69000895;5541459199;122769332;135286937;738;1026;57000;0;696;47917
1;65;1572426006298;1572426012778;6480;19080276450;42750064332;162531553;68907138;5541370885;123182181;136491750;1219;172;23144;0;354;4103
1;66;1572426012812;1572426019215;6403;19137697958;42750188206;170646499;68692238;5541400216;123337599;138765249;706;638;22176;0;212;1905
1;67;1572426019249;1572426025728;6479;19099631524;42750191905;167159188;68446269;5541400675;123279733;137777288;840;603;23856;0;253;1872
1;68;1572426025792;1572426032123;6331;19111971590;42750127477;164672143;68168218;5541383358;122977584;136753039;521;907;23824;0;238;1218
1;69;1572426032155;1572426038614;6459;19186849150;42750175901;175294226;69092798;5541409822;123977355;139337302;908;944;63352;14;797;40093
1;70;1572426038667;1572426045501;6834;19250100146;42749937176;189715927;69457761;5541381628;124638668;142542812;1248;354;26752;-14;410;4026
1;71;1572426045547;1572426052229;6682;19085599756;42749962566;159557455;69215120;5541353066;123010993;135032474;843;629;24288;0;235;2054
1;72;1572426052264;1572426057990;5726;18980985208;42750032392;145484079;67789610;5541350507;121848419;130671845;525;584;18552;0;143;1130
1;73;1572426058039;1572426064086;6047;19042228996;42749876686;155873911;67173032;5541330004;122287830;134207246;401;863;20856;0;203;958
1;74;1572426064134;1572426071311;7177;19219394594;42749872523;183484169;69471823;5541363357;124536631;140368999;1519;859;84088;0;1304;88579
1;75;1572426071345;1572426078088;6743;19052642884;42750077566;154056411;68851719;5541367347;122733536;133882263;927;517;24112;0;296;2726
1;76;1572426078160;1572426084452;6292;19079526448;42749888275;158672197;68586925;5541337569;122599736;134721169;797;515;21648;0;208;1884
1;77;1572426084507;1572426090937;6430;19105619130;42749854934;163703049;68751591;5541339569;123109290;135926919;610;738;22504;0;245;1574
1;78;1572426090999;1572426097171;6172;19022149324;42749875335;148881226;68811533;5541329463;122254442;133041376;509;1130;55256;0;575;9237
1;79;1572426097226;1572426103900;6674;19197567594;42749811489;180546180;69030644;5541354663;124103505;141280258;1313;271;26136;0;360;4117
1;80;1572426103966;1572426111058;7092;19118813150;42750146050;162844954;69280090;5541390231;123203964;137374728;930;674;26752;0;326;2446
1;81;1572426111100;1572426118083;6983;19252231892;42749734597;190196701;69479692;5541355890;125049159;146279808;824;792;26664;0;269;1750
1;82;1572426118132;1572426124978;6846;19142834092;42749615084;168549395;69275345;5541305278;123469922;138009609;501;990;24872;0;226;1054
1;83;1572426125018;1572426131499;6481;19123541360;42749655566;168814386;68821535;5541310938;123318576;136600423;1424;681;91544;1;2657;44518
1;84;1572426131532;1572426137870;6338;19080382884;42749600744;155836215;68953300;5541289856;122729661;133798901;1189;239;29272;-1;1418;8714
1;85;1572426137905;1572426144178;6273;19055470758;42749781012;157618409;68571511;5541324714;122671063;134881553;722;623;22208;0;207;1719
1;86;1572426144237;1572426151150;6913;19208148360;42749911352;181204742;69313657;5541377979;124242750;140554757;877;711;26464;0;294;1945
1;87;1572426151207;1572426157943;6736;19140624966;42749508500;165469817;68879226;5541287002;123216135;137197955;731;1454;82840;13;834;72846
1;88;1572426157977;1572426164784;6807;19174548942;42749580606;172660095;68969651;5541306349;124037168;139974541;1187;332;25096;-13;406;4377
1;89;1572426164850;1572426171310;6460;19159574306;42749550901;172129891;68662833;5541298786;123414477;138309715;1006;474;24152;0;374;5171
1;90;1572426171366;1572426178683;7317;19299676636;42749637439;195596349;70123598;5541346008;125200335;143990854;970;712;27784;0;321;2044
1;91;1572426178716;1572426185328;6612;19216385096;42749628647;185312473;68919092;5541329560;124207367;142358207;612;911;25400;0;218;990
1;92;1572426185377;1572426192179;6802;19230586516;42749628682;190594239;69418108;5541332141;124580961;143383800;1109;976;70056;0;823;61611
1;93;1572426192229;1572426198906;6677;19167820970;42749737035;180519648;68888605;5541344863;123944100;140130582;1234;210;24120;0;330;3928
1;94;1572426198941;1572426205908;6967;19284859534;42749755277;201008884;68891538;5541370651;125376858;146535965;941;644;26168;0;279;2078
1;95;1572426205968;1572426213092;7124;19177955852;42749707099;179286539;69482218;5541339695;124055205;140916520;805;879;28048;0;253;1555
1;96;1572426213135;1572426219358;6223;19072836436;42749655986;156479129;68691332;5541297511;122464898;133414193;474;1267;44344;134;411;20623
1;97;1572426219398;1572426225443;6045;19030688134;42749484664;152660941;68314212;5541265509;122135776;133399876;1017;434;47760;-134;688;47380
1;98;1572426225491;1572426232342;6851;19213918864;42749545501;187564824;69210432;5541315352;124331221;141703725;1167;439;26816;0;360;3457
1;99;1572426232388;1572426239057;6669;19227766380;42749601703;188086403;68939118;5541323321;124302556;141810370;886;570;24024;0;231;1864
1;100;1572426239119;1572426246683;7564;19339760790;42749622234;200579674;69908437;5541347149;125530451;146468840;847;949;29904;0;293;1912
1;101;1572426246748;1572426252889;6141;19067789946;42749474961;161951830;68056915;5541275366;122775360;136694968;997;1033;71968;0;892;94712
1;102;1572426252927;1572426259548;6621;19080024016;42749563100;154753256;68895407;5541280576;122439590;136428510;1230;161;23144;0;354;4225
1;103;1572426259585;1572426266266;6681;19178093238;42749651797;171918155;69312761;5541324735;123978236;139905617;885;555;23760;0;252;2277
1;104;1572426266328;1572426273258;6930;19180170818;42749779152;171849254;69177143;5541342267;123743329;139265552;862;727;26496;0;256;1844
1;105;1572426273292;1572426279535;6243;19017187076;42749482879;150171062;68170543;5541264847;122253568;133347757;317;979;21384;0;232;952
1;106;1572426279568;1572426285696;6128;19048993176;42749586102;150987082;68115024;5541282415;122071790;134568516;943;721;58248;0;755;53419
1;107;1572426285760;1572426292850;7090;19196318710;42749683201;177583941;69882030;5541335512;124156831;139866582;1225;235;24400;0;380;3975
1;108;1572426292902;1572426300204;7302;19301407320;42749325181;200878313;69756143;5541300811;125545580;145501598;1002;646;27192;0;272;2138
2;56;1572426814236;1572426821124;6888;19282583102;42773696234;171727337;69666855;5545745378;125260745;134592309;690;734;23496;0;193;1301
2;57;1572426821172;1572426827671;6499;19274401408;42773855935;173703429;68822359;5545769717;125078770;133588976;912;1152;81864;63;981;108496
2;58;1572426827723;1572426834488;6765;19285483538;42773755659;171835677;69215368;5545748029;124859422;133396047;1123;316;24320;-63;351;3868
2;59;1572426834534;1572426841078;6544;19274689174;42773692690;172846045;68685367;5545739931;125197243;132702303;792;524;22000;0;246;2290
2;60;1572426841110;1572426847395;6285;19199339304;42773592682;159866715;68529974;5545708430;124134632;129693362;720;555;20856;5;203;1703
2;61;1572426847432;1572426854175;6743;19298473888;42773789228;175903969;68534219;5545766210;125366021;135655438;688;965;27456;-5;260;1248
2;62;1572426854224;1572426860325;6101;19118068258;42773693905;147301694;66906152;5545715815;123399435;127131265;835;944;60944;0;725;46653
2;63;1572426860364;1572426866833;6469;19141087056;42774241071;146224053;68020844;5545831771;123573583;126894261;1072;208;21120;0;301;3593
2;64;1572426866865;1572426873106;6241;19155946352;42773760451;148058842;68232202;5545731569;123541094;128294785;635;584;20408;0;206;1734
2;65;1572426873164;1572426879952;6788;19275317704;42773462431;166347378;69105744;5545698222;124657727;133074504;886;554;23760;0;229;2032
2;66;1572426879992;1572426886302;6310;19101085100;42773519696;145584946;66935484;5545684333;123376078;126954112;589;776;22776;0;216;1328
2;67;1572426886335;1572426892922;6587;19294066440;42773518227;176270249;68521799;5545723649;125401509;135142663;1025;976;69168;0;845;47615
2;68;1572426892974;1572426899851;6877;19271467976;42773555050;171163798;69219776;5545725903;125209154;133416368;1257;327;26136;0;354;4003
2;69;1572426899902;1572426906154;6252;19215916436;42773307649;154853446;68406387;5545661602;124042038;130317044;675;592;21200;0;247;1541
2;70;1572426906186;1572426912847;6661;19232210620;42773380382;158601709;69403821;5545676530;124334448;130595282;512;752;20856;0;149;969
2;71;1572426912881;1572426919479;6598;19273895810;42773343411;173230494;68872454;5545688898;125167678;135277967;497;884;23040;0;185;1059
2;72;1572426919557;1572426925812;6255;19149068584;42773400052;151711136;68305894;5545673314;123668947;128925482;1058;657;63216;0;798;40742
2;73;1572426925890;1572426932836;6946;19322763616;42773386576;179456443;68770666;5545700858;125353322;136711605;1087;484;26216;0;357;3377
2;74;1572426932869;1572426940235;7366;19468736314;42773392155;203023534;69850943;5545738438;127377802;142977530;1046;715;29072;0;312;2301
2;75;1572426940269;1572426947958;7689;19451239528;42773377764;194087774;69978122;5545728228;127018909;140236901;780;1060;30512;0;283;1469
2;76;1572426948017;1572426955009;6992;19345747374;42773302510;171780385;70027979;5545684089;125497971;133670136;1098;874;64272;0;763;45501
2;77;1572426955045;1572426961831;6786;19210747598;42773216394;156988872;68668327;5545649570;124087963;130778749;1181;291;24288;0;349;3759
2;78;1572426961864;1572426968254;6390;19217771366;42773210036;162781781;68592582;5545655515;124359513;131467200;675;625;21736;0;215;1654
2;79;1572426968312;1572426975609;7297;19342245418;42773142796;184174396;69550926;5545667249;125810657;137334075;746;886;26928;0;237;1479
2;80;1572426975657;1572426982284;6627;19234183372;42773272871;166090900;68865999;5545672945;124586177;131928825;759;1031;56480;0;715;29266
2;81;1572426982337;1572426988700;6363;19153817672;42773043530;147048605;68597691;5545607373;123428013;127108944;889;263;19008;0;242;2769
2;82;1572426988736;1572426995834;7098;19359356618;42773186725;184975638;69345989;5545676722;125897020;136810761;991;565;25960;0;308;2814
2;83;1572426995874;1572427003389;7515;19478475244;42773143860;208826041;70471909;5545694180;127320819;142516403;1059;637;27984;0;312;2419
2;84;1572427003437;1572427010162;6725;19315822338;42773278386;182258470;69390521;5545693002;125731698;136445633;529;914;24080;0;229;926
2;85;1572427010195;1572427016754;6559;19178011332;42773400202;155254754;68806828;5545686680;124129390;128960970;1412;795;102736;0;2708;59286
2;86;1572427016786;1572427023487;6701;19209357094;42773183620;161334345;68575207;5545649811;124425406;131560880;1138;259;23328;0;323;3715
2;87;1572427023523;1572427030384;6861;19307567936;42773214843;178105508;69678011;5545676730;125627661;135626050;766;658;23496;0;218;1595
2;88;1572427030440;1572427037397;6957;19195185458;42773134228;159393092;69109934;5545640266;124413121;131213240;658;862;25080;0;204;1310
2;89;1572427037450;1572427043781;6331;19155762538;42773115291;146391178;68574004;5545620581;123515534;127474679;728;932;56848;0;773;42556
2;90;1572427043832;1572427049998;6166;19143464812;42773125100;149806733;68206090;5545623510;123561846;127677559;857;295;19008;0;239;2725
2;91;1572427050045;1572427057440;7395;19483125636;42773106267;207476953;70143316;5545691537;127452700;145172637;1194;555;28616;0;388;4499
2;92;1572427057494;1572427064276;6782;19211395692;42773131508;152907909;69221932;5545635374;124350065;131230781;824;617;23792;0;238;1853
2;93;1572427064332;1572427070773;6441;19257865740;42773320503;173037096;68707903;5545692663;124986754;135078227;565;831;23296;0;245;1274
2;94;1572427070836;1572427077961;7125;19299590496;42773163574;172765288;70117525;5545664079;125594192;134886274;1181;892;72848;0;984;78697
2;95;1572427078018;1572427085073;7055;19289165366;42773105703;173604992;69782388;5545653138;125415252;133030405;1161;347;25176;0;332;3681
2;96;1572427085104;1572427092159;7055;19329611162;42773473091;183278816;69640921;5545727700;125877271;136918997;866;606;24288;0;228;1914
2;97;1572427092203;1572427098791;6588;19199907390;42772982472;162427194;68862868;5545615675;124298475;130851514;517;795;21648;0;165;1009
2;98;1572427098824;1572427105664;6840;19273849820;42773032163;168123046;69156734;5545639253;125032341;133626976;816;1070;60192;0;711;36578
2;99;1572427105721;1572427112747;7026;19378322894;42772941604;191292493;69377850;5545645699;126500986;140122827;1295;273;25872;0;402;4331
2;100;1572427112792;1572427119300;6508;19205214782;42772888602;157826854;68482736;5545600518;124217061;131165969;936;567;24984;0;298;2565
2;101;1572427119353;1572427125684;6331;19167912074;42772900710;156976354;67114073;5545598344;124009171;129898930;690;734;23496;0;192;1405
2;102;1572427125725;1572427131798;6073;19112357322;42772901614;150003128;67445561;5545590926;123574075;128997267;323;946;21184;0;125;693
2;103;1572427131858;1572427138108;6250;19194786002;42772934426;155578183;68661442;5545604307;123810685;131856932;884;949;69168;0;868;48866
2;104;1572427138152;1572427145045;6893;19281812076;42773202145;165162446;69370999;5545661739;124659153;133740449;1276;214;24616;0;384;4274
2;105;1572427145102;1572427151841;6739;19194117322;42772916043;157060495;69133575;5545601956;124308316;131350540;871;620;24896;0;266;2129
3;54;1572427653208;1572427659819;6611;19847425128;43680975423;154279706;68246360;5676741467;135010892;131394790;1141;219;22440;0;316;3526
3;55;1572427659886;1572427666953;7067;19972165484;43681064698;175405311;69517268;5676785178;136398943;138845689;711;764;24632;0;280;1737
3;56;1572427666985;1572427674151;7166;19959012490;43681033263;181737621;69594420;5676791825;136664634;139327609;752;736;24552;0;236;1557
3;57;1572427674195;1572427681266;7071;19895931730;43681141234;169517436;69700872;5676799491;135944360;135499507;926;1137;60696;0;853;58490
3;58;1572427681310;1572427688221;6911;19962741330;43681134219;174806468;69711576;5676802959;136209533;137235306;1170;206;22704;0;327;3909
3;59;1572427688282;1572427696014;7732;20155489508;43681075896;203749015;70437961;5676826532;137919606;145138548;1045;755;29920;12;331;2683
3;60;1572427696058;1572427703436;7378;20039452066;43680975543;186088029;69445232;5676794139;137333366;140490786;767;733;24816;-12;215;1433
3;61;1572427703495;1572427710135;6640;19818030656;43680890586;152534700;67439469;5676737848;134853991;132531879;530;1023;29856;146;230;4644
3;62;1572427710169;1572427716716;6547;19863108448;43681036408;158880534;68390136;5676773749;135513289;132997957;1299;458;50864;-146;874;70113
3;63;1572427716770;1572427723647;6877;19923861822;43681473412;171596923;69668997;5676880982;136244385;136340921;903;479;23080;0;266;2679
3;64;1572427723692;1572427730775;7083;19930631696;43680825399;166061908;69722549;5676747393;136073135;134226381;847;657;24816;0;215;1839
3;65;1572427730831;1572427737332;6501;19787159978;43680932774;147087075;67275779;5676738855;134597002;129732921;612;828;23760;0;220;1411
3;66;1572427737365;1572427743500;6135;19755950726;43680910760;145001238;66984096;5676735871;134339509;127638207;729;1097;63456;0;689;44324
3;67;1572427743548;1572427750392;6844;19975888630;43680898280;178788611;68961593;5676773508;136330865;138420876;1205;187;22968;0;327;3890
3;68;1572427750447;1572427757293;6846;19916546054;43680833738;168007978;68755405;5676751610;135966981;136492960;778;667;24120;0;252;1995
3;69;1572427757325;1572427763910;6585;19893184886;43680816765;166141032;68742270;5676745611;135659872;135617576;773;539;21648;0;299;1929
3;70;1572427763968;1572427770731;6763;19859891630;43680804828;159009186;69109464;5676733106;135204353;132986053;437;878;21968;0;171;967
3;71;1572427770765;1572427777877;7112;19919943182;43680740254;170314831;69758945;5676735235;136013657;135678980;1266;634;60256;0;895;56583
3;72;1572427777926;1572427785294;7368;20081834406;43681097247;198899299;70336143;5676838971;137980554;141895693;1053;600;27560;0;338;3032
3;73;1572427785343;1572427792504;7161;19994654302;43680768566;180479161;69468362;5676759235;136841802;137929197;993;591;26136;0;302;2288
3;74;1572427792537;1572427799728;7191;20068790474;43680773068;196022051;69452341;5676775246;137580399;141696797;610;1026;27264;0;303;1103
3;75;1572427799790;1572427807733;7943;20072332142;43680896847;196869308;70614266;5676793566;137498086;141476037;1319;812;63664;0;779;41050
3;76;1572427807782;1572427815680;7898;20191365504;43680770695;214071276;70893105;5676797456;138814230;146274740;1268;607;31240;0;372;3566
3;77;1572427815713;1572427822824;7111;19949716524;43680630919;173476281;69805429;5676723554;136216334;134985346;849;559;23232;0;219;1926
3;78;1572427822878;1572427829910;7032;19973927412;43680782067;178622174;69992356;5676759377;136585272;136673518;478;962;23760;0;274;1070
3;79;1572427829944;1572427836485;6541;19822819894;43680604085;157760468;68530530;5676697811;135158423;131960468;1026;857;65832;0;843;66637
3;80;1572427836538;1572427844477;7939;20070799726;43680583627;197120800;70794015;5676740091;137645649;143104670;1823;395;72288;0;3467;26139
3;81;1572427844532;1572427851641;7109;20074211746;43680486559;195182433;69387173;5676727811;137638940;142240384;932;655;26480;0;260;2008
3;82;1572427851686;1572427859561;7875;20205805342;43680585903;219585317;71051709;5676773326;139159743;147352362;801;959;29040;0;396;1837
3;83;1572427859618;1572427866476;6858;19945396530;43680530592;166225337;69438302;5676700015;135816957;134547189;1013;1153;74696;14;899;70343
3;84;1572427866511;1572427872987;6476;19861622460;43680597289;159917142;68852011;5676705137;135272848;132302305;1152;142;21384;-14;322;4063
3;85;1572427873085;1572427880124;7039;19905189736;43680992020;163010519;69490902;5676778197;135605348;135155785;997;575;25704;0;309;3798
3;86;1572427880156;1572427887156;7000;20004113496;43680825429;189420252;69154984;5676777312;137084644;139196622;851;685;25344;0;278;1784
3;87;1572427887226;1572427894388;7162;20042197012;43680409202;189202379;69380265;5676705349;137339267;140819091;746;971;34728;129;279;3512
3;88;1572427894442;1572427900828;6386;19776213482;43680329486;146488355;68109357;5676641162;134634631;130368909;1140;484;53416;-129;807;53547
3;89;1572427900880;1572427907552;6672;19932326756;43680480402;174232893;68932884;5676698474;136122785;136106806;1006;328;22328;0;312;3085
3;90;1572427907611;1572427914398;6787;20025723832;43680385082;176250117;69055369;5676683705;136356029;137926346;810;614;23496;0;230;1850
3;91;1572427914450;1572427921295;6845;19959350626;43680370233;166934808;69351856;5676670666;135845461;134487068;571;854;23528;0;230;1143
3;92;1572427921341;1572427928415;7074;20012070934;43680489245;179985587;69278288;5676707876;136550635;138058854;1174;1146;89600;0;1163;110758
3;93;1572427928482;1572427935475;6993;19971647914;43680613621;174949157;69089714;5676727768;136465044;136422252;1303;201;24816;0;368;4479
3;94;1572427935517;1572427942015;6498;19856868846;43680539040;152482229;68615541;5676681901;134783248;130877489;745;493;20720;0;218;1813
3;95;1572427942088;1572427949223;7135;19993739320;43680559713;181153926;69435753;5676725058;136729909;139666264;752;743;24552;9;228;1617
3;96;1572427949272;1572427956122;6850;19905656790;43681054310;167683136;69055728;5676786282;135850886;135264434;583;885;24376;-8;214;1186
3;97;1572427956182;1572427962781;6599;19873755498;43680318568;160545644;68756309;5676657313;135416553;133810017;1203;672;71704;-1;921;55846
3;98;1572427962863;1572427969662;6799;19969001518;43680326930;174974942;69019191;5676674903;136207484;138524657;994;420;23624;0;295;2881
3;99;1572427969704;1572427976987;7283;20073283770;43680343032;197197014;69654238;5676708922;137802420;142342758;1020;612;26928;0;275;2263
3;100;1572427977030;1572427984039;7009;19945205270;43680304646;169128424;69466369;5676665425;135861212;136278504;461;979;23824;3;249;915
3;101;1572427984088;1572427991079;6991;19997440858;43680328737;186391523;69090185;5676691820;137039498;139766131;1248;1046;89688;-3;1319;119435
3;102;1572427991116;1572427998632;7516;20086869362;43680353356;198837218;70224163;5676711105;137778040;143666316;1289;342;27144;0;460;4462
3;103;1572427998672;1572428005422;6750;19910124098;43680279084;160593846;68881440;5676648972;135793561;133395087;818;546;22800;0;252;1898
4;56;1572428507387;1572428514358;6971;19201201680;42629565657;177493358;69196086;5552722129;124712148;137499340;829;680;25176;0;260;1783
4;57;1572428514407;1572428521378;6971;19188035838;42629873569;175821851;68941183;5552778662;124955086;139108191;776;744;25080;0;303;1652
4;58;1572428521423;1572428527782;6359;19065855446;42629409689;153255302;66890418;5552666291;122866726;132160096;779;1183;65728;0;815;47155
4;59;1572428527827;1572428534308;6481;19018239298;42629554396;147530865;67944396;5552686771;122809404;130711332;1189;171;22440;0;321;3794
4;60;1572428534354;1572428541029;6675;19070884270;42629504086;153456297;67374884;5552685840;123243012;131897609;752;739;25096;0;351;2480
4;61;1572428541077;1572428548396;7319;19288058832;42629618554;192707992;69846046;5552749940;125406931;142193284;874;678;25608;0;284;1946
4;62;1572428548428;1572428555281;6853;19044102030;42629587066;150992601;67864416;5552701014;122958643;131306770;620;1047;27776;0;267;1312
4;63;1572428555336;1572428562032;6696;19130357954;42629958776;170329859;68486391;5552804519;124100543;135200742;1326;765;82376;0;988;78562
4;64;1572428562110;1572428569155;7045;19232611390;42629830835;183922515;68995069;5552786311;125205002;139601286;1074;529;26496;0;353;3091
4;65;1572428569221;1572428576185;6964;19250122338;42629490858;194824287;69514512;5552732015;125595995;142315709;986;553;25688;0;271;2219
4;66;1572428576235;1572428582753;6518;19059819222;42629420596;155290924;68588551;5552677274;123339208;132530375;534;721;20816;0;280;1477
4;67;1572428582787;1572428589459;6672;19164605320;42629386602;175112796;68984090;5552692568;124412803;137142829;939;1300;86512;0;993;89765
4;68;1572428589491;1572428595906;6415;19102358804;42629485385;158994328;68830915;5552695192;123625021;132735244;1033;151;19536;0;282;3411
4;69;1572428595950;1572428602539;6589;19133136480;42629307417;168547111;69169930;5552676050;123910501;134671951;726;638;22792;0;259;1933
4;70;1572428602586;1572428609615;7029;19219153548;42629190364;180247246;69085668;5552669257;125081444;139285441;948;540;24552;0;239;2083
4;71;1572428609668;1572428616746;7078;19222374162;42629084544;182571970;69253177;5552656347;125179660;140257483;594;946;25672;0;243;1156
4;72;1572428616797;1572428623847;7050;19211060184;42629226246;178100065;69067629;5552673486;124832028;138036045;1543;843;84656;0;1160;113759
4;73;1572428623891;1572428630848;6957;19254437660;42629089362;176499984;69280382;5552651255;124779316;139840923;1132;456;26488;0;343;3361
4;74;1572428630890;1572428638246;7356;19218906954;42629014961;181080347;69366030;5552641988;125097331;140779244;916;636;25608;0;236;2064
4;75;1572428638343;1572428645327;6984;19113327054;42629130333;162663102;69023029;5552643735;123728139;134349481;687;881;25872;0;258;1415
4;76;1572428645361;1572428651981;6620;19142312872;42629046640;168460186;68474835;5552631612;124186220;134964004;799;1119;64264;0;687;48182
4;77;1572428652030;1572428658585;6555;19121751692;42629085918;162636750;68616078;5552633243;123774316;134421652;1133;151;21184;14;324;3953
4;78;1572428658662;1572428666028;7366;19333902832;42629297458;202630932;70089785;5552723483;126406590;144069847;1005;629;27280;-14;294;2461
4;79;1572428666080;1572428672771;6691;19141314962;42629020822;167989694;69018089;5552625276;123947832;134684376;743;601;22176;0;223;1689
4;80;1572428672808;1572428680041;7233;19134795770;42628925919;160256147;69202820;5552603367;124028070;134014714;493;1094;26456;0;218;958
4;81;1572428680103;1572428687235;7132;19208065286;42629034469;183282725;69173750;5552646455;125186121;139353398;1480;546;59168;0;788;36471
4;82;1572428687304;1572428694873;7569;19201788454;42629009701;174738162;70019945;5552631125;124750492;137391518;1122;594;28600;0;328;3123
4;83;1572428694908;1572428701690;6782;19171591128;42629047076;174808404;68914971;5552642298;124556885;136855937;1252;616;66544;0;2273;8577
4;84;1572428701741;1572428708166;6425;19101410534;42629093887;160968751;68505863;5552636776;123683747;133575687;504;796;21712;0;271;1115
4;85;1572428708200;1572428714951;6751;19149923852;42629146989;166828196;68729882;5552653817;124164788;136614976;1040;869;64712;0;770;54252
4;86;1572428715025;1572428721958;6933;19156577364;42628944553;163764194;68847496;5552612909;123811770;135034840;1293;275;25872;0;360;4073
4;87;1572428722001;1572428728653;6652;19181899166;42629018350;176938217;69183237;5552633957;124652362;136183730;824;653;24648;0;259;1819
4;88;1572428728691;1572428735072;6381;19065554832;42629182665;152599598;68604726;5552633853;123073626;130745403;547;685;20328;0;184;1201
4;89;1572428735122;1572428741941;6819;19204554424;42628930918;173495559;68939391;5552622571;124668591;137135107;728;1142;40072;154;302;8698
4;90;1572428741992;1572428749112;7120;19285177814;42628811661;183096705;69598098;5552615247;125446605;139272853;1595;566;79152;-154;1249;116485
4;91;1572428749173;1572428756044;6871;19194332526;42628893555;174849664;69151954;5552617634;124498236;137051817;954;522;24648;0;308;2721
4;92;1572428756076;1572428762366;6290;19112104012;42628871230;163020275;68322318;5552597275;123702361;133483932;714;566;21120;0;187;1532
4;93;1572428762438;1572428769385;6947;19134018466;42629047498;163248422;69317266;5552634944;124008351;134553565;627;930;25952;0;256;1266
4;94;1572428769435;1572428776280;6845;19252439212;42628863784;185492598;69194121;5552625935;125259354;141182019;932;1106;68520;0;846;32551
4;95;1572428776427;1572428783393;6966;19206015300;42628871470;182352293;69214295;5552619893;124980376;137804428;1230;226;24024;0;331;3904
4;96;1572428783439;1572428790738;7299;19346664984;42628770534;202492455;69568790;5552624643;126327176;144943043;985;668;27576;0;287;2207
4;97;1572428790783;1572428797496;6713;19147101526;42628816025;168515408;69248978;5552596328;124283755;135242176;755;717;24288;0;276;1677
4;98;1572428797528;1572428804150;6622;19140068706;42628812456;160897118;69117155;5552589616;123911755;134199777;623;1231;52744;145;540;44279
4;99;1572428804197;1572428810712;6515;19119356562;42628795982;157198972;69047997;5552579413;123300000;133996397;1155;306;46632;-145;630;23656
4;100;1572428810769;1572428817769;7000;19288734374;42628742347;192781026;69221030;5552611075;125796986;143670265;1104;463;26040;0;339;3234
4;101;1572428817808;1572428824723;6915;19269335354;42628863021;189770555;69324278;5552631257;125754782;140761586;961;623;26136;0;275;2135
4;102;1572428824756;1572428831104;6348;19113952664;42628824351;161704340;68217175;5552591513;123601824;133933589;352;996;22504;0;169;561
4;103;1572428831164;1572428837293;6129;19064190462;42628796010;156167497;68405532;5552575650;123069515;132313270;686;947;59480;0;707;34588
4;104;1572428837345;1572428844378;7033;19254060396;42628884349;188242434;69246950;5552632410;125268817;140677605;1340;228;25872;0;374;4302
4;105;1572428844471;1572428851703;7232;19308826164;42628780447;197759277;69655696;5552622579;126077977;143355460;1024;675;28328;0;318;2348
