0;48;1572417562714;1572417569144;6430;19358645014;42614850484;148955790;71496169;5516610536;131407412;130927488;1661;7040;814200;21;6466;1051898
0;49;1572417569206;1572417576302;7096;19412056632;42615051657;152527395;72273500;5516654006;133375382;132017780;1451;6568;699712;-11;7158;1024890
0;50;1572417576343;1572417582047;5704;19250375940;42614903196;144756448;68448256;5516622679;130087676;131086318;996;6858;641704;-1;5745;820869
0;51;1572417582086;1572417588261;6175;19327729076;42614537213;149117416;69407787;5516564955;131534829;133220749;893;9069;827768;3;6214;886534
0;52;1572417588308;1572417595115;6807;19368965462;42614224777;149753198;72514546;5516514574;131336761;132695154;972;10394;1010440;-12;6853;972253
0;53;1572417595164;1572417601162;5998;19273483068;42614344405;146582869;68962016;5516535643;130346577;132151501;1381;8068;909400;9;6047;956661
0;54;1572417601208;1572417615181;13973;19304117810;42614258485;147962700;70367813;5516520066;130342334;133140301;2656;13604;1391464;2;14020;1998417
0;55;1572417615224;1572417622037;6813;19369904680;42614381102;149381022;71512818;5516551293;132215013;131549193;1026;9403;870248;1;6855;974038
0;56;1572417622070;1572417627813;5743;19163244454;42614346802;142611419;65515078;5516543836;129945766;130402457;1112;8284;790952;148;5777;887109
0;57;1572417627844;1572417633724;5880;19262031412;42614373159;146800539;69452948;5516548406;130195463;130769586;1287;8277;927632;-154;5910;898564
0;58;1572417633772;1572417640992;7220;19418229512;42614504787;149829320;74412473;5516572622;132523830;131209413;1456;6021;652288;15;7269;1039332
0;59;1572417641026;1572417646901;5875;19252046034;42614279282;147105395;68782447;5516533757;130612888;132241979;1022;7060;661984;9;5909;849468
0;60;1572417646932;1572417658654;11722;19327370938;42614228923;145881805;71827333;5516528518;130314478;130108172;1724;16505;1577568;-29;11752;1673325
0;61;1572417658702;1572417665866;7164;19430099166;42614320456;153014527;72710223;5516546431;133558560;131201154;1534;9394;1043136;25;7213;1116191
0;62;1572417665906;1572417671526;5620;19224463568;42614220646;145548748;67625292;5516528726;129730931;131058222;1187;4352;508136;-1;5659;805519
0;63;1572417671563;1572417677501;5938;19223866136;42614642052;145393776;67427214;5516618061;130226581;130317447;1170;6848;626656;-7;5976;853874
0;64;1572417677546;1572417683897;6351;19346015722;42614611454;149814341;71819214;5516596356;131240113;131611651;967;8765;822528;-7;6395;914771
0;65;1572417683999;1572417691116;7117;19441124940;42614145431;151141798;73402798;5516512898;132810992;131721520;1201;10488;1025736;125;7220;1035852
0;66;1572417691149;1572417702978;11829;19258845254;42614282216;146145501;69118780;5516538313;130563290;130510666;2723;11981;1359488;-131;11862;1765784
0;67;1572417703041;1572417710227;7186;19489525692;42614178360;154532080;74306596;5516523397;134172038;131155339;1323;8195;786584;21;7249;1030885
0;68;1572417710288;1572417716487;6199;19270900036;42614048690;145870196;69002727;5516499934;130813860;131423370;1010;8743;829848;-15;6259;897641
0;69;1572417716524;1572417722393;5869;19266421924;42614033848;144736586;68443707;5516495951;129982815;131211265;895;9509;903048;9;5907;847514
0;70;1572417722708;1572417729418;6710;19377244246;42614138290;146858728;73603968;5516514814;131351435;130817617;1657;8466;954336;-3;7025;1112543
0;71;1572417729461;1572417735911;6450;19347476598;42613881444;149116229;70649151;5516474289;131635778;131296948;1365;4802;545504;12;6493;919923
0;72;1572417735943;1572417751031;15088;19238755070;42613945056;144014090;67557893;5516483115;130017419;131898822;3084;13698;1452712;-21;15119;2475051
0;73;1572417751076;1572417757570;6494;19352650984;42613920033;148636436;72046562;5516478583;131720582;130369926;1448;5252;589136;-8;6540;933928
0;74;1572417757602;1572417763204;5602;19242159206;42613783450;141638833;68320007;5516453755;129606456;130589556;824;7166;751928;-90;5634;764601
0;75;1572417763237;1572417769998;6761;19376905234;42613869692;149030056;73796591;5516471814;131221095;131640098;1544;8831;868696;140;6794;292248
0;76;1572417770060;1572417776634;6574;19328082542;42613886182;147381258;70559533;5516473564;131407048;131114721;1671;5224;593440;-43;6636;953590
0;77;1572417776665;1572417782484;5819;19224917044;42613871885;144073496;68415982;5516469696;130089971;130243439;1158;5798;584064;-6;5849;833206
0;78;1572417782527;1572417794028;11501;19421345444;42613772939;150756531;73571541;5516454015;132235405;131577870;1709;16922;1482664;25;11544;1645389
0;79;1572417794077;1572417799793;5716;19235929824;42613865164;144246297;68693250;5516468952;130193480;131067366;878;10039;987568;-11;5765;817138
0;80;1572417799832;1572417805664;5832;19323965926;42613822400;146712734;71560515;5516461581;130322214;132658033;1356;7685;907056;-3;5872;978007
0;81;1572417805703;1572417812238;6535;19338435840;42613719335;148293310;71517388;5516444880;131295930;132427822;1449;5309;612456;-6;6573;882839
0;82;1572417812300;1572417818179;5879;19243726370;42613808125;144305720;69377486;5516458470;130222760;130989327;1198;6874;604760;18;5942;839673
0;83;1572417818217;1572417824827;6610;19353245058;42613842212;147616767;72211959;5516467060;131260117;131212952;1002;8837;854536;-6;6648;948985
0;84;1572417824859;1572417831525;6666;19360806544;42613810020;150026564;70840903;5516463530;131959273;132267297;1042;9885;965912;-18;6697;949163
0;85;1572417831564;1572417841164;9600;19345908558;42614169713;146334306;71297967;5516530614;130546396;131133882;2255;10427;1177280;25;9640;1515436
0;86;1572417841196;1572417847772;6576;19345970024;42613953004;147249876;71902357;5516485928;131639173;129575175;1286;6410;633632;-6;6607;947611
0;87;1572417847822;1572417853569;5747;19248559554;42613687038;142978439;67933684;5516437608;129915746;131398781;938;7274;679672;-10;5797;824768
0;88;1572417853600;1572417859284;5684;19222007264;42613810530;142421423;68533829;5516459936;129871944;130204230;871;8036;776064;-7;5715;817297
0;89;1572417859315;1572417866200;6885;19364520930;42613705236;147995217;72666180;5516442172;131141650;130171882;1379;11689;1135000;128;6916;1097926
0;90;1572417866246;1572417872855;6609;19341932248;42613718818;147365637;71088564;5516444516;131699880;130764401;1462;7322;812400;-110;6655;977621
0;91;1572417872893;1572417878562;5669;19239614572;42613698724;143868857;67841983;5516440754;130050579;130516000;1151;5016;531128;1;5707;816926
0;92;1572417878593;1572417891610;13017;19366983366;42613932199;147718750;72080764;5516482721;131595612;132363602;2081;16915;1614576;-2;13049;1851074
0;93;1572417891654;1572417898165;6511;19332749870;42613879711;148188883;71426499;5516475807;131058452;131673497;1332;8763;920000;-12;6555;1013599
0;94;1572417898197;1572417903845;5648;19215012404;42613903135;143693049;67933717;5516477199;130218648;130834036;1026;7035;779760;-1;5679;812765
0;95;1572417903877;1572417909704;5827;19286831848;42613846018;146013191;69105141;5516469110;130379664;130279117;1232;4796;513640;16;5860;841893
0;96;1572417909747;1572417917147;7400;19491215350;42613993359;152864745;74238856;5516493004;134312379;131625472;1280;8622;815768;0;7442;1061046
0;97;1572417917184;1572417923094;5910;19246526358;42613646176;144372787;68358943;5516433653;130392190;131505557;949;7921;777024;-21;5948;846696
1;53;1572418428947;1572418435334;6387;19281630598;42780827699;154311521;72619639;5549146020;125093864;130996293;1471;7579;842512;-14;6420;1030156
1;54;1572418435366;1572418440986;5620;19158695678;42780614901;152156299;68283665;5549109912;122728227;130599594;1120;6768;723600;0;5652;800696
1;55;1572418441018;1572418455232;14214;19230013904;42780602742;152551811;70343755;5549110581;123915709;132971419;2555;16117;1536160;5;14247;2039356
1;56;1572418455278;1572418460964;5686;19134882202;42780613368;150552684;67969196;5549117644;123123977;130556006;828;8227;805072;4;5732;817545
1;57;1572418460997;1572418466580;5583;19130768068;42780788351;151958959;66882821;5549149376;122576104;130800358;1338;8030;792656;15;5615;903569
1;58;1572418466612;1572418473434;6822;19324146674;42780662224;154470348;74021869;5549127552;124619041;133929009;1241;7893;962840;-24;6855;978631
1;59;1572418473487;1572418479118;5631;19141048366;42780602539;150199787;68362233;5549115757;122862360;132572346;1197;6083;518072;19;5684;808170
1;60;1572418479152;1572418484768;5616;19113389250;42780468438;150290697;67474808;5549097101;122718143;133391647;922;6688;662088;6;5650;807881
1;61;1572418484814;1572418491322;6508;19243696732;42780530325;151682699;72366387;5549110064;123934131;131947087;980;8323;837368;-15;6554;939513
1;62;1572418491376;1572418501933;10557;19185204022;42780757129;153444585;68515785;5549149563;123107235;131698962;2113;15108;1442368;2;10611;1647486
1;63;1572418501968;1572418507652;5684;19131044154;42781008311;148902564;67626763;5549209931;122898516;130751596;1106;5124;640032;14;5718;815118
1;64;1572418507682;1572418513203;5521;19109080060;42780885475;147041125;67410580;5549170586;122419241;132428539;1025;5869;583480;-1;5552;802140
1;65;1572418513235;1572418519338;6103;19201265336;42780417255;151152040;70551714;5549086513;123439552;132334920;1101;7162;710568;-36;6135;682019
1;66;1572418519406;1572418526269;6863;19377626912;42780548013;159162239;75104011;5549114770;126697697;131311252;1177;9124;924440;-40;6931;766963
1;67;1572418526302;1572418532488;6186;19276224948;42780387476;153508000;73438184;5549083691;123305425;131563317;1667;6891;779496;79;6219;681258
1;68;1572418532537;1572418542959;10422;19245887608;42780643391;155796713;70097052;5549134244;124797610;131475084;2042;10249;1015136;-27;10471;1495876
1;69;1572418543007;1572418549842;6835;19336371254;42780342523;156704566;72734389;5549078559;124265571;131571048;941;9138;889336;19;6883;972748
1;70;1572418549884;1572418555815;5931;19153662766;42780324855;151977073;69350091;5549075410;123065096;131689418;887;9706;898640;-12;5973;852921
1;71;1572418555848;1572418561663;5815;19110468958;42780229016;147044666;68000812;5549057986;123008694;131216348;1327;9683;928880;7;5848;913045
1;72;1572418561707;1572418568730;7023;19389459920;42780322872;159193530;74667832;5549077651;126438642;131056137;1333;7259;863064;-5;7067;1005541
1;73;1572418568777;1572418574761;5984;19143459410;42780205078;149283636;69450837;5549053559;123188198;131407982;1281;6228;576248;-1;6031;861941
1;74;1572418574806;1572418580425;5619;19132201496;42780197721;147811556;67556204;5549051922;123564997;131145557;799;6669;681368;1;5664;806619
1;75;1572418580480;1572418593042;12562;19226754746;42780553558;152995567;69638301;5549117472;124134779;131674686;2255;17550;1691512;0;12617;1890751
1;76;1572418593073;1572418598744;5671;19147265484;42780312134;150169490;68126807;5549073419;123135327;130616558;871;7892;870664;-6;5701;813309
1;77;1572418598788;1572418604399;5611;19127832300;42780221397;147661306;67839617;5549056879;122641470;130651643;1173;5269;519592;11;5656;806766
1;78;1572418604431;1572418610391;5960;19151567228;42780155801;151947310;70010330;5549046571;123209149;131987281;1093;5618;659912;-67;5992;581331
1;79;1572418610449;1572418617636;7187;19333337812;42780229643;153572516;75105226;5549061303;125324004;131757094;1201;9194;939800;-42;7245;675936
1;80;1572418617697;1572418624726;7029;19352421326;42780078995;155828043;73698558;5549034739;125259984;131242583;1743;9037;905816;36;7089;395686
1;81;1572418624777;1572418633222;8445;19220029548;42780057207;153093197;70674027;5549031466;124636275;130173710;1792;8124;807960;67;8496;1161952
1;82;1572418633270;1572418640059;6789;19350702760;42780135578;155245456;75921526;5549043978;125368226;130607547;1493;5294;606112;5;6838;1243821
1;83;1572418640096;1572418646160;6064;19190528496;42780166142;151397792;68782297;5549050724;123728331;131473531;1173;5538;591976;3;6101;870617
1;84;1572418646199;1572418651701;5502;19067841484;42780344808;147716084;65638744;5549083339;122387118;130731970;1012;6382;570696;-20;5540;792560
1;85;1572418651732;1572418657793;6061;19141668428;42780446312;148358274;67995461;5549106616;123039733;132274079;855;8492;865128;0;6093;870694
1;86;1572418657827;1572418664701;6874;19357364156;42780348533;152662854;74052450;5549081190;124087743;130106432;1033;11851;1045904;9;6908;987559
1;87;1572418664737;1572418670610;5873;19151208798;42780086747;151058723;68099625;5549035612;123000710;130833043;1031;10369;1014912;130;5908;912613
1;88;1572418670643;1572418681322;10679;19241230500;42780262529;153625033;71030924;5549067806;123857800;131155432;2321;10283;1211472;-208;10713;1565109
1;89;1572418681353;1572418688400;7047;19327867484;42780095258;153762810;74574313;5549038174;125083885;129732511;1333;8254;795856;69;7078;887468
1;90;1572418688452;1572418694653;6201;19241973640;42780077359;152653850;71921708;5549033744;123851058;131277427;980;8119;833264;12;6253;890134
1;91;1572418694702;1572418701159;6457;19344601712;42780095264;155005000;73258498;5549039074;125563745;129656384;1015;9016;915160;-73;6505;825156
1;92;1572418701192;1572418707569;6377;19225846334;42779966764;149241757;70852206;5549013886;123576852;130896696;1736;6025;652336;92;6411;901013
1;93;1572418707600;1572418714176;6576;19274074806;42780225682;154709173;72217327;5549064718;125607102;130403378;1329;7263;654672;-15;6606;943744
1;94;1572418714207;1572418719800;5593;19141629008;42780087058;150431232;67464435;5549036119;122952232;130045551;837;6602;672472;3;5624;798034
1;95;1572418719835;1572418730333;10498;19282094878;42780166470;153768635;70836022;5549052721;124254954;130370986;1529;16721;1566208;-11;10534;1506550
1;96;1572418730380;1572418737338;6958;19317345848;42780318712;154434581;73533623;5549077287;124732955;131801614;1450;10742;1152112;21;7005;1135691
1;97;1572418737385;1572418743020;5635;19106083410;42779948412;149504235;67312229;5549014588;122688118;129809697;1291;4774;518344;-12;5682;814442
1;98;1572418743069;1572418750089;7020;19343379838;42779871466;155283382;72671956;5549002811;124984815;131467481;1246;7332;743152;-17;7069;1016354
1;99;1572418750142;1572418756297;6155;19191457056;42779842072;149963146;69850695;5548996068;123936122;130524784;941;8495;796312;25;6208;888055
1;100;1572418756344;1572418762037;5693;19191466254;42779824761;152220401;67571597;5548992941;123219789;132495107;873;8354;797360;-17;5740;829786
1;101;1572418762084;1572418768434;6350;19237040154;42779936501;150958815;72822550;5549013025;123438065;132244606;1291;8932;847864;11;6396;1007516
1;102;1572418768470;1572418780059;11589;19150157306;42779955335;150688261;68382652;5549015773;122995941;132568473;2186;11870;1376240;-10;11626;1669424
2;47;1572419281893;1572419287950;6057;19396345718;43307603338;148458377;68505445;5409587111;122557352;130857966;1132;6142;646952;-12;6094;873747
2;48;1572419287986;1572419294747;6761;19522637178;43307509742;150516181;73506445;5409570422;124364892;130885723;1011;9212;867744;-8;6796;971796
2;49;1572419294810;1572419300759;5949;19413567586;43307688099;146492731;68678577;5409608153;122857049;129806373;1382;7948;774736;-1;6013;961805
2;50;1572419300790;1572419306570;5780;19379846404;43307481404;145273336;67151563;5409565630;122672135;130267768;1073;7598;852504;17;5810;834058
2;51;1572419306610;1572419313107;6497;19546802952;43307220760;149740134;74151214;5409525859;124415799;129481354;1336;5161;577800;9;6537;928642
2;52;1572419313169;1572419326189;13020;19454710240;43306927219;147074182;70887771;5409477654;122677782;129878272;2240;16298;1560152;-23;13083;1870405
2;53;1572419326222;1572419331894;5672;19335331150;43307315104;147020124;67150595;5409549420;122248114;130601250;1223;8301;769456;161;5704;963497
2;54;1572419331924;1572419338062;6138;19454378820;43306864807;149524778;70982409;5409470718;123600028;129485670;1466;6280;774400;-156;6044;720136
2;55;1572419338196;1572419345155;6959;19549269622;43306914774;151312248;71992573;5409489296;124643762;131822907;1394;6605;700880;48;7093;1010864
2;56;1572419345213;1572419351693;6480;19397634898;43306971021;148191446;69946123;5409497936;122715330;129858508;1055;8452;761320;-31;6538;926519
2;57;1572419351745;1572419358770;7025;19526407628;43307120006;150992206;73602290;5409523947;124287119;131592880;1044;10150;1005448;-20;7077;1007961
2;58;1572419358824;1572419369194;10370;19539035168;43307103207;151936280;72998887;5409521475;124402494;131356420;2465;9734;1142856;7;10382;1379972
2;59;1572419369256;1572419375875;6619;19597398814;43306862015;152157826;74434603;5409480560;124683327;130792353;1326;6798;652752;-14;6680;949090
2;60;1572419375950;1572419381664;5714;19351216680;43306906913;146724598;68407630;5409491022;122678661;129225104;856;7090;706736;8;5789;819825
2;61;1572419381698;1572419388762;7064;19607114384;43306866606;152230378;75531881;5409486136;124099307;130813774;1040;10112;984064;-6;7098;1009434
2;62;1572419388817;1572419395865;7048;19537633714;43306965456;151520649;73576648;5409504334;124457292;130731580;2027;10355;1097704;3;7021;854504
2;63;1572419395924;1572419402711;6787;19535907848;43307218427;151928542;73383205;5409566054;124563944;130650731;1436;5473;607304;4;6846;981862
2;64;1572419402743;1572419413198;10455;19450497556;43307077486;148899983;70743919;5409523916;122867777;130508193;1806;12405;1178688;0;10487;1497027
2;65;1572419413261;1572419420297;7036;19640411144;43306770104;154106956;76299125;5409466894;125939729;131509788;998;10033;975704;-6;7099;1014609
2;66;1572419420362;1572419426511;6149;19409012824;43306793386;146750028;69055415;5409472145;122879416;129935646;1403;9010;868624;84;6214;1009213
2;67;1572419426551;1572419433075;6524;19491873810;43306737154;150514528;72247305;5409461083;122834968;131372014;1225;7228;812400;-69;6564;949456
2;68;1572419433128;1572419440037;6909;19584385688;43306869705;151896758;73851996;5409487326;125048656;132066897;1389;6583;662112;-13;6962;996050
2;69;1572419440087;1572419445809;5722;19386876304;43306728514;146169552;67631786;5409462567;122213983;129957642;821;6969;671632;12;5772;824244
2;70;1572419445846;1572419451935;6089;19393061010;43306613317;148360723;68799673;5409444839;122954698;130342043;891;8818;823672;5;6126;868764
2;71;1572419451988;1572419464191;12203;19416064916;43306516841;147661164;69806951;5409428525;123926020;129994445;2347;17641;1855408;-1;12256;1853670
2;72;1572419464225;1572419469911;5686;19367146302;43306546869;146855599;67593309;5409433005;122288994;131259026;1347;3771;442136;-11;5720;912437
2;73;1572419469943;1572419475499;5556;19331108246;43306471132;144317393;65993510;5409417783;121882666;129998105;1091;4378;471856;-1;5588;802804
2;74;1572419475543;1572419481851;6308;19534644948;43306474489;148898662;74412071;5409419987;122661876;130915606;1187;7658;712560;0;6352;709708
2;75;1572419481886;1572419488512;6626;19483936812;43306600448;149083272;73261155;5409443025;123574400;130391734;1130;8528;888512;-52;6661;735990
2;76;1572419488573;1572419495164;6591;19614120924;43306531594;151623053;76400445;5409431431;124389219;130439455;2005;6903;894080;-69;6340;216969
2;77;1572419495215;1572419501967;6752;19508389476;43306421072;150261151;72426247;5409410879;124239801;130493325;2210;7157;778072;113;6668;424621
2;78;1572419502001;1572419508812;6811;19510604004;43306516671;151614035;72160162;5409429185;125226571;131311758;1490;6885;630000;14;6845;981320
2;79;1572419508861;1572419515228;6367;19442425946;43306512655;147853763;70507716;5409426573;123047062;130113263;1128;7798;720104;-6;6416;913735
2;80;1572419515283;1572419521981;6698;19563052898;43306470492;150884596;74541030;5409420057;122904594;130308169;968;9456;908184;-7;6753;963576
2;81;1572419522022;1572419528058;6036;19410671530;43306456315;145666100;69572416;5409416235;123030843;129449043;950;9855;951800;10;6077;865166
2;82;1572419528090;1572419537374;9284;19558275486;43306467996;151683040;74707045;5409419408;123439780;132561411;2375;8833;1065432;-6;9196;1185042
2;83;1572419537444;1572419543252;5808;19389473498;43306488226;144647473;68771157;5409423664;122577160;130738007;1115;5580;605408;16;5879;838508
2;84;1572419543384;1572419549548;6164;19418139284;43306565133;147190918;70330644;5409439345;122814026;131014174;962;8746;767840;-2;6295;900164
2;85;1572419549590;1572419557005;7415;19604190296;43307148895;152384897;73655890;5409544395;125287431;130290066;1050;10949;1049024;7;7457;1061858
2;86;1572419557047;1572419563242;6195;19407138768;43306352662;148677101;69569959;5409399405;122933046;130560578;1196;8987;901616;125;6237;1011419
2;87;1572419563291;1572419570918;7627;19646861862;43306438431;153006326;77171169;5409416241;125352716;131899135;1769;7485;829736;-128;7676;1148107
2;88;1572419570992;1572419583487;12495;19510274482;43306695311;154536085;70995309;5409516932;124610103;132454558;2121;13256;1451904;-79;12569;1556143
2;89;1572419583543;1572419590423;6880;19554868576;43306328838;151058221;73081669;5409396029;124006459;131220025;1238;9184;956552;-64;6936;350131
2;90;1572419590491;1572419596991;6500;19548682556;43306336912;151713092;73524866;5409397430;123532619;132056926;2027;7535;745144;131;6551;520589
2;91;1572419597064;1572419603726;6662;19584775800;43306431085;152885186;73885217;5409414269;124797242;130650412;1441;6126;609208;-2;6736;963221
2;92;1572419603770;1572419609749;5979;19409070640;43306474066;147492768;68919485;5409421472;122742195;131288981;1053;6544;653208;2;6022;855109
2;93;1572419609804;1572419616875;7071;19618352004;43306582714;153279282;74065182;5409443032;125829025;130983919;1033;10001;951112;-8;7127;1015333
2;94;1572419616914;1572419626076;9162;19405473930;43306524380;146702988;70102600;5409430083;122887025;130760957;1384;15517;1449608;152;9201;1349408
2;95;1572419626129;1572419633493;7364;19548956160;43306499349;152384880;73474941;5409429821;124808191;131544854;1903;7683;891976;-133;7416;1208727
2;96;1572419633539;1572419639654;6115;19436875756;43306981723;149346818;68785380;5409507428;123506245;130994370;1217;5359;592608;2;6161;889700
3;47;1572420134654;1572420141895;7241;19524163754;42755348849;152090516;73353825;5549880001;132334178;133043927;1169;10004;960448;-16;7290;1038427
3;48;1572420141946;1572420148990;7044;19566956938;42755310552;151872215;72872001;5549873447;133698124;133119000;1390;8473;992184;-106;7096;545169
3;49;1572420149036;1572420156555;7519;19583000878;42755512195;155548323;74078332;5549916892;134566912;132860651;2036;7126;709400;113;7565;1005946
3;50;1572420156593;1572420162311;5718;19373807406;42755265222;146240139;67522672;5549868041;130936209;132394907;1087;5934;567320;2;5756;815670
3;51;1572420162360;1572420169280;6920;19574647342;42755155613;151592959;73154473;5549853514;132702640;134831912;1043;8577;856432;-15;6969;998580
3;52;1572420169317;1572420179059;9742;19430648418;42754890827;148240119;70176803;5549814555;131709017;131923953;1444;16355;1465560;21;9779;1397069
3;53;1572420179095;1572420185768;6673;19498333142;42754786602;149409009;72602359;5549795338;131465552;133565453;1608;8914;1031824;-18;6709;1090881
3;54;1572420185826;1572420192529;6703;19539820940;42754651248;153676895;70072640;5549772162;134027191;134086685;1417;5347;608392;-8;6761;968196
3;55;1572420192572;1572420198283;5711;19346779886;42754748366;145909493;67254028;5549798325;130655255;133574142;1095;6764;627032;25;5753;816799
3;56;1572420198322;1572420204127;5805;19381644978;42754772920;147917358;68675994;5549800380;130734364;131992373;817;8106;752640;-17;5845;829101
3;57;1572420204164;1572420211340;7176;19492744554;42754902934;148583865;73212671;5549823270;131110064;132129173;1028;10739;1023928;-3;7212;1026166
3;58;1572420211429;1572420218241;6812;19499700140;42755068745;151709204;70522736;5549852825;132599890;135205098;1500;9984;993224;1;6901;1094657
3;59;1572420218303;1572420231776;13473;19490764648;42754796345;149277111;71330489;5549805915;131686325;133696197;2587;12405;1419696;4;13536;1893697
3;60;1572420231835;1572420238538;6703;19524842946;42754650646;152335470;71796547;5549785666;133316109;132620284;1161;8974;878776;-15;6762;939489
3;61;1572420238586;1572420245350;6764;19499110446;42754744031;148515566;73784015;5549801851;131183260;132504636;1232;8866;949248;49;6812;718310
3;62;1572420245392;1572420251882;6490;19452298758;42754749730;149293255;70302877;5549802676;132022742;133773403;1726;6194;604992;-38;6532;957060
3;63;1572420251916;1572420258410;6494;19475714092;42755122353;149302661;72039709;5549884862;131387571;132388440;1213;6266;669400;3;6528;940213
3;64;1572420258467;1572420265490;7023;19561481062;42754996463;151875262;72774666;5549847277;133613817;132961536;1078;9851;900544;20;7080;1016347
3;65;1572420265528;1572420275841;10313;19477304032;42754605054;149417825;71497081;5549775893;131871279;134326046;1517;17432;1615512;2;10351;1480075
3;66;1572420275874;1572420282784;6910;19554217562;42754577458;151804633;73115303;5549772565;132580780;133104067;1685;6810;843800;-3;6943;1109414
3;67;1572420282835;1572420288642;5807;19377661952;42754748047;147090277;68687213;5549803047;130659678;132419756;1195;5261;548248;-11;5858;839201
3;68;1572420288674;1572420294849;6175;19426633126;42754600169;147370169;70312242;5549777816;130810694;131780124;1107;7530;688256;14;6207;883833
3;69;1572420294882;1572420301942;7060;19540155426;42754450970;151055763;73084288;5549754460;133590601;132637056;990;9307;928560;-30;7092;1008862
3;70;1572420301978;1572420308116;6138;19401575000;42754476467;148685299;68769141;5549756997;131327335;133642382;931;9701;871112;20;6174;884458
3;71;1572420308165;1572420319527;11362;19389445758;42754418740;147912397;68312483;5549747023;130601551;133361073;2339;12323;1398168;1;11412;1767812
3;72;1572420319622;1572420326262;6640;19549621336;42754503321;150516993;73659961;5549763148;132530645;132580288;1617;6230;589856;0;6735;1200672
3;73;1572420326316;1572420332356;6040;19367693364;42754317096;147997606;68169774;5549728218;131172964;131544479;1007;4991;558464;5;6094;879280
3;74;1572420332387;1572420338557;6170;19342532746;42754318717;144675439;66745849;5549728141;130090888;132380563;1059;6128;692024;1;6201;886635
3;75;1572420338593;1572420345774;7181;19601422866;42754520850;153825019;73646276;5549767914;134500395;132681179;1406;7558;692832;2;7216;1032628
3;76;1572420345814;1572420352812;6998;19550721738;42754402876;151347666;71433484;5549745474;134143761;132857465;1138;10330;1008392;-10;7039;1007748
3;77;1572420352844;1572420361998;9154;19496585230;42754253875;150976014;71822851;5549718439;131934506;134573369;2186;9843;1075624;6;9185;1428179
3;78;1572420362032;1572420369270;7238;19533189912;42754353080;150750928;73336094;5549736681;133343807;132364685;1497;6366;720640;-20;7273;891213
3;79;1572420369316;1572420376079;6763;19484903186;42754296438;150467679;72141363;5549726946;131890543;133854739;1131;8736;860992;21;6808;973449
3;80;1572420376133;1572420382732;6599;19472457416;42754675995;150399519;72369188;5549792269;131619077;133196210;1053;9490;919416;-25;6653;952447
3;81;1572420382780;1572420389669;6889;19483106364;42754078355;149504881;71123310;5549690943;131774285;133059644;1655;10088;1070288;11;6938;1004769
3;82;1572420389726;1572420396346;6620;19447989714;42754020901;148098003;70945308;5549680616;131500634;133826873;1457;5348;589256;11;6677;827500
3;83;1572420396419;1572420403455;7036;19574421626;42754157868;152886421;72992838;5549708330;134634369;132084766;1335;8231;779968;-23;7109;1017860
3;84;1572420403486;1572420411987;8501;19424670156;42754234073;145946163;71034576;5549721466;130565504;131657472;1256;12399;1162936;24;8532;1214959
3;85;1572420412048;1572420418737;6689;19447245698;42754473943;149231201;71460526;5549764379;131975980;132128354;1141;10132;1018136;117;6750;1005536
3;86;1572420418780;1572420425075;6295;19426228560;42754064301;147786832;70077294;5549689102;131723673;132445439;1506;5585;666976;-142;6338;961979
3;87;1572420425121;1572420432281;7160;19603867928;42754105424;153229310;73128239;5549697438;134250665;133519406;1380;6897;697440;1;7206;1029446
3;88;1572420432347;1572420438338;5991;19400166538;42754069910;146326506;68594540;5549687865;130749486;133667111;922;7576;735048;9;6057;863528
3;89;1572420438403;1572420444233;5830;19368128152;42753984148;146349935;67981138;5549673522;130725947;130970955;893;8879;796656;12;5894;843106
3;90;1572420444265;1572420450889;6624;19488749118;42754100561;147443833;72326582;5549695048;131157499;132267687;1326;10167;977152;-17;6657;1055338
3;91;1572420450931;1572420461003;10072;19465943480;42754173199;149006919;69678929;5549709745;132288959;133172768;1963;10978;1265296;24;10113;1450325
3;92;1572420461034;1572420466792;5758;19366422288;42754094545;145492798;67752002;5549693410;131422788;132795569;1050;6533;618056;-26;5790;824424
3;93;1572420466828;1572420472870;6042;19383388656;42754225561;145968944;69035081;5549719644;130908123;133478346;888;8518;763760;8;6078;866300
3;94;1572420472916;1572420479833;6917;19572788616;42754199950;151308396;73864434;5549713976;132986016;133263822;1029;10051;977480;-5;6962;987484
3;95;1572420479895;1572420486056;6161;19399903446;42754133014;148013148;69085423;5549702992;131724498;133589264;1306;9193;888368;18;6223;991542
3;96;1572420486088;1572420491668;5580;19322600242;42754220183;143795667;67345050;5549715345;130057641;131193164;1171;3829;583744;-19;5613;802305
4;49;1572420992935;1572420998757;5822;19189883906;42860822375;146386995;67929492;5557611488;123165741;126746234;845;8349;797024;-13;5873;838957
4;50;1572420998792;1572421004611;5819;19222339414;42860654282;145706303;69379701;5557577277;123448335;126576973;870;8597;820280;9;5854;837470
4;51;1572421004649;1572421011025;6376;19271727564;42860170825;145756894;73171290;5557496207;123285439;125597936;1466;9212;929232;3;6414;1014135
4;52;1572421011067;1572421017298;6231;19232930108;42859838317;148277200;69516761;5557441535;124875284;125892720;1260;4405;580680;-12;6273;895062
4;53;1572421017346;1572421030634;13288;19177546760;42860150221;144794568;68448288;5557497533;123387020;126257464;2224;16176;1528288;-15;13336;1895965
4;54;1572421030676;1572421037825;7149;19306504034;42859813574;149114739;72932832;5557441266;124560275;126382978;1023;10589;995880;1;7191;1018181
4;55;1572421037877;1572421043592;5715;19152327450;42859890215;145084158;67639169;5557464726;123670441;126431351;1393;9123;865488;24;5767;1002051
4;56;1572421043646;1572421049408;5762;19183639632;42860124809;146136722;68896034;5557503307;123645533;125465117;1152;3875;608264;0;5815;829936
4;57;1572421049456;1572421056788;7332;19491607068;42859785011;155742566;76647909;5557447225;128902319;126827760;1407;7787;746136;2;7381;1044162
4;58;1572421056844;1572421062906;6062;19179860568;42859873347;145753731;68696657;5557460774;123544959;126538225;930;8258;757096;-2;6118;872118
4;59;1572421062947;1572421075481;12534;19199359890;42859916157;147113324;69993956;5557468842;123601871;126332762;2288;18288;1757224;-23;12574;1938138
4;60;1572421075545;1572421082411;6866;19273029154;42859852036;149891853;71851382;5557460920;124710151;126880430;1374;5205;738632;3;6931;989947
4;61;1572421082506;1572421088397;5891;19146110624;42859965135;145286443;68090104;5557481199;123253804;126158317;1182;6626;632936;2;5986;854821
4;62;1572421088429;1572421094052;5623;19170766812;42859906492;144077154;67990493;5557470953;123006790;126724718;819;7773;668168;13;5655;805464
4;63;1572421094090;1572421100765;6675;19319223408;42860085572;149564377;73404905;5557518161;125115512;126338106;1037;9660;938912;-4;6713;960590
4;64;1572421100816;1572421107446;6630;19290837942;42860660212;149163203;70986280;5557604311;125077295;125618620;1596;9362;981808;9;6681;1073518
4;65;1572421107477;1572421120586;13109;19176964804;42859797729;147302859;68122805;5557451837;123570645;126444392;2602;11884;1287264;-10;13139;1872498
4;66;1572421120616;1572421127531;6915;19356133668;42859803169;150048287;73956646;5557455195;125366558;125792055;1064;9199;882800;-8;6946;992789
4;67;1572421127588;1572421134020;6432;19273351230;42859791400;147490492;71569312;5557452655;124901376;125089483;1158;9587;906992;160;6488;1000400
4;68;1572421134071;1572421139997;5926;19175137760;42859690983;143536616;68300818;5557434869;123350914;125291891;1353;7771;867680;-142;5978;926204
4;69;1572421140032;1572421145936;5904;19185708744;42859789392;145928434;70378245;5557452917;123562751;125569626;1260;4088;490048;-12;5939;849301
4;70;1572421145976;1572421153070;7094;19375178930;42859552812;150824335;74247970;5557414529;127183784;125785883;1316;7844;752216;-3;7134;1014258
4;71;1572421153106;1572421164582;11476;19158409080;42859720263;143917426;68296319;5557441934;123629012;125206469;1753;15947;1580400;7;11512;1645935
4;72;1572421164645;1572421170990;6345;19289365824;42859655306;146097312;72052796;5557430591;124336875;126110224;1490;9740;979352;-4;6408;1020102
4;73;1572421171034;1572421177361;6327;19259645042;42859501431;147301671;71049922;5557403825;124475097;126895866;1339;4961;556720;5;6371;907467
4;74;1572421177397;1572421182986;5589;19162810834;42859553009;145205804;67810484;5557411278;122965206;126479601;1059;6005;588768;-3;5625;806531
4;75;1572421183025;1572421189037;6012;19184892166;42859624581;146213922;68922004;5557425777;124334889;125064395;914;7676;750176;-15;6050;864135
4;76;1572421189074;1572421194707;5633;19229889220;42859547330;146378655;70034108;5557410560;122820215;127720360;829;7498;831728;-78;5671;777659
4;77;1572421194741;1572421202033;7292;19366592232;42859409768;150601794;72572809;5557388581;126608093;128287129;2057;7363;745392;96;7326;858185
4;78;1572421202071;1572421210539;8468;19204900736;42859651618;146183573;70302037;5557434226;123785455;125995989;1845;8128;782880;145;8506;1399595
4;79;1572421210588;1572421217701;7113;19376644624;42859419142;150445448;74333838;5557390762;126011633;125959909;1400;6186;676304;-160;7162;1204367
4;80;1572421217732;1572421224151;6419;19224345892;42859431618;145346667;68933831;5557391789;123954766;125819527;1394;3621;617288;2;6450;936582
4;81;1572421224183;1572421229935;5752;19148344278;42859321463;143288870;67235927;5557371601;123173153;126002237;1008;6236;647680;5;5784;833180
4;82;1572421229967;1572421235650;5683;19169505518;42859382795;145944688;67910961;5557382896;123552204;126924559;853;8443;801384;-11;5715;811937
4;83;1572421235683;1572421242356;6673;19298615216;42859313203;146972771;72822735;5557372416;123740298;127556082;975;11432;1058464;16;6706;955880
4;84;1572421242422;1572421248611;6189;19291476108;42859484641;148798364;71202022;5557404575;125202446;125810380;1301;9040;989448;-4;6255;1024150
4;85;1572421248643;1572421260478;11835;19161894538;42859632759;142808065;67999147;5557430616;123709550;124593485;2470;11330;1182888;-2;11867;1699116
4;86;1572421260542;1572421267543;7001;19397611538;42859400179;150004376;74927772;5557387269;126061772;125268185;1056;9493;908816;4;7064;1004677
4;87;1572421267612;1572421274294;6682;19255018740;42859323104;148363750;70501781;5557372655;125735082;125714971;1043;10050;944840;14;6752;960407
4;88;1572421274348;1572421279971;5623;19151797470;42859340996;144093313;68203642;5557376444;122933889;125221713;1251;8188;761184;3;5677;920538
4;89;1572421280015;1572421286962;6947;19337881478;42859160285;148268297;73175558;5557347658;125998820;125261427;1424;6365;790408;-9;6991;1000955
4;90;1572421287038;1572421293633;6595;19302982660;42859240584;150192259;71362924;5557361833;125720756;126477087;1271;6512;667048;-22;6671;950432
4;91;1572421293674;1572421306614;12940;19201003266;42859246907;145571162;69720093;5557361635;123399826;126701867;2006;18092;1763768;17;12981;1850091
4;92;1572421306678;1572421313224;6546;19283433698;42859138095;146611506;71624153;5557343052;123905021;125549861;1546;10180;999520;10;6610;1062889
4;93;1572421313289;1572421319121;5832;19205445024;42859291672;148212424;68946953;5557373872;124027335;125797213;1292;4469;556000;-12;5897;844543
4;94;1572421319160;1572421324733;5573;19159274276;42859233124;144634042;67088965;5557359068;122882427;127907026;1072;6007;597424;16;5612;800812
4;95;1572421324767;1572421331063;6296;19230929178;42859261959;145479677;71228208;5557365950;123601044;124552328;977;8079;766184;-17;6329;900706
4;96;1572421331094;1572421337962;6868;19325818520;42859232093;150225755;72584915;5557360128;125585151;126451097;1112;10078;970984;10;6899;978996
4;97;1572421337995;1572421343640;5645;19160727122;42859203162;145044955;68093505;5557354466;123352703;126027067;1361;7266;715640;-17;5679;958065
4;98;1572421343671;1572421355840;12169;19310341060;42859155563;147869429;72751983;5557347303;124522336;125397341;2388;12257;1328816;12;12200;1743161
