0;1;1572459526566;1572459540752;14186;38601520350;11585127500;1417310206;908652157;2417494721;34656368;584244203;1919;4220;2168208;18;14187;623663
0;2;1572459540752;1572459554552;13800;37599055150;11540289154;1405022777;875345556;2413431987;34541954;582300515;2350;2785;2070832;-76;13686;596100
0;3;1572459554553;1572459568246;13693;38222754886;11540213169;1405041033;886153332;2413419543;34638008;579179697;3623;1660;2027544;19;13190;328222
0;4;1572459568246;1572459582002;13756;37705348114;11540201578;1408908073;874504259;2413416865;34499186;582115668;2618;2817;2032128;-2;13756;974414
0;5;1572459582002;1572459596231;14229;38242145438;11540214650;1402395721;889610777;2413419468;34583272;579621157;2698;2992;2190776;10;14229;452468
0;6;1572459596231;1572459610780;14549;38539126958;11540211210;1407636994;894944500;2413418969;34662767;581018344;2324;3591;2137864;64;14548;1221674
0;7;1572459610780;1572459624688;13908;38190975942;11540196538;1408794229;889019783;2413416561;34650938;581176058;2402;3086;2241112;-72;13908;690423
0;8;1572459624688;1572459638442;13754;37872672728;11540231346;1406216423;880970538;2413422008;34477711;581967011;2824;3119;2059296;104;13606;767862
0;9;1572459638442;1572459652584;14142;38313933346;11540207537;1409006688;892705910;2413418166;34585095;580642962;1498;4241;2350584;-73;14142;1618897
0;10;1572459652585;1572459666344;13759;37707980202;11540192647;1404026521;879903982;2413415111;34504461;580603689;2891;2747;2047792;33;13562;642912
0;11;1572459666344;1572459680580;14236;38320587734;11540203785;1406899328;891049703;2413416167;34385915;581797394;1595;3986;2294088;-67;14236;1251890
0;12;1572459680580;1572459694608;14028;38088225814;11540204798;1408725493;889827144;2413417849;34617530;578947601;3208;2451;2194632;96;14028;430273
0;13;1572459694608;1572459708502;13894;37796532706;11540199466;1406008325;875628517;2413417041;34642018;579963988;1659;3769;2111992;-61;13893;1202562
0;14;1572459708502;1572459722471;13969;38203306080;11540201916;1404367748;889891228;2413417129;34512573;580712520;2442;3194;2204704;-29;13936;453371
0;15;1572459722471;1572459736781;14310;38005234012;11540210312;1407101496;890801634;2413418553;34547679;579543671;1981;4115;2131968;62;14310;1184052
0;16;1572459736781;1572459750640;13859;38282759864;11540210358;1407728740;896811935;2413418470;34512871;579239398;2036;3675;2166600;-22;13859;767249
0;17;1572459750640;1572459764261;13621;38089357898;11540197710;1406600783;887629357;2413415974;34489475;581798604;1559;4166;2224736;-30;13621;956194
0;18;1572459764261;1572459778003;13742;37832021364;11540207390;1409324644;885147187;2413418246;34597541;581352745;2975;2576;2177936;-16;13742;432455
0;19;1572459778004;1572459792088;14084;37941285574;11540195175;1406673280;891982007;2413415550;34465532;580922345;2543;3549;2195936;4;14084;659447
0;20;1572459792088;1572459805857;13769;38353940412;11540196432;1403021022;896703790;2413416033;34466718;579953107;2326;3100;2152976;-1;13770;457728
0;21;1572459805857;1572459819308;13451;38327094370;11540205678;1407722210;902942235;2413417531;34463316;579040022;2650;2822;1921040;34;13313;667375
0;22;1572459819308;1572459833184;13876;37931043382;11540205957;1409317050;883512659;2413417555;34457695;581691909;1968;3489;2264416;-34;13875;743957
0;23;1572459833184;1572459847257;14073;38349645968;11540199728;1407452616;900844692;2413417244;34535109;581640336;3453;2224;2126856;80;13689;501613
0;24;1572459847257;1572459861090;13833;38155239376;11540199518;1406156892;890673140;2413416590;34503297;580898288;1498;4359;2221368;12;13833;1802837
0;25;1572459861090;1572459874275;13185;38286734568;11540201532;1409003414;900421395;2413417468;34530494;579563078;1952;3332;2178216;-94;13185;801557
0;26;1572459874275;1572459888158;13883;38121986708;11540206080;1404092159;892725852;2413417472;34432230;581105772;1886;4228;2155560;54;13883;1339728
0;27;1572459888158;1572459901938;13780;37966047174;11540204255;1403904308;885252962;2413416961;34439397;577703423;1916;3927;2318048;-46;13781;763632
0;28;1572459901938;1572459915949;14011;38204733668;11540194885;1403589826;898116777;2413415770;34450911;579407293;2265;3795;2088184;26;14011;880484
0;29;1572459915949;1572459930609;14660;38478961964;11540208720;1411595476;908078251;2413418636;34622912;581541018;2140;3596;2354760;-31;14660;574636
0;30;1572459930610;1572459943803;13193;37926362622;11540198190;1409417200;889697842;2413416162;34511675;581580954;2586;2668;1918728;0;13193;584341
0;31;1572459943803;1572459957997;14194;37695517788;11540198961;1396250919;877203976;2413417423;34701395;575917562;2008;3819;2274760;27;14194;562196
0;32;1572459957997;1572459972230;14233;38744891474;11540203459;1409410375;911134756;2413418832;34738357;581653561;2723;3373;2260512;55;14234;850299
0;33;1572459972230;1572459986079;13849;38194312188;11540207603;1408628002;904030856;2413418366;34595167;578337952;1911;3499;2237200;-86;13849;770761
0;34;1572459986079;1572460000189;14110;37714003578;11540207258;1409122767;886272443;2413419028;34672483;579868924;2811;2809;2129656;37;14110;517391
0;35;1572460000189;1572460013694;13505;37942654616;11540209535;1407021370;889746775;2413417955;34416753;580614315;1494;4068;2142712;12;13504;1384312
0;36;1572460013694;1572460028050;14356;38739953462;11540200548;1411660769;909788311;2413417892;34785246;582086648;2465;3131;2353656;-42;14358;528642
0;37;1572460028051;1572460041601;13550;37827786488;11540197411;1403919028;886428977;2413415832;34493018;580774680;1932;3842;2036616;86;13550;1290384
0;38;1572460041601;1572460055199;13598;37580180124;11540203941;1410826653;887750964;2413417486;34541955;580573981;1649;3949;2313480;-89;13598;1231081
0;39;1572460055199;1572460068546;13347;37830230382;11540199041;1404594506;886670229;2413416640;34510949;580151218;2617;2436;1717040;100;13347;1198651
0;40;1572460068546;1572460081233;12687;37550906686;11540204145;1406116712;875488638;2413416764;34397734;577598912;1345;4141;2095728;0;12686;1824183
0;41;1572460081233;1572460094537;13304;37165433544;11540199680;1405420601;874912439;2413415527;34459844;578616524;1678;4543;2310144;16;13305;1944546
0;42;1572460094537;1572460109378;14841;36826278756;11540202257;1408438914;865349432;2413416826;34591030;580103545;1758;4277;2315888;-12;14841;2118855
0;43;1572460109378;1572460123074;13696;38373188468;11540194486;1407803352;902819469;2413415239;34528832;581589570;1555;4103;2357248;-78;13695;1497527
0;44;1572460123074;1572460136149;13075;37013345636;11540197785;1404669351;869691264;2413416238;34579784;580220597;2383;2474;1874104;-21;12984;1119505
0;45;1572460136149;1572460150080;13931;37759198900;11540208368;1405825213;882981597;2413418626;34540637;581671571;2607;3000;2210328;-14;13931;425394
0;46;1572460150080;1572460164088;14008;38129502496;11540195567;1408511475;894363715;2413415902;34491358;578657181;2470;3609;2095408;108;14008;1109241
0;47;1572460164088;1572460178179;14091;38204884048;11540214028;1407394768;901331591;2413419598;34641419;582106513;1703;3936;2358168;-100;14091;953097
0;48;1572460178179;1572460192702;14523;38138186430;11540194429;1408995383;896034554;2413415967;34539836;579660456;2451;3654;2216096;80;14523;1056483
0;49;1572460192702;1572460205794;13092;37850821638;11540206463;1405837391;887544710;2413417966;34528760;580494693;1436;3852;2195552;-72;13092;1340804
0;50;1572460205794;1572460218875;13081;37206219082;11540203786;1405975672;869238667;2413416767;34417380;581340741;3073;2308;1967272;28;12850;438032
1;2;1572460380734;1572460394783;14049;38619327532;11009911493;1399445444;897592195;2390355936;35140610;576232293;1845;4006;2122976;20;14049;956015
1;3;1572460394783;1572460408237;13454;37916748230;11009817919;1398701416;876870244;2390339355;35114296;573664253;2850;2343;2117232;-3;13454;325517
1;4;1572460408237;1572460421799;13562;37828648034;11009813903;1401024625;876664995;2390338826;35095128;576905819;2552;3352;2014512;62;13562;988856
1;5;1572460421799;1572460435122;13323;38109931634;11009825395;1395202137;885843972;2390340437;35005598;577340190;2550;2561;2034768;-80;13323;519743
1;6;1572460435122;1572460449367;14245;38094761066;11009807316;1403317166;885150574;2390338122;35108128;575114673;2392;3743;2128472;89;14245;713402
1;7;1572460449367;1572460463101;13734;38101925432;11009805053;1399092495;883380791;2390337300;35137451;576773437;2363;2877;2108856;-77;13308;698564
1;8;1572460463101;1572460477579;14478;38368084892;11009814606;1396970208;897272552;2390338977;35107265;577264169;3001;3233;2241680;80;14478;660001
1;9;1572460477579;1572460491111;13532;37718321674;11009839605;1399766709;873448915;2390343579;35112758;575061158;1656;3803;2135920;-70;13532;946490
1;10;1572460491111;1572460505542;14431;39035872540;11009807891;1403511819;906641743;2390338679;35168020;576230653;2594;3667;2244032;81;14431;543003
1;11;1572460505542;1572460519158;13616;37899520814;11009807494;1396754521;880598450;2390337664;35058171;576506932;1622;3835;2088080;-78;13616;1041774
1;12;1572460519158;1572460533149;13991;38144037672;11009815459;1396644088;883354857;2390340077;35186350;577931335;2596;2983;2273648;-20;13992;427529
1;13;1572460533150;1572460546741;13591;37966033012;11009797927;1396212430;879521061;2390335351;34944343;575259754;2307;3637;1999816;112;13591;1208084
1;14;1572460546741;1572460560673;13932;38140226634;11009800911;1396746380;889665419;2390336835;35081663;576132703;2304;3081;2238392;-94;13932;660376
1;15;1572460560673;1572460574097;13424;37756441398;11009812090;1394626411;874643728;2390338395;35087306;574283821;1809;4223;2084848;64;13425;1195297
1;16;1572460574098;1572460588069;13971;38375195092;11009811495;1399948428;896252480;2390338928;35164398;576689634;2110;3529;2197536;-61;13972;763834
1;17;1572460588070;1572460602238;14168;38113344092;11009813101;1400066661;891018674;2390338508;35126210;576368918;2936;3067;2160352;40;13990;555888
1;18;1572460602238;1572460615217;12979;37436029944;11009817215;1397901006;872258860;2390338788;35057539;574822708;1645;3820;1951592;50;12979;1293780
1;19;1572460615217;1572460629181;13964;37853364666;11009813957;1399517325;881511403;2390338881;35143037;574743364;1737;3919;2294264;-89;13965;1155946
1;20;1572460629182;1572460643142;13960;38609506842;11009816918;1402442263;900838259;2390339706;35154205;576979632;2943;2690;2303336;-9;13960;431358
1;21;1572460643142;1572460656576;13434;37239291732;11009809088;1400280418;871386917;2390337543;35059651;577270082;2076;3367;1971336;-7;13368;1317395
1;22;1572460656576;1572460670515;13939;38213380226;11009800518;1399980772;895058118;2390337799;35305844;574929451;3034;2331;2095608;9;13939;370625
1;23;1572460670515;1572460684653;14138;38421110048;11009803960;1400237581;898151000;2390338479;35315644;576783270;2434;3427;2093032;65;14138;1135605
1;24;1572460684653;1572460698522;13869;38006870380;11009805393;1402516973;882983450;2390337420;35143504;578575159;1521;4463;2382096;-53;13869;1070359
1;25;1572460698522;1572460712530;14008;38468915704;11009806351;1399043674;904396218;2390338877;35223760;575958519;3106;2951;2124528;80;14009;840229
1;26;1572460712531;1572460726052;13521;38539080530;11009808736;1399645815;900764477;2390338416;35143174;575746264;1428;4027;2227616;-23;13521;1693629
1;27;1572460726052;1572460739047;12995;37387887320;11009809875;1394238191;869443712;2390337353;34939641;575230365;1975;3487;2092568;-43;12995;756865
1;28;1572460739047;1572460752666;13619;38290711170;11009804573;1400037263;896175688;2390337382;35101003;577882960;1571;4168;2092136;23;13619;1374746
1;29;1572460752666;1572460766198;13532;38314088544;11009802851;1399736409;898776698;2390337104;35071705;574753748;2366;3081;2152416;-66;12872;477044
1;30;1572460766198;1572460779421;13223;37646119418;11009824261;1402175650;880068602;2390340196;35020760;575370478;2153;3520;2003416;106;13223;1020386
1;31;1572460779421;1572460792984;13563;38008897006;11009803747;1400569160;885943053;2390336814;35077664;576848365;1546;3804;2300112;-85;13564;877273
1;32;1572460792985;1572460807324;14339;38157516100;11009809213;1396167985;892271310;2390337651;34989489;576684412;2498;3502;2167376;35;14339;750230
1;33;1572460807324;1572460821358;14034;37797628144;11009812211;1398602572;882743105;2390338911;35124717;578216659;1608;4099;2336928;-45;14034;1114560
1;34;1572460821358;1572460835050;13692;38421734490;11009815832;1400070377;902295845;2390339779;35124416;575921570;2986;2893;2136112;28;13690;586518
1;35;1572460835050;1572460849138;14088;37905622446;11009803736;1400401531;886183604;2390337193;35210953;575207042;1562;3961;2249936;-21;14088;965705
1;36;1572460849138;1572460862854;13716;37883610026;11009799973;1401160559;888716207;2390336985;35148591;576846196;2794;2652;2167552;1;13716;448877
1;37;1572460862854;1572460876656;13802;37884355210;11009802638;1398882423;890445218;2390336601;35038247;575313801;1808;4166;2128688;78;13803;1455969
1;38;1572460876657;1572460890404;13747;37519799926;11009807501;1396291471;879578275;2390337849;35081839;576662390;2187;3116;2231040;-82;13747;1018001
1;39;1572460890404;1572460903834;13430;37400408426;11009810442;1398225247;870949316;2390338004;35037472;576839839;2016;3915;2047472;114;13430;1160179
1;40;1572460903834;1572460917046;13212;37318734858;11009804424;1396180517;870220986;2390336502;35033980;574456635;1785;3204;1796104;-1;13212;1998399
1;41;1572460917046;1572460930169;13123;37579851770;11009808323;1399020969;872961072;2390337140;35053807;575544566;1391;4295;2266096;-15;13123;1883654
1;42;1572460930169;1572460944693;14524;36552507878;11009807985;1403143959;846428103;2390337431;35101642;576581391;2041;4033;2342648;-71;14524;1058965
1;43;1572460944693;1572460959161;14468;38412773156;11009812141;1404022217;902991293;2390339370;35159986;577844722;2119;3782;2341688;-21;14468;640209
1;44;1572460959161;1572460972813;13652;37897368482;11009805613;1400674603;886827846;2390336941;35055901;581324618;2301;3328;2086672;53;13652;768544
1;45;1572460972813;1572460986707;13894;37284181038;11009810591;1401577302;870276101;2390337402;35024053;577582635;2218;3159;2169408;-59;13856;799670
1;46;1572460986707;1572461000559;13852;38307900626;11009806361;1396525218;897622287;2390336917;34999977;575676960;2877;2851;2113480;73;13853;596060
1;47;1572461000560;1572461014678;14118;37532698734;11009807156;1400225379;876296741;2390337067;35088718;576538512;1568;4011;2252752;-63;14118;1450914
1;48;1572461014678;1572461028739;14061;38141230968;11009807795;1403036421;894308627;2390337868;35077490;576816212;2398;3217;2296280;-18;14061;481892
1;49;1572461028739;1572461042364;13625;38026994144;11009802863;1401382159;892383601;2390336357;35035467;575483351;1808;3670;2017568;28;13625;1340808
1;50;1572461042364;1572461055887;13523;37752667152;11009805107;1400650136;878781365;2390337633;35050880;575471734;1830;3802;2243408;-11;13523;560675
1;51;1572461055887;1572461069326;13439;37362103428;11009797877;1403655157;874162350;2390335284;34972896;576768333;2210;3422;2010944;91;13439;1143902
2;2;1572461233433;1572461247038;13605;38126281006;11445087721;1420422416;890021729;2411377851;34926447;582854581;1563;3906;2108904;57;13606;1592783
2;3;1572461247041;1572461260635;13594;38264855300;11426322050;1416819938;899834078;2411319174;34402885;580996180;3393;1688;2023872;-148;13365;448669
2;4;1572461260635;1572461274576;13941;38340177138;11426249254;1411442522;890934924;2411306516;34438014;578212027;2691;3151;2044760;86;13940;1327799
2;5;1572461274576;1572461288503;13927;37710268460;11426250279;1414793811;878127979;2411307077;34482114;582691308;1967;3345;2201680;-62;13928;705830
2;6;1572461288503;1572461303074;14571;38334076236;11426261491;1421559574;900116501;2411309718;34502329;581197643;2606;3759;2117112;97;14571;978839
2;7;1572461303074;1572461317037;13963;38255601236;11426239017;1414464769;891747368;2411304634;34291804;580835351;1842;3495;2237688;-96;13963;994945
2;8;1572461317037;1572461331167;14130;38334091712;11426261668;1413662513;901843029;2411309310;34569198;581313174;3239;2784;2045152;56;14099;810259
2;9;1572461331167;1572461344756;13589;37534339044;11426256933;1416408683;881324904;2411307737;34376519;585496399;2113;3282;2074568;-53;13589;1159481
2;10;1572461344756;1572461358354;13598;38027712172;11426241967;1416395558;885615054;2411305470;34401337;581561839;2617;3332;2059960;95;13597;496379
2;11;1572461358354;1572461372264;13910;38246311548;11426242225;1414870023;894636214;2411305730;34427696;583336244;1622;4111;2130760;-26;13911;1621775
2;12;1572461372264;1572461385912;13648;38072525412;11426240287;1413967332;890608535;2411305075;34303460;582069969;1987;3543;2215720;-69;13648;628661
2;13;1572461385913;1572461399615;13702;37850009586;11426240110;1413586521;885444911;2411305275;34563947;579993256;2610;3212;1969416;99;13520;1394805
2;14;1572461399615;1572461413994;14379;38368790510;11426235595;1413753900;902901888;2411304719;34579956;581504793;1608;4300;2482464;-97;14378;1488655
2;15;1572461413994;1572461427144;13150;38189483530;11426247337;1419759152;898596970;2411306430;34305335;583224471;2475;3119;1963336;40;13151;914770
2;16;1572461427144;1572461440275;13131;37876923226;11426245655;1418546113;891524969;2411305890;34353708;581069765;1395;4049;2152656;15;13130;1212017
2;17;1572461440275;1572461454063;13788;38185396114;11426238456;1413312843;896430987;2411304893;34317858;582534978;2295;3618;2209688;-1;13788;776139
2;18;1572461454063;1572461467546;13483;37807695282;11426241599;1415661444;884334210;2411305508;34516253;583876805;1743;3781;2016496;45;13484;1786296
2;19;1572461467547;1572461480781;13234;37013219346;11426249055;1412704549;872698503;2411305572;34331674;578742250;1698;3697;2217160;-107;13234;1622053
2;20;1572461480781;1572461493952;13171;37637503666;11426240400;1414512650;883625908;2411305204;34365231;579734511;4080;1299;1932400;18;12963;337765
2;21;1572461493952;1572461508060;14108;37800066052;11426239049;1416065117;885982205;2411305252;34342072;583201727;1615;4026;2217600;-4;14109;1335542
2;22;1572461508060;1572461521792;13732;38172524024;11426262817;1412863164;901927185;2411309573;34483626;581676163;2817;2503;2083304;-10;13454;377358
2;23;1572461521792;1572461535157;13365;37830631736;11426249239;1414283031;891961272;2411306910;34474641;579962544;2145;3476;1966816;97;13364;1138195
2;24;1572461535157;1572461548949;13792;38442528102;11426233604;1414523650;902963836;2411303781;34260614;581218299;1678;3986;2333280;-97;13793;874970
2;25;1572461548950;1572461563013;14063;38058543722;11426255046;1417020411;893046636;2411308166;34522133;581045005;2278;3580;2148104;53;14064;654009
2;26;1572461563013;1572461576779;13766;38067831658;11426242111;1414076104;901219348;2411305663;34458371;580736025;1869;3838;2212720;-50;13766;652590
2;27;1572461576779;1572461591221;14442;38426826678;11426261348;1415365290;907659764;2411309105;34441426;581828980;2328;3734;2242160;56;14442;815057
2;28;1572461591221;1572461605425;14204;38120908060;11426247170;1415911676;899943158;2411306115;34470848;583638993;1483;4267;2304968;-29;14203;1169611
2;29;1572461605425;1572461619009;13584;38017314344;11426236687;1413946092;896759295;2411304272;34366759;582327586;2677;2988;2154488;-10;13585;525175
2;30;1572461619009;1572461632711;13702;38252062196;11426256315;1418797664;896030124;2411308547;34532323;584821000;1461;4087;2119728;44;13702;1194597
2;31;1572461632711;1572461646782;14071;38211413606;11426240523;1413849353;899214959;2411305339;34431346;580947564;2028;3826;2373096;-62;14071;750992
2;32;1572461646783;1572461660964;14181;38106840668;11426241186;1414239298;898600125;2411304920;34446455;579028339;1806;4109;2163504;123;14181;1666562
2;33;1572461660964;1572461674890;13926;38022165632;11426250101;1411977184;900794877;2411306407;34329560;583468220;2127;3127;2282032;-124;13927;1063630
2;34;1572461674890;1572461688926;14036;37955715922;11426240993;1415035110;895989990;2411305929;34553022;583291969;2668;3140;2057672;34;13931;1062243
2;35;1572461688926;1572461702116;13190;37639895876;11426239955;1413260130;886938920;2411304511;34332394;581984917;1629;3919;2166688;-33;13190;936739
2;36;1572461702117;1572461715940;13823;38091297216;11426243975;1413700089;895487173;2411305310;34366159;582368076;2295;3695;2119200;89;13726;913583
2;37;1572461715940;1572461730299;14359;38631847908;11426236117;1416129674;911943373;2411304623;34498746;579744424;1513;4243;2351456;-38;14358;1545910
2;38;1572461730299;1572461744520;14221;38508615440;11426239607;1418685140;912487420;2411305512;34481441;584763325;2487;3455;2212712;11;14222;791690
2;39;1572461744521;1572461757968;13447;37721010994;11426247151;1415027517;888851613;2411306201;34462732;582768888;1415;4086;2101776;61;13447;1845565
2;40;1572461757968;1572461771744;13776;37715780836;11426243048;1416171864;891247626;2411306166;34648752;581075606;1684;3764;2395064;-145;13776;1752908
2;41;1572461771744;1572461785314;13570;37575823922;11426248152;1415572602;881749967;2411306117;34436599;580060873;2143;3726;1897504;134;13571;1712165
2;42;1572461785314;1572461798936;13622;38190378072;11426242742;1413439810;890739971;2411305455;34492395;579447352;1676;3537;1991192;9;13621;1957127
2;43;1572461798936;1572461815073;16137;37625313542;11426238830;1416142600;882202417;2411304791;34504079;585396040;1988;5289;2818584;-26;16138;2362543
2;44;1572461815073;1572461827787;12714;36070227392;11426235877;1412991903;840679430;2411302937;34361159;580993768;1549;3205;1982504;-18;12713;1567206
2;45;1572461827787;1572461841433;13646;37831797108;11426237150;1416652970;890308534;2411304720;34474823;580478804;2187;3210;2257760;-80;13646;903210
2;46;1572461841433;1572461854657;13224;37616645668;11426239129;1412853245;886452629;2411304815;34333270;580599396;2099;3607;1932936;122;13225;1239126
2;47;1572461854658;1572461868696;14038;38020616572;11426239503;1414671825;896999413;2411304780;34387002;581433296;1577;4180;2375656;-119;14038;1428238
2;48;1572461868696;1572461882598;13902;38153205012;11426240224;1418829501;901975029;2411305891;34481759;580128536;2610;3369;2140008;95;13903;1066160
2;49;1572461882598;1572461896386;13788;38497224082;11426250356;1417241031;911042345;2411307940;34542470;581342344;1482;4069;2267664;-70;13787;1467708
2;50;1572461896386;1572461909918;13532;37587322152;11426248671;1416652178;888647330;2411306879;34558972;581215765;2353;3332;2125384;-37;13532;570742
2;51;1572461909918;1572461923287;13369;37806199366;11426237208;1418014536;890686274;2411304405;34360624;581599060;1641;3792;2113144;17;13369;834336
3;1;1572462092242;1572462106751;14509;39475068864;11218154033;1494522742;971507442;2418385567;35208506;605263702;1547;4358;2352392;-99;14510;1076145
3;2;1572462106752;1572462120329;13577;37738913076;11019415815;1389678271;880012997;2390076389;35003317;577500352;1837;4277;2065448;38;13577;1179534
3;3;1572462120329;1572462134878;14549;38152369454;11019351406;1390073209;886664011;2390064802;34971174;574714715;3405;2031;2205888;-55;14310;264872
3;4;1572462134878;1572462148877;13999;37795520780;11019359060;1394112980;878602343;2390066460;35079951;576845034;2630;3303;2079264;52;13966;969887
3;5;1572462148877;1572462162688;13811;37870242412;11019343874;1392347468;873179475;2390063378;34855579;576504782;2307;3262;2251648;-24;13812;550690
3;6;1572462162689;1572462176803;14114;38166107616;11019356879;1395638990;892157677;2390066419;35044849;575805943;2979;2829;2019464;68;14004;774087
3;7;1572462176803;1572462190561;13758;38037301306;11019346472;1389129824;883512725;2390063151;34753596;573509564;1744;3862;2210216;-70;13758;669978
3;8;1572462190561;1572462204219;13658;38222347838;11019371844;1391655096;892131713;2390067832;34811926;576211559;3487;2171;1998800;72;13651;496672
3;9;1572462204219;1572462218541;14322;37912141054;11019356401;1393321563;880065567;2390065531;34935781;576293719;1982;3920;2324376;-69;14322;988238
3;10;1572462218541;1572462232632;14091;37788513218;11019346100;1397060311;875247645;2390064240;34977681;575918295;2684;3034;2154736;78;14091;484810
3;11;1572462232632;1572462245757;13125;37691008286;11019346971;1393328056;877293724;2390063898;34942264;575658782;1642;3669;2024256;-76;13125;866975
3;12;1572462245757;1572462259460;13703;38063720006;11019352507;1391825642;888657772;2390065594;34941807;574345476;2904;2392;2086048;-6;13495;350814
3;13;1572462259460;1572462273942;14482;38732571410;11019344036;1393600796;905309570;2390064536;35117036;573083537;2709;3460;2209752;58;14483;1169301
3;14;1572462273943;1572462287687;13744;37743432798;11019355515;1392695061;880899183;2390065475;34912730;576017851;1996;3685;2257520;-59;13744;758268
3;15;1572462287687;1572462301731;14044;37974111630;11019352223;1391645244;885586649;2390066163;35205360;576743820;2261;3581;2113800;98;14045;908705
3;16;1572462301731;1572462315381;13650;37911861756;11019348683;1397359125;886187513;2390064506;34934778;580397364;1681;3888;2263888;-93;13650;1097416
3;17;1572462315382;1572462329660;14278;38097338404;11019350638;1395051459;895248563;2390064346;34867337;575748584;3108;2791;2181136;77;14278;669166
3;18;1572462329660;1572462343255;13595;38176603994;11019352071;1391741489;891810745;2390064897;34880020;576830585;1734;3905;2151768;-61;13595;1127933
3;19;1572462343255;1572462356872;13617;37626675138;11019346466;1389934068;877316164;2390063942;34933384;574331872;2541;2602;2135688;-17;13617;444196
3;20;1572462356872;1572462370191;13319;37669638704;11019356489;1391520580;875530509;2390065091;34768868;573764164;2811;2796;2032400;77;13224;613897
3;21;1572462370191;1572462383728;13537;37639197120;11019356260;1389639834;880454601;2390065136;34777703;574128282;1597;3876;2144272;-68;13536;1195829
3;22;1572462383728;1572462398021;14293;37991217866;11019355702;1392576575;889952645;2390065937;34924005;575517782;2631;3102;2253192;-8;14294;472094
3;23;1572462398022;1572462412178;14156;37924918974;11019347954;1390892907;888490133;2390064096;34910922;575608314;2042;3982;2130968;-2;14156;816774
3;24;1572462412178;1572462425780;13602;37638632538;11019347053;1390402663;878340110;2390063926;34832408;574525571;2297;3092;2187776;-1;13602;446385
3;25;1572462425780;1572462439353;13573;37521656170;11019339206;1394164563;877546743;2390061483;34734408;577351198;2225;3426;2053080;38;13573;990172
3;26;1572462439353;1572462453242;13889;38114296742;11019341536;1392798960;890216035;2390062701;34777949;577002340;2178;3532;2207808;-34;13889;601640
3;27;1572462453242;1572462468003;14761;38338969426;11019357133;1393165572;897947134;2390065693;34920686;574012097;2340;3985;2248800;76;14761;1047287
3;28;1572462468003;1572462481599;13596;37706736574;11019342789;1392996956;882410082;2390063152;34906217;576093973;2369;2759;2179104;-75;13596;698293
3;29;1572462481599;1572462494953;13354;37447073822;11019348436;1397190749;876228034;2390064259;34867279;575322047;2961;2524;1994840;68;13275;572854
3;30;1572462494954;1572462508804;13850;37409290190;11019354844;1395245737;876683505;2390064804;34769251;575643795;1988;3049;2092328;-75;13696;1310684
3;31;1572462508804;1572462522858;14054;37699841724;11019348419;1390515169;887089984;2390063533;34750458;575684364;2173;3505;2263096;2;14054;420758
3;32;1572462522858;1572462536891;14033;38039344868;11019352720;1395287965;893458468;2390065099;34947770;578073705;2287;3519;2161032;3;14033;706634
3;33;1572462536891;1572462550699;13808;37544333328;11019347945;1393461913;879401309;2390063871;34895515;575559192;2767;2671;2174688;-2;13808;443829
3;34;1572462550699;1572462564751;14052;37782049068;11019344688;1392320377;887237202;2390064515;35069192;577764439;2417;3433;2170448;29;14052;768271
3;35;1572462564751;1572462578924;14173;38130880444;11019344291;1397040541;898668002;2390064063;35002593;577780140;3007;2411;2185376;-23;14096;422297
3;36;1572462578924;1572462593019;14095;37874808124;11019340587;1392501232;888625390;2390063338;35034469;575300948;2436;3434;2123584;69;14095;1002248
3;37;1572462593019;1572462606475;13456;37800503906;11019348805;1392602393;877507875;2390063667;34841271;574266453;1465;3962;2277736;-67;13456;1209901
3;38;1572462606475;1572462620678;14203;37787946446;11019349174;1398955830;890261276;2390066548;35336646;577950437;3312;2508;2152408;64;13970;533875
3;39;1572462620678;1572462634402;13724;37882336760;11019355053;1396264179;887046231;2390065874;34955417;577231630;1924;3340;2164056;-71;13724;783529
3;40;1572462634402;1572462648024;13622;37864823330;11019354206;1393779412;888751943;2390064732;34807130;576271810;3260;2258;2057224;3;13443;412296
3;41;1572462648024;1572462661793;13769;37700983882;11019345763;1394647822;882692445;2390063670;34960943;575128012;1862;3600;1860528;116;13770;1344338
3;42;1572462661794;1572462674611;12817;36818705590;11019343171;1390746533;858071826;2390062645;34873370;574836721;1373;3897;2159576;-67;12817;1823344
3;43;1572462674611;1572462688181;13570;37489434554;11019347651;1394781366;870105937;2390064921;34982830;575600521;2622;2862;2225488;-50;13570;447974
3;44;1572462688181;1572462701493;13312;37252657448;11019347924;1392854546;874052615;2390063195;34782201;574796371;1873;3841;2044136;39;13312;1224153
3;45;1572462701493;1572462716155;14662;38239119150;11019352581;1396373289;902208319;2390065502;34943931;575988671;2380;3654;2377784;-43;14662;619264
3;46;1572462716155;1572462730124;13969;38002956704;11019353443;1395744647;893727211;2390065218;34968436;576549121;2210;3700;2102960;78;13887;1330438
3;47;1572462730124;1572462743622;13498;38010404164;11019342464;1397959235;890734918;2390063221;34862944;576576805;1518;3873;2272832;-78;13498;1120171
3;48;1572462743622;1572462756950;13328;37542635932;11019343704;1398437281;877222858;2390063434;34898775;578777886;3141;2308;1980672;39;13328;540299
3;49;1572462756950;1572462771274;14324;37874766952;11019341268;1394304818;883480253;2390062356;34796475;576856488;1955;3872;2345280;-38;14324;904607
3;50;1572462771274;1572462784805;13531;37808704580;11019349446;1393918090;891281303;2390064426;34867906;576843143;3082;2623;1981616;74;13531;592198
4;1;1572462957854;1572462972181;14327;38223047762;11688818907;1418542826;897672974;2412948277;35306069;583336883;1798;3845;2302136;-123;14240;1375768
4;2;1572462972181;1572462986175;13994;38368382294;11629450020;1410768907;889628854;2405566847;34773062;583039004;2663;2927;2151448;122;13994;521122
4;3;1572462986175;1572463000039;13864;37984176286;11629378795;1409531420;876984063;2405554523;34745184;576398708;2832;2710;2193168;-92;13864;302705
4;4;1572463000039;1572463013716;13677;37926224944;11629375113;1406281838;883309664;2405553018;34547869;580537937;2162;3804;2009152;15;13677;960922
4;5;1572463013716;1572463027964;14248;38575330140;11629379192;1409557965;896230747;2405554237;34691017;578065424;2690;2788;2176056;-23;14175;420697
4;6;1572463027965;1572463041897;13932;37979751610;11629381382;1412322603;880526966;2405555233;34909866;579463427;2327;3324;2042856;43;13932;915941
4;7;1572463041897;1572463056082;14185;38734773382;11629373089;1405965710;897663265;2405552890;34648883;578508106;2589;2966;2210904;-36;14185;503665
4;8;1572463056082;1572463070488;14406;39085609630;11629399280;1407600690;910827917;2405558179;34790442;577318619;3316;2882;2105136;89;14138;980939
4;9;1572463070488;1572463083776;13288;37579859800;11629376677;1410621524;872312152;2405553182;34604695;578309972;1803;3400;2108720;-85;13296;1099604
4;10;1572463083776;1572463097950;14174;38262144372;11629384221;1408149393;892591166;2405554691;34730423;577788893;2509;3572;2146504;40;14174;585118
4;11;1572463097950;1572463111750;13800;38059459872;11629388788;1408307615;889041048;2405556148;34753176;578443158;2500;3148;2112744;-42;13800;722877
4;12;1572463111750;1572463126055;14305;38438082986;11629380322;1410635289;888995375;2405554890;34728955;581571131;2998;2898;2248488;0;14305;454620
4;13;1572463126055;1572463140244;14189;38068044964;11629372929;1405445686;887448048;2405552326;34605847;579985247;2006;3948;2121496;1;14189;1212791
4;14;1572463140244;1572463154183;13939;38633065694;11629378893;1409455878;894579624;2405553961;34666320;577724995;2408;3234;2237128;-3;13939;464630
4;15;1572463154183;1572463167980;13797;38095186802;11629380448;1409510772;886423856;2405554981;34747328;578635480;2270;3872;2068048;48;13797;1084864
4;16;1572463167980;1572463181747;13767;37852531006;11629371048;1409123292;890165615;2405551970;34540732;576694519;2680;2905;2077976;-47;13608;520585
4;17;1572463181747;1572463196303;14556;39022502298;11629374659;1410473217;909308472;2405554496;35025992;580327933;2482;3456;2191272;45;14556;961012
4;18;1572463196303;1572463209939;13636;37933055116;11629399729;1410683508;878413669;2405558194;34835266;578759979;1697;4009;2150072;-1;13636;1279357
4;19;1572463209939;1572463223845;13906;38191856176;11629375920;1404689885;892049455;2405553335;34617851;578243988;2269;3377;2231400;-45;13906;559442
4;20;1572463223845;1572463238030;14185;38230676262;11629379407;1412236233;892641672;2405553876;34666631;578911913;2994;3046;2088480;64;14167;1004296
4;21;1572463238030;1572463251538;13508;38091807778;11629394188;1409647999;885355120;2405556848;34774660;578729444;2227;2895;2163616;-65;13508;663779
4;22;1572463251538;1572463265670;14132;38637924866;11629383910;1408111276;901321713;2405554875;34603087;578784583;2228;3965;2160288;71;14132;661376
4;23;1572463265670;1572463279719;14049;38153189682;11629374822;1407956037;890424754;2405553556;34766041;577260221;1830;3915;2255360;-78;14049;1035776
4;24;1572463279719;1572463293872;14153;38487268634;11629387635;1408588256;897966050;2405556458;34733608;580041211;2999;3129;2231704;34;14154;484477
4;25;1572463293873;1572463307364;13491;38402641778;11629380143;1411506507;901072826;2405554467;34542873;578554869;1548;4103;2069704;27;13491;1299181
4;26;1572463307364;1572463321395;14031;38524264742;11629384774;1408476798;901052558;2405555396;34637852;578140862;2324;3202;2211016;-48;14031;452617
4;27;1572463321395;1572463334617;13222;38028436332;11629388164;1409015107;887367132;2405554876;34514656;578068192;1950;3588;1985472;18;13222;1045145
4;28;1572463334617;1572463348593;13976;38633272576;11629377975;1409295062;906312802;2405554609;34831801;581054800;2123;3451;2246440;-20;13923;483325
4;29;1572463348593;1572463362935;14342;39079337032;11629386822;1409732073;914984938;2405556283;34644717;579980290;2309;4117;2160600;83;14342;1080133
4;30;1572463362935;1572463375748;12813;36628735500;11629383690;1404880579;857122050;2405554511;34640573;577883996;1849;2991;1991096;-74;12813;1317072
4;31;1572463375748;1572463388567;12819;37562748454;11629375157;1407050146;872053977;2405553058;34571036;580651488;2338;3010;2002240;36;12819;552048
4;32;1572463388567;1572463403018;14451;38685583646;11629377093;1410723100;915393109;2405554414;34875373;580037838;2043;3495;2241752;-77;14398;705558
4;33;1572463403018;1572463417734;14716;38783755652;11629371805;1407387056;910544509;2405553256;34735597;580467676;3300;2370;2282816;2;14353;402713
4;34;1572463417734;1572463431461;13727;38066679718;11629379004;1408746324;885870773;2405554411;34778808;578380601;1754;4083;2077904;128;13728;1815770
4;35;1572463431462;1572463444673;13211;37830837450;11629375802;1409192369;882712682;2405553520;34655589;579345030;1423;4039;2295440;-63;13211;1657259
4;36;1572463444673;1572463458990;14317;38310223194;11629378664;1413373547;903631294;2405555188;35038355;579866800;2142;3619;2168416;-8;14280;985620
4;37;1572463458990;1572463473217;14227;38572879092;11629384569;1411227905;903670674;2405554947;34606615;578730659;2180;3498;2319040;-38;14227;518290
4;38;1572463473217;1572463486810;13593;37765482594;11629377604;1407099282;885619825;2405554677;34719287;579370064;2516;3134;2035264;29;13593;540040
4;39;1572463486810;1572463500959;14149;38761506128;11629388560;1410340899;912818308;2405556773;34807894;578259405;2610;2952;2184064;-19;14149;443280
4;40;1572463500959;1572463514501;13542;38142707612;11629378917;1409582332;893239838;2405554019;34615799;577245023;2606;3062;1907072;112;13542;800859
4;41;1572463514501;1572463527609;13108;37688699734;11629393432;1413456065;876148727;2405555838;34660156;578684733;1537;3617;1912560;13;13109;1882727
4;42;1572463527610;1572463540460;12850;37141852208;11629385207;1413036376;863744458;2405554083;34550565;580483095;1350;4445;2203480;-6;12850;1847942
4;43;1572463540460;1572463553598;13138;36970829268;11629382142;1410618885;859176530;2405554019;34603080;578089569;1885;3512;2046704;-99;13138;1125200
4;44;1572463553598;1572463567339;13741;37690990912;11629387442;1413117033;886067361;2405554921;34575436;578309835;2609;2807;2101584;-17;13729;553659
4;45;1572463567339;1572463581621;14282;38501901338;11629379736;1409256408;907000870;2405554610;34744468;579205862;2162;3719;2149408;24;14282;859666
4;46;1572463581621;1572463594802;13181;37726306706;11629380172;1410864924;878095146;2405553853;34594685;577093457;2414;2624;2067920;-26;13181;498748
4;47;1572463594802;1572463608836;14034;37977997566;11629386982;1411271035;890041073;2405556760;35011657;580416605;2733;3179;2143208;82;14034;804892
4;48;1572463608836;1572463622260;13424;38498086942;11629378005;1412980359;902063668;2405553978;34656225;577007747;1630;3560;2196432;-85;13424;1021982
4;49;1572463622260;1572463636137;13877;38245773830;11629380047;1410557259;895993476;2405554838;34788052;579795655;2923;2822;2085232;38;13877;464732
4;50;1572463636137;1572463650794;14657;38631733444;11629377007;1410428543;904933974;2405554751;35080261;580310882;1671;4204;2295488;1;14657;1394378
