0;1;1572469226831;1572469239403;12572;36248147372;11248100466;1504953881;917096723;2422763830;35248233;608411372;2088;15347;1572256;-100;12572;1661343
0;2;1572469239403;1572469253101;13698;35715009976;11024040584;1397119891;851775609;2389953943;35095832;572596839;3011;15194;1521880;103;13699;1534207
0;3;1572469253102;1572469266777;13675;35351849722;11023970857;1397811054;844632722;2389942208;35153755;573518876;3063;14287;1554416;0;13675;1810952
0;4;1572469266777;1572469279922;13145;33798087354;11023961001;1393195614;789683072;2389938592;34762970;574281808;3589;10988;1279216;-8;13145;1934572
0;5;1572469279922;1572469292799;12877;35239904368;11023961455;1395328570;837260547;2389939525;35057684;574404729;2430;14615;1442264;6;12877;1837843
0;6;1572469292799;1572469306286;13487;35283075838;11023979677;1402659133;843418312;2389943554;35176347;576389041;2353;20046;1962176;72;13488;1971726
0;7;1572469306287;1572469320266;13979;35611422538;11023962380;1396077036;851252636;2389941088;35136718;574403596;2968;15125;1586448;-80;13980;1841621
0;8;1572469320267;1572469333614;13347;35375098908;11023965338;1398006075;843970290;2389941320;35112632;575987285;4464;14042;1711504;-129;11705;847259
0;9;1572469333614;1572469347758;14144;35698573296;11023990378;1397252290;850586364;2389946322;35274104;571877894;3808;14970;1558024;115;12801;1566326
0;10;1572469347758;1572469360881;13123;35541922742;11023973708;1397957369;848071164;2389942593;35108583;574791178;2385;15712;1714000;-118;13123;1113444
0;11;1572469360881;1572469374916;14035;35678155926;11023972891;1396720481;848083689;2389943430;35167797;571782757;5709;13987;1606944;122;13014;931538
0;12;1572469374917;1572469390283;15366;35992226454;11023967030;1402190928;861613737;2389944430;35575175;577597781;3103;19035;1980512;-92;15366;1332764
0;13;1572469390283;1572469404292;14009;35487723308;11023963207;1393841455;845239035;2389940899;34987930;576379368;5553;13889;1635248;115;12118;786099
0;14;1572469404292;1572469418696;14404;35637157374;11023953251;1395637750;850558826;2389939250;35112902;572992124;2364;17353;1819216;-90;14403;1829153
0;15;1572469418696;1572469433738;15042;36011328364;11023965375;1400612542;859677693;2389944106;35548675;576677715;5251;15457;1762688;52;12960;634286
0;16;1572469433738;1572469447199;13461;35483898838;11023958565;1395664962;845517698;2389939216;35110059;572406561;2869;13880;1405656;27;13460;2005536
0;17;1572469447199;1572469461404;14205;35585491916;11023971042;1398982640;848844237;2389943205;35186956;576431511;2802;18704;2037872;-146;13812;1673690
0;18;1572469461404;1572469475269;13865;35554496700;11023972477;1401306835;851561459;2389944379;35379582;576764910;6752;11696;1545392;138;9337;452246
0;19;1572469475269;1572469488642;13373;35333812444;11023960355;1398712015;843116567;2389940374;35340142;574965469;2324;16172;1615416;-80;13372;1752008
0;20;1572469488642;1572469502129;13487;35377063046;11023965384;1400946229;842395262;2389939879;34841109;576154431;4491;14514;1744432;-58;11220;367734
0;21;1572469502129;1572469515944;13815;35371863840;11023967928;1396199274;842361525;2389940858;35059495;573179601;3405;15878;1518736;157;13568;1930667
0;22;1572469515944;1572469530015;14071;35659152712;11023977373;1403345241;852161667;2389945892;35393877;576140642;2798;17424;1896848;-156;13790;1183749
0;23;1572469530015;1572469543821;13806;35638704098;11023960490;1397523441;846787399;2389940219;35101548;575463816;5277;12641;1450296;137;11453;1287795
0;24;1572469543821;1572469557122;13301;35310166868;11023971213;1397466931;841511565;2389941705;35044163;578758603;2134;17106;1802192;-108;13302;1519867
0;25;1572469557122;1572469571819;14697;35783213584;11023966045;1396546839;854061926;2389942571;35234832;575499096;5483;15322;1743088;104;12534;825119
0;26;1572469571819;1572469585387;13568;35463944580;11023960486;1395554184;845579445;2389939528;35043326;571923983;2260;17349;1641304;3;13569;1931425
0;27;1572469585387;1572469599080;13693;35459147020;11023997789;1400330534;844230945;2389946798;35123861;573387201;4706;14397;1784104;-65;11508;568371
0;28;1572469599080;1572469612911;13831;35550668288;11023965935;1399752262;849460327;2389942541;35330247;575501340;2599;15499;1556304;46;13830;1941382
0;29;1572469612911;1572469626727;13816;35716350110;11023976586;1400893565;856248875;2389945108;35490873;575025815;4295;14510;1717080;-118;12434;459541
0;30;1572469626727;1572469640865;14138;35685605430;11023970949;1397651860;852622107;2389943118;35273352;575308812;3607;15779;1592960;136;12764;1572549
0;31;1572469640865;1572469654885;14020;35509354522;11023963173;1398367171;847152846;2389940701;35114854;574044672;3168;16666;1881224;-126;13151;1276141
0;32;1572469654885;1572469668938;14053;35536326854;11023963736;1398024811;851576370;2389940976;35334683;574362896;4843;14652;1533656;124;12806;1143121
0;33;1572469668938;1572469682639;13701;35753279496;11023972909;1399910923;856376240;2389943056;35492567;575080691;2207;17249;1819568;-107;13701;1548169
0;34;1572469682639;1572469697015;14376;35570508958;11023973172;1399154723;848000071;2389942603;35122361;574175812;5844;13222;1654432;103;12745;808658
0;35;1572469697015;1572469711046;14031;35453835832;11023967508;1397713756;844400721;2389941998;35236586;573354530;2322;18060;1736648;-26;14030;1973494
0;36;1572469711046;1572469725742;14696;35668919090;11023964504;1400392743;853575848;2389942144;35262031;575210658;5488;15568;1816408;47;12379;774434
0;37;1572469725742;1572469739208;13466;35519914994;11023963739;1396539575;848245744;2389940609;35116196;574451111;2374;15954;1575160;-5;13465;1923600
0;38;1572469739208;1572469753104;13896;35670908778;11023972883;1399677710;853521032;2389943576;35236216;573188614;4677;14046;1804856;-146;11991;658670
0;39;1572469753104;1572469767362;14258;35727286970;11023965799;1396504760;853401954;2389942606;35296860;574626893;4044;11424;1208280;143;13529;2014984
0;40;1572469767362;1572469780383;13021;35153112624;11023963097;1393270703;837209954;2389940031;35134537;573035759;1924;18878;1779000;6;13021;1860987
0;41;1572469780383;1572469793576;13193;35086816944;11023965554;1394925131;837210597;2389940622;34965894;573473515;3022;17758;1921864;-2;12730;1341241
0;42;1572469793577;1572469806969;13392;35604193348;11023961211;1394738607;848939529;2389940566;35030934;574638001;2843;13897;1467120;-110;13392;1173823
0;43;1572469806969;1572469821190;14221;35797760878;11023971625;1397389994;856659664;2389942722;35240727;573394664;4794;14981;1753800;6;13103;279255
0;44;1572469821190;1572469835507;14317;35551005840;11023959033;1398929615;848710424;2389940470;35128117;576431984;2968;16581;1634392;116;14306;1883065
0;45;1572469835507;1572469849171;13664;35550978392;11023964886;1399647607;849674734;2389941388;35095303;575603059;3823;15217;1772504;-152;12719;862699
0;46;1572469849171;1572469863746;14575;35940319658;11023973971;1402945428;860725654;2389945149;35391990;574136169;4918;14744;1578056;140;12106;1477809
0;47;1572469863746;1572469877938;14192;35693247216;11023963262;1401809452;854782400;2389940822;35092287;576234255;2511;17779;1910392;-118;14192;1496012
0;48;1572469877938;1572469891481;13543;35571022586;11023965499;1399893555;849904271;2389942756;35234818;574665876;4716;13652;1523792;99;11413;1002043
0;49;1572469891481;1572469905228;13747;35465915142;11023962930;1398972813;847106591;2389940862;35065050;575441729;2382;16977;1762016;-109;13746;1372219
0;50;1572469905228;1572469920244;15016;35805365434;11023963191;1402233177;859373203;2389943026;35690743;573983051;5713;14806;1738264;121;12838;744168
1;1;1572470058429;1572470073029;14600;34931333952;11658967195;1406705969;835068980;2406969329;34373721;580110990;2681;18860;1806832;7;14600;2158357
1;2;1572470073029;1572470086333;13304;35365516198;11645617686;1406095778;849957022;2404697549;34996286;579066833;2530;14019;1498840;11;13304;1892947
1;3;1572470086335;1572470099993;13658;35349966468;11626832999;1405155539;844980635;2404633185;35031931;578707826;2553;20910;2177080;-135;13515;1528176
1;4;1572470099993;1572470114253;14260;35527617662;11626783975;1405368552;853398777;2404627080;35332599;577461457;3315;15861;1580000;99;14116;1795126
1;5;1572470114253;1572470128204;13951;35607442286;11626789943;1405984169;855321589;2404628346;35360247;580163254;3579;15121;1712352;-95;13499;688377
1;6;1572470128204;1572470142083;13879;35528581700;11626784557;1407654192;853233781;2404627770;35449634;578151451;5432;12616;1477448;102;11904;1286904
1;7;1572470142083;1572470157002;14919;35928833692;11626765445;1407601943;860153186;2404624731;35482643;581964855;2372;19648;2055152;-111;14919;1802837
1;8;1572470157002;1572470170978;13976;35733235594;11626786081;1404266706;856210063;2404626835;35306803;578729573;4939;13872;1562568;125;12139;892150
1;9;1572470170978;1572470185327;14349;35783597126;11626770172;1402998387;857443823;2404623885;35425154;576275716;2875;16578;1753768;-124;14266;1259775
1;10;1572470185327;1572470199503;14176;35642579230;11626760617;1407177085;856373819;2404622695;35369823;578435731;5197;14354;1662584;111;12559;650104
1;11;1572470199503;1572470213381;13878;35710054736;11626761405;1404238456;854734509;2404623034;35470334;580445231;2329;16756;1701016;-58;13879;1847452
1;12;1572470213381;1572470227234;13853;35462035192;11626773532;1404886542;848768558;2404624079;35128368;578081507;4952;14802;1754280;101;11717;332653
1;13;1572470227234;1572470241325;14091;35676205366;11626759884;1404432658;855568665;2404622811;35424604;580710486;2947;16261;1607464;-80;14092;1811346
1;14;1572470241326;1572470255544;14218;35629793280;11626761823;1404394979;856457591;2404622542;35349372;580165549;4005;16553;1902552;-76;13197;750605
1;15;1572470255544;1572470270228;14684;35615941092;11626767562;1406417803;856022165;2404624107;35349464;579782014;3677;16037;1620552;125;14129;1713911
1;16;1572470270228;1572470284998;14770;35909952096;11626758718;1407133684;863545209;2404622479;35559172;580635158;3085;18389;2005528;-144;13862;1317528
1;17;1572470284999;1572470299405;14406;35801472782;11626763290;1404226102;856900923;2404623513;35335952;576979371;4846;15628;1599784;144;13383;1416929
1;18;1572470299405;1572470312744;13339;35372574860;11626764573;1404839203;847444022;2404621409;35188758;578240230;2501;15590;1636568;4;13339;2007677
1;19;1572470312744;1572470327068;14324;35622906752;11626766011;1407380183;852825547;2404624752;35465447;578272401;5615;13769;1835848;-135;11050;638512
1;20;1572470327068;1572470340932;13864;35542909264;11626766850;1404852776;852466303;2404623565;35374963;578218663;4655;14688;1513648;141;12958;1315691
1;21;1572470340932;1572470355451;14519;35585105162;11626779145;1405566043;852943755;2404625253;35322641;579683646;2847;17801;1929752;-149;14505;1196172
1;22;1572470355451;1572470369970;14519;35687281364;11626769490;1408738826;856484366;2404625310;35529446;579450122;4902;14041;1557104;148;13278;1137959
1;23;1572470369970;1572470382742;12772;35378280540;11626765780;1402428417;843730779;2404621514;35096023;578602083;2000;15937;1679032;-109;12772;1670240
1;24;1572470382742;1572470396982;14240;35954246306;11626763121;1409109171;864307311;2404625415;35748739;577832628;5902;13413;1627016;102;11147;586619
1;25;1572470396982;1572470410788;13806;35554601674;11626770895;1405764192;852386578;2404624840;35464655;577962951;2394;16423;1643984;-43;13806;1934132
1;26;1572470410788;1572470424495;13707;35712090852;11626778706;1404790437;856113640;2404626460;35424775;580502863;4414;13601;1693072;-102;11853;441837
1;27;1572470424495;1572470438116;13621;35760614390;11626769531;1410735531;858617621;2404624491;35501361;578351390;3373;15277;1470616;134;13216;1800058
1;28;1572470438116;1572470452813;14697;35833855728;11626769251;1404146676;860961431;2404625219;35413536;578925416;4588;15651;1867944;-82;13954;672265
1;29;1572470452814;1572470466609;13795;35510671588;11626770326;1403407060;848217010;2404622921;35166097;579079076;3453;15091;1548648;79;12751;1483533
1;30;1572470466609;1572470480942;14333;35727550062;11626781636;1403603921;855575612;2404626190;35268686;581087541;2341;18662;1937552;-98;14334;1736293
1;31;1572470480942;1572470494961;14019;35723896850;11626769098;1405910698;857624207;2404625029;35510039;577373189;5094;13757;1541152;101;12339;1107057
1;32;1572470494961;1572470508527;13566;35316972366;11626760629;1402323243;847764340;2404620936;35108736;576535192;2095;17523;1787696;-79;13565;1617452
1;33;1572470508527;1572470522065;13538;35515356290;11626763458;1403446653;849091412;2404621602;35084684;580137415;5315;13484;1600512;81;11556;676797
1;34;1572470522065;1572470536144;14079;35749847912;11626764255;1404414723;857494824;2404623621;35365435;577376483;2401;17706;1700344;-1;14079;2000744
1;35;1572470536144;1572470550327;14183;35841454152;11626782307;1408792870;856526913;2404627403;35380271;578251356;4518;15693;1888600;29;12246;759302
1;36;1572470550328;1572470564907;14579;35892105932;11626768959;1407225298;862493706;2404626132;35756972;576942313;2937;16254;1695176;-113;14580;1789258
1;37;1572470564908;1572470579928;15020;35805135922;11626765684;1405141960;860235875;2404624002;35298733;579069012;4216;16804;1904368;-38;13528;387694
1;38;1572470579928;1572470593465;13537;35377170648;11626757006;1406573425;845095421;2404620040;35039289;579209302;3836;14810;1424376;138;12805;1722540
1;39;1572470593465;1572470608655;15190;35769466078;11626762241;1405341253;858240764;2404623508;35534045;578714340;2723;18296;1980224;-140;15190;1727453
1;40;1572470608655;1572470622089;13434;35425823104;11626761843;1404565713;849604195;2404622019;35274567;577474607;2556;13195;1294488;134;13434;1864717
1;41;1572470622089;1572470635812;13723;35471640532;11626760874;1403753305;848930619;2404620961;35102819;580363063;2710;18773;2018640;-145;13418;1309937
1;42;1572470635812;1572470648989;13177;35488348188;11626760852;1405911259;851187920;2404621770;35188651;579538719;4080;13249;1384448;158;12508;1379655
1;43;1572470648989;1572470663286;14297;35774520306;11626769825;1412024667;860961761;2404623702;35279563;581569942;3032;16972;1877984;-140;14279;868254
1;44;1572470663286;1572470676825;13539;35432654882;11626759264;1407242042;851510435;2404620965;35086690;580149628;4139;14818;1508336;124;12536;1106502
1;45;1572470676825;1572470690479;13654;35602420324;11626766642;1406242151;850840513;2404623537;35268104;580312930;2827;15534;1721936;-123;13519;1275788
1;46;1572470690479;1572470704379;13900;35602008020;11626768091;1405121237;853615148;2404623429;35332835;586891377;5550;13446;1639448;127;11980;617252
1;47;1572470704379;1572470718072;13693;35535488522;11626761772;1404632505;850455718;2404622083;35298681;580117911;2550;15532;1579048;-114;13693;1655229
1;48;1572470718073;1572470732443;14370;35783666184;11626764461;1406269036;859493035;2404625319;35643612;577720288;6606;13393;1688880;94;12522;350153
1;49;1572470732443;1572470747347;14904;35909933262;11626768810;1406442460;862417521;2404625511;35456602;578257176;2824;16877;1702160;5;14903;2090594
1;50;1572470747347;1572470762106;14759;35943766572;11626771701;1404077359;862376083;2404626230;35661478;577516784;4430;15344;1879968;-120;12447;715463
2;1;1572470907717;1572470922214;14497;36245232482;11165517333;1480763956;907874770;2410059596;35057833;601722252;2650;18391;1782848;6;14497;2145616
2;2;1572470922214;1572470936382;14168;35419248578;11019026043;1397598118;849044017;2389235359;35534897;577051730;2635;15154;1572232;0;14168;2023775
2;3;1572470936382;1572470949679;13297;35470638096;11018958069;1395638199;846265868;2389222527;35384480;571134645;2349;22047;2227536;23;13297;1741626
2;4;1572470949679;1572470963701;14022;35530398524;11018960979;1402466428;852376460;2389222844;35456093;573036501;3184;15467;1570808;-26;14022;1929136
2;5;1572470963701;1572470978388;14687;35746098486;11018946707;1398813608;856181030;2389220471;35473195;576381705;3412;17406;1923352;-132;14277;939602
2;6;1572470978389;1572470992310;13921;35375872124;11018962009;1399022513;846796787;2389223450;35303264;575723898;4576;14511;1492704;136;12202;1412742
2;7;1572470992310;1572471006468;14158;35294562680;11018948671;1398389545;842214470;2389218847;35165727;574339366;2174;19965;1938104;-20;14158;1989319
2;8;1572471006468;1572471020129;13661;35301182028;11018962966;1399461024;845490537;2389223560;35373124;573660246;5158;12361;1614080;16;11631;1049991
2;9;1572471020130;1572471033618;13488;35496339790;11018955454;1398720046;848711890;2389221574;35322752;575488994;2355;16574;1725040;-101;13489;1532296
2;10;1572471033618;1572471047443;13825;35495797400;11018951844;1402559056;848831610;2389221194;35367653;575539451;5892;13639;1613256;116;11304;531527
2;11;1572471047443;1572471062108;14665;35799342350;11018949685;1400352203;859472089;2389223630;35750673;574661492;2667;17764;1777024;-3;14665;2061087
2;12;1572471062108;1572471076369;14261;35514921502;11018966531;1396454940;849549479;2389223923;35305022;574249588;4660;15023;1811536;31;12408;616610
2;13;1572471076369;1572471089884;13515;35321534282;11018958246;1398890026;844972419;2389222356;35378750;575213602;2761;15599;1482128;-42;13514;1871571
2;14;1572471089884;1572471103901;14017;35619924410;11018953114;1399818046;855449897;2389221950;35447740;575111133;3794;15549;1814712;-116;13503;892049
2;15;1572471103901;1572471117989;14088;35654219664;11018947425;1403033880;855538649;2389221222;35552916;575218672;3639;14909;1544456;136;12855;1533519
2;16;1572471117989;1572471131156;13167;35442710924;11018954333;1401136647;850423331;2389221116;35430748;573887753;2154;17257;1807992;-132;13166;1459502
2;17;1572471131156;1572471146758;15602;35878516398;11018946884;1403401772;863119946;2389223038;35745353;574703136;5774;16076;1754048;121;13487;1250548
2;18;1572471146758;1572471161233;14475;35705369742;11018961312;1397218874;856773531;2389224275;35695959;574850223;2682;17762;1774216;1;14475;2108365
2;19;1572471161233;1572471175241;14008;35602549680;11018953706;1399381182;851439609;2389222274;35320783;575364056;4632;15114;1898760;-126;11291;821726
2;20;1572471175241;1572471189308;14067;35627405596;11018954544;1399059747;853190723;2389222035;35505593;574253717;4468;15030;1585648;133;12749;1330147
2;21;1572471189308;1572471203227;13919;35547640102;11018963407;1400609497;851651188;2389224965;35548939;575273614;2532;17352;1872304;-146;13919;1223036
2;22;1572471203228;1572471216832;13604;35587909238;11018952525;1399020683;851038438;2389221736;35381380;576867301;5502;12638;1481008;131;11505;812149
2;23;1572471216832;1572471230828;13996;35570425154;11018950374;1399695834;851608974;2389221296;35369346;577461811;2253;17626;1794168;-61;13996;1758537
2;24;1572471230828;1572471244665;13837;35475355794;11018953880;1400753630;847448036;2389221336;35280072;575574269;5107;14935;1722656;47;12307;803419
2;25;1572471244665;1572471258629;13964;35456014152;11018948375;1396278140;851518413;2389220895;35639307;576343202;2524;17706;1684856;31;13964;1958694
2;26;1572471258629;1572471272373;13744;35708320694;11018959170;1403604166;854058326;2389223885;35488417;577050991;5085;13945;1823272;-142;11964;676814
2;27;1572471272373;1572471286013;13640;35394750508;11018945952;1400668742;845785189;2389219824;35359644;576549098;3222;15011;1472416;138;13504;1803930
2;28;1572471286013;1572471300330;14317;35707557406;11018959571;1396963665;853206642;2389224681;35577585;574004379;4316;15088;1822016;-128;13236;725070
2;29;1572471300330;1572471313246;12916;35257370640;11018944323;1397717680;842054379;2389218468;35042536;575166058;4917;12292;1372632;123;11646;1223266
2;30;1572471313246;1572471326615;13369;35534360818;11018965685;1397912867;850807654;2389223549;35486335;575820237;1990;17825;1793960;-48;13369;1842808
2;31;1572471326615;1572471340691;14076;35642921162;11018954132;1399979064;855061219;2389222983;35657805;576674476;5485;13865;1617264;48;11138;972363
2;32;1572471340691;1572471354613;13922;35782149828;11018954396;1405368844;857620069;2389223226;35604703;577938299;2456;16492;1674040;-8;13922;1968673
2;33;1572471354613;1572471368875;14262;35701036024;11018958263;1399768126;854193178;2389223822;35493209;575921130;5229;15045;1838456;-77;11597;696221
2;34;1572471368875;1572471383327;14452;35658623024;11018951057;1400268580;855023154;2389222260;35521966;576978949;2708;16698;1662296;56;14452;2022337
2;35;1572471383327;1572471396902;13575;35496393226;11018947640;1398593481;851350529;2389220985;35470474;577104617;4285;14960;1763712;-112;12315;577950
2;36;1572471396902;1572471410902;14000;35611144700;11018956719;1403224324;855505653;2389222599;35392948;575348055;3636;14969;1513992;139;13034;1567032
2;37;1572471410902;1572471424173;13271;35352374154;11018951669;1397840098;846512066;2389220172;35159991;576181054;2848;14534;1659152;-114;13271;579907
2;38;1572471424173;1572471437932;13759;35506992534;11018957021;1398671491;851788774;2389221625;35479973;575108998;5405;12843;1492528;106;12224;1054213
2;39;1572471437932;1572471452777;14845;35869765012;11018949646;1400003408;861576865;2389222940;35827184;575820867;2372;19571;1940512;-48;14844;1913054
2;40;1572471452777;1572471466466;13689;35337146062;11018944599;1399707768;845169499;2389219785;35319036;577401898;4228;12244;1478720;57;11765;1204958
2;41;1572471466466;1572471482842;16376;35423758664;11018949179;1398524974;848615142;2389221103;35418623;573814672;2669;20311;1918464;-2;16376;2340204
2;42;1572471482842;1572471496195;13353;35234380312;11018954578;1400014513;844561622;2389221538;35312940;576444170;2851;19097;1935144;2;13353;1748182
2;43;1572471496195;1572471510081;13886;35565833892;11018947081;1401848923;852081225;2389220534;35347278;574100685;2521;16337;1626344;15;13886;1976963
2;44;1572471510082;1572471525333;15251;35869550976;11018949508;1401073146;860455197;2389222443;35565100;577071468;4709;17371;1997776;-26;13912;1066626
2;45;1572471525333;1572471539575;14242;35601272180;11018961769;1393051524;846694779;2389223181;35671056;572176344;2714;16104;1630384;8;14241;2031408
2;46;1572471539575;1572471553786;14211;35669670406;11018956808;1397393003;854337931;2389222026;35435258;574366681;4316;16359;1923544;-134;12879;946741
2;47;1572471553786;1572471567576;13790;35515768594;11018950475;1395031897;850384350;2389221032;35421959;575061062;3924;15369;1496928;129;13406;1768490
2;48;1572471567576;1572471581536;13960;35515841010;11018951853;1401477790;849934826;2389221319;35381524;574995249;2781;17186;1885200;-114;13906;1141395
2;49;1572471581536;1572471595628;14092;35760837770;11018947690;1406303602;855163033;2389221992;35513128;580174352;4214;14088;1516568;119;12254;1316982
2;50;1572471595628;1572471608825;13197;35268483138;11018944728;1397916343;845217154;2389219158;35090523;575821631;2110;17414;1757952;-73;13197;1669182
3;1;1572471742044;1572471754557;12513;35073325522;11482281191;1420204710;844083863;2416473481;34884937;582829252;2160;17221;1577328;-14;12513;1800444
3;2;1572471754558;1572471770237;15679;35268916320;11423983612;1402192818;842683185;2409618534;34827556;577796194;3057;16660;1791096;-11;15681;2289774
3;3;1572471770238;1572471783057;12819;35309642728;11423898919;1410502144;847132971;2409604419;35236020;579344528;2247;20381;2077848;-122;12819;1658230
3;4;1572471783058;1572471797017;13959;35559219362;11423896589;1408114189;848085485;2409605432;35140477;579849141;3485;15316;1540736;118;13039;1505861
3;5;1572471797017;1572471811298;14281;35752294142;11423916666;1414828251;858731266;2409609860;35440129;580952199;2621;18062;1919712;-97;14281;1063158
3;6;1572471811298;1572471824902;13604;35709003244;11423916499;1412793566;856346639;2409610145;35535904;581073301;5122;13128;1496752;105;11999;1119613
3;7;1572471824902;1572471839172;14270;35924302436;11423899868;1412652577;859030216;2409606199;35303442;578989316;2496;17851;1865528;-96;14270;1401900
3;8;1572471839172;1572471853287;14115;35863535192;11423906483;1411782243;860500732;2409608000;35239109;577478025;5475;13465;1624696;88;11407;772138
3;9;1572471853287;1572471867522;14235;35699417322;11423924758;1412795872;858944210;2409610588;35292660;580879769;2405;17700;1747296;-64;14235;1940334
3;10;1572471867522;1572471880886;13364;35558906776;11423894752;1408772236;850213578;2409604979;35142996;578964218;4987;13270;1646720;76;10537;336701
3;11;1572471880886;1572471895199;14313;35814495252;11423896125;1415217682;858252876;2409607108;35360634;579347084;2604;16182;1629752;-73;14312;1742064
3;12;1572471895199;1572471908735;13536;35561288766;11423895562;1410352017;851858823;2409604969;35094259;578645831;4719;14196;1684704;-60;11989;362089
3;13;1572471908735;1572471922400;13665;35766799388;11423898058;1408544718;856896454;2409606147;35385228;577828704;3283;15205;1509944;132;12787;1655940
3;14;1572471922400;1572471935649;13249;35686571804;11423902533;1407055506;852149743;2409605630;35007949;580825119;2810;15692;1770064;-136;13180;1028346
3;15;1572471935649;1572471949630;13981;35727268866;11423903295;1409454276;853936042;2409606891;35395524;577827716;4853;14432;1511424;151;12386;1129112
3;16;1572471949631;1572471962818;13187;35262490568;11423893145;1404685292;845756313;2409604847;35077289;578859428;2134;16700;1762048;-80;13188;1420296
3;17;1572471962818;1572471976563;13745;35524559108;11423896034;1409835155;851340989;2409605107;35091966;579691674;6081;13136;1685800;75;11537;623505
3;18;1572471976563;1572471989944;13381;35569986278;11423897905;1408372039;849598589;2409604672;35025701;578440441;2754;14721;1478640;-10;13382;2031983
3;19;1572471989945;1572472004078;14133;35899573248;11423913711;1409494148;858868800;2409609402;35303843;578273054;2365;19468;1985160;-125;14134;1755699
3;20;1572472004078;1572472018313;14235;35968444076;11423905786;1411500482;859856700;2409608037;35176279;578625581;5742;13655;1658760;121;10716;531634
3;21;1572472018313;1572472032617;14304;35654849070;11423906380;1408722982;852111443;2409606397;35281323;578277743;2408;18081;1767496;-2;14305;1979261
3;22;1572472032617;1572472045995;13378;35468382980;11423911722;1406667655;845794857;2409606894;35008577;579660758;4432;14815;1731408;42;12061;514748
3;23;1572472045995;1572472059622;13627;35662404278;11423901136;1410758259;854518578;2409606277;35173830;580250897;2706;15754;1542936;-29;13627;1912698
3;24;1572472059622;1572472073164;13542;35523313436;11423895673;1407650958;849290475;2409604230;35044440;580766488;3413;16174;1850360;-144;13023;1060366
3;25;1572472073164;1572472085944;12780;35311710964;11423890270;1406212893;843740837;2409602387;34837925;578055686;4290;12023;1356456;70;11654;1066133
3;26;1572472085944;1572472100672;14728;35626114372;11423896795;1409503671;850980183;2409605222;35118350;579396009;3710;17184;1818304;-28;14462;579169
3;27;1572472100672;1572472115404;14732;35794638230;11423917380;1409483684;859000556;2409611845;35442408;577490119;5462;13930;1671800;102;12823;1128695
3;28;1572472115404;1572472129079;13675;35749251794;11423911811;1410596236;852549960;2409608531;35164449;579415810;2250;17151;1787768;-114;13675;1638136
3;29;1572472129079;1572472143271;14192;35882484532;11423900103;1411592879;860584480;2409607592;35391770;578165793;6391;13377;1640248;119;11609;584292
3;30;1572472143271;1572472157650;14379;35772828458;11423909553;1411570377;856891479;2409608452;35374473;579848407;2383;17396;1739344;-57;14379;1882553
3;31;1572472157650;1572472171683;14033;35675734808;11423897710;1412063785;853867786;2409605918;35217650;579030473;5447;13989;1779440;56;11723;486355
3;32;1572472171683;1572472186206;14523;35832872856;11423905216;1411805592;857767093;2409607972;35461297;579989294;2707;17232;1642496;-25;14523;2062071
3;33;1572472186206;1572472199610;13404;35584371658;11423912603;1405970483;849824681;2409606230;34940379;579719650;3953;15575;1772432;-101;12095;709906
3;34;1572472199610;1572472213130;13520;35704131808;11423899968;1410074345;851633189;2409605536;35132917;581536564;3255;15302;1571016;83;13050;1549973
3;35;1572472213130;1572472227378;14248;35793876840;11423895892;1407255927;856401357;2409605699;35090518;580227565;3103;16844;1874048;-106;14101;740745
3;36;1572472227378;1572472241324;13946;35556249284;11423895715;1408046767;850193452;2409605891;35390827;580626083;4948;14521;1520112;149;12610;1210574
3;37;1572472241326;1572472255269;13943;35697591446;11423895922;1410520558;854247068;2409605681;35309336;577402463;2208;17193;1807344;-109;13943;1398146
3;38;1572472255269;1572472269235;13966;35958073258;11423898632;1412186365;859050615;2409606543;35205238;580988791;5300;13136;1615896;92;11628;798459
3;39;1572472269236;1572472283243;14007;35513739924;11423904562;1404676656;850070510;2409606236;35036970;578345665;2318;17782;1745616;-50;14008;1868704
3;40;1572472283243;1572472297563;14320;35800535170;11423893784;1406481470;856830631;2409604292;35089090;578152340;5123;15625;1804328;47;12386;580716
3;41;1572472297563;1572472311043;13480;35518147664;11423893670;1406300404;849291804;2409603667;35029249;577427677;2583;12661;1264088;29;13479;1948403
3;42;1572472311043;1572472324159;13116;35433836752;11423892992;1408851623;845476694;2409603595;35196687;579297690;1848;19622;1871960;-24;13116;1871019
3;43;1572472324159;1572472337884;13725;35894796858;11423907409;1407938783;858691822;2409608358;35288703;580191879;4121;15623;1765488;24;12596;1309211
3;44;1572472337884;1572472353099;15215;36149177476;11423898888;1416430143;870988774;2409608385;35755206;583881526;2546;18385;1928088;-147;15215;1822812
3;45;1572472353100;1572472366498;13398;35681987550;11423904381;1409352341;855089369;2409606315;35072437;582988422;5435;12427;1550096;120;11337;509917
3;46;1572472366498;1572472380641;14143;35884073450;11423896567;1413429182;859893259;2409605448;35264070;579570316;2529;17179;1679144;-17;14143;1922081
3;47;1572472380641;1572472394727;14086;35809716526;11423907002;1408675624;856608945;2409608663;35398538;578247608;5388;14300;1778760;50;11260;406644
3;48;1572472394727;1572472408313;13586;35670354708;11423909888;1410225488;852325223;2409607221;35107684;581156562;2827;15322;1513520;-42;13586;1905532
3;49;1572472408313;1572472422238;13925;35780740344;11423899178;1406857004;854898255;2409606225;35257159;578729427;3480;15481;1790592;-123;13595;674377
3;50;1572472422238;1572472436300;14062;35685111220;11423899147;1413333350;856370453;2409606725;35424830;577946034;4686;15136;1540112;155;12654;1440038
4;0;1572472560588;1572472574260;13672;38287177824;11684002939;1664338217;1034776789;2417379905;35405159;658521104;0;0;0;0;0;0
4;1;1572472574260;1572472587841;13581;35177319278;11633246468;1417171058;845856255;2424065130;34610187;582255239;2599;17532;1702936;-25;13581;1998618
4;2;1572472587841;1572472601683;13842;35494666192;11563812980;1409245107;853511409;2414818386;34880808;579944061;2571;15842;1577360;23;13841;1969120
4;3;1572472601683;1572472615507;13824;35208691758;11563724997;1411916739;842387652;2414802461;34652353;578815011;5388;12528;1752392;-124;10246;359134
4;4;1572472615507;1572472629077;13570;35498972900;11563731015;1412399460;854981340;2414802828;34511603;578793258;3590;14983;1446728;105;13412;1897119
4;5;1572472629078;1572472642678;13600;35505285794;11563739665;1410076400;852775975;2414804493;34558618;581208227;2159;18007;1907848;-122;13600;1497507
4;6;1572472642678;1572472657612;14934;36000594590;11563730363;1411948641;867016878;2414806700;35022186;581217068;4235;16075;1658456;138;12680;1350510
4;7;1572472657612;1572472671781;14169;35585464906;11563725467;1411007308;852473503;2414801852;34644618;580316069;2451;17952;1922672;-145;13948;1468163
4;8;1572472671781;1572472685467;13686;35648721158;11563744884;1411401384;857304748;2414805871;34563018;578905636;5813;12542;1471616;148;11115;1041780
4;9;1572472685467;1572472699976;14509;35754631748;11563757946;1409980036;859091342;2414808594;34928735;577288470;2329;19404;1912264;-40;14510;1988378
4;10;1572472699976;1572472714009;14033;35767173440;11563727412;1414641475;859477450;2414802784;34871771;579960338;5183;13796;1720864;30;11686;755683
4;11;1572472714009;1572472728238;14229;35617378754;11563726563;1411206613;855633729;2414803693;34746847;578732757;2503;17489;1714944;-57;14229;1854409
4;12;1572472728238;1572472743594;15356;36067613408;11563740227;1415162141;867882544;2414807968;35295106;580083698;6030;15660;1864496;59;12685;644397
4;13;1572472743594;1572472757807;14213;35600086806;11563723524;1413307432;854483044;2414802203;34793327;579061548;2499;17517;1736120;-37;14214;1980928
4;14;1572472757807;1572472772253;14446;35816287694;11563733889;1413934013;860873760;2414806722;35046562;580198800;5520;14406;1839688;71;11842;385606
4;15;1572472772253;1572472785351;13098;35515967446;11563738006;1406733990;851684526;2414803507;34533655;582272044;2800;14181;1399880;-41;13098;1843503
4;16;1572472785351;1572472799698;14347;35629106058;11563724521;1410296926;854705155;2414801589;34561498;579290784;3201;17766;1941640;-136;13982;1309065
4;17;1572472799698;1572472813948;14250;35868578324;11563741998;1413186262;864346874;2414807439;35104755;580303253;4565;14083;1549880;133;12732;1513626
4;18;1572472813948;1572472826797;12849;35299333084;11563736540;1409047361;846544272;2414803546;34544002;577414244;2571;15202;1505760;10;12848;1924002
4;19;1572472826797;1572472840656;13859;35741075210;11563725825;1412409848;858267934;2414802961;34819475;580428880;4285;16399;1947600;-142;11621;864194
4;20;1572472840656;1572472855309;14653;35916223526;11563729554;1413500290;863396585;2414804171;34838092;581699823;6009;13703;1648880;147;11154;789651
4;21;1572472855309;1572472869251;13942;35493618934;11563740556;1413708812;851336892;2414805484;34897172;578220636;2203;18342;1786136;3;13943;1982192
4;22;1572472869251;1572472884354;15103;35902723490;11563729531;1414995171;865543357;2414807630;35161836;581651830;4810;16555;1883112;-48;13607;933489
4;23;1572472884354;1572472898912;14558;35906639356;11563725169;1411440747;864093782;2414804925;35129924;580000226;2487;16772;1746392;-52;14558;1892894
4;24;1572472898912;1572472914399;15487;36155460002;11563739420;1412605935;870182377;2414808514;35138707;577228468;5839;15702;1870056;80;12976;518759
4;25;1572472914399;1572472927563;13164;35419475608;11563726555;1410065806;847200603;2414801120;34403298;578788597;2527;14387;1488808;-61;13164;1655914
4;26;1572472927563;1572472942046;14483;35871668268;11563742674;1411244266;863824474;2414806666;34975710;580616335;4975;14952;1805512;-70;12445;360094
4;27;1572472942046;1572472957242;15196;35920638128;11563725452;1409343531;860653792;2414804476;35016700;579947677;3782;17089;1672648;152;14537;1911476
4;28;1572472957242;1572472971407;14165;35671669000;11563737805;1407861562;857340042;2414804229;34643477;579715246;3118;17383;1930136;-152;13269;1076339
4;29;1572472971407;1572472985106;13699;35595392614;11563739926;1416938225;857459253;2414805250;34830134;579118523;4484;13253;1443296;135;12034;1466711
4;30;1572472985106;1572472999230;14124;35735316970;11563732982;1407037439;855030990;2414804595;34728908;578074354;2180;18613;1925184;-115;14124;1757405
4;31;1572472999230;1572473013332;14102;35662671896;11563726086;1413899464;857312916;2414803637;34905565;583037790;4939;13724;1527192;123;12515;1079977
4;32;1572473013332;1572473027666;14334;35932267612;11563729975;1411286093;865729406;2414804363;35194434;578953013;2406;18046;1877664;-132;14333;1408085
4;33;1572473027666;1572473041713;14047;35737613988;11563726434;1412935077;860610461;2414803767;34925726;580839759;5494;13353;1606192;125;12385;626466
4;34;1572473041713;1572473055526;13813;35538212882;11563732745;1408602507;853608317;2414803485;34689802;578287849;2563;16188;1726584;-107;13813;1448648
4;35;1572473055526;1572473070437;14911;35875183656;11563730292;1412312760;867799225;2414806474;35002514;578882773;5985;15037;1748344;99;12796;566294
4;36;1572473070437;1572473084666;14229;35708900898;11563727770;1410783860;858191019;2414803946;34932969;580275243;2552;16954;1678232;-44;14229;1939383
4;37;1572473084666;1572473099576;14910;35912029822;11563729409;1411916584;865321508;2414804989;34842782;580751525;5213;15578;1900424;85;12386;443288
4;38;1572473099576;1572473113101;13525;35524848188;11563736211;1410285414;850948640;2414804261;34575224;580281730;2807;15517;1545952;-34;13525;1816125
4;39;1572473113101;1572473128021;14920;35985927868;11563724831;1408103406;864269318;2414803437;34813558;580785334;4033;17175;1963936;-101;13356;833879
4;40;1572473128021;1572473141469;13448;35555127420;11563726337;1412466305;851835292;2414802106;34603951;579770082;4563;12546;1429912;-5;12028;1544167
4;41;1572473141469;1572473157306;15837;35658577910;11563735750;1412087944;855968165;2414804722;34744637;578244267;3221;16037;1563928;126;15837;2086824
4;42;1572473157306;1572473171241;13935;35601774858;11563725023;1410208273;852654522;2414802509;34689058;579479047;3295;19691;2183216;-124;13521;1495432
4;43;1572473171241;1572473185918;14677;35952132080;11563733768;1414330975;866115804;2414807872;35043138;579902575;4552;15089;1572032;108;12381;1281622
4;44;1572473185918;1572473200965;15047;35972075534;11563735744;1414402895;868954114;2414806925;35110810;581649002;2689;18286;1939040;-127;15048;1312341
4;45;1572473200965;1572473215376;14411;35702486680;11563735466;1410748604;857796529;2414806381;34940558;581162703;5521;13366;1558536;117;12629;1041376
4;46;1572473215376;1572473230401;15025;35787162154;11563740920;1411754184;858303825;2414805873;34804941;581290804;3027;18023;1963024;-103;14975;1537772
4;47;1572473230401;1572473243972;13571;35526711732;11563722897;1411532720;852564619;2414800236;34345572;580204484;5015;13509;1538136;124;11057;747604
4;48;1572473243972;1572473257815;13843;35805567790;11563735469;1412041085;858971062;2414804975;34882614;579192583;2319;17457;1674424;-27;13843;1951459
4;49;1572473257816;1572473271272;13456;35553703190;11563728635;1410892776;853976661;2414804051;34755614;578793340;4850;14129;1776480;73;11577;541004
