0;55;1573681490185;1573681495152;4967;14904664478;29072116249;524043821;283331731;4116243220;99204;279723802;583;5;1095520;-7;4973;715317
0;56;1573681495157;1573681500469;5312;14962001014;29084286013;525014684;290810950;4119582571;98541;279759426;611;6;1182472;29;5312;762522
0;57;1573681500470;1573681506398;5928;14954085332;29083151419;529515902;289632367;4119205341;103891;279762372;812;82;1273816;-22;5928;896642
0;58;1573681506398;1573681511809;5411;14964182108;29083149424;531237460;290437191;4119200938;101122;279674726;542;8;1044952;2;5412;774838
0;59;1573681511809;1573681525239;13430;14977121942;29084274323;527767008;292562798;4119579678;108104;279761840;1476;24;2825368;-89;13429;1890099
0;60;1573681525239;1573681530832;5593;14946824022;29083156380;528542147;288918257;4119201064;97138;279646242;654;8;1249584;82;5594;444652
0;61;1573681530833;1573681536935;6102;14968483852;29083207213;531032063;290894075;4119218824;98945;279803291;831;89;1265880;29;6103;877927
0;62;1573681536935;1573681542257;5322;14962131246;29084306893;528344032;289213211;4119594204;102929;279899570;532;10;1020384;-20;5321;765021
0;63;1573681542257;1573681548027;5770;14945711502;29083170488;525265349;288393849;4119207019;98102;279700135;618;5;1186968;-10;5771;826214
0;64;1573681548027;1573681554454;6427;14972593752;29083188757;527053317;289577241;4119231927;104529;280125625;742;26;1425544;26;6426;922905
0;65;1573681554454;1573681560307;5853;14859635742;28865017906;520986315;278175824;4065232675;102978;279770560;681;8;1309392;-9;5854;839945
0;66;1573681560307;1573681572730;12423;14808629474;28792173710;513450335;273502585;4047217783;102794;279839507;1543;79;2681040;-4;12423;1755132
0;67;1573681572730;1573681577885;5155;14836614024;28792230185;514278614;274910180;4047231874;97164;279895411;509;7;980880;-3;5154;738269
0;68;1573681577885;1573681582728;4843;14794994242;28792137985;515494260;270040726;4047204394;92309;279680798;508;22;971344;4;4843;694820
0;69;1573681582728;1573681588092;5364;14795523930;28792144410;514297552;269315180;4047209076;92640;279749796;637;13;1181480;3;5364;767657
0;70;1573681588092;1573681593462;5370;14824270016;28792146658;513419258;273920229;4047214501;98453;279846753;631;8;1194816;10;5371;770180
0;71;1573681593462;1573681599012;5550;14821138608;28792152750;517958983;275128380;4047216069;96005;279855333;791;66;1182944;-10;5549;807645
0;72;1573681599012;1573681604129;5117;14821048672;28792764964;513745221;273631841;4047224774;95469;279835276;512;8;977176;0;5118;734446
0;73;1573681604129;1573681616950;12821;14793172600;28810873713;514011511;272960008;4047206788;101916;279772858;1449;41;2712288;-80;12820;1770225
0;74;1573681616950;1573681622297;5347;14796266632;28810866418;514823882;272606557;4047205903;97584;279785284;608;18;1170776;83;5348;651232
0;75;1573681622298;1573681628260;5962;14815712226;28810894970;518643915;275362856;4047217091;97979;279884343;831;89;1287936;-6;5962;873011
0;76;1573681628260;1573681633146;4886;14794653624;28810878823;514700231;271180150;4047205373;96066;279737444;498;17;939064;14;4887;699960
0;77;1573681633146;1573681639002;5856;14826905024;28810909435;515369721;275256109;4047232349;101243;280156656;597;10;1126376;-21;5855;842538
0;78;1573681639002;1573681645014;6012;14790621980;28810868942;514229211;272556660;4047202459;98545;279718505;709;18;1325400;-5;6012;861963
0;79;1573681645014;1573681652294;7280;14836140838;28810890407;514702490;277390134;4047219503;105369;279977555;863;34;1614808;1;7280;1041996
0;80;1573681652294;1573681665703;13409;14826316498;28810899660;515557123;276145558;4047226038;100973;280059071;1655;81;2846040;-4;13410;1796121
0;81;1573681665703;1573681670747;5044;14808038320;28810903379;512905354;273656608;4047220308;92596;279929101;516;10;968360;10;5044;719179
0;82;1573681670747;1573681675536;4789;14801743092;28810881579;515689507;271765822;4047205167;91319;279711870;524;23;962304;20;4788;684424
0;83;1573681675536;1573681680597;5061;14803049938;28810893343;516652864;274070471;4047206207;95302;279686721;777;69;891872;-13;5061;746993
0;84;1573681680597;1573681689414;8817;14823660612;28810905264;516766036;275946682;4047215285;113649;279855376;1121;26;1596328;5;8818;1264368
0;85;1573681689414;1573681697964;8550;14788095742;28810885493;513941026;270408906;4047208280;97526;279764785;922;41;1706496;6;8549;1227362
0;86;1573681697964;1573681710550;12586;14804565710;28810874369;513950508;272938598;4047207135;102085;279787784;1627;117;2775944;-109;12552;1652442
0;87;1573681710550;1573681715458;4908;14795628320;28810897277;515725000;272386096;4047210592;97611;279772464;509;20;941040;109;4909;569440
0;88;1573681715459;1573681720597;5138;14818413956;28810883913;521708389;275660168;4047210102;90176;279800875;613;17;975320;-1;5139;747625
0;89;1573681720597;1573681725674;5077;14804818728;28810894323;521085790;273253071;4047219032;88827;279937113;611;29;1125864;-3;5076;727040
0;90;1573681725674;1573681731546;5872;14814339680;28810892560;515506324;274538572;4047219280;101708;279960677;703;22;1283952;1;5872;844446
0;91;1573681731546;1573681737517;5971;14820568478;28810876267;512804582;275977840;4047202780;94826;279690908;728;12;1319400;-24;5972;856359
0;92;1573681737517;1573681744376;6859;14818690626;28810884736;514513600;274715882;4047217859;104769;279960781;940;90;1477336;1;6858;993330
0;93;1573681744376;1573681759370;14994;14804361018;28810874169;514548064;275174352;4047209237;104071;279831844;1663;54;3015848;-8;14995;2064106
0;94;1573681759370;1573681764497;5127;14819669118;28810877939;518884978;274589840;4047207060;94951;279765596;623;15;1146120;30;5127;725387
0;95;1573681764498;1573681769660;5162;14795045634;28810905863;515444750;272436474;4047219035;93205;279894832;641;28;1137960;2;5163;738689
0;96;1573681769660;1573681775258;5598;14828066162;28810903357;513485545;276745378;4047229520;100004;280112109;798;76;1154024;-24;5598;817038
0;97;1573681775259;1573681781183;5924;14783071444;28810862825;512117963;271380863;4047199777;95119;279678545;631;10;1141800;9;5924;850670
0;98;1573681781183;1573681788465;7282;14804875376;28810874089;513487270;274654514;4047208359;98484;279804297;835;32;1493648;-3;7282;1040478
0;99;1573681788465;1573681795393;6928;14793283122;28810874019;515342742;272980633;4047199451;91468;279627089;814;21;1476592;18;6929;993274
0;100;1573681795393;1573681808091;12698;14808712694;28810865899;513791355;274724371;4047202169;96115;279711004;1648;89;2654408;-21;12663;1478610
0;101;1573681808091;1573681813429;5338;14788693174;28810880491;516018050;272065666;4047206688;93986;279747629;583;26;1030912;25;5338;763083
0;102;1573681813429;1573681818715;5286;14796303862;28810904874;515985446;272545204;4047219183;98237;279907871;646;13;1152200;-6;5287;759287
0;103;1573681818716;1573681823990;5274;14810027278;28810937357;514255864;274748118;4047215049;94413;279726742;643;15;1156696;-3;5274;757839
0;104;1573681823990;1573681829691;5701;14849780304;28810867797;519053203;277017219;4047211658;95078;279883283;714;12;1280664;-10;5701;817934
1;53;1573682329453;1573682343737;14284;14941579994;28822148742;542571630;288261813;4150844572;110037;286968581;1459;32;2872560;-113;14284;1932858
1;54;1573682343738;1573682348980;5242;14753223934;28511131327;514621873;273307394;4047247880;100662;279817973;588;13;1163840;93;5243;414301
1;55;1573682348980;1573682354061;5081;14746830740;28511135725;513053831;273289012;4047249905;93459;279761476;569;26;1097432;20;5081;719317
1;56;1573682354061;1573682359024;4963;14747726304;28510947910;514512817;273322961;4047213625;94416;279729675;694;72;999232;9;4963;720333
1;57;1573682359025;1573682364258;5233;14764460678;28510978021;516946117;274225812;4047235006;99499;280033668;521;8;1009352;-9;5234;752615
1;58;1573682364258;1573682370354;6096;14758118146;28510959293;515762784;274572784;4047225969;102347;279936227;652;7;1269424;-12;6096;873285
1;59;1573682370354;1573682377934;7580;14753673322;28510951394;516824824;273433967;4047217457;104906;279803493;846;20;1628496;18;7580;1081913
1;60;1573682377934;1573682391028;13094;14777043250;28510940667;515986945;277064760;4047212805;100613;279748877;1594;81;2803424;-42;13094;1717688
1;61;1573682391028;1573682396678;5650;14788848372;28510922298;514099493;275039301;4047204939;92960;279658900;566;6;1089896;46;5650;793055
1;62;1573682396678;1573682402097;5419;14754793872;28511000656;517536364;274389173;4047237184;97812;279963324;574;30;1117432;2;5419;775949
1;63;1573682402097;1573682407104;5007;14740033272;28510978254;516272979;271869024;4047223197;94367;279766219;580;8;1123064;-4;5007;717605
1;64;1573682407105;1573682412670;5565;14763134268;28510946880;515884253;275732398;4047211491;97098;279693916;642;8;1229384;-2;5566;796410
1;65;1573682412670;1573682418500;5830;14773044018;28510962372;514514704;275653088;4047216587;91907;279695072;798;71;1238552;-7;5830;851292
1;66;1573682418501;1573682425602;7101;14758569578;28510918525;514220053;274963920;4047217508;99033;279850236;797;5;1514096;3;7102;1019016
1;67;1573682425602;1573682438673;13071;14769158228;28510977179;520124844;276821850;4047229002;100053;279861884;1431;28;2707152;-52;13071;1487083
1;68;1573682438673;1573682444082;5409;14771133170;28510891330;518639946;276560792;4047208066;97624;279746390;636;15;1198432;36;5414;534097
1;69;1573682444087;1573682449368;5281;14753011212;28510898322;516994405;273842292;4047216706;99236;279893222;724;60;1035688;14;5281;764645
1;70;1573682449368;1573682454399;5031;14766949248;28510892276;515477546;274351533;4047213449;94393;279851150;512;4;985392;0;5031;722564
1;71;1573682454399;1573682459846;5447;14763880766;28510898135;521839199;276509754;4047213606;92505;279818248;576;9;1085128;0;5447;781871
1;72;1573682459846;1573682466177;6331;14763264938;28510905042;516534352;274673803;4047220275;94529;279934821;748;20;1398488;-12;6331;909027
1;73;1573682466177;1573682472536;6359;14755928146;28510872451;512965180;274663216;4047203027;92482;279709918;704;9;1350872;0;6359;911786
1;74;1573682472537;1573682485511;12974;14751099926;28510870161;516518252;274144250;4047207857;100314;279815186;1589;103;2676784;8;12975;1506832
1;75;1573682485511;1573682490413;4902;14737185688;28510891995;516616654;272716474;4047208323;91408;279735757;493;8;950160;-13;4902;701252
1;76;1573682490414;1573682495852;5438;14783370160;28510913903;513530345;277671731;4047232592;97595;280138745;650;29;1204776;22;5439;782411
1;77;1573682495852;1573682501363;5511;14787779360;28510910948;514830556;277526030;4047232268;101945;280143067;654;12;1223952;-14;5511;791288
1;78;1573682501363;1573682507105;5742;14738531224;28510903391;513289528;272966053;4047215976;94920;279845903;685;14;1281664;19;5742;821092
1;79;1573682507105;1573682512674;5569;14760337492;28510908279;512847702;275665392;4047223661;97508;279994232;763;78;1169376;-14;5568;838392
1;80;1573682512674;1573682520123;7449;14761816910;28510879786;516511934;275361464;4047210959;102847;279844631;809;17;1522392;-9;7450;1070595
1;81;1573682520124;1573682532494;12370;14779782794;28510907275;516895622;276568289;4047228995;102396;280094718;1392;36;2586160;22;12371;1619384
1;82;1573682532494;1573682538099;5605;14771766956;28510905034;512926130;276077230;4047222148;95923;279953860;677;23;1223896;-11;5605;802503
1;83;1573682538100;1573682543647;5547;14776727014;28510908592;514441244;276120760;4047224088;98099;279984861;771;92;1180432;12;5548;813663
1;84;1573682543647;1573682548755;5108;14746781246;28510922669;515021889;273552374;4047211767;94832;279700284;522;5;970416;-10;5108;733169
1;85;1573682548755;1573682555618;6863;14742170858;28510891744;514563847;273244506;4047212697;103059;279826111;747;14;1382440;-11;6863;985637
1;86;1573682555618;1573682561951;6333;14753392856;28510889706;516394048;274368503;4047206615;92354;279720276;758;20;1397560;10;6333;911915
1;87;1573682561951;1573682577807;15856;14774433500;28510893124;516000074;275251857;4047213322;103366;279850607;2149;85;2935016;-80;15756;1958853
1;88;1573682577807;1573682583445;5638;14761940864;28510890801;517890266;275897196;4047211301;104697;279822054;609;28;1123456;77;5638;681391
1;89;1573682583445;1573682588320;4875;14746200312;28510885615;513200668;275141431;4047202097;88430;279646529;564;9;1011208;12;4875;697052
1;90;1573682588320;1573682593876;5556;14792278350;28510926937;515603894;277180882;4047240798;98586;280225963;687;10;1251080;-15;5555;794649
1;91;1573682593876;1573682599582;5706;14773794604;28510882725;516716239;276677726;4047210016;99054;279816337;877;63;1205312;12;5707;863689
1;92;1573682599582;1573682606308;6726;14777051864;28510881564;514513449;276191091;4047202513;92714;279669220;737;27;1322336;-1;6726;965081
1;93;1573682606308;1573682620075;13767;14735076426;28510882119;515951348;271337002;4047208101;99673;279778454;1575;28;2845400;-112;13767;1896654
1;94;1573682620075;1573682625267;5192;14773587868;28510906587;521480280;275245922;4047223417;95430;279991333;628;17;1146976;96;5192;594289
1;95;1573682625267;1573682630999;5732;14747478396;28510880492;518677471;275020225;4047204314;98319;279713094;828;101;1180280;22;5733;840643
1;96;1573682631000;1573682636230;5230;14769368030;28510886896;521795936;276254821;4047211199;94291;279821637;554;12;998672;-10;5230;750963
1;97;1573682636230;1573682642047;5817;14775103932;28510879009;519700820;276634061;4047207361;95357;279782943;664;13;1207272;8;5817;833849
1;98;1573682642047;1573682647686;5639;14757116878;28510888312;522044261;274136843;4047205429;93549;279705353;702;16;1272080;2;5639;811188
1;99;1573682647686;1573682654757;7071;14780827424;28510878434;516439379;276141795;4047202418;98708;279674261;856;27;1534552;-24;7071;1014710
1;100;1573682654757;1573682667526;12769;14759339290;28510890443;517303883;273653979;4047217489;99835;279927472;1665;82;2724248;0;12769;1820794
1;101;1573682667526;1573682673433;5907;14795608756;28510877520;517727247;278772069;4047212232;103036;279868159;622;17;1113120;11;5907;844703
1;102;1573682673433;1573682678870;5437;14760500136;28510906046;514453616;274732085;4047221674;96300;279936423;631;21;1133968;9;5437;780247
2;54;1573683184194;1573683189994;5800;14708415220;29073485246;516999586;273169444;4047215109;99162;279816950;657;23;1274368;50;5799;787323
2;55;1573683189994;1573683195161;5167;14715666602;29073491061;513733500;273015053;4047224094;99070;279994602;729;63;1075864;-3;5167;757917
2;56;1573683195161;1573683200547;5386;14709297936;29073480959;515774220;273288482;4047214491;96284;279829011;535;11;1042176;-22;5387;773867
2;57;1573683200547;1573683206011;5464;14732070724;29073494240;514446403;274179279;4047226467;100065;280026147;535;11;1049496;9;5464;785106
2;58;1573683206011;1573683212541;6530;14707705076;29073474379;515281448;273103802;4047205113;93437;279645441;762;21;1471376;6;6530;936774
2;59;1573683212541;1573683227245;14704;14741990840;29073486716;514871049;277192225;4047218082;102166;279880265;1801;81;3163048;-94;14704;1956910
2;60;1573683227247;1573683232383;5136;14734938018;29073487805;516013798;274445130;4047219043;98964;279903801;515;12;992448;97;5138;605055
2;61;1573683232383;1573683237285;4902;14708492892;29073484555;515028322;271896860;4047211659;89214;279737790;492;23;947512;-12;4902;701882
2;62;1573683237286;1573683242184;4898;14695894114;29073525879;514143211;270929781;4047221421;87162;279750250;582;11;1104448;-6;4899;698713
2;63;1573683242184;1573683247842;5658;14748012610;29073575306;516108291;276176272;4047247730;103047;280135867;649;14;1248720;23;5657;812173
2;64;1573683247842;1573683254118;6276;14742608858;28473739510;519161271;275968635;4047267716;112930;279976654;731;9;1376088;-26;6276;899248
2;65;1573683254118;1573683260741;6623;14747357800;28473745049;515807359;276025909;4047277328;105593;280061713;900;51;1446104;6;6623;975249
2;66;1573683260741;1573683275109;14368;14722849218;28473426710;518595678;273262968;4047208819;100461;279812873;1517;36;2874384;-55;14369;1797462
2;67;1573683275109;1573683280468;5359;14757588020;28473485177;516929245;276528789;4047226380;98909;279940725;616;16;1175912;65;5358;668768
2;68;1573683280468;1573683285597;5129;14722100968;28473392871;517822647;272579014;4047204909;98926;279835215;732;102;1046072;2;5130;599780
2;69;1573683285597;1573683290914;5317;14726626676;28473408079;515043436;274594081;4047216969;91517;280035742;558;7;1056248;-14;5317;762944
2;70;1573683290915;1573683295958;5043;14726128962;28473396191;520120189;273942477;4047207562;88140;279888088;522;9;981648;22;5044;725516
2;71;1573683295958;1573683302184;6226;14749997480;28473398933;520158726;276815844;4047209057;99158;279908769;728;29;1352208;-24;6225;892327
2;72;1573683302184;1573683309213;7029;14711438588;28473391585;519080670;271979478;4047200432;93357;279754247;785;8;1474840;15;7030;1008624
2;73;1573683309213;1573683321576;12363;14725906166;28473370594;515878383;273693876;4047196542;96368;279758754;1540;96;2650488;-59;12263;1448806
2;74;1573683321576;1573683326592;5016;14730203530;28473389828;512858450;273800684;4047203168;92579;279815761;533;8;989152;46;5016;670846
2;75;1573683326592;1573683331654;5062;14714315956;28473373749;515008079;272982983;4047195502;95016;279713263;557;24;1048328;19;5062;722642
2;76;1573683331654;1573683336811;5157;14712424088;28473392091;513498364;271540986;4047199602;92098;279733090;626;7;1152368;-18;5157;740784
2;77;1573683336811;1573683341970;5159;14742387230;28473398646;515349002;275711720;4047207054;92273;279868110;599;10;1124040;9;5158;741334
2;78;1573683341970;1573683347981;6011;14748373084;28473403516;520111917;275956474;4047212966;97570;279947138;841;78;1313208;7;6012;882462
2;79;1573683347981;1573683354813;6832;14717326622;28473385951;517518823;272990740;4047196467;98750;279700571;785;13;1461048;-17;6832;981533
2;80;1573683354814;1573683368415;13601;14712308602;28473388551;515356315;272959514;4047199311;97018;279742291;1496;36;2780192;-42;13602;1649468
2;81;1573683368415;1573683373814;5399;14722891266;28473384190;514556988;273944075;4047197452;95329;279725175;641;27;1183184;46;5399;671718
2;82;1573683373814;1573683379572;5758;14739318456;28473392271;516343341;276237818;4047213751;99806;280036980;793;72;1192864;-4;5758;843237
2;83;1573683379573;1573683384520;4947;14740046558;28473453826;515054459;273951173;4047214554;89795;279781155;537;9;998496;7;4948;709972
2;84;1573683384520;1573683389779;5259;14732191174;28473419120;517060303;274408887;4047212009;95508;279881663;544;5;1019184;0;5259;755095
2;85;1573683389779;1573683396026;6247;14729427686;28473372090;516879001;275546134;4047192847;93701;279669204;745;23;1373336;-9;6247;896403
2;86;1573683396027;1573683403235;7208;14702105538;28473396747;513675326;272466748;4047211493;98885;279975286;954;53;1447936;25;7208;1061753
2;87;1573683403235;1573683417473;14238;14721428492;28473399519;515122257;273561215;4047203735;95497;279796787;1810;33;2622488;-4;14239;1856807
2;88;1573683417473;1573683422611;5138;14738320546;28473390478;513944364;275723091;4047210212;92548;279959154;549;25;1010528;-5;5138;735243
2;89;1573683422611;1573683427998;5387;14714981570;28473386564;515927043;274174625;4047202266;93293;279807485;645;12;1191472;-5;5387;774331
2;90;1573683427998;1573683433410;5412;14730771908;28473378650;515903244;275202190;4047206099;93714;279919032;640;12;1168536;0;5411;778731
2;91;1573683433410;1573683439714;6304;14730736284;28473370660;517101829;274592502;4047193415;99467;279687234;943;70;1329376;-9;6305;932804
2;92;1573683439715;1573683446850;7135;14722033808;28473390785;520224208;273281566;4047205717;94368;279850622;774;17;1410416;-6;7135;1021858
2;93;1573683446850;1573683460571;13721;14729586534;28473377234;515316287;273945195;4047197249;96913;279744952;1600;49;2908640;-23;13721;1703405
2;94;1573683460571;1573683466081;5510;14741708330;28473378894;519696092;276578095;4047205396;97081;279913581;811;70;1155032;30;5511;751354
2;95;1573683466082;1573683471365;5283;14710365050;28473368391;516943428;272988864;4047193736;95052;279698138;580;23;1030872;0;5284;757742
2;96;1573683471365;1573683476858;5493;14751720864;28473362918;513541974;276372440;4047196596;95393;279785053;576;12;1038488;0;5493;787443
2;97;1573683476858;1573683483035;6177;14705277972;28473373859;514381190;272248828;4047199906;95126;279806736;747;14;1352080;21;6177;885283
2;98;1573683483035;1573683489037;6002;14725461012;28473387654;518870114;274777260;4047202959;94762;279820947;711;26;1291920;-7;6001;862270
2;99;1573683489037;1573683496293;7256;14730233314;28473369981;516364791;275216232;4047192302;96152;279668055;892;51;1611592;117;7257;1052793
2;100;1573683496293;1573683508128;11835;14723739818;28473381564;515065957;274188637;4047202740;95907;279822577;1506;38;2462584;-124;11834;1701364
2;101;1573683508128;1573683513606;5478;14745616458;28473400517;517504521;275639589;4047217679;97850;280064245;594;16;1070856;14;5479;788285
2;102;1573683513606;1573683518897;5291;14732769042;28473410813;515614582;274869797;4047223492;93309;280133410;653;30;1165656;-13;5291;756525
2;103;1573683518897;1573683524638;5741;14770196580;28473449011;514043746;278853670;4047228090;102547;280112474;704;16;1267720;0;5741;820681
3;52;1573684038892;1573684046464;7572;14976354566;28886269114;544909664;287593885;4185268978;107657;289213590;773;13;1504512;27;7573;1087167
3;53;1573684046464;1573684058833;12369;14904233924;28784651095;536300183;282167195;4150842320;109709;286873187;1359;38;2618984;-56;12368;1485382
3;54;1573684058833;1573684064318;5485;14769083622;28473625500;515332174;274101459;4047243313;111713;279712856;619;9;1191680;50;5485;754533
3;55;1573684064318;1573684070000;5682;14773821468;28473678269;511965647;273381650;4047261241;100133;279819270;780;95;1172936;8;5682;834114
3;56;1573684070000;1573684075133;5133;14777508990;28473476885;510565302;273882543;4047234357;91285;279968046;506;6;971808;-24;5133;738904
3;57;1573684075133;1573684081332;6199;14733967264;28473455071;512896061;269631840;4047214490;94423;279690154;662;8;1268464;10;6199;889519
3;58;1573684081332;1573684088571;7239;14759503394;28473474298;512906508;271353168;4047232738;97489;279967468;818;25;1573952;14;7239;1038043
3;59;1573684088571;1573684102179;13608;14792894908;28473451527;512729666;275688666;4047214896;101142;279725801;1674;90;2962128;-89;13608;1847489
3;60;1573684102179;1573684107506;5327;14770201252;28473453116;514424899;273126050;4047216933;96279;279748879;536;11;1031088;84;5327;701293
3;61;1573684107506;1573684112962;5456;14754885122;28473448472;514470173;272081416;4047214378;98110;279719733;561;16;1069384;-17;5456;784937
3;62;1573684112962;1573684118051;5089;14774430726;28473490029;514997081;273888502;4047225198;92878;279742832;586;14;1130256;22;5090;728796
3;63;1573684118051;1573684123750;5699;14757468592;28473478680;512470273;273121703;4047218851;93116;279667508;660;12;1258136;-20;5698;818179
3;64;1573684123750;1573684129730;5980;14788916700;28473479702;518394586;277140194;4047229182;99638;279880764;797;64;1277752;3;5980;864643
3;65;1573684129730;1573684136524;6794;14817576646;28473495883;513757329;277402730;4047248083;103905;280141343;779;26;1474792;-11;6794;977695
3;66;1573684136524;1573684150596;14072;14767792106;28473418708;513216863;273919821;4047210034;101099;279678890;1514;47;2875576;-16;14072;1857228
3;67;1573684150596;1573684155900;5304;14796457308;28473465906;514964034;275333228;4047232113;101094;279909964;617;18;1168768;15;5305;606849
3;68;1573684155901;1573684161291;5390;14778269796;28473390715;514389409;275007296;4047207348;95146;279701508;725;90;1129272;27;5390;775254
3;69;1573684161291;1573684166757;5466;14768780380;28473393883;516388938;273207780;4047214804;99192;279838606;557;7;1042856;-13;5467;786667
3;70;1573684166757;1573684172346;5589;14780160350;28473401510;519175511;274629634;4047216525;98522;279840426;593;8;1118584;15;5588;797312
3;71;1573684172346;1573684178407;6061;14769455338;28473390739;516484942;273784823;4047205461;97661;279672052;723;31;1360376;-19;6061;870848
3;72;1573684178407;1573684184914;6507;14790512042;28473450020;512569246;276886751;4047221651;94890;279766648;740;12;1387784;-4;6507;932039
3;73;1573684184914;1573684196779;11865;14766619142;28473381633;514558771;273266869;4047209948;98886;279780819;1462;104;2524216;-14;11865;1355106
3;74;1573684196779;1573684201853;5074;14786261398;28473383079;513945747;274990338;4047218183;93682;279930603;523;11;985192;25;5074;718927
3;75;1573684201853;1573684207107;5254;14803503268;28473413725;521591526;276528504;4047231760;92743;280060886;591;34;1115192;-15;5254;751614
3;76;1573684207107;1573684212441;5334;14768029502;28473396064;514405259;273531487;4047217369;94612;279867174;627;22;1193152;13;5334;766800
3;77;1573684212441;1573684218573;6132;14790904782;28473391949;516640562;275523838;4047214520;92803;279822233;735;17;1354896;1;6133;880746
3;78;1573684218573;1573684223910;5337;14793205888;28473422546;517723457;275676861;4047235857;94130;280122290;756;71;1182920;-18;5336;774178
3;79;1573684223910;1573684231660;7750;14762055620;28473385397;517246647;273315859;4047209047;98798;279758840;830;20;1548528;2;7750;1112166
3;80;1573684231660;1573684244728;13068;14790094044;28473397241;511899464;274744524;4047222946;96762;279955847;1499;44;2764904;1;13069;1740141
3;81;1573684244728;1573684249876;5148;14786943364;28473410891;510944847;274212072;4047227472;90918;279997460;621;19;1144208;21;5147;737764
3;82;1573684249876;1573684255187;5311;14769402194;28473388929;512375855;275482840;4047209308;94114;279736881;853;73;841104;-15;5311;785145
3;83;1573684255187;1573684262856;7669;14772735082;28473404977;517158112;273828757;4047217630;102053;279849759;880;20;1320264;21;7669;1102126
3;84;1573684262856;1573684269930;7074;14751531648;28473412266;515890584;272632174;4047211277;101368;279705013;814;23;1494784;-14;7075;1014383
3;85;1573684269930;1573684277092;7162;14775628364;28473402284;517560455;274628209;4047220003;94128;279903481;844;13;1539872;-12;7161;1026880
3;86;1573684277092;1573684289417;12325;14773894176;28473384447;515436101;273256194;4047210635;96932;279779936;1578;86;2577056;-13;12279;1398566
3;87;1573684289417;1573684295100;5683;14801753750;28473387789;513071470;277115410;4047217449;99928;279895076;606;13;1094008;40;5683;804404
3;88;1573684295100;1573684300157;5057;14765224258;28473392359;511257926;272444952;4047209134;89661;279723608;648;29;1052952;0;5057;736682
3;89;1573684300157;1573684305618;5461;14769602506;28473380954;512320000;273865761;4047208807;96698;279761916;660;6;1207880;-20;5462;785141
3;90;1573684305618;1573684311107;5489;14792271780;28473399475;515112179;276038510;4047223804;98489;279982243;667;10;1215136;5;5489;787733
3;91;1573684311107;1573684317924;6817;14782192524;28473388212;517199321;273531882;4047208389;94240;279724449;960;97;1429832;-14;6816;995209
3;92;1573684317924;1573684326010;8086;14764860280;28473381285;517565661;272747045;4047203022;95580;279651765;889;20;1619688;7;8086;1157766
3;93;1573684326010;1573684338784;12774;14771714542;28473369051;518204907;274576601;4047202960;98951;279695303;1488;47;2709208;8;12775;1594011
3;94;1573684338785;1573684344525;5740;14800275646;28473404124;515687007;277234987;4047226310;94880;280003168;835;75;1223520;-1;5741;885110
3;95;1573684344525;1573684350093;5568;14786366518;28473385561;517071742;275389043;4047219321;97329;279954706;616;14;1117432;-6;5567;800001
3;96;1573684350093;1573684355366;5273;14791222332;28473393756;521250687;275773578;4047217907;94214;279885039;561;12;1005784;15;5273;755253
3;97;1573684355366;1573684361065;5699;14783789472;28473384872;514962753;275366565;4047217868;99772;279918308;675;11;1214576;-3;5699;815462
3;98;1573684361065;1573684368447;7382;14776619704;28473402892;514693984;273369266;4047221403;101146;279932100;891;31;1588552;5;7382;1057672
3;99;1573684368447;1573684381946;13499;14782383054;28473378973;514159786;274421581;4047208185;100437;279755792;1725;105;2861720;-46;13499;1713059
3;100;1573684381946;1573684387239;5293;14767079772;28473375084;516744015;274063372;4047204327;91983;279699383;572;12;1017480;50;5293;736074
3;101;1573684387239;1573684392761;5522;14789757076;28473408201;516375596;275037381;4047227439;95772;280019241;640;23;1130624;0;5523;796220
4;52;1573684884389;1573684892393;8004;14967583470;28888485155;548604129;285534971;4186000724;99331;289053293;809;19;1584640;23;8004;1147313
4;53;1573684892393;1573684904930;12537;14950853038;28784639565;538430242;287201879;4150829661;102124;286759113;1350;36;2631656;-26;12536;1540489
4;54;1573684904930;1573684910331;5401;14794875690;28473633373;517167529;276218198;4047248305;107189;279836331;782;68;1110720;14;5402;779179
4;55;1573684910332;1573684915614;5282;14801747472;28473647144;515730281;275922140;4047262452;97173;279990252;554;11;1061224;-10;5283;755737
4;56;1573684915614;1573684921034;5420;14787023372;28473438115;513820330;275068833;4047210875;93206;279751703;541;14;1052648;3;5420;779232
4;57;1573684921034;1573684926835;5801;14804828948;28473442663;514385703;276813188;4047213506;95550;279778805;646;13;1256448;-6;5800;831330
4;58;1573684926835;1573684934060;7225;14775113130;28473459217;519915046;272934161;4047225164;94144;279943625;807;34;1553936;25;7226;1037098
4;59;1573684934061;1573684948004;13943;14784175058;28473434354;515924347;275469032;4047207284;91421;279690464;1747;76;2936536;-46;13943;1795295
4;60;1573684948004;1573684953265;5261;14779697822;28473432393;516337553;273579973;4047206415;94759;279678921;525;9;1011632;44;5262;738390
4;61;1573684953265;1573684958350;5085;14779944416;28473444452;515635096;273750585;4047212615;87580;279747703;541;20;1025088;3;5085;731429
4;62;1573684958350;1573684963695;5345;14774437588;28473480417;512808824;273509079;4047221254;92128;279765246;622;10;1185376;-14;5345;767634
4;63;1573684963695;1573684969203;5508;14773349888;28473480269;515161194;274222911;4047224324;95296;279833968;639;10;1216880;1;5508;792713
4;64;1573684969203;1573684974943;5740;14788708504;28473462651;516098224;273588731;4047221017;98654;279848118;799;70;1220168;3;5740;858056
4;65;1573684974943;1573684982187;7244;14812241076;28473455217;515629941;277278851;4047220784;104688;279835669;782;15;1475720;-13;7244;1040997
4;66;1573684982188;1573684996384;14196;14769990574;28473416917;514902176;274152513;4047211161;92735;279762417;1555;44;2966488;-68;14189;1550924
4;67;1573684996384;1573685001931;5547;14802104734;28473483269;513079611;276372586;4047235792;95128;280001131;639;31;1210488;82;5547;630007
4;68;1573685001931;1573685007591;5660;14784447640;28473372679;515871824;274082994;4047204695;96058;279783100;823;57;1073592;-14;5660;858895
4;69;1573685007591;1573685012912;5321;14786842770;28473379867;517678442;275468587;4047203964;90632;279733137;540;10;1022360;4;5321;764442
4;70;1573685012912;1573685018209;5297;14783850792;28473386995;513810048;275391989;4047204915;86263;279720505;588;11;1108816;20;5297;760151
4;71;1573685018209;1573685025382;7173;14763275888;28473383962;515610730;271495040;4047202867;92931;279703662;832;21;1561160;0;7173;1026213
4;72;1573685025382;1573685038353;12971;14786225920;28473382977;515590107;274756590;4047210579;98207;279852886;1668;101;2879680;-92;12971;1818587
4;73;1573685038354;1573685043524;5170;14775852766;28473381611;517453130;273286237;4047211006;93043;279868804;509;12;977368;61;5171;623440
4;74;1573685043524;1573685048699;5175;14778626766;28473381021;516875794;273876327;4047211353;91310;279874644;527;24;965552;17;5175;744623
4;75;1573685048699;1573685054043;5344;14767836928;28473385386;514601547;273453368;4047207119;92734;279770831;634;15;1199600;6;5344;770059
4;76;1573685054043;1573685059659;5616;14771402832;28473385948;515775845;273196382;4047206438;90387;279753381;653;12;1218256;-13;5616;804895
4;77;1573685059659;1573685065235;5576;14770859274;28473392872;514409666;273463804;4047211711;89307;279841021;786;62;1207448;-6;5575;830286
4;78;1573685065235;1573685072666;7431;14798797542;28473378023;518030840;276443356;4047210718;103885;279887758;863;27;1612840;1;7432;1067921
4;79;1573685072666;1573685086465;13799;14766968082;28473376954;513700568;274002047;4047198341;94596;279640984;1502;36;2779744;-78;13799;1693896
4;80;1573685086466;1573685091494;5028;14778282206;28473374760;514191969;274296303;4047201914;89888;279713682;604;13;1114816;90;5029;521614
4;81;1573685091494;1573685097394;5900;14789390178;28473390279;520513088;275561087;4047213919;94500;279883541;806;86;1225424;-16;5900;881278
4;82;1573685097394;1573685102670;5276;14812404596;28473396926;520124593;277650484;4047219903;90739;279985610;551;11;1007416;26;5276;756099
4;83;1573685102670;1573685107856;5186;14783814730;28473404251;512194421;275470332;4047212510;86650;279798241;548;7;1015904;-4;5186;746180
4;84;1573685107856;1573685114882;7026;14788644264;28473412604;514270979;275345760;4047206800;93676;279675086;828;33;1541384;4;7026;1008404
4;85;1573685114882;1573685122215;7333;14779027828;28473375308;516388373;273293342;4047201856;94486;279711948;876;13;1621536;-12;7332;1050045
4;86;1573685122215;1573685135830;13615;14791869404;28473379601;519516862;276264016;4047201680;87751;279690370;1954;139;2322800;13;13616;1728877
4;87;1573685135830;1573685141356;5526;14807361756;28473409992;515291470;278113196;4047223211;97014;280006882;776;15;952928;3;5525;813608
4;88;1573685141356;1573685147039;5683;14781237976;28473379974;519932517;274467935;4047206560;90529;279789297;634;21;1166600;-26;5684;817660
4;89;1573685147039;1573685153814;6775;14790858062;28473382106;521486908;277218017;4047209742;89103;279836226;822;23;1502608;10;6775;971086
4;90;1573685153814;1573685160349;6535;14816260748;28473389064;516901067;276789735;4047207667;92958;279772024;905;84;1412032;5;6534;956401
4;91;1573685160349;1573685168954;8605;14806814840;28473372137;515745302;277233628;4047204006;100075;279770510;961;21;1741864;-1;8606;1234866
4;92;1573685168954;1573685182335;13381;14774897196;28473370801;515890463;273568610;4047201990;98517;279730880;1613;46;2783496;-39;13381;1556053
4;93;1573685182336;1573685187706;5370;14775612596;28473372540;515151497;273484515;4047198528;88201;279651245;782;100;1126608;35;5371;777013
4;94;1573685187706;1573685192896;5190;14779295884;28473384383;515945172;274971639;4047210050;87862;279826683;590;7;1063176;-14;5190;740710
4;95;1573685192896;1573685197994;5098;14763014694;28473383100;513748788;272225180;4047208728;88597;279811319;557;12;998912;19;5098;733562
4;96;1573685197994;1573685203698;5704;14779030748;28473375646;515756424;274453364;4047201325;93965;279699018;672;15;1225352;0;5704;817312
4;97;1573685203699;1573685210278;6579;14786977382;28473370466;516222752;275045761;4047199853;92855;279681809;802;32;1436768;-2;6580;941570
4;98;1573685210278;1573685223953;13675;14783030710;28473373562;518343340;274581908;4047202411;96068;279729279;1822;101;2970000;-73;13674;1944693
4;99;1573685223953;1573685229187;5234;14784304560;28473384513;519268126;276029959;4047209311;90961;279821102;539;15;995128;82;5235;665218
4;100;1573685229187;1573685234263;5076;14767858682;28473371028;517628640;272474977;4047201226;89760;279708876;558;8;982808;-14;5076;728036
4;101;1573685234263;1573685239775;5512;14773971410;28473378268;516053546;273365141;4047202582;88408;279717326;664;27;1203592;8;5512;792458
