0;66;1573664391437;1573664397439;6002;15003579040;28473397230;512930211;289939085;4047201724;90989;279620556;840;73;1159176;27;4641;62232
0;67;1573664397440;1573664403141;5701;15044974712;28473452748;507682338;287791960;4047212597;88215;279622306;602;23;1095824;53;5702;362930
0;68;1573664403141;1573664408811;5670;14986995922;28473369420;512876941;287786071;4047197740;85497;279620447;652;25;1175848;-27;5670;429864
0;69;1573664408811;1573664414510;5699;14984889872;28473371711;510254654;286673938;4047198182;96123;279623564;708;20;1270224;-52;5420;128262
0;70;1573664414510;1573664420530;6020;15008608448;28473365166;513162192;287530648;4047196559;91554;279615781;678;10;1202120;-4;4490;19995
0;71;1573664420530;1573664426694;6164;14983088962;28473366987;513788503;287855639;4047196973;90455;279614119;663;21;1184632;0;4227;26079
0;72;1573664426694;1573664432358;5664;14993086020;28473361876;514522027;289356954;4047196192;90118;279615649;818;86;1065040;63;5634;290288
0;73;1573664432358;1573664438134;5776;14964823778;28473357339;513244252;286315013;4047195222;93726;279617067;640;21;1154656;-3;5775;380116
0;74;1573664438134;1573664444224;6090;15019030074;28473354649;511956742;290508436;4047194570;95860;279619963;716;24;1274056;-53;5432;133312
0;75;1573664444224;1573664450367;6143;15017396334;28473371573;511524993;289155057;4047198231;96142;279619484;681;10;1196256;-4;4305;19670
0;76;1573664450367;1573664455937;5570;14981110808;28473367304;512515630;287073660;4047197049;90730;279613711;640;18;1131848;0;4184;15654
0;77;1573664455937;1573664462043;6106;15010429360;28473367730;513154709;288693312;4047197082;91807;279616509;811;59;1147512;20;5543;111717
0;78;1573664462043;1573664467839;5796;14979181418;28473361923;515301412;287889474;4047195925;91770;279614583;654;17;1157160;2;5797;133981
0;79;1573664467839;1573664473786;5947;15001225228;28473367905;512567764;290436807;4047197217;91674;279618307;690;17;1211936;-17;4883;52637
0;80;1573664473786;1573664479472;5686;14954016128;28473366545;513739271;286958679;4047196909;91531;279615632;650;13;1131752;-5;4071;24379
0;81;1573664479472;1573664485149;5677;14984053730;28473374986;515772905;288601228;4047198865;85705;279608298;657;9;1129984;1;4379;27947
0;82;1573664485150;1573664491762;6612;15060565614;28473358121;512317972;293015931;4047195181;97623;279616636;871;75;1244040;9;5502;69860
0;83;1573664491762;1573664497937;6175;14990727536;28473372259;514177515;290297502;4047198482;95404;279621045;693;11;1200352;4;6176;122512
0;84;1573664497937;1573664504282;6345;14990173904;28473381025;511378831;288608645;4047199048;92551;279616055;721;12;1237344;-13;4735;25585
0;85;1573664504282;1573664510384;6102;14975702676;28473360532;511444707;288374811;4047195792;94174;279619406;696;12;1202120;-3;4191;18095
0;86;1573664510384;1573664516670;6286;15004239836;28473358344;510772964;289716202;4047195267;93665;279618183;743;12;1262624;2;4570;20924
0;87;1573664516670;1573664522744;6074;15040616466;28473377333;508349186;291943900;4047198788;93764;279616417;890;93;962128;151;5431;382046
0;88;1573664522744;1573664528554;5810;15023017042;28473368686;511436539;291179961;4047197631;94916;279625239;755;26;952664;-24;5810;834004
0;89;1573664528554;1573664534927;6373;14983542146;28473353340;512897785;287125544;4047194332;95060;279619376;779;43;1370680;21;6373;914853
0;90;1573664534927;1573664541135;6208;14972311972;28473361420;512520118;287661400;4047195854;87583;279612480;784;25;1363248;-18;6208;888156
0;91;1573664541136;1573664546913;5777;14983865098;28473367704;512746421;287535486;4047197228;91670;279614342;736;26;1284264;-96;5778;473819
0;92;1573664546913;1573664553556;6643;15000969144;28473368078;511785670;291318711;4047197462;94627;279621016;893;89;1280536;-24;6232;115340
0;93;1573664553556;1573664559312;5756;14991989268;28473362808;513690901;287845236;4047196271;91473;279615678;666;14;1147512;-9;5702;76379
0;94;1573664559313;1573664565123;5810;14999052018;28473366657;513341157;287369030;4047197110;93377;279612555;738;20;1140208;3;4944;39905
0;95;1573664565123;1573664570888;5765;14985975090;28473370162;510116554;288982540;4047197638;90551;279616607;666;14;1131752;-4;3963;14391
0;96;1573664570888;1573664576805;5917;15007841218;28473354259;509793719;288353401;4047194539;88914;279613932;703;15;1184528;-3;4496;23913
0;97;1573664576805;1573664582670;5865;14960498090;28473359530;511658860;284961214;4047195671;90963;279619155;816;87;1117768;30;4772;81178
0;98;1573664582670;1573664588296;5626;14963463642;28473368553;511719296;287399838;4047197443;89553;279615431;608;35;1062856;33;5627;282078
0;99;1573664588296;1573664594142;5846;15038249222;28473365455;511437751;290600587;4047196835;94983;279619331;714;40;1226928;-41;5845;251051
0;100;1573664594142;1573664599810;5668;14991372418;28473361176;512744227;288423538;4047195905;88937;279612428;669;21;1139384;-22;4066;20199
0;101;1573664599810;1573664605512;5702;14978387032;28473364857;511731100;287393733;4047196666;91377;279615735;662;16;1116720;5;4167;20893
0;102;1573664605512;1573664611417;5905;15016101606;28473386321;512657144;289651029;4047200848;92358;279618221;724;92;1192816;155;4395;21838
0;103;1573664611417;1573664617895;6478;14969681636;28473404992;513736678;288655459;4047203223;91606;279616573;846;30;1184360;-137;6327;128059
0;104;1573664617896;1573664624274;6378;14982770682;28473345005;512733732;288581961;4047192896;91170;279614851;758;14;1256704;-19;5660;63722
0;105;1573664624274;1573664630298;6024;15001137482;28473457116;511214289;287984629;4047212539;89715;279612719;735;15;1219712;0;4404;18750
0;106;1573664630298;1573664636439;6141;14977588412;28473347935;515091437;286023178;4047193735;85551;279614497;736;19;1225576;2;4390;23949
0;107;1573664636439;1573664642941;6502;15017162442;28473349871;508829253;291161753;4047194048;78565;279618801;895;74;1290392;2;4907;36857
0;108;1573664642941;1573664649205;6264;15070406598;28473356072;507130518;293405342;4047195483;77851;279611502;711;19;1178664;28;6237;136685
0;109;1573664649206;1573664654862;5656;14985220708;28473374967;511597035;286747068;4047199102;90346;279613805;700;26;1186064;-17;5657;246641
0;110;1573664654863;1573664661100;6237;15005318630;28473356765;512903480;289439211;4047195874;94411;279616823;711;10;1157016;-19;4181;22448
0;111;1573664661100;1573664667651;6551;14986317898;28473337903;512802215;288464425;4047191795;90761;279616300;735;25;1217944;6;4246;17616
0;112;1573664667651;1573664674360;6709;15022626492;28473334703;511012950;290314117;4047191197;90610;279616867;916;75;1294256;16;5136;57888
0;113;1573664674360;1573664680574;6214;15025323550;28473333607;512184168;291032133;4047190977;92659;279616074;714;22;1178664;8;6214;190725
0;114;1573664680574;1573664686522;5948;15041774392;28473343899;511427723;287205176;4047193077;91252;279616042;784;19;1268448;-7;5948;177239
0;115;1573664686523;1573664692236;5713;14980523742;28473379845;512566184;288210120;4047199686;87750;279613621;756;19;1241400;-15;5062;72978
1;65;1573665280828;1573665287027;6199;14969375328;28773440786;513709536;284358420;4047207995;100915;279616253;792;65;1142096;30;5256;105091
1;66;1573665287027;1573665292556;5529;15050684626;28773406092;507580133;285954986;4047202546;88361;279619042;595;17;1069792;37;5530;256719
1;67;1573665292556;1573665298668;6112;15095357414;28773445923;507751177;291593079;4047210318;90758;279617882;706;16;1254120;-55;5435;162679
1;68;1573665298668;1573665304359;5691;14989539388;28773377481;508823514;283142824;4047198152;90507;279612836;631;11;1124120;-12;4016;21816
1;69;1573665304360;1573665310446;6086;15061320142;28773363843;510469899;288279584;4047195349;97820;279612058;692;15;1209752;0;4692;20630
1;70;1573665310446;1573665315880;5434;15035514058;28773380726;511105605;287244995;4047198839;94401;279607133;757;70;1057856;28;4327;74162
1;71;1573665315880;1573665322014;6134;15021601864;28773369755;512606435;285971154;4047196602;93391;279608991;660;19;1171264;-1;6133;161665
1;72;1573665322014;1573665328150;6136;15051313156;28773410620;511426589;286413870;4047204209;97067;279616098;732;17;1287520;-26;5818;149393
1;73;1573665328150;1573665334151;6001;15073213010;28773357762;510260215;289479253;4047194476;97637;279616024;680;8;1188624;5;4263;17539
1;74;1573665334151;1573665339950;5799;15045205684;28773360500;510618046;286200978;4047195014;97535;279611067;675;14;1180432;-5;4887;31759
1;75;1573665339950;1573665346197;6247;15035814526;28773364684;511646237;288927165;4047195743;96764;279612798;857;80;1244992;4;5106;39771
1;76;1573665346197;1573665352389;6192;15005895914;28773356867;512342997;286223623;4047194174;96167;279611474;667;18;1168704;8;6192;83028
1;77;1573665352390;1573665357969;5579;14993325752;28773365068;510318961;284356193;4047195784;93498;279609632;646;11;1120024;-12;4805;29233
1;78;1573665357970;1573665363476;5506;15019563996;28773369457;511120182;286025797;4047196844;93971;279607623;637;9;1102432;0;4001;27129
1;79;1573665363476;1573665369235;5759;15025762718;28773362690;512379261;286441496;4047195397;96883;279609843;662;12;1143056;-5;4070;14932
1;80;1573665369235;1573665374656;5421;15025282524;28773361324;510381996;285289010;4047195034;91443;279605701;626;24;1077768;3;3977;25866
1;81;1573665374656;1573665380607;5951;15037612078;28773359941;510008785;287955603;4047194774;95345;279606849;788;72;1124536;24;5737;112686
1;82;1573665380607;1573665386550;5943;15025315958;28773358254;511726351;286890421;4047194445;98315;279614182;678;24;1188624;4;5943;218589
1;83;1573665386550;1573665392331;5781;15005543470;28773379145;513311733;285140865;4047199084;94753;279609802;673;15;1152880;-29;4505;54721
1;84;1573665392331;1573665398220;5889;15016386452;28773390888;511208988;287230096;4047200523;99111;279613734;628;11;1078976;1;3643;13160
1;85;1573665398220;1573665404391;6171;15026985030;28773346895;511212758;286802163;4047192225;96421;279610702;705;15;1184664;-1;4485;19380
1;86;1573665404391;1573665410163;5772;15037730338;28773363838;512920805;290577884;4047195649;94642;279609991;760;97;1121560;28;5406;104021
1;87;1573665410163;1573665415721;5558;15006073012;28773361882;510187849;283653363;4047195172;89867;279605836;627;28;1086936;2;5559;193110
1;88;1573665415721;1573665421945;6224;14997278702;28773363836;512026076;285774417;4047195206;100807;279613187;717;20;1234744;-33;5276;81613
1;89;1573665421946;1573665427992;6046;15030523632;28773348920;510865770;286709390;4047192593;96160;279608541;741;73;1180568;106;4356;41965
1;90;1573665427992;1573665433975;5983;15121178098;28773356277;510154812;294121224;4047194252;102796;279622753;930;21;854056;50;5984;676062
1;91;1573665433975;1573665442718;8743;15064433884;28773351381;509627298;289413341;4047193066;99166;279613803;1042;37;1671944;-152;8280;402440
1;92;1573665442718;1573665448613;5895;15024746266;28773354591;511060192;286013045;4047193774;96222;279607727;697;13;1176520;1;4445;27323
1;93;1573665448613;1573665454439;5826;14995647882;28773357690;514571382;285351982;4047194349;96783;279608649;666;13;1133896;-1;3839;13543
1;94;1573665454441;1573665460026;5585;15036769658;28773353004;510118380;285979804;4047193622;92978;279610026;756;80;1059704;39;4405;100884
1;95;1573665460027;1573665465572;5545;15020537670;28773354567;511105493;286485159;4047194020;94483;279608676;681;31;1046416;19;5545;306673
1;96;1573665465572;1573665471270;5698;14988959184;28773357556;512392052;284522897;4047194342;95128;279606678;712;20;1212040;-57;5655;214951
1;97;1573665471270;1573665477579;6309;15039563806;28773353539;511487691;287635122;4047193559;98191;279612225;706;10;1178664;0;4005;15222
1;98;1573665477580;1573665483354;5774;15011419824;28773374995;511412754;286049767;4047197641;95922;279610294;675;19;1139496;9;4271;21577
1;99;1573665483355;1573665488798;5443;15020018494;28773367323;514583810;285687375;4047196250;91554;279606581;787;88;1114392;18;4758;57455
1;100;1573665488798;1573665494880;6082;15051754368;28773353472;510397634;288643985;4047193604;97165;279616863;692;30;1181088;42;6083;272991
1;101;1573665494880;1573665501152;6272;15100406386;28773361540;510706559;290088907;4047195175;93879;279608108;767;28;1291824;-44;6271;313009
1;102;1573665501152;1573665507216;6064;15084924546;28773366208;513099394;290199720;4047196223;98224;279610589;730;16;1221480;-30;4547;50892
1;103;1573665507216;1573665513161;5945;14978143796;28773417835;511238376;283440713;4047205031;96388;279609889;694;15;1149424;0;4084;18498
1;104;1573665513161;1573665519526;6365;15014148418;28773344482;511024938;285009116;4047191544;95450;279610922;760;29;1282448;4;4707;24195
1;105;1573665519526;1573665525610;6084;15010046986;28773361155;511796371;286084065;4047195126;96302;279609201;809;77;1132520;15;5808;72427
1;106;1573665525610;1573665531510;5900;15027740726;28773353125;514657938;286541668;4047193178;94778;279603827;708;25;1172856;-19;5360;51730
1;107;1573665531510;1573665537483;5973;15044454660;28773338160;512003567;288558201;4047190870;95912;279603652;697;22;1161072;0;4071;18924
1;108;1573665537483;1573665543391;5908;15016709258;28773344547;511381498;286393105;4047192376;95841;279605548;705;20;1171112;1;4410;20424
1;109;1573665543391;1573665549736;6345;15053515566;28773338712;511061071;288554515;4047191079;98128;279611035;760;17;1260760;0;4672;19787
1;110;1573665549736;1573665555876;6140;15015545346;28773337317;509360547;285737784;4047190790;99307;279610917;830;89;1161328;3;5949;58822
1;111;1573665555876;1573665562193;6317;15039598846;28773345746;509607213;288613515;4047192763;93192;279610884;741;18;1219760;0;5363;31168
1;112;1573665562193;1573665568605;6412;15052594014;28773351010;509675634;289026802;4047193407;96848;279609839;761;16;1254896;0;4436;18127
1;113;1573665568605;1573665574965;6360;15098323696;28773329928;509256679;290812086;4047189399;96003;279610823;776;27;1280616;6;4772;22105
1;114;1573665574965;1573665581057;6092;15047679800;28773323483;512602844;288478744;4047187907;93433;279603806;709;21;1176488;-6;4166;16790
2;66;1573666149361;1573666155580;6219;14974621838;28773377184;511775311;287809405;4047199713;88177;279619985;794;79;1186536;24;5049;61969
2;67;1573666155580;1573666161163;5583;14965345290;28773409608;508741517;281483552;4047207169;86890;279611030;610;18;1100896;43;5583;271736
2;68;1573666161164;1573666166311;5147;15055882226;28773369440;506595676;286329511;4047199605;80534;279609576;602;22;1094008;46;5148;540710
2;69;1573666166311;1573666172217;5906;14984872206;28773358286;512817161;286430887;4047197493;85891;279619233;736;27;1323632;-81;5906;510561
2;70;1573666172217;1573666177565;5348;14956988396;28773360001;509184315;283706844;4047197672;88578;279612664;622;13;1119896;-31;4702;97664
2;71;1573666177565;1573666183476;5911;14951663922;28773362378;510547658;284803249;4047198084;92128;279611733;617;12;1098336;-1;3730;12404
2;72;1573666183476;1573666189325;5849;14992147678;28773346844;510606049;289007589;4047195269;91305;279614239;764;83;1105120;44;5775;153553
2;73;1573666189325;1573666195345;6020;14996625790;28773354952;510366758;286484481;4047196670;93074;279612717;684;24;1221000;-14;6021;225407
2;74;1573666195346;1573666201414;6068;15042035586;28773357517;511627030;289787346;4047197051;91047;279612554;733;14;1278360;-27;5194;65086
2;75;1573666201414;1573666207876;6462;15024753128;28773349224;511503287;290494440;4047195374;94805;279617762;718;19;1270720;-2;4504;23801
2;76;1573666207876;1573666213595;5719;15051765026;28773356560;510257945;292369426;4047196990;92492;279613401;683;6;1178664;-3;4756;29966
2;77;1573666213595;1573666219742;6147;14947553584;28773349582;512547559;284272882;4047195558;93586;279617675;820;64;1152688;25;5890;125350
2;78;1573666219742;1573666225657;5915;14963955516;28773356735;511612805;287936839;4047197171;92542;279614186;665;12;1145192;-16;5355;61358
2;79;1573666225657;1573666231261;5604;14940418272;28773348624;511216103;284677600;4047195256;91127;279613675;654;11;1133520;-3;4115;18233
2;80;1573666231261;1573666236890;5629;14966278668;28773362819;510492880;287244847;4047198210;90308;279613907;640;10;1102440;-1;3968;14440
2;81;1573666236890;1573666242602;5712;14940952486;28773360826;512962599;283028280;4047197815;90709;279611424;638;10;1104456;21;4347;30581
2;82;1573666242603;1573666249136;6533;14936402396;28773346644;512800087;284836199;4047194994;95552;279614966;906;79;1241864;-14;5725;84764
2;83;1573666249136;1573666255202;6066;15011917392;28773406210;510147515;288898139;4047206953;89832;279616042;701;11;1200000;6;6067;98226
2;84;1573666255202;1573666261246;6044;15059932266;28773371798;509889002;290167747;4047199770;96488;279617050;716;10;1229464;-16;5033;42304
2;85;1573666261246;1573666267265;6019;14989114382;28773331514;512981363;288432690;4047192195;95236;279612414;694;6;1184536;0;4151;16161
2;86;1573666267265;1573666273404;6139;14959964314;28773340483;510672893;284066492;4047193896;95203;279612542;676;14;1155208;0;4104;14956
2;87;1573666273405;1573666279752;6347;14996107636;28773351865;511314351;287645738;4047195887;94527;279615635;863;89;1223064;23;5461;95926
2;88;1573666279752;1573666285704;5952;15004059672;28773340907;514604351;290396663;4047194154;91921;279614724;675;26;1163056;-3;5952;213091
2;89;1573666285704;1573666291634;5930;14999865968;28773341940;512024570;288653356;4047194235;88803;279610697;706;16;1211864;-17;5010;63383
2;90;1573666291634;1573666297842;6208;15009738488;28773339726;511710918;289062317;4047193766;93566;279613220;726;13;1225584;-6;4295;16902
2;91;1573666297842;1573666303690;5848;14956602080;28773347026;513100148;285009465;4047195317;91010;279614497;658;10;1124120;4;4298;19643
2;92;1573666303690;1573666310093;6403;14998251500;28773353910;513823773;288794379;4047196876;91479;279616143;854;85;1200352;0;5406;91747
2;93;1573666310093;1573666316286;6193;14924022618;28773334688;515215720;285505740;4047192815;94830;279617901;679;13;1149344;9;5607;33028
2;94;1573666316286;1573666321891;5605;14994903282;28773333138;512240858;288167798;4047192906;94760;279614253;642;8;1074880;-10;4130;20443
2;95;1573666321891;1573666327656;5765;14955131714;28773346173;510503161;285599000;4047195316;92410;279611142;797;72;1032616;50;4192;75162
2;96;1573666327656;1573666333131;5475;14950168590;28773342506;511311171;284444267;4047194534;90129;279610165;805;26;763656;103;5475;683747
2;97;1573666333132;1573666338644;5512;14993523290;28773344982;509487405;286979455;4047194909;87642;279609300;656;23;1065552;-18;5512;791906
2;98;1573666338644;1573666346678;8034;14979021986;28773361347;511356059;288210984;4047197863;94928;279610237;1001;27;1688968;-134;7588;427208
2;99;1573666346678;1573666352426;5748;14981715978;28773343556;511346658;286671459;4047194544;92596;279610109;669;16;1133520;-1;3996;20853
2;100;1573666352426;1573666358891;6465;14961283278;28773329453;512906107;287137334;4047191811;96625;279617246;886;73;1211848;25;4777;53367
2;101;1573666358891;1573666364566;5675;14979256754;28773348875;511732322;286074853;4047195701;93320;279611739;651;17;1103784;-5;5675;143869
2;102;1573666364566;1573666370518;5952;14977002076;28773345351;511772186;287443318;4047195052;87534;279606543;794;23;1209176;-23;5790;99025
2;103;1573666370518;1573666376273;5755;14950022590;28773395428;510483042;283685955;4047203595;89774;279606548;670;18;1125888;3;4143;18469
2;104;1573666376273;1573666381745;5472;14907584624;28773351298;511479628;281180124;4047196062;90159;279607104;657;15;1094800;4;4080;20604
2;105;1573666381745;1573666388222;6477;15037565650;28773356359;508171611;290889018;4047196969;88923;279607809;771;21;1286104;-1;4902;24327
2;106;1573666388222;1573666394290;6068;15027557496;28773318892;511021837;289494039;4047190192;91904;279610513;815;103;1146632;51;5991;200573
2;107;1573666394291;1573666399833;5542;15002399506;28773349731;513862709;286323536;4047195579;87816;279606436;651;40;1119112;11;5542;305319
2;108;1573666399833;1573666406098;6265;15004775948;28773313697;509969255;288678055;4047189019;91403;279608577;796;32;1332096;-63;5632;127336
2;109;1573666406098;1573666412268;6170;14987856154;28773319106;510935110;287761229;4047190216;93211;279608184;698;19;1158736;0;3949;15787
2;110;1573666412268;1573666418504;6236;14942356130;28773328125;511165369;285551110;4047191911;93359;279608269;730;27;1219800;0;4585;27473
2;111;1573666418504;1573666424764;6260;15006406184;28773331530;512763699;289292796;4047192966;93234;279610670;885;77;1172920;7;6016;137636
2;112;1573666424765;1573666430643;5878;14990751626;28773335228;509594869;288035142;4047193249;90833;279605858;674;25;1120024;-8;5103;31976
2;113;1573666430643;1573666436384;5741;14926363436;28773321947;512373190;283312273;4047190761;91305;279605688;688;30;1143512;1;4259;24670
2;114;1573666436384;1573666442253;5869;15050002952;28773322467;510958242;290117275;4047190847;90530;279607066;721;20;1184528;4;4509;40686
2;115;1573666442253;1573666448144;5891;15009111418;28773318717;510686540;286555884;4047190158;91541;279607194;711;28;1167040;-5;4098;17049
3;62;1573667019939;1573667026061;6122;16130765032;28173455088;511256198;287539555;4047210218;97306;279621972;679;7;1215616;-1;4460;22087
3;63;1573667026061;1573667032928;6867;16142112882;28173449299;512772053;289169465;4047208961;96596;279624736;712;17;1288312;-2;4600;18221
3;64;1573667032928;1573667039355;6427;16136933678;28173429333;511798845;288001979;4047204361;95501;279623574;680;6;1219712;3;4243;17669
3;65;1573667039355;1573667045655;6300;16164263272;28173431802;512128746;286101064;4047206943;94308;279627225;773;90;1184728;2;6208;82738
3;66;1573667045655;1573667052008;6353;16149808396;28173385526;510901542;287323705;4047198744;81060;279617559;698;9;1243168;6;5641;45640
3;67;1573667052008;1573667058614;6606;16180938662;28173449511;507244079;289101257;4047211442;85609;279615791;714;15;1278352;-9;4414;16922
3;68;1573667058614;1573667065043;6429;16117518014;28173349886;512733069;286519851;4047193046;99553;279618887;689;16;1225576;-3;4283;15411
3;69;1573667065043;1573667071318;6275;16147016292;28173362094;510454821;288479682;4047195436;95022;279616017;774;76;1186472;20;4622;43607
3;70;1573667071318;1573667077327;6009;16101562842;28173363021;511398623;284774443;4047195744;96091;279615270;652;17;1151248;-5;6009;99955
3;71;1573667077328;1573667083873;6545;16167684928;28173358923;511451472;289465801;4047194854;97634;279617723;721;6;1263320;-13;5094;33114
3;72;1573667083873;1573667090547;6674;16137707478;28173358130;511712269;287647654;4047194747;97279;279618217;711;9;1244704;-1;4255;18909
3;73;1573667090547;1573667097249;6702;16161223114;28173352668;513012286;289414318;4047193654;99005;279619920;716;9;1250800;-1;4489;16038
3;74;1573667097249;1573667103511;6262;16107012000;28173351015;511554071;284934241;4047193256;94800;279614029;778;88;1165232;12;4682;48873
3;75;1573667103511;1573667110037;6526;16129241814;28173367622;512840401;287422492;4047196728;99095;279619669;701;15;1219848;-9;5833;33678
3;76;1573667110037;1573667116326;6289;16127109484;28173357465;514492725;285600114;4047194657;94761;279618301;703;11;1225576;3;4568;26153
3;77;1573667116326;1573667122548;6222;16124169190;28173353909;513043876;285320354;4047193768;96568;279615270;681;11;1178664;-3;3976;13511
3;78;1573667122548;1573667128897;6349;16112664682;28173360778;512082013;285520450;4047195508;96941;279617816;684;13;1184528;0;4152;16306
3;79;1573667128897;1573667135233;6336;16094313504;28173368504;511835045;284744304;4047196889;92495;279619450;805;73;1147200;7;4914;52259
3;80;1573667135233;1573667141374;6141;16142249100;28173360567;510501726;286647369;4047195195;81276;279613435;690;21;1207984;-6;6003;119284
3;81;1573667141374;1573667147909;6535;16109844984;28173357147;511610567;284075107;4047194617;98519;279615540;706;11;1202120;9;4237;15945
3;82;1573667147909;1573667154305;6396;16124741364;28173354211;512268618;285267647;4047193895;95756;279616480;729;8;1243168;-13;4393;21196
3;83;1573667154306;1573667161762;7456;16170523606;28173360650;512201241;290375698;4047195565;99355;279622857;814;16;1395632;3;4824;19067
3;84;1573667161762;1573667168626;6864;16131436486;28173395066;513074649;288522205;4047201742;97721;279620564;872;74;1236536;3;6097;67658
3;85;1573667168626;1573667175244;6618;16139223396;28173355048;511332129;287377918;4047194135;95144;279615574;719;19;1249032;-6;5285;26503
3;86;1573667175244;1573667181710;6466;16159319128;28173351826;512240385;289019035;4047193503;95830;279617149;734;14;1249032;3;4504;16723
3;87;1573667181710;1573667188354;6644;16158798346;28173369916;511822891;287761795;4047196771;96422;279618440;758;7;1276584;1;4737;19071
3;88;1573667188354;1573667194602;6248;16154262856;28173357902;511683964;288585209;4047194724;96909;279617641;845;78;1196632;10;4703;48340
3;89;1573667194602;1573667200957;6355;16142864928;28173348076;512260381;287839962;4047192793;95125;279615628;713;24;1215752;9;6355;163830
3;90;1573667200957;1573667207040;6083;16148527392;28173356353;512041985;288233032;4047194404;96350;279615724;720;4;1207984;-16;5255;57003
3;91;1573667207040;1573667213497;6457;16157437188;28173353941;512464838;288090473;4047193928;98151;279621467;919;88;1101104;101;5342;231518
3;92;1573667213497;1573667219948;6451;16153521906;28173354927;511293404;289736892;4047194160;93836;279617965;848;29;1001920;49;6450;903806
3;93;1573667219948;1573667227727;7779;16088059156;28173350285;513332992;283664429;4047193193;100053;279621469;956;44;1647888;-153;7781;1024436
3;94;1573667227729;1573667234459;6730;16144074392;28173343209;510976856;287662204;4047191774;97030;279619493;737;15;1243200;-1;4112;14251
3;95;1573667234459;1573667240867;6408;16092704876;28173353405;514679106;284728712;4047193822;94037;279615243;721;20;1225576;5;4099;15948
3;96;1573667240867;1573667247287;6420;16138543182;28173357414;510241841;287627437;4047194904;98589;279621316;906;84;1200472;1;5258;64666
3;97;1573667247287;1573667253596;6309;16135581718;28173364170;511286475;287254120;4047195992;95214;279618163;704;19;1180432;-9;5757;51285
3;98;1573667253596;1573667259936;6340;16169059518;28173368533;510042518;288914917;4047196522;96983;279617922;734;20;1212280;4;4524;20248
3;99;1573667259936;1573667266590;6654;16140808956;28173346865;511718058;288281472;4047192440;94617;279615851;729;18;1233208;-2;4194;14775
3;100;1573667266590;1573667272815;6225;16135050716;28173351931;510324444;287196550;4047193488;97880;279615026;701;16;1172912;1;4158;16657
3;101;1573667272816;1573667279142;6326;16134243336;28173347554;512555497;287357691;4047192716;96250;279618081;832;106;1189032;23;5368;123101
3;102;1573667279142;1573667286162;7020;16137672292;28173377937;511561650;287548372;4047198182;98274;279621634;815;25;1372176;-22;6956;151127
3;103;1573667286162;1573667292405;6243;14936819664;28173414167;513895149;284861740;4047204362;91788;279610728;706;24;1174624;4;4191;18425
3;104;1573667292405;1573667298526;6121;14967978692;28173349284;513917685;286613629;4047192575;93626;279607563;720;9;1184528;-5;4126;17392
3;105;1573667298526;1573667304461;5935;14966236912;28173365392;514024266;285469370;4047196157;96166;279609971;715;15;1172880;6;4104;18130
3;106;1573667304461;1573667310802;6341;15008062554;28173333416;512008618;287957565;4047190044;93697;279611070;861;83;1195472;44;5911;194142
3;107;1573667310802;1573667317269;6467;15003887100;28173325388;514463236;291422980;4047188418;93453;279612375;765;36;1292608;-48;6312;238461
3;108;1573667317269;1573667323352;6083;14980424316;28173328192;510576303;286838307;4047188891;94517;279602735;701;24;1157800;-1;4069;15828
3;109;1573667323352;1573667329271;5919;15002558208;28173335554;511907136;287683498;4047190544;90763;279608495;720;14;1178664;0;4208;19000
3;110;1573667329271;1573667335196;5925;14977993708;28173336583;510215549;285893609;4047190524;93602;279604700;719;18;1172888;0;4276;20438
3;111;1573667335196;1573667341330;6134;15031644474;28173349852;510234858;289336610;4047193553;95607;279609474;864;73;1156240;24;5815;109832
4;64;1573667902542;1573667909006;6464;15014768772;28773755895;510861639;286440180;4047258184;112176;279666293;693;15;1227480;-2;4234;14790
4;65;1573667909006;1573667915350;6344;15056438486;28773742021;510544175;288814228;4047258369;100751;279635128;818;85;1177776;33;5374;144124
4;66;1573667915350;1573667922023;6673;15077130774;28773405361;510663141;292600941;4047197444;72598;279614726;712;27;1297712;-31;6663;169417
4;67;1573667922023;1573667927808;5785;15039379846;28773484214;511557649;287650210;4047213263;87418;279611306;624;17;1115696;-1;3891;13605
4;68;1573667927808;1573667934142;6334;15031321668;28773384665;512834549;287940704;4047194624;99287;279615168;698;7;1239072;3;4611;16988
4;69;1573667934142;1573667939921;5779;15020547452;28773403391;510725545;285492992;4047198553;94206;279610646;668;11;1172936;0;4293;15682
4;70;1573667939921;1573667945456;5535;15031092448;28773407059;511379821;287617298;4047199278;95605;279613046;717;80;1045640;36;4705;86517
4;71;1573667945456;1573667951515;6059;15013358120;28773390582;512265014;287298390;4047195949;96479;279613877;647;30;1170992;-3;6059;269682
4;72;1573667951515;1573667957739;6224;15068778406;28773390573;512652224;289682005;4047195938;93465;279610250;710;14;1264336;-37;5036;68074
4;73;1573667957739;1573667963895;6156;15033660880;28773385251;512874506;287986909;4047194831;98535;279613063;680;12;1194488;4;4138;14329
4;74;1573667963895;1573667969818;5923;15041409100;28773397311;510444641;288030813;4047197301;94836;279613003;658;12;1162840;2;4176;17522
4;75;1573667969818;1573667975946;6128;15042898738;28773395416;511292795;287261435;4047196941;95284;279615974;824;89;1145176;44;4976;126320
4;76;1573667975946;1573667982250;6304;15007916408;28773393790;513500841;286085878;4047196527;96986;279614284;690;26;1227904;16;6305;441629
4;77;1573667982250;1573667988917;6667;14992218050;28773389154;511771097;286989452;4047195519;99612;279619046;773;11;1364016;-63;5568;172501
4;78;1573667988917;1573667995506;6589;15057062344;28773401142;509665438;288559840;4047198344;98792;279618696;725;12;1272488;0;4440;15812
4;79;1573667995506;1573668001285;5779;15034620246;28773398628;512040539;286428958;4047197517;94101;279609532;677;15;1161208;-3;4402;20281
4;80;1573668001285;1573668007490;6205;14990976904;28773384657;513631123;285660371;4047194699;97254;279615356;797;75;1145680;24;5244;102109
4;81;1573668007490;1573668013524;6034;15039331374;28773398685;510901030;288735171;4047197625;96105;279611986;679;21;1196256;-10;6034;186140
4;82;1573668013524;1573668019895;6371;15044300484;28773395498;511151229;288548012;4047196958;97092;279614340;746;12;1291848;-11;5017;45287
4;83;1573668019895;1573668025668;5773;15040644352;28773499490;512964961;284912765;4047217464;95143;279615065;659;17;1155208;-3;4090;18109
4;84;1573668025668;1573668031921;6253;15070869564;28773402418;509745670;288581378;4047198238;97442;279611718;734;12;1243304;4;4593;22621
4;85;1573668031921;1573668038410;6489;15047732360;28773366230;511757330;288928709;4047191495;94786;279611899;839;75;1227776;15;5636;71924
4;86;1573668038410;1573668044352;5942;15042326418;28773368600;513083978;288709508;4047192001;96386;279612638;678;11;1168704;-12;5943;99333
4;87;1573668044352;1573668050116;5764;15009068348;28773391932;512271442;285760273;4047196355;97069;279610114;662;16;1147576;-3;4360;24306
4;88;1573668050116;1573668056151;6035;15034919254;28773372994;510455956;286791466;4047192921;96598;279607843;684;8;1178664;0;4392;18717
4;89;1573668056151;1573668062291;6140;15032027432;28773370427;511132803;287748284;4047192395;97354;279611019;684;17;1162976;-4;4103;15634
4;90;1573668062291;1573668068768;6477;15038048326;28773372273;511206708;286909987;4047192814;101326;279614505;852;88;1225176;31;5512;115979
4;91;1573668068769;1573668075045;6276;15028045866;28773368045;513362558;286468302;4047191833;95753;279613300;702;26;1217944;12;6276;290158
4;92;1573668075045;1573668081224;6179;15072561412;28773368574;513821649;289048863;4047192130;95711;279613106;756;17;1303576;-40;5504;107261
4;93;1573668081224;1573668087210;5986;15077299842;28773368500;511393350;288294070;4047192061;97215;279614904;705;11;1190392;0;4133;15435
4;94;1573668087210;1573668093401;6191;15041683434;28773359027;511310002;288017703;4047190130;95092;279612869;750;12;1237440;0;4530;24035
4;95;1573668093401;1573668099404;6003;15018035084;28773361215;512853483;286442652;4047190643;97165;279612721;800;70;1120920;15;5195;76119
4;96;1573668099411;1573668105909;6498;15029663546;28773368007;512512201;288042565;4047191858;99973;279614677;840;96;1153760;27;6219;87177
4;97;1573668105909;1573668112240;6331;15043423170;28773370557;512361337;288697418;4047192445;94865;279619383;934;27;982992;96;6332;732158
4;98;1573668112240;1573668117946;5706;15058796532;28773386786;510865256;287262931;4047195490;99204;279613663;747;31;1293256;-12;5705;818100
4;99;1573668117946;1573668124775;6829;15097261692;28773364676;509648518;291022551;4047191316;95864;279615256;874;35;1480552;-128;6628;705135
4;100;1573668124775;1573668131010;6235;15056028664;28773368982;510233032;288716159;4047192095;97193;279612972;739;15;1233208;4;4416;22472
4;101;1573668131010;1573668137724;6714;15031996334;28773362016;511489781;288796945;4047190690;100500;279616778;898;79;1240848;27;4603;52886
4;102;1573668137724;1573668143973;6249;15005914018;28773376483;513463645;285760723;4047193768;96512;279611635;757;26;1177304;9;6249;217510
4;103;1573668143973;1573668150359;6386;15060940834;28773417779;510177817;287899907;4047200366;92267;279612727;787;20;1321352;-36;6099;175838
4;104;1573668150359;1573668156587;6228;15059779550;28773383304;511410372;289203978;4047194113;96290;279607233;720;20;1176400;-4;4242;18229
4;105;1573668156587;1573668162597;6010;15055058348;28773377435;510671124;287460688;4047193964;93081;279608414;715;14;1197032;0;4525;21183
4;106;1573668162597;1573668168279;5682;14959789114;28773348906;513355638;281818620;4047188502;97311;279607314;776;87;1092240;27;4153;37081
4;107;1573668168279;1573668174303;6024;15019858624;28773352389;515132330;288329783;4047189235;97346;279609589;692;17;1167456;5;6024;154886
4;108;1573668174303;1573668180203;5900;15016204390;28773358666;511329967;287090600;4047190562;95884;279607886;710;12;1178144;-22;5321;91759
4;109;1573668180203;1573668186532;6329;15044654242;28773348583;510957589;288568718;4047188450;99518;279610990;752;16;1237432;-6;4264;16333
4;110;1573668186532;1573668192243;5711;15045562216;28773363423;511179370;285861220;4047191497;95361;279607749;682;12;1125888;8;4353;27906
4;111;1573668192244;1573668197840;5596;15039316482;28773374746;510513605;287034768;4047194019;92762;279606416;686;10;1129984;-8;4181;23346
4;112;1573668197840;1573668203628;5788;15007299704;28773360687;511679912;283347676;4047191173;96071;279609345;773;86;1084880;54;5682;194086
4;113;1573668203628;1573668209691;6063;14990825356;28773363673;510700200;283692242;4047191208;92648;279609381;729;26;1211696;-18;6063;272621
