0;66;1572503087486;1572503092956;5470;15542906106;29073427278;483007923;307299903;4047206827;92655;279639296;305;1;586400;-3;1339;2508
0;67;1572503092956;1572503098852;5896;15612207780;29073453634;480277420;310031138;4047212403;95971;279648547;387;46;599120;3;1601;4663
0;68;1572503098852;1572503104767;5915;15578287454;29073385776;481174262;305845718;4047199869;93337;279641760;306;0;586400;0;1449;2607
0;69;1572503104767;1572503110658;5891;15610875822;29073397725;479312408;308268545;4047202277;94343;279642004;304;1;586400;0;1368;2532
0;70;1572503110658;1572503117019;6361;15643725822;29073386561;479230076;311567585;4047200050;92521;279643832;310;2;586472;0;1356;2527
0;71;1572503117019;1572503122954;5935;15550844564;29073389277;480580761;305084695;4047200494;90333;279636418;307;1;590496;-3;1338;2500
0;72;1572503122954;1572503128912;5958;15608132628;29073499020;479616277;309247982;4047221430;95023;279647284;377;51;594960;3;1657;5115
0;73;1572503128912;1572503134802;5890;15627771234;29073365964;479752116;309760981;4047196620;95263;279638769;302;4;586400;0;1473;2664
0;74;1572503134802;1572503140764;5962;15579687740;29073371675;481835938;306325784;4047197645;91882;279637753;303;3;586400;0;1425;2620
0;75;1572503140764;1572503146693;5929;15644944338;29073385633;478412487;311854565;4047200511;94555;279641775;309;3;586472;0;1314;2396
0;76;1572503146693;1572503152573;5880;15571222952;29073370457;480718891;308827296;4047197273;94412;279637509;305;1;586400;0;1381;2533
0;77;1572503152573;1572503158477;5904;15612858356;29073379546;480008312;309055903;4047199032;96034;279643602;402;50;599232;0;1652;6176
0;78;1572503158478;1572503164848;6370;15629023184;29073372769;478244961;309014302;4047197637;92263;279639028;304;3;586400;-3;1549;2815
0;79;1572503164848;1572503170722;5874;15562450834;29073374885;480637381;307748294;4047198135;93472;279640221;305;3;586400;3;1429;2610
0;80;1572503170722;1572503176674;5952;15602586818;29073370731;480696849;310231005;4047197271;93782;279641837;312;3;586488;0;1375;2602
0;81;1572503176674;1572503182269;5595;15602241382;29073384429;480447662;306271560;4047200330;91942;279636730;309;1;586400;0;1403;2625
0;82;1572503182270;1572503188048;5778;15615838362;29073376933;480249281;308650984;4047198620;95470;279637359;419;46;599744;-3;1613;7384
0;83;1572503188048;1572503194316;6268;15638306886;29073389613;478530277;310780318;4047201586;95977;279643489;309;1;586400;3;1520;2804
0;84;1572503194316;1572503200548;6232;15576381278;29073403857;481710826;306059286;4047203217;93424;279638146;310;0;590496;-2;1437;2657
0;85;1572503200548;1572503207458;6910;15617058630;29073363464;478314925;311498359;4047195852;97453;279644954;312;2;582376;2;1429;2633
0;86;1572503207458;1572503213133;5675;15597910584;29073378446;481958841;309893055;4047198926;93409;279638042;307;1;586400;0;1348;2521
0;87;1572503213133;1572503219049;5916;15573731086;29073392479;480516600;307448084;4047201389;92480;279637731;392;53;598992;0;1609;5547
0;88;1572503219049;1572503225304;6255;15654321042;29073365250;478347098;311039720;4047196243;92385;279638813;308;1;586400;-3;1460;2645
0;89;1572503225304;1572503231159;5855;15572255902;29073373076;480675931;307896672;4047197855;96513;279638546;310;3;586400;3;1387;2595
0;90;1572503231159;1572503236898;5739;15603685614;29073380160;480366747;309350729;4047199207;92010;279638920;311;4;586472;0;1360;2561
0;91;1572503236898;1572503242577;5679;15606891628;29073380061;480150189;307056326;4047199214;90575;279636822;309;3;586400;0;1375;2592
0;92;1572503242578;1572503248112;5534;15576925566;29073379659;478869207;306627629;4047199173;92765;279633470;308;2;586400;0;1257;2398
0;93;1572503248112;1572503254478;6366;15633157758;29073371457;479239836;311105565;4047197514;94263;279645565;402;60;603344;-2;1759;6916
0;94;1572503254478;1572503260496;6018;15590773666;29073374952;480718433;306988074;4047198269;90150;279637142;705;67;631456;6;3877;19864
0;95;1572503260496;1572503265680;5184;15610012670;29073381087;476955159;306325011;4047199348;83031;279623204;436;15;599632;-7;2414;8864
0;96;1572503265680;1572503271407;5727;15595333246;29073372503;479634453;309341505;4047197869;92722;279634305;312;5;586400;3;1415;2675
0;97;1572503271407;1572503277873;6466;15578235624;29073371116;481830761;310403375;4047197389;97245;279644434;313;3;586400;0;1395;2640
0;98;1572503277874;1572503283501;5627;15641191116;29073377783;479653391;306517743;4047198814;92952;279639710;319;3;586424;0;1350;2595
0;99;1572503283501;1572503289355;5854;15630615314;29073372340;479821307;310255803;4047197676;94426;279639341;309;7;586400;0;1302;2495
0;100;1572503289355;1572503295472;6117;15586104732;29073371616;480809668;307961877;4047197537;97884;279638714;445;57;605360;0;1902;10311
0;101;1572503295472;1572503301341;5869;15485591762;29073376528;486382952;304710931;4047198696;94189;279644951;393;9;587240;-3;1816;5710
0;102;1572503301341;1572503306920;5579;15504978810;29073406359;482220078;307630364;4047204420;87630;279642740;315;6;586400;3;1394;2624
0;103;1572503306920;1572503312765;5845;15602658358;29073423598;480435767;308169770;4047206514;95890;279639330;317;4;586424;0;1407;2646
0;104;1572503312766;1572503318701;5935;15583566814;29073358039;482953930;309429457;4047195062;92318;279636281;318;5;586400;-3;1376;2655
0;105;1572503318701;1572503324683;5982;15625135496;29073471189;480238552;306952366;4047215032;94214;279639515;415;58;601072;0;1817;8232
0;106;1572503324683;1572503330640;5957;15615226914;29073354359;480032835;308424194;4047194565;92909;279636610;322;7;586472;0;1467;2810
0;107;1572503330640;1572503336679;6039;15600189498;29073346393;480526650;309907065;4047192925;94752;279639050;318;5;586400;3;1398;2634
0;108;1572503336679;1572503342756;6077;15642825586;29073356603;478697254;305806195;4047195075;91960;279641666;324;5;586432;0;1411;2818
0;109;1572503342756;1572503348562;5806;15587826072;29073374614;481939956;310693450;4047198548;94737;279639552;323;4;586400;0;1317;2605
0;110;1572503348562;1572503354511;5949;15636795202;29073362675;479159856;308924624;4047196436;94864;279638468;419;59;599344;0;1734;6793
0;111;1572503354511;1572503360232;5721;15603495814;29073351937;480314826;305951005;4047194105;92190;279637872;325;6;588840;-1;1511;2861
0;112;1572503360232;1572503366831;6599;15602486078;29073347396;480496351;311593854;4047193244;94884;279640847;320;4;584024;1;1392;2676
0;113;1572503366831;1572503372753;5922;15626083766;29073349683;479379079;306725195;4047193617;91883;279632395;328;4;586432;0;1388;2776
0;114;1572503372754;1572503378437;5683;15574275958;29073350366;481358521;306428347;4047193695;89889;279632054;320;5;586400;0;1445;2842
0;115;1572503378437;1572503384262;5825;15666846528;29073358243;479190910;310390279;4047195631;92786;279637635;425;53;600928;-1;1766;7812
1;61;1572503934702;1572503941012;6310;15882424580;28510965913;479348903;306436785;4047202879;91885;279642179;303;1;586400;0;1349;2518
1;62;1572503941012;1572503947243;6231;15815047040;28511003860;481521321;305813166;4047211355;94542;279645656;301;1;586400;0;1362;2496
1;63;1572503947243;1572503953901;6658;15842597824;28511031740;481981584;312642060;4047216315;89287;279648604;410;45;599024;0;1689;5616
1;64;1572503953901;1572503960172;6271;15761550450;28511195134;486429170;304777509;4047245207;95059;279687289;301;0;586400;0;1457;2627
1;65;1572503960172;1572503967017;6845;15887763216;28489359287;481496410;313365367;4048805824;93300;279709311;306;2;586424;0;1419;2603
1;66;1572503967017;1572503973408;6391;15825760082;28473397190;482455066;305751676;4047193978;91701;279628608;302;1;586400;0;1425;2525
1;67;1572503973408;1572503979813;6405;15904553654;28473460200;480904997;307639664;4047206557;93802;279634657;310;2;586480;0;1374;2540
1;68;1572503979813;1572503985954;6141;15912403052;28473380002;481848772;308694125;4047192097;95288;279636681;434;56;600304;-3;1920;11803
1;69;1572503985954;1572503992388;6434;15846922490;28473374866;480844058;308489518;4047190944;94690;279631584;304;0;586400;0;1449;2658
1;70;1572503992388;1572503998515;6127;15922841322;28473378783;480032656;308550490;4047191856;92779;279631676;305;3;586424;0;1394;2542
1;71;1572503998515;1572504004323;5808;15839060244;28473388643;483255470;307020385;4047193801;93858;279630803;303;1;586400;3;1375;2506
1;72;1572504004323;1572504010314;5991;15887765698;28473382850;478994375;309212678;4047192560;92508;279629978;306;2;588712;-1;1314;2438
1;73;1572504010314;1572504016161;5847;15904469996;28473370544;479229465;305527297;4047190417;88630;279633233;428;50;599392;-2;1845;10863
1;74;1572504016162;1572504022444;6282;15833585098;28473386155;480444472;308081046;4047193451;90560;279627548;303;0;586400;3;1489;2658
1;75;1572504022444;1572504028394;5950;15891509284;28473382598;478717136;309252135;4047192535;89947;279629673;310;0;586448;-3;1414;2682
1;76;1572504028394;1572504034526;6132;15844457718;28473374894;480900924;306742087;4047190944;90027;279626843;305;0;586400;3;1354;2532
1;77;1572504034526;1572504040559;6033;15899895232;28473384870;479557111;305801629;4047192966;94649;279630598;307;3;588912;-1;1346;2492
1;78;1572504040559;1572504046714;6155;15897069256;28473382389;480278217;309674496;4047192760;92734;279630835;398;53;597368;1;1913;8243
1;79;1572504046714;1572504052869;6155;15821981894;28473373599;481572423;307404217;4047190754;92646;279633656;304;0;586400;-3;1442;2541
1;80;1572504052869;1572504058923;6054;15938737364;28473378946;478535422;307575258;4047191782;88943;279628374;307;1;586432;3;1394;2561
1;81;1572504058923;1572504065014;6091;15867530098;28473380723;479374679;308822159;4047192177;92271;279632893;304;0;586400;0;1384;2542
1;82;1572504065014;1572504071235;6221;15867199116;28473377113;480651592;308587442;4047191440;94385;279633049;307;3;586472;-3;1383;2616
1;83;1572504071235;1572504077359;6124;15911181178;28503112132;479941304;308103302;4047213305;92850;279634778;387;59;599408;3;1726;6195
1;84;1572504077359;1572504083688;6329;15836146376;28510891690;481204621;307341566;4047194666;96958;279629962;304;1;586400;0;1461;2607
1;85;1572504083688;1572504089602;5914;15871524512;28510858977;480537333;309369606;4047188727;94458;279629940;308;1;586432;0;1450;2641
1;86;1572504089602;1572504095738;6136;15879117972;28510867617;481815319;307259130;4047190407;91659;279631632;302;3;586400;0;1392;2602
1;87;1572504095738;1572504101990;6252;15890109290;28510861560;479636676;308178751;4047189068;90017;279628821;308;2;586464;-3;1427;2599
1;88;1572504101990;1572504108245;6255;15867238390;28510864110;479569519;309878918;4047189304;92304;279630991;402;54;599216;0;1706;6574
1;89;1572504108245;1572504114833;6588;15898946524;28510852414;478617830;305700586;4047187240;90502;279628835;308;0;586400;3;1440;2642
1;90;1572504114833;1572504121015;6182;15845124792;28510856805;480754753;309606696;4047188190;96248;279628041;311;2;586432;0;1389;2677
1;91;1572504121016;1572504128382;7366;15868778398;28510852681;480728359;310838602;4047187458;100490;279638081;862;45;642928;0;4084;19797
1;92;1572504128382;1572504135283;6901;15858167118;28510846118;480554279;308443773;4047186023;89693;279629046;309;7;586464;0;1445;2731
1;93;1572504135283;1572504141587;6304;15854888980;28510856279;481848711;309618774;4047188131;95298;279633874;308;2;586400;0;1414;2622
1;94;1572504141587;1572504147968;6381;15844339312;28510856485;481431643;307901675;4047188061;93086;279630205;312;2;586432;0;1393;2634
1;95;1572504147968;1572504154067;6099;15859485936;28510858737;482057048;306393769;4047188606;91903;279634671;311;4;586400;0;1331;2602
1;96;1572504154068;1572504161069;7001;15860194912;28510839857;479307636;308017030;4047184863;92270;279628997;405;75;603568;0;1800;7170
1;97;1572504161069;1572504167172;6103;15856113336;28510850341;482518607;309247075;4047187290;89909;279630095;393;3;587216;-3;1724;5310
1;98;1572504167172;1572504172933;5761;15862689176;28510879377;481955153;307099070;4047192300;86753;279621249;310;2;586400;3;1393;2612
1;99;1572504172934;1572504179365;6431;15857167602;28510861571;481335228;308892929;4047189136;89678;279631135;315;3;586432;-3;1415;2799
1;100;1572504179365;1572504185955;6590;15871859728;28510855993;480358142;309435351;4047187919;90957;279627533;388;71;576264;17;1639;7136
1;101;1572504185955;1572504192049;6094;15861060984;28510868891;481412561;304688154;4047190516;84016;279618488;325;4;611624;-14;1656;4345
1;102;1572504192049;1572504198576;6527;15845187426;28510889693;481297689;308428855;4047194224;94992;279634318;318;2;586464;0;1532;2881
1;103;1572504198577;1572504204980;6403;15869101058;28510911493;480632455;308330112;4047197742;89799;279625324;312;4;586400;0;1408;2654
1;104;1572504204981;1572504211024;6043;15871933896;28510887317;482487568;305127095;4047194086;87040;279623353;319;4;586440;0;1341;2608
1;105;1572504211024;1572504217207;6183;15886138382;28510839083;480435077;309598704;4047185060;91291;279626900;427;44;599088;0;1614;8195
1;106;1572504217207;1572504223520;6313;15850592784;28510835111;481277348;307805981;4047184326;94567;279625159;315;4;586400;0;1493;2749
1;107;1572504223520;1572504229715;6195;15883766758;28510844440;482230373;307440319;4047186157;88358;279625548;320;3;586464;-3;1440;2811
1;108;1572504229715;1572504235916;6201;15896123614;28510837547;480679570;308389454;4047184788;92753;279628550;317;2;590496;1;1396;2674
1;109;1572504235917;1572504241909;5992;15843482876;28510842688;481882947;307139075;4047185896;91991;279625584;318;1;582344;2;1364;2634
1;110;1572504241909;1572504247978;6069;15863399758;28510845792;481195314;308370267;4047186417;89435;279623723;422;50;598800;-3;1703;7662
2;66;1572504793677;1572504799139;5462;15568329524;29073406396;480778208;307954233;4047199260;91604;279637271;303;0;586400;0;1450;2562
2;67;1572504799139;1572504804778;5639;15568081470;29073461442;482561182;307552174;4047210327;94793;279642397;309;1;586448;0;1385;2530
2;68;1572504804778;1572504810442;5664;15556870860;29073378856;480611824;306233881;4047195153;90848;279639399;304;0;586400;0;1367;2550
2;69;1572504810442;1572504816103;5661;15568071396;29073374934;483707046;307463928;4047194407;90629;279639239;303;1;586400;0;1335;2443
2;70;1572504816103;1572504822777;6674;15584278856;29073368170;482179948;310842113;4047193007;97546;279643711;444;52;603440;-2;1722;8871
2;71;1572504822778;1572504829010;6232;15559368336;29073378269;481708617;310944012;4047195079;96189;279643477;302;0;582304;2;1480;2702
2;72;1572504829011;1572504834533;5522;15522542318;29073372566;481980028;308440651;4047193934;91242;279633531;305;0;586400;-3;1440;2622
2;73;1572504834533;1572504840376;5843;15562925188;29073362580;480726542;305437979;4047192161;91382;279638251;310;1;586448;3;1418;2654
2;74;1572504840376;1572504846629;6253;15570763928;29073371527;481798108;309952195;4047193831;95455;279648421;305;0;586400;0;1365;2546
2;75;1572504846629;1572504852938;6309;15552888710;29073375577;482314914;307982630;4047194586;94819;279640537;418;36;599072;0;1618;7096
2;76;1572504852938;1572504858877;5939;15618679376;29073372884;480048283;306818481;4047194080;92861;279639050;304;1;586400;0;1539;2729
2;77;1572504858877;1572504865220;6343;15576318352;29073380010;480755731;308475861;4047195472;92253;279645062;306;0;586400;0;1401;2594
2;78;1572504865220;1572504870909;5689;15545846838;29073381491;481083483;306482878;4047195911;91890;279638499;312;2;586456;0;1360;2542
2;79;1572504870910;1572504876914;6004;15523345464;29073365006;483389198;310358970;4047192311;91742;279637998;307;1;590496;-2;1412;2535
2;80;1572504876914;1572504882753;5839;15596356560;29073372580;481540307;306310177;4047193984;94999;279645313;307;0;582344;2;1320;2493
2;81;1572504882753;1572504889272;6519;15580830628;29073366061;481674342;308266298;4047192708;99792;279652693;422;38;599248;0;1797;8056
2;82;1572504889272;1572504894880;5608;15556248754;29073373992;480206223;307705445;4047194197;89269;279631679;307;1;586400;0;1438;2578
2;83;1572504894880;1572504900519;5639;15521520756;29073387946;481142869;302937967;4047197408;85228;279631610;312;3;586464;0;1407;2595
2;84;1572504900519;1572504905963;5444;15593086306;29073409787;480955609;307754638;4047200958;93720;279639505;308;0;586400;0;1329;2485
2;85;1572504905963;1572504912007;6044;15585690092;29073372457;480416653;307589484;4047193983;94153;279640477;309;0;586440;-3;1368;2616
2;86;1572504912007;1572504917719;5712;15527564134;29073378415;481606100;305623991;4047195140;91039;279635497;424;58;603376;3;1843;9233
2;87;1572504917719;1572504923416;5697;15539920406;29073379722;481467262;305942900;4047195359;87497;279635404;306;1;586400;0;1454;2600
2;88;1572504923417;1572504929324;5907;15602684638;29073384813;479857813;309011272;4047196059;92391;279639447;314;1;586456;-3;1398;2625
2;89;1572504929324;1572504935535;6211;15576519102;29073378465;480075353;307872225;4047195149;96081;279643788;307;0;586400;3;1400;2613
2;90;1572504935535;1572504941735;6200;15539769004;29073371625;484192365;312016860;4047194038;104196;279657224;852;51;642608;0;4646;29864
2;91;1572504941736;1572504948109;6373;15610201594;29073371829;480963474;308209744;4047193985;95334;279641216;311;2;586448;-3;1418;2667
2;92;1572504948109;1572504953917;5808;15545987436;29073373196;482888208;308764674;4047194097;93441;279640674;313;0;586400;3;1364;2616
2;93;1572504953917;1572504959554;5637;15575538858;29073373611;481742356;309199362;4047194172;90952;279637863;316;0;586448;0;1336;2626
2;94;1572504959554;1572504965145;5591;15520402250;29073372295;482916673;306021572;4047194045;90676;279635374;309;3;586400;0;1308;2545
2;95;1572504965145;1572504971396;6251;15560786872;29073366914;481323204;308541439;4047192875;94163;279640469;431;56;601104;0;1668;8823
2;96;1572504971396;1572504977331;5935;15581967676;29073363871;481354944;309478955;4047192314;90995;279637873;391;4;587208;0;1871;6414
2;97;1572504977331;1572504983024;5693;15529335552;29073371352;481555461;306435023;4047193859;94037;279637728;312;2;586400;0;1447;2713
2;98;1572504983024;1572504988859;5835;15581696846;29073390526;482286898;308079749;4047197192;89656;279633378;321;0;586456;-3;1376;2638
2;99;1572504988859;1572504995163;6304;15534703096;29073368384;481192070;308170071;4047193115;92765;279640096;310;4;586400;0;1383;2605
2;100;1572504995163;1572505001569;6406;15545036538;29073366704;482155508;308375819;4047192827;94878;279640828;437;57;601680;3;1721;9179
2;101;1572505001569;1572505007741;6172;15585229316;29073376044;480205165;310129363;4047194683;94907;279641338;316;2;586448;0;1517;2796
2;102;1572505007741;1572505013619;5878;15510364604;29073379806;483037746;303785020;4047195469;93084;279635809;315;0;586400;0;1442;2686
2;103;1572505013619;1572505019860;6241;15549973528;29073428116;480694342;311134822;4047203779;84273;279645457;317;6;586456;0;1429;2735
2;104;1572505019860;1572505025876;6016;15547615190;29073399455;482153358;307010425;4047198962;97689;279635744;313;3;586400;0;1325;2512
2;105;1572505025876;1572505031780;5904;15589244754;29073375554;479463772;306779950;4047194545;90961;279636241;414;53;599440;0;1544;6354
2;106;1572505031780;1572505038065;6285;15623916104;29073344179;478639720;309555499;4047188714;96737;279638580;316;4;586440;0;1448;2683
2;107;1572505038065;1572505043948;5883;15514005552;29073353332;483646388;307771196;4047190446;91306;279629654;319;2;586400;0;1411;2703
2;108;1572505043948;1572505049791;5843;15568736134;29073354030;481360468;309023206;4047190794;91230;279633974;324;3;586456;0;1342;2565
2;109;1572505049791;1572505055841;6050;15544503492;29073351004;484751211;307443826;4047190028;88916;279630752;319;2;586400;0;1400;2725
2;110;1572505055841;1572505061321;5480;15561236990;29073359454;481275348;306579662;4047191731;87323;279624776;320;2;586400;-3;1339;2602
2;111;1572505061321;1572505067292;5971;15603560346;29073362505;480575051;308399530;4047192763;88994;279630818;418;54;599456;3;1797;6718
2;112;1572505067292;1572505073541;6249;15505539304;29073361213;483454479;306191687;4047191978;91162;279632307;321;4;586400;0;1446;2806
2;113;1572505073541;1572505079837;6296;15609962008;29073351710;479978467;307742910;4047190241;94033;279634451;317;4;586400;0;1383;2660
2;114;1572505079837;1572505085326;5489;15538599982;29073351708;482744243;306905177;4047190354;88279;279626536;328;1;586448;-3;1364;2670
2;115;1572505085326;1572505091078;5752;15559265844;29073352227;481081730;306401806;4047190353;91355;279631344;315;7;586400;3;1318;2554
3;65;1572505640143;1572505645616;5473;15375666464;28510945627;482846190;300561040;4047208066;85925;279633435;405;42;599312;0;1710;6716
3;66;1572505645618;1572505652152;6534;15533820964;28510891654;477285195;312479773;4047198579;83555;279642029;303;0;586400;0;1569;2920
3;67;1572505652153;1572505658006;5853;15444987556;28510945928;479887001;306087428;4047209398;90150;279630494;307;2;586440;0;1380;2548
3;68;1572505658006;1572505663907;5901;15519530922;28510866674;479090381;305397737;4047195029;88858;279632851;304;0;586400;0;1376;2532
3;69;1572505663907;1572505669660;5753;15503906148;28510857853;480607758;307124443;4047193269;91032;279632010;309;0;586472;0;1364;2514
3;70;1572505669660;1572505676306;6646;15508558146;28510857883;479733373;308962322;4047193231;94049;279634447;457;61;603984;0;1891;15965
3;71;1572505676306;1572505682800;6494;15521778592;28510855908;478461992;306976292;4047193037;90988;279638960;304;0;586400;-3;1487;2700
3;72;1572505682800;1572505689221;6421;15519452228;28510852457;479056324;307938781;4047192173;89961;279631689;307;2;586440;0;1445;2665
3;73;1572505689221;1572505695224;6003;15526903338;28510843944;480108363;308290390;4047190561;88166;279629972;304;1;586400;3;1354;2516
3;74;1572505695227;1572505700894;5667;15497754438;28510869193;482324594;306145194;4047195888;88436;279633360;306;1;586448;0;1393;2571
3;75;1572505700894;1572505706746;5852;15515874790;28510857560;479738751;305749121;4047193292;93363;279631157;517;45;609872;0;2009;20768
3;76;1572505706747;1572505712686;5939;15473227460;28510857712;479337965;307698940;4047193230;92647;279630575;303;1;586400;-3;1466;2647
3;77;1572505712686;1572505718456;5770;15512831128;28510865769;479383653;307350779;4047194836;90180;279628273;311;2;586448;3;1433;2726
3;78;1572505718456;1572505724158;5702;15473218554;28510870007;479960004;303557664;4047196014;87407;279625937;304;0;586400;0;1362;2529
3;79;1572505724158;1572505729686;5528;15508000134;28510861150;479270998;308381815;4047193883;87818;279625073;307;1;590496;-2;1320;2446
3;80;1572505729686;1572505735900;6214;15522508446;28510864070;479497096;307178182;4047194532;93676;279637176;455;30;597608;-1;1763;11748
3;81;1572505735900;1572505741543;5643;15487853448;28510859540;481424936;306259403;4047193697;86166;279630903;304;2;586400;3;1445;2667
3;82;1572505741543;1572505747123;5580;15509223322;28510858480;479909646;306523242;4047193385;88251;279625758;309;1;586440;-3;1400;2567
3;83;1572505747123;1572505753043;5920;15502487612;28510870346;481153886;305552739;4047196299;91612;279632032;303;2;586400;3;1372;2480
3;84;1572505753043;1572505759220;6177;15509408888;28510888756;479502916;307269196;4047198995;91503;279631630;305;2;590496;-2;1393;2582
3;85;1572505759220;1572505765324;6104;15546513328;28510852385;479613007;305912619;4047192316;92020;279637011;435;45;595816;2;1677;9324
3;86;1572505765324;1572505772007;6683;15473156358;28510851351;479488611;307876357;4047191981;89292;279632867;305;1;586400;0;1495;2679
3;87;1572505772007;1572505778006;5999;15541019932;28510877705;477951100;308383653;4047196855;92448;279630540;311;4;586448;0;1410;2603
3;88;1572505778006;1572505783616;5610;15495413328;28510858602;479400280;303599573;4047193504;87693;279628592;304;3;586400;-3;1393;2545
3;89;1572505783616;1572505789507;5891;15493427582;28510864751;479262527;307962522;4047194688;92216;279628195;308;0;586400;3;1327;2461
3;90;1572505789507;1572505795278;5771;15527460036;28510858768;478144248;308241030;4047193494;89561;279629560;448;26;599776;0;1785;14063
3;91;1572505795278;1572505801178;5900;15484231480;28510859420;480810572;307138589;4047193806;91136;279633039;310;0;586400;0;1455;2628
3;92;1572505801178;1572505806812;5634;15498153164;28510863485;479264838;303631361;4047194551;88514;279627744;307;4;590496;-2;1434;2529
3;93;1572505806813;1572505812946;6133;15531506864;28510848870;479089131;307305313;4047191589;94306;279633597;308;5;582352;2;1387;2572
3;94;1572505812946;1572505819088;6142;15456706684;28510856608;481490842;305967980;4047193156;95053;279631001;310;2;586400;-3;1372;2546
3;95;1572505819088;1572505825418;6330;15518992912;28510849725;481822607;308047399;4047191803;92498;279636648;430;54;603688;1;1652;8973
3;96;1572505825418;1572505831293;5875;15459410312;28510852826;482518842;307272136;4047192506;90429;279631276;309;1;582304;-1;1496;2725
3;97;1572505831293;1572505837237;5944;15507979402;28510855585;481327492;309493322;4047193155;98275;279641845;867;65;648624;3;4626;30545
3;98;1572505837237;1572505843212;5975;15516474558;28510868628;481206818;307329906;4047195204;92615;279635053;315;2;586432;0;1401;2679
3;99;1572505843212;1572505849167;5955;15476538156;28510851691;481609890;305550376;4047192084;92519;279630878;314;1;586400;0;1370;2626
3;100;1572505849168;1572505854991;5823;15522707882;28510853628;479222448;306879028;4047192482;90062;279631936;319;0;586472;0;1371;2611
3;101;1572505854992;1572505860966;5974;15517024686;28510864986;480923364;307512734;4047194809;88093;279628732;311;5;586400;0;1313;2577
3;102;1572505860966;1572505866560;5594;15530771462;28510864423;481794220;303642155;4047194860;87923;279629851;468;63;607824;0;1788;14177
3;103;1572505866560;1572505873004;6444;15535313522;28510907724;479375813;309786692;4047202086;91510;279632956;392;6;587176;0;1855;5536
3;104;1572505873004;1572505878966;5962;15445194438;28510882196;480507462;305774862;4047197834;90815;279622841;309;4;586400;-3;1473;2712
3;105;1572505878966;1572505884649;5683;15493793604;28510856798;480755493;305285192;4047192956;86932;279625203;320;2;586464;3;1376;2670
3;106;1572505884649;1572505890796;6147;15536335668;28510836738;477349866;307912712;4047189668;89089;279626210;312;3;586400;0;1356;2552
3;107;1572505890796;1572505897010;6214;15456934444;28510835476;479550614;305630360;4047189255;86762;279621718;441;49;600848;-3;1667;8255
3;108;1572505897010;1572505902893;5883;15511818910;28510833541;478838472;308603233;4047188959;84101;279622076;316;5;586448;3;1498;2757
3;109;1572505902893;1572505908373;5480;15529345334;28510839658;479609080;303537542;4047190104;84537;279621778;312;5;586400;0;1434;2732
3;110;1572505908373;1572505914616;6243;15536523132;28510837225;481190945;307709409;4047189603;93026;279633464;317;2;588960;-1;1408;2606
3;111;1572505914616;1572505920589;5973;15534466722;28510846576;478645434;309041073;4047191837;87465;279625155;315;5;583888;1;1359;2560
3;112;1572505920589;1572505926088;5499;15466072876;28510860316;479216229;301648940;4047194080;81644;279616514;314;4;586400;0;1287;2509
3;113;1572505926088;1572505932291;6203;15508510696;28510834291;479517844;307572172;4047189025;87330;279625018;447;54;599448;0;1779;10227
3;114;1572505932291;1572505938086;5795;15490590948;28510835053;481561258;307563436;4047189297;89006;279625443;311;8;586400;0;1476;2660
4;65;1572506478573;1572506484392;5819;15513442138;28473483952;479913899;308003863;4047218040;88916;279626709;398;68;605104;0;1805;8025
4;66;1572506484392;1572506490249;5857;15523656006;28473425064;484188503;302305639;4047207901;88174;279627091;302;0;586400;-3;1522;2721
4;67;1572506490249;1572506496529;6280;15382327422;28473482547;485163106;304671412;4047219138;88961;279629184;306;3;586440;3;1411;2656
4;68;1572506496530;1572506502755;6225;15504627388;28473395041;482672533;306894520;4047203149;88728;279628025;303;0;586400;0;1384;2548
4;69;1572506502755;1572506508777;6022;15543228036;28473397575;480243726;304832507;4047203725;92185;279623017;310;0;586464;-3;1360;2532
4;70;1572506508777;1572506514300;5523;15601590222;28473396563;478237625;306987806;4047203629;93153;279626517;383;55;599152;3;1772;6101
4;71;1572506514301;1572506520219;5918;15600700352;28473402965;478740961;307770554;4047204850;94448;279630825;302;2;586400;-3;1477;2663
4;72;1572506520219;1572506525781;5562;15523847266;28473497466;481405377;305292809;4047222814;90683;279624147;310;2;590536;1;1398;2600
4;73;1572506525781;1572506532386;6605;15598786730;28473374207;481538837;308295283;4047199682;93030;279625910;301;1;582304;2;1348;2531
4;74;1572506532386;1572506538643;6257;15522053656;28473364050;481523129;307946898;4047197507;93615;279623249;304;5;586448;-3;1311;2448
4;75;1572506538643;1572506544525;5882;15604040686;28473375897;478447265;307948985;4047199862;96202;279627435;398;42;599408;3;1730;7988
4;76;1572506544525;1572506550424;5899;15582675776;28473376473;479671731;307262121;4047200040;91815;279623368;305;0;586400;0;1441;2644
4;77;1572506550424;1572506556552;6128;15554300238;28473380205;480909290;303695031;4047200644;95587;279624475;309;3;586448;0;1433;2650
4;78;1572506556552;1572506562425;5873;15609427064;28473382973;478049730;307181772;4047201575;95181;279623589;305;0;586400;-3;1391;2582
4;79;1572506562425;1572506568443;6018;15547418966;28473374651;481187623;304597646;4047199659;96214;279627168;307;2;586464;0;1369;2529
4;80;1572506568443;1572506574734;6291;15613205398;28473372160;479996220;307392734;4047199106;92132;279626994;400;44;599152;3;1832;6818
4;81;1572506574734;1572506580655;5921;15577009662;28473371442;478908130;307775708;4047199033;93390;279623124;305;0;586400;-3;1531;2716
4;82;1572506580655;1572506586838;6183;15530893080;28473376080;480377860;306571428;4047199950;94753;279625962;310;2;586440;3;1400;2638
4;83;1572506586838;1572506592651;5813;15599934144;28473389600;478858008;309465771;4047203108;89775;279625045;306;0;586400;0;1353;2490
4;84;1572506592651;1572506598850;6199;15541328868;28473408061;479588873;305315645;4047205757;94829;279624219;306;1;586400;0;1337;2485
4;85;1572506598850;1572506604675;5825;15613088306;28473373412;477699338;307469443;4047199470;91139;279623562;401;42;599024;0;1646;5864
4;86;1572506604675;1572506611006;6331;15592566400;28473374664;478270004;307922438;4047199693;88289;279622827;304;2;586400;0;1450;2646
4;87;1572506611007;1572506616894;5887;15564456144;28473365717;479662443;304380414;4047197879;87206;279618785;310;0;586440;-3;1451;2813
4;88;1572506616895;1572506622860;5965;15581023640;28473392541;480558959;309353914;4047202897;93369;279627521;305;0;586400;3;1380;2552
4;89;1572506622860;1572506629021;6161;15582368154;28473370861;480792672;309363567;4047199280;101123;279636993;843;69;642896;-3;4379;28417
4;90;1572506629021;1572506635144;6123;15572770844;28473374163;481603007;308338533;4047199380;85867;279618784;308;6;586456;0;1495;2669
4;91;1572506635144;1572506640957;5813;15628008776;28473374267;480282163;307703377;4047199553;90729;279621816;308;1;586400;3;1379;2596
4;92;1572506640958;1572506647100;6142;15565264984;28473371173;480699387;307787852;4047198993;93966;279623861;313;2;586440;0;1410;2625
4;93;1572506647100;1572506653135;6035;15583346646;28473373359;480346133;309463089;4047199403;95864;279627444;309;1;586400;-3;1326;2492
4;94;1572506653135;1572506658992;5857;15582140394;28473369567;480128933;304981038;4047198693;93821;279621460;408;54;600368;0;1739;6912
4;95;1572506658993;1572506664787;5794;15566547302;28473365015;481877891;306416565;4047197856;96027;279620504;387;3;587200;3;1769;5871
4;96;1572506664787;1572506670746;5959;15581715972;28473365601;479627575;309005165;4047198111;91970;279623798;309;2;590496;-2;1452;2704
4;97;1572506670747;1572506676722;5975;15546041018;28473381046;480211580;305719155;4047201034;92813;279625098;313;2;582352;-1;1359;2616
4;98;1572506676722;1572506682861;6139;15590174482;28473382825;478775157;305717835;4047200952;92504;279619623;306;7;586400;0;1371;2495
4;99;1572506682861;1572506689113;6252;15574034474;28473367632;479584141;308201638;4047198258;95618;279621859;419;62;605584;1;1785;8457
4;100;1572506689113;1572506695452;6339;15594492432;28473366286;479305702;308602209;4047198004;96586;279629763;312;3;582360;2;1466;2649
4;101;1572506695452;1572506701210;5758;15624446230;28473376823;481713123;307786602;4047200140;89329;279621731;309;2;586400;0;1407;2653
4;102;1572506701210;1572506707344;6134;15572854502;28473381959;479926106;308213946;4047201358;95448;279629739;317;3;590528;-2;1365;2572
4;103;1572506707344;1572506713102;5758;15593285888;28473439221;480196827;307620573;4047211235;92854;279621224;308;2;582304;2;1301;2525
4;104;1572506713103;1572506718798;5695;15562390244;28473426733;480463966;309298741;4047209026;91693;279620515;400;46;598960;-3;1604;5580
4;105;1572506718798;1572506724614;5816;15575858598;28473351213;481857704;303895903;4047195428;90686;279616992;315;2;586472;0;1469;2771
4;106;1572506724614;1572506730512;5898;15551841890;28473349917;480831901;307887206;4047195137;89856;279618129;310;3;586400;3;1388;2571
4;107;1572506730512;1572506736378;5866;15606944772;28473347600;479945669;308584355;4047194695;91615;279616063;311;1;586400;0;1357;2553
4;108;1572506736378;1572506742084;5706;15566982236;28473348096;479286239;305013659;4047194765;87885;279616995;310;9;586440;0;1407;2591
4;109;1572506742084;1572506747915;5831;15550948954;28473348870;480121691;307524286;4047195032;90582;279617884;419;48;599536;0;1599;6687
4;110;1572506747915;1572506753792;5877;15592066934;28473359761;478528791;308560408;4047197124;91415;279620306;317;3;590536;-2;1473;2632
4;111;1572506753792;1572506760214;6422;15546415508;28473368160;481156976;308438599;4047199114;90861;279617931;309;2;582304;2;1420;2555
4;112;1572506760214;1572506766322;6108;15599825958;28473353866;479623793;308206097;4047196339;92743;279620684;313;5;586400;-3;1382;2579
4;113;1572506766322;1572506772471;6149;15577126170;28473356053;478858060;306322662;4047196075;95431;279620965;317;5;586456;3;1394;2585
4;114;1572506772472;1572506778602;6130;15586152036;28473348363;479049998;307885220;4047194873;93233;279619424;415;50;599152;-3;1647;6563
