0;35;1573667123913;1573667130239;6326;16545047916;28982198947;519192612;346471470;4254239358;106015;289020661;842;61;1353288;-8;6326;915212
0;36;1573667130239;1573667138269;8030;16385669498;28982208480;522791865;340321285;4254241304;111074;289023089;837;20;1582488;27;8031;1152911
0;37;1573667138269;1573667153077;14808;16341581878;28988964524;523886240;340572561;4256492676;110919;289026449;1741;35;3237080;-93;14807;2010819
0;38;1573667153077;1573667159446;6369;16547782350;28982218813;521265181;342951167;4254243346;106581;289017970;799;76;1282760;69;6369;852253
0;39;1573667159446;1573667165846;6400;16269581102;28982219297;528303868;339815782;4254243772;107506;289022916;688;14;1280256;17;6400;919496
0;40;1573667165846;1573667172658;6812;16647285146;28984496539;520120126;347285441;4254999625;116747;289026890;807;27;1498624;-7;6812;976683
0;41;1573667172658;1573667179840;7182;16384729404;28986675375;523443431;343812824;4255737259;108052;289020034;840;25;1543744;-8;7182;1036008
0;42;1573667179840;1573667187681;7841;16432218386;28982168681;522996297;342767132;4254235783;109530;289019169;1011;71;1719568;22;7842;1128126
0;43;1573667187681;1573667203161;15480;16422823140;28984444195;523689796;344815733;4254991034;109138;289019970;1705;55;3186824;-3;15480;1991019
0;44;1573667203161;1573667210581;7420;16474430636;28986682188;522615370;350302945;4255738689;105549;289018459;888;23;1642704;-24;7419;1071223
0;45;1573667210581;1573667217167;6586;16398128116;28982182491;522573199;342848881;4254238724;105955;289019380;870;72;1396232;20;6595;952709
0;46;1573667217175;1573667223289;6114;16309597804;28982176669;524057360;341614693;4254237487;103726;289016190;684;14;1263328;-12;6113;872008
0;47;1573667223289;1573667230357;7068;16349130078;28988931520;522930730;345463192;4256488517;102117;289016834;785;19;1434120;15;7068;1015807
0;48;1573667230357;1573667245264;14907;16350415900;28982179786;525797558;343606239;4254238164;110761;289023371;1788;49;3282392;-113;14907;2017211
0;49;1573667245264;1573667251841;6577;16424050124;28982175915;522815646;345194806;4254237621;111099;289030375;830;78;1308560;90;6577;747505
0;50;1573667251841;1573667258294;6453;16496087838;28988915796;523861187;345482755;4256485350;105857;289016954;721;22;1308424;15;6454;926758
0;51;1573667258295;1573667265188;6893;16335798088;28982292984;523581428;344839373;4254261010;107842;289028057;834;27;1530816;-2;6894;988053
0;52;1573667265189;1573667271861;6672;16278355410;28923778191;513605865;330776091;4185257285;108117;289048365;800;26;1444824;0;6672;958826
0;53;1573667271861;1573667279986;8125;16111298998;28817649091;507654559;323351854;4149328895;119132;286629069;1065;66;1730872;-11;8125;1175525
0;54;1573667279986;1573667295061;15075;15897352934;28511115930;484769205;310161454;4047236237;116727;279697668;1710;80;3127240;18;15075;1918019
0;55;1573667295061;1573667302145;7084;15974309242;28511109450;485057606;314305440;4047236933;105407;279654939;854;36;1551992;10;7085;1014107
0;56;1573667302145;1573667308604;6459;16022906802;28510920574;484546499;311797687;4047201546;102812;279650540;759;28;1386072;-22;6459;926841
0;57;1573667308605;1573667314980;6375;15988076166;28510923375;483497794;314810959;4047202052;101662;279652500;848;80;1338296;-1;6375;912941
0;58;1573667314980;1573667322518;7538;15763569776;28510931869;487370722;305330939;4047203696;101275;279644783;832;30;1505280;0;7539;1082490
0;59;1573667322519;1573667338181;15662;15937720328;28510930124;484304299;313993163;4047203371;101469;279649705;1915;53;3438232;-85;15663;2061627
0;60;1573667338181;1573667344191;6010;15843023706;28510966131;489486865;311987348;4047210299;100378;279643733;774;88;1174080;93;6010;801086
0;61;1573667344192;1573667350564;6372;15971560208;28510959592;484602804;313226992;4047210251;103299;279649300;710;21;1286360;-6;6372;913697
0;62;1573667350564;1573667357160;6596;15831272896;28510935845;488011158;310651071;4047204983;104682;279646718;815;29;1474424;17;6596;943061
0;63;1573667357160;1573667364239;7079;15886308326;28510939620;485197461;311036118;4047205781;104170;279651203;850;35;1518816;-18;7079;1017286
0;64;1573667364239;1573667373033;8794;15833991708;28510929015;484252499;309375604;4047203469;107593;279650958;1229;62;1766368;23;8794;1280323
0;65;1573667373033;1573667389184;16151;15853601990;28510922279;484728003;309933171;4047204329;107955;279649904;2004;71;3087640;-3;16151;2146143
0;66;1573667389184;1573667396141;6957;15820870688;28510881874;488887766;310567778;4047197159;100416;279644705;860;29;1531600;-28;6957;995292
0;67;1573667396141;1573667402577;6436;15950010316;28510938191;486256816;313925092;4047208096;104448;279646935;887;75;1338624;30;6436;935445
0;68;1573667402577;1573667410457;7880;15722953890;28510864199;485996764;307574959;4047194822;98956;279638648;986;35;1623232;-22;7880;1145461
0;69;1573667410457;1573667418839;8382;15499429934;28510857737;488361451;297713116;4047193504;100870;279634480;940;43;1673120;20;8382;1201783
0;70;1573667418839;1573667434475;15636;15912020386;28510878509;484026219;312422985;4047197878;102332;279653376;2035;144;3360160;0;15636;1878374
0;71;1573667434475;1573667440804;6329;16044964336;28510871538;483297627;313988148;4047196647;101204;279645644;702;28;1235560;2;6330;909632
0;72;1573667440805;1573667446768;5963;15948375116;28510873857;486155197;312573024;4047197065;96015;279640089;718;29;1277704;-14;5964;855892
0;73;1573667446768;1573667453887;7119;16093395748;28510877670;480772144;319125162;4047197856;99318;279644446;877;33;1538832;-13;7118;1021588
0;74;1573667453887;1573667461698;7811;15882442976;28510851051;486273634;309536913;4047192316;103440;279639670;964;31;1704656;28;7811;1126307
0;75;1573667461698;1573667477179;15481;15987275502;28510867746;483845009;312534695;4047196083;102418;279642939;1933;105;3215120;-62;15481;2047168
0;76;1573667477179;1573667483566;6387;15881623186;28510859082;487240116;311145955;4047194118;98152;279644623;776;32;1354904;58;6387;883114
0;77;1573667483566;1573667490243;6677;15879498594;28510865685;486960500;311104230;4047195364;98613;279643497;843;30;1468288;-11;6677;957782
0;78;1573667490243;1573667496566;6323;15978014138;28510879263;484422505;316319478;4047197969;95020;279637651;876;79;1342344;13;6323;905348
0;79;1573667496566;1573667504392;7826;15769606292;28510864367;486498458;305702837;4047195042;100156;279641722;951;34;1643936;-23;7826;1127516
0;80;1573667504392;1573667513194;8802;15861388900;28510862288;485851631;309051063;4047194607;100120;279638356;1056;42;1830880;0;8803;1262067
0;81;1573667513195;1573667526925;13730;15882923024;28510870756;487573176;309555674;4047196698;99754;279645197;1841;127;2958256;4;13730;1719733
0;82;1573667526925;1573667533596;6671;15893985444;28510858485;486165401;312277530;4047194032;100424;279646985;737;28;1263952;-1;6672;956817
0;83;1573667533597;1573667540020;6423;15928061990;28510876332;485686881;311510274;4047197974;100503;279648078;804;26;1374880;-4;6424;917033
0;84;1573667540020;1573667546501;6481;15868499684;28510894429;486698388;309034048;4047200424;100331;279642823;830;29;1402344;2;6480;930590
1;35;1573667962820;1573667969436;6616;16901644594;29535633616;549635051;384711431;4401221850;102817;293654394;741;21;1394056;-5;6616;949716
1;36;1573667969436;1573667977476;8040;16981001288;29536761120;547645513;383678363;4401597462;106379;293659931;873;16;1645712;-9;8040;1152653
1;37;1573667977476;1573667991485;14009;16901470270;29397935665;541188955;376405239;4367539322;115957;292508434;1638;36;3076440;-11;14010;1709512
1;38;1573667991485;1573667998250;6765;16370122104;28944706382;524820523;342458955;4254241723;114715;289023133;845;75;1329176;22;6765;966849
1;39;1573667998250;1573668004821;6571;16479846068;28944713501;523356638;343149390;4254243159;107754;289019253;733;11;1372720;3;6570;941434
1;40;1573668004821;1573668011049;6228;16383715434;28946997851;524758449;342364224;4255000119;108095;289017190;743;15;1377816;-7;6229;894231
1;41;1573668011049;1573668019272;8223;16493702052;28949216715;521776067;345289867;4255745689;107380;289019421;959;24;1786232;1;8223;1175913
1;42;1573668019272;1573668026290;7018;16339501962;28944675393;524984208;340861101;4254238060;109310;289019491;942;51;1523192;11;7018;1035618
1;43;1573668026290;1573668041218;14928;16435909266;28946955013;523801728;345822377;4254994111;111396;289021728;1654;47;3062896;8;14928;1900112
1;44;1573668041218;1573668047283;6065;16379015402;28949192585;522500646;344069795;4255741633;103980;289017137;733;13;1352256;-29;6065;870796
1;45;1573668047283;1573668053850;6567;16390055630;28944672193;525374843;342508160;4254237541;107754;289017439;766;21;1413608;2;6567;942352
1;46;1573668053850;1573668061002;7152;16437821720;28944678841;522310986;345935731;4254238782;109561;289025240;941;66;1519824;12;7152;1033024
1;47;1573668061002;1573668069379;8377;16395847888;28951437939;522976598;344758071;4256490734;109289;289020496;919;26;1687640;9;8377;1202343
1;48;1573668069379;1573668083763;14384;16316593394;28944676819;524586609;340623715;4254238380;105628;289022247;1721;49;3140928;-43;14384;1744402
1;49;1573668083763;1573668090169;6406;16473948106;28944686316;523232802;344962970;4254240430;104985;289017760;809;70;1262648;37;6406;901827
1;50;1573668090169;1573668096378;6209;16369503940;28951428206;525442436;343198364;4256488852;108375;289022245;693;16;1262528;11;6209;888663
1;51;1573668096379;1573668102955;6576;16503105912;28944789078;523201915;344676372;4254260722;110482;289024205;795;17;1453544;-27;6577;944568
1;52;1573668102955;1573668110382;7427;16249467996;28886256834;516043738;331505471;4185254515;112812;289051648;880;25;1574880;16;7427;1066841
1;53;1573668110382;1573668118539;8157;16207736962;28793446569;507788327;328601237;4153791487;113603;286895495;1076;72;1737256;5;8157;1175527
1;54;1573668118539;1573668132863;14324;15813810274;28473475301;489983041;306898773;4047210186;98873;279644298;1658;41;2979368;-15;14324;1847838
1;55;1573668132863;1573668139731;6868;16060547062;28473458897;483216684;314145386;4047206895;98757;279648153;842;21;1520584;22;6868;984836
1;56;1573668139731;1573668145755;6024;15992603480;28473475944;485659268;313731128;4047210455;99719;279651614;723;19;1304504;-19;6024;865929
1;57;1573668145756;1573668151776;6020;15925214990;28473475093;485706072;309885552;4047210146;96127;279639804;824;61;1274544;-2;6021;873259
1;58;1573668151776;1573668161034;9258;15944341428;28473470359;482863566;310455360;4047209205;101711;279644161;1028;35;1838184;-4;9258;1327674
1;59;1573668161034;1573668175500;14466;15944534294;28473464740;485283496;309921572;4047207976;101898;279650645;1760;53;3148688;-48;14457;1748780
1;60;1573668175501;1573668182012;6511;16058847038;28473451383;483655458;315256600;4047205368;97042;279648046;838;79;1297040;52;6512;883686
1;61;1573668182012;1573668188405;6393;15936578900;28473463903;486507736;311372722;4047208154;98256;279651374;707;28;1282376;-3;6393;919000
1;62;1573668188405;1573668194630;6225;15980881140;28473497808;486843491;311844527;4047215656;99911;279649400;769;30;1358200;-1;6224;891312
1;63;1573668194630;1573668202494;7864;15855575472;28473528821;487654607;309591165;4047221687;105809;279652426;953;37;1698840;7;7864;1128347
1;64;1573668202494;1573668210267;7773;15917540646;28473730773;484809395;311049974;4047257380;114738;279695130;1055;55;1665152;0;7774;1123566
1;65;1573668210268;1573668224903;14635;15910442710;28473745976;486440948;310163996;4047262910;109058;279655578;1696;60;3012688;-9;14636;1913446
1;66;1573668224904;1573668231358;6454;16038666480;28473398155;483710565;314601440;4047200254;100425;279640188;808;33;1430560;24;6454;927612
1;67;1573668231358;1573668237546;6188;15949871324;28473455760;485593299;313009119;4047211638;97734;279637417;751;23;1332184;-15;6189;889724
1;68;1573668237547;1573668243984;6437;15937425992;28473373930;487551941;311231479;4047196661;94747;279629931;906;65;1372536;-5;6438;947493
1;69;1573668243984;1573668252881;8897;15769564244;28473372250;486580304;306856006;4047196384;100110;279633112;997;27;1747240;-5;8897;1278263
1;70;1573668252881;1573668267150;14269;15917554516;28473373123;486075873;310356664;4047196687;98967;279637341;1772;67;3082304;-26;14269;1778843
1;71;1573668267150;1573668273319;6169;16041517568;28473374844;483686676;317496583;4047196988;91848;279631231;831;92;1265920;40;6169;860078
1;72;1573668273319;1573668279406;6087;15957327836;28473380304;483591803;312900779;4047198055;94177;279633812;724;69;1145824;26;6087;882906
1;73;1573668279407;1573668287180;7773;15846499236;28473376951;487326419;309078572;4047197590;110376;279648173;1185;31;1294576;-15;7774;1119134
1;74;1573668287180;1573668296843;9663;15762557996;28473374271;485944544;306340014;4047196835;104230;279641769;1111;47;1972296;-23;9662;1382456
1;75;1573668296843;1573668312599;15756;15725067678;28473366423;487261134;304952608;4047195267;105359;279639512;2038;134;3353512;-103;15683;2101894
1;76;1573668312599;1573668318943;6344;15898024826;28473365094;487496098;312089094;4047195074;95506;279634874;695;29;1229904;115;6343;766384
1;77;1573668318943;1573668324848;5905;16050582562;28473387055;484826982;314135020;4047199340;93633;279633928;777;28;1204472;-5;5906;854420
1;78;1573668324848;1573668330790;5942;15896473138;28473382499;486860324;309858717;4047198842;98758;279637202;760;26;1323728;8;5942;852850
1;79;1573668330790;1573668338287;7497;15979157756;28473370483;484488294;310588670;4047195991;94863;279639691;931;39;1610056;-3;7497;1073708
1;80;1573668338287;1573668346297;8010;15853476722;28473382409;485776052;309962502;4047198267;106078;279637474;1098;88;1700008;-10;8010;1161610
1;81;1573668346297;1573668361917;15620;15877071928;28473370514;485447045;307774522;4047196091;99826;279636101;1859;79;3216528;-6;15620;2082189
1;82;1573668361917;1573668367745;5828;15877583074;28473370136;487280057;308753480;4047196104;96216;279635324;731;34;1286792;8;5828;834638
1;83;1573668367745;1573668374200;6455;16004193106;28473478366;484894573;314550474;4047217421;100875;279642008;932;83;1368416;19;6455;930862
1;84;1573668374200;1573668380413;6213;15874694318;28473387944;487964952;307722495;4047199573;95152;279631682;729;27;1268936;-25;6213;893868
2;34;1573668795218;1573668801893;6675;16406934982;28988976492;526812374;341560777;4256488917;106805;289030066;877;73;1427344;21;6676;949241
2;35;1573668801894;1573668809147;7253;16376153656;28982212173;525771952;346709130;4254235826;105998;289027975;751;16;1419448;17;7254;1039085
2;36;1573668809147;1573668815541;6394;16404784986;28982214957;523947426;345612076;4254236481;104889;289028830;743;19;1384560;-7;6393;918760
2;37;1573668815541;1573668823441;7900;16354584054;28988975111;525500990;345425963;4256488526;109142;289027979;930;15;1729048;-2;7900;1136467
2;38;1573668823441;1573668830856;7415;16396393052;28982222552;524220330;347067090;4254237891;108696;289026164;956;45;1567680;-1;7415;1067691
2;39;1573668830856;1573668845328;14472;16512582918;28982250124;525067517;344919293;4254243937;113358;289036813;1610;42;2995952;8;14473;1824633
2;40;1573668845329;1573668851916;6587;16427885982;28984492713;524794656;346234553;4254993047;109055;289027940;771;22;1417240;-3;6588;947325
2;41;1573668851916;1573668858539;6623;16347015414;28986713343;524711352;345781763;4255738725;106579;289026690;774;27;1449712;-6;6623;952128
2;42;1573668858539;1573668865046;6507;16283826176;28982189040;527563572;340741162;4254234827;104567;289023944;845;54;1374240;-4;6507;935085
2;43;1573668865046;1573668873971;8925;16130659912;28984454347;526437800;335578207;4254987800;109122;289024118;955;26;1772856;5;8924;1279151
2;44;1573668873971;1573668887897;13926;16453722142;28986690613;523524671;347086363;4255734995;105075;289020116;1633;49;3034200;-34;13927;1602537
2;45;1573668887897;1573668894424;6527;16596832218;28982179802;522377392;345642591;4254232895;103140;289020489;877;74;1355488;40;6527;931917
2;46;1573668894424;1573668900889;6465;16409724020;28982176574;525003530;344905591;4254232313;105768;289025347;692;14;1257592;-20;6465;928327
2;47;1573668900889;1573668907223;6334;16461512702;28988938985;524869915;345955773;4256484814;103700;289023688;734;17;1353424;2;6333;910847
2;48;1573668907223;1573668915656;8433;16421130416;28982178802;527122140;343510939;4254232731;109650;289028211;1002;23;1841296;22;8433;1205624
2;49;1573668915656;1573668922735;7079;16423506274;28982186848;525284590;346808107;4254234287;105931;289024100;937;59;1522592;-23;7080;1020590
2;50;1573668922735;1573668936920;14185;16388421744;28988922819;527509356;344369876;4256481355;101593;289020631;1615;48;2935496;12;14185;1989292
2;51;1573668936921;1573668943031;6110;16281605808;28982299185;527455778;342613914;4254256526;106700;289024246;719;18;1305928;-15;6111;873868
2;52;1573668943032;1573668949532;6500;16200813934;28923758424;515367783;328368154;4185248770;104718;289054400;783;22;1420032;17;6501;936676
2;53;1573668949532;1573668956165;6633;16255745850;28925390188;516845635;332183449;4185273935;108820;289053145;900;70;1411168;-4;6633;988336
2;54;1573668956165;1573668965215;9050;16107542710;28929606629;515676840;327506054;4186724393;104726;289035822;1028;32;1866208;-4;9049;1296050
2;55;1573668965215;1573668979384;14169;15914612178;28524592507;487297274;313002819;4051725962;104464;280034815;1668;67;3035832;-14;14173;1757974
2;56;1573668979387;1573668985544;6157;16067237658;28510950372;487620016;315126330;4047200007;98138;279651800;825;93;1284560;28;6157;889233
2;57;1573668985544;1573668991976;6432;15944980032;28510966845;488072468;312183233;4047203164;100952;279655054;707;21;1284560;-3;6431;924621
2;58;1573668991976;1573668999729;7753;15957565232;28510954308;486277010;314640123;4047200747;103417;279653947;898;44;1642232;-2;7754;1115381
2;59;1573668999729;1573669006622;6893;15856529144;28510958025;486319361;307341329;4047201357;98967;279648608;826;36;1509696;6;6892;985880
2;60;1573669006622;1573669014863;8241;15887856072;28510966392;483421098;311830709;4047202975;97689;279644996;1101;88;1786440;-21;8241;1222135
2;61;1573669014863;1573669027747;12884;16006864322;28510955613;486391505;313393648;4047201147;97144;279648487;1482;65;2679728;18;12885;1814518
2;62;1573669027748;1573669033814;6066;15878458052;28510987454;485874227;310138246;4047208369;100214;279650378;710;27;1270112;-6;6067;869241
2;63;1573669033815;1573669039728;5913;15969982240;28511044613;485016011;313773300;4047219301;103462;279658781;734;25;1306248;2;5913;851507
2;64;1573669039728;1573669046986;7258;15914856728;28511186465;486800725;309754148;4047243318;113775;279696650;964;76;1512528;-19;7259;1043364
2;65;1573669046986;1573669056231;9245;15930053138;28511173611;485005654;311369837;4047244699;112903;279662594;1096;36;1963592;24;9245;1329757
2;66;1573669056231;1573669071104;14873;15918831286;28510890559;488390400;307353832;4047193258;103930;279645130;1765;69;3127960;-30;14872;1884777
2;67;1573669071104;1573669077641;6537;16019341190;28510945172;484649815;312446654;4047204087;100074;279642946;897;93;1376928;34;6538;931834
2;68;1573669077641;1573669084200;6559;15985741626;28510847881;485232709;314327930;4047186140;100738;279646578;871;96;1094600;-20;6559;974212
2;69;1573669084201;1573669093083;8882;15793592778;28510863379;490368312;309843574;4047189007;109682;279643803;1213;89;1432704;5;8883;1288858
2;70;1573669093084;1573669101707;8623;15875570026;28510859843;485778859;310297199;4047188383;111225;279646644;1265;37;1866960;-10;8624;1240894
2;71;1573669101707;1573669117181;15474;15976584506;28510858642;486454342;310129336;4047188306;102154;279642473;2003;131;3245704;-20;15474;1972591
2;72;1573669117181;1573669123546;6365;15934450804;28510859444;487232387;308541217;4047188421;100802;279641907;741;24;1264856;33;6365;903778
2;73;1573669123547;1573669129958;6411;16071162722;28510861333;484669774;315613749;4047188908;101587;279647052;856;20;1348048;-14;6412;925118
2;74;1573669129958;1573669136737;6779;15942855878;28510851029;488175169;309209490;4047186717;96942;279640874;850;31;1479264;14;6779;975117
2;75;1573669136737;1573669144429;7692;15946180590;28510869418;485942757;310889824;4047190354;100892;279639090;1049;83;1599888;10;7691;1100706
2;76;1573669144429;1573669153409;8980;16000359730;28510859600;484528958;310256525;4047188462;104171;279644076;1090;34;1882592;-2;8980;1284501
2;77;1573669153409;1573669167688;14279;16075667114;28510849778;482248985;314732154;4047186473;99722;279640193;1748;63;3025696;-6;14279;1753452
2;78;1573669167688;1573669174068;6380;15903738098;28510869107;486551944;310237978;4047190605;97360;279637560;865;88;1326816;-3;6380;928028
2;79;1573669174068;1573669180070;6002;15970006476;28510850781;486369737;310125684;4047186617;93891;279637623;738;20;1264480;2;6003;865055
2;80;1573669180070;1573669186893;6823;15952863740;28510849490;486848724;313497323;4047186269;99709;279635597;793;24;1373944;7;6823;981392
2;81;1573669186893;1573669194792;7899;16052116730;28510858262;485657821;314694577;4047188343;99020;279642070;1015;43;1747472;-23;7899;1133529
2;82;1573669194792;1573669210192;15400;16060893812;28510860615;484743801;311745040;4047188605;104002;279644418;2020;145;3263224;-50;15400;1959033
2;83;1573669210192;1573669216474;6282;15880711854;28510870056;488401238;308656366;4047191229;101079;279646621;720;31;1246520;53;6282;867848
3;35;1573669635027;1573669641696;6669;16360472526;28982199074;523469911;343378701;4254238582;106800;289020941;699;16;1307304;-27;6669;957667
3;36;1573669641696;1573669649647;7951;16503182562;28982207015;520964906;341672966;4254240260;109071;289026642;925;20;1732032;3;7952;1141553
3;37;1573669649648;1573669664564;14916;16365955994;28988947637;522103167;343868033;4256488332;110515;289027433;1832;105;3110144;9;14916;2004259
3;38;1573669664564;1573669671212;6648;16490614298;28982209207;522889985;343759511;4254240682;105184;289019161;709;16;1321184;-5;6648;952611
3;39;1573669671212;1573669677635;6423;16478051436;28982212509;522137911;346224799;4254241437;109088;289022770;772;19;1428680;-4;6423;918274
3;40;1573669677635;1573669683751;6116;16463708104;28984514095;521859477;344681391;4255002227;98650;289015526;712;22;1324096;24;6115;882487
3;41;1573669683751;1573669691826;8075;16400582814;28986687509;523250294;342803602;4255738929;104868;289013591;975;27;1785992;-14;8076;1162606
3;42;1573669691826;1573669707638;15812;16518464966;28982184118;518957950;347810955;4254238225;103322;289014962;1864;90;3213976;-103;15812;2186183
3;43;1573669707638;1573669714343;6705;16401346832;28984440634;525231966;347762412;4254989577;107299;289020740;788;32;1462208;113;6705;781279
3;44;1573669714343;1573669720609;6266;16472180484;28986690092;522261916;343011277;4255739449;95817;289011789;747;21;1368056;-11;6266;899058
3;45;1573669720610;1573669727186;6576;16384666624;28982183854;523285925;345752632;4254238385;101931;289018927;885;57;1405432;1;6577;954924
3;46;1573669727187;1573669733995;6808;16289937006;28982183981;527601132;342510973;4254238364;99170;289018757;726;24;1329384;10;6808;978621
3;47;1573669733995;1573669741718;7723;16210366422;28988926070;525909283;338178875;4256486690;104372;289016337;911;33;1671240;-15;7724;1107576
3;48;1573669741719;1573669756783;15064;16354693554;28982174331;522448131;342957304;4254236398;105050;289019271;1838;127;3146152;3;15065;1901217
3;49;1573669756783;1573669763860;7077;16450798346;28982169865;522653368;345392807;4254235502;105175;289021604;801;19;1433224;-1;7077;1016786
3;50;1573669763860;1573669770556;6696;16320521962;28988923231;527075629;341941079;4256486050;106730;289018154;813;24;1477888;-13;6696;962614
3;51;1573669770556;1573669776681;6125;16313660108;28982296911;523806985;345028631;4254260706;105354;289022156;731;22;1317496;5;6124;875813
3;52;1573669776681;1573669784237;7556;16308827070;28923742285;515067648;333194009;4185250426;109328;289055092;945;28;1706464;17;7557;1083690
3;53;1573669784237;1573669800308;16071;16164122236;28835533681;507619377;325671680;4155306115;118322;287001390;1915;95;3250536;-103;16071;2129627
3;54;1573669800308;1573669806573;6265;15951484624;28511099660;484411576;310681390;4047232047;109462;279692390;763;28;1368872;103;6265;803496
3;55;1573669806573;1573669812451;5878;15839296326;28511108973;486185685;308277867;4047236122;94181;279652062;713;22;1274056;-9;5878;844886
3;56;1573669812451;1573669818225;5774;15922926148;28510921547;483825234;307943299;4047200620;90657;279640159;789;70;1215368;8;5773;831205
3;57;1573669818225;1573669825092;6867;15883039532;28510920875;485033404;310279557;4047200661;98619;279644633;774;27;1392064;-6;6868;985867
3;58;1573669825093;1573669834518;9425;15787879068;28510907142;484900038;307803078;4047197788;101205;279642300;1107;52;1985896;13;9426;1350715
3;59;1573669834518;1573669848538;14020;15976092048;28510911415;483672272;312578716;4047198619;101970;279648419;1779;134;2955992;-24;13921;1710936
3;60;1573669848538;1573669855357;6819;15941065188;28510910105;484182024;310629107;4047198386;98705;279640752;764;25;1352840;-1;6818;978005
3;61;1573669855357;1573669861320;5963;15881308994;28510916123;486404815;307849362;4047199695;94251;279636474;743;24;1317712;25;5964;855718
3;62;1573669861320;1573669867542;6222;15947317784;28510954260;484486261;312850173;4047208212;97266;279646252;753;30;1335296;-17;6221;889909
3;63;1573669867542;1573669875567;8025;15902390664;28510934586;486986804;310852336;4047204181;105596;279648666;983;36;1735080;9;8026;1150924
3;64;1573669875567;1573669883662;8095;15963972734;28510922346;485500414;310671123;4047201088;98502;279647453;1093;78;1741992;10;8094;1162556
3;65;1573669883662;1573669896867;13205;16081725238;28510933383;482703900;309978755;4047204874;96227;279643643;1525;61;2707536;-20;13206;1897229
3;66;1573669896868;1573669902728;5860;15846577638;28510884890;489286366;309797152;4047196698;95704;279633953;743;23;1301856;-7;5861;844000
3;67;1573669902728;1573669909039;6311;15968062486;28510933864;485689676;311059393;4047206430;95371;279637062;860;82;1330808;12;6310;918868
3;68;1573669909039;1573669918763;9724;15757670354;28510863484;485693661;308362718;4047193770;111638;279645005;1394;66;1659632;16;9725;1403337
3;69;1573669918763;1573669928712;9949;15677208732;28510853226;488099917;303030255;4047191817;103600;279640166;1146;45;2016768;-26;9949;1427995
3;70;1573669928712;1573669941744;13032;15936232588;28510839690;484233069;312967527;4047189119;99475;279639136;1609;66;2828912;20;13031;1649031
3;71;1573669941744;1573669948272;6528;15914023214;28510858466;485131380;311456255;4047192933;96754;279639262;954;91;1322800;-19;6529;957135
3;72;1573669948272;1573669954606;6334;15954173652;28510853371;485882113;311549393;4047191912;95872;279637662;718;21;1229784;18;6333;911100
3;73;1573669954606;1573669961473;6867;15911738022;28510850791;484589421;312071397;4047191470;98028;279641534;870;31;1509800;-6;6867;988050
3;74;1573669961473;1573669970079;8606;15932508858;28510852996;483920688;312379556;4047191898;96998;279642394;1077;40;1858376;11;8607;1230638
3;75;1573669970079;1573669985643;15564;15934422918;28510843389;483462270;310104949;4047190010;97746;279641715;2054;114;3245088;-81;15564;2140634
3;76;1573669985644;1573669991600;5956;15868360108;28510848079;486661013;309564559;4047191056;99986;279642044;676;23;1173192;52;5956;817878
3;77;1573669991600;1573669997375;5775;15918047704;28510866156;486780644;310810491;4047194453;92555;279638395;746;25;1273112;22;5776;826728
3;78;1573669997375;1573670003920;6545;15942919680;28510852150;486549659;310585810;4047191924;97837;279641848;822;27;1417592;-22;6545;939596
3;79;1573670003920;1573670012004;8084;15990931634;28510843676;482931800;316587819;4047190033;100106;279646076;1214;52;1708128;23;8084;1193581
3;80;1573670012004;1573670019753;7749;15873759918;28510854465;484381946;311583518;4047192119;101593;279642943;888;35;1534600;8;7749;1112689
3;81;1573670019753;1573670034003;14250;15762256068;28510847331;486555518;305876078;4047190557;100379;279631351;1807;60;3076432;-2;14238;1733901
3;82;1573670034003;1573670040614;6611;15907750178;28510847334;485777363;313172500;4047190675;98705;279640826;987;73;1379400;-28;6611;970667
3;83;1573670040614;1573670046844;6230;16004724400;28510863220;485626853;311218228;4047194372;96955;279636740;718;24;1190784;18;6230;894044
3;84;1573670046844;1573670053857;7013;15963522324;28510891664;482849068;311374283;4047199222;96861;279638110;882;25;1496696;-18;7014;1007838
4;35;1573670474868;1573670483228;8360;16846185326;30136046609;548246630;382814495;4401300597;110114;293707660;888;24;1667936;8;8361;1198040
4;36;1573670483229;1573670497232;14003;16678501260;30137183629;551656903;377214205;4401678309;112229;293711157;1643;36;3050800;-63;14004;1692720
4;37;1573670497232;1573670503790;6558;16873996136;30142682717;549123278;384439299;4403532609;107565;293692430;856;86;1346328;56;6557;871844
4;38;1573670503790;1573670510093;6303;16885825056;30135667486;546570755;386507036;4401227092;106910;293688010;651;24;1229816;21;6303;903134
4;39;1573670510093;1573670517092;6999;16887124164;30135690711;548683453;383833678;4401231968;105525;293694018;823;18;1532360;-23;6999;1003736
4;40;1573670517092;1573670523778;6686;16866750302;30139052991;547767009;384696030;4402355201;106108;293685532;790;21;1469872;10;6686;961146
4;41;1573670523778;1573670532510;8732;16766853452;30140141789;549280790;380467400;4402723465;109641;293685471;1129;73;1861840;-5;8733;1258429
4;42;1573670532513;1573670546725;14212;16639654310;29686719346;527293417;355945156;4289544567;106390;290162349;1592;56;2942112;19;14215;1785814
4;43;1573670546725;1573670552959;6234;16451418408;29546977119;521088972;346245005;4254999387;101701;289042536;732;27;1348728;4;6234;895788
4;44;1573670552959;1573670558936;5977;16299946766;29549193686;523615745;342926690;4255742732;101445;289042658;704;24;1299464;0;5977;859033
4;45;1573670558937;1573670565719;6782;16493573134;29544688547;522412954;345263074;4254241789;103801;289050091;913;59;1423808;3;6783;989042
4;46;1573670565719;1573670574055;8336;16275194948;29544676297;523516314;343167414;4254239029;106597;289043211;933;29;1710856;-5;8336;1191680
4;47;1573670574055;1573670588498;14443;16150671840;29551438894;528199152;341581299;4256491766;107332;289040425;1679;61;3096208;-81;14442;1833741
4;48;1573670588498;1573670594892;6394;16521269188;29544676364;521658504;347551123;4254239255;106030;289046274;897;69;1337248;60;6394;891176
4;49;1573670594892;1573670602171;7279;16398926444;29544675637;524101942;346322132;4254238918;107183;289044395;788;24;1427032;12;7280;1046430
4;50;1573670602171;1573670608614;6443;16240602876;29551426351;526627671;345070498;4256489099;101423;289043862;751;21;1364280;-15;6442;922874
4;51;1573670608614;1573670615989;7375;16303818978;29544785198;523643092;341404023;4254261077;112271;289050931;896;24;1618472;0;7376;1060466
4;52;1573670615990;1573670623847;7857;16072594252;29486258259;515301757;327560887;4185255981;106595;289072828;966;28;1733992;26;7858;1126841
4;53;1573670623847;1573670638671;14824;16187894248;29384636101;509083903;327193893;4150827938;115350;286741886;1821;85;3032224;-16;14823;1962810
4;54;1573670638671;1573670645086;6415;15897718810;29073642782;487513942;311593594;4047240948;110106;279711226;753;24;1361720;15;6415;920013
4;55;1573670645086;1573670651170;6084;16009156960;29073623034;484881378;313255124;4047240080;99031;279666028;741;21;1335224;-5;6085;873655
4;56;1573670651170;1573670657897;6727;15933551298;29073425968;484773999;311338041;4047203438;101641;279662400;933;55;1414232;-18;6727;971837
4;57;1573670657897;1573670667258;9361;15917049502;29073441025;485148952;309311914;4047206432;101661;279665133;1083;37;1961320;5;9361;1340901
4;58;1573670667258;1573670681775;14517;15972851432;29073425945;485377917;312227787;4047203303;103688;279666715;1722;55;3089480;-20;14516;1778838
4;59;1573670681775;1573670688348;6573;15980846830;29073431435;486454277;313992840;4047204661;99864;279660662;891;90;1362568;36;6574;936117
4;60;1573670688349;1573670694718;6369;15957976076;29073422441;486872190;313227505;4047202674;98940;279660523;692;22;1248296;-20;6369;911525
4;61;1573670694718;1573670701244;6526;16025855710;29073427198;483930345;313418698;4047203501;93282;279658847;773;28;1380520;-5;6527;935395
4;62;1573670701245;1573670709597;8352;16127648662;29073468536;481569509;317886724;4047213002;106219;279670364;1020;42;1827848;4;8352;1197020
4;63;1573670709597;1573670716803;7206;15899923410;29073465224;482757378;311076964;4047212218;100209;279667050;900;27;1597288;0;7207;1033029
4;64;1573670716804;1573670731119;14315;15945549432;29073436264;485201192;310408461;4047205566;101589;279662378;1754;110;2936088;-3;14315;1908894
4;65;1573670731119;1573670736637;5518;15781589826;29073447798;489652170;306268046;4047209582;95148;279657978;647;31;1150792;25;5519;796083
4;66;1573670736637;1573670742496;5859;15997402500;29073396247;484175912;313451080;4047200858;95867;279662432;740;29;1331128;-4;5858;845259
4;67;1573670742496;1573670749648;7152;15920983472;29073428900;486963885;312968518;4047207975;97878;279659301;959;70;1500648;8;7152;1033663
4;68;1573670749648;1573670758852;9204;15686251242;29073363947;487667499;305544014;4047195535;108946;279660019;1323;66;1651824;-15;9204;1328448
4;69;1573670758852;1573670775136;16284;15753702074;29073367132;485863327;307431370;4047196498;108800;279668012;1946;75;3294816;-13;16284;2100537
4;70;1573670775136;1573670781623;6487;15945982030;29073367264;484565629;312137307;4047196381;96420;279655650;807;26;1404016;25;6488;933798
4;71;1573670781623;1573670787865;6242;15969233552;29073370359;486466464;313106100;4047197058;97158;279654924;872;100;1334200;-25;6241;928608
4;72;1573670787865;1573670794743;6878;15905560762;29073376814;486081559;311278170;4047198539;100769;279667730;754;34;1329736;14;6878;987892
4;73;1573670794743;1573670803633;8890;15810733762;29073359269;486225552;310576902;4047194793;102629;279658439;1162;42;1876904;-3;8890;1272492
4;74;1573670803633;1573670810487;6854;15845305540;29073363351;486718087;309479743;4047195604;94125;279653202;845;35;1475832;-13;6855;980964
4;75;1573670810487;1573670824715;14228;15861943408;29073373574;485867904;309360200;4047197712;98720;279656700;1841;137;2894872;9;14219;1764088
4;76;1573670824715;1573670830456;5741;15993045568;29073368318;487119004;314698565;4047196979;89939;279658253;703;17;1210576;1;5742;820972
4;77;1573670830456;1573670836314;5858;15916244458;29073373660;485449073;311164679;4047197773;89647;279646645;761;17;1299712;7;5857;841953
4;78;1573670836314;1573670843304;6990;15936147178;29073377908;486287896;312039421;4047198868;99432;279663128;882;40;1507032;14;6990;1000293
4;79;1573670843304;1573670851634;8330;15867235178;29073366251;486220843;312367505;4047196164;99881;279659820;1155;82;1762552;-25;8331;1200094
4;80;1573670851635;1573670867201;15566;15878037426;29073361580;485073120;310395154;4047195244;99109;279650820;1847;78;3173056;-47;15567;1970362
4;81;1573670867202;1573670873636;6434;15823250634;29073361970;487421914;309676636;4047195378;99361;279657041;835;41;1436192;54;6435;855029
4;82;1573670873636;1573670880187;6551;16061425544;29073365053;484542488;314062687;4047196149;95408;279664315;954;80;1353608;10;6550;960236
4;83;1573670880187;1573670887084;6897;15889377830;29073384457;487574511;311271441;4047200320;92743;279651769;776;33;1339168;-8;6897;988913
4;84;1573670887084;1573670894046;6962;15859824802;29073403740;485272457;310632497;4047203182;100554;279662805;875;32;1504888;-11;6962;997896
