0;65;1573681549329;1573681555324;5995;15175368918;28810927116;503823552;294424716;4047205831;99525;279624271;676;114;1184840;171;5994;676404
0;66;1573681555324;1573681560899;5575;15219380764;28810892959;503964472;293679214;4047200056;96695;279618614;729;24;1061792;-100;5575;801222
0;67;1573681560899;1573681566296;5397;15211159650;28810950541;504155000;295125179;4047211059;90527;279616085;540;24;950000;5;5398;772406
0;68;1573681566296;1573681571698;5402;15171255222;28810863172;503751470;293507791;4047195304;95043;279615048;609;25;1061464;-1;5402;773827
0;69;1573681571699;1573681577379;5680;15274524964;28810864275;503757878;296999522;4047195639;96884;279617675;646;28;1143432;-6;5680;815895
0;70;1573681577379;1573681587395;10016;15229865462;28810868293;504822706;295696293;4047196284;99269;279617106;1275;117;1921928;-143;9876;1252892
0;71;1573681587395;1573681592831;5436;15124720934;28810867162;506683958;291781401;4047196284;98578;279621474;596;17;1036160;50;5389;97325
0;72;1573681592831;1573681598644;5813;15199320948;28810855569;504564030;295364479;4047194053;103591;279624063;617;18;1056576;62;5813;564806
0;73;1573681598644;1573681604682;6038;15177771786;28810847327;504383781;294501182;4047192346;102326;279619921;688;24;1212824;-1;6037;702552
0;74;1573681604682;1573681610156;5474;15192991848;28810864925;507093163;295487656;4047195673;96147;279612795;632;24;1100088;18;5474;668851
0;75;1573681610156;1573681616183;6027;15268691388;28810885041;501034960;298513324;4047200026;94177;279616825;662;31;1159344;5;6028;852477
0;76;1573681616184;1573681622319;6135;15222262512;28810862060;505228527;297788009;4047195077;97788;279617292;830;99;1199120;-6;6136;894732
0;77;1573681622319;1573681628100;5781;15212490732;28810866040;506429222;294234556;4047195896;96775;279617070;598;19;1037928;10;5780;830765
0;78;1573681628100;1573681636109;8009;15245123630;28810861323;504847001;296598364;4047194845;97008;279614943;912;27;1551560;-72;8010;564968
0;79;1573681636110;1573681641681;5571;15115946042;28810869572;505673260;291869005;4047196552;96240;279612340;640;23;1098336;24;5572;440826
0;80;1573681641682;1573681647469;5787;15215069676;28810861476;507156597;294389065;4047195070;94242;279614736;664;26;1136904;32;5787;628932
0;81;1573681647469;1573681653166;5697;15163579856;28810872076;505623286;293254045;4047197339;96474;279617146;817;89;1098536;18;5697;803423
0;82;1573681653166;1573681658874;5708;15295110964;28810872268;502964774;298255669;4047197238;95641;279612278;579;21;994216;-3;5709;820186
0;83;1573681658874;1573681664095;5221;15172961524;28810884594;503402771;292723931;4047200087;92837;279615136;595;17;1000272;13;5220;748300
0;84;1573681664095;1573681669477;5382;15221583028;28810896373;501939637;296039598;4047201300;92191;279614713;618;36;1073424;-10;5382;769378
0;85;1573681669477;1573681679363;9886;15243983370;28810860047;502447597;299146707;4047194746;94400;279614346;1152;43;1955552;-115;9886;1294839
0;86;1573681679363;1573681685564;6201;15245431398;28810852519;504673586;299047729;4047193243;98856;279618408;844;105;1150712;55;6201;430389
0;87;1573681685564;1573681691111;5547;15226915386;28810883267;503288539;297645966;4047199181;96536;279616934;588;31;998840;64;5547;718635
0;88;1573681691111;1573681696622;5511;15199213492;28810870660;503444491;294323145;4047197043;95585;279616687;641;30;1096568;-1;5511;789062
0;89;1573681696622;1573681702149;5527;15254979068;28810866040;502677616;297013228;4047195929;92110;279613490;653;29;1096568;-13;5528;790751
0;90;1573681702150;1573681708030;5880;15273335356;28810876709;501661079;298181600;4047198119;92608;279611981;684;31;1130248;1;5880;848744
0;91;1573681708030;1573681713650;5620;15240558648;28810859709;502881343;297519777;4047194822;102284;279622613;905;80;787344;-2;5620;851012
0;92;1573681713650;1573681720770;7120;15123451610;28810862152;505486492;294267315;4047195415;101714;279621150;862;39;1199744;0;7120;1029112
0;93;1573681720770;1573681731652;10882;15228559930;28810859343;502379833;296939070;4047194636;97920;279614108;1258;34;2063264;-97;10882;824582
0;94;1573681731652;1573681737651;5999;15240845976;28810871483;501895103;296492240;4047197270;99212;279617484;717;26;1171320;7;6000;217811
0;95;1573681737651;1573681743563;5912;15183178312;28810866041;504273473;295671954;4047195780;95540;279615092;872;101;1160648;25;5912;390453
0;96;1573681743564;1573681749247;5683;15265995498;28810861035;502551248;297058448;4047195026;94750;279613803;622;27;1026200;78;5683;534551
0;97;1573681749247;1573681754539;5292;15242770986;28810869751;505879858;296826944;4047196647;92725;279609876;651;29;967824;-5;5293;759568
0;98;1573681754539;1573681760203;5664;15257893520;28810868143;504416719;297094830;4047196390;92266;279610456;683;25;1118016;-11;5663;813364
0;99;1573681760203;1573681766263;6060;15263520360;28810851195;503944949;299591830;4047193130;96834;279620082;715;25;1188856;21;6060;872087
0;100;1573681766263;1573681774782;8519;15238015766;28810865749;504693376;298525753;4047196008;98045;279614208;1135;129;1623600;-100;8356;705454
0;101;1573681774782;1573681779891;5109;15155145874;28810872311;503659170;292224603;4047197282;92025;279613691;561;28;926512;77;5110;501625
0;102;1573681779891;1573681785355;5464;15136600224;28810871964;505750195;291501455;4047197270;96953;279610583;644;30;1053472;28;5463;783661
0;103;1573681785355;1573681791097;5742;15182285668;28810918309;507751376;294433966;4047204660;93167;279613454;698;29;1145560;3;5743;821256
0;104;1573681791097;1573681796540;5443;15253433220;28810844095;506277466;298952121;4047191766;92211;279606106;655;24;1069016;-15;5443;781328
0;105;1573681796540;1573681803452;6912;15201987346;28810874949;505199291;295727329;4047197806;97954;279613499;947;129;1311272;16;6911;1007181
0;106;1573681803452;1573681809159;5707;15221609746;28810836887;504584876;297501461;4047190620;93556;279612434;700;36;1134376;-24;5707;823117
0;107;1573681809159;1573681818088;8929;15278875034;28810843181;502703631;298729094;4047191936;93965;279610748;1007;43;1617088;-104;8930;1157937
0;108;1573681818088;1573681823464;5376;15247756886;28810849726;503435236;297210181;4047193203;89554;279603611;668;28;1084648;30;5376;199964
0;109;1573681823465;1573681829159;5694;15187655840;28810949918;508116566;296690066;4047210869;97255;279614009;684;36;1114016;42;5694;467707
0;110;1573681829159;1573681834869;5710;15359428782;28810878446;504877611;304466763;4047198979;91704;279611657;817;94;1075480;27;5710;726105
0;111;1573681834869;1573681840420;5551;15296193262;28810845861;506549312;299921670;4047192474;95049;279612170;659;33;1072448;13;5551;794495
0;112;1573681840420;1573681845813;5393;15163818420;28810846255;506300240;292609856;4047192686;94673;279611448;601;34;961520;7;5393;773043
0;113;1573681845813;1573681851652;5839;15294439656;28810828355;503175256;300455252;4047188915;93501;279610980;722;31;1152888;-18;5839;834698
0;114;1573681851652;1573681857151;5499;15166813464;28810847967;508019165;293173269;4047192818;92630;279607540;685;43;1102056;19;5500;790958
1;65;1573682383075;1573682391983;8908;15164971820;29073433727;503354709;296945052;4047204967;90088;279626253;1016;33;1782816;-81;8854;654834
1;66;1573682391983;1573682397561;5578;15185026380;29073384161;504522885;297806808;4047196479;89737;279626962;627;33;1111376;44;5579;481889
1;67;1573682397562;1573682403984;6422;15135549754;29073444953;504076863;295362220;4047208542;94444;279634877;894;93;1197440;-5;6423;619699
1;68;1573682403984;1573682409457;5473;15112248300;29073356996;504759259;294126743;4047192348;88859;279627358;549;24;968312;57;5472;732173
1;69;1573682409457;1573682414912;5455;15124525148;29073357296;505338485;294807898;4047192452;88558;279623056;609;31;1075576;-1;5455;786506
1;70;1573682414912;1573682420622;5710;15164856334;29073337636;504857809;295901397;4047188462;90349;279627510;631;20;1114584;9;5710;820034
1;71;1573682420622;1573682426199;5577;15243139928;29073366646;501968044;301398816;4047194400;87486;279627332;634;23;1104992;-26;5577;799762
1;72;1573682426199;1573682435220;9021;15136245736;29073354275;503596826;292710977;4047192108;90390;279627421;1211;107;1749728;-80;9021;1053743
1;73;1573682435220;1573682440606;5386;15129930506;29073347636;505387617;293600211;4047190783;88042;279626152;551;24;968408;81;5386;539466
1;74;1573682440606;1573682446050;5444;15193632788;29073362431;503000556;297124182;4047193570;87411;279626883;596;28;1034520;12;5445;778217
1;75;1573682446050;1573682451715;5665;15172916264;29073366503;503894496;297805093;4047194229;88019;279625566;660;24;1141944;12;5665;809218
1;76;1573682451716;1573682457382;5666;15169100554;29073341070;504672698;297245311;4047189244;93085;279627607;643;30;1115392;-3;5666;812164
1;77;1573682457382;1573682463754;6372;15127646190;29073359626;506829769;295504778;4047192889;92643;279629138;863;91;1203528;6;6372;941396
1;78;1573682463754;1573682469110;5356;15147414006;29073359010;506480374;297508279;4047193200;90101;279635514;594;24;1035808;-17;5356;768972
1;79;1573682469110;1573682474759;5649;15215259622;29073346679;502950831;297731094;4047190330;90569;279628360;591;28;1010888;17;5649;810636
1;80;1573682474759;1573682485023;10264;15169386568;29073357270;503415321;296329301;4047192334;89716;279624663;1167;59;1993768;-127;9983;779747
1;81;1573682485023;1573682490730;5707;15144178792;29073359096;503909755;295223598;4047192744;86246;279624883;691;40;1186296;16;5707;217418
1;82;1573682490730;1573682496533;5803;15127780364;29073345910;505752969;294438819;4047190157;91063;279626142;851;108;1103952;84;5804;602031
1;83;1573682496534;1573682502247;5713;15208593554;29073364332;503338922;298228102;4047194320;90823;279629417;601;30;1015000;2;5713;804868
1;84;1573682502247;1573682507899;5652;15171409106;29073384315;504676669;296781463;4047197433;92002;279627050;651;34;1107768;21;5653;809017
1;85;1573682507900;1573682513277;5377;15097911538;29073349593;506974258;292764170;4047190947;90484;279621845;627;32;1057688;-19;5377;771126
1;86;1573682513277;1573682519076;5799;15127131686;29073344329;505760197;295274444;4047189842;89874;279623905;672;34;1138456;0;5799;832580
1;87;1573682519076;1573682527946;8870;15185180118;29073354458;503161463;297391012;4047191922;88914;279627249;1218;97;1689648;-112;8729;817046
1;88;1573682527946;1573682533595;5649;15091496590;29073359451;505191130;294737412;4047192546;90674;279628869;591;37;998056;119;5648;426205
1;89;1573682533595;1573682539114;5519;15166299690;29073361697;504245216;296409877;4047193367;89217;279629568;641;34;1085432;3;5519;788061
1;90;1573682539114;1573682544860;5746;15132041228;29073356924;505653833;294870127;4047192507;89562;279629538;670;36;1129072;2;5746;826244
1;91;1573682544860;1573682550614;5754;15169666304;29073349093;504841523;297414663;4047190973;93024;279630011;666;34;1126288;6;5755;826373
1;92;1573682550614;1573682556433;5819;15159540766;29073356421;506351139;296835871;4047192624;94564;279634494;946;98;944632;-12;5818;866972
1;93;1573682556433;1573682561858;5425;15144711692;29073351634;503866247;297869469;4047191486;94226;279631000;788;23;796848;-10;5425;783948
1;94;1573682561858;1573682574069;12211;15073336380;29073350813;506562499;293853503;4047191274;93114;279627328;1362;80;2247536;-90;12214;1533508
1;95;1573682574072;1573682579411;5339;15174929604;29073350496;506244535;295117336;4047191344;86420;279623085;626;41;1056736;44;5340;362663
1;96;1573682579412;1573682584769;5357;15125588320;29073333072;506493600;292682613;4047187741;90077;279618944;632;40;1052808;61;5357;617502
1;97;1573682584769;1573682590419;5650;15108433612;29073351872;504434635;294773885;4047191540;90573;279631041;805;105;1062272;-10;5650;829346
1;98;1573682590419;1573682595791;5372;15140840210;29073365604;504510207;296513105;4047193834;91246;279630229;570;35;950272;6;5372;769930
1;99;1573682595791;1573682601032;5241;15190004834;29073355266;502254485;296065411;4047192048;86954;279625657;664;28;978064;8;5241;765225
1;100;1573682601032;1573682606295;5263;15191143488;29073356078;503583534;298204328;4047192207;87102;279623764;635;36;1038848;5;5263;756958
1;101;1573682606295;1573682611736;5441;15171639640;29073361845;507480648;297275346;4047193361;88164;279623933;662;30;1089552;-22;5441;781046
1;102;1573682611736;1573682622849;11113;15110745814;29073358085;504779240;294819514;4047192633;90520;279627391;1544;107;2090616;-110;11113;1172570
1;103;1573682622849;1573682628515;5666;15163210622;29073394775;505302859;298121994;4047198627;89462;279621972;614;34;1008608;95;5666;373522
1;104;1573682628515;1573682634247;5732;15185229904;29073358182;503038273;299920714;4047192243;89745;279624050;696;33;1133520;35;5733;761312
1;105;1573682634247;1573682639249;5002;15169788798;29073343652;504165084;294536270;4047189934;83666;279615428;604;29;977520;4;5001;723818
1;106;1573682639249;1573682644817;5568;15119575456;29073357667;505458388;294342086;4047192707;88179;279620874;681;39;1115928;-9;5569;803409
1;107;1573682644817;1573682650928;6111;15143926796;29073343094;504431585;296486471;4047190053;87353;279617089;968;84;1123496;-13;6111;924168
1;108;1573682650928;1573682656488;5560;15150405546;29073332534;503128968;296441114;4047187931;86584;279618491;637;40;1033256;3;5559;795225
1;109;1573682656488;1573682664899;8411;15194667198;29073331113;504569563;299154920;4047187738;87754;279620357;1004;42;1612944;-92;8412;983220
1;110;1573682664899;1573682670450;5551;15176522318;29073363078;503693254;296397217;4047193344;86755;279621201;675;36;1089464;68;5551;393254
1;111;1573682670450;1573682676286;5836;15191998610;29073336041;506909239;297514284;4047189035;90243;279624747;731;34;1158984;21;5835;727258
1;112;1573682676286;1573682681873;5587;15169915526;29073332975;503678104;296496167;4047188299;87640;279620535;925;60;992640;10;5587;853275
1;113;1573682681873;1573682687146;5273;15139393058;29073354648;503519293;295299977;4047192181;88351;279625145;629;32;986840;11;5273;755245
1;114;1573682687146;1573682692414;5268;15152794544;29073333288;508962543;297082951;4047188197;83779;279617629;599;35;963560;-23;5268;757648
2;65;1573683222779;1573683228552;5773;15157057160;28510957868;504960382;295952006;4047205663;96710;279618189;652;15;1136080;35;5773;289545
2;66;1573683228553;1573683234119;5566;15159185986;28510913192;502815494;294621140;4047198383;94227;279612381;756;120;1053408;67;5567;593637
2;67;1573683234119;1573683239606;5487;15130955864;28510961857;504318736;293992597;4047208075;97223;279613755;610;22;1054192;-3;5486;786788
2;68;1573683239606;1573683244805;5199;15177915888;28510889469;504594733;297995412;4047194995;90005;279608410;523;23;921920;21;5200;746079
2;69;1573683244805;1573683250654;5849;15098640224;28510881816;502944114;291649625;4047193491;95941;279611820;675;30;1165272;-3;5849;839254
2;70;1573683250654;1573683256375;5721;15152017532;28510880099;502257576;297115008;4047193041;95440;279610073;647;21;1121728;-7;5721;822578
2;71;1573683256375;1573683261802;5427;15148995478;28510883567;501471747;293980800;4047193804;95974;279607496;628;26;1079040;12;5427;779873
2;72;1573683261802;1573683271083;9281;15147214716;28510880882;503106735;295327179;4047193454;92995;279603969;1150;95;1767976;-111;9023;664371
2;73;1573683271083;1573683276555;5472;15144002132;28510880238;506121431;294225252;4047193463;95990;279612095;553;28;962384;98;5471;547231
2;74;1573683276555;1573683282289;5734;15262924972;28510882724;501780569;299544859;4047193960;96506;279612541;666;26;1129888;-6;5734;818261
2;75;1573683282289;1573683287695;5406;15133703584;28510882386;502464872;295498735;4047193629;95024;279605903;630;29;1081968;10;5407;774459
2;76;1573683287695;1573683293393;5698;15172163342;28510875566;501755775;294820796;4047192200;97319;279609903;662;21;1124120;10;5698;816177
2;77;1573683293393;1573683298919;5526;15124407034;28510887840;502964894;292831086;4047194638;91902;279609312;764;91;1056224;-1;5526;807767
2;78;1573683298919;1573683304308;5389;15148611644;28510896697;502499288;296498851;4047196796;91310;279609758;575;20;969768;1;5389;772695
2;79;1573683304308;1573683314207;9899;15156529370;28510885395;501327461;297273318;4047194248;92193;279610100;1128;36;1911400;-146;9899;1173815
2;80;1573683314207;1573683320055;5848;15167098894;28510881891;503280969;296983164;4047193579;94544;279617197;688;32;1170040;41;5848;214676
2;81;1573683320056;1573683325744;5688;15133623430;28510875920;503214223;297114390;4047192293;94855;279610398;796;97;1053760;74;5689;440498
2;82;1573683325744;1573683331120;5376;15142390292;28510881418;502900690;295644023;4047193461;93379;279611419;613;27;1043792;32;5376;720667
2;83;1573683331120;1573683336750;5630;15129138894;28510893423;502263165;293521197;4047196236;95473;279611339;600;25;1004840;-24;5629;809335
2;84;1573683336750;1573683342194;5444;15131849238;28510915624;503391990;294743774;4047199755;96243;279609902;638;28;1066496;2;5445;780060
2;85;1573683342194;1573683347864;5670;15103452822;28510875266;504589950;293602030;4047192280;96799;279612855;654;29;1106376;18;5670;814726
2;86;1573683347864;1573683353807;5943;15134229768;28510872426;502916038;295667224;4047191627;98191;279612819;701;24;1166648;3;5943;851071
2;87;1573683353807;1573683362987;9180;15154436460;28510876963;504006564;294068894;4047192685;97446;279613596;1196;95;1741880;-102;8970;649503
2;88;1573683362987;1573683368706;5719;15195990834;28510896543;505432033;299320099;4047196162;91052;279616518;618;29;1033960;95;5719;686645
2;89;1573683368707;1573683374200;5493;15164600980;28510882655;503188982;295049836;4047193668;96495;279608377;655;29;1077424;-15;5494;787378
2;90;1573683374200;1573683379997;5797;15109087692;28510879742;504882230;295121111;4047192971;97192;279611548;687;30;1149472;17;5797;832091
2;91;1573683379997;1573683385544;5547;15210984450;28510890881;505656378;296426130;4047195444;93080;279609170;663;25;1098704;9;5547;796958
2;92;1573683385544;1573683391371;5827;15139304874;28510884968;504451610;295996600;4047194297;94019;279611237;849;123;1002240;-7;5827;851281
2;93;1573683391371;1573683396903;5532;15179662486;28510876937;501733473;297249254;4047192581;92602;279606703;817;24;799496;-11;5531;802037
2;94;1573683396903;1573683409122;12219;15182815648;28510884746;501774071;297517749;4047194211;101830;279615024;1378;53;2224392;-64;12220;1370187
2;95;1573683409122;1573683414318;5196;15153824574;28510874946;501638696;295072234;4047192438;90592;279608125;628;30;1028584;64;5196;548291
2;96;1573683414318;1573683420057;5739;15135766564;28510874751;502024405;293906951;4047192229;93884;279610904;693;21;1118272;-9;5739;809694
2;97;1573683420057;1573683425484;5427;15187217986;28510889588;501423012;297709832;4047195181;94472;279607709;788;94;1026120;20;5427;795698
2;98;1573683425484;1573683431121;5637;15133586346;28510886992;503811721;295646229;4047194299;97167;279612470;682;24;1108296;-10;5637;810269
2;99;1573683431122;1573683437150;6028;15116517340;28510879658;503979828;295868419;4047193188;95338;279608295;727;25;1060288;8;6029;878038
2;100;1573683437150;1573683442475;5325;15161544616;28510877087;506243937;295377889;4047192489;88601;279604790;650;23;1063240;-10;5325;768085
2;101;1573683442475;1573683452174;9699;15107630758;28510876416;502918644;293641724;4047192518;101393;279614466;1186;42;1911824;-137;9676;1225281
2;102;1573683452175;1573683458238;6063;15148041952;28510880052;503503232;296025959;4047193264;98077;279611598;928;94;1139976;64;5831;280562
2;103;1573683458238;1573683463810;5572;15098097104;28510947188;505286503;293275012;4047205227;95344;279607624;610;26;988888;77;5572;614606
2;104;1573683463810;1573683469427;5617;15094140358;28510876287;503297867;292514556;4047192229;93722;279604583;676;23;1086824;8;5617;801041
2;105;1573683469427;1573683474966;5539;15108305570;28510891910;502576284;292325968;4047195481;93930;279603990;672;23;1089152;0;5539;793397
2;106;1573683474966;1573683480431;5465;15117481086;28510856977;504474200;293285713;4047189129;92641;279608807;658;25;1073456;-18;5465;785758
2;107;1573683480431;1573683485706;5275;15281389738;28510871297;503241506;301134025;4047191816;85135;279600163;757;91;1015344;81;5275;774446
2;108;1573683485706;1573683491076;5370;15221537622;28510865029;502309896;296501882;4047190658;86990;279600510;704;26;1044000;-60;5370;778097
2;109;1573683491076;1573683500877;9801;15196608414;28510874125;502983567;297204715;4047192449;91676;279601733;1135;39;1798736;-121;9801;1048407
2;110;1573683500877;1573683506406;5529;15138592248;28510891723;502731199;293413274;4047195283;89971;279605274;687;36;1108608;54;5529;364226
2;111;1573683506406;1573683511851;5445;15124656986;28510880102;504791386;293463729;4047194085;92598;279605404;672;34;1064704;39;5445;658835
2;112;1573683511851;1573683517419;5568;15176727156;28510883284;503138075;295948372;4047194215;93282;279606812;817;102;1059256;14;5568;808781
2;113;1573683517419;1573683523247;5828;15132709616;28510845875;504768157;293084784;4047186762;91646;279605247;737;29;1156976;-1;5828;836042
2;114;1573683523247;1573683528777;5530;15108958920;28510867694;505310929;291603346;4047191299;88468;279605329;614;37;987176;-6;5530;792446
3;65;1573684060749;1573684066127;5378;15143501498;29111185456;502138695;294927613;4047247321;102469;279656340;613;25;1076456;54;5379;487948
3;66;1573684066127;1573684071302;5175;15171830900;29110900797;502743290;296947576;4047195389;94950;279634275;724;85;957016;13;5175;748153
3;67;1573684071302;1573684076800;5498;15154099346;29110902983;501314769;296556372;4047196044;97239;279637169;607;24;1061384;1;5497;790246
3;68;1573684076800;1573684082003;5203;15099990286;29110974703;507524131;294547902;4047208882;91550;279628858;548;18;945896;-4;5203;747983
3;69;1573684082003;1573684087433;5430;15133630876;29110870756;504369990;294193845;4047190714;97341;279636924;619;28;1083072;21;5431;775108
3;70;1573684087433;1573684092876;5443;15101814702;29110870691;505425389;293310624;4047190733;93384;279630032;622;25;1096736;-14;5442;781720
3;71;1573684092876;1573684103694;10818;15111509394;29110875462;502275849;297157598;4047191373;100546;279638505;1385;119;2069272;-139;10758;1173368
3;72;1573684103695;1573684109226;5531;15116604064;29110859769;501653003;294636780;4047188713;94646;279639623;575;19;994232;113;5474;265374
3;73;1573684109226;1573684114836;5610;15060597150;29110846458;504310899;291914812;4047185944;97162;279633134;620;27;1066176;31;5611;755499
3;74;1573684114836;1573684120469;5633;15128328886;29110870889;504685342;295910349;4047190807;96775;279640642;656;24;1125656;-16;5632;808831
3;75;1573684120469;1573684125816;5347;15117563868;29110881420;502459991;295194079;4047192965;94133;279635406;622;24;1066360;18;5347;766740
3;76;1573684125816;1573684131645;5829;15098400638;29110866425;503748751;292760183;4047190144;100253;279640281;677;85;1137824;141;5829;838257
3;77;1573684131645;1573684136803;5158;15107703612;29110878210;505204339;295385130;4047192313;95888;279629749;759;36;982424;-156;5159;755757
3;78;1573684136803;1573684146404;9601;15114337998;29110859914;503138473;293808455;4047188674;95551;279631567;1017;30;1734112;-99;9601;1279436
3;79;1573684146404;1573684151758;5354;15217309170;29110864679;499975469;298533372;4047189445;94768;279631900;633;35;1086608;52;5353;304199
3;80;1573684151758;1573684157222;5464;15167636320;29110876090;500858938;298813635;4047191751;92296;279634575;637;18;1073112;53;5465;656234
3;81;1573684157222;1573684163020;5798;15236926898;29110871558;501690178;298855246;4047190969;98194;279632525;766;84;1096816;53;5797;848574
3;82;1573684163020;1573684168580;5560;15104375104;29110865402;505010265;293227384;4047189577;95308;279628318;699;19;1081288;-55;5560;801565
3;83;1573684168580;1573684173682;5102;15095819358;29110890159;500271842;292462965;4047194913;87639;279620507;521;16;884376;-9;5103;731263
3;84;1573684173683;1573684178936;5253;15056905540;29110905386;507499525;287587464;4047197105;92001;279625713;601;29;1005832;7;5254;754762
3;85;1573684178937;1573684184484;5547;15109652420;29110869580;504055907;294411434;4047190652;96273;279635315;653;28;1109632;19;5547;796274
3;86;1573684184484;1573684195670;11186;15183023844;29110872837;500621628;298197113;4047191295;94249;279636385;1441;129;2149112;-85;11065;1303742
3;87;1573684195670;1573684201253;5583;15089929426;29110890055;503266038;293015688;4047194182;94958;279632741;606;28;1026344;60;5583;516875
3;88;1573684201253;1573684206711;5458;15027958120;29110856252;506997751;289258802;4047187792;97936;279630339;623;32;1037712;-4;5458;778416
3;89;1573684206711;1573684212520;5809;15162146574;29110859197;501540063;297230676;4047188405;98469;279631198;673;31;1118248;8;5809;834694
3;90;1573684212520;1573684218096;5576;15139136536;29110865719;504040695;296803065;4047190225;100633;279644943;899;68;807376;-4;5577;883015
3;91;1573684218096;1573684223684;5588;15080915386;29110858161;504625994;293196294;4047188394;103345;279642962;730;37;872944;-4;5588;803563
3;92;1573684223684;1573684230799;7115;15129903204;29110865828;502905896;295308633;4047189800;99072;279633810;789;30;1305904;11;7115;1020426
3;93;1573684230799;1573684241349;10550;15173286666;29110869200;503387340;298268914;4047190492;93915;279631066;1226;49;2042568;-108;10407;1197281
3;94;1573684241351;1573684246904;5553;15111314046;29110853461;502169502;292242556;4047187403;93439;279626519;857;107;1054064;68;5553;327834
3;95;1573684246904;1573684252358;5454;15079310262;29110862329;505381115;293260760;4047189517;95682;279631534;683;32;1009288;60;5455;695149
3;96;1573684252358;1573684257864;5506;15159701512;29110854336;503848194;297541148;4047187618;96213;279636177;615;33;1008344;-7;5506;791051
3;97;1573684257865;1573684263779;5914;15142679080;29110859289;502935330;294685340;4047188407;99268;279634413;710;28;1173184;-6;5914;849196
3;98;1573684263779;1573684268936;5157;15117874848;29110890551;504644803;294639293;4047194670;94313;279641097;624;28;1015968;-15;5158;738612
3;99;1573684268936;1573684274510;5574;15074463938;29110860883;505527162;293284785;4047188832;100237;279637616;659;36;1087504;13;5573;798879
3;100;1573684274510;1573684280440;5930;15163937556;29110859264;504218582;296392647;4047188532;98835;279635800;907;92;1130576;-1;5930;878803
3;101;1573684280440;1573684290098;9658;15111404566;29110869174;506810763;293662849;4047190426;96397;279634387;1082;56;1773144;-31;9659;980621
3;102;1573684290098;1573684295696;5598;15105320600;29110864479;504773152;293879201;4047189559;96541;279633203;682;34;1110200;18;5598;768677
3;103;1573684295696;1573684301022;5326;15080686458;29110918804;503116141;294665207;4047199038;93575;279629600;651;36;1049720;20;5326;763416
3;104;1573684301022;1573684306791;5769;15091594994;29110869197;503154307;293814158;4047190191;92658;279624939;697;36;1131552;7;5768;826421
3;105;1573684306791;1573684313131;6340;15123193190;29110848837;502513405;296153283;4047186547;98053;279631642;959;93;1213416;-8;6341;936370
3;106;1573684313132;1573684318618;5486;15046002406;29110862798;505808225;290946227;4047189423;95758;279632837;612;33;991648;-4;5486;785189
3;107;1573684318618;1573684324141;5523;15139675714;29110846265;503490230;293836370;4047186313;96321;279628173;667;37;1072544;5;5524;791137
3;108;1573684324141;1573684333450;9309;15127640642;29110845151;500908503;295479861;4047186101;94051;279627718;1120;49;1798360;-105;9265;1017337
3;109;1573684333450;1573684339349;5899;15181433466;29110838154;500079315;296189320;4047184673;95769;279632322;895;87;1134584;84;5899;433371
3;110;1573684339349;1573684345283;5934;15191512868;29110851043;501668172;297923292;4047187316;95748;279625990;727;40;1153944;30;5934;822708
3;111;1573684345283;1573684350653;5370;15183645220;29110888470;502861107;297007561;4047194382;94026;279626670;605;29;977136;-29;5370;770955
3;112;1573684350653;1573684355972;5319;15079687380;29110872824;506701295;291843996;4047191277;91066;279626042;673;37;1069184;-1;5319;763414
3;113;1573684355972;1573684361469;5497;15109111052;29110848821;505010436;294678543;4047186780;95108;279623515;686;39;1094656;18;5497;787625
3;114;1573684361469;1573684366988;5519;15186781300;29110845152;500170099;295313766;4047186042;92046;279621859;677;26;1067256;-5;5519;790121
4;66;1573684896881;1573684902391;5510;15075866122;28510902834;504201587;294512944;4047196205;93661;279632466;604;20;1074992;67;5510;346590
4;67;1573684902391;1573684908025;5634;15053780264;28510925041;502745117;293144897;4047201204;97854;279634698;768;90;1057408;38;5635;668470
4;68;1573684908026;1573684913806;5780;15091380812;28510872356;501195128;294547854;4047191445;96737;279630446;639;19;1118320;1;5780;830463
4;69;1573684913806;1573684919221;5415;15067771298;28510871265;502758977;294405840;4047191230;92931;279626795;552;17;969320;-8;5416;776784
4;70;1573684919221;1573684924602;5381;15037660550;28510866913;503114570;293931030;4047190470;92603;279628273;615;23;1069016;25;5380;770756
4;71;1573684924602;1573684930160;5558;15106938280;28510877021;500197044;295268733;4047192531;91277;279631168;626;26;1099936;-18;5558;796604
4;72;1573684930160;1573684935566;5406;15136389108;28510861518;502537603;296011276;4047189684;98969;279636408;610;21;1059616;-2;5407;776785
4;73;1573684935567;1573684946199;10632;15062835330;28510853640;502714799;294353456;4047187868;102098;279637326;1332;98;2042392;-108;10555;991936
4;74;1573684946199;1573684951923;5724;15092756862;28510877152;504678035;294925632;4047192549;97095;279636886;576;27;1014472;113;5725;540571
4;75;1573684951923;1573684957328;5405;15098093016;28510883837;501161540;293878871;4047193850;91161;279627417;618;16;1076224;-10;5404;775339
4;76;1573684957328;1573684962952;5624;15070384844;28510868938;503942389;295964068;4047190915;94909;279632343;630;30;1098824;10;5625;808811
4;77;1573684962953;1573684968461;5508;15109077180;28510877878;504426762;296185947;4047192678;93347;279631083;636;22;1101392;4;5508;793080
4;78;1573684968461;1573684974167;5706;15035198990;28510877027;502196463;292179469;4047192650;89027;279627943;778;85;1104200;10;5706;832158
4;79;1573684974167;1573684979459;5292;15074274868;28510874333;502198518;294690160;4047191868;89366;279623299;556;19;960160;-12;5292;761108
4;80;1573684979459;1573684989379;9920;15042063910;28510874140;505592425;292605897;4047191972;95277;279631859;1130;36;1935992;-141;9857;1284408
4;81;1573684989379;1573684994832;5453;15066263994;28510872493;502756067;293921147;4047191640;96778;279635240;611;15;1041464;76;5142;179365
4;82;1573684994832;1573685000227;5395;15101335238;28510863013;501920502;295891335;4047189760;97303;279635381;757;90;1005608;57;5395;528569
4;83;1573685000227;1573685005647;5420;15082392760;28510893069;500303379;293755771;4047196287;92354;279638578;619;25;1062784;21;5420;778850
4;84;1573685005647;1573685011526;5879;15096154720;28510892103;502734829;296715391;4047195056;99725;279637033;623;22;1045560;-15;5879;845287
4;85;1573685011526;1573685017067;5541;15094165032;28510869487;502427049;295571981;4047191051;92456;279629772;653;34;1107872;-13;5542;796192
4;86;1573685017067;1573685022461;5394;15182611978;28510878719;503468639;299773048;4047192988;94529;279628470;637;22;1070008;3;5393;775542
4;87;1573685022461;1573685027755;5294;15145964810;28510887983;502604366;297899320;4047194478;91352;279632861;608;37;1035600;0;5295;759522
4;88;1573685027755;1573685038007;10252;15111288058;28510866778;504099960;296263848;4047190680;96996;279632617;1316;98;1985184;-123;10227;1046396
4;89;1573685038007;1573685043558;5551;15056698950;28510865977;503401566;292907387;4047190360;98697;279633368;592;31;1003536;109;5551;358209
4;90;1573685043558;1573685049268;5710;15032993952;28510862901;504145495;292576728;4047189834;101897;279638887;664;29;1118160;3;5711;635738
4;91;1573685049268;1573685054969;5701;15031323274;28510863483;504017688;291424687;4047189871;96269;279637651;662;35;1101736;21;5701;772671
4;92;1573685054970;1573685060635;5665;15096825590;28510868534;501368179;295103790;4047190953;97648;279637012;811;92;950848;-7;5666;852741
4;93;1573685060635;1573685066916;6281;15074381594;28510853012;503437352;296653341;4047187914;105458;279643559;887;30;899808;15;6280;903302
4;94;1573685066916;1573685073545;6629;15034254078;28510859894;505001255;293860341;4047189340;96144;279630402;718;25;1183800;-14;6630;950366
4;95;1573685073545;1573685083980;10435;15065257324;28510865235;502051280;293659035;4047190368;97722;279633648;1246;45;2066744;-137;10147;1108033
4;96;1573685083980;1573685089569;5589;15022461658;28510857208;502968527;291906425;4047188631;97913;279636451;676;24;1114160;33;5523;109472
4;97;1573685089569;1573685095110;5541;15091197144;28510875960;503202705;294929800;4047192505;95767;279633124;839;107;1025192;69;5541;308572
4;98;1573685095110;1573685100738;5628;15106366836;28510883747;502003549;295091179;4047193536;92837;279626614;627;29;1029024;49;5628;712331
4;99;1573685100738;1573685106558;5820;15056071880;28510862014;506246986;295052975;4047189520;98354;279634648;655;22;1073952;-15;5821;837024
4;100;1573685106558;1573685112009;5451;15062496610;28510864283;503097964;293251954;4047190037;96571;279631187;682;23;1098136;22;5451;786150
4;101;1573685112010;1573685117204;5194;15130387778;28510879041;505055317;298198160;4047192991;88999;279627932;617;20;1003528;-9;5194;748447
4;102;1573685117204;1573685122635;5431;15131101134;28510880404;502446011;295609668;4047193519;94974;279633641;675;18;1089056;-3;5431;779061
4;103;1573685122635;1573685132438;9803;15105879780;28510924737;503675970;297156694;4047200945;96693;279633504;1308;111;1845808;-58;9803;829683
4;104;1573685132438;1573685137868;5430;15046659114;28510875525;505971599;291484268;4047192245;90578;279627153;606;17;980848;43;5430;723345
4;105;1573685137868;1573685143655;5787;15137269196;28510876393;503583428;294931421;4047192381;94746;279630601;712;19;1146152;24;5788;829457
4;106;1573685143655;1573685149042;5387;15127093288;28510851848;505018273;292191504;4047188150;94190;279630074;660;19;1055520;-20;5387;769479
4;107;1573685149042;1573685155545;6503;15261573596;28510834643;504601243;293635944;4047184520;99547;279632192;847;96;1259624;116;6503;943319
4;108;1573685155545;1573685160960;5415;15182290194;28510842910;504148615;292368597;4047186171;92281;279624333;773;25;1046904;-97;5414;795155
4;109;1573685160960;1573685166017;5057;15189007800;28510852395;502341427;295047557;4047188074;84291;279618765;555;21;898152;-11;5058;724090
4;110;1573685166017;1573685176278;10261;15279943608;28510855288;502149379;295469938;4047188676;91614;279625357;1215;33;1932712;-143;9680;977479
4;111;1573685176278;1573685181722;5444;15161879248;28510894786;502052306;297334831;4047196193;93411;279627528;669;28;1082792;74;5325;193556
4;112;1573685181722;1573685187525;5803;15127941402;28510850842;505584183;292847884;4047188074;92662;279629184;856;102;1082048;60;5803;445509
4;113;1573685187525;1573685193219;5694;15177172018;28510861914;506334262;293014873;4047189705;94181;279632132;673;28;1079744;6;5694;765248
4;114;1573685193219;1573685198646;5427;15071534156;28510847789;508429842;292155395;4047187232;90230;279627208;628;31;996064;12;5427;775651
4;115;1573685198646;1573685204060;5414;15235559170;28510850912;504321203;293696681;4047187971;88277;279625229;665;35;1081744;7;5415;774009
