0;55;1573722835321;1573722840631;5310;16343440896;73611075592;1271385793;5565978;12802099899;526888;798604308;0;0;0;0;0;0
0;56;1573722840631;1573722847650;7019;16344599406;73611088840;1250832216;7519559;12802104650;528230;798645598;0;0;0;0;0;0
0;57;1573722847650;1573722853677;6027;16390213456;73611130783;1351512454;5973680;12802155090;527966;799289588;7;12;584;0;3;9
0;58;1573722853677;1573722858915;5238;16418709882;73611076414;1298498087;9057508;12802100721;520514;798586401;69;10;5392;0;135;998
0;59;1573722858916;1573722865438;6522;16444238858;73611098371;1256104186;10290390;12802114170;518891;798746286;0;0;0;0;0;0
0;60;1573722865438;1573722871097;5659;16335215986;73611098445;1306428798;5614152;12802122752;526568;798876068;5;12;568;0;10;11
0;61;1573722871097;1573722876490;5393;16345441242;73611080981;1339395609;5916847;12802105288;521485;798660435;0;0;0;0;0;0
0;62;1573722876490;1573722881848;5358;16344181554;73611088700;1284039340;5095154;12802113007;522152;798753111;5;9;400;0;2;5
0;63;1573722881848;1573722887757;5909;16375395040;73611138981;1299979854;5618576;12802163288;522628;799411617;0;0;0;0;0;0
0;64;1573722887757;1573722893944;6187;16374541524;73611147133;1258548532;5487439;12802171440;527430;799546110;59;10;5136;0;123;719
0;65;1573722893944;1573722900066;6122;16382630070;73611150875;1277738395;5675987;12802175182;527005;799655313;6;12;576;0;11;24
0;66;1573722900067;1573722905964;5897;16359767638;73611137315;1309793261;5170478;12802161622;521209;799429948;0;0;0;0;0;0
0;67;1573722905964;1573722912034;6070;16480672574;73611139278;1341096308;9685268;12802163585;525590;799505367;0;0;0;0;0;0
0;68;1573722912034;1573722918261;6227;16484714584;73611154846;1339369631;9675125;12802179153;527577;799625184;7;12;584;0;3;7
0;69;1573722918261;1573722926317;8056;16480722944;73611139420;1329156821;11732117;12802155958;529072;799418799;0;0;0;0;0;0
0;70;1573722926317;1573722932411;6094;16469759658;73611126285;1301220168;9843978;12802150592;525628;799304010;61;26;6160;0;112;669
0;71;1573722932411;1573722938399;5988;16368732768;73611132729;1315839883;5947084;12802157036;526357;799177327;0;0;0;0;0;0
0;72;1573722938399;1573722944021;5622;16384005828;73611111925;1307096439;5705981;12802136232;529036;799116520;5;13;576;0;11;14
0;73;1573722944021;1573722950204;6183;16420975510;73611142336;1314366596;7687612;12802166643;536794;799476764;0;0;0;0;0;0
0;74;1573722950205;1573722956026;5821;16459935464;73611116650;1286413434;9241607;12802140957;531272;799117718;0;0;0;0;0;0
0;75;1573722956026;1573722961650;5624;16397824728;73611112957;1270447123;7190202;12802137264;519868;799123814;441;20;43568;0;1408;1665
0;76;1573722961650;1573722967598;5948;16378567328;73611135800;1306679678;5868411;12802160107;527052;799494168;69;10;6416;0;130;958
0;77;1573722967598;1573722973449;5851;16358161930;73611127560;1330568829;5289424;12802151867;524451;799277937;0;0;0;0;0;0
0;78;1573722973449;1573722979794;6345;16389690776;73611151887;1289433912;5965032;12802176194;525081;799517171;4;9;392;0;2;3
0;79;1573722979794;1573722986155;6361;16393429836;73611160893;1304993320;5637442;12802185200;529346;799759026;0;0;0;0;0;0
0;80;1573722986155;1573722992305;6150;16365269502;73611153360;1318893546;5391388;12802177667;521414;799565185;83;12;1328;0;44;1219
0;81;1573722992305;1573722998541;6236;16388387580;73611142515;1307190480;5972197;12802166822;527896;799454064;0;0;0;0;0;0
0;82;1573722998541;1573723004294;5753;16333695250;73611091678;1287005948;5504609;12802115985;530891;798855019;92;30;9400;0;168;1477
0;83;1573723004294;1573723010302;6008;16378534040;73611142907;1347316948;5553360;12802167214;525047;799479225;0;0;0;0;0;0
0;84;1573723010302;1573723016264;5962;16427491636;73611138344;1353929294;7162008;12802162651;527377;799384271;0;0;0;0;0;0
0;85;1573723016264;1573723022089;5825;16482752636;73611131540;1323972161;9588095;12802155847;527624;799375655;6;11;568;0;2;5
0;86;1573723022089;1573723028095;6006;16443489440;73611141852;1321625974;7609347;12802166159;529970;799494824;0;0;0;0;0;0
0;87;1573723028095;1573723034122;6027;16366133530;73611136451;1299645466;5877385;12802160758;526977;799317104;0;0;0;0;0;0
0;88;1573723034122;1573723039984;5862;16354631212;73611124789;1309430218;5396360;12802149096;523990;799273909;50;24;5344;0;98;489
0;89;1573723039984;1573723046214;6230;16388170040;73611154357;1337708075;5750612;12802178664;530211;799629110;0;0;0;0;0;0
0;90;1573723046214;1573723052146;5932;16371042634;73611140060;1331784880;5476057;12802164367;530123;799476064;3;9;384;0;2;2
0;91;1573723052146;1573723058061;5915;16371949878;73611133093;1340863335;5249170;12802157666;529733;799400919;0;0;0;0;0;0
0;92;1573723058061;1573723063980;5919;16390022196;73611140823;1344479907;5513427;12802165769;521486;799439181;0;0;0;0;0;0
0;93;1573723063981;1573723070210;6229;16376265492;73611150943;1351212772;5174244;12802175250;528665;799529962;56;17;6048;0;110;549
0;94;1573723070210;1573723076541;6331;16388401012;73611158940;1342413281;5707364;12802183247;530369;799652678;0;0;0;0;0;0
0;95;1573723076541;1573723082439;5898;16377129812;73611134291;1325162965;5407469;12802158598;533163;799436267;5;12;568;0;2;5
0;96;1573723082439;1573723088254;5815;16370054360;73611128587;1296866691;5671815;12802152894;526519;799317678;0;0;0;0;0;0
0;97;1573723088255;1573723094578;6323;16384901246;73611156356;1340518614;5340203;12802180663;524162;799700683;0;0;0;0;0;0
0;98;1573723094578;1573723100506;5928;16376771528;73611122760;1325200998;5894617;12802147067;527014;799270593;44;25;6616;0;100;421
0;99;1573723100507;1573723106122;5615;16350057470;73611111235;1307645915;5395479;12802135542;522920;799090830;0;0;0;0;0;0
0;100;1573723106123;1573723112352;6229;16479667364;73611147220;1345073514;9646583;12802171527;528595;799528708;6;12;576;0;2;6
0;101;1573723112352;1573723118494;6142;16459099030;73611133280;1303366956;9688691;12802157587;523443;799331506;0;0;0;0;0;0
0;102;1573723118494;1573723124352;5858;16349865626;73611109927;1300910719;5689785;12802134234;525583;799030727;0;0;0;0;0;0
0;103;1573723124352;1573723129912;5560;16356420442;73611110272;1309702797;5788247;12802134579;527445;799060136;36;26;5784;0;96;309
0;104;1573723129912;1573723135613;5701;16357147376;73611121167;1274548176;5290631;12802145474;532280;799267853;0;0;0;0;0;0
1;52;1573723654847;1573723661188;6341;16384474926;73611147575;1333638670;5443065;12802171882;539860;799421870;0;0;0;0;0;0
1;53;1573723661188;1573723669326;8138;16360188410;73611116469;1290801741;8026998;12802133009;535999;799069462;8;10;576;0;3;7
1;54;1573723669326;1573723675347;6021;16463400774;73611130000;1291721807;9218735;12802154307;527305;799384536;0;0;0;0;0;0
1;55;1573723675347;1573723681903;6556;16504104698;73611158799;1279376262;9954906;12802183106;538142;799739956;6;8;400;0;2;8
1;56;1573723681903;1573723687808;5905;16437830480;73611127760;1262596421;8994134;12802152067;535220;799367979;0;0;0;0;0;0
1;57;1573723687808;1573723696032;8224;16489276500;73611112285;1258031759;12459532;12802128084;535085;799019029;40;28;6088;0;102;362
1;58;1573723696032;1573723702377;6345;16371197102;73611135470;1346596070;5514395;12802159777;531064;799117073;0;0;0;0;0;0
1;59;1573723702377;1573723708687;6310;16372283196;73611146143;1344996072;5499522;12802170450;539158;799502400;7;12;584;0;3;8
1;60;1573723708687;1573723714658;5971;16431577592;73611126100;1321097221;8736561;12802150407;533078;799419457;0;0;0;0;0;0
1;61;1573723714658;1573723720761;6103;16482153598;73611130876;1304825785;10002037;12802155183;537635;799430666;0;0;0;0;0;0
1;62;1573723720761;1573723726915;6154;16458669936;73611121247;1301929180;8776659;12802145554;529740;799008767;31;32;5968;0;81;236
1;63;1573723726915;1573723732995;6080;16495591876;73611138403;1310397860;10050306;12802162710;544305;799484524;0;0;0;0;0;0
1;64;1573723732995;1573723739030;6035;16461078498;73611140973;1320906816;9391175;12802165280;543042;799518433;0;0;0;0;0;0
1;65;1573723739030;1573723749618;10588;16463732486;73611114579;1288765697;13681541;12802130725;544272;799055007;8;11;584;0;3;6
1;66;1573723749618;1573723755679;6061;16356339850;73611141541;1283530170;5269782;12802165848;541924;799443178;7;11;576;0;3;13
1;67;1573723755679;1573723761859;6180;16364982320;73611141103;1305568192;5540972;12802165410;530782;799540056;27;16;5328;0;81;260
1;68;1573723761859;1573723767805;5946;16409487500;73611123860;1321989572;7583208;12802148167;531625;799205461;0;0;0;0;0;0
1;69;1573723767806;1573723774252;6446;16481542150;73611150629;1317204915;10053378;12802174936;539613;799648225;7;12;584;0;3;7
1;70;1573723774252;1573723779979;5727;16438582526;73611122556;1281165657;8509075;12802146863;535557;799326164;0;0;0;0;0;0
1;71;1573723779979;1573723786065;6086;16459208822;73611142487;1285817368;9589431;12802166794;540744;799586590;5;8;392;0;2;6
1;72;1573723786065;1573723792447;6382;16479620498;73611148593;1286734038;10096201;12802172900;538277;799619182;0;0;0;0;0;0
1;73;1573723792447;1573723798598;6151;16576790944;73611137050;1325859773;13246578;12802161357;537169;799564894;27;16;5328;0;94;273
1;74;1573723798598;1573723804815;6217;16503646404;73611130116;1311000563;11121565;12802154423;538087;799297263;8;11;584;0;11;19
1;75;1573723804815;1573723811192;6377;16364872966;73611140677;1329765757;5673093;12802164984;544494;799610643;0;0;0;0;0;0
1;76;1573723811192;1573723817551;6359;16380701702;73611157999;1299598616;5683028;12802182306;537661;799767759;5;12;568;0;2;4
1;77;1573723817551;1573723823385;5834;16428527068;73611130189;1292325198;8365594;12802154496;539559;799297481;0;0;0;0;0;0
1;78;1573723823385;1573723829608;6223;16474054686;73611138591;1342428941;9501190;12802162898;531824;799424731;0;0;0;0;0;0
1;79;1573723829608;1573723835485;5877;16389944962;73611122109;1309826802;6439382;12802146416;541701;799199411;35;28;5752;0;129;308
1;80;1573723835485;1573723841543;6058;16374064104;73611117674;1284209880;5833517;12802141981;540705;799208212;0;0;0;0;0;0
1;81;1573723841543;1573723847924;6381;16374068776;73611134674;1296409831;6257125;12802158981;541531;799479303;439;23;42944;1;1468;1751
1;82;1573723847924;1573723853814;5890;16374886084;73611139369;1318824318;5606232;12802163676;530989;799426397;1;0;712;-1;4;4
1;83;1573723853814;1573723860001;6187;16375286270;73611149586;1361186315;5086328;12802173893;538008;799574092;0;0;0;0;0;0
1;84;1573723860001;1573723866303;6302;16371543414;73611136364;1339145924;5766913;12802160671;540098;799401904;57;24;7096;0;118;652
1;85;1573723866303;1573723872313;6010;16339947992;73611102481;1262393636;5655555;12802126788;532336;798930069;0;0;0;0;0;0
1;86;1573723872313;1573723878479;6166;16433889356;73611142304;1278938175;8361495;12802166611;538525;799458801;77;9;1080;0;41;1139
1;87;1573723878479;1573723884554;6075;16490749056;73611136575;1294702036;9894367;12802160882;536583;799214912;0;0;0;0;0;0
1;88;1573723884555;1573723890351;5796;16398774896;73611131520;1307230670;6360304;12802155827;533878;799412407;0;0;0;0;0;0
1;89;1573723890351;1573723896398;6047;16385907332;73611136251;1294391547;5903454;12802160824;529157;799359482;9;14;632;0;3;5
1;90;1573723896398;1573723902504;6106;16375676966;73611148261;1319207774;5221048;12802173207;534831;799665507;26;26;6320;0;119;220
1;91;1573723902505;1573723908428;5923;16387152566;73611137478;1323365668;5569689;12802161785;540039;799543615;6;12;576;0;3;7
1;92;1573723908428;1573723914427;5999;16375279846;73611135441;1320146868;5267863;12802159748;539511;799492750;0;0;0;0;0;0
1;93;1573723914427;1573723920643;6216;16384949426;73611151002;1359782713;5507028;12802175309;539213;799660104;0;0;0;0;0;0
1;94;1573723920645;1573723926343;5698;16370110570;73611114521;1300924176;5579645;12802138828;541698;799227972;6;12;576;0;3;8
1;95;1573723926343;1573723931651;5308;16344073514;73611106105;1276840592;4928629;12802130412;529869;799108903;21;16;5200;0;80;169
1;96;1573723931651;1573723937603;5952;16383676744;73611142905;1306365447;5317313;12802167212;543319;799442611;0;0;0;0;0;0
1;97;1573723937603;1573723943588;5985;16389151744;73611141577;1287313986;5543208;12802165884;538827;799496447;7;12;584;0;3;10
1;98;1573723943588;1573723949599;6011;16348541260;73611124888;1247362477;5494135;12802149195;533191;799197659;0;0;0;0;0;0
1;99;1573723949599;1573723955414;5815;16372260128;73611131092;1308892832;5273808;12802155399;531333;799386323;5;13;576;0;2;5
1;100;1573723955414;1573723961345;5931;16348464318;73611132152;1299329204;5128700;12802156459;539856;799251092;0;0;0;0;0;0
1;101;1573723961345;1573723967577;6232;16381212848;73611152207;1362661308;5591001;12802176514;539748;799757325;47;10;4944;0;92;488
2;57;1573724520479;1573724526114;5635;16360900452;73611092527;1306914582;5413510;12802116834;529176;798701490;6;11;568;0;2;3
2;58;1573724526114;1573724531715;5601;16323397578;73611098264;1304168236;5182503;12802122571;535927;798813491;0;0;0;0;0;0
2;59;1573724531715;1573724537738;6023;16377734690;73611146872;1281348421;5497528;12802171179;535531;799457761;8;11;584;0;3;6
2;60;1573724537738;1573724543629;5891;16420370194;73611137539;1314143481;7017648;12802161846;534570;799433162;0;0;0;0;0;0
2;61;1573724543629;1573724549576;5947;16468445512;73611132827;1337268295;9493926;12802157134;536792;799326351;0;0;0;0;0;0
2;62;1573724549576;1573724555406;5830;16435561786;73611133459;1309062892;7632595;12802157766;533842;799364615;44;30;6928;0;100;434
2;63;1573724555406;1573724561027;5621;16381886492;73611119865;1284896601;5811871;12802144172;532590;799167253;0;0;0;0;0;0
2;64;1573724561027;1573724566922;5895;16385620296;73611139009;1290808976;5600810;12802163316;537781;799424660;0;0;0;0;0;0
2;65;1573724566923;1573724572914;5991;16357423608;73611137796;1319081413;5186473;12802162103;540795;799569916;8;10;576;0;3;8
2;66;1573724572914;1573724579215;6301;16378820054;73611153041;1308418723;5671983;12802177348;542365;799616715;0;0;0;0;0;0
2;67;1573724579216;1573724591281;12065;16332710042;73611089213;1259412440;10864019;12802105012;531690;798728513;43;34;7064;0;104;415
2;68;1573724591282;1573724597271;5989;16364538772;73611125891;1266948824;6994246;12802150198;535292;799174711;0;0;0;0;0;0
2;69;1573724597271;1573724603344;6073;16488057692;73611143772;1317441655;9534197;12802168079;540692;799496758;7;11;576;0;3;5
2;70;1573724603344;1573724608799;5455;16441399012;73611109443;1260019258;8532151;12802133750;532807;798957123;0;0;0;0;0;0
2;71;1573724608799;1573724614977;6178;16369748344;73611149812;1291356606;5322613;12802174119;536198;799528152;6;12;576;0;2;6
2;72;1573724614978;1573724620795;5817;16374819946;73611132387;1253289690;5460122;12802156694;537299;799301276;0;0;0;0;0;0
2;73;1573724620795;1573724626684;5889;16427498644;73611136233;1323837043;7212565;12802160540;537560;799550068;23;22;5392;0;89;238
2;74;1573724626685;1573724633024;6339;16482759644;73611162013;1347678123;9802056;12802186320;542980;799723437;7;12;584;0;11;24
2;75;1573724633024;1573724639138;6114;16392873868;73611136229;1324257104;7343766;12802160536;537327;799403625;0;0;0;0;0;0
2;76;1573724639138;1573724645490;6352;16385678842;73611160086;1338352022;5698809;12802184393;539250;799665931;5;8;392;0;2;6
2;77;1573724645490;1573724651526;6036;16359894366;73611141624;1323507284;5050285;12802165931;537320;799407934;0;0;0;0;0;0
2;78;1573724651526;1573724657506;5980;16368868548;73611141814;1287251493;5556757;12802166121;533348;799435135;0;0;0;0;0;0
2;79;1573724657506;1573724663367;5861;16372694040;73611131488;1320015398;5367377;12802155795;537520;799341825;43;33;6424;0;119;739
2;80;1573724663367;1573724669393;6026;16350866748;73611102163;1282343724;6113028;12802126470;538221;798889559;938;63;248512;0;3114;6784
2;81;1573724669393;1573724675152;5759;16343656976;73611121563;1286932205;5346138;12802145870;533940;799286633;6;11;568;0;3;7
2;82;1573724675153;1573724680731;5578;16353483944;73611112555;1293664529;5175662;12802136862;537386;799155563;0;0;0;0;0;0
2;83;1573724680732;1573724687153;6421;16384638008;73611146684;1323951383;5678801;12802170991;544255;799544642;0;0;0;0;0;0
2;84;1573724687153;1573724692918;5765;16362731292;73611123271;1314232783;5171931;12802147578;533236;799100261;61;31;7896;0;138;682
2;85;1573724692918;1573724699044;6126;16360043578;73611142789;1300915025;5514703;12802167096;536626;799573276;0;0;0;0;0;0
2;86;1573724699044;1573724704950;5906;16366740306;73611131779;1269716829;5424180;12802156086;532264;799317947;0;0;0;0;0;0
2;87;1573724704950;1573724710953;6003;16447492468;73611140671;1254008491;9119396;12802164978;534034;799357882;87;12;1376;0;84;2511
2;88;1573724710953;1573724717303;6350;16465417034;73611126476;1266949530;9787322;12802150783;534148;799259017;0;0;0;0;0;0
2;89;1573724717303;1573724723214;5911;16390633206;73611124359;1310121999;5906142;12802148932;535421;799290868;66;31;9464;0;158;800
2;90;1573724723214;1573724728914;5700;16365859780;73611123987;1328686124;5517172;12802148933;534780;799325520;0;0;0;0;0;0
2;91;1573724728914;1573724734787;5873;16374157836;73611136424;1315299279;5422656;12802160731;539937;799449710;0;0;0;0;0;0
2;92;1573724734787;1573724740432;5645;16367117278;73611115931;1312457140;5487131;12802140238;531254;799093538;8;10;576;0;3;11
2;93;1573724740432;1573724746568;6136;16384648082;73611146103;1348615502;5245835;12802170410;538400;799590988;0;0;0;0;0;0
2;94;1573724746569;1573724752673;6104;16375584986;73611137777;1317836700;5639504;12802162084;540845;799385476;6;13;584;0;2;5
2;95;1573724752673;1573724758666;5993;16378451842;73611140212;1303721740;5737661;12802164519;538505;799420786;39;16;5392;0;76;389
2;96;1573724758666;1573724764699;6033;16434831056;73611136223;1329811117;8070859;12802160530;535472;799418239;0;0;0;0;0;0
2;97;1573724764699;1573724770765;6066;16477020822;73611127072;1324998472;9594146;12802151379;537993;799395083;5;8;392;0;2;3
2;98;1573724770765;1573724776311;5546;16387452888;73611111435;1279639635;7162827;12802135742;527325;799083518;0;0;0;0;0;0
2;99;1573724776312;1573724782333;6021;16367028510;73611133477;1310031749;5646230;12802157784;536021;799375717;8;10;576;0;3;11
2;100;1573724782334;1573724788191;5857;16349415070;73611125792;1318202276;5179198;12802150099;537426;799328612;0;0;0;0;0;0
2;101;1573724788191;1573724794426;6235;16372634326;73611149090;1314761649;5688310;12802173397;539244;799576863;52;4;5616;0;103;595
2;102;1573724794426;1573724800774;6348;16382276166;73611159595;1347045301;5656749;12802183902;543426;799676294;8;11;584;0;11;23
2;103;1573724800774;1573724806694;5920;16443275696;73611121909;1269064833;9082592;12802146216;540419;799134573;0;0;0;0;0;0
2;104;1573724806694;1573724812661;5967;16517644154;73611139424;1313065896;9400076;12802163731;532932;799444589;0;0;0;0;0;0
2;105;1573724812661;1573724817962;5301;16381528062;73611090325;1300320387;6355873;12802114632;531450;798719481;5;13;576;0;3;6
2;106;1573724817962;1573724824101;6139;16379450920;73611142613;1328075341;5767897;12802166920;532808;799358927;0;0;0;0;0;0
3;56;1573725384086;1573725389298;5212;16360984110;73611074527;1263946574;5699779;12802098834;519984;798543367;0;0;0;0;0;0
3;57;1573725389298;1573725399612;10314;16345562422;73611093510;1282428170;10804503;12802110048;534140;798617689;56;23;5840;0;94;522
3;58;1573725399612;1573725405210;5598;16349523840;73611088147;1273632427;6109204;12802112454;518397;798761027;0;0;0;0;0;0
3;59;1573725405210;1573725410925;5715;16350262892;73611120265;1292169796;5236522;12802144572;524345;799305675;6;12;576;0;3;7
3;60;1573725410925;1573725417308;6383;16382172798;73611142145;1358257502;5605815;12802166452;524898;799445964;0;0;0;0;0;0
3;61;1573725417308;1573725423813;6505;16383131580;73611157150;1352267604;5187862;12802181457;525667;799706812;7;11;576;0;2;4
3;62;1573725423813;1573725429500;5687;16344485818;73611083146;1266135591;6042320;12802107453;524633;798681169;45;12;5200;0;94;477
3;63;1573725429500;1573725435164;5664;16341204614;73611086409;1281831116;6183495;12802110716;527189;798668137;0;0;0;0;0;0
3;64;1573725435164;1573725441484;6320;16384541064;73611156528;1314493333;5684083;12802180835;526866;799555120;6;13;584;0;11;15
3;65;1573725441484;1573725447752;6268;16371383106;73611149944;1334851740;5368185;12802174251;527534;799533741;0;0;0;0;0;0
3;66;1573725447752;1573725453804;6052;16359224664;73611118533;1292024371;5817045;12802142840;526744;799106605;5;8;392;0;2;4
3;67;1573725453804;1573725460033;6229;16353982096;73611120886;1285086894;5494968;12802145193;526108;799350062;0;0;0;0;0;0
3;68;1573725460033;1573725471675;11642;16335802760;73611099028;1294668365;10731856;12802114799;536518;798813702;44;24;6040;0;85;384
3;69;1573725471675;1573725477609;5934;16362410822;73611128907;1300381328;5675771;12802153214;524336;799292959;0;0;0;0;0;0
3;70;1573725477609;1573725483701;6092;16346051814;73611112574;1321906668;5913987;12802136881;527977;799072765;0;0;0;0;0;0
3;71;1573725483701;1573725489852;6151;16375938306;73611146811;1340404835;5261072;12802171118;527576;799459401;6;11;568;0;2;3
3;72;1573725489853;1573725495609;5756;16366083452;73611115700;1282010649;5370071;12802140007;528093;799099709;39;8;5456;0;94;439
3;73;1573725495609;1573725501745;6136;16395941182;73611138399;1322699180;7132363;12802162706;526021;799396282;7;13;592;0;11;20
3;74;1573725501745;1573725507658;5913;16468782480;73611135430;1362946121;9596674;12802159737;523885;799281809;0;0;0;0;0;0
3;75;1573725507658;1573725513318;5660;16422088322;73611099336;1290222431;8435302;12802123643;529270;798890160;0;0;0;0;0;0
3;76;1573725513318;1573725519467;6149;16466836154;73611148311;1268339839;9524570;12802172618;520405;799574531;6;11;568;0;2;5
3;77;1573725519467;1573725525640;6173;16475435554;73611151404;1290018862;9582696;12802175711;524352;799569071;0;0;0;0;0;0
3;78;1573725525640;1573725531574;5934;16472639654;73611136987;1306200019;8899031;12802161294;527089;799404348;46;26;6040;0;92;445
3;79;1573725531574;1573725537725;6151;16479685468;73611143952;1274415117;9846721;12802168259;525026;799368452;0;0;0;0;0;0
3;80;1573725537726;1573725544070;6344;16404020092;73611157119;1316203054;6153706;12802181426;521993;799781291;0;0;0;0;0;0
3;81;1573725544071;1573725550269;6198;16368362658;73611152740;1300781061;5657259;12802177047;523535;799601312;40;14;1760;1;192;308
3;82;1573725550269;1573725556258;5989;16396112586;73611139543;1284460578;7177680;12802163850;527124;799335440;412;8;53896;-1;1289;1467
3;83;1573725556258;1573725562262;6004;16482459468;73611137097;1291280356;9678902;12802161404;518238;799445357;9;10;608;0;3;12
3;84;1573725562263;1573725568460;6197;16489310810;73611149058;1318672332;10348354;12802173365;523891;799470183;47;18;6608;0;111;558
3;85;1573725568460;1573725574606;6146;16572898292;73611133344;1306660449;12999752;12802157651;528132;799293236;0;0;0;0;0;0
3;86;1573725574607;1573725580387;5780;16552865048;73611123342;1291069984;10982166;12802147649;524884;799309159;7;12;584;0;11;13
3;87;1573725580388;1573725586242;5854;16357521866;73611129111;1262671488;5429978;12802153418;533257;799344033;0;0;0;0;0;0
3;88;1573725586242;1573725592172;5930;16377826086;73611139599;1310755169;5633608;12802163906;524261;799451692;77;17;1320;0;52;1243
3;89;1573725592172;1573725597935;5763;16425543996;73611124253;1311242790;7967491;12802148826;524986;799215829;0;0;0;0;0;0
3;90;1573725597936;1573725604012;6076;16490940462;73611145453;1261021070;9734139;12802170399;525419;799365178;47;20;6160;0;106;559
3;91;1573725604012;1573725609902;5890;16409564150;73611132103;1266875066;7336285;12802156410;528453;799345572;6;8;400;0;2;7
3;92;1573725609902;1573725616053;6151;16387502528;73611142160;1308923239;5848892;12802166467;522501;799554787;0;0;0;0;0;0
3;93;1573725616053;1573725622531;6478;16400424404;73611161434;1322779850;6343629;12802185741;528688;799853293;7;11;576;0;2;3
3;94;1573725622531;1573725629019;6488;16493511230;73611151928;1319596296;10008881;12802176235;528867;799592418;0;0;0;0;0;0
3;95;1573725629019;1573725634516;5497;16451887506;73611105577;1280827733;8566943;12802129884;523978;799051206;0;0;0;0;0;0
3;96;1573725634516;1573725640702;6186;16365826492;73611145139;1328116709;5462720;12802169446;523042;799499902;39;27;6064;0;95;315
3;97;1573725640702;1573725646919;6217;16387604874;73611155714;1282700989;5705238;12802180021;524764;799619643;0;0;0;0;0;0
3;98;1573725646919;1573725652698;5779;16362267158;73611125995;1285594529;5144923;12802150302;526062;799190931;0;0;0;0;0;0
3;99;1573725652698;1573725658333;5635;16381651578;73611121507;1261261073;5896782;12802145814;525538;799194331;6;13;584;0;3;5
3;100;1573725658333;1573725664387;6054;16373469300;73611139223;1255981627;5615161;12802163530;521998;799386273;0;0;0;0;0;0
3;101;1573725664388;1573725670824;6436;16398102274;73611160903;1303612109;5855375;12802185210;525529;799740373;46;29;5840;0;98;454
3;102;1573725670824;1573725676765;5941;16346736846;73611136396;1273716466;5280022;12802160703;520632;799484133;0;0;0;0;0;0
3;103;1573725676765;1573725682827;6062;16370552658;73611132515;1295275031;5845607;12802156822;527292;799300198;0;0;0;0;0;0
3;104;1573725682827;1573725688663;5836;16386698360;73611133659;1304081450;5098421;12802157966;529335;799443775;9;10;584;0;3;18
3;105;1573725688664;1573725694638;5974;16371131840;73611143665;1281693794;5485454;12802167972;522397;799455322;0;0;0;0;0;0
4;56;1573726220003;1573726225594;5591;16363276456;73611108522;1287585987;5285778;12802132829;527577;798977071;0;0;0;0;0;0
4;57;1573726225594;1573726237686;12092;16347442318;73611092886;1282262005;11427032;12802108696;537458;798767459;7;11;576;0;2;4
4;58;1573726237686;1573726248687;11001;16320644748;73611097667;1288422727;9788532;12802113466;538568;798791687;41;27;5784;0;102;365
4;59;1573726248687;1573726254676;5989;16404361294;73611137142;1299855217;5956287;12802161449;537890;799414605;0;0;0;0;0;0
4;60;1573726254676;1573726260666;5990;16472333638;73611124906;1332188338;9690601;12802149213;527743;799290286;0;0;0;0;0;0
4;61;1573726260667;1573726266979;6312;16512717822;73611157909;1350946981;9691698;12802182216;534722;799718986;7;11;576;0;3;6
4;62;1573726266979;1573726272816;5837;16375739454;73611124763;1294174587;5701624;12802149070;527704;799141402;0;0;0;0;0;0
4;63;1573726272816;1573726278653;5837;16381444988;73611133606;1310736607;5664780;12802157913;538660;799406894;40;22;5656;0;95;375
4;64;1573726278653;1573726284483;5830;16332606090;73611117273;1285034669;4847971;12802141580;533520;799080530;0;0;0;0;0;0
4;65;1573726284483;1573726290719;6236;16391519864;73611150406;1337735547;5664962;12802174713;530652;799538568;0;0;0;0;0;0
4;66;1573726290719;1573726296895;6176;16371948272;73611145606;1316989081;5308584;12802169913;535089;799518917;7;12;584;0;3;9
4;67;1573726296895;1573726303186;6291;16385933612;73611157546;1336181127;5707360;12802181853;531325;799639709;0;0;0;0;0;0
4;68;1573726303186;1573726309093;5907;16367997658;73611133135;1310501563;5433541;12802157442;536418;799465581;48;23;6032;0;93;479
4;69;1573726309093;1573726320576;11483;16415564312;73611098774;1287738401;13623634;12802114573;532977;798892853;0;0;0;0;0;0
4;70;1573726320576;1573726326779;6203;16355355810;73611134374;1296445683;5716506;12802158681;533225;799371887;9;10;584;0;3;10
4;71;1573726326779;1573726332386;5607;16352998786;73611112540;1324251301;5475386;12802136847;522693;799092291;0;0;0;0;0;0
4;72;1573726332386;1573726338438;6052;16358824478;73611127710;1286901328;5222933;12802152017;529158;799350452;0;0;0;0;0;0
4;73;1573726338438;1573726344555;6117;16387296960;73611148006;1319731297;5604603;12802172313;529464;799605462;34;27;5840;0;80;245
4;74;1573726344556;1573726350535;5979;16372451534;73611137106;1328186806;5263453;12802161413;531217;799346571;0;0;0;0;0;0
4;75;1573726350535;1573726356745;6210;16356208888;73611129456;1330983053;5923050;12802153763;529764;799335460;9;10;584;0;3;5
4;76;1573726356745;1573726362247;5502;16340031504;73611113437;1258528105;5411395;12802137744;531318;799129931;0;0;0;0;0;0
4;77;1573726362247;1573726368082;5835;16338348124;73611108739;1269556694;5636599;12802133046;525898;799068175;0;0;0;0;0;0
4;78;1573726368082;1573726373865;5783;16351653396;73611126255;1320835675;5355432;12802150562;530990;799384503;8;10;576;0;3;11
4;79;1573726373865;1573726379909;6044;16438760646;73611141499;1332748880;7377082;12802165806;530697;799607101;76;14;6704;0;219;1181
4;80;1573726379909;1573726386261;6352;16493359098;73611153256;1340044285;9823350;12802177563;535322;799641839;5;8;392;0;10;12
4;81;1573726386262;1573726392454;6192;16474928642;73611141226;1309387085;10982319;12802165533;533743;799449722;0;0;0;0;0;0
4;82;1573726392454;1573726398291;5837;16555155350;73611124134;1278403518;13259744;12802148441;528324;799169548;0;0;0;0;0;0
4;83;1573726398291;1573726404246;5955;16533563556;73611130993;1340462669;11307644;12802155300;528059;799249923;8;11;584;0;11;33
4;84;1573726404246;1573726410158;5912;16360893736;73611127595;1316279046;5575126;12802151902;541810;799301441;0;0;0;0;0;0
4;85;1573726410159;1573726416376;6217;16375325252;73611138227;1344461919;5832109;12802162534;533256;799464973;485;34;49080;0;1517;2112
4;86;1573726416376;1573726422514;6138;16474213534;73611143539;1382597362;9099945;12802167846;527554;799643572;0;0;0;0;0;0
4;87;1573726422514;1573726428086;5572;16450310268;73611106261;1307016919;8743348;12802130568;526788;799082197;0;0;0;0;0;0
4;88;1573726428086;1573726434236;6150;16477395312;73611137564;1314992418;8894805;12802161871;533624;799454702;7;12;584;0;3;13
4;89;1573726434236;1573726440476;6240;16493395452;73611149511;1353586686;9725947;12802174084;530935;799526070;0;0;0;0;0;0
4;90;1573726440476;1573726446494;6018;16457139272;73611137541;1348430322;8641106;12802162487;527238;799497800;83;14;6544;0;148;1385
4;91;1573726446495;1573726452396;5901;16482871626;73611117816;1288592403;9619610;12802142123;527806;799169660;80;15;1320;0;50;1290
4;92;1573726452396;1573726458087;5691;16478964520;73611121797;1288603550;9482547;12802146104;526667;799230146;0;0;0;0;0;0
4;93;1573726458087;1573726463976;5889;16380125294;73611134966;1341810440;5375638;12802159273;538052;799435273;8;11;584;0;3;15
4;94;1573726463976;1573726469966;5990;16363888050;73611132217;1322764344;5440493;12802156524;534791;799485657;0;0;0;0;0;0
4;95;1573726469966;1573726475850;5884;16406546768;73611112072;1285721333;7252434;12802136379;530096;799061350;0;0;0;0;0;0
4;96;1573726475850;1573726481546;5696;16473082326;73611121504;1292182949;9369304;12802145811;528680;799163950;73;35;7280;0;139;891
4;97;1573726481546;1573726487346;5800;16453483578;73611121908;1312500636;8268660;12802146215;529105;799078463;0;0;0;0;0;0
4;98;1573726487346;1573726493121;5775;16486385262;73611122119;1324619445;9651044;12802146426;531353;799265918;5;8;392;0;2;6
4;99;1573726493121;1573726499393;6272;16477635628;73611153098;1351698336;9624877;12802177405;534168;799625438;0;0;0;0;0;0
4;100;1573726499393;1573726505281;5888;16456498040;73611128513;1325793626;8991768;12802152820;535814;799473109;0;0;0;0;0;0
4;101;1573726505281;1573726511349;6068;16473630264;73611135935;1296040685;9641680;12802160242;539624;799496894;7;11;576;0;2;5
4;102;1573726511350;1573726517377;6027;16469476710;73611141611;1285707952;8713587;12802165918;531467;799524622;55;12;5008;0;114;668
4;103;1573726517377;1573726523260;5883;16462947006;73611131492;1339052387;9287069;12802155799;535660;799434253;0;0;0;0;0;0
4;104;1573726523261;1573726529648;6387;16458984712;73611154701;1335052336;7850874;12802179008;536536;799720724;7;12;584;0;11;12
4;105;1573726529648;1573726535989;6341;16402970936;73611160506;1344083295;5530930;12802184813;533718;799763096;0;0;0;0;0;0
