0;66;1573762085394;1573762090427;5033;16549205704;73610992943;1223544879;12414746;12802096891;552061;798347976;1545;2203;379336;2;5033;807695
0;67;1573762090427;1573762095047;4620;16157214976;73610992734;1238583993;37388;12802096682;575102;798352839;1064;1743;337912;-8;4620;659584
0;68;1573762095047;1573762099768;4721;16162733338;73610992518;1219353671;57174;12802096466;591980;798599277;905;5216;589608;-55;4721;657297
0;69;1573762099768;1573762105384;5616;16369126968;73610994031;1253057902;10328167;12802097979;572149;798611364;1471;3694;505000;71;5617;646618
0;70;1573762105385;1573762111292;5907;16462727860;73610995287;1269396150;12582648;12802099235;588880;798612632;1044;4627;644992;-19;5908;843039
0;71;1573762111292;1573762116519;5227;16453538766;73610993753;1272639344;9625146;12802097701;585339;798593764;963;5198;580840;-1;5227;751572
0;72;1573762116519;1573762121792;5273;16494660834;73610993516;1257585615;10931778;12802097464;583244;798580057;1732;2097;430736;1;5272;884891
0;73;1573762121792;1573762126596;4804;16406711456;73610993387;1277785167;6867677;12802097335;548146;798453309;1296;2971;375904;16;4804;686421
0;74;1573762126596;1573762131230;4634;16170065604;73610993431;1293423433;47891;12802097379;582118;798362410;933;4527;561960;-5;4635;662233
0;75;1573762131230;1573762135882;4652;16174096664;73610993472;1279829855;340052;12802097420;588277;798088327;857;3125;445504;-21;4652;636857
0;76;1573762135883;1573762141613;5730;16727708662;73610994594;1263674146;19869651;12802098542;583483;798611701;1137;3633;589792;37;5731;813671
0;77;1573762141613;1573762147024;5411;16696037904;73610994041;1269417996;19240809;12802097989;579085;798606330;1353;3287;400568;-9;5411;777820
0;78;1573762147024;1573762152298;5274;16475031280;73610994043;1265673346;10512847;12802097991;578859;798575801;1567;1915;319680;-14;5274;847991
0;79;1573762152298;1573762157011;4713;16474000374;73610993879;1279811874;9933262;12802096879;546516;798566701;2837;10162;1350040;-85;13403;1899048
0;80;1573762165702;1573762171377;5675;16575628638;73610994595;1265517099;14768524;12802098543;585546;798646213;1054;4583;569824;88;5676;769851
0;81;1573762171377;1573762177196;5819;16563970538;73610994338;1289612946;15929071;12802098286;582717;798599433;1142;3645;513048;14;5818;831866
0;82;1573762177196;1573762182684;5488;16488891352;73610994770;1286593225;11226541;12802098717;589755;798618434;1371;2624;361168;-12;5488;1041445
0;83;1573762182684;1573762187622;4938;16460790002;73610992888;1249956433;10180480;12802096836;573858;798557350;1026;2358;361392;-8;4938;708863
0;84;1573762187622;1573762192288;4666;16313523598;73610992891;1229610516;5342017;12802096839;580097;798362986;1116;751;314584;9;4666;672326
0;85;1573762192288;1573762196910;4622;16165584864;73610992833;1225620058;94397;12802096781;586904;798540852;1468;2279;382040;1;4622;666025
0;86;1573762196910;1573762201530;4620;16158413344;73610992827;1216005297;33643;12802096775;558398;798538696;842;3022;417680;-10;4620;657741
0;87;1573762201530;1573762207717;6187;16291049964;73611007137;1258367478;7361362;12802102563;600557;798379221;1663;1986;349504;1;6188;891079
0;88;1573762207717;1573762212758;5041;16387595968;73610993993;1278017084;6621464;12802097941;584677;798573396;1400;2279;333304;79;5041;800543
0;89;1573762212758;1573762217521;4763;16326442116;73610993034;1286653077;4581521;12802096982;563659;798548744;1232;1938;308200;-74;4762;686794
0;90;1573762217521;1573762222145;4624;16172209760;73610992518;1283833593;54044;12802096466;589020;798573836;942;5648;524152;15;4624;663290
0;91;1573762222145;1573762226854;4709;16171284120;73610992661;1281921507;710994;12802096609;577524;798564167;826;3497;641272;-77;4709;613071
0;92;1573762226854;1573762232158;5304;16380794996;73610993935;1270168049;7971916;12802097883;587543;798576545;1272;2451;341544;58;5304;741255
0;93;1573762232158;1573762237291;5133;16385966024;73610994044;1250543270;7528511;12802097992;585284;798561665;1125;3761;413224;-5;5134;727423
0;94;1573762237291;1573762242670;5379;16487844094;73610994058;1289116498;12488255;12802098006;587388;798596673;958;3552;489664;2;5378;765319
0;95;1573762242670;1573762247429;4759;16604194560;73610993050;1239880317;13628744;12802096998;572422;798548070;1141;3362;451912;23;4759;836182
0;96;1573762247429;1573762252132;4703;16443667560;73610992667;1299331086;8632630;12802096615;583928;798380047;873;3368;393328;-9;4704;678302
0;97;1573762252133;1573762256755;4622;16168878624;73610992656;1283096599;43041;12802096604;555506;798545498;1218;1845;363200;-2;4623;663669
0;98;1573762256755;1573762261898;5143;16291635424;73610993850;1300334385;5144905;12802097798;552522;798589095;1095;4127;552016;-7;5142;738101
0;99;1573762261898;1573762267447;5549;16415159162;73610994412;1288138897;10072546;12802098360;583181;798590437;1115;4679;511864;5;5549;797953
0;100;1573762267447;1573762273454;6007;16463539036;73610994650;1295605297;13787795;12802098864;592702;798625594;981;4248;626136;13;6008;860361
0;101;1573762273455;1573762278715;5260;16506897532;73610993392;1284036570;11931154;12802097979;579592;798595672;1542;1972;325304;-23;5261;847632
0;102;1573762278716;1573762283433;4717;16432961234;73610993876;1291825303;8046807;12802097824;574373;798586453;1146;3064;365032;6;4718;677795
0;103;1573762283433;1573762288068;4635;16167805378;73610993715;1265066638;101343;12802097663;556352;798551781;897;5466;564096;-1;4634;661240
0;104;1573762288068;1573762293036;4968;16202742010;73610993862;1302711853;2494116;12802097810;577229;798591051;896;3648;546032;0;4968;717499
0;105;1573762293036;1573762298549;5513;16400608948;73610995061;1320651892;8517719;12802099009;578008;798660899;1101;4322;517344;19;5513;789969
0;106;1573762298549;1573762303867;5318;16383423142;73610994463;1267207533;7945744;12802098411;590358;798591818;1187;2332;402128;-3;5319;767873
0;107;1573762303867;1573762308953;5086;16370781294;73610993891;1306278181;7194402;12802097839;579789;798577191;1294;3505;440960;-9;5086;884372
0;108;1573762308953;1573762313614;4661;16296585992;73610992557;1292491559;5049408;12802096505;560095;798579610;913;3262;381368;16;4660;663605
0;109;1573762313614;1573762318252;4638;16221476000;73610992535;1288248747;1784294;12802096483;541533;798630153;1153;1287;377136;-1;4639;664965
0;110;1573762318252;1573762323005;4753;16177421084;73610992632;1286211684;1108211;12802096580;560413;798567387;1047;4345;545016;-7;4753;589221
0;111;1573762323005;1573762328596;5591;16424635438;73610993987;1270914127;10700483;12802097935;583873;798533558;1192;4551;498824;-8;5590;804151
0;112;1573762328596;1573762334239;5643;16429218232;73610994879;1269306088;10792039;12802098827;591342;798623998;972;4071;580368;-12;5644;808308
0;113;1573762334239;1573762339827;5588;16541962206;73610993739;1473735862;17543035;12802097687;584902;798517730;1354;3665;514936;0;5587;854926
0;114;1573762339827;1573762344580;4753;16614327398;73610992655;1286512435;15016309;12802096603;544219;798589637;1205;2188;300392;13;4754;682550
0;115;1573762344580;1573762349239;4659;16292564422;73610992552;1285267011;2399467;12802096500;560659;798524394;1019;4555;496784;5;4658;665351
1;62;1573762910099;1573762914725;4626;16171278864;73611072347;1270998318;141850;12802096654;547720;798539490;1088;3386;467184;0;4626;661034
1;63;1573762914725;1573762923587;8862;16508697420;73611086205;1281976506;18627162;12802102015;585238;798686928;1938;6651;741600;14;8862;1264576
1;64;1573762923587;1573762946529;22942;16409505750;73611084964;1259732215;11375946;12802100912;570450;798601676;6262;11789;1767240;-2;22942;3409117
1;65;1573762946529;1573762951910;5381;16476401052;73611073880;1260972438;12085156;12802098187;551222;798596051;1237;3805;525680;11;5381;767789
1;66;1573762951910;1573762957522;5612;16506930674;73611073917;1310157590;11717771;12802098224;567024;798599507;1106;5107;529864;-20;5612;802430
1;67;1573762957522;1573762962417;4895;16483524830;73611072640;1264680419;9983677;12802096947;562249;798598063;1228;2268;419008;156;4895;708846
1;68;1573762962417;1573762967508;5091;16399614688;73611072227;1286918136;9334081;12802096534;547451;798567194;1346;2178;389512;-155;5091;851058
1;69;1573762967508;1573762972159;4651;16262656468;73611072187;1282326375;3304150;12802096494;561945;798583514;1461;732;289520;11;4651;670870
1;70;1573762972159;1573762976783;4624;16166941934;73611072159;1279309764;50513;12802096466;550961;798586411;985;4509;502016;7;4624;665285
1;71;1573762976783;1573762982233;5450;16361054044;73611073782;1244729126;7695872;12802098089;566266;798621330;1309;3664;407448;3;5451;779409
1;72;1573762982234;1573762987823;5589;16388478392;73611073904;1276933530;8829635;12802098211;576516;798589635;953;3692;575456;-27;5589;800978
1;73;1573762987823;1573762992872;5049;16355460930;73611072609;1245239298;7173499;12802096916;567111;798593832;1497;1822;292520;7;5049;722979
1;74;1573762992872;1573762997544;4672;16333845338;73611072215;1240176049;5841967;12802096522;561885;798565857;1512;2037;326696;12;4672;798801
1;75;1573762997544;1573763002199;4655;16279943598;73611072190;1243936853;4914769;12802096497;553048;798584788;1087;1742;341528;1;4655;668080
1;76;1573763002199;1573763006818;4619;16158979240;73611072154;1221233290;43085;12802096461;515549;798562682;1344;2915;329912;0;4619;665477
1;77;1573763006818;1573763011441;4623;16163913164;73611072157;1222278240;112871;12802096464;551696;798591659;948;2868;558016;-133;4623;565026
1;78;1573763011441;1573763022501;11060;16483507018;73611088308;1270905487;24565513;12802104107;601157;798751163;2343;8400;1093976;117;11060;1498540
1;79;1573763022501;1573763028095;5594;16468661154;73611074556;1272865144;11591956;12802098863;579718;798553557;1423;2348;379408;15;5594;952516
1;80;1573763028095;1573763032802;4707;16448018944;73611072250;1328132851;9797971;12802096557;531023;798560642;1081;2628;356376;7;4707;674747
1;81;1573763032802;1573763037478;4676;16346930588;73611072216;1298646441;6214991;12802096523;527704;798594763;1445;2355;323568;-5;4676;671541
1;82;1573763037478;1573763042102;4624;16168822706;73611072160;1297937476;52008;12802096467;518094;798582038;1144;3072;486272;-24;4624;662657
1;83;1573763042102;1573763047432;5330;16300905256;73611073404;1299497967;6411365;12802097711;548859;798600286;1294;3500;466664;22;5330;893319
1;84;1573763047432;1573763052932;5500;16380549424;73611074531;1265200485;7712101;12802098838;562526;798612136;1121;3192;413816;-18;5500;795385
1;85;1573763052932;1573763058661;5729;16438612602;73611074263;1265044604;13017110;12802098570;563152;798602811;1018;4045;571128;3;5729;821554
1;86;1573763058662;1573763063647;4985;16672186906;73611073075;1353554833;18405582;12802097382;548948;798572606;912;3535;393200;21;4986;715445
1;87;1573763063647;1573763068582;4935;16548825520;73611072584;1308313412;12455515;12802096891;563085;798545537;1249;2186;383136;-1;4935;705032
1;88;1573763068582;1573763073205;4623;16163033952;73611072462;1300154372;30009;12802096769;566718;798579101;1133;1562;360480;-13;4623;668771
1;89;1573763073205;1573763077928;4723;16166431080;73611072475;1309763767;45951;12802096782;561729;798412746;1236;3447;394144;10;4723;676882
1;90;1573763077928;1573763083074;5146;16286388476;73611073618;1313177918;4454244;12802097925;569368;798599753;1380;3333;493456;-9;5146;729610
1;91;1573763083074;1573763088418;5344;16421213198;73611073107;1257863582;8987372;12802097414;569188;798510962;1062;4221;550696;-5;5344;761167
1;92;1573763088418;1573763093729;5311;16418307506;73611073385;1273877018;9259221;12802097692;564327;798614202;924;4470;579168;4;5311;759819
1;93;1573763093729;1573763099217;5488;16472271150;73611074458;1270989760;10506860;12802098765;562694;798595437;1743;1192;323528;-14;5488;790982
1;94;1573763099218;1573763104259;5041;16415737030;73611072612;1236129453;9683212;12802096919;551438;798363691;1234;4085;537416;14;5042;723903
1;95;1573763104259;1573763109208;4949;16244903890;73611072288;1254240719;1948613;12802096595;579400;798568293;1159;5084;497856;-7;4949;711607
1;96;1573763109208;1573763114146;4938;16248018070;73611073413;1292562524;3550944;12802097720;576748;798578201;1470;4742;596384;17;4938;832701
1;97;1573763114146;1573763119509;5363;16379244038;73611073529;1277808588;8053550;12802097836;565604;798604745;1096;5064;652992;-7;5363;772105
1;98;1573763119509;1573763124585;5076;16397670698;73611072958;1296899004;6940792;12802097531;560638;798596751;978;4522;470256;13;5076;719379
1;99;1573763124586;1573763129339;4753;16569470942;73611071758;1226754782;15261958;12802096704;545021;798517322;723;4157;547904;-19;4754;679383
1;100;1573763129339;1573763134071;4732;16546899342;73611072268;1249163976;15341165;12802096575;528205;798557699;775;4784;562416;-7;4732;677469
1;101;1573763134071;1573763138981;4910;16324383516;73611072537;1201880297;4835330;12802096844;538653;798468984;1040;3006;473960;18;4910;647323
1;102;1573763138981;1573763144237;5256;16370684204;73611074086;1278762440;6999224;12802098393;556165;798660056;1425;1960;405712;-9;5256;912182
1;103;1573763144237;1573763149579;5342;16368744594;73611074466;1256416343;7465677;12802098773;565174;798599036;1170;2914;374736;14;5342;761637
1;104;1573763149579;1573763154788;5209;16457170224;73611073689;1271418115;10866530;12802097996;569362;798573144;1041;3940;461720;-17;5209;745580
1;105;1573763154788;1573763159516;4728;16456266630;73611073453;1281981162;10052880;12802097761;568676;798596355;885;4202;500040;11;4728;677971
1;106;1573763159516;1573763164299;4783;16327436960;73611073220;1286697363;4887323;12802097527;572810;798696282;1066;2402;474896;-10;4783;685690
1;107;1573763164299;1573763168957;4658;16215695422;73611073732;1305697227;2364616;12802098039;577810;798346991;1240;3549;376416;8;4658;670957
1;108;1573763168957;1573763173920;4963;16564603010;73611073141;1241089138;13096977;12802097448;563793;798599367;1266;4566;545360;148;4963;756679
1;109;1573763173920;1573763178741;4821;16522279946;73611072576;1258372484;11828167;12802096883;558967;798573080;1038;4705;661224;-159;4821;759744
1;110;1573763178741;1573763184621;5880;16489958612;73611074102;1267095711;13710329;12802098409;568843;798704355;1265;4752;617656;15;5880;846815
1;111;1573763184621;1573763190558;5937;16470347600;73611075339;1306987912;13556679;12802099646;568838;798616908;1023;4655;670984;1;5937;847944
2;69;1573763758949;1573763776488;17539;16518284948;73611087389;1274025012;18209885;12802103675;565118;798737417;3521;16546;2038304;2;17539;2674897
2;70;1573763776488;1573763787985;11497;16589745524;73611087082;1253672434;29428755;12802102881;565587;798479142;2207;9097;1180904;4;11497;1648804
2;71;1573763787985;1573763792802;4817;16456701564;73611072829;1311068344;7337093;12802097136;522030;798415839;1064;4293;421120;-8;4817;690663
2;72;1573763792802;1573763797484;4682;16303929062;73611073389;1293610138;5221470;12802097696;516453;798624295;1466;2644;443984;12;4681;821908
2;73;1573763797484;1573763802144;4660;16242792876;73611072847;1266998268;3036983;12802097154;517807;798613192;741;5121;616304;-5;4661;672671
2;74;1573763802144;1573763807276;5132;16306502312;73611073377;1259164787;5192711;12802097684;534874;798632262;973;5044;624776;-13;5132;728919
2;75;1573763807276;1573763812679;5403;16382742344;73611073881;1257895825;8025905;12802098188;542847;798679050;1046;4735;508464;10;5403;782395
2;76;1573763812679;1573763817814;5135;16451632882;73611072684;1244382165;10983963;12802096991;525997;798613757;945;5133;559528;18;5135;734024
2;77;1573763817814;1573763822674;4860;16573229858;73611072581;1254398855;14511969;12802096888;524620;798399974;702;3554;532224;-30;4860;694626
2;78;1573763822674;1573763827387;4713;16478807132;73611072253;1238008788;9900648;12802096560;519340;798317322;1359;4039;456144;26;4713;761512
2;79;1573763827387;1573763832328;4941;16228394064;73611072951;1230365266;3605650;12802097258;528420;798173366;945;3223;509088;-17;4941;706310
2;80;1573763832328;1573763838208;5880;16490928052;73611074298;1274159783;13371530;12802098605;543842;798572826;1305;5061;594040;8;5880;847916
2;81;1573763838208;1573763843321;5113;16497393224;73611073355;1282010509;10772784;12802097662;537246;798545132;1043;4834;469816;13;5113;732196
2;82;1573763843321;1573763848065;4744;16468159060;73611072445;1260264122;11943134;12802096752;524946;798316726;748;3125;534320;-12;4744;683149
2;83;1573763848065;1573763852971;4906;16451092682;73611072242;1230831305;10632793;12802096549;524241;798322190;1003;2081;319960;-11;4906;701298
2;84;1573763852971;1573763857732;4761;16300609752;73611072503;1250286732;6069734;12802096810;518770;798306980;1441;2546;326088;-7;4761;801768
2;85;1573763857732;1573763862740;5008;16227750058;73611072775;1270470170;3734086;12802097082;530418;798588235;1254;2292;423960;13;5008;633601
2;86;1573763862740;1573763867832;5092;16480581616;73611073900;1258082716;11083808;12802098207;530288;798606558;1040;2609;428480;16;5092;728928
2;87;1573763867833;1573763872902;5069;16468940744;73611073558;1251045378;10210849;12802097865;535469;798649143;1545;1637;307424;-9;5069;729444
2;88;1573763872902;1573763878492;5590;16428337414;73611074188;1316216630;9970195;12802098495;539424;798615174;1339;4248;497288;153;5591;1009553
2;89;1573763878492;1573763883163;4671;16328610800;73611072526;1259240097;5435846;12802096833;517651;798565269;1176;1605;307816;-157;4671;743399
2;90;1573763883163;1573763887811;4648;16255352672;73611072360;1229778719;3040110;12802096667;517564;798352449;950;3771;349248;14;4648;671792
2;91;1573763887812;1573763892432;4620;16160924982;73611072156;1219263549;54020;12802096463;554796;798558814;759;4833;628064;-23;4621;664503
2;92;1573763892432;1573763899776;7344;16460182788;73611084039;1254965941;15418898;12802100579;539223;798586630;1803;4431;710152;13;7344;832299
2;93;1573763899776;1573763905071;5295;16535037134;73611073982;1286406293;14455613;12802098289;535338;798501525;962;4476;516976;-2;5295;751259
2;94;1573763905071;1573763910437;5366;16433806574;73611073367;1277898508;9293660;12802097674;540538;798525385;1022;3651;509520;2;5366;758763
2;95;1573763910437;1573763915752;5315;16370821444;73611073650;1290096141;6851964;12802098010;533486;798540431;1276;2983;450888;-2;5315;897047
2;96;1573763915752;1573763920703;4951;16265184750;73611071491;1274765334;2929374;12802096650;533113;798576930;915;4289;546432;13;4951;712767
2;97;1573763920703;1573763925427;4724;16171353032;73611072177;1302280427;60264;12802096484;533709;798571684;1186;4209;439832;-2;4724;674678
2;98;1573763925427;1573763930302;4875;16304425900;73611072685;1257118371;4280857;12802096992;524971;798542507;1022;2651;530752;-16;4875;556999
2;99;1573763930302;1573763935467;5165;16380997206;73611073365;1262414902;7453780;12802097672;537576;798630608;1037;4327;492584;-12;5165;738802
2;100;1573763935467;1573763941355;5888;16430306224;73611073589;1263022774;11482019;12802097896;544553;798598073;1103;5604;652968;17;5888;839669
2;101;1573763941356;1573763946877;5521;16701182652;73611074405;1243417159;19501151;12802098712;536346;798597402;1687;1969;393360;-8;5522;916195
2;102;1573763946877;1573763951905;5028;16701886518;73611072938;1239131263;16778711;12802097245;523211;798548410;1106;3321;382080;14;5027;718599
2;103;1573763951905;1573763956526;4621;16162842108;73611072468;1275068720;39816;12802096775;516289;798561262;845;4956;553544;-13;4622;666626
2;104;1573763956526;1573763961147;4621;16164269696;73611072470;1257418451;35116;12802096777;530268;798527683;816;3573;578632;16;4621;662331
2;105;1573763961147;1573763966263;5116;16387112708;73611073070;1261483201;8551185;12802097377;525506;798553415;982;4141;513136;-17;5116;715333
2;106;1573763966263;1573763971543;5280;16512967044;73611074011;1308006761;11683580;12802098318;531283;798506637;1056;3668;527072;0;5280;761272
2;107;1573763971543;1573763977182;5639;16439835206;73611074083;1270738723;10780160;12802098390;551921;798626840;1220;2679;400912;159;5639;849324
2;108;1573763977182;1573763982348;5166;16397991752;73611073060;1248321977;8052971;12802097367;532650;798561774;1336;4099;434160;-160;5165;828180
2;109;1573763982348;1573763987009;4661;16302674776;73611072204;1235539655;5114412;12802096511;521319;798377835;1295;1790;375176;-7;4662;770297
2;110;1573763987010;1573763991627;4617;16149497124;73611072153;1203883301;50224;12802096460;519976;798556159;1101;4006;495384;19;4617;659335
2;111;1573763991627;1573763996249;4622;16162681070;73611072157;1225750899;51888;12802096464;515345;798600118;813;3398;447984;-13;4623;661985
2;112;1573763996249;1573764001188;4939;16431626210;73611072734;1318128875;8667345;12802097041;520452;798566147;958;4017;513800;-6;4939;597414
2;113;1573764001188;1573764006665;5477;16570276570;73611073711;1251005079;14175855;12802098018;542672;798591649;955;4380;591840;5;5477;781681
2;114;1573764006665;1573764012169;5504;16540175604;73611074179;1269584276;13997689;12802098486;538183;798577212;958;5030;560608;2;5504;782970
2;115;1573764012169;1573764018083;5914;16621487238;73611074290;1265354071;18925851;12802098597;540940;798669360;1361;3533;544904;15;5914;845748
2;116;1573764018083;1573764022965;4882;16592453386;73611073232;1276790110;13319111;12802097539;524466;798574014;1326;3814;465392;-16;4882;830535
2;117;1573764022965;1573764027593;4628;16155555832;73611072612;1188225455;53629;12802096919;528055;798588026;674;7524;667104;-2;4628;664162
2;118;1573764027593;1573764032791;5198;16290681898;73611073211;1329635123;5699264;12802097518;525425;798416805;890;3722;666616;24;5197;702520
3;66;1573764614734;1573764620103;5369;16549167890;73611073451;1255028227;15041483;12802097758;535851;798522272;1125;3903;470544;40;5370;756132
3;67;1573764620103;1573764625536;5433;16574479910;73611074270;1279257117;15050796;12802098577;534505;798535575;1142;2963;467640;10;5433;773163
3;68;1573764625536;1573764630785;5249;16493736946;73611073912;1264271732;11577085;12802098219;536352;798544060;1038;3849;425928;-14;5249;747363
3;69;1573764630785;1573764635793;5008;16493021692;73611073327;1287802028;11272070;12802097634;531774;798526533;928;3842;520552;0;5008;723143
3;70;1573764635793;1573764640474;4681;16371003798;73611072216;1284329589;7116945;12802096523;519826;798393050;1176;2702;429288;-5;4681;812786
3;71;1573764640474;1573764645097;4623;16169117042;73611072158;1289297933;50553;12802096465;517836;798587315;791;5312;541120;9;4623;657527
3;72;1573764645097;1573764650323;5226;16374025122;73611073397;1276721008;9032937;12802097704;526295;798606505;997;4212;619008;-5;5226;752799
3;73;1573764650323;1573764655557;5234;16517824172;73611073260;1261097416;11836930;12802097567;530017;798605667;962;4448;515536;-2;5234;744494
3;74;1573764655557;1573764660973;5416;16425560932;73611074220;1301588325;9494319;12802098527;540972;798632147;1041;4857;513712;15;5415;774607
3;75;1573764660973;1573764666112;5139;16414194102;73611073667;1281543843;8242663;12802097974;531636;798603899;851;2878;532048;-19;5139;735854
3;76;1573764666112;1573764671190;5078;16355903310;73611072223;1311110388;6553893;12802096530;520385;798315657;1403;4403;460544;65;5079;845216
3;77;1573764671190;1573764675813;4623;16168361784;73611072159;1278496040;51281;12802096466;527536;798309074;823;5500;617848;-51;4622;666807
3;78;1573764675813;1573764680929;5116;16382347560;73611073431;1289512389;8433919;12802097738;528879;798122994;956;4066;643192;-13;5116;692186
3;79;1573764680929;1573764686395;5466;16557232200;73611073593;1287757528;15531301;12802097900;533142;798537150;1104;5010;527264;17;5467;783936
3;80;1573764686396;1573764691567;5171;16515237490;73611073515;1280584813;11238093;12802097822;532708;798540746;854;4543;604880;-22;5172;736725
3;81;1573764691567;1573764696822;5255;16374638614;73611073524;1278533368;7905531;12802097831;535772;798552989;958;3624;493160;0;5255;752915
3;82;1573764696822;1573764701766;4944;16380562564;73611072945;1279414207;6808111;12802097252;530086;798596917;922;3647;455760;175;4944;727803
3;83;1573764701767;1573764706405;4638;16221809172;73611072175;1287808789;1687774;12802096482;520670;798382584;1261;3861;451080;-178;4639;797967
3;84;1573764706405;1573764711028;4623;16169946176;73611072157;1292618268;57884;12802096464;515873;798377927;621;6657;780096;-71;4623;637499
3;85;1573764711028;1573764716587;5559;16396986542;73611073894;1272412905;9656700;12802098201;538344;798473396;1114;3873;563752;80;5559;742418
3;86;1573764716587;1573764726758;10171;16435355926;73611089764;1254677834;21227314;12802105574;557668;798708367;1833;9120;1060624;-6;10171;1460684
3;87;1573764726758;1573764731897;5139;16480512266;73611073145;1251997729;10113034;12802097452;531441;798504480;794;3441;555408;5;5139;738215
3;88;1573764731897;1573764736583;4686;16380175956;73611072540;1234132985;8527398;12802096847;519183;798498564;1562;3393;363928;-6;4686;825126
3;89;1573764736583;1573764741203;4620;16157859274;73611072460;1214277464;40464;12802096767;519833;798442676;741;6146;649728;26;4620;663019
3;90;1573764741203;1573764746034;4831;16262449732;73611072900;1271572291;3396696;12802097207;522387;798485759;817;4287;660880;-26;4831;680029
3;91;1573764746034;1573764750980;4946;16373116126;73611073369;1239267648;6843187;12802097676;527950;798512009;963;3970;453080;-2;4946;710075
3;92;1573764750980;1573764756420;5440;16404210622;73611074238;1275857065;8201312;12802098545;537796;798560377;960;4870;584512;0;5440;770423
3;93;1573764756420;1573764762433;6013;16592951684;73611074776;1265347328;19240517;12802099083;540893;798646080;996;5620;672968;28;6014;855749
3;94;1573764762434;1573764767444;5010;16659810340;73611073501;1266806041;16734332;12802097808;530216;798573114;1592;2428;367640;-14;5010;886591
3;95;1573764767444;1573764772095;4651;16261746012;73611072504;1308971042;1682072;12802096811;515256;798567609;847;3783;461080;-15;4650;667458
3;96;1573764772095;1573764776718;4623;16169746886;73611072255;1290566556;49177;12802096562;520057;798570019;902;6297;636792;149;4624;764011
3;97;1573764776718;1573764782081;5363;16417842788;73611073286;1248696430;9154755;12802097593;531455;798588895;1027;1841;458424;-122;5356;625496
3;98;1573764782081;1573764787215;5134;16535505940;73611072933;1268331253;13426830;12802097506;525717;798574142;929;3114;388976;-12;5134;731339
3;99;1573764787215;1573764792434;5219;16490564366;73611072926;1285729359;10941870;12802097872;537531;798543052;923;4887;562480;7;5219;750303
3;100;1573764792434;1573764798095;5661;16394591996;73611074645;1250378245;8849526;12802098952;537790;798553666;1003;4372;611752;-11;5661;814641
3;101;1573764798095;1573764802860;4765;16373451926;73611072560;1233250495;6242432;12802096867;526968;798526953;1158;1995;338376;4;4765;695835
3;102;1573764802860;1573764807493;4633;16203570852;73611072204;1228633641;1041525;12802096511;527002;798514732;944;4967;538936;-8;4633;664737
3;103;1573764807493;1573764812114;4621;16162544122;73611072473;1240207481;41298;12802096780;544671;798476105;1129;5372;592056;-5;4621;754255
3;104;1573764812114;1573764817713;5599;16498529104;73611074354;1239317720;13959098;12802098661;531865;798449531;1073;4972;645136;15;5598;799490
3;105;1573764817713;1573764823361;5648;16602794712;73611074393;1286046571;15728235;12802098700;533525;798600166;1073;4462;573664;-17;5649;808584
3;106;1573764823361;1573764828593;5232;16555732926;73611073453;1264879067;13402721;12802097760;535999;798599561;900;5246;607696;28;5232;749782
3;107;1573764828593;1573764834244;5651;16634085870;73611075406;1290877150;15969721;12802099713;540688;798632020;1233;3163;502768;-15;5651;804473
3;108;1573764834244;1573764838981;4737;16493505974;73611072450;1230619342;8984429;12802096757;521118;798517568;916;2720;368400;-13;4736;680752
3;109;1573764838981;1573764843603;4622;16166587446;73611072162;1230233646;147025;12802096469;517108;798563351;1159;3338;470280;2;4623;739482
3;110;1573764843604;1573764848228;4624;16165868250;73611072160;1230898336;203810;12802096467;546516;798536511;778;7770;703768;22;4625;665165
3;111;1573764848228;1573764853310;5082;16574088046;73611073521;1189675094;14221976;12802097828;530135;798545083;1065;3330;537712;-9;5082;732682
3;112;1573764853311;1573764858728;5417;16697684346;73611073981;1249856422;18811254;12802098288;531008;798551091;1032;4771;556648;-8;5418;774471
3;113;1573764858729;1573764864039;5310;16535984090;73611073902;1297656148;13409478;12802098209;535504;798542407;845;5252;610344;18;5311;755701
3;114;1573764864039;1573764869515;5476;16457942418;73611073994;1276163036;10559422;12802098301;537611;798456069;1024;3995;561136;0;5476;778797
3;115;1573764869516;1573764874202;4686;16383867858;73611072234;1232722421;7014232;12802096541;520204;798580801;1691;2336;314608;-8;4687;822154
4;53;1573765418309;1573765424133;5824;16440879982;73611074707;1287453528;12013197;12802099014;547548;798579301;1040;4200;615264;-16;5825;829668
4;54;1573765424133;1573765429669;5536;16501832354;73611073758;1305037563;12205528;12802098065;537010;798529321;950;4541;506312;9;5535;789582
4;55;1573765429669;1573765434694;5025;16635366144;73611073090;1258352654;14917268;12802097397;527923;798590451;1793;2633;353440;12;5026;817907
4;56;1573765434694;1573765439417;4723;16489932040;73611072503;1264929412;9259327;12802096810;524492;798134840;742;3678;570712;-6;4722;679328
4;57;1573765439417;1573765444150;4733;16168488220;73611073088;1291428330;52027;12802097395;523021;798385079;939;2989;412904;-11;4733;674890
4;58;1573765444150;1573765449015;4865;16196859086;73611073285;1268828221;2146397;12802097592;518526;798414439;958;3216;410392;-31;4865;595856
4;59;1573765449015;1573765459214;10199;16560905998;73611089444;1276170241;25594452;12802105234;562177;798701170;2169;7072;957840;35;10199;1445647
4;60;1573765459214;1573765479387;20173;16443540394;73611087186;1262883481;15224526;12802103331;557776;798579691;4855;13279;1848336;-18;20173;2991341
4;61;1573765479387;1573765502291;22904;16448825886;73611086143;1284475885;19995596;12802102344;558082;798691315;5106;16191;2088120;1;22904;3371146
4;62;1573765502291;1573765507868;5577;16519157006;73611074177;1294790600;14947829;12802098484;537817;798677110;1201;3920;444560;15;5577;804381
4;63;1573765507868;1573765513719;5851;16596247050;73611074601;1269699289;16149720;12802098908;540945;798632851;1134;4326;525816;-14;5852;837949
4;64;1573765513720;1573765518844;5124;16591514022;73611073592;1288388756;13696418;12802097899;532293;798524285;936;3077;479984;24;5124;734617
4;65;1573765518844;1573765523767;4923;16511311550;73611072581;1282449346;12340317;12802096888;521643;798220224;1416;2412;328384;-8;4924;706183
4;66;1573765523768;1573765528542;4774;16341503768;73611072343;1310355968;6540161;12802096650;529674;798336074;1189;2697;415680;-12;4774;820750
4;67;1573765528542;1573765533266;4724;16171927396;73611072159;1277915579;150278;12802096466;527794;798312262;1379;1384;346344;-3;4724;678658
4;68;1573765533266;1573765538510;5244;16324863272;73611073648;1240332339;6196661;12802097955;534276;798534343;1221;5112;547056;27;5245;751173
4;69;1573765538511;1573765543886;5375;16467826472;73611073549;1249462126;10113343;12802097856;531283;798479541;1184;3764;432232;1;5375;773030
4;70;1573765543886;1573765548723;4837;16418050108;73611072406;1231773628;6744546;12802096713;531812;798597311;831;4169;516720;0;4837;696998
4;71;1573765548723;1573765553344;4621;16162874374;73611072159;1226059278;48410;12802096466;521686;798580751;1057;1933;333352;-1;4621;667372
4;72;1573765553344;1573765558064;4720;16161725354;73611072160;1237318169;61967;12802096467;527957;798594876;1356;1941;313280;-8;4721;817518
4;73;1573765558065;1573765562786;4721;16164363866;73611072157;1244926644;59276;12802096464;524137;798426155;1259;1977;343520;-48;4721;671873
4;74;1573765562786;1573765567896;5110;16347878858;73611073832;1279022476;7620025;12802098139;543188;798631941;1159;2750;445312;52;5110;684839
4;75;1573765567896;1573765573116;5220;16397890574;73611073327;1271701634;8905636;12802097634;534146;798611426;1678;1394;258376;-22;5220;983149
4;76;1573765573116;1573765578575;5459;16405638502;73611074415;1251571550;9688279;12802098722;539752;798574381;1054;3122;409216;28;5460;796409
4;77;1573765578575;1573765583245;4670;16317923308;73611072208;1221981221;6363259;12802096515;517337;798380902;1138;2708;324176;-18;4669;669198
4;78;1573765583245;1573765587913;4668;16310323424;73611072201;1238106104;4866661;12802096508;522421;798519039;840;4093;526640;-8;4669;667355
4;79;1573765587913;1573765592634;4721;16160792852;73611072155;1222964541;62930;12802096462;521557;798518660;1011;2469;414848;8;4720;673026
4;80;1573765592634;1573765597846;5212;16418070986;73611073010;1263857769;10343819;12802097317;529112;798546221;1267;1744;343792;7;5213;716420
4;81;1573765597846;1573765603375;5529;16444498592;73611074141;1268200404;11299498;12802098448;538790;798574680;1334;3642;453608;-22;5528;790880
4;82;1573765603375;1573765608637;5262;16410455188;73611073995;1296241166;7967486;12802098302;534871;798640463;1325;4469;556672;1;5262;876166
4;83;1573765608637;1573765614232;5595;16387132126;73611074295;1270389110;9180719;12802098602;534934;798628482;1080;5389;717752;7;5595;804936
4;84;1573765614232;1573765619205;4973;16303508728;73611073255;1244919213;4183355;12802097562;525568;798597347;967;4184;432088;23;4973;710214
4;85;1573765619205;1573765623827;4622;16167216414;73611072473;1289537759;31544;12802096780;528790;798580891;841;3516;480048;-9;4622;665016
4;86;1573765623827;1573765628445;4618;16150172082;73611072464;1175511985;34248;12802096771;519686;798374481;900;1453;359080;-4;4618;667230
4;87;1573765628445;1573765633253;4808;16275801870;73611073280;1231815195;3657600;12802097587;524962;798589566;1112;2942;350120;8;4808;691023
4;88;1573765633253;1573765638509;5256;16399351450;73611073978;1298127239;8913698;12802098285;536512;798470659;1417;3690;492504;-2;5256;897648
4;89;1573765638509;1573765643951;5442;16428828412;73611074064;1267908908;9181809;12802098371;534226;798389709;1107;4351;543704;-19;5442;781036
4;90;1573765643951;1573765649433;5482;16452704522;73611074034;1311982837;11295277;12802098341;531199;798522524;1064;4548;529128;23;5482;784646
4;91;1573765649433;1573765654300;4867;16505529074;73611072714;1242462785;10687335;12802097020;526153;798542968;1004;2802;456216;-12;4868;697643
4;92;1573765654300;1573765658962;4662;16291223996;73611072210;1233865155;4676185;12802096517;517243;798514194;1204;2736;391184;12;4661;664859
4;93;1573765658962;1573765663586;4624;16167038440;73611072476;1245518753;139434;12802096783;556017;798365614;881;4659;554856;-18;4624;659181
4;94;1573765663586;1573765668527;4941;16304370712;73611073055;1287581302;4444559;12802097362;526266;798545008;1337;4945;555488;75;4942;851359
4;95;1573765668527;1573765673795;5268;16375603674;73611073612;1272657196;7480350;12802097919;530752;798633095;1008;6292;808672;-75;5267;760762
4;96;1573765673795;1573765693147;19352;16399285020;73611086693;1277875429;15166066;12802102928;559431;798687548;3546;15078;1847400;12;19352;2779870
4;97;1573765693147;1573765698526;5379;16579431354;73611073974;1283395152;15371200;12802098281;527455;798556821;944;5000;572312;-16;5380;775637
4;98;1573765698526;1573765704051;5525;16600980370;73611074055;1261824235;16828737;12802098628;538433;798563056;1265;5275;646104;-2;5525;865915
4;99;1573765704051;1573765709250;5199;16481169412;73611072838;1269671299;10284704;12802097784;532773;798586716;1216;2556;426832;5;5198;738049
4;100;1573765709250;1573765713977;4727;16450590880;73611072370;1250520490;9895604;12802096677;518180;798549551;971;3791;418536;20;4727;680801
4;101;1573765713977;1573765718858;4881;16325176004;73611073101;1293006107;5170784;12802097408;518931;798597361;900;4715;534768;-5;4881;706880
4;102;1573765718858;1573765723547;4689;16260419894;73611073106;1288316230;2992179;12802097413;525788;798364058;886;2236;553336;5;4689;545836
