0;63;1572555828622;1572555834292;5670;16318088288;73611073118;1264299103;5500126;12802097425;530365;798565410;856;1005;1144144;14;5670;259114
0;64;1572555834292;1572555842023;7731;16345464894;73611083307;1265457800;8115295;12802099117;534928;798564079;1083;1521;1575432;77;7731;866165
0;65;1572555842023;1572555847412;5389;16310917936;73611072484;1247528571;4614137;12802096791;532532;798567622;838;988;1229608;-28;5388;713232
0;66;1572555847412;1572555852636;5224;16332269998;73611072589;1226436960;4849785;12802096896;533384;798546550;807;1018;1187392;-71;5225;492601
0;67;1572555852636;1572555858389;5753;16306963234;73611072748;1295456122;5110043;12802097055;531358;798549328;1207;1091;1156232;45;5654;221843
0;68;1572555858390;1572555863850;5460;16323846674;73611073031;1260203225;5221758;12802097338;533334;798346692;850;929;1079304;38;5460;594720
0;69;1572555863850;1572555869154;5304;16318424380;73611072802;1257062096;4679243;12802097109;530036;798427117;758;922;1084200;21;5305;729278
0;70;1572555869154;1572555874636;5482;16315694910;73611072688;1267208034;4683881;12802096995;542424;798565052;815;1063;1200672;-1;5482;776758
0;71;1572555874636;1572555879942;5306;16315715204;73611072603;1260947599;4947308;12802096910;538545;798565768;838;1117;1192496;-83;5305;512573
0;72;1572555879942;1572555885039;5097;16311330532;73611072488;1276818208;4061857;12802096795;544350;798549014;818;906;1150792;-51;5098;215100
0;73;1572555885039;1572555894966;9927;16336896884;73611083773;1285189507;10447372;12802099583;543240;798352342;1845;1750;1927032;80;9719;693281
0;74;1572555894966;1572555900489;5523;16311191686;73611072537;1255183829;4888216;12802096844;531854;798574916;811;1069;1128048;21;5523;557940
0;75;1572555900489;1572555905931;5442;16314059418;73611072767;1288064887;4699273;12802097074;533020;798557792;843;995;1179056;-21;5442;564258
0;76;1572555905931;1572555911140;5209;16319877372;73611072574;1251857414;4589504;12802096881;528236;798494494;817;1032;1174832;-40;5209;359190
0;77;1572555911140;1572555916801;5661;16325141256;73611072780;1272265030;5431826;12802097087;531681;798551539;1024;1034;1267696;-35;5661;188317
0;78;1572555916802;1572555922464;5662;16304988292;73611072657;1270482298;4698108;12802096964;540137;798593373;1202;931;1067808;82;5657;430515
0;79;1572555922464;1572555927719;5255;16306891548;73611072582;1271656633;4440371;12802096889;534340;798547479;800;896;1060936;7;5256;523695
0;80;1572555927719;1572555933149;5430;16317122644;73611072618;1278454107;4968615;12802096925;539298;798574463;809;1116;1092688;8;5430;601423
0;81;1572555933149;1572555938601;5452;16317800668;73611072589;1272815970;4762786;12802096896;530626;798557642;886;1056;1217208;-29;5452;617796
0;82;1572555938601;1572555943920;5319;16303029118;73611072605;1296913308;4381734;12802096912;523859;798571183;877;1007;987360;64;5319;582939
0;83;1572555943920;1572555949389;5469;16312820170;73611072772;1285612981;4767332;12802097079;531099;798567690;1029;1077;1038008;86;5468;816678
0;84;1572555949389;1572555954403;5014;16254552592;73611072461;1269880492;2888363;12802096768;523290;798349098;977;679;980720;-151;5015;623000
0;85;1572555954403;1572555960131;5728;16352278860;73611073123;1304005348;6349756;12802097430;537369;798556779;859;1085;1142856;53;5728;648922
0;86;1572555960131;1572555965492;5361;16343291100;73611072866;1294256569;5178590;12802097173;530712;798549127;802;1007;1086768;11;5360;758145
0;87;1572555965492;1572555971021;5529;16323576574;73611072925;1273466431;4759353;12802097232;538701;798541546;884;1200;1217464;-13;5530;784962
0;88;1572555971022;1572555976484;5462;16344198782;73611072883;1284257668;5671006;12802097190;542106;798544024;918;1027;1230536;-29;5463;709732
0;89;1572555976485;1572555982110;5625;16328922656;73611072817;1280992759;5490706;12802097124;535031;798542935;1095;1045;1167536;38;5625;566029
0;90;1572555982110;1572555987170;5060;16297133784;73611072645;1300857936;3763530;12802096952;536834;798306412;925;697;971336;-60;5061;459052
0;91;1572555987170;1572555992504;5334;16328679858;73611072528;1255023800;4793276;12802096835;531438;798561233;842;873;1073480;49;5334;601461
0;92;1572555992504;1572555997861;5357;16312682492;73611072733;1269502933;4491593;12802097040;534291;798562023;865;1051;1134264;-5;5357;763494
0;93;1572555997861;1572556003327;5466;16329540528;73611072997;1259908277;5110580;12802097304;530423;798540553;915;1146;1219216;-39;5467;668130
0;94;1572556003328;1572556008755;5427;16339704902;73611073033;1275945375;5288665;12802097340;531156;798546298;891;1069;1216112;-38;5427;374784
0;95;1572556008755;1572556014282;5527;16325681164;73611072638;1238673305;5332129;12802096945;534797;798547796;1239;1118;1085616;35;5518;313362
0;96;1572556014282;1572556020019;5737;16323687680;73611072882;1327626612;5423886;12802097189;534755;798530292;914;1139;1156128;39;5738;609921
0;97;1572556020020;1572556025747;5727;16315063752;73611072809;1265782263;5110988;12802097116;542285;798558957;890;1178;1167224;13;5728;786030
0;98;1572556025747;1572556031131;5384;16312554012;73611072833;1240228002;4794294;12802097140;527519;798563829;879;1110;1174160;-57;5384;693148
0;99;1572556031131;1572556036511;5380;16334018786;73611072979;1280230492;5344681;12802097286;538627;798537889;939;984;1203872;-19;5380;456084
0;100;1572556036511;1572556041769;5258;16316573684;73611072274;1252532351;4582985;12802096847;525796;798574347;938;938;1190936;-46;5256;189171
0;101;1572556041769;1572556047189;5420;16334845730;73611072027;1221910304;5257720;12802096973;530706;798561345;1153;948;997920;107;5421;467238
0;102;1572556047190;1572556052409;5219;16332832974;73611072877;1258499945;5145556;12802097184;530287;798634424;833;1004;1051264;2;5220;602663
0;103;1572556052409;1572556057801;5392;16324334898;73611072918;1275376683;4771350;12802097225;535094;798567988;859;1131;1132928;2;5392;645543
0;104;1572556057802;1572556063251;5449;16323893394;73611072890;1258591201;5024662;12802097197;535513;798587618;1000;939;1225944;-113;5422;264739
0;105;1572556063251;1572556068548;5297;16330050798;73611072956;1329997390;4793250;12802097263;537679;798575442;987;833;1161464;7;5143;73545
0;106;1572556068549;1572556073918;5369;16337654624;73611072782;1304293697;5091564;12802097089;532554;798652883;1074;947;1114904;85;4982;109319
0;107;1572556073918;1572556079444;5526;16329211444;73611072971;1293070973;5529873;12802097278;547932;798566176;1045;959;1072648;14;5526;672103
0;108;1572556079444;1572556089845;10401;16324706030;73611083507;1274167373;10460807;12802099289;533849;798552294;1675;2177;2136712;13;10401;1347275
0;109;1572556089845;1572556095280;5435;16295785620;73611072843;1266634947;4557057;12802097150;538996;798362513;957;906;1222200;-96;5435;277148
0;110;1572556095280;1572556100862;5582;16328659272;73611072619;1266424038;5343171;12802096926;544468;798613304;1081;925;1228504;-20;5572;142216
0;111;1572556100862;1572556106430;5568;16313713982;73611072783;1248010425;5007729;12802097090;531284;798570583;1263;879;1079312;106;5398;244294
0;112;1572556106430;1572556111954;5524;16345884352;73611072756;1257152031;5815280;12802097063;537569;798555270;954;1076;1143992;-18;5524;672032
1;66;1572556671095;1572556681262;10167;16359402930;73611083485;1296464335;10638288;12802099295;541269;798564637;1458;1869;2131152;44;10167;1366490
1;67;1572556681262;1572556686622;5360;16333847236;73611072995;1253303270;5179025;12802097302;528338;798582173;820;1034;1225824;-9;5360;755410
1;68;1572556686623;1572556692052;5429;16319113646;73611072746;1284226669;4673317;12802097053;531825;798557732;828;1049;1208056;-40;5430;620417
1;69;1572556692052;1572556697175;5123;16295947680;73611072500;1243602537;3751537;12802096807;528657;798477962;1047;650;976952;-16;5123;568106
1;70;1572556697176;1572556702789;5613;16315326844;73611072586;1230521807;5169117;12802096893;528518;798302092;818;1137;1129864;36;5614;508927
1;71;1572556702789;1572556708165;5376;16307576142;73611072596;1265089378;4658768;12802096903;531439;798487992;784;1084;1099032;-13;5376;567604
1;72;1572556708165;1572556713480;5315;16326584028;73611072545;1254413708;4868267;12802096852;526106;798569187;830;990;1181320;-36;5315;425696
1;73;1572556713481;1572556718673;5192;16311958332;73611072542;1252027868;4614529;12802096849;531226;798571798;894;920;1141440;-55;5048;118223
1;74;1572556718673;1572556724040;5367;16307248226;73611072664;1261681282;4465858;12802096971;537210;798550913;1036;961;1064584;57;4912;65866
1;75;1572556724041;1572556731347;7306;16326049376;73611083094;1253921008;7161497;12802098893;535211;798621779;1217;1183;1409040;75;7307;786466
1;76;1572556731347;1572556736935;5588;16324658434;73611072625;1263023262;5106127;12802096932;532690;798410779;844;1167;1154888;0;5588;770831
1;77;1572556736935;1572556742148;5213;16318422482;73611072622;1254445976;4519826;12802096930;524974;798554109;786;987;1123704;-12;5213;724675
1;78;1572556742148;1572556747756;5608;16329518774;73611072586;1276502861;4922777;12802096893;534196;798548600;889;1122;1276200;-46;5608;538177
1;79;1572556747756;1572556753294;5538;16324688072;73611072779;1276017976;5116904;12802097086;526061;798620135;909;1019;1248072;-49;5538;314900
1;80;1572556753294;1572556758394;5100;16289370526;73611072503;1272755638;3612161;12802096810;526828;798567574;1059;686;903808;-20;5088;287170
1;81;1572556758395;1572556764092;5697;16302461616;73611072685;1264069884;4390609;12802096992;533742;798545535;1051;996;1134016;12;5698;96188
1;82;1572556764092;1572556769479;5387;16316479806;73611072705;1255757070;4705648;12802097012;527262;798563373;835;982;1088752;34;5387;222075
1;83;1572556769479;1572556775022;5543;16309528746;73611072693;1263097731;4518867;12802097000;527225;798623059;905;1031;1215952;-39;5543;226143
1;84;1572556775022;1572556780647;5625;16324071368;73611072846;1294976929;5200639;12802097153;530057;798468353;1051;934;1224696;-13;5357;67915
1;85;1572556780648;1572556785953;5305;16332221088;73611072885;1285889568;5001095;12802097192;531440;798537861;1052;854;1021360;75;4865;95291
1;86;1572556785953;1572556791343;5390;16319954898;73611072961;1248838104;4801396;12802097268;529783;798532524;938;786;1045464;33;5390;622817
1;87;1572556791343;1572556796689;5346;16311140732;73611073016;1259806155;4691224;12802097323;529392;798592595;801;1052;1054832;19;5346;661455
1;88;1572556796689;1572556802129;5440;16324650988;73611072882;1277543905;5090937;12802097189;527242;798531619;859;1099;1155656;-20;5440;691856
1;89;1572556802129;1572556807738;5609;16314732186;73611072887;1272571445;4917280;12802097194;529690;798538826;923;1180;1255752;-69;5609;407681
1;90;1572556807738;1572556813103;5365;16322682178;73611072829;1287426128;5188194;12802097136;531676;798541625;921;989;966040;114;5365;502355
1;91;1572556813104;1572556818456;5352;16317243970;73611072681;1250374793;4781409;12802096988;527697;798617266;1062;763;949336;-4;5353;804261
1;92;1572556818456;1572556823478;5022;16245925452;73611072578;1262405379;2737836;12802096885;525068;798552785;894;734;954328;-92;5022;439173
1;93;1572556823478;1572556828911;5433;16298888850;73611072848;1315474589;4333708;12802097155;525068;798541889;829;1061;1075280;39;5433;382229
1;94;1572556828912;1572556834441;5529;16330467774;73611073046;1304178631;5159348;12802097353;530286;798542711;902;1064;1187520;-26;5530;496772
1;95;1572556834441;1572556840019;5578;16322086206;73611072630;1255073772;4987787;12802096990;538860;798609737;951;1092;1266728;-60;5578;255242
1;96;1572556840019;1572556845206;5187;16322584212;73611071946;1319310802;4708907;12802097105;529164;798457677;889;882;1080624;-13;4735;35369
1;97;1572556845206;1572556850502;5296;16304529268;73611072872;1282089049;4272806;12802097179;526358;798576178;1178;755;970112;80;5004;292114
1;98;1572556850503;1572556855771;5268;16312106814;73611073016;1308454032;4251340;12802097323;526836;798554329;815;972;1056968;55;5269;659053
1;99;1572556855771;1572556861266;5495;16305486152;73611072823;1260428465;4695387;12802097130;532965;798557664;868;1136;1121632;-1;5495;762040
1;100;1572556861266;1572556866450;5184;16289217956;73611072551;1233850651;3937393;12802096858;527609;798579778;864;897;1113584;-129;5037;455409
1;101;1572556866451;1572556872019;5568;16316565508;73611072765;1215901172;4740576;12802097072;531113;798558973;1001;986;1133168;3;5004;45079
1;102;1572556872019;1572556877655;5636;16341011748;73611073043;1285442091;5894756;12802097350;529462;798543610;1053;944;1227272;-1;5443;86585
1;103;1572556877655;1572556883178;5523;16340235320;73611072998;1193549006;5630981;12802097305;526437;798538537;1199;952;995632;142;5523;671435
1;104;1572556883178;1572556888653;5475;16321460596;73611073030;1311017108;5056789;12802097337;532082;798520898;857;1004;1105824;3;5475;769954
1;105;1572556888653;1572556894024;5371;16307273776;73611072920;1332739489;4370475;12802097227;531080;798550938;866;1081;1129656;-2;5371;770038
1;106;1572556894024;1572556899180;5156;16300385204;73611072701;1263893271;4051893;12802097008;527374;798548194;918;800;1134168;-149;5024;264781
1;107;1572556899180;1572556904459;5279;16331980188;73611072929;1273944656;4975338;12802097236;530464;798532913;931;860;1059896;16;4716;44375
1;108;1572556904459;1572556909879;5420;16321709526;73611072713;1258998260;4864157;12802097020;531659;798556149;1171;889;1066064;106;5198;171688
1;109;1572556909879;1572556915455;5576;16323506932;73611072765;1273608294;5413830;12802097072;534737;798600737;1021;976;1099688;17;5576;712297
1;110;1572556915455;1572556920954;5499;16333839352;73611072544;1256684469;5361642;12802096851;526849;798281386;884;984;1112696;0;5499;763860
1;111;1572556920954;1572556926349;5395;16311537268;73611072482;1256569705;4458657;12802096789;526894;798491995;884;1019;1119072;-16;5395;775444
1;112;1572556926349;1572556931464;5115;16267245102;73611072529;1229330077;3303105;12802096836;526308;798585159;887;735;1071032;-119;4713;82164
1;113;1572556931464;1572556936826;5362;16317731902;73611072647;1263636357;4763224;12802096954;536978;798504579;993;897;1130792;4;5073;49374
1;114;1572556936826;1572556942214;5388;16299600308;73611072938;1279607671;4341801;12802097245;527148;798576680;1219;935;992000;122;5166;344362
1;115;1572556942214;1572556947776;5562;16320386182;73611072675;1277467206;4961808;12802096982;533543;798558487;907;1035;1119104;27;5562;760491
2;67;1572557503544;1572557511574;8030;16348813550;73611083596;1279862647;8464820;12802099406;525904;798634325;1137;1509;1661456;22;8030;1131897
2;68;1572557511574;1572557516790;5216;16310098000;73611072767;1274594046;4307625;12802097074;522751;798505222;807;992;1193048;-47;5216;643006
2;69;1572557516790;1572557522128;5338;16312443344;73611072613;1243220672;4688009;12802096920;522895;798512228;855;1083;1216104;-73;5338;333619
2;70;1572557522128;1572557527611;5483;16317107898;73611072731;1229995607;5009213;12802097038;530898;798504223;1048;1028;1118384;58;5206;119945
2;71;1572557527612;1572557532818;5206;16312643802;73611072531;1274898968;4454618;12802096838;525475;798586982;917;855;1001728;17;5206;523404
2;72;1572557532818;1572557538294;5476;16315453134;73611072641;1274032229;5081711;12802096948;531794;798514519;791;984;1105208;32;5476;640463
2;73;1572557538294;1572557543599;5305;16313624484;73611072703;1243803991;4784246;12802097010;523094;798594748;805;1046;1122368;-24;5306;689813
2;74;1572557543599;1572557548933;5334;16304796302;73611072665;1282541095;4200290;12802096972;523168;798504932;846;1000;1229936;-67;5334;398225
2;75;1572557548933;1572557559607;10674;16341061096;73611083459;1263675067;11147753;12802099258;533149;798693278;2043;1908;2194656;89;10211;340712
2;76;1572557559607;1572557565095;5488;16311661514;73611072946;1274207019;4840821;12802097253;534830;798512603;891;952;1090040;-3;5489;686885
2;77;1572557565096;1572557570494;5398;16315977858;73611072812;1264415900;5039001;12802097119;529118;798602844;801;995;1104816;11;5398;733870
2;78;1572557570494;1572557575545;5051;16306509466;73611072434;1257228285;3957938;12802096741;525819;798511015;783;988;1084392;-47;5052;657291
2;79;1572557575545;1572557581183;5638;16352540346;73611072889;1279687958;6178123;12802097196;533106;798595958;890;1132;1277592;14;5638;589789
2;80;1572557581183;1572557586637;5454;16314207900;73611072668;1275196688;4523962;12802096975;508404;798506884;875;1057;1235112;-44;5453;520392
2;81;1572557586637;1572557591916;5279;16289052830;73611072811;1269304925;4211562;12802097118;528368;798520064;1140;869;1009064;39;5279;409790
2;82;1572557591916;1572557597189;5273;16304905510;73611072587;1262529044;4082674;12802096894;513459;798510370;801;994;1064920;-2;5274;562019
2;83;1572557597189;1572557602790;5601;16326817628;73611072691;1268606543;5071792;12802096998;528969;798666344;845;1044;1133864;37;5600;697088
2;84;1572557602790;1572557608656;5866;16363412966;73611072906;1207048249;6576281;12802097213;523027;798503575;969;1165;1337944;-30;5867;796288
2;85;1572557608657;1572557614134;5477;16316239928;73611073007;1278030718;5014279;12802097314;519023;798578525;874;1122;1221792;-53;5477;466866
2;86;1572557614134;1572557619692;5558;16331599274;73611073076;1239230163;5251467;12802097383;527522;798424642;1060;1077;1187232;40;5545;228165
2;87;1572557619692;1572557624832;5140;16307572200;73611073071;1290594440;4186134;12802097378;512866;798643045;934;812;976352;12;5141;499001
2;88;1572557624832;1572557630158;5326;16318681632;73611073126;1307838176;4713972;12802097433;526093;798569297;791;1056;1046656;46;5326;620025
2;89;1572557630158;1572557635712;5554;16345505482;73611072893;1265033045;5723051;12802097200;530423;798501606;895;1096;1176840;-21;5556;794442
2;90;1572557635714;1572557641111;5397;16319981324;73611072945;1230798208;4912348;12802097252;529005;798509895;910;949;1012120;16;5397;732140
2;91;1572557641112;1572557646783;5671;16321559876;73611072794;1266181554;5422252;12802097101;516513;798590276;993;969;1098664;-10;5671;815079
2;92;1572557646783;1572557651822;5039;16273580626;73611072543;1283777165;3232746;12802096850;518208;798491900;1036;907;1017648;-10;5040;675186
2;93;1572557651822;1572557657295;5473;16320492908;73611072964;1271027523;4961088;12802097271;526070;798419931;943;910;1097304;21;5472;765207
2;94;1572557657295;1572557662852;5557;16330394774;73611073002;1284764790;5414840;12802097309;521726;798577062;848;989;1127072;-16;5558;800348
2;95;1572557662852;1572557668149;5297;16321574184;73611072797;1230715438;4728979;12802097157;522839;798663453;870;1155;1158896;-6;5297;758265
2;96;1572557668150;1572557673437;5287;16307767840;73611071915;1287191519;4259748;12802097074;502225;798557014;886;1058;1201256;-18;5288;708808
2;97;1572557673437;1572557678907;5470;16324453450;73611072761;1252464772;5093815;12802097068;525380;798568150;949;1122;1223696;-28;5470;501038
2;98;1572557678907;1572557684093;5186;16297161962;73611072807;1292430405;3814308;12802097114;519176;798607353;1149;857;960000;58;5186;604530
2;99;1572557684093;1572557689723;5630;16310233634;73611072737;1271272512;4961732;12802097044;530667;798553129;898;1150;1142144;-9;5629;762526
2;100;1572557689723;1572557695082;5359;16296427436;73611072514;1252821637;4221448;12802096821;523022;798547532;817;957;1081888;-85;5360;714211
2;101;1572557695082;1572557700484;5402;16313310584;73611072885;1267847710;4932531;12802097192;516914;798318953;965;995;1138488;-33;5162;96193
2;102;1572557700484;1572557706266;5782;16310393796;73611073107;1305221128;5153371;12802097414;524288;798579665;1040;1026;1205224;12;5653;65008
2;103;1572557706266;1572557711500;5234;16312329026;73611072974;1264283203;4566005;12802097281;523965;798529490;1061;960;1050848;41;4695;65659
2;104;1572557711500;1572557716672;5172;16310565346;73611073006;1308964319;4309626;12802097313;523645;798524015;954;769;991264;47;5172;528588
2;105;1572557716672;1572557722284;5612;16330605890;73611073154;1266906409;5757511;12802097461;517962;798548542;879;1108;1121768;22;5612;646657
2;106;1572557722284;1572557727493;5209;16321088004;73611072617;1275241567;4523648;12802096924;524033;798603459;876;974;1129104;-42;5210;652425
2;107;1572557727494;1572557733029;5535;16315480582;73611073117;1276879440;4988774;12802097424;513296;798527846;989;947;1264104;-84;5535;285866
2;108;1572557733029;1572557738671;5642;16306828184;73611072561;1266052285;5074953;12802096868;510926;798536976;1075;942;1174216;-8;5069;54524
2;109;1572557738671;1572557744259;5588;16312497656;73611072650;1250738530;4949433;12802096957;524776;798443966;1204;929;1042912;137;5385;288769
2;110;1572557744259;1572557749637;5378;16315735498;73611072599;1259176092;4841069;12802096906;511969;798611047;929;985;1058232;9;5378;735486
2;111;1572557749637;1572557755018;5381;16317390408;73611072819;1252922279;4854575;12802097126;522272;798488312;863;910;1101752;-9;5382;771111
2;112;1572557755018;1572557760317;5299;16314555380;73611072729;1246690952;4883448;12802097036;519119;798577577;914;1091;1154864;-8;5299;740917
2;113;1572557760318;1572557765599;5281;16313667408;73611072650;1257936679;4508115;12802096957;504002;798591479;912;1003;1187304;-65;5281;486533
2;114;1572557765599;1572557771184;5585;16327045826;73611072753;1247344248;5421785;12802097060;526822;798624345;1024;1091;1256712;-38;5586;245470
2;115;1572557771184;1572557776370;5186;16300732684;73611072457;1294598576;3760313;12802096764;521829;798553280;1219;868;979968;56;5185;455798
2;116;1572557776370;1572557781594;5224;16316301978;73611072677;1281754660;4424889;12802096984;522758;798546342;859;972;1050912;30;5225;541134
3;64;1572558343071;1572558348556;5485;16348349270;73611072869;1277881053;5747384;12802097176;570514;798494045;818;1092;1159416;-3;5485;788941
3;65;1572558348556;1572558354167;5611;16325104610;73611072921;1271842420;5174830;12802097228;573127;798547935;855;1006;1279288;-44;5611;711483
3;66;1572558354167;1572558359758;5591;16326414084;73611072825;1256226343;5318005;12802097132;577840;798514872;898;1163;1281680;-57;5592;422887
3;67;1572558359758;1572558365408;5650;16308788380;73611073024;1297051662;4651398;12802097331;579911;798502588;1246;768;1044304;81;5416;419429
3;68;1572558365408;1572558370824;5416;16322821754;73611072603;1256846600;4847420;12802096910;575675;798514464;796;993;1115352;14;5416;757614
3;69;1572558370824;1572558376086;5262;16314347914;73611072645;1266621063;4359607;12802096952;575643;798648683;768;1032;1076744;0;5263;754245
3;70;1572558376086;1572558381940;5854;16326200048;73611082634;1252233493;5438705;12802098713;577556;798370189;911;1344;1301016;-15;5854;835652
3;71;1572558381940;1572558387283;5343;16323048930;73611072562;1283547090;4737901;12802096869;567797;798576977;849;1095;1239008;-39;5342;650660
3;72;1572558387283;1572558392547;5264;16320324132;73611072603;1274780230;4651643;12802096910;570950;798605206;833;976;1187712;-68;5096;267296
3;73;1572558392547;1572558398000;5453;16316403740;73611072823;1305858903;4705107;12802097127;567517;798643408;1282;862;990440;101;5452;622558
3;74;1572558398000;1572558403268;5268;16320014612;73611072632;1290876283;4659967;12802096936;572082;798599879;779;1005;1066504;4;5268;721321
3;75;1572558403268;1572558408489;5221;16305955250;73611072804;1272409246;4517557;12802097111;575729;798369222;803;1014;1071512;2;5222;701533
3;76;1572558408490;1572558413804;5314;16310467526;73611072628;1283727106;4506951;12802096935;570784;798517803;846;1047;1212960;-64;5314;497932
3;77;1572558413804;1572558419166;5362;16313852390;73611072554;1248423617;4439323;12802096861;576748;798572449;915;956;1225920;-57;5363;206360
3;78;1572558419166;1572558424625;5459;16303355428;73611072575;1277971271;4171584;12802096882;575868;798513998;1177;967;1079024;118;5233;155673
3;79;1572558424625;1572558429783;5158;16306772996;73611072500;1246338215;3868074;12802096807;569482;798509537;920;789;983784;9;5157;676979
3;80;1572558429783;1572558435163;5380;16317072712;73611072580;1277159353;4846579;12802096887;556374;798523677;821;1005;1104784;23;5381;760761
3;81;1572558435163;1572558440409;5246;16305800490;73611072469;1293287483;4316487;12802096776;574828;798661558;827;1113;1089696;-20;5245;749611
3;82;1572558440409;1572558446132;5723;16313552652;73611072503;1286294613;4557780;12802096810;570005;798593095;924;1141;1303432;-61;5724;667707
3;83;1572558446132;1572558451688;5556;16305661498;73611072452;1260746163;4714484;12802096759;574131;798605417;1020;1040;1236208;-78;5349;176862
3;84;1572558451688;1572558457000;5312;16306240680;73611072560;1269447087;4421717;12802096864;568764;798594014;1213;807;971728;138;5054;333374
3;85;1572558457001;1572558462388;5387;16347160538;73611072664;1220413564;5466482;12802096968;571555;798632439;898;944;1066272;1;5387;763495
3;86;1572558462388;1572558467847;5459;16332339348;73611072903;1266068681;5365884;12802097210;577419;798488729;851;994;1127488;13;5460;781461
3;87;1572558467848;1572558473272;5424;16318170486;73611072970;1327956111;4743688;12802097277;574260;798508554;896;1074;1192768;4;5425;774157
3;88;1572558473273;1572558478676;5403;16344500856;73611073071;1281439072;5526744;12802097378;561298;798500667;912;1075;1241928;-80;5403;615145
3;89;1572558478676;1572558483956;5280;16309383768;73611073041;1283195275;4297305;12802097348;570833;798568110;969;929;1165016;-73;5244;175961
3;90;1572558483956;1572558489715;5759;16334569060;73611073249;1262184443;5672579;12802097556;577088;798486554;1373;1030;1054880;128;5677;555954
3;91;1572558489716;1572558495235;5519;16326088212;73611073116;1274200162;5169127;12802097423;576280;798519826;866;1056;1117896;22;5520;792921
3;92;1572558495235;1572558500615;5380;16323307642;73611072590;1270334743;4750342;12802096897;566951;798593347;855;989;1086032;-23;5380;774177
3;93;1572558500615;1572558506101;5486;16319799700;73611072613;1261534187;4919697;12802096920;571813;798653477;930;968;1064840;4;5485;792975
3;94;1572558506101;1572558511664;5563;16340570244;73611073103;1265452048;5958242;12802097410;582439;798586446;990;922;1017304;15;5564;803144
3;95;1572558511665;1572558516799;5134;16277775790;73611072736;1257418757;3326324;12802097043;568240;798576667;959;1098;1144864;107;5134;709429
3;96;1572558516799;1572558522208;5409;16325292804;73611072735;1271969029;4882274;12802097042;577981;798593956;1097;771;1000056;-119;5409;796906
3;97;1572558522208;1572558527557;5349;16323705492;73611073126;1289696322;4899906;12802097433;576058;798541947;851;947;1095944;13;5349;767681
3;98;1572558527557;1572558532736;5179;16314896290;73611072452;1271833740;4471703;12802097025;571067;798502511;852;1036;1077496;-20;5180;740133
3;99;1572558532737;1572558538248;5511;16315184932;73611072022;1282430423;5000984;12802096968;579162;798560223;932;1238;1248840;28;5512;789747
3;100;1572558538248;1572558543536;5288;16321546444;73611072719;1285749597;4660766;12802097026;572400;798498543;895;1048;1177888;-24;5287;736321
3;101;1572558543536;1572558548963;5427;16312773012;73611072606;1255527179;4772144;12802096913;566310;798520268;1146;992;1123968;6;5427;719089
3;102;1572558548963;1572558554502;5539;16326413792;73611072843;1255572769;4872614;12802097150;570765;798534147;1034;825;1079912;-10;5539;795465
3;103;1572558554502;1572558559999;5497;16341210746;73611072917;1286612817;5515904;12802097224;571990;798569432;877;963;1115176;19;5498;788826
3;104;1572558560000;1572558565181;5181;16283774638;73611072692;1258341056;3809781;12802096996;570436;798574106;880;902;1086224;-15;5181;718541
3;105;1572558565181;1572558570617;5436;16313822314;73611072756;1244591319;4494771;12802097063;576382;798548587;917;1228;1213416;-80;5436;503551
3;106;1572558570617;1572558575969;5352;16338198620;73611072641;1266871031;5265133;12802096948;574926;798547853;991;980;1146328;-34;5086;90525
3;107;1572558575969;1572558581173;5204;16315058204;73611072951;1285890907;4392935;12802097258;568622;798551570;1122;791;992056;115;5051;230853
3;108;1572558581173;1572558586513;5340;16299692288;73611072681;1321991083;4420885;12802096988;568098;798548147;969;973;1076568;-23;5340;599882
3;109;1572558586513;1572558591762;5249;16323859376;73611072673;1260916379;4417993;12802096980;577924;798583676;835;1017;1058080;21;5249;671570
3;110;1572558591762;1572558597263;5501;16321146988;73611072718;1262402017;4962288;12802097025;581223;798626270;944;1141;1199560;-30;5502;701108
3;111;1572558597264;1572558602689;5425;16312354722;73611072609;1288300441;4638303;12802096916;580435;798597341;956;1043;1223568;-65;5425;391361
3;112;1572558602689;1572558608111;5422;16330435800;73611072696;1319589664;5206471;12802097003;575080;798515721;1048;964;1164504;-34;5178;104546
3;113;1572558608111;1572558613366;5255;16316066772;73611072631;1272918203;4585128;12802096938;568169;798519385;1161;784;957856;135;5151;437977
4;66;1572559174238;1572559179701;5463;16296787326;73611072839;1305251933;4126663;12802097146;579015;798413296;823;1023;1178016;-104;5463;614856
4;67;1572559179701;1572559185254;5553;16322364774;73611072985;1289035899;4868770;12802097292;572453;798611489;929;920;1192184;-29;5249;82955
4;68;1572559185254;1572559190685;5431;16310439348;73611072589;1267282095;4828953;12802096896;574400;798576648;887;815;1104064;18;4883;41193
4;69;1572559190686;1572559195933;5247;16316260076;73611072619;1269727905;4594621;12802096926;578478;798595088;1098;823;1007992;33;5205;273914
4;70;1572559195933;1572559201335;5402;16313559368;73611072710;1256001324;4524490;12802097017;581377;798592883;812;859;1098960;-19;5402;313650
4;71;1572559201335;1572559206751;5416;16313719092;73611072616;1253784253;4748014;12802096923;582512;798556842;816;975;1109592;-15;5416;199642
4;72;1572559206751;1572559212317;5566;16316436736;73611072532;1251497710;4935885;12802096839;578067;798512555;969;907;1173456;-24;5192;76368
4;73;1572559212317;1572559217945;5628;16310332184;73611072460;1254492498;4854163;12802096767;583273;798513996;980;906;1155568;11;4982;38856
4;74;1572559217945;1572559223434;5489;16308779036;73611072845;1283295383;4778020;12802097152;578002;798537720;1018;973;1086016;55;4712;56336
4;75;1572559223434;1572559229757;6323;16310523590;73611083039;1266724725;5946298;12802098838;573979;798560317;1084;952;1233504;42;6323;638971
4;76;1572559229757;1572559235163;5406;16322242718;73611072706;1259181981;5277118;12802097013;577973;798452724;794;1048;1101416;4;5406;575859
4;77;1572559235163;1572559240566;5403;16313905534;73611072540;1272796561;4518023;12802096847;582915;798587904;844;958;1155096;-66;5403;539907
4;78;1572559240566;1572559246077;5511;16308204672;73611072725;1266699244;4447145;12802097032;580048;798597058;934;946;1166528;-41;5117;99620
4;79;1572559246077;1572559251377;5300;16314856870;73611072492;1257345806;4376394;12802096799;579203;798645184;884;776;1068368;2;4686;33134
4;80;1572559251377;1572559256831;5454;16308242778;73611072743;1275828519;4862129;12802097050;571415;798612183;1110;857;1012104;68;5171;255725
4;81;1572559256831;1572559262082;5251;16310430880;73611072698;1272658644;4405502;12802097005;575279;798597147;789;869;1069520;11;5251;425632
4;82;1572559262082;1572559267691;5609;16323110542;73611072485;1268281643;4938491;12802096792;581215;798510073;822;1001;1139536;46;5609;633753
4;83;1572559267691;1572559273156;5465;16292159856;73611072491;1261512044;4088340;12802096798;586648;798191944;891;841;1144016;-102;5434;373293
4;84;1572559273157;1572559278825;5668;16313302700;73611072863;1316818110;4976370;12802097170;574129;798433932;1019;980;1196208;-24;5184;40166
4;85;1572559278825;1572559284192;5367;16318094128;73611073006;1249452754;4918914;12802097313;576351;798514957;855;865;1077824;-2;4439;25260
4;86;1572559284192;1572559289688;5496;16302958016;73611072823;1320616888;4607866;12802097130;578452;798489590;1169;885;1012872;93;5437;519716
4;87;1572559289688;1572559295284;5596;16332413516;73611072864;1218502122;5686537;12802097171;580300;798556695;871;1024;1101688;10;5596;449644
4;88;1572559295284;1572559300893;5609;16311897742;73611073140;1292920690;4820785;12802097447;572212;798579001;954;832;873992;38;5609;791739
4;89;1572559300893;1572559305867;4974;16246344180;73611072791;1285981414;2439603;12802097098;577496;798356653;843;657;1001392;-139;4974;323732
4;90;1572559305867;1572559311361;5494;16320897912;73611072802;1274436457;4906247;12802097109;570769;798588533;941;795;1166616;0;4987;48268
4;91;1572559311361;1572559316524;5163;16305019828;73611072537;1245191133;4320380;12802096844;578763;798639300;1089;833;944344;72;4515;110773
4;92;1572559316524;1572559321848;5324;16312972886;73611072719;1275250306;4549697;12802097026;577296;798598719;910;940;1040016;-23;5324;429136
4;93;1572559321848;1572559327094;5246;16335292052;73611072903;1229848926;5136986;12802097210;583648;798473444;808;876;1054904;45;5246;378405
4;94;1572559327094;1572559332280;5186;16308758450;73611072908;1315930163;3869746;12802097215;577702;798501912;836;832;1087264;36;5186;614633
4;95;1572559332280;1572559337754;5474;16315955520;73611072745;1267629759;5042882;12802097105;571490;798559281;965;1031;1222008;-93;5474;397507
4;96;1572559337754;1572559343118;5364;16309054100;73611071896;1305419941;4569386;12802097055;575899;798497904;924;880;1152240;-40;5011;104908
4;97;1572559343118;1572559348552;5434;16302770844;73611072847;1293722555;4492712;12802097154;583556;798571998;1188;775;1004512;83;5006;236630
4;98;1572559348552;1572559354066;5514;16342147628;73611072792;1237892013;5565349;12802097099;582278;798530579;909;908;1114336;25;5514;587534
4;99;1572559354067;1572559359613;5546;16308026552;73611072665;1255972111;4952273;12802096972;579114;798446662;852;993;1121832;7;5547;634352
4;100;1572559359613;1572559365204;5591;16313783916;73611072560;1290561444;4836798;12802096867;581883;798549034;939;1043;1224960;-56;5591;533818
4;101;1572559365204;1572559370398;5194;16316571932;73611072701;1250488934;4361797;12802097008;576388;798551588;923;838;1131176;-44;5080;136993
4;102;1572559370398;1572559375996;5598;16309829652;73611072975;1261964971;4902096;12802097282;570453;798533017;1010;905;1171672;-6;5294;49618
4;103;1572559375996;1572559381498;5502;16306289006;73611073085;1277159741;4881628;12802097392;584676;798584676;1198;825;1014680;105;5501;528982
4;104;1572559381498;1572559386643;5145;16322330464;73611073077;1312603769;4572520;12802097384;557703;798534676;828;848;1052248;-5;5145;558912
4;105;1572559386643;1572559391755;5112;16326897928;73611072938;1249199148;4924221;12802097245;566259;798478607;806;876;1046544;-2;5112;596728
4;106;1572559391755;1572559397270;5515;16311303230;73611072838;1277221872;4764099;12802097145;577064;798548681;946;973;1213984;-67;5515;458097
4;107;1572559397270;1572559402949;5679;16318335904;73611072976;1283150887;5035286;12802097283;574217;798573284;1062;950;1210008;-33;5516;100615
4;108;1572559402949;1572559408451;5502;16307448100;73611072699;1277218665;4757741;12802097006;578378;798565929;1154;913;1092800;41;5110;112298
4;109;1572559408452;1572559413804;5352;16306573122;73611072490;1317255341;4286722;12802096797;576943;798551708;977;782;1063880;2;5353;297901
4;110;1572559413804;1572559419196;5392;16310502712;73611072567;1254305439;4772999;12802096874;577443;798543330;865;969;1071408;24;5392;315386
4;111;1572559419196;1572559424531;5335;16315191794;73611072522;1250552062;4604213;12802096829;571227;798609663;910;970;1138704;-25;5335;383708
4;112;1572559424531;1572559430206;5675;16332308688;73611072781;1288246966;5688583;12802097089;583990;798512578;1065;932;1231208;-52;5566;137947
4;113;1572559430206;1572559435530;5324;16308274898;73611072591;1277332740;4630023;12802096898;579433;798553944;937;813;1078648;8;4602;42109
4;114;1572559435530;1572559440767;5237;16307541686;73611072537;1250515105;4185954;12802096844;565795;798571297;1171;656;966344;24;4882;169602
4;115;1572559440767;1572559446321;5554;16309896374;73611072630;1268881053;4840196;12802096937;581553;798615079;971;956;1111680;24;5554;216183
