0;61;1573749334665;1573749340147;5482;16394507462;73610993320;1253348611;6902760;12802097268;520431;798429571;1742;1;292824;0;1522;4138
0;62;1573749340148;1573749349611;9463;16419711296;73611004919;1235159109;17111064;12802100359;537724;798608797;3371;7;567024;0;3119;9066
0;63;1573749349612;1573749355680;6068;16450271724;73610993810;1190190616;8164556;12802097758;524634;798561125;2030;5;341880;0;1720;5539
0;64;1573749355680;1573749366219;10539;16385721912;73611004420;1266857301;14199747;12802099871;535481;798419209;3907;321;681960;0;3923;45129
0;65;1573749366219;1573749371943;5724;16374940542;73610993302;1250231295;5328691;12802097250;517506;798558652;2031;2;341408;0;2116;6399
0;66;1573749371943;1573749377698;5755;16360903518;73610993869;1285727179;8485486;12802097817;530564;798589453;1815;3;304944;0;1726;4770
0;67;1573749377698;1573749383711;6013;16380911796;73610994103;1276512299;7639576;12802098051;524590;798599536;2054;9;346584;0;1895;5954
0;68;1573749383711;1573749389330;5619;16370265038;73610993217;1270667017;7249190;12802097165;522488;798583819;1788;12;301288;0;1528;5192
0;69;1573749389330;1573749394737;5407;16384780650;73610993915;1263422223;6635627;12802097863;526815;798601032;1815;348;328264;0;1855;40739
0;70;1573749394737;1573749400162;5425;16370020780;73610993503;1256547175;6615120;12802097451;527238;798579333;1645;5;277200;0;1397;3403
0;71;1573749400162;1573749405657;5495;16404631832;73610993400;1284647474;7347022;12802097348;525321;798582011;1785;1;299568;4;1644;4666
0;72;1573749405658;1573749411171;5513;16394921518;73610993962;1276112477;7111602;12802097910;526250;798614257;1666;6;280624;-4;1491;3934
0;73;1573749411171;1573749417005;5834;16348527682;73610992934;1277119026;4823847;12802096882;515382;798568998;1971;0;331128;1;1877;5540
0;74;1573749417006;1573749422765;5759;16389149992;73610993389;1296099809;6976200;12802097337;519994;798587371;1988;272;344456;-1;2029;38258
0;75;1573749422765;1573749430408;7643;16366405090;73611004812;1297411119;11563760;12802100252;536223;798619345;2635;1;442848;0;2342;6288
0;76;1573749430408;1573749436473;6065;16389647706;73610993865;1279159247;7939173;12802097813;522798;798464379;1919;18;324672;6;1945;5702
0;77;1573749436473;1573749441915;5442;16355801840;73610993672;1297574613;5297811;12802097620;519107;798566513;1777;2;298872;-4;1686;4529
0;78;1573749441915;1573749448044;6129;16362899046;73610993226;1286058657;6859623;12802097174;520620;798586799;1778;1094;419160;7;4646;139859
0;79;1573749448044;1573749453783;5739;16390814684;73610993383;1272721165;9051798;12802097331;523745;798578703;1685;235;310432;-9;2297;8085
0;80;1573749453783;1573749459978;6195;16343931748;73610994030;1285786211;8855973;12802097978;532580;798623453;2074;9;349808;0;2069;5885
0;81;1573749459978;1573749465787;5809;16379282728;73610993921;1266480554;8023909;12802097869;528224;798584057;1853;13;312688;0;1557;3956
0;82;1573749465787;1573749471344;5557;16366886744;73610993344;1278193347;5482264;12802097292;517177;798588362;1633;1;274376;0;1269;2697
0;83;1573749471344;1573749477014;5670;16356222320;73610993449;1291029901;6237086;12802097397;521928;798568903;1720;4;289632;0;1315;3241
0;84;1573749477014;1573749482818;5804;16413106694;73610994305;1303505537;7990586;12802098253;529903;798585533;2126;369;357352;0;2406;73107
0;85;1573749482818;1573749488792;5974;16416917732;73610994174;1232627987;8192334;12802098122;525307;798577267;1949;1;327600;1;1772;4709
0;86;1573749488792;1573749494577;5785;16462767718;73610993874;1281260324;9489142;12802097822;526369;798577070;1867;0;313656;0;1752;4853
0;87;1573749494577;1573749500308;5731;16390966232;73610993560;1256700954;6314554;12802097508;524285;798563029;2009;0;336712;0;1990;6435
0;88;1573749500308;1573749505961;5653;16369663226;73610993674;1250713810;7282360;12802097622;526273;798554595;1933;0;324744;2;1725;5131
0;89;1573749505961;1573749511241;5280;16411513688;73610993581;1292340861;6651105;12802097529;519544;798559855;1666;369;297496;-2;2004;68165
0;90;1573749511241;1573749516836;5595;16359010628;73610994123;1264983222;6257761;12802098071;525263;798590559;1943;6;327432;-1;1708;4262
0;91;1573749516836;1573749522811;5975;16394279264;73610994314;1290869590;8556612;12802098262;532885;798612545;1797;1;302064;0;1595;4077
0;92;1573749522811;1573749528463;5652;16359228314;73610993453;1274841323;5663190;12802097401;522792;798564317;2019;0;338232;0;2046;7224
0;93;1573749528463;1573749534251;5788;16368810002;73610993548;1255776728;6228485;12802097496;522076;798558049;2233;5;375984;0;1864;5801
0;94;1573749534251;1573749539582;5331;16395729044;73610993934;1268361122;6530785;12802097882;520036;798569091;1687;1;283584;0;1198;2973
0;95;1573749539583;1573749545249;5666;16347102868;73610994154;1305313536;5938551;12802098368;529639;798610156;2024;310;349640;1;2090;50329
0;96;1573749545250;1573749550550;5300;16396608694;73610992627;1246526302;6687559;12802097214;521713;798562060;1708;0;286944;-1;1630;4143
0;97;1573749550550;1573749555905;5355;16363717960;73610994279;1291441497;6060839;12802098227;528205;798620153;1659;3;279216;1;1518;3796
0;98;1573749555905;1573749561932;6027;16361281366;73610994005;1274071206;8697675;12802097953;530480;798589846;1962;0;328816;2;1780;5176
0;99;1573749561932;1573749567616;5684;16384266584;73610993782;1278107559;8443689;12802097730;524380;798567545;1771;0;297528;-1;1541;4358
0;100;1573749567616;1573749573456;5840;16365044078;73610993462;1263822656;6977045;12802097410;522765;798589769;2009;525;379696;0;2684;60383
0;101;1573749573457;1573749579824;6367;16416749978;73610993622;1257355807;10222341;12802097570;529044;798607537;2130;0;357840;-2;2089;5459
0;102;1573749579824;1573749585668;5844;16383299334;73610993759;1263896638;6643127;12802097707;518556;798563207;2118;9;357200;2;2015;5759
0;103;1573749585668;1573749591656;5988;16370158312;73610994228;1278309334;7039390;12802098176;520033;798647053;1986;5;333712;6;1883;5660
0;104;1573749591656;1573749597649;5993;16388511534;73610993818;1270870639;7432383;12802097766;522465;798519600;2070;1;347928;-8;1753;5346
0;105;1573749597649;1573749603499;5850;16355707232;73610994110;1255078149;6768315;12802098058;525758;798595499;2028;281;346328;1;1761;51745
0;106;1573749603499;1573749609315;5816;16454386296;73610993128;1236266935;7932100;12802097076;510525;798554058;2005;3;337344;-1;1822;4568
0;107;1573749609315;1573749614704;5389;16360323752;73610993505;1262086527;5268609;12802097453;519132;798623734;1741;1;292656;0;1658;4861
0;108;1573749614704;1573749620814;6110;16365532886;73610993772;1285801860;7915591;12802097720;523335;798648303;2084;2;349808;1;1988;5965
0;109;1573749620814;1573749626757;5943;16392994610;73610993385;1263451253;7700315;12802097333;523710;798556301;2016;5;339392;3;1816;5429
0;110;1573749626757;1573749632986;6229;16360119936;73610993702;1275835970;7499585;12802097650;528284;798607165;2052;307;358104;-4;2257;53917
1;54;1573750165664;1573750171335;5671;16395118472;73611072999;1268919929;6199005;12802097306;529261;798567630;1946;296;343904;0;2104;49785
1;55;1573750171335;1573750177086;5751;16394848372;73611073075;1294108647;6463742;12802097382;528581;798563350;1788;1;300552;5;1565;3597
1;56;1573750177086;1573750185529;8443;16381195036;73611083637;1263445241;12669173;12802099447;534085;798600787;2970;1;498328;-5;2970;8402
1;57;1573750185529;1573750191288;5759;16385623654;73611072937;1271325992;7134710;12802097244;528533;798553041;1784;1;299880;0;1658;4665
1;58;1573750191288;1573750201712;10424;16391871286;73611084152;1245141598;19388586;12802099962;540375;798625284;3760;359;657704;0;3913;49690
1;59;1573750201712;1573750207353;5641;16441463690;73611073425;1279142714;7895015;12802097732;531429;798541643;1761;0;295848;0;1641;4013
1;60;1573750207353;1573750213683;6330;16401128708;73611073565;1246396860;8052943;12802097872;532785;798549565;2159;2;362088;0;2104;6486
1;61;1573750213683;1573750219519;5836;16377596866;73611072554;1303189139;5863901;12802096861;522460;798549086;2109;2;354648;1;2030;6285
1;62;1573750219519;1573750225465;5946;16374508090;73611073784;1271479187;8814045;12802098091;535145;798599898;1955;1;328608;-1;1676;4487
1;63;1573750225465;1573750231535;6070;16390080742;73611073024;1306482620;9139536;12802097331;532570;798543471;2205;278;380976;1;2237;45931
1;64;1573750231535;1573750237254;5719;16351791366;73611073073;1260075745;5986101;12802097380;530996;798529218;1928;0;323904;-1;1727;4274
1;65;1573750237254;1573750243232;5978;16358857328;73611073741;1272310470;8603009;12802098048;533112;798552434;1932;0;324576;2;1809;5007
1;66;1573750243232;1573750248961;5729;16402943050;73611073573;1270453834;7364338;12802097880;526432;798559314;1817;0;304456;1;1792;4841
1;67;1573750248961;1573750254503;5542;16360806428;73611073243;1270483514;6653659;12802097550;531511;798545570;1692;2;284592;-3;1536;3854
1;68;1573750254505;1573750266140;11635;16419521642;73611085455;1257891544;28586461;12802101254;562715;798608975;4149;301;716568;1;3896;43208
1;69;1573750266140;1573750272164;6024;16362891746;73611072900;1264639253;6684790;12802097207;534708;798550541;2082;0;349776;-1;2182;6842
1;70;1573750272164;1573750278313;6149;16385941496;73611072882;1259904116;7445425;12802097189;529559;798572006;2022;1;338904;0;1948;5614
1;71;1573750278314;1573750283889;5575;16371140016;73611073507;1273542153;6233012;12802097814;534448;798560880;1692;0;284256;3;1489;3744
1;72;1573750283889;1573750289060;5171;16379070882;73611073216;1269804578;5433618;12802097523;525558;798570671;1566;0;263088;-3;1258;3113
1;73;1573750289060;1573750295320;6260;16378479582;73611072905;1266846223;7161943;12802097212;531876;798568792;2111;271;364456;0;2099;50360
1;74;1573750295320;1573750300951;5631;16378579592;73611072862;1269708282;6228182;12802097169;531002;798559931;1914;0;321552;0;1835;5090
1;75;1573750300951;1573750306707;5756;16374089362;73611073663;1271351719;7290712;12802097970;537909;798563037;1778;1;297752;0;1756;4866
1;76;1573750306707;1573750312176;5469;16362097214;73611073382;1284335951;6416388;12802097689;528131;798576407;1673;0;281064;1;1493;3563
1;77;1573750312176;1573750317751;5575;16396623294;73611072831;1251449076;8192815;12802097138;527328;798573520;1741;1;292656;-1;1560;4491
1;78;1573750317751;1573750323259;5508;16367376428;73611072813;1261396912;5567079;12802097120;526732;798544963;1657;325;304856;2;1787;37950
1;79;1573750323259;1573750329319;6060;16373071304;73611073133;1276883023;6873793;12802097440;540095;798576969;1799;24;306264;-1;1657;3798
1;80;1573750329319;1573750334936;5617;16360761168;73611072909;1295215943;5322774;12802097216;531613;798550558;1999;83;349776;-1;2247;6631
1;81;1573750334936;1573750340963;6027;16349713640;73611072871;1282594643;5552143;12802097178;532660;798575947;2023;31;344112;0;1940;5942
1;82;1573750340963;1573750346855;5892;16387077084;73611072762;1257458293;6649245;12802097069;529002;798516208;1943;60;336504;0;1751;4656
1;83;1573750346856;1573750352546;5690;16364304880;73611073014;1283565546;5907964;12802097321;531299;798576614;1935;389;349048;11;2169;41696
1;84;1573750352546;1573750358115;5569;16372437956;73611073132;1278941430;6300836;12802097439;536053;798569353;1184;1139;374264;-4;5146;31406
1;85;1573750358115;1573750364181;6066;16396410280;73611073359;1268338640;6911700;12802097666;531529;798566815;1729;727;515112;-6;3760;21017
1;86;1573750364181;1573750370018;5837;16389560690;73611073815;1269723078;7961290;12802098122;537000;798569807;1854;15;313032;-1;1878;5149
1;87;1573750370018;1573750375419;5401;16399146466;73611073203;1267773164;5532308;12802097510;526100;798550335;1548;20;263424;0;1470;3667
1;88;1573750375419;1573750380725;5306;16415957636;73611073299;1273232697;5511533;12802097606;527478;798541277;1652;8;278880;0;1330;3306
1;89;1573750380725;1573750386020;5295;16372981222;73611073597;1282488744;5290275;12802097904;532535;798560747;1765;404;341728;0;2068;31015
1;90;1573750386020;1573750392016;5996;16436497792;73611073426;1305749324;8409302;12802097733;530419;798542764;1846;15;312648;1;1666;4125
1;91;1573750392016;1573750397727;5711;16356050040;73611073505;1286419515;7245323;12802097812;533845;798559501;1855;30;301040;10;1863;9534
1;92;1573750397728;1573750403630;5902;16398559108;73611073176;1266229146;7111644;12802097483;528328;798497939;1967;0;331536;-11;2060;8840
1;93;1573750403630;1573750409026;5396;16372197348;73611072959;1260553617;5909263;12802097266;529678;798554015;1594;0;267792;0;1233;2935
1;94;1573750409026;1573750414615;5589;16384832918;73611073090;1250190354;7111894;12802097397;531833;798546051;1892;280;337112;0;1908;24688
1;95;1573750414615;1573750419924;5309;16378343510;73611073048;1273759412;6597965;12802097355;529147;798542988;1463;2;246120;0;1142;2158
1;96;1573750419924;1573750425725;5801;16373603182;73611073330;1281449049;6519544;12802097637;533081;798563375;1825;6;307608;2;1741;4231
1;97;1573750425725;1573750431293;5568;16390049352;73611073319;1285610201;7677596;12802097626;526617;798541606;1542;4;258448;-2;1401;2808
1;98;1573750431293;1573750437038;5745;16362738008;73611073479;1260783544;8156495;12802098052;536300;798569755;1656;4;278880;0;1423;3138
1;99;1573750437038;1573750442476;5438;16356015146;73611073007;1280044029;5422089;12802097953;533706;798527689;1565;5;263760;0;1373;3357
1;100;1573750442476;1573750448245;5769;16405741140;73611072828;1248687292;6505184;12802097135;524508;798507601;1995;245;354280;3;2022;23474
1;101;1573750448245;1573750453745;5500;16335118896;73611073828;1267008429;5754388;12802098135;536358;798619093;1709;7;288288;-2;1554;3593
1;102;1573750453745;1573750459343;5598;16398704378;73611073456;1280170564;7378248;12802097763;532755;798472807;1683;11;283312;-1;1718;4135
1;103;1573750459343;1573750464946;5603;16362871014;73611073244;1271355208;6786588;12802097551;528742;798551225;1830;16;310128;0;1720;4849
2;55;1573751011405;1573751017477;6072;16359786618;73610993024;1261130429;6245790;12802096972;526661;798619546;2247;3;377208;-1;2228;7299
2;56;1573751017477;1573751023429;5952;16409989302;73611004073;1294067279;6949967;12802099504;530834;798627191;1583;5;266616;-2;1277;2849
2;57;1573751023429;1573751028738;5309;16358211278;73610993801;1278818342;5898232;12802097749;530029;798535361;1786;293;314784;0;1816;40195
2;58;1573751028738;1573751034702;5964;16423265520;73610993825;1281333059;8765482;12802097773;530355;798516342;1912;3;321720;2;1459;3328
2;59;1573751034702;1573751039852;5150;16394703540;73610993305;1268729414;5468520;12802097253;525878;798520144;1715;3;288624;-2;1676;4856
2;60;1573751039852;1573751045609;5757;16350181570;73610993405;1282408157;5977875;12802097353;528351;798533952;1863;14;314376;1;1786;4998
2;61;1573751045609;1573751051395;5786;16393137544;73610993385;1245059886;6444781;12802097333;527901;798537154;1923;29;327936;-1;1929;5994
2;62;1573751051395;1573751056948;5553;16368448360;73610993338;1373743885;6033359;12802097286;525986;798511116;1812;6;305424;0;1478;3985
2;63;1573751056948;1573751062915;5967;16384019844;73610993639;1278184759;10387819;12802097587;529133;798613533;2083;302;365432;0;2083;43367
2;64;1573751062915;1573751068436;5521;16382900754;73610993410;1258281142;6196789;12802097358;527578;798571599;1911;16;323736;0;1694;4476
2;65;1573751068436;1573751074230;5794;16371398582;73610993870;1256966766;9015740;12802097818;528715;798616261;1650;1;276568;0;1398;3335
2;66;1573751074231;1573751079855;5624;16365529820;73610993332;1277116120;6178860;12802097280;533071;798603015;1928;0;323904;0;1838;5742
2;67;1573751079855;1573751085240;5385;16365935554;73610993065;1260555060;5921031;12802097013;526024;798617823;1621;4;272864;0;1400;3603
2;68;1573751085240;1573751090845;5605;16371521076;73610993368;1265698939;6604309;12802097316;532695;798527510;1815;274;314464;4;1866;41211
2;69;1573751090845;1573751096298;5453;16369133976;73610993546;1271720539;5921464;12802097494;529965;798554561;1839;2;309288;-4;1591;4057
2;70;1573751096298;1573751102002;5704;16360767592;73610993174;1252435723;7328343;12802097122;525261;798456356;2103;0;353304;0;2020;5981
2;71;1573751102003;1573751107827;5824;16393101336;73610993457;1277751507;7859629;12802097405;525214;798546645;2103;5;353344;2;2092;6918
2;72;1573751107827;1573751115688;7861;16396252308;73611004443;1286291188;13492734;12802099883;535289;798554933;2807;0;471576;-2;2565;7653
2;73;1573751115688;1573751121686;5998;16389361984;73610993340;1266746633;8591403;12802097288;530534;798629957;1999;321;348784;0;2061;51716
2;74;1573751121686;1573751127278;5592;16359811146;73610993230;1268672125;6115890;12802097178;526206;798613825;1774;0;298032;0;1496;3378
2;75;1573751127278;1573751133211;5933;16381690560;73610993941;1274186022;8006659;12802097889;536472;798543085;1926;7;324472;0;1841;5173
2;76;1573751133211;1573751139113;5902;16382766872;73610993165;1252970355;6293183;12802097113;530685;798620900;1960;2;328496;1;1816;4828
2;77;1573751139113;1573751144952;5839;16361892230;73610993325;1259519650;8099077;12802097273;526777;798548002;1887;13;319200;-1;1759;5323
2;78;1573751144952;1573751150321;5369;16358117984;73610993178;1290977920;5426558;12802097126;526964;798537230;1738;9;293496;0;1404;3711
2;79;1573751150321;1573751156272;5951;16388269174;73610993449;1267273372;8205595;12802097397;531767;798529137;2006;347;360040;0;2058;41842
2;80;1573751156272;1573751162038;5766;16381793782;73610993749;1295501903;9125078;12802097697;535557;798551204;1841;18;312312;1;1831;4881
2;81;1573751162038;1573751167400;5362;16370171890;73610993199;1276314996;5427085;12802097147;522269;798534619;1911;20;323152;-1;1891;5901
2;82;1573751167400;1573751173184;5784;16365058240;73610993870;1285190432;7607016;12802097818;532318;798407640;1851;21;314496;1;1578;4147
2;83;1573751173185;1573751178705;5520;16395417334;73610993743;1283333509;6873422;12802097691;533686;798618363;1721;17;291984;-1;1403;3717
2;84;1573751178705;1573751184586;5881;16365796270;73610993848;1260828378;6398892;12802097796;529609;798620144;2028;263;349144;0;1909;40593
2;85;1573751184586;1573751190370;5784;16364953266;73610993954;1272586272;6271151;12802097902;534309;798609555;1404;1208;400264;1;4897;42424
2;86;1573751190370;1573751195615;5245;16439468162;73610993896;1267804001;6114475;12802097844;524491;798368984;1661;11;280896;0;1610;4278
2;87;1573751195615;1573751200972;5357;16435182624;73610993613;1281323538;5872837;12802097561;530769;798606751;1536;13;258952;-1;1366;3317
2;88;1573751200972;1573751206917;5945;16402905528;73610993794;1240331160;8668932;12802097742;530307;798611244;1747;13;295680;0;1622;4066
2;89;1573751206917;1573751212811;5894;16395388864;73610993954;1244322855;7934827;12802097902;528865;798547677;2101;19;355848;0;1757;5296
2;90;1573751212812;1573751218996;6184;16332581562;73610993667;1340661856;6455929;12802097615;532274;798527620;2320;268;406688;0;2439;37963
2;91;1573751218996;1573751224978;5982;16390884764;73610992925;1259235053;6091606;12802096873;522542;798527893;2177;2;366072;0;2049;5887
2;92;1573751224978;1573751230529;5551;16343110644;73610993083;1271074520;5520545;12802097031;527546;798538560;1842;20;300024;0;1869;10494
2;93;1573751230529;1573751236484;5955;16449327104;73610994512;1213058831;9809942;12802098460;534658;798547459;1960;2;329616;0;1928;5358
2;94;1573751236484;1573751242457;5973;16343623104;73610994020;1245689923;7788723;12802097968;536677;798622448;1944;1;326760;0;1753;4882
2;95;1573751242457;1573751247623;5166;16365266144;73610993246;1259448021;5035744;12802097194;521775;798601128;1676;0;281096;0;1486;4217
2;96;1573751247623;1573751253250;5627;16375898594;73610993857;1267985697;5644978;12802097805;531791;798609920;2157;282;377736;1;2216;36145
2;97;1573751253250;1573751259048;5798;16369678264;73610993783;1276497279;8358678;12802097731;525567;798456001;1884;1;315720;-1;1839;5140
2;98;1573751259049;1573751265216;6167;16403430398;73610993352;1282673026;11179830;12802097566;534475;798635435;1865;3;313824;3;1778;4858
2;99;1573751265216;1573751271046;5830;16355801986;73610993299;1286199545;7815054;12802097886;533097;798541845;1742;6;293664;1;1491;3949
2;100;1573751271046;1573751276915;5869;16362966790;73610993475;1296485825;7769509;12802097423;529291;798575692;1874;1;314368;-4;1583;4574
2;101;1573751276915;1573751282344;5429;16381897442;73610993452;1271133882;5393689;12802097400;530828;798580449;1934;241;332232;2;1956;41912
2;102;1573751282344;1573751287983;5639;16386894730;73610993677;1266181177;8486242;12802097625;528290;798566420;1721;0;289128;4;1419;3414
2;103;1573751287983;1573751293490;5507;16382801328;73610994243;1270036355;7418255;12802098191;532867;798627019;1694;0;283632;-4;1514;3898
2;104;1573751293490;1573751299010;5520;16375857714;73610993611;1258381500;5439891;12802097559;524339;798416083;1990;0;334320;-2;1889;6129
3;50;1573751815232;1573751828086;12854;16386164584;73611082920;1277448384;20886705;12802099562;547821;798639373;4711;10;792656;0;4138;12251
3;51;1573751828086;1573751840702;12616;16387320466;73611084270;1314762936;25063726;12802100506;554523;798616395;4710;408;828400;0;5117;57937
3;52;1573751840702;1573751851810;11108;16377621248;73611083585;1270494620;13265269;12802099384;531699;798563137;4139;8;695896;1;4167;12994
3;53;1573751851810;1573751862040;10230;16352948416;73611082810;1260713945;11391760;12802099059;537745;798611238;3765;434;667928;0;3917;72352
3;54;1573751862040;1573751867951;5911;16381602230;73611073700;1286164349;7712071;12802098007;534617;798590719;1915;21;325248;-1;1591;3683
3;55;1573751867951;1573751873764;5813;16364274366;73611072812;1246456469;6449708;12802097119;532763;798569145;2033;11;342296;1;1957;5965
3;56;1573751873764;1573751879457;5693;16388707320;73611072729;1250681659;6370993;12802097036;535901;798564127;1793;14;303576;1;1671;4700
3;57;1573751879457;1573751885276;5819;16374459618;73611073079;1277644091;6344643;12802097386;530223;798588646;1957;37;334992;-2;1850;5636
3;58;1573751885276;1573751890870;5594;16373216282;73611073166;1289779763;7311134;12802097473;533742;798572817;1888;231;323504;2;1756;39691
3;59;1573751890870;1573751896630;5760;16447748260;73611073236;1205816313;7883085;12802097543;533389;798558351;1807;12;305592;-2;1497;3496
3;60;1573751896630;1573751902409;5779;16394145966;73611073547;1254850586;7620742;12802097854;530348;798578935;1773;2;298200;0;1603;3940
3;61;1573751902409;1573751907844;5435;16388420722;73611073013;1271908758;5894735;12802097320;544621;798580638;1761;1;295376;0;1688;4827
3;62;1573751907844;1573751913490;5646;16338857372;73611073094;1278535072;7109683;12802097401;527843;798571888;1894;4;318864;0;1680;4749
3;63;1573751913490;1573751919094;5604;16421035078;73611073643;1233165832;6957222;12802097950;535190;798575759;1863;2;313320;0;1511;4257
3;64;1573751919095;1573751925083;5988;16352606776;73611073757;1278635211;7560390;12802098064;538655;798598385;2036;283;355416;0;2233;45180
3;65;1573751925083;1573751930685;5602;16339820096;73611073403;1295304389;5728771;12802097710;530741;798591437;1776;0;298368;7;1417;3919
3;66;1573751930685;1573751939670;8985;16424576746;73611084674;1267565737;25005715;12802100473;555781;798640713;3185;7;535480;-6;3019;8975
3;67;1573751939670;1573751945566;5896;16352281050;73611073518;1283419059;7457484;12802097825;534817;798576554;1996;4;336000;-1;1737;5093
3;68;1573751945566;1573751951628;6062;16372763682;73611073190;1272390192;8036116;12802097497;539062;798558807;2246;103;375232;147;1804;16037
3;69;1573751951628;1573751957419;5791;16350983548;73611072954;1258466724;7179612;12802097261;532698;798555984;2036;261;366824;-143;2143;30557
3;70;1573751957419;1573751962931;5512;16355977040;73611073413;1279079344;5993233;12802097720;544767;798587580;1866;8;314152;-4;2001;5644
3;71;1573751962931;1573751968431;5500;16363538818;73611073595;1282280751;6739125;12802097902;535215;798604661;1673;1;280272;0;1577;4000
3;72;1573751968431;1573751974326;5895;16381913648;73611073183;1215086076;6235787;12802097490;531554;798587789;2095;11;353808;0;2015;6139
3;73;1573751974326;1573751979987;5661;16384613626;73611072681;1258853370;6189371;12802096988;529512;798560818;2055;0;345240;0;1830;5925
3;74;1573751979987;1573751985781;5794;16351716468;73611072903;1288620504;5785694;12802097210;537262;798586588;2015;290;357456;3;2311;46513
3;75;1573751985781;1573751991441;5660;16357496024;73611073004;1284369089;6214701;12802097311;532756;798582785;1785;267;314896;16;1950;69033
3;76;1573751991441;1573751997940;6499;16387306888;73611073198;1260128826;9801974;12802097505;537495;798603764;1674;908;404848;-19;4433;20923
3;77;1573751997940;1573752003631;5691;16342642714;73611072980;1256788588;8264791;12802097287;536733;798572294;1684;0;282912;0;1400;3538
3;78;1573752003631;1573752009168;5537;16367573528;73611073115;1278547092;7014012;12802097422;532205;798594218;1830;6;308448;0;1642;4704
3;79;1573752009168;1573752015098;5930;16349660204;73611073027;1267999513;6130632;12802097334;531900;798502905;2066;4;347128;0;1745;5579
3;80;1573752015098;1573752020939;5841;16369105944;73611073148;1284647216;7930671;12802097455;541415;798558699;1891;8;319032;0;1701;5024
3;81;1573752020939;1573752026773;5834;16381901238;73611072858;1257841964;6749944;12802097165;531248;798576522;1992;393;374896;0;2498;38248
3;82;1573752026773;1573752032211;5438;16362482800;73611072987;1259214167;7134970;12802097294;532342;798589995;1659;4;266264;0;1294;4214
3;83;1573752032211;1573752038161;5950;16385073818;73611073169;1274333771;6644178;12802097476;536892;798578377;2053;8;346112;0;2156;6868
3;84;1573752038162;1573752044206;6044;16373352646;73611073552;1275329398;7584621;12802097859;533385;798413148;1931;5;324616;1;1802;5146
3;85;1573752044206;1573752049764;5558;16366566712;73611073928;1315888702;6104157;12802098235;538162;798578686;1761;1;296016;-1;1620;4843
3;86;1573752049764;1573752055022;5258;16348592360;73611073551;1310172192;5693732;12802097858;532289;798570888;1616;275;284768;0;1593;33446
3;87;1573752055022;1573752060656;5634;16380703162;73611073184;1266428667;7813671;12802097491;534058;798551403;1763;1;295712;1;1403;3392
3;88;1573752060656;1573752066455;5799;16383188666;73611073283;1263835867;6249094;12802097590;536863;798555461;1798;1;302232;-1;1777;4708
3;89;1573752066455;1573752072123;5668;16392681440;73611073468;1256245372;5784899;12802097775;528322;798569572;1776;1;298536;0;1614;4169
3;90;1573752072123;1573752077793;5670;16367703322;73611073493;1264829941;6085509;12802097800;533628;798562771;1993;3;334376;0;1840;5477
3;91;1573752077793;1573752084112;6319;16380897196;73611073479;1266158609;8941155;12802097786;538633;798558364;2268;2;381360;0;1831;5001
3;92;1573752084112;1573752089596;5484;16343560470;73611073014;1280165881;6291037;12802097321;535433;798587371;1756;251;303800;0;1697;38764
3;93;1573752089596;1573752095142;5546;16370651062;73611072776;1267849888;5319864;12802097083;531994;798578896;1619;2;272328;0;1545;3709
3;94;1573752095142;1573752100576;5434;16386424464;73611073242;1252816748;7137186;12802097549;538918;798559359;1639;0;275352;2;1479;3703
3;95;1573752100577;1573752106296;5719;16372237206;73611073241;1261246139;8261804;12802097601;538563;798563608;1868;3;313400;2;1675;4671
3;96;1573752106296;1573752111995;5699;16371637000;73611071945;1284805441;6133544;12802097104;533757;798565960;1757;4;295848;-4;1433;3384
3;97;1573752111995;1573752118297;6302;16350252380;73611073201;1265498774;6345318;12802097508;534193;798534921;2185;251;375840;0;2341;40773
3;98;1573752118297;1573752124025;5728;16376809634;73611073158;1273712670;5829480;12802097465;537124;798576098;1662;0;278416;0;1444;3158
3;99;1573752124025;1573752130054;6029;16363106512;73611073522;1258883743;7241849;12802097829;545271;798594905;1960;1;329448;0;1978;5783
4;62;1573752677709;1573752682995;5286;16378630692;73611072614;1281909865;5883211;12802096921;526257;798571951;1605;1;268848;0;1490;4093
4;63;1573752682995;1573752688510;5515;16422742548;73611072754;1275179011;5704928;12802097061;532607;798472292;1745;10;294840;0;1564;4062
4;64;1573752688510;1573752693679;5169;16381844006;73611073068;1278339526;4765091;12802097375;528342;798537973;1606;4;270480;0;1307;3454
4;65;1573752693679;1573752699821;6142;16437805806;73611073646;1255582076;10092380;12802097953;535682;798556676;2091;226;348992;0;1936;44265
4;66;1573752699821;1573752705323;5502;16364568264;73611073819;1243847772;8338689;12802098126;533900;798586023;1616;4;272160;0;1525;3992
4;67;1573752705323;1573752710754;5431;16360652544;73611074183;1291309004;5878972;12802098490;543333;798585307;1573;1;263312;0;1252;2960
4;68;1573752710755;1573752716198;5443;16357241254;73611074223;1278817692;6439546;12802098530;542421;798617726;1708;2;287280;3;1556;4373
4;69;1573752716198;1573752724446;8248;16370192914;73611083326;1259547734;10279412;12802099136;534355;798583377;2993;2;503160;-3;2675;8320
4;70;1573752724446;1573752730301;5855;16388027252;73611073319;1267274763;7646985;12802097626;528861;798596458;1938;246;336072;0;1896;32152
4;71;1573752730302;1573752735833;5531;16351603318;73611073528;1269125002;5741830;12802097835;534057;798576764;1762;13;298200;0;1621;4248
4;72;1573752735833;1573752741808;5975;16387646484;73611073289;1296105992;10075914;12802097596;532519;798592172;1840;4;308992;0;1664;3755
4;73;1573752741808;1573752747561;5753;16355385740;73611073573;1274763340;6219517;12802097880;536092;798586513;1899;4;319704;1;1780;5206
4;74;1573752747561;1573752753670;6109;16360022846;73611072882;1274687236;9598372;12802097189;528514;798586338;1915;3;322224;-1;1690;4464
4;75;1573752753670;1573752759105;5435;16369017322;73611073448;1268783465;6368404;12802097755;535598;798435485;1658;267;289512;0;1516;37887
4;76;1573752759105;1573752764872;5767;16348065300;73611073197;1279870555;6968397;12802097504;533556;798593218;1830;0;307440;0;1503;3513
4;77;1573752764872;1573752770974;6102;16386289998;73611073290;1271281071;9188559;12802097597;533551;798596400;1959;20;331128;0;1917;5269
4;78;1573752770974;1573752776542;5568;16344648462;73611073602;1279283902;6501816;12802097909;533149;798597310;1686;0;283248;0;1420;3370
4;79;1573752776552;1573752782188;5636;16362919632;73611073021;1292067830;6971664;12802097328;531074;798574855;1683;0;282744;0;1303;3384
4;80;1573752782188;1573752787939;5751;16375842968;73611073148;1287343055;9154045;12802097455;540379;798583169;1937;138;309728;0;1837;43925
4;81;1573752787939;1573752794309;6370;16361522850;73611073110;1268881965;9958272;12802097417;536500;798600158;2182;3;367080;0;1804;4750
4;82;1573752794309;1573752799832;5523;16386146334;73611072934;1265459394;6412545;12802097241;526340;798555155;1657;0;278376;1;1560;4207
4;83;1573752799832;1573752805485;5653;16353802808;73611073096;1267832861;6915083;12802097403;529715;798595781;1766;9;297240;-1;1579;4304
4;84;1573752805485;1573752810976;5491;16376227240;73611072920;1266560615;5948756;12802097227;529523;798571092;1797;0;301896;6;1626;4588
4;85;1573752810976;1573752816510;5534;16368468362;73611073849;1317798441;5791438;12802098156;528292;798588121;1872;0;314496;-6;1425;4102
4;86;1573752816510;1573752822274;5764;16346907520;73611073457;1263909645;5860072;12802097764;533723;798551314;1949;366;353776;0;2176;55435
4;87;1573752822274;1573752828329;6055;16386894000;73611073712;1264151173;7366960;12802098019;534065;798584034;2115;2;355656;0;1992;6075
4;88;1573752828329;1573752833954;5625;16363308722;73611073096;1271434586;6891945;12802097403;532378;798547270;1527;602;312880;5;3091;89588
4;89;1573752833954;1573752839508;5554;16352948270;73611073588;1267655694;6057082;12802097895;531880;798573334;1543;607;341944;-4;3657;29614
4;90;1573752839508;1573752845296;5788;16409497574;73611073498;1277885617;6880654;12802097805;528647;798564842;1955;1;328608;-1;1930;6645
4;91;1573752845296;1573752850856;5560;16401960762;73611073441;1257979189;5980164;12802097748;527848;798565218;1835;0;307808;1;1573;4368
4;92;1573752850856;1573752856226;5370;16393421806;73611072948;1272965326;6836268;12802097255;525298;798570196;1616;0;271488;-1;1234;3339
4;93;1573752856226;1573752862154;5928;16340165094;73611072976;1252185780;7823760;12802097283;533354;798568249;2108;0;354144;1;1729;5188
4;94;1573752862154;1573752867639;5485;16373005020;73611073239;1237951094;5612401;12802097546;523067;798562050;1897;373;334256;-1;2243;46626
4;95;1573752867639;1573752872953;5314;16369687024;73611073431;1272995464;5301268;12802097738;528367;798559293;1670;0;280560;3;1427;3554
4;96;1573752872953;1573752878340;5387;16377936754;73611073064;1255325699;6887996;12802097371;526176;798566085;1687;5;282416;-2;1695;4843
4;97;1573752878340;1573752883882;5542;16385010600;73611073828;1257810437;6990921;12802098135;535573;798546848;1720;0;288960;7;1580;4264
4;98;1573752883882;1573752889453;5571;16373909782;73611072693;1287417477;7573659;12802097266;529576;798556235;1809;2;304248;-8;1610;4603
4;99;1573752889453;1573752894918;5465;16409383694;73611072491;1258337182;7298136;12802097437;528779;798527631;1730;238;306808;0;1626;23332
4;100;1573752894918;1573752900501;5583;16377770168;73611073427;1271430384;6406816;12802097734;529578;798464486;1948;7;328304;0;1684;4304
4;101;1573752900501;1573752906411;5910;16351571344;73611074066;1273254191;7813150;12802098373;536737;798625783;1819;14;307944;0;1659;4235
4;102;1573752906411;1573752912264;5853;16383201514;73611073082;1271951264;8994943;12802097389;533552;798546613;1948;12;328488;1;1720;4175
4;103;1573752912265;1573752918108;5843;16350554016;73611073513;1253892697;8649092;12802097820;533122;798515763;1873;23;318528;-1;1561;4457
4;104;1573752918108;1573752923597;5489;16397331248;73611073452;1252156742;7284603;12802097759;530711;798549052;1590;6;268128;1;1179;2655
4;105;1573752923597;1573752929488;5891;16425297548;73611073126;1263651907;8376483;12802097433;526326;798573911;1950;258;347736;-1;1900;19017
4;106;1573752929489;1573752935131;5642;16362069912;73611073138;1266541743;7380529;12802097445;534005;798599801;1789;2;300888;0;1645;4069
4;107;1573752935131;1573752941154;6023;16393923608;73611073059;1254451760;10402127;12802097366;531576;798616275;2027;2;340080;1;2025;5772
4;108;1573752941154;1573752946785;5631;16355431730;73611072812;1262178455;6143437;12802097119;531228;798488411;1861;0;312648;-1;1699;5062
4;109;1573752946786;1573752952362;5576;16368092704;73611073170;1280755079;7583267;12802097477;531454;798598714;1688;0;283584;2;1440;3534
4;110;1573752952362;1573752958188;5826;16384243516;73611072847;1269055296;8396302;12802097154;530335;798518582;1939;246;342072;-2;1757;21334
4;111;1573752958188;1573752963488;5300;16349445876;73611072700;1265049450;5273297;12802097007;528877;798517559;1702;10;287616;0;1297;3207
