0;80;1573710564609;1573710569251;4642;16168286886;73611072570;1286422448;39980;12802096877;518772;798562910;477;897;844416;3;4642;666870
0;81;1573710569251;1573710574455;5204;16230274690;73611072911;1286837889;3412685;12802097218;541244;798548397;560;836;952264;11;5204;629918
0;82;1573710574455;1573710579598;5143;16261281878;73611072816;1250505976;4008486;12802097123;532369;798608932;917;801;907200;-12;5142;798033
0;83;1573710579598;1573710584743;5145;16275513520;73611072899;1257586397;4194112;12802097206;537268;798478544;567;688;902072;9;5146;735719
0;84;1573710584743;1573710589492;4749;16242693742;73611072673;1360025377;2207699;12802096980;526108;798536265;509;751;807336;3;4749;679120
0;85;1573710589492;1573710594348;4856;16222233448;73611072819;1286153269;1962125;12802097126;531921;798386245;512;1064;903712;0;4856;695766
0;86;1573710594348;1573710599080;4732;16226464674;73611072634;1196629544;1992928;12802096941;526000;798584636;505;1317;873552;9;4731;678665
0;87;1573710599080;1573710603900;4820;16240998390;73611072626;1299169706;1924210;12802096933;523544;798528528;536;925;949000;-24;4821;692096
0;88;1573710603901;1573710608627;4726;16177435538;73611072474;1233756940;461608;12802096781;524564;798321869;921;900;815088;4;4727;818500
0;89;1573710608627;1573710615281;6654;16163295292;73611082367;1223222357;515418;12802098556;555527;798316775;748;1408;1298408;20;6654;958325
0;90;1573710615281;1573710620446;5165;16242225666;73611073022;1240743920;3004378;12802097329;529410;798650279;586;639;933488;-13;5165;676575
0;91;1573710620446;1573710625825;5379;16283372262;73611072955;1269188410;4778607;12802097262;532610;798572464;587;713;857664;8;5379;774426
0;92;1573710625826;1573710630884;5058;16237541402;73611072921;1269326205;2623186;12802097228;536587;798577153;907;628;612224;-6;5059;877385
0;93;1573710630884;1573710635849;4965;16222586038;73611072819;1313227595;1351241;12802097126;533735;798521419;607;618;719032;11;4965;716123
0;94;1573710635849;1573710640591;4742;16234020612;73611073116;1204453925;1955859;12802097423;520345;798600761;501;1194;894632;-21;4741;679560
0;95;1573710640591;1573710645327;4736;16214066208;73611072152;1247237533;1456545;12802096725;534896;798538156;474;986;820144;7;4737;679571
0;96;1573710645327;1573710650106;4779;16207584392;73611071872;1233996621;1285707;12802096818;530896;798566501;505;1069;900704;7;4779;686839
0;97;1573710650106;1573710654845;4739;16201729208;73611072251;1306806689;793786;12802096558;524252;798549574;533;1239;913048;-21;4739;680266
0;98;1573710654845;1573710659668;4823;16167377890;73611072334;1270845026;57390;12802096641;527820;798418485;963;847;826080;99;4823;812393
0;99;1573710659668;1573710664572;4904;16213206998;73611072578;1280804261;1896790;12802096885;539490;798335226;627;483;894088;-75;4904;664103
0;100;1573710664572;1573710669807;5235;16270956276;73611072964;1261944866;4385475;12802097271;540005;798580113;642;732;835792;4;5234;749643
0;101;1573710669807;1573710675033;5226;16259516592;73611072864;1278585629;3728619;12802097171;539082;798491735;547;819;924608;-3;5227;747684
0;102;1573710675033;1573710679827;4794;16245351088;73611072643;1261208390;2285115;12802096950;520819;798599655;490;720;868616;-10;4794;688721
0;103;1573710679828;1573710684683;4855;16226200414;73611072714;1294388036;1998558;12802097021;531604;798320398;547;1176;966896;-3;4856;696635
0;104;1573710684684;1573710689664;4980;16238975560;73611072730;1273506674;2274447;12802097037;534595;798532540;533;1157;938344;11;4981;715075
0;105;1573710689664;1573710694577;4913;16238379004;73611072545;1264999304;2036694;12802096852;527467;798584315;902;938;858176;4;4913;782043
0;106;1573710694577;1573710699254;4677;16221296712;73611072320;1292316927;1640066;12802096627;531010;798599390;530;1187;913888;-18;4677;670958
0;107;1573710699254;1573710704177;4923;16154776192;73611072476;1206826974;66896;12802096783;529403;798367784;528;737;907288;16;4923;706398
0;108;1573710704177;1573710708799;4622;16163945284;73611072189;1221929055;40238;12802096496;533391;798331578;538;870;779568;6;4622;657627
0;109;1573710708799;1573710713737;4938;16219107296;73611072747;1251006990;2415459;12802097054;531099;798573240;534;723;846576;-24;4937;619558
0;110;1573710713737;1573710719051;5314;16280252096;73611072797;1255578144;4597596;12802097104;537905;798611447;566;877;952696;10;5315;763130
0;111;1573710719051;1573710724444;5393;16268641446;73611072874;1253796770;4750874;12802097181;533862;798565874;916;835;919784;-17;5393;865170
0;112;1573710724445;1573710729404;4959;16257382510;73611072577;1252394273;3338883;12802096884;528881;798539403;546;848;971736;30;4960;712182
0;113;1573710729404;1573710734287;4883;16227918834;73611072307;1285346612;1892529;12802096614;522351;798474671;555;910;878496;-11;4882;702241
0;114;1573710734287;1573710738924;4637;16205966420;73611072173;1308209095;1044232;12802096480;528175;798598763;518;936;703520;-6;4638;665928
0;115;1573710738924;1573710743701;4777;16265710642;73611072282;1286838894;2707938;12802096589;527302;798253920;476;768;851856;5;4777;685071
0;116;1573710743701;1573710748429;4728;16183595424;73611072179;1228278837;608574;12802096486;524687;798561076;510;1310;853072;2;4728;680252
0;117;1573710748429;1573710753049;4620;16161151574;73611072156;1222125174;42428;12802096463;527072;798538314;491;931;847288;-11;4620;663108
0;118;1573710753049;1573710757753;4704;16176249726;73611072288;1241713693;573482;12802096595;530447;798485458;990;401;824760;-14;4704;597522
0;119;1573710757753;1573710762938;5185;16264624986;73611073203;1288733876;4174121;12802097510;535385;798551257;589;676;860968;33;5184;738343
0;120;1573710762938;1573710768342;5404;16282529696;73611073123;1275022963;5092634;12802097430;544617;798610984;561;766;929048;-17;5405;775000
0;121;1573710768343;1573710773979;5636;16262294242;73611072849;1276668548;3750782;12802097156;538014;798609229;629;986;1099744;11;5636;808844
0;122;1573710773979;1573710778917;4938;16254875398;73611072888;1265415069;3111643;12802097195;528187;798656785;558;937;972880;-14;4939;706548
0;123;1573710778917;1573710783768;4851;16240699966;73611072302;1250540900;2261560;12802096609;530521;798587437;531;1336;909672;13;4850;695492
0;124;1573710783768;1573710788632;4864;16231962158;73611072330;1289722227;1931516;12802096637;522864;798498293;835;711;820416;-9;4865;800593
0;125;1573710788632;1573710793271;4639;16204310050;73611072192;1292020708;938026;12802096499;538559;798546942;520;1003;903736;-6;4639;664984
0;126;1573710793271;1573710797895;4624;16172792446;73611073663;1303788394;43465;12802096799;529618;798399695;557;1215;882360;19;4624;662799
0;127;1573710797895;1573710802517;4622;16167821584;73611086986;1330255206;95129;12802099794;517307;798537219;468;457;798480;-77;4622;621219
0;128;1573710802518;1573710807702;5184;16276826498;73611072705;1261052643;4322704;12802097012;530509;798492108;601;722;864440;67;5185;721202
0;129;1573710807702;1573710813123;5421;16273355348;73611073111;1261399569;4678225;12802097418;542319;798552933;562;836;951640;14;5421;778705
1;79;1573711409499;1573711414121;4622;16166676214;73611072159;1287134916;41205;12802096466;520708;798522150;469;932;806520;11;4622;663936
1;80;1573711414121;1573711419187;5066;16217009276;73611072700;1271948232;2545304;12802097007;540700;798606423;546;746;948152;14;5065;664608
1;81;1573711419187;1573711424409;5222;16252868628;73611072698;1257357820;3744898;12802097005;531483;798627095;840;855;972128;-12;5222;792775
1;82;1573711424409;1573711429665;5256;16254097072;73611072920;1253371212;4025774;12802097227;536973;798606630;612;752;892192;-4;5257;757861
1;83;1573711429665;1573711434752;5087;16229071942;73611072474;1265740594;2154560;12802096781;537988;798616844;502;810;803064;10;5086;728409
1;84;1573711434752;1573711439556;4804;16226165082;73611072714;1260701446;2292372;12802097021;536957;798344553;519;1001;923376;-7;4805;691725
1;85;1573711439556;1573711446887;7331;16242356190;73611084104;1266575508;5440010;12802099914;544520;798558633;800;1682;1419704;0;7331;1050997
1;86;1573711446887;1573711451519;4632;16191534174;73611072499;1244054456;925097;12802096806;539883;798506585;525;934;929648;-7;4632;664751
1;87;1573711451519;1573711456240;4721;16160338062;73611072470;1220956451;43127;12802096777;524609;798317858;781;1321;809816;4;4721;719622
1;88;1573711456240;1573711460970;4730;16168866360;73611072487;1230573658;211685;12802096794;528934;798275213;549;666;928456;-60;4729;572736
1;89;1573711460970;1573711466152;5182;16270338112;73611073143;1271157427;4217497;12802097450;535817;798520054;562;688;866952;56;5183;721918
1;90;1573711466152;1573711471376;5224;16268659550;73611073228;1292032473;4204298;12802097535;532557;798513141;534;752;842504;10;5223;749315
1;91;1573711471376;1573711476437;5061;16257440472;73611072626;1248121234;3499829;12802096933;535378;798295722;533;792;929328;11;5061;727416
1;92;1573711476437;1573711481146;4709;16240051580;73611072419;1279247343;2086253;12802096726;522715;798511718;522;834;931720;-7;4710;677033
1;93;1573711481146;1573711485971;4825;16241977028;73611072738;1292011884;2114896;12802097045;526135;798609159;738;1032;876160;4;4825;733051
1;94;1573711485971;1573711490636;4665;16214289588;73611072531;1294378994;1328197;12802096838;519551;798329202;516;1235;883000;-4;4665;670345
1;95;1573711490636;1573711495405;4769;16222566620;73611072306;1244652921;1723465;12802096666;530007;798598105;543;651;931344;1;4768;682593
1;96;1573711495405;1573711500025;4620;16160482164;73611071466;1248561104;122100;12802096625;518145;798537537;753;657;613512;-3;4621;741613
1;97;1573711500025;1573711504646;4621;16162255626;73611072173;1226432852;63342;12802096480;529852;798570336;652;845;494024;-6;4620;667002
1;98;1573711504646;1573711509266;4620;16159869986;73611072348;1241619583;57989;12802096655;521427;798590080;487;787;832632;-42;4620;651397
1;99;1573711509266;1573711514698;5432;16258329904;73611072955;1267585815;5040911;12802097262;536330;798575998;571;916;968824;56;5432;704978
1;100;1573711514698;1573711519923;5225;16276149496;73611072827;1256710411;4769129;12802097134;538030;798565871;569;848;1000760;-25;5226;749556
1;101;1573711519924;1573711525315;5391;16279667950;73611072881;1249446655;5065366;12802097188;538345;798576893;599;933;1092080;9;5392;774846
1;102;1573711525315;1573711530159;4844;16238105692;73611072930;1277206380;2547488;12802097237;525862;798589191;816;924;885176;-5;4843;740616
1;103;1573711530159;1573711534867;4708;16251131082;73611072654;1240197543;2390540;12802096961;513394;798537735;523;994;928696;23;4709;671798
1;104;1573711534867;1573711539532;4665;16242919604;73611072584;1257158498;2106228;12802096891;526466;798535380;526;1055;904360;-14;4664;673161
1;105;1573711539532;1573711544171;4639;16213754936;73611072495;1261352141;1351010;12802096802;528019;798549498;513;759;801408;-1;4640;667559
1;106;1573711544171;1573711548791;4620;16160186514;73611072255;1254379479;39784;12802096562;515878;798590878;526;783;742920;-14;4619;662002
1;107;1573711548791;1573711553411;4620;16161661552;73611072468;1225408626;20804;12802096775;534718;798526964;499;1026;838008;-7;4621;661419
1;108;1573711553411;1573711558630;5219;16241078544;73611072961;1267691747;3497557;12802097268;534988;798565358;548;959;902592;25;5219;626118
1;109;1573711558630;1573711563798;5168;16255785416;73611072883;1251558534;3778115;12802097190;534324;798579978;807;1076;902824;8;5167;780380
1;110;1573711563798;1573711569055;5257;16273005824;73611073065;1264355073;4368380;12802097372;536063;798629940;582;785;952248;-6;5258;754619
1;111;1573711569055;1573711574033;4978;16253281808;73611072367;1278009122;3138475;12802096674;528173;798548586;541;667;793400;3;4977;715934
1;112;1573711574033;1573711578898;4865;16213762528;73611072236;1260277066;1486953;12802096543;529405;798602342;514;914;877448;-2;4866;697407
1;113;1573711578898;1573711583681;4783;16247188498;73611072429;1249379421;2525712;12802096736;528420;798560254;519;1269;910856;-7;4783;684935
1;114;1573711583682;1573711588547;4865;16240828738;73611072674;1269434650;2265360;12802096981;530910;798616114;563;1064;961856;13;4866;697483
1;115;1573711588547;1573711593270;4723;16168921548;73611072169;1223087489;241085;12802096476;525415;798370145;744;862;857000;-4;4723;724806
1;116;1573711593270;1573711597891;4621;16161980270;73611072157;1225463954;42503;12802096464;525147;798348170;522;1002;864816;-10;4620;662942
1;117;1573711597891;1573711602897;5006;16218302690;73611072700;1254688671;2348189;12802097007;536011;798573620;576;795;908016;-6;5006;650920
1;118;1573711602897;1573711608410;5513;16274105788;73611073162;1285597765;4822221;12802097469;543502;798630722;610;611;920552;-1;5513;791178
1;119;1573711608410;1573711613481;5071;16258456924;73611072868;1255878731;3554924;12802097175;545160;798562297;525;916;869648;19;5071;728363
1;120;1573711613481;1573711618774;5293;16264322766;73611073032;1265323849;4046422;12802097339;538919;798542326;570;957;993992;6;5294;759315
1;121;1573711618774;1573711623681;4907;16232746762;73611072608;1293936901;1898846;12802096915;522923;798534746;675;928;892136;113;4907;729554
1;122;1573711623681;1573711628427;4746;16217014240;73611072227;1299759640;1291499;12802096534;536143;798472976;638;1214;855944;-115;4746;694682
1;123;1573711628427;1573711633237;4810;16220363188;73611072413;1272811811;1665213;12802096720;527765;798629753;550;1059;963592;-6;4810;688971
1;124;1573711633237;1573711637907;4670;16201039796;73611072262;1226917483;1147234;12802096569;528791;798609280;528;706;835368;-16;4669;670915
1;125;1573711637907;1573711642526;4619;16158109080;73611072157;1245506540;41713;12802096464;515446;798603368;551;928;743040;-7;4620;656835
1;126;1573711642526;1573711647186;4660;16170039616;73611073676;1229718061;281113;12802096812;520724;798663717;483;666;834872;-11;4660;625134
1;127;1573711647186;1573711652522;5336;16268872126;73611088062;1298406769;4542615;12802100870;541977;798632514;565;887;933680;15;5336;760571
1;128;1573711652522;1573711657758;5236;16277630374;73611072773;1287670159;4265687;12802097080;536128;798527860;911;846;937512;-1;5235;828270
2;83;1573712261759;1573712268328;6569;16174548096;73611082715;1280042204;1228124;12802098514;537941;798619932;665;1390;1149976;-17;6569;869737
2;84;1573712268328;1573712273900;5572;16276229212;73611073353;1266582403;4925336;12802097660;533384;798497927;844;977;981800;29;5571;843518
2;85;1573712273900;1573712279189;5289;16272077118;73611073207;1263350337;4502117;12802097514;531514;798539218;597;834;971848;11;5290;757381
2;86;1573712279189;1573712284222;5033;16260158116;73611073027;1377591810;2501821;12802097334;524798;798547605;563;700;819176;-19;5032;723781
2;87;1573712284222;1573712288997;4775;16244225720;73611072884;1287639986;2051094;12802097191;520017;798376724;495;946;875216;17;4775;685917
2;88;1573712288997;1573712293822;4825;16262410312;73611072743;1211885669;3047617;12802097050;520332;798544931;517;1289;911264;-3;4826;694203
2;89;1573712293822;1573712298579;4757;16223991726;73611072752;1259351412;1982458;12802097059;522708;798528570;519;939;925152;-7;4757;683687
2;90;1573712298580;1573712303224;4644;16219879928;73611072440;1236981043;1487192;12802096747;523819;798563050;572;850;868568;146;4645;706202
2;91;1573712303224;1573712307945;4721;16161491754;73611072165;1229641595;78097;12802096472;513862;798437252;733;1314;866320;-143;4720;707772
2;92;1573712307945;1573712312566;4621;16161348090;73611072229;1251499206;53628;12802096536;525727;798348500;502;798;911592;4;4622;662809
2;93;1573712312566;1573712317568;5002;16228037532;73611072955;1242633659;2534830;12802097262;521899;798533342;578;756;913752;10;5003;665454
2;94;1573712317569;1573712323042;5473;16271644520;73611073366;1262812433;4930283;12802097673;533256;798560053;601;757;903464;-25;5473;781428
2;95;1573712323042;1573712328218;5176;16268996956;73611072864;1218168738;3979863;12802097224;533777;798628844;505;844;894400;7;5176;742016
2;96;1573712328218;1573712333075;4857;16229576080;73611071985;1267198173;1959887;12802097144;528110;798319285;521;928;910080;-9;4857;693283
2;97;1573712333075;1573712337948;4873;16203574940;73611072357;1298991417;1454428;12802096664;538337;798585479;727;1120;865440;10;4873;739153
2;98;1573712337948;1573712342614;4666;16233878262;73611072459;1263798233;1959986;12802096766;521396;798546226;508;1093;894072;4;4666;671989
2;99;1573712342614;1573712347384;4770;16236322010;73611072403;1277221758;2103153;12802096710;521303;798463747;537;816;915912;7;4770;680318
2;100;1573712347384;1573712352014;4630;16188864564;73611072165;1289361248;677325;12802096472;520715;798361757;539;897;783112;5;4629;664703
2;101;1573712352014;1573712356636;4622;16167282552;73611072284;1273999901;36155;12802096591;526937;798481808;494;905;739280;-14;4622;666370
2;102;1573712356636;1573712361377;4741;16182805418;73611072598;1284867063;816155;12802096905;517502;798542682;490;873;866296;-7;4742;592022
2;103;1573712361377;1573712366573;5196;16247755562;73611073289;1259049525;3503635;12802097596;532924;798542907;852;721;726320;20;5196;927886
2;104;1573712366573;1573712371804;5231;16273081890;73611073384;1266787147;4350154;12802097691;537760;798557358;679;616;710424;-9;5230;753816
2;105;1573712371804;1573712376547;4743;16243524190;73611072878;1287503629;2323773;12802097185;522902;798556286;519;665;774432;-18;4744;682209
2;106;1573712376547;1573712381289;4742;16235620626;73611072571;1266465831;2260700;12802096878;521588;798551930;496;845;856288;16;4742;682342
2;107;1573712381289;1573712386095;4806;16217115710;73611072660;1250742815;1633659;12802096967;529759;798543558;523;1322;925176;-11;4805;687760
2;108;1573712386095;1573712390849;4754;16225071396;73611072441;1253741652;2060875;12802096748;530186;798565943;532;869;920584;12;4755;681058
2;109;1573712390849;1573712395940;5091;16246318046;73611072394;1276946406;2445172;12802096701;537468;798596473;589;1044;1004792;-11;5091;738499
2;110;1573712395940;1573712400563;4623;16167970212;73611072157;1283945670;50806;12802096464;518997;798153404;777;1275;746344;10;4623;746394
2;111;1573712400563;1573712405185;4622;16168229362;73611072158;1284478116;42271;12802096465;522110;798174176;526;609;940456;-35;4622;657670
2;112;1573712405186;1573712410455;5269;16252504066;73611073007;1279559625;3688339;12802097314;534934;798580128;612;752;930888;27;5269;674839
2;113;1573712410455;1573712415611;5156;16273452000;73611072596;1258497249;3156646;12802096903;524986;798506805;564;940;847464;13;5156;739022
2;114;1573712415611;1573712421103;5492;16265302134;73611072759;1247848269;4515814;12802097066;524800;798548558;587;1682;911424;-11;5493;788572
2;115;1573712421103;1573712426061;4958;16263096950;73611072551;1251734845;3397017;12802096858;527494;798571886;533;1021;917976;11;4958;709863
2;116;1573712426061;1573712430787;4726;16227222706;73611072361;1237755172;1996442;12802096668;523389;798549542;759;874;852056;9;4725;769507
2;117;1573712430787;1573712435463;4676;16226478690;73611072374;1248768481;1676436;12802096681;526623;798559508;529;1328;924336;-17;4677;669872
2;118;1573712435464;1573712440372;4908;16236934626;73611072403;1258687087;2179488;12802096710;529589;798572631;547;747;917872;-3;4909;704594
2;119;1573712440372;1573712445141;4769;16192579242;73611072204;1224526135;1058610;12802096511;528144;798337762;521;694;825824;-9;4769;683454
2;120;1573712445141;1573712449862;4721;16161378750;73611072160;1220982378;57735;12802096467;524443;798345295;541;1267;778944;3;4720;678898
2;121;1573712449862;1573712454879;5017;16177618914;73611072279;1230490542;1119610;12802096586;539948;798165697;513;840;880104;0;5018;597186
2;122;1573712454879;1573712460013;5134;16284647718;73611073133;1294203038;4634315;12802097440;526853;798240771;807;840;859032;15;5134;783630
2;123;1573712460013;1573712465345;5332;16284147960;73611072863;1296073926;4833222;12802097170;529637;798517588;635;787;1029944;5;5332;767645
2;124;1573712465345;1573712470291;4946;16252942650;73611072649;1285248073;2697397;12802096956;531162;798537592;530;640;798960;-17;4945;705832
2;125;1573712470291;1573712475008;4717;16223723232;73611072360;1239842242;1944479;12802096667;518246;798524316;472;727;785768;8;4717;676315
2;126;1573712475008;1573712479720;4712;16229232542;73611073809;1348227735;1590001;12802096945;519902;798602919;511;1287;890992;1;4713;675885
2;127;1573712479720;1573712484513;4793;16253725210;73611087466;1292345489;2658492;12802100274;522873;798597203;534;998;912072;10;4793;689159
2;128;1573712484514;1573712489329;4815;16240798808;73611072316;1263117454;2308930;12802096623;525764;798306119;543;1188;933704;1;4816;690536
2;129;1573712489329;1573712493950;4621;16161264578;73611072161;1215363898;44326;12802096468;544227;798352722;699;966;833464;-20;4620;684163
2;130;1573712493950;1573712498571;4621;16164536876;73611072157;1239582158;41955;12802096464;526359;798552297;524;690;916880;-50;4622;644539
2;131;1573712498571;1573712503663;5092;16268848620;73611072726;1256415474;3930718;12802097033;529513;798576835;573;705;901056;55;5092;668328
2;132;1573712503663;1573712508961;5298;16268688458;73611072689;1264384698;4084790;12802096996;520999;798565654;578;783;841104;-2;5298;760515
3;75;1573713109167;1573713113787;4620;16159968390;73611072156;1229118822;42940;12802096463;551169;798593054;462;714;815352;-74;4619;634053
3;76;1573713113787;1573713118880;5093;16268275278;73611072899;1255862428;4116205;12802097206;565230;798570081;552;952;938800;93;5094;670391
3;77;1573713118880;1573713124007;5127;16252401574;73611072817;1244862571;3950747;12802097124;565757;798610208;934;818;903552;-26;5127;797858
3;78;1573713124007;1573713129225;5218;16262579526;73611072951;1263868062;3932849;12802097258;564206;798603319;578;644;891608;2;5218;750740
3;79;1573713129226;1573713134010;4784;16241421644;73611072280;1205049648;2231316;12802096587;555234;798524317;490;680;779360;-10;4784;685910
3;80;1573713134010;1573713138874;4864;16228836298;73611072412;1279241526;2210185;12802096719;550549;798353692;525;1048;912616;21;4864;697277
3;81;1573713138874;1573713143715;4841;16219774224;73611072213;1301397069;1399027;12802096520;551822;798351924;536;1338;930616;8;4842;694158
3;82;1573713143715;1573713148537;4822;16243808598;73611072364;1271610195;2222889;12802096671;566476;798582291;544;863;969552;0;4822;691267
3;83;1573713148538;1573713153159;4621;16166026660;73611072156;1255629169;166495;12802096463;586565;798368678;811;1127;815576;-8;4622;728851
3;84;1573713153159;1573713157779;4620;16158042796;73611072368;1216428974;33612;12802096675;529706;798565024;510;814;886272;2;4619;662168
3;85;1573713157779;1573713167680;9901;16245686304;73611084360;1259597852;9013967;12802100159;578642;798643000;1133;1534;1709840;-1;9901;1379712
3;86;1573713167680;1573713172835;5155;16256991814;73611073231;1294123757;3577125;12802097538;567512;798599382;514;911;891872;-2;5155;739688
3;87;1573713172835;1573713177598;4763;16254498718;73611072664;1235449801;2866048;12802096971;543619;798567551;490;838;857912;-10;4764;686144
3;88;1573713177599;1573713182352;4753;16217854762;73611072883;1277580557;1595091;12802097190;565990;798575797;706;1053;843760;14;4753;714443
3;89;1573713182352;1573713187259;4907;16204488754;73611072640;1234502335;1302085;12802096947;563362;798567562;522;1163;918552;-10;4907;702890
3;90;1573713187259;1573713191955;4696;16222343824;73611072504;1259258416;1873898;12802096811;571880;798370408;538;975;923400;6;4696;674291
3;91;1573713191955;1573713196666;4711;16194914658;73611072283;1235644112;1091902;12802096590;552671;798586028;523;749;803384;-11;4712;675778
3;92;1573713196666;1573713201286;4620;16161386634;73611072168;1232738651;43315;12802096475;560266;798378470;506;773;734152;6;4620;663137
3;93;1573713201287;1573713205907;4620;16161494966;73611072470;1220905071;23774;12802096777;589154;798563404;487;935;824704;-68;4620;638062
3;94;1573713205907;1573713211115;5208;16263362378;73611072922;1277250262;4150254;12802097229;560005;798598960;568;1011;940104;81;5208;644882
3;95;1573713211115;1573713216377;5262;16272117122;73611073061;1272045839;4159879;12802097368;566200;798593902;850;896;958792;-18;5263;803432
3;96;1573713216377;1573713221682;5305;16259296862;73611073441;1254541819;4156439;12802097748;561327;798605969;740;734;730584;7;5305;785008
3;97;1573713221682;1573713226539;4857;16223077620;73611072357;1297063244;1697974;12802096664;560999;798588095;640;400;616568;-4;4856;700006
3;98;1573713226539;1573713231304;4765;16228987700;73611072166;1279128830;1695610;12802096739;548172;798543322;497;741;802480;18;4766;683837
3;99;1573713231305;1573713235997;4692;16232312412;73611071858;1269282324;1768130;12802096804;547592;798535025;499;1422;830776;-19;4693;673717
3;100;1573713235997;1573713240801;4804;16218723608;73611072348;1272295612;1709540;12802096655;553208;798614411;508;839;881264;4;4804;690021
3;101;1573713240801;1573713245445;4644;16169605412;73611072576;1246660687;104185;12802096883;580699;798402348;497;842;892792;15;4644;666249
3;102;1573713245445;1573713250085;4640;16166128568;73611072973;1361464742;24690;12802097280;558830;798434252;680;1404;787496;-18;4640;743873
3;103;1573713250085;1573713255107;5022;16228679056;73611072997;1263702340;2723394;12802097304;558952;798576016;565;644;904264;-1;5021;651532
3;104;1573713255107;1573713260489;5382;16273703996;73611073410;1259722644;4733085;12802097717;563443;798606333;644;638;848608;1;5382;777999
3;105;1573713260489;1573713265579;5090;16260902424;73611073016;1240882772;3490501;12802097323;565073;798584238;527;824;892344;17;5091;728845
3;106;1573713265579;1573713270549;4970;16247602408;73611072352;1327709312;2790944;12802096659;568368;798682972;530;863;930296;-18;4969;712279
3;107;1573713270549;1573713275404;4855;16241284550;73611072607;1267171600;2463731;12802096914;560198;798551425;541;1324;960784;3;4856;697672
3;108;1573713275404;1573713280232;4828;16222292432;73611072348;1277281127;1733487;12802096655;559286;798598299;558;1050;929560;155;4827;700053
3;109;1573713280232;1573713285132;4900;16237479790;73611072456;1267666332;2428658;12802096763;562983;798589526;699;834;890744;-142;4900;762983
3;110;1573713285132;1573713289773;4641;16211184460;73611072204;1241818864;1358514;12802096511;529787;798649981;525;1306;868496;-13;4642;665854
3;111;1573713289773;1573713294393;4620;16160422596;73611072162;1224370286;40582;12802096469;525023;798543511;518;623;833416;-6;4620;665525
3;112;1573713294393;1573713299012;4619;16158429112;73611072154;1219434550;40442;12802096461;550995;798595250;525;646;779152;19;4619;663047
3;113;1573713299012;1573713304243;5231;16234362106;73611072649;1274089275;3093600;12802096956;568863;798510929;587;852;944336;3;5230;710250
3;114;1573713304243;1573713309515;5272;16283842674;73611072881;1264280512;4740324;12802097188;568843;798664884;543;784;975024;-30;5273;755753
3;115;1573713309515;1573713314752;5237;16266594234;73611072979;1263722393;4191043;12802097286;562921;798574665;787;1016;937880;18;5237;782851
3;116;1573713314753;1573713319605;4852;16249681302;73611072664;1288181964;2829110;12802096971;560253;798601311;537;837;930920;7;4853;696771
3;117;1573713319605;1573713324304;4699;16222699334;73611072683;1283425905;1653255;12802096990;560282;798373043;530;706;809080;-18;4698;673974
3;118;1573713324304;1573713328999;4695;16224090422;73611072592;1287202572;1610305;12802096899;554114;798670890;516;1066;766000;-4;4695;677304
3;119;1573713328999;1573713333680;4681;16219513760;73611072243;1230475297;1738960;12802096550;547150;798536959;481;881;828576;-1;4682;671387
3;120;1573713333680;1573713338312;4632;16193946240;73611072184;1288826706;832026;12802096491;547296;798327836;507;991;871368;5;4631;664762
3;121;1573713338312;1573713342935;4623;16165979210;73611072156;1284687333;59880;12802096463;581848;798121861;640;1266;854984;162;4623;680460
3;122;1573713342935;1573713347893;4958;16225768692;73611072513;1285163455;2724005;12802096820;566879;798393542;713;808;823808;-162;4958;581957
3;123;1573713347893;1573713353180;5287;16276149058;73611072822;1288621528;4784492;12802097129;561081;798637425;571;670;833816;5;5288;755417
3;124;1573713353180;1573713358343;5163;16264530232;73611073070;1268413433;4197984;12802097377;559855;798651529;543;858;916224;1;5163;740802
4;74;1573713963473;1573713968161;4688;16177683884;73611072265;1305361569;515964;12802096572;519717;798246126;477;693;835592;-39;4689;604041
4;75;1573713968161;1573713973510;5349;16260083802;73611072957;1252215322;4371908;12802097264;536764;798614442;748;1004;935168;48;5349;798718
4;76;1573713973511;1573713978849;5338;16274993030;73611072937;1269834535;4538308;12802097245;542990;798636979;597;796;964072;-21;5339;766168
4;77;1573713978849;1573713983936;5087;16253362692;73611072836;1265417892;3160780;12802097143;536407;798618783;552;614;843496;-8;5087;728450
4;78;1573713983936;1573713988810;4874;16245700466;73611072460;1252555942;2440414;12802096767;530949;798661429;500;897;844616;12;4874;700790
4;79;1573713988810;1573713993550;4740;16216628070;73611072295;1259700378;1644854;12802096602;530680;798591963;509;1293;911792;3;4740;676985
4;80;1573713993550;1573713998277;4727;16231099882;73611072422;1287955689;1744943;12802096729;519141;798607726;520;849;894952;-7;4727;678926
4;81;1573713998278;1573714003080;4802;16231297128;73611072639;1297805447;1695894;12802096946;525426;798524489;538;1008;960048;171;4803;707401
4;82;1573714003080;1573714007822;4742;16168943448;73611072625;1297334640;49198;12802096932;525574;798394996;758;1257;833024;-169;4741;741984
4;83;1573714007822;1573714012465;4643;16169759004;73611072512;1293175081;42793;12802096819;522163;798459878;519;784;921128;-43;4644;656548
4;84;1573714012465;1573714020640;8175;16257669692;73611084696;1275451828;7708673;12802100486;550480;798497819;920;1372;1357912;62;8176;1109819
4;85;1573714020642;1573714025972;5330;16266764324;73611073373;1272886184;4256341;12802097680;542004;798526735;535;871;881864;-23;5330;765178
4;86;1573714025972;1573714031002;5030;16249953738;73611073154;1290367787;2864869;12802097461;536577;798635043;516;764;915616;-4;5030;722760
4;87;1573714031002;1573714035865;4863;16210002006;73611073016;1263027834;1595180;12802097323;522980;798596232;753;1040;895168;8;4864;726797
4;88;1573714035865;1573714040672;4807;16234280492;73611072649;1252111953;2213627;12802096956;535182;798376591;509;1288;892280;3;4807;689188
4;89;1573714040672;1573714045543;4871;16235086412;73611072665;1244530235;2400854;12802096972;527304;798576699;568;942;954456;8;4871;701905
4;90;1573714045543;1573714050172;4629;16182606274;73611072355;1232066301;701654;12802096662;517635;798225750;503;670;795648;-23;4629;663843
4;91;1573714050172;1573714054792;4620;16158962888;73611072155;1218502207;43891;12802096462;516603;798584055;508;1084;729688;4;4619;663244
4;92;1573714054792;1573714059412;4620;16160411500;73611072236;1230550531;37783;12802096543;518692;798643541;487;740;839024;-56;4621;638490
4;93;1573714059412;1573714064768;5356;16282976894;73611073389;1270545443;5433282;12802097696;538577;798500797;580;925;980360;53;5355;721216
4;94;1573714064768;1573714070019;5251;16275330290;73611073395;1267801578;4690048;12802097702;538390;798573865;865;902;968968;2;5252;839924
4;95;1573714070020;1573714075157;5137;16261515478;73611072818;1270107213;3796318;12802097178;534124;798477474;575;769;915056;1;5138;733218
4;96;1573714075158;1573714080122;4964;16235041882;73611071612;1292959271;2146645;12802096771;528235;798590342;717;684;729504;1;4965;783550
4;97;1573714080122;1573714084758;4636;16208691072;73611072189;1297907950;1105355;12802096496;522796;798363924;625;753;605656;18;4636;672785
4;98;1573714084758;1573714089494;4736;16203193442;73611072371;1290832120;1040075;12802096678;541065;798324434;555;1119;737640;-14;4736;680621
4;99;1573714089494;1573714094230;4736;16238623116;73611072603;1285245008;2244995;12802096910;532948;798620663;529;771;890088;15;4736;679246
4;100;1573714094230;1573714098973;4743;16170274530;73611072672;1290599001;96978;12802096979;538586;798372527;566;696;799704;-22;4742;680493
4;101;1573714098973;1573714103614;4641;16170525942;73611072738;1276838492;32056;12802097045;528657;798392640;489;1223;794024;23;4642;668131
4;102;1573714103614;1573714108405;4791;16213257952;73611072994;1284076824;1686236;12802097301;525100;798544322;518;649;898920;4;4791;590130
4;103;1573714108405;1573714113400;4995;16270175468;73611072979;1266571619;3826039;12802097286;529183;798592827;905;853;873088;-11;4995;775530
4;104;1573714113400;1573714118829;5429;16277947340;73611073313;1254372747;4836336;12802097620;539305;798569729;649;857;1054704;-9;5429;778881
4;105;1573714118829;1573714123672;4843;16254436084;73611072755;1243861324;2899356;12802097063;545054;798543834;531;605;802384;13;4843;689597
4;106;1573714123672;1573714128410;4738;16254616832;73611072378;1322947286;2455717;12802096685;520472;798505559;496;911;788584;-16;4738;680115
4;107;1573714128410;1573714133059;4649;16220434728;73611072513;1229073967;1664627;12802096820;522639;798565442;476;1095;801392;4;4648;668491
4;108;1573714133059;1573714137699;4640;16214209726;73611072207;1227435390;1436616;12802096514;516202;798546643;501;848;883768;11;4641;666742
4;109;1573714137699;1573714142340;4641;16219167886;73611072205;1257198219;1568283;12802096512;520494;798553420;527;1092;913032;-15;4641;665812
4;110;1573714142341;1573714146962;4621;16160813730;73611072160;1221807532;45241;12802096467;531122;798553569;782;1130;774288;21;4622;717632
4;111;1573714146962;1573714151583;4621;16162727352;73611072156;1225022195;51700;12802096463;527999;798191562;529;802;927080;-101;4620;620494
4;112;1573714151583;1573714156794;5211;16265360534;73611072896;1249245737;4347688;12802097203;538469;798586187;604;802;895712;93;5211;699361
4;113;1573714156794;1573714161784;4990;16257284544;73611072729;1254990152;3545854;12802097036;536095;798576546;539;677;824904;5;4991;715248
4;114;1573714161784;1573714166873;5089;16272135372;73611072814;1284392417;3907676;12802097121;535844;798556880;538;823;935448;6;5089;729270
4;115;1573714166874;1573714171875;5001;16249733278;73611072895;1265043514;3004423;12802097202;530896;798608392;570;866;988408;-25;5002;717957
4;116;1573714171875;1573714176620;4745;16211381852;73611072402;1234042324;1669110;12802096709;525137;798566621;730;930;866016;2;4745;745146
4;117;1573714176620;1573714181445;4825;16206850888;73611072617;1277376558;1398716;12802096924;523860;798537910;518;1166;892040;-6;4825;689639
4;118;1573714181445;1573714186196;4751;16248970720;73611072334;1233907626;2516168;12802096641;519306;798522707;571;1056;934272;5;4751;685460
4;119;1573714186197;1573714190824;4627;16178914226;73611072162;1222050808;538992;12802096469;519645;798338681;504;732;775472;8;4627;666983
4;120;1573714190824;1573714195445;4621;16162380602;73611072156;1229915872;44132;12802096463;516082;798523784;504;833;736232;8;4621;656848
4;121;1573714195445;1573714200124;4679;16170603030;73611072217;1228329754;596627;12802096524;517326;798605973;497;1028;800816;-47;4680;551756
4;122;1573714200125;1573714205311;5186;16270684862;73611072840;1291297243;3974914;12802097147;527335;798612979;567;835;944744;31;5187;735271
4;123;1573714205313;1573714210515;5202;16263021906;73611072862;1267626499;4170899;12802097169;530342;798669836;838;969;942624;16;5203;803804
