0;58;1573736551890;1573736557309;5419;16681690776;73611072988;1244276089;16595264;12802097295;522654;798546821;540;848;709288;5;2699;12426
0;59;1573736557310;1573736564067;6757;16591624982;73611083353;1287231962;16004797;12802099163;527943;798577498;720;1092;919776;-8;3999;20735
0;60;1573736564067;1573736569481;5414;16565199128;73611072812;1269119788;13931283;12802097119;532395;798560156;901;713;726560;7;3443;59706
0;61;1573736569481;1573736574560;5079;16532456000;73611072532;1269266868;12216955;12802096839;522885;798566739;681;705;608776;-7;2586;14504
0;62;1573736574560;1573736580138;5578;16598918704;73611072785;1345540316;16584497;12802097092;536949;798547318;620;917;747120;6;2722;13799
0;63;1573736580138;1573736585951;5813;16750107982;73611072965;1257127496;18342083;12802097272;529620;798547326;619;884;788880;-6;2896;15135
0;64;1573736585951;1573736591298;5347;16517256378;73611072783;1256014711;13011101;12802097090;525943;798542826;536;877;713856;5;2597;12393
0;65;1573736591298;1573736596882;5584;16584566466;73611072923;1263672448;14486567;12802097230;530265;798562291;588;806;828688;0;3544;17510
0;66;1573736596882;1573736602316;5434;16548958526;73611072803;1269306840;13045681;12802097110;528011;798571308;1007;706;787960;6;4548;82853
0;67;1573736602316;1573736607825;5509;16541644072;73611072637;1256916974;12650354;12802096944;528480;798561391;708;833;684816;-5;2583;12839
0;68;1573736607825;1573736613353;5528;16518251076;73611072543;1261997557;14182028;12802096850;528765;798569009;579;823;753200;-5;2935;13084
0;69;1573736613353;1573736618945;5592;16565632018;73611072637;1270237547;14032767;12802096944;533724;798568547;628;852;821872;-1;3113;14638
0;70;1573736618945;1573736624315;5370;16551055670;73611072544;1279210544;13439016;12802096852;529323;798565632;609;805;745272;0;3028;13557
0;71;1573736624315;1573736629963;5648;16601815782;73611072547;1248640026;14241061;12802096854;526944;798564044;903;839;738640;29;3660;71507
0;72;1573736629963;1573736635708;5745;16554390164;73611072800;1260466126;14169262;12802097107;533690;798460878;840;757;829824;-29;4167;49493
0;73;1573736635708;1573736641202;5494;16487393246;73611072452;1278460741;13690143;12802096759;526459;798502993;624;832;777216;0;3149;14837
0;74;1573736641202;1573736646585;5383;16550648622;73611072546;1284228578;14192469;12802096853;527558;798563906;607;836;745568;0;2978;14269
0;75;1573736646585;1573736652235;5650;16531206386;73611072558;1254567761;12890631;12802096865;524784;798566801;619;970;756104;1;2875;13587
0;76;1573736652236;1573736661656;9420;16587271408;73611083260;1261353010;17576050;12802099059;541206;798586221;1615;1571;1166944;-1;8403;207669
0;77;1573736661656;1573736666961;5305;16643830348;73611072652;1285922601;16266169;12802096959;526687;798577389;590;770;775624;5;2882;13182
0;78;1573736666961;1573736672543;5582;16599298450;73611072788;1274777246;16706703;12802097095;533838;798552453;620;843;812720;-2;3168;15975
0;79;1573736672543;1573736678186;5643;16482435962;73611072573;1268935598;10746302;12802096880;532171;798571397;729;814;802128;1;3526;20601
0;80;1573736678186;1573736683465;5279;16464861796;73611072591;1264367588;10372757;12802096898;529535;798559689;738;737;760136;-4;3469;22282
0;81;1573736683465;1573736689171;5706;16446215552;73611072907;1285368663;12513198;12802097214;529435;798582231;1031;815;853472;6;4759;125299
0;82;1573736689171;1573736694821;5650;16585437064;73611072701;1266226232;16207268;12802097008;526698;798500604;794;806;755640;-5;3079;18328
0;83;1573736694821;1573736700234;5413;16573998986;73611072556;1303457357;14944742;12802096863;528600;798567730;634;803;695368;-1;2688;14085
0;84;1573736700234;1573736706061;5827;16671962650;73611072900;1261067119;17282213;12802097207;532664;798562440;647;844;811304;6;3019;14380
0;85;1573736706061;1573736712008;5947;16662022386;73611073145;1240841112;15922560;12802097452;529650;798557119;660;932;879264;-5;3611;17035
0;86;1573736712009;1573736717797;5788;16664036748;73611072979;1254184105;16875620;12802097286;529994;798575192;1021;832;759920;7;3942;67265
0;87;1573736717797;1573736723240;5443;16638778456;73611072868;1256957816;15387037;12802097175;526029;798436164;754;660;695160;-2;3036;17600
0;88;1573736723240;1573736728659;5419;16573626978;73611072796;1245947390;14708164;12802097103;523277;798558934;657;843;714912;-6;2572;12915
0;89;1573736728659;1573736734271;5612;16575877714;73611072986;1308319627;15472912;12802097293;529119;798380588;623;904;767840;0;2998;14561
0;90;1573736734271;1573736739688;5417;16525338208;73611072615;1229553790;11026824;12802096922;527525;798575189;595;762;712608;7;2770;13729
0;91;1573736739688;1573736745269;5581;16468987756;73611072299;1268188543;10734687;12802096872;533725;798561698;748;775;819688;-7;3551;19602
0;92;1573736745269;1573736751006;5737;16520750596;73611072199;1303643719;12135093;12802097145;530115;798501989;1111;894;857424;0;4675;156305
0;93;1573736751007;1573736756515;5508;16626509638;73611072809;1290573090;16213536;12802097116;525067;798574751;733;890;729744;4;2774;14912
0;94;1573736756515;1573736761935;5420;16611299066;73611072725;1238181052;14795225;12802097032;527341;798598116;646;787;732368;-3;2745;13008
0;95;1573736761935;1573736767801;5866;16598833294;73611072871;1275921994;15238976;12802097178;530730;798646568;696;983;801544;-1;3012;14700
0;96;1573736767801;1573736773204;5403;16552948560;73611072849;1275168220;13868747;12802097156;533444;798591683;566;859;672008;0;2690;13433
0;97;1573736773204;1573736778704;5500;16568853070;73611072854;1279049928;15235690;12802097161;529495;798543639;932;810;768136;34;3890;83932
0;98;1573736778704;1573736784543;5839;16589054360;73611073158;1264437694;15666888;12802097465;531181;798521901;880;731;861408;-34;4154;41269
0;99;1573736784543;1573736789951;5408;16555053880;73611072605;1241615316;12778753;12802096912;530389;798582464;615;829;755832;0;2756;13103
0;100;1573736789951;1573736795592;5641;16590182648;73611072607;1268394661;14137667;12802096914;531346;798510448;623;867;745800;8;2933;13297
0;101;1573736795592;1573736801432;5840;16555427494;73611072842;1304217616;14206633;12802097149;538082;798524254;730;933;780432;-8;3071;17990
0;102;1573736801432;1573736806983;5551;16598594292;73611072941;1297615477;16057195;12802097248;531343;798516168;704;790;756624;0;3200;17443
0;103;1573736806984;1573736812820;5836;16612700958;73611073123;1290553954;15088257;12802097430;530892;798639781;1101;873;840008;0;4301;99877
0;104;1573736812820;1573736818410;5590;16616143200;73611073057;1316459508;16787590;12802097364;525821;798580674;685;763;829024;0;3086;14958
0;105;1573736818410;1573736823836;5426;16563211046;73611072721;1264328523;15425570;12802097028;522575;798616206;606;834;703296;7;2761;13475
0;106;1573736823836;1573736829228;5392;16572486572;73611072785;1293655310;15632793;12802097092;522143;798593386;622;829;745576;-7;2799;12599
0;107;1573736829228;1573736834421;5193;16585006218;73611072557;1282981118;15118569;12802096864;529575;798657152;481;787;640096;5;2583;11996
1;57;1573737372691;1573737378159;5468;16675960130;73611072566;1285786938;16775444;12802096873;528262;798531739;603;764;671352;3;2582;11618
1;58;1573737378159;1573737388315;10156;16463578456;73611083347;1306543148;14450535;12802099482;544460;798534201;1158;1707;1478528;-4;5932;28644
1;59;1573737388315;1573737394044;5729;16439445386;73611083180;1248649669;10387477;12802098979;534033;798506346;597;862;811448;5;3498;16656
1;60;1573737394044;1573737399762;5718;16632429646;73611072654;1260301346;16565342;12802096960;532459;798461791;852;854;750712;22;3765;81073
1;61;1573737399762;1573737405172;5410;16658058194;73611072791;1248746880;15690831;12802097098;533545;798606599;782;692;747752;-27;3680;34992
1;62;1573737405172;1573737410645;5473;16676758750;73611072959;1284886080;17817020;12802097266;532934;798577773;562;784;756248;6;2839;12755
1;63;1573737410645;1573737416153;5508;16707102806;73611072892;1203242170;16734650;12802097199;531182;798591181;633;788;785168;-6;3237;16385
1;64;1573737416153;1573737421523;5370;16588820030;73611072960;1290463383;14404593;12802097267;532287;798588232;574;803;769944;4;3006;13049
1;65;1573737421523;1573737431915;10392;16662318036;73611083935;1241367795;19674795;12802099745;539688;798508822;1778;1493;1537032;5;7780;152006
1;66;1573737431915;1573737437161;5246;16572950560;73611072662;1249761584;13932237;12802096969;528075;798517975;618;726;771536;-10;3310;20110
1;67;1573737437161;1573737442645;5484;16602029234;73611072523;1254577231;14919237;12802096830;529458;798541812;617;825;791872;3;2988;13457
1;68;1573737442645;1573737448325;5680;16577565620;73611072633;1252725518;15055592;12802096940;531394;798530394;663;867;816184;4;3170;15184
1;69;1573737448325;1573737453889;5564;16667747922;73611072775;1264301619;17015620;12802097082;529877;798542796;558;830;765600;-1;3122;14436
1;70;1573737453889;1573737459189;5300;16464788650;73611072541;1271019029;9796656;12802096847;526281;798492716;593;818;776496;-6;3447;17527
1;71;1573737459189;1573737464904;5715;16447677450;73611072591;1307890155;10452066;12802096898;536256;798607026;1054;844;807496;3;4497;112448
1;72;1573737464904;1573737470159;5255;16484149418;73611072519;1245334437;11802129;12802096826;536192;798451191;619;729;700272;2;2681;13015
1;73;1573737470159;1573737476101;5942;16570692962;73611072719;1264955134;14452834;12802097026;533464;798602987;743;940;808616;2;3174;15590
1;74;1573737476102;1573737481863;5761;16558400784;73611072639;1284695126;13289906;12802096946;535603;798603209;677;852;841360;7;3285;16054
1;75;1573737481864;1573737487922;6058;16644082198;73611072805;1266582301;17622561;12802097112;533794;798626059;800;863;864320;-9;3843;23076
1;76;1573737487922;1573737493410;5488;16659990212;73611072866;1279788423;14758215;12802097173;522994;798537888;921;741;774184;3;3948;61622
1;77;1573737493411;1573737502902;9491;16450993840;73611083189;1281528647;14096598;12802098988;536121;798544428;1247;1406;1343224;-1;5274;27745
1;78;1573737502902;1573737508764;5862;16565225992;73611072599;1244011003;13182841;12802096906;538937;798525782;683;890;820824;-1;3197;15928
1;79;1573737508764;1573737514555;5791;16629584398;73611072617;1262057224;16126509;12802096924;532136;798538820;711;866;810480;0;3295;16051
1;80;1573737514555;1573737520364;5809;16521700326;73611072667;1269388066;14364320;12802096948;531919;798594737;705;957;864144;-6;3837;21387
1;81;1573737520364;1573737525974;5610;16549572894;73611072859;1280591657;14433303;12802097166;537348;798631060;1089;791;663344;98;5248;454966
1;82;1573737525975;1573737531767;5792;16525282144;73611072814;1291313545;14453098;12802097121;530628;798605159;896;937;919792;-37;5792;467898
1;83;1573737531767;1573737537613;5846;16633091172;73611072941;1257220232;15642791;12802097248;534926;798608317;942;1015;1049888;-9;5846;405635
1;84;1573737537613;1573737542975;5362;16614924684;73611072962;1287729959;14983075;12802097269;527364;798575302;608;816;838048;-46;3303;32257
1;85;1573737542975;1573737548299;5324;16630138176;73611073017;1274587586;15607632;12802097324;539339;798520017;644;859;673200;0;2783;15213
1;86;1573737548300;1573737553720;5420;16627195108;73611072918;1264754723;15699074;12802097225;535705;798506528;1002;806;759336;11;3850;110787
1;87;1573737553720;1573737559173;5453;16611080942;73611073004;1246211947;14669469;12802097311;533134;798361042;805;691;794768;-17;3648;21734
1;88;1573737559173;1573737564681;5508;16683252100;73611072868;1271846234;17673829;12802097175;527501;798492516;552;816;689576;1;2727;11811
1;89;1573737564682;1573737570508;5826;16544825558;73611072589;1247309750;12817205;12802097162;535540;798437201;815;937;825328;-1;3434;20580
1;90;1573737570508;1573737575942;5434;16514485152;73611071841;1264066611;12817921;12802096787;532835;798610476;563;822;671416;0;2572;12182
1;91;1573737575942;1573737581369;5427;16478045450;73611072654;1270533659;12565572;12802096961;536603;798526026;648;824;728648;14;3152;17462
1;92;1573737581369;1573737586952;5583;16663092858;73611073028;1268870542;17650137;12802097335;538089;798524708;1061;758;807336;-9;4736;91763
1;93;1573737586952;1573737592667;5715;16646448712;73611073095;1251556796;16041733;12802097402;536398;798508043;680;810;769816;-5;2910;14459
1;94;1573737592667;1573737598239;5572;16694140780;73611072799;1264618362;17663536;12802097106;536072;798509499;640;804;808144;0;3079;13679
1;95;1573737598240;1573737603930;5690;16624296716;73611072905;1275316808;16499669;12802097212;530338;798371529;653;903;820248;0;3061;14465
1;96;1573737603930;1573737609528;5598;16680732432;73611072952;1254108081;16764544;12802097259;538568;798595024;670;804;850344;0;3542;19995
1;97;1573737609528;1573737615134;5606;16631321214;73611072801;1287443911;16155830;12802097108;530834;798603571;1024;818;770624;31;3676;86125
1;98;1573737615134;1573737620807;5673;16557420686;73611073030;1258433864;15074425;12802097337;532719;798593198;868;744;832656;-31;3891;41771
1;99;1573737620807;1573737626067;5260;16639585398;73611072517;1267889725;15008050;12802096824;523546;798601340;646;832;732872;1;2785;14441
1;100;1573737626068;1573737631401;5333;16548018286;73611072577;1251812765;11945233;12802096884;529550;798612377;629;771;723392;5;2691;13760
1;101;1573737631401;1573737637053;5652;16516483016;73611072824;1292943718;12799959;12802097131;535556;798584474;662;961;771664;-6;2915;13746
1;102;1573737637054;1573737642731;5677;16512835498;73611072908;1275167028;14076888;12802097215;535949;798429823;747;868;768856;0;3723;25998
1;103;1573737642731;1573737648242;5511;16624671206;73611072861;1287571439;16512647;12802097168;536557;798507375;1045;772;782608;0;4221;88983
1;104;1573737648243;1573737653691;5448;16627664498;73611072851;1235696172;13956632;12802097158;534869;798511345;751;836;674512;0;2564;14378
1;105;1573737653691;1573737659372;5681;16641882416;73611072635;1297812683;15350778;12802096942;527594;798521395;763;937;728408;6;2756;15804
1;106;1573737659372;1573737665017;5645;16661457950;73611072850;1279275429;17173613;12802097157;535746;798511197;690;913;786992;-5;2949;16335
2;59;1573738206176;1573738211669;5493;16482515240;73610993064;1269387851;11005455;12802097012;530256;798510301;608;781;765928;0;2852;12397
2;60;1573738211670;1573738217279;5609;16513684926;73610993028;1253599818;12123979;12802096976;531269;798529516;594;881;756888;0;2771;12017
2;61;1573738217279;1573738222878;5599;16450873244;73610992940;1300502705;10118187;12802096888;530876;798523302;529;873;671888;0;2631;12749
2;62;1573738222879;1573738234399;11520;16488615996;73611003975;1263834039;17311398;12802099406;537427;798620861;1794;1674;1637432;0;8293;144549
2;63;1573738234399;1573738239808;5409;16633305792;73610993318;1267758855;16347424;12802097266;533393;798586079;576;791;723656;0;2748;11642
2;64;1573738239808;1573738245237;5429;16598065188;73610993296;1326160840;14889393;12802097244;528278;798580766;592;807;776472;0;3020;14444
2;65;1573738245238;1573738251160;5922;16553764408;73610993327;1260570508;14402349;12802097275;528652;798587663;652;1001;801760;0;3057;14435
2;66;1573738251160;1573738256886;5726;16527531274;73610992998;1278358209;12525878;12802096946;531489;798598826;653;941;803064;12;3200;15538
2;67;1573738256887;1573738262381;5494;16553032948;73610993083;1269583036;14028878;12802097031;529664;798541397;1078;760;795224;-5;4396;118826
2;68;1573738262381;1573738267770;5389;16600206424;73610992962;1256926293;14358054;12802096910;527177;798525998;644;814;679400;-4;2623;11794
2;69;1573738267770;1573738273527;5757;16558348370;73610992939;1252428307;13597431;12802096887;525404;798526852;740;920;759832;-3;2917;13742
2;70;1573738273527;1573738278899;5372;16604111778;73610992870;1273423413;15597595;12802096818;524972;798443388;571;847;745336;0;2777;13378
2;71;1573738278900;1573738284402;5502;16517710584;73610992934;1265215496;11823568;12802096882;522098;798528918;603;882;733400;2;2872;14300
2;72;1573738284402;1573738290261;5859;16475081358;73610992914;1253437926;10544009;12802096862;534548;798600130;904;972;816048;32;3932;59036
2;73;1573738290261;1573738297712;7451;16462756038;73611002862;1266034019;13195508;12802098693;526417;798608592;1100;1105;1028952;-28;4910;63507
2;74;1573738297712;1573738303525;5813;16596067324;73610992971;1257772133;16135566;12802096919;528202;798610686;706;880;768760;-6;2825;13395
2;75;1573738303525;1573738309107;5582;16573011004;73610992986;1271730398;15293445;12802096934;532151;798595310;632;883;736336;0;2930;13705
2;76;1573738309107;1573738314894;5787;16627903792;73610993065;1266658877;16800062;12802097013;532395;798607849;621;948;779056;0;3011;13764
2;77;1573738314894;1573738320593;5699;16578869254;73610993028;1264342878;14264724;12802096976;530529;798540787;783;891;840704;143;3555;22667
2;78;1573738320593;1573738326034;5441;16492015752;73610993133;1250700625;11467314;12802097081;528316;798527207;878;627;758928;-140;3840;60563
2;79;1573738326034;1573738331534;5500;16500702314;73610992942;1266604020;11942034;12802096890;527760;798524282;662;782;724760;-3;2823;13757
2;80;1573738331534;1573738337367;5833;16568755396;73610993061;1277409974;14907159;12802097009;528956;798520314;704;866;820832;5;3256;15391
2;81;1573738337367;1573738342976;5609;16608097870;73610993073;1267832777;15789057;12802097021;524763;798547010;625;862;756624;0;2837;13904
2;82;1573738342976;1573738348122;5146;16557471202;73610993003;1284690068;13417636;12802096951;526250;798602496;793;825;648008;54;3876;112750
2;83;1573738348122;1573738353778;5656;16667330800;73610993139;1252061860;17179548;12802097087;531177;798605566;875;876;827496;32;5656;446191
2;84;1573738353778;1573738359528;5750;16628270252;73610993361;1308414436;14616294;12802097309;532599;798572299;722;876;943400;-87;3826;75513
2;85;1573738359537;1573738365370;5833;16591340282;73610993356;1258482228;14498714;12802097304;535411;798597040;736;871;806688;2;3272;16086
2;86;1573738365370;1573738370779;5409;16534999612;73610993350;1258596266;14315442;12802097298;528830;798584001;665;694;723096;0;3158;18357
2;87;1573738370780;1573738376609;5829;16588172082;73610993372;1261768835;14769915;12802097320;534676;798516379;744;842;807904;-4;3648;21589
2;88;1573738376609;1573738382161;5552;16557273226;73610993333;1286438292;14385858;12802097281;530779;798510006;1115;839;759680;-2;4414;113806
2;89;1573738382161;1573738387704;5543;16665586538;73610992976;1251711567;16660232;12802097190;525727;798515458;633;866;683496;0;2624;13673
2;90;1573738387704;1573738393268;5564;16586278316;73610992281;1256628886;14238663;12802096868;529421;798610920;701;910;781584;6;2911;15232
2;91;1573738393268;1573738398745;5477;16624536448;73610992903;1279235832;15980903;12802096851;528115;798607746;643;815;785440;-6;2905;13240
2;92;1573738398745;1573738404385;5640;16669750750;73610993252;1262341691;16849322;12802097200;534659;798611512;588;899;766920;0;3185;14588
2;93;1573738404385;1573738409909;5524;16544552100;73610993270;1270748109;13235451;12802097218;530409;798504654;972;751;745816;1;4023;103484
2;94;1573738409909;1573738415494;5585;16548901732;73610993187;1287217064;14519855;12802097135;530450;798515244;742;842;729224;5;2844;13928
2;95;1573738415494;1573738421072;5578;16526664618;73610993077;1293699665;11855334;12802097025;525759;798502622;669;866;736296;0;2807;13137
2;96;1573738421072;1573738426574;5502;16523064112;73610993080;1249072229;12579189;12802097028;530400;798509983;622;837;753288;-5;2721;11962
2;97;1573738426574;1573738431995;5421;16488717028;73610992985;1283508293;13264298;12802096933;527295;798533170;588;819;726800;-1;3205;17936
2;98;1573738431996;1573738437353;5357;16669006296;73610993327;1293988135;16817351;12802097275;526535;798506183;664;672;743424;0;3313;17562
2;99;1573738437353;1573738443014;5661;16613567906;73610992944;1251864841;14444371;12802096892;532421;798612424;949;846;842072;0;4589;85814
2;100;1573738443014;1573738448613;5599;16624111442;73610992909;1285068807;16386433;12802096857;527515;798600971;698;838;694584;0;2591;12656
2;101;1573738448613;1573738454265;5652;16570514112;73610993077;1310055060;15552884;12802097025;528870;798381044;695;855;788832;0;2922;15196
2;102;1573738454265;1573738459919;5654;16527559598;73610993333;1304703045;15463700;12802097281;528053;798587198;679;877;778040;7;2840;15608
2;103;1573738459919;1573738465508;5589;16623711402;73610993426;1266818262;15881300;12802097374;530493;798601927;633;882;827912;-6;3262;15955
2;104;1573738465509;1573738471299;5790;16521790992;73610993336;1275453801;11394978;12802097284;535033;798509944;988;768;849224;8;4537;134415
2;105;1573738471299;1573738476772;5473;16500621868;73610993182;1273699583;10588238;12802097130;534253;798441136;722;779;773456;-9;3168;18990
2;106;1573738476773;1573738482684;5911;16472402988;73610993216;1292240970;11502881;12802097164;529116;798505671;678;849;830016;0;2993;16249
2;107;1573738482684;1573738488334;5650;16527110940;73610993001;1282477558;12496234;12802096949;532254;798522341;611;861;714408;9;2633;14067
2;108;1573738488334;1573738493915;5581;16500016406;73610992972;1275985724;13633906;12802096920;527175;798447132;674;908;747416;-9;2975;15971
3;63;1573739038346;1573739043738;5392;16555482828;73611072862;1277786282;14071375;12802097169;526751;798577200;530;785;660064;0;2421;11690
3;64;1573739043739;1573739049204;5465;16501918056;73611072972;1288843112;12608008;12802097279;529643;798596960;584;830;734712;0;2793;12958
3;65;1573739049204;1573739058490;9286;16517978348;73611083588;1267415058;15744415;12802099389;535413;798594868;1301;1505;1234664;0;5634;75631
3;66;1573739058490;1573739063980;5490;16436852280;73611072547;1306890934;10119858;12802096854;531843;798544122;657;776;672392;0;2549;12663
3;67;1573739063980;1573739069679;5699;16457846934;73611072589;1232506349;10380580;12802096896;526498;798520329;664;832;809424;3;3004;13815
3;68;1573739069680;1573739075345;5665;16588302022;73611072559;1264254048;15654809;12802096866;531651;798536028;612;835;756136;-3;2740;13788
3;69;1573739075346;1573739080762;5416;16618829746;73611072577;1277172979;15486720;12802096884;527984;798518730;602;816;693000;0;2724;14447
3;70;1573739080762;1573739086396;5634;16542552922;73611072679;1287613837;13819225;12802096986;528111;798542149;712;748;819272;0;3408;18851
3;71;1573739086396;1573739091888;5492;16596635410;73611072838;1295920955;16040179;12802097145;529914;798604204;886;744;725816;0;3603;62830
3;72;1573739091888;1573739097310;5422;16565716260;73611072741;1227758924;13812482;12802097048;530607;798618169;606;783;744744;0;2673;12342
3;73;1573739097310;1573739102839;5529;16491339042;73611072550;1259085110;11925935;12802096857;521888;798609432;629;834;704136;5;2761;12909
3;74;1573739102840;1573739108136;5296;16477525982;73611072591;1281063302;10811181;12802096898;531489;798616678;493;777;617232;1;2188;10015
3;75;1573739108136;1573739113693;5557;16453675422;73611072561;1262738450;9886657;12802096868;522880;798605037;597;828;808104;0;3324;15484
3;76;1573739113693;1573739118962;5269;16448676236;73611072578;1260051686;10168361;12802096885;527861;798525773;774;810;693240;-6;3442;63074
3;77;1573739118962;1573739130798;11836;16546155180;73611083464;1274746864;19370862;12802099274;530723;798556962;1492;1711;1642872;5;6272;32968
3;78;1573739130798;1573739136577;5779;16521696676;73611072679;1258840830;11804887;12802096986;525378;798540819;657;875;820264;-5;3239;15352
3;79;1573739136577;1573739142276;5699;16485950912;73611072710;1283404620;11700337;12802097017;527633;798526961;713;769;788040;5;3449;19858
3;80;1573739142276;1573739147835;5559;16546628220;73611072719;1280988241;13939065;12802097026;531303;798537144;696;729;818480;-5;3712;21241
3;81;1573739147835;1573739153333;5498;16581829842;73611072946;1287770841;15549446;12802097253;531581;798612983;921;772;745040;0;3817;56591
3;82;1573739153333;1573739159069;5736;16523694394;73611072626;1267371183;12584483;12802096933;527008;798620926;709;883;842152;0;3147;15045
3;83;1573739159069;1573739164509;5440;16538899856;73611072628;1232557641;12695650;12802096935;522838;798586947;670;817;746096;0;2869;14677
3;84;1573739164509;1573739170189;5680;16553587456;73611072954;1289676258;13884430;12802097261;529235;798598068;586;848;755832;6;2839;12982
3;85;1573739170190;1573739175645;5455;16627380820;73611072905;1224238108;15811330;12802097212;526145;798441460;560;797;785928;-6;3182;14802
3;86;1573739175646;1573739181171;5525;16607195882;73611072987;1265094777;14922446;12802097294;530845;798511239;822;761;764720;0;3587;64622
3;87;1573739181171;1573739186643;5472;16541912566;73611072917;1288889665;14410814;12802097224;526384;798497754;658;759;771304;3;2988;14450
3;88;1573739186643;1573739192126;5483;16574707962;73611072958;1270093022;15043129;12802097265;523934;798516249;780;786;741952;36;3048;18911
3;89;1573739192126;1573739197495;5369;16564253778;73611072683;1309816950;13352230;12802097256;528790;798511212;918;751;705336;17;5367;219160
3;90;1573739197495;1573739203263;5768;16578060706;73611071974;1269316008;15255470;12802096920;530157;798608455;723;928;893456;-54;4371;133501
3;91;1573739203263;1573739208815;5552;16573332496;73611072544;1259654817;14665487;12802096851;527125;798533309;576;917;738392;4;2785;13542
3;92;1573739208815;1573739214024;5209;16590102056;73611072911;1280405011;15857101;12802097218;526126;798531265;588;729;695056;11;2844;15442
3;93;1573739214024;1573739219743;5719;16547876520;73611073042;1343529196;14185937;12802097349;528714;798497009;811;868;745136;-11;3367;20876
3;94;1573739219743;1573739225260;5517;16598238636;73611072860;1257987102;14364065;12802097167;526009;798503351;859;1000;716408;88;3352;52874
3;95;1573739225260;1573739230502;5242;16607498394;73611072821;1285208322;14585843;12802097128;526678;798532771;762;623;649520;-93;3402;57380
3;96;1573739230502;1573739236068;5566;16441479312;73611072753;1279981499;9833608;12802097060;531343;798506170;699;868;760048;6;2876;16123
3;97;1573739236069;1573739241936;5867;16439883532;73611072549;1303037121;10517155;12802096856;527162;798607089;769;885;853208;-7;3361;17543
3;98;1573739241937;1573739247095;5158;16471508592;73611072829;1328769157;9990978;12802097136;523308;798578301;572;727;722040;0;2563;12631
3;99;1573739247095;1573739252777;5682;16464656228;73611072603;1274110310;10992747;12802096910;527046;798613976;587;850;786984;0;3053;15090
3;100;1573739252778;1573739258225;5447;16455725846;73611072649;1268016724;10300531;12802096956;528521;798605918;927;788;735408;49;4191;149581
3;101;1573739258225;1573739264075;5850;16480960632;73611072951;1308481307;11907799;12802097258;530169;798586402;819;791;900896;-49;3822;36605
3;102;1573739264075;1573739269483;5408;16489845024;73611072907;1295069627;10533764;12802097214;527538;798509374;628;779;769224;4;2896;13631
3;103;1573739269483;1573739274530;5047;16576836058;73611072787;1309813713;15681376;12802097094;521034;798517046;549;691;664904;-4;2484;12545
3;104;1573739274530;1573739280156;5626;16687669476;73611072971;1247945269;16125179;12802097278;522201;798508163;642;806;766224;6;3071;17192
3;105;1573739280156;1573739285450;5294;16565099994;73611072835;1262114272;13633846;12802097142;525554;798428470;716;710;780256;-2;3179;20295
3;106;1573739285450;1573739291080;5630;16621262690;73611072930;1302085803;15445473;12802097237;529218;798521378;1009;740;750096;2;3841;91534
3;107;1573739291081;1573739296846;5765;16448040406;73611072819;1276064329;11385992;12802097126;527941;798522970;825;861;843216;-6;3273;16576
3;108;1573739296846;1573739302329;5483;16466888568;73611072605;1258497885;10408793;12802096912;526291;798590397;671;797;780880;3;2960;13441
3;109;1573739302329;1573739307753;5424;16456103548;73611072574;1283623728;10462065;12802096881;525878;798596899;643;774;801112;-2;2973;14786
3;110;1573739307753;1573739313193;5440;16588237344;73611072675;1300390124;15966171;12802096982;527075;798615008;581;853;757672;4;2999;15328
3;111;1573739313193;1573739318645;5452;16606119278;73611072580;1293882030;16324555;12802096887;527245;798526531;917;854;708360;-5;3846;85746
3;112;1573739318645;1573739324270;5625;16575450226;73611072654;1269079628;14997332;12802096961;523018;798621133;820;704;771536;3;3564;22326
4;63;1573739881019;1573739886983;5964;16589125608;73611082593;1286339920;13286417;12802098935;528810;798546359;754;775;755304;7;3471;23850
4;64;1573739886983;1573739892479;5496;16508088746;73611072687;1279311288;12223719;12802096994;535899;798607057;900;769;726704;-6;3972;71729
4;65;1573739892479;1573739898021;5542;16517414642;73611072544;1258133000;12564298;12802096851;536055;798619820;632;801;727048;-1;2778;14030
4;66;1573739898021;1573739903498;5477;16563570936;73611072873;1281853992;13787620;12802097180;536150;798583670;638;868;713072;1;2840;12120
4;67;1573739903499;1573739908776;5277;16536923016;73611072885;1258640937;12623396;12802097192;532258;798631642;552;791;691744;0;2678;12094
4;68;1573739908776;1573739914566;5790;16552591444;73611072783;1270911954;14288454;12802097090;547958;798607276;616;911;791200;-1;3020;13712
4;69;1573739914566;1573739920237;5671;16521760332;73611072572;1246459458;12678459;12802096879;538147;798607140;926;870;788920;30;3990;48821
4;70;1573739920237;1573739925821;5584;16554563904;73611072592;1275447508;13632043;12802096899;534389;798517201;824;660;805064;-28;3666;29991
4;71;1573739925821;1573739931356;5535;16548332186;73611072617;1273426965;13490357;12802096924;535474;798578820;643;839;772072;-2;3029;14197
4;72;1573739931356;1573739936940;5584;16541787006;73611072659;1284738067;13177655;12802096966;537481;798539101;650;804;770776;3;3088;13596
4;73;1573739936940;1573739942337;5397;16558966388;73611072631;1280035445;14226031;12802096938;530535;798532025;598;777;792656;-3;3027;14460
4;74;1573739942338;1573739950386;8048;16541282576;73611083248;1270278460;16377327;12802099058;542874;798464870;933;1231;1167168;9;5247;26491
4;75;1573739950386;1573739955915;5529;16611802620;73611072623;1274073542;15214214;12802096930;535935;798665684;987;779;798944;-9;4069;78049
4;76;1573739955915;1573739961385;5470;16594374016;73611072499;1245762945;14221430;12802096806;533292;798596890;671;828;704608;0;2684;14099
4;77;1573739961385;1573739967031;5646;16628394352;73611072494;1265224245;15454255;12802096801;535591;798602202;642;869;798888;6;3180;15226
4;78;1573739967031;1573739972515;5484;16579267980;73611072543;1270731032;14160102;12802096850;531657;798603086;613;822;751920;-4;2947;12966
4;79;1573739972515;1573739978280;5765;16540987656;73611072726;1276019216;13642889;12802097033;543350;798668193;785;850;836288;-2;3736;21799
4;80;1573739978280;1573739983553;5273;16510305464;73611072638;1262709953;11978474;12802096945;538773;798518348;927;767;729312;6;3928;73204
4;81;1573739983553;1573739988809;5256;16612846082;73611072494;1252617329;14904259;12802096801;528091;798507543;634;682;720552;-6;2851;13215
4;82;1573739988809;1573739994405;5596;16596239458;73611072673;1291982052;16080950;12802096980;537708;798530337;595;871;724680;8;2749;12947
4;83;1573739994405;1573739999763;5358;16530590266;73611072534;1251384865;14041074;12802096841;547323;798584878;671;758;801672;-5;3198;15315
4;84;1573739999763;1573740005149;5386;16606710432;73611072855;1248222909;15179645;12802097162;540027;798442881;549;783;718736;3;2728;12417
4;85;1573740005149;1573740010379;5230;16535427392;73611072903;1255693767;11584707;12802097210;530746;798497990;553;764;705544;-2;2988;14320
4;86;1573740010380;1573740015876;5496;16438778604;73611073030;1292374358;10306874;12802097337;535504;798573981;1036;813;777504;-4;4351;84326
4;87;1573740015876;1573740021208;5332;16439883678;73611072823;1331020423;10054398;12802097130;532782;798630994;678;785;743168;2;2917;14930
4;88;1573740021208;1573740027119;5911;16476528364;73611073040;1263810737;12140044;12802097347;542369;798326138;735;893;907656;10;3632;17969
4;89;1573740027119;1573740032348;5229;16508374614;73611073021;1274168052;10758427;12802097328;539698;798585003;982;783;640104;38;4903;184085
4;90;1573740032348;1573740038052;5704;16551808738;73611072715;1265499368;14124785;12802097022;537451;798609846;858;913;862328;-50;4979;172773
4;91;1573740038053;1573740043445;5392;16561845216;73611072261;1272539870;14408980;12802096834;529193;798582737;597;864;735056;0;2790;13922
4;92;1573740043446;1573740048947;5501;16570097428;73611072071;1273353136;14798622;12802097017;542163;798575573;558;801;754512;0;3140;14987
4;93;1573740048947;1573740054282;5335;16609927250;73611072907;1306673719;15526240;12802097214;537977;798576349;677;718;775896;7;3177;16567
4;94;1573740054283;1573740059666;5383;16596759656;73611072762;1293234428;15178476;12802097069;534759;798592115;753;661;744360;-7;3509;23149
4;95;1573740059666;1573740065362;5696;16644903594;73611073022;1246923221;16702880;12802097329;535855;798603244;1007;891;786392;6;4021;51259
4;96;1573740065362;1573740070591;5229;16570450456;73611072796;1297947102;15074124;12802097103;540437;798586104;673;655;686792;4;2721;13626
4;97;1573740070591;1573740076024;5433;16562317964;73611072688;1287290927;14698704;12802096995;542996;798534440;622;787;755288;-2;2962;14383
4;98;1573740076024;1573740081416;5392;16565303372;73611072928;1289876644;13302634;12802097235;539778;798511605;592;792;744480;-8;2737;14097
4;99;1573740081416;1573740087142;5726;16615804480;73611072606;1258430105;17226746;12802096913;535884;798542360;620;869;819192;0;3150;16079
4;100;1573740087142;1573740093071;5929;16637878074;73611072869;1270430631;16064300;12802097176;541072;798540209;714;967;834656;7;3375;16656
4;101;1573740093071;1573740098574;5503;16519139778;73611073128;1298412643;14110389;12802097435;531995;798371103;860;828;752800;1;3871;61045
4;102;1573740098574;1573740104350;5776;16600692166;73611072975;1267040463;15802145;12802097282;542920;798585892;743;737;780928;-4;2979;15754
4;103;1573740104350;1573740110139;5789;16576868032;73611073042;1283124997;15893243;12802097349;538199;798603023;731;778;805280;-4;3204;16935
4;104;1573740110139;1573740115588;5449;16618027038;73611072871;1272423752;16552619;12802097178;540952;798570470;620;813;776160;0;2862;14701
4;105;1573740115589;1573740121856;6267;16564663600;73611082864;1290295341;14142879;12802098999;536891;798615250;789;887;947520;0;4136;27721
4;106;1573740121856;1573740127519;5663;16554297454;73611072705;1268979172;13014117;12802097012;536411;798592893;1087;705;810008;0;4783;83945
4;107;1573740127520;1573740133263;5743;16530020866;73611072703;1278407118;13315776;12802097010;530362;798535339;755;811;817880;1;3343;17494
4;108;1573740133263;1573740138795;5532;16595117740;73611072688;1261562708;15681808;12802096995;542067;798538472;630;846;768336;8;2938;13999
4;109;1573740138795;1573740144341;5546;16520933534;73611072510;1268525489;14414344;12802096817;531374;798528777;684;869;778264;4;2992;15482
4;110;1573740144341;1573740149821;5480;16709060082;73611072578;1221956047;17780911;12802096885;536735;798538616;669;839;808896;-13;3411;19126
4;111;1573740149821;1573740155403;5582;16624684638;73611072763;1256769107;15011284;12802097070;543593;798523875;917;939;792936;49;3448;49220
4;112;1573740155403;1573740161009;5606;16624918092;73611072726;1267919397;15656492;12802097033;541538;798557926;915;689;797032;-48;4109;102187
