0;61;1572539466728;1572539472811;6083;16612989016;73610995127;1259242977;16118255;12802099075;540032;798616313;1228;5546;567024;-12;6083;871588
0;62;1572539472811;1572539478221;5410;16629909540;73610993783;1268116896;15806232;12802097731;534271;798559315;874;6528;603816;22;5410;768264
0;63;1572539478221;1572539483764;5543;16448402486;73610994308;1275335318;10803648;12802098256;533283;798618782;843;7618;696920;-11;5543;791509
0;64;1572539483764;1572539489526;5762;16483751714;73610994843;1251073799;11207863;12802098791;537484;798456206;858;7986;828936;8;5762;820742
0;65;1572539489526;1572539495595;6069;16527353446;73610996521;1297295491;15042618;12802100469;550436;798602101;1314;8175;823432;25;6069;987807
0;66;1572539495595;1572539501425;5830;16654755820;73610993904;1281902539;18315665;12802097852;532483;798581016;1223;5274;599536;-39;5830;836684
0;67;1572539501425;1572539506804;5379;16630937526;73610993875;1259803085;17301911;12802097823;527564;798566415;1092;5132;543448;-3;5379;763914
0;68;1572539506804;1572539512175;5371;16691778646;73610993884;1270533682;18209450;12802097832;527095;798591015;843;7009;624344;21;5371;764359
0;69;1572539512175;1572539518245;6070;16624671352;73610995152;1267725598;15736627;12802099100;540945;798626623;891;8514;805448;5;6070;865406
0;70;1572539518245;1572539524168;5923;16396493208;73610994928;1274562999;9647407;12802098876;542498;798588918;969;10106;993824;-8;5923;850451
0;71;1572539524168;1572539530163;5995;16459840564;73610995133;1266088157;10531886;12802099081;536234;798655665;1591;6283;755752;-8;5996;1037615
0;72;1572539530164;1572539538582;8418;16479766352;73611009665;1281909031;16554276;12802105116;551539;798649650;1733;7541;785104;-5;8418;1206541
0;73;1572539538582;1572539544052;5470;16529269258;73610993931;1277586735;13027913;12802097879;530341;798577131;882;6903;655192;-9;5470;783202
0;74;1572539544052;1572539549422;5370;16361270270;73610993870;1276153988;7966966;12802097818;538362;798580010;750;7669;713152;20;5370;767610
0;75;1572539549422;1572539554514;5092;16404535910;73610993443;1273183264;7749771;12802097391;532824;798635497;814;8083;762384;-14;5093;718994
0;76;1572539554514;1572539560098;5584;16442531680;73610994046;1267725565;9129125;12802097994;533513;798591854;1385;6967;732632;23;5584;947543
0;77;1572539560099;1572539565616;5517;16427158464;73610994153;1269626867;9036931;12802098101;533613;798577401;1071;5367;656056;-15;5517;789958
0;78;1572539565616;1572539571442;5826;16409197544;73610995031;1255130370;9120384;12802098979;537115;798596899;1170;5591;552008;14;5826;835394
0;79;1572539571442;1572539576965;5523;16448693026;73610994048;1292347582;9398165;12802097996;537264;798656048;921;6542;625704;-14;5523;794255
0;80;1572539576965;1572539582671;5706;16423568178;73610993838;1287102091;9694851;12802097786;531178;798578272;883;7959;734936;13;5706;810970
0;81;1572539582671;1572539588727;6056;16572028716;73610993718;1293089768;15216062;12802097666;533209;798454460;937;9010;873360;143;6056;900326
0;82;1572539588727;1572539594492;5765;16655617366;73610994005;1276861625;17673000;12802097953;531784;798592539;1380;6766;740224;-140;5765;1089969
0;83;1572539594492;1572539599476;4984;16522969504;73610993550;1267205034;10631994;12802097498;527635;798637562;1029;2756;381264;-3;4984;715383
0;84;1572539599476;1572539604551;5075;16460927534;73610993741;1285194101;8972658;12802097689;527340;798468617;1052;4897;491552;-25;5075;730665
0;85;1572539604551;1572539610050;5499;16473107292;73610994759;1255250837;10385133;12802098707;534054;798589385;907;6505;634088;21;5499;784653
0;86;1572539610050;1572539615372;5322;16437184284;73610994435;1260910663;10338929;12802098383;534621;798563951;841;7157;664224;-5;5322;762510
0;87;1572539615372;1572539620615;5243;16392964096;73610993878;1276776748;8712533;12802097826;532321;798637777;719;7849;763000;122;5243;749835
0;88;1572539620615;1572539626644;6029;16431712204;73610995563;1271320055;10957239;12802099511;544196;798576855;1510;7239;818400;-124;6030;966999
0;89;1572539626644;1572539632353;5709;16460740362;73610995117;1265454984;10387157;12802099065;533422;798575185;1302;4694;469856;12;5708;816688
0;90;1572539632353;1572539638053;5700;16501012564;73610994685;1277801272;13450521;12802098633;530253;798598521;1032;5856;624816;-8;5700;813811
0;91;1572539638053;1572539643750;5697;16530005390;73610994297;1270765475;13404743;12802098511;538508;798643512;887;6720;667016;-16;5697;812482
0;92;1572539643750;1572539648506;4756;16531364212;73610992176;1232339031;11188202;12802096763;518681;798394235;787;7117;615792;26;4757;678914
0;93;1572539648507;1572539654105;5598;16459291458;73610994308;1265591867;10835862;12802098256;538392;798599436;1294;7784;794328;-17;5598;938582
0;94;1572539654105;1572539659586;5481;16448853334;73610994172;1275513155;10020125;12802098120;529878;798538437;1051;7020;792368;5;5481;783413
0;95;1572539659586;1572539665359;5773;16578715662;73610995391;1272115223;16599568;12802099339;536247;798587682;1186;4996;509168;-2;5774;827450
0;96;1572539665359;1572539671190;5831;16609820232;73610995231;1295774138;17891447;12802099179;540356;798544005;1033;6870;665928;-9;5830;828442
0;97;1572539671190;1572539676470;5280;16488540514;73610993184;1268256077;9617731;12802097132;526774;798538481;801;6455;681536;-1;5280;751093
0;98;1572539676470;1572539682340;5870;16445073832;73610995021;1286229844;11228592;12802098969;542902;798554831;934;8694;825344;-6;5870;838460
0;99;1572539682340;1572539687956;5616;16477492986;73610994027;1261443133;11540573;12802097975;534024;798603338;1214;8342;808480;22;5616;882888
0;100;1572539687956;1572539693184;5228;16685370852;73610993324;1248166827;16665676;12802097272;525966;798609713;1104;4020;531520;-15;5229;753377
0;101;1572539693185;1572539699063;5878;16620312084;73610995482;1265798703;16209049;12802099430;536336;798647960;1184;5279;562656;0;5878;835377
0;102;1572539699063;1572539704869;5806;16485979528;73610995772;1279951597;12280509;12802099720;535518;798620994;910;7849;684944;18;5806;822927
0;103;1572539704869;1572539709631;4762;16521015732;73610993376;1279227946;10505132;12802097324;518070;798647155;695;5069;650200;-118;4762;628331
0;104;1572539709631;1572539715402;5771;16535576750;73610995193;1273098006;14041456;12802099141;533077;798646944;1874;6558;742152;125;5038;149466
0;105;1572539715402;1572539721345;5943;16567878374;73610994445;1262580929;14872337;12802098393;530612;798619650;1489;5797;531048;-23;5943;817418
0;106;1572539721345;1572539726861;5516;16490836364;73610994383;1313159056;12017453;12802098331;532202;798542337;1026;5012;553304;-2;5515;782168
0;107;1572539726861;1572539732764;5903;16558763010;73610995271;1284162889;15131891;12802099219;543698;798624943;885;7720;710408;11;5903;849958
0;108;1572539732764;1572539738649;5885;16476459890;73610995162;1279661810;13253785;12802099110;540374;798575865;892;8674;778616;4;5885;829928
0;109;1572539738649;1572539744336;5687;16526809304;73610994020;1278815448;14009936;12802097968;532062;798468667;971;8952;927192;-41;5687;788916
0;110;1572539744336;1572539750400;6064;16552467344;73610995459;1293947797;14405614;12802099407;537195;798581244;1544;6420;737536;37;6065;757680
1;65;1572540303716;1572540309547;5831;16503940302;73610994915;1255051447;11292543;12802098863;549663;798624801;1091;5835;616648;-3;5832;833207
1;66;1572540309547;1572540315252;5705;16452359670;73610994719;1279227404;11063802;12802098667;548095;798633556;914;7662;677544;-8;5705;814741
1;67;1572540315253;1572540323518;8265;16486165094;73611008414;1275786514;16353863;12802103854;562711;798715968;1225;11898;1167512;1;8265;1182308
1;68;1572540323518;1572540328716;5198;16495583846;73610993284;1239561468;11047573;12802097232;530791;798530134;1125;8069;744320;14;5198;813254
1;69;1572540328716;1572540334593;5877;16499807334;73610995125;1268244857;14033809;12802099073;544737;798573603;1198;4689;647168;-14;5878;845538
1;70;1572540334593;1572540340639;6046;16571950022;73610995280;1304839775;15821440;12802099228;544995;798523645;1219;6013;609336;-3;6046;863705
1;71;1572540340640;1572540346297;5657;16563124614;73610995089;1284192251;13994403;12802099037;546292;798581925;856;7432;678144;8;5657;808029
1;72;1572540346297;1572540351771;5474;16562498566;73610993757;1248432785;14259767;12802097705;529394;798469049;876;7587;722080;-11;5475;782797
1;73;1572540351771;1572540357742;5971;16600528208;73610994718;1254329696;16146616;12802098666;541321;798638408;1365;8023;828728;11;5970;966115
1;74;1572540357742;1572540363626;5884;16471692552;73610994797;1278010125;11397514;12802098745;535464;798634432;1184;6476;743376;0;5885;839172
1;75;1572540363627;1572540369112;5485;16524180428;73610993711;1261186566;12071654;12802097659;534090;798610643;1134;5010;514784;-13;5486;787064
1;76;1572540369112;1572540373873;4761;16551389280;73610992852;1254851870;12038001;12802096800;530652;798603907;837;5987;555896;27;4760;678402
1;77;1572540373873;1572540382795;8922;16598096578;73611005544;1277766335;18837429;12802101331;546560;798552675;1322;12171;1218824;-9;8923;1274411
1;78;1572540382795;1572540387722;4927;16519665232;73610993010;1281809472;11174121;12802096958;534455;798211019;920;6411;762224;18;4926;544928
1;79;1572540387722;1572540393621;5899;16488094776;73610994752;1262576240;11481250;12802098700;542623;798569738;1644;5776;540096;-17;5900;861715
1;80;1572540393622;1572540399574;5952;16464682362;73610995426;1278761242;11239965;12802099374;549467;798560202;1152;6043;586568;1;5953;850429
1;81;1572540399575;1572540405183;5608;16396735422;73610994154;1275455090;8430911;12802098102;542700;798568565;814;6680;679928;-14;5608;799939
1;82;1572540405183;1572540411132;5949;16384880806;73610994630;1288766337;8338456;12802098578;539046;798552518;947;8485;800984;13;5949;848421
1;83;1572540411132;1572540416902;5770;16390535386;73610995310;1281773427;9178017;12802099258;539355;798658173;977;8957;914480;-73;5773;764110
1;84;1572540416905;1572540422800;5895;16402610462;73610993682;1251056905;9060123;12802097630;541189;798578128;1630;6552;738240;58;5830;623648
1;85;1572540422800;1572540428510;5710;16416745890;73610994640;1290507036;9350077;12802098588;541131;798621801;1121;4790;511040;1;5710;820808
1;86;1572540428510;1572540434606;6096;16507425468;73610994396;1224282361;11218900;12802098344;541575;798604429;1043;7651;660856;13;6096;871965
1;87;1572540434606;1572540440158;5552;16403782258;73610994321;1327412871;8834214;12802098269;535796;798538704;783;6511;705304;-15;5552;787032
1;88;1572540440158;1572540445692;5534;16513802456;73610993715;1307310866;11990459;12802097663;527741;798517491;804;8198;787904;-3;5535;787873
1;89;1572540445692;1572540451257;5565;16483212098;73610995557;1250873605;12063823;12802099771;533703;798551663;1172;7975;762256;72;5564;912219
1;90;1572540451257;1572540457233;5976;16415357722;73610994562;1294908829;10219971;12802099149;547201;798664445;1159;4468;598608;-69;5977;871261
1;91;1572540457233;1572540462467;5234;16371289082;73610993584;1257910271;7473919;12802097532;537195;798619250;1160;3829;374264;2;5233;754161
1;92;1572540462467;1572540467425;4958;16545728568;73610992941;1316351264;14233139;12802096889;523311;798604053;895;5205;547600;1;4959;708688
1;93;1572540467425;1572540473100;5675;16730044370;73610994248;1249856541;18973162;12802098196;534967;798533183;856;7165;674960;8;5674;806575
1;94;1572540473100;1572540478997;5897;16503837810;73610995417;1281521970;12906794;12802099365;542187;798315095;877;8564;784952;-11;5898;843923
1;95;1572540478997;1572540485242;6245;16410845008;73610996323;1256139352;9785644;12802100271;546412;798572075;1377;9466;879528;21;6245;1020482
1;96;1572540485242;1572540491196;5954;16445311374;73610994862;1282320403;11261641;12802098810;549137;798548522;1243;5549;732744;-25;5953;853913
1;97;1572540491196;1572540496703;5507;16532996784;73610994300;1255114619;12021765;12802098248;536946;798578374;1135;5029;515864;17;5507;782698
1;98;1572540496703;1572540502840;6137;16580989320;73610995100;1205727214;14002818;12802099048;536084;798545370;1032;7800;704432;5;6137;882827
1;99;1572540502840;1572540508081;5241;16532361830;73610993290;1255767830;12680942;12802097238;542479;798620519;738;7160;708520;-2;5242;747082
1;100;1572540508082;1572540513317;5235;16581644860;73610993292;1257667181;13036617;12802097240;528655;798614822;775;8130;783688;-7;5236;746768
1;101;1572540513317;1572540519144;5827;16594341604;73610995523;1335494405;16084031;12802099471;546567;798632942;1332;7705;863304;-16;5827;936516
1;102;1572540519145;1572540524790;5645;16602012736;73610995103;1248590683;16814031;12802099051;545560;798631443;1278;4805;504720;2;5646;808344
1;103;1572540524790;1572540530366;5576;16603406744;73610994459;1272969603;15660111;12802098407;535983;798627069;1019;5686;607400;5;5576;795165
1;104;1572540530366;1572540536418;6052;16617669776;73610995521;1223044950;16332877;12802099469;540631;798539916;978;8031;736184;14;6052;861843
1;105;1572540536418;1572540542055;5637;16539957334;73610994499;1242115180;12987914;12802098447;536134;798484470;837;8307;800848;-5;5637;808771
1;106;1572540542056;1572540548068;6012;16454330378;73610995517;1284622149;11977958;12802099465;547190;798565678;1424;8439;784232;12;6012;964819
1;107;1572540548068;1572540553333;5265;16458620004;73610994433;1253503263;9546081;12802098381;535587;798557845;1013;5022;675080;-21;5265;745263
1;108;1572540553333;1572540558428;5095;16435014724;73610994493;1289771402;9882414;12802098441;526732;798541801;1072;4951;487792;-8;5096;679347
1;109;1572540558429;1572540564290;5861;16461559568;73610994480;1263843560;11042385;12802098428;550385;798652240;1112;6780;681336;3;5862;800479
1;110;1572540564291;1572540569987;5696;16578329346;73610994577;1265190766;14472481;12802098525;542922;798639643;1328;5386;712760;-103;5659;563534
1;111;1572540569987;1572540575946;5959;16530804594;73610995429;1293949841;15265092;12802099377;544870;798649976;1978;6532;719328;8;5262;146253
1;112;1572540575947;1572540581811;5864;16484983224;73610995264;1267998943;12903118;12802099212;536559;798612794;1986;5969;600080;105;5741;738719
1;113;1572540581811;1572540587870;6059;16547764976;73610995686;1239523011;13942914;12802099634;542870;798604178;1214;4965;567224;2;6059;862335
1;114;1572540587870;1572540593459;5589;16485499042;73610994501;1279704075;12562657;12802098449;540151;798587869;1007;6989;635824;-13;5590;799689
2;63;1572541152386;1572541157872;5486;16600340014;73610993868;1286013724;16660374;12802097816;529381;798591911;1029;5311;554976;-5;5486;786452
2;64;1572541157872;1572541163458;5586;16699680604;73610994024;1240523399;17274059;12802097972;533365;798597892;908;5744;634976;-41;5586;546777
2;65;1572541163458;1572541170503;7045;16512992448;73611004821;1238787414;12837453;12802100711;546557;798624409;1284;8837;931296;-74;7044;375643
2;66;1572541170503;1572541176179;5676;16391581768;73610994524;1283781348;8223260;12802098472;539522;798565628;2228;6065;718240;-5;5150;130000
2;67;1572541176179;1572541182179;6000;16475819680;73610995084;1257816472;12041083;12802099032;545939;798588202;1717;5907;618440;143;6001;750683
2;68;1572541182179;1572541187441;5262;16530214024;73610993755;1251759064;12990054;12802097703;527198;798544507;1076;5470;493704;-16;5262;746274
2;69;1572541187441;1572541192880;5439;16516122688;73610993329;1258813907;11878102;12802097277;526335;798527272;889;5876;625304;7;5439;765432
2;70;1572541192880;1572541198767;5887;16425598016;73610995085;1255305828;10490308;12802099033;541836;798572171;855;7986;743840;-13;5887;842028
2;71;1572541198767;1572541204251;5484;16439006072;73610994057;1295141425;9130607;12802098005;532318;798625877;769;9016;856168;7;5483;777514
2;72;1572541204251;1572541209796;5545;16436834468;73610993939;1275978883;10816225;12802097887;536411;798622387;1511;7509;839704;70;5546;492663
2;73;1572541209796;1572541215479;5683;16508480902;73610994601;1248568750;12413526;12802098549;535536;798633268;1361;5070;557352;-75;5683;821387
2;74;1572541215479;1572541221557;6078;16532665510;73610995021;1270877707;13754487;12802098969;544716;798647683;1175;6242;636624;9;6077;870333
2;75;1572541221557;1572541231842;10285;16617606996;73611012203;1283063171;23518033;12802108382;569195;798772404;1567;13479;1293192;10;10286;1459915
2;76;1572541231842;1572541237223;5381;16741752548;73610993938;1271458524;18763706;12802097886;529721;798629663;775;8789;810720;-6;5381;766050
2;77;1572541237223;1572541243116;5893;16686217068;73610993825;1278939334;17920320;12802097773;536165;798565418;1473;7010;789632;12;5892;898729
2;78;1572541243116;1572541248645;5529;16430834014;73610995291;1274420334;9844516;12802099239;538324;798353202;1208;4737;509192;-24;5530;791271
2;79;1572541248645;1572541254779;6134;16437008938;73610995347;1279122884;11188129;12802099295;542869;798566001;1168;6226;656792;16;6134;879500
2;80;1572541254779;1572541260280;5501;16547182728;73610993704;1270838904;13148089;12802097652;537273;798531054;809;7512;664312;-9;5501;785129
2;81;1572541260280;1572541266329;6049;16662908022;73610994716;1279143295;18483899;12802098664;543555;798649228;941;8948;845960;-11;6048;861246
2;82;1572541266329;1572541272405;6076;16611096126;73610994695;1263325652;17055884;12802098643;533762;798634243;1041;9355;1031448;-86;6077;743362
2;83;1572541272405;1572541278186;5781;16566107394;73610994931;1289526692;15167002;12802098879;538754;798668880;1688;5107;546536;95;5780;838212
2;84;1572541278186;1572541283522;5336;16540456508;73610993915;1265817835;12253968;12802097863;528470;798586031;1048;5271;517776;8;5337;762055
2;85;1572541283522;1572541289069;5547;16560909648;73610993767;1267812288;12678940;12802097715;527887;798600336;910;6988;645568;-14;5547;787415
2;86;1572541289069;1572541294896;5827;16466077976;73610995281;1351819046;11992205;12802099229;547984;798552979;840;7934;780128;24;5827;827037
2;87;1572541294896;1572541300851;5955;16657434482;73610995642;1235004803;19518053;12802099590;544772;798479295;1337;6798;703296;-28;5955;1171346
2;88;1572541300851;1572541306795;5944;16636483482;73610995115;1274027414;17761092;12802099063;538832;798539683;1187;3609;516496;16;5944;860500
2;89;1572541306795;1572541312615;5820;16499037622;73610994399;1266457220;11822137;12802098613;540130;798547025;1211;5485;530320;14;5820;825410
2;90;1572541312616;1572541318642;6026;16479888554;73610995069;1274844338;12585722;12802099656;552299;798569896;956;7659;710008;-28;6027;858314
2;91;1572541318643;1572541324309;5666;16520279454;73610993505;1281333036;12746406;12802097453;532869;798544520;824;8628;754728;16;5666;807328
2;92;1572541324309;1572541329378;5069;16643220944;73610993758;1282934102;15760802;12802097706;528444;798532373;751;7843;869512;-7;5069;723770
2;93;1572541329378;1572541334730;5352;16556129316;73610994546;1262994105;13240420;12802098494;539264;798381151;1406;6548;732928;7;5353;876041
2;94;1572541334731;1572541340414;5683;16527019252;73610994799;1282661750;13791387;12802098747;546150;798548637;1198;4994;496600;-14;5683;814372
2;95;1572541340414;1572541345828;5414;16508349794;73610994521;1336332994;13056878;12802098469;538490;798459894;982;5223;558928;14;5414;766948
2;96;1572541345828;1572541351515;5687;16626723966;73610994708;1265413597;15387728;12802098656;541297;798549601;863;7747;672320;1;5687;810488
2;97;1572541351515;1572541357380;5865;16656316852;73610995059;1236609505;16981485;12802099007;542970;798633030;823;8921;842424;9;5865;837285
2;98;1572541357380;1572541362999;5619;16576607276;73610994503;1253906863;13771902;12802098451;536608;798619834;1209;6680;774696;-28;5620;886917
2;99;1572541362999;1572541368741;5742;16587560196;73610994253;1255060653;15048365;12802098201;541641;798652484;1065;6712;727288;23;5742;820818
2;100;1572541368741;1572541374009;5268;16559065960;73610993432;1275681638;14577256;12802097380;534002;798565414;1130;5039;463752;-10;5267;754149
2;101;1572541374009;1572541379209;5200;16595840440;73610994260;1317642174;16025587;12802098208;532555;798599937;857;6014;574640;8;5201;744487
2;102;1572541379209;1572541384563;5354;16524299564;73610994032;1279140043;12473464;12802097980;531592;798523653;794;6443;655640;-14;5354;762948
2;103;1572541384563;1572541391023;6460;16636847898;73610995223;1301789947;17655435;12802099171;542066;798553482;990;10449;941984;2;6459;918721
2;104;1572541391023;1572541396949;5926;16639159078;73610995392;1364492513;18512913;12802099340;546522;798551097;1279;8882;950096;-9;5926;931011
2;105;1572541396949;1572541402656;5707;16546208616;73610994236;1290587715;13493432;12802098184;533045;798544606;1215;4652;566448;1;5708;816219
2;106;1572541402656;1572541408732;6076;16542099446;73610995193;1269947114;13508662;12802099141;546667;798571947;1166;5831;587600;18;6076;868262
2;107;1572541408732;1572541414407;5675;16497536158;73610994601;1277082705;12004345;12802098549;536185;798622891;865;7499;673824;3;5674;809932
2;108;1572541414407;1572541419575;5168;16535121230;73610993631;1207890184;11198768;12802097579;533539;798622460;713;7233;713648;-9;5169;740792
2;109;1572541419575;1572541424373;4798;16453063244;73610992778;1255233390;10448173;12802096726;525391;798641302;761;6849;690256;-1;4797;686487
2;110;1572541424373;1572541430090;5717;16656791206;73610994669;1268206550;18526958;12802098617;544794;798649195;1157;7945;810560;16;5717;938301
2;111;1572541430090;1572541435829;5739;16658483200;73610994103;1290053898;18365095;12802098051;534912;798587200;1225;4957;557328;-9;5740;817258
2;112;1572541435829;1572541441853;6024;16529086320;73610995765;1268758265;14700022;12802099713;547993;798604801;1113;5868;602480;7;6023;862862
3;66;1572541994369;1572542000121;5752;16529181366;73611073612;1297626684;14955354;12802097919;523104;798601288;1119;5618;577016;3;5753;827514
3;67;1572542000121;1572542005476;5355;16477616502;73611073636;1213572498;8714367;12802097943;532315;798591612;824;6617;656064;-24;5354;759751
3;68;1572542005476;1572542010908;5432;16385080242;73611073737;1267464673;7656090;12802098044;534344;798545765;786;8273;740104;14;5433;777581
3;69;1572542010908;1572542016963;6055;16426648778;73611074303;1271250688;12685338;12802098610;526299;798536876;913;9037;848176;15;6054;864473
3;70;1572542016963;1572542023226;6263;16646753560;73611075353;1268286332;19789450;12802099660;537975;798577160;1461;7061;860936;1;6263;992193
3;71;1572542023226;1572542028568;5342;16581585292;73611073405;1289716579;12947068;12802097712;533555;798549118;1155;4393;473136;-3;5342;757345
3;72;1572542028568;1572542033777;5209;16396850178;73611072759;1263191948;7366168;12802097066;527397;798530470;1013;5339;536736;-21;5209;741555
3;73;1572542033777;1572542039759;5982;16407265964;73611084907;1278875622;9295635;12802100708;541154;798638464;917;7733;724208;11;5983;851703
3;74;1572542039759;1572542045238;5479;16509732268;73611073160;1259239890;14135570;12802097467;531688;798621508;813;7702;754768;-13;5478;780997
3;75;1572542045238;1572542051362;6124;16612215946;73611074897;1278310210;17085166;12802099204;536977;798659118;1236;9636;923536;62;6124;993739
3;76;1572542051362;1572542057098;5736;16583417008;73611074201;1254992623;14785267;12802098508;537677;798644016;1268;6004;691896;-48;5737;827566
3;77;1572542057098;1572542062778;5680;16668462592;73611074202;1259009229;17099562;12802098509;529389;798528806;1108;5022;536432;12;5680;805608
3;78;1572542062778;1572542068898;6120;16566309166;73611075507;1265220741;14260520;12802099814;540351;798671583;1106;7415;704352;-14;6119;871995
3;79;1572542068898;1572542074092;5194;16435375782;73611072973;1256860459;8783946;12802097280;527078;798532577;769;7012;670184;-1;5194;738024
3;80;1572542074092;1572542079513;5421;16449224028;73611073219;1235717893;9641842;12802097526;524550;798508991;808;8099;772360;-7;5421;767678
3;81;1572542079513;1572542085055;5542;16422764302;73611074576;1282598096;9090500;12802098883;546289;798587431;1187;7112;755528;2;5542;859901
3;82;1572542085055;1572542091260;6205;16433787156;73611074820;1300333783;11183452;12802099127;539215;798570314;1307;5853;645056;6;6205;888062
3;83;1572542091260;1572542097122;5862;16601314856;73611074228;1272945421;17530885;12802098535;530269;798566102;1089;5657;594240;-1;5862;840561
3;84;1572542097122;1572542103154;6032;16709663500;73611074818;1241838137;19155530;12802099125;531355;798547255;954;7406;705896;10;6032;860500
3;85;1572542103154;1572542107969;4815;16551199042;73611073066;1286471506;8804360;12802097373;519520;798592753;706;5708;660952;-120;4815;599119
3;86;1572542107969;1572542113369;5400;16382580576;73611074188;1269212681;7130345;12802098495;536201;798613337;1982;5082;644808;-5;4673;106440
3;87;1572542113369;1572542118781;5412;16462027352;73611073306;1281915216;11302425;12802097613;528043;798584291;1542;5457;563888;110;5354;650654
3;88;1572542118781;1572542124547;5766;16691442846;73611074564;1269135733;18477242;12802098871;536197;798613503;1183;5675;523472;1;5766;823590
3;89;1572542124547;1572542130102;5555;16693295002;73611073970;1256937948;17709298;12802098277;533455;798458487;870;6775;650296;-6;5555;788333
3;90;1572542130102;1572542135980;5878;16422824162;73611073372;1275765263;10610301;12802097679;537932;798537358;835;8001;784632;-3;5878;836047
3;91;1572542135980;1572542141928;5948;16457819924;73611074024;1270039395;11838702;12802098597;538565;798306063;997;9473;904448;150;5948;917167
3;92;1572542141928;1572542147783;5855;16417531370;73611074311;1284409202;9387840;12802099257;541128;798242579;1350;4623;626656;-128;5855;995331
3;93;1572542147783;1572542152542;4759;16440180788;73611072824;1250666069;7970154;12802097131;534121;798570738;976;3732;364632;-12;4759;688263
3;94;1572542152542;1572542158307;5765;16449249870;73611074545;1299300421;9819171;12802098852;529102;798628124;1168;5763;593512;7;5766;728496
3;95;1572542158308;1572542164316;6008;16478520826;73611075738;1257476520;13164855;12802100045;535807;798554349;948;7392;739208;-15;6008;846583
3;96;1572542164316;1572542169802;5486;16478375118;73611074029;1252795167;11761124;12802098336;527614;798521968;918;7038;757456;-62;5486;695907
3;97;1572542169802;1572542175433;5631;16587509826;73611074135;1284471071;16114175;12802098442;530143;798563731;983;7532;758696;-50;5631;299637
3;98;1572542175433;1572542180859;5426;16618885226;73611074180;1322250856;15807683;12802098487;544898;798543381;1649;4744;522072;121;5426;725951
3;99;1572542180859;1572542186518;5659;16562103782;73611073358;1262159283;13186587;12802097665;534502;798549532;1094;5652;550528;-4;5659;806070
3;100;1572542186518;1572542192232;5714;16532774280;73611074585;1263045619;13732602;12802098892;540985;798634574;980;7284;650264;18;5714;815605
3;101;1572542192232;1572542197418;5186;16422834528;73611073605;1301293434;10001200;12802097912;528251;798608452;762;6507;672568;-10;5186;742091
3;102;1572542197418;1572542203057;5639;16438910296;73611074085;1276966710;10510222;12802098392;530834;798606213;808;8708;844800;-8;5639;808529
3;103;1572542203057;1572542208949;5892;16448722518;73611074419;1283562163;9780832;12802098726;543430;798626709;1459;8454;881976;-30;5892;732363
3;104;1572542208949;1572542214729;5780;16491121356;73611075268;1258337784;12843917;12802099575;535206;798608007;1304;5045;574272;21;5780;803426
3;105;1572542214729;1572542220844;6115;16514728242;73611075940;1296356986;13150452;12802100247;548322;798586673;1112;5940;651968;10;6116;872027
3;106;1572542220844;1572542226512;5668;16490674596;73611074175;1274782930;11163808;12802098482;541606;798546615;864;7639;666232;0;5667;808647
3;107;1572542226512;1572542232289;5777;16525697806;73611074512;1270363786;13024511;12802098819;535214;798554915;904;8242;786104;-5;5778;821754
3;108;1572542232289;1572542237948;5659;16477164924;73611074095;1286469733;12341410;12802098402;531591;798590533;917;8322;809256;-3;5659;803523
3;109;1572542237948;1572542243665;5717;16619092692;73611074170;1268222490;16192735;12802098477;543792;798449468;1566;5285;686728;12;5716;673541
3;110;1572542243665;1572542249348;5683;16584241178;73611074611;1248895467;16184854;12802098918;544317;798622362;1246;5343;505080;-10;5683;813420
3;111;1572542249348;1572542255220;5872;16667685288;73611074287;1269114181;17883571;12802098594;532557;798523557;984;6777;702616;9;5872;836309
3;112;1572542255220;1572542261203;5983;16613788804;73611074556;1276028870;16353937;12802098863;548117;798623670;873;7711;760936;-9;5983;853428
3;113;1572542261203;1572542266659;5456;16410158662;73611073618;1275428263;9263370;12802097925;531921;798579006;912;7741;799272;-63;5456;709153
3;114;1572542266659;1572542272401;5742;16435435934;73611074454;1317937829;9878656;12802098761;534877;798609669;2409;7024;717496;43;4998;323722
3;115;1572542272401;1572542278606;6205;16472285750;73611073706;1263832656;11279150;12802098013;538032;798588600;1337;5380;611720;42;6205;875767
4;60;1572542833202;1572542840414;7212;16454220002;73611083903;1275005212;11437636;12802099713;537409;798543882;1550;6952;638152;18;7213;1034609
4;61;1572542840414;1572542845855;5441;16499607606;73611073650;1278017583;10921523;12802097957;541510;798546920;788;6139;662488;-20;5441;780019
4;62;1572542845856;1572542854763;8907;16539074618;73611089971;1264201090;17501881;12802105742;546615;798599646;1366;12944;1172600;22;8908;1271055
4;63;1572542854763;1572542860032;5269;16501604010;73611073728;1279376787;11600974;12802098035;524871;798510806;1177;7126;758880;-10;5269;861629
4;64;1572542860032;1572542865830;5798;16561854852;73611074743;1274409000;13166502;12802099050;547072;798401994;1135;5959;718408;-15;5797;831894
4;65;1572542865830;1572542871833;6003;16583955894;73611075063;1249766120;15448809;12802099370;533373;798541237;1273;5979;553064;9;6004;864511
4;66;1572542871833;1572542878045;6212;16507455836;73611075538;1297692896;15071034;12802099845;545500;798671387;988;7360;758888;4;6212;882767
4;67;1572542878045;1572542884554;6509;16444798914;73611077185;1261371356;12861732;12802101492;551520;798613779;1038;9257;851720;-12;6509;923507
4;68;1572542884554;1572542890077;5523;16431145286;73611074410;1266210274;10191015;12802098717;548325;798563733;1094;7487;769048;140;5523;849171
4;69;1572542890077;1572542895757;5680;16382418224;73611073705;1254147972;7841306;12802098012;538755;798561520;1275;6425;721856;-138;5680;878867
4;70;1572542895757;1572542901035;5278;16411161536;73611073889;1271624302;7166958;12802098196;537370;798424969;1120;4028;466976;0;5278;755498
4;71;1572542901035;1572542906162;5127;16548644626;73611073554;1305414456;13568718;12802097861;529538;798539513;973;5937;532272;21;5127;726846
4;72;1572542906163;1572542912190;6027;16545297138;73611074183;1252764851;15026104;12802098490;544162;798573155;881;7832;745760;-17;6028;864998
4;73;1572542912191;1572542918163;5972;16494256122;73611074492;1257796375;12994241;12802098799;540098;798643067;899;8335;846048;7;5973;853312
4;74;1572542918164;1572542924105;5941;16503368420;73611075347;1278910142;12910898;12802099654;552951;798685473;1515;9016;883960;-11;5941;998991
4;75;1572542924105;1572542930287;6182;16533003208;73611083897;1259068962;13488898;12802100155;525960;798641887;1229;6075;708232;19;6183;891481
4;76;1572542930287;1572542935725;5438;16641613484;73611075134;1303549582;16275735;12802099441;537294;798657599;1407;4118;525776;-79;5272;485976
4;77;1572542935725;1572542941521;5796;16520817464;73611073975;1278165024;14217766;12802098282;543660;798633595;1016;6817;649680;61;5795;727778
4;78;1572542941521;1572542947332;5811;16537516360;73611073711;1292881909;13870606;12802098018;526863;798554717;1046;7003;761464;-106;5811;510611
4;79;1572542947332;1572542953080;5748;16505243498;73611074719;1262287594;13102122;12802099026;543031;798559383;2432;6026;736064;123;5063;135348
4;80;1572542953080;1572542958665;5585;16534381448;73611073902;1277436968;13124727;12802098209;538021;798556639;1558;4859;503712;0;5585;854961
4;81;1572542958665;1572542964394;5729;16552426318;73611073480;1271571791;15324664;12802097787;534529;798544218;1566;3923;447936;-1;5728;1138847
4;82;1572542964394;1572542969818;5424;16469240190;73611074105;1275297949;11120486;12802098412;533939;798568033;1106;4119;445680;-2;5425;779179
4;83;1572542969818;1572542975607;5789;16544872132;73611074498;1269325964;13543692;12802098805;539393;798620693;814;8502;707416;8;5788;823246
4;84;1572542975607;1572542980617;5010;16590953528;73611073653;1268162092;13138454;12802097960;532777;798602791;1089;4648;713480;-143;4726;458818
4;85;1572542980617;1572542985999;5382;16759820194;73611074068;1136241630;16770465;12802098375;535729;798447903;1955;5226;642704;11;5341;93922
4;86;1572542985999;1572542991680;5681;16562535212;73611073971;1264100341;13774836;12802098278;530904;798620613;2408;6248;723488;-20;4851;86625
4;87;1572542991680;1572542997333;5653;16422055326;73611074234;1264738686;8615450;12802098541;537955;798443471;2412;5466;638576;128;4400;391772
4;88;1572542997333;1572543003000;5667;16420420418;73611074892;1255922319;10034567;12802099196;540755;798563989;1145;4796;508208;7;5668;814047
4;89;1572543003000;1572543008871;5871;16505148306;73611074314;1263927412;12233304;12802098884;545660;798543505;1157;6828;609048;-5;5871;837191
4;90;1572543008871;1572543014091;5220;16575059530;73611073000;1258225293;14755494;12802097946;522925;798623437;709;5622;660648;-61;5220;619725
4;91;1572543014091;1572543019386;5295;16564806972;73611073111;1285681682;13737082;12802097418;533454;798623921;970;6730;732184;-44;5295;336589
4;92;1572543019387;1572543025702;6315;16577860394;73611074713;1254026717;16332738;12802099020;537472;798636547;1819;7400;784024;-31;6140;158951
4;93;1572543025702;1572543031181;5479;16600407028;73611074012;1261067007;14580292;12802098319;535790;798454247;1684;5099;521536;128;5309;716384
4;94;1572543031182;1572543036553;5371;16453614686;73611074096;1273010526;8984350;12802098403;537154;798545074;1068;5538;530504;20;5372;769243
4;95;1572543036553;1572543042608;6055;16419918762;73611075334;1320139887;10802293;12802099641;538875;798574653;1020;7685;700624;4;6055;858270
4;96;1572543042608;1572543048088;5480;16430693854;73611073798;1270850358;8394343;12802098105;528797;798525080;804;6961;724992;-4;5480;781565
4;97;1572543048089;1572543053626;5537;16428839216;73611074322;1291229985;9275350;12802098629;537190;798553386;857;8460;924768;-103;5538;695597
4;98;1572543053627;1572543059266;5639;16423045352;73611073496;1253697575;9294797;12802097803;536083;798508276;1455;7120;743184;93;5484;327100
4;99;1572543059267;1572543065450;6183;16428522688;73611076082;1269401829;11034783;12802100389;539917;798678320;1364;5457;533808;-4;6184;882712
4;100;1572543065450;1572543071413;5963;16458251938;73611074762;1257995382;11213605;12802099069;542657;798653679;1087;5878;645200;3;5963;852490
4;101;1572543071414;1572543077189;5775;16485961132;73611074115;1354400796;13718289;12802098422;533928;798608421;822;8123;713128;10;5776;823954
4;102;1572543077189;1572543083320;6131;16652382298;73611076088;1227638895;17272752;12802100395;543159;798581102;993;8910;864088;-1;6131;874670
4;103;1572543083320;1572543088842;5522;16527192408;73611074457;1320144073;12844912;12802098764;532966;798626208;1121;6617;785824;40;5522;553108
4;104;1572543088842;1572543094546;5704;16551118158;73611074134;1262413705;13970283;12802098442;538732;798533276;1395;5387;559640;-51;5704;814681
4;105;1572543094546;1572543100268;5722;16574630144;73611073767;1262748175;14847667;12802098074;531338;798522106;1248;5539;547304;7;5722;820036
4;106;1572543100269;1572543105424;5155;16516065018;73611073157;1318873202;11673047;12802097464;523935;798528322;876;6175;592696;-12;5155;736167
4;107;1572543105424;1572543111384;5960;16511447038;73611073504;1274861018;12856182;12802097811;548032;798538572;837;8200;800864;27;5961;850383
4;108;1572543111384;1572543116999;5615;16535709026;73611074213;1293218796;13616640;12802098520;546586;798335202;932;8823;937368;-96;5615;735687
4;109;1572543116999;1572543123151;6152;16565219568;73611074893;1278279029;15313122;12802099200;542498;798641041;2280;6913;773576;68;5480;463458
