0;0;1573836943595;1573836968954;25359;48206382784;64214689461;2441703178;1124363687;12228193888;117780961;930449623;0;0;0;0;0;0
0;1;1573836969365;1573836990622;21257;49809147716;58101225612;2186753519;1172497653;11196705376;94047900;748118995;18;0;5568;0;13;13
0;2;1573836991125;1573837009255;18130;47625808674;57934525446;2141696404;1139484608;11164735601;92624191;738104700;97;58;20320;0;238;2153
0;3;1573837009807;1573837027874;18067;48460417236;57894911557;2102967068;1095858772;11157697596;92679451;727660807;61;36;11776;0;134;707
0;4;1573837028210;1573837046230;18020;47481670320;57922534343;2099348907;1098307257;11161905907;92630475;726780803;21;0;5592;0;24;26
0;5;1573837046812;1573837064660;17848;48000875082;57886908573;2079476451;1075231479;11157567280;92311148;726890541;62;22;13168;0;128;537
0;6;1573837065005;1573837083070;18065;47496039932;57915057286;2078020401;1091468472;11161862413;92199887;727237245;19;0;4672;0;13;16
0;7;1573837083550;1573837101809;18259;48379555574;57892686722;2094329052;1099822467;11158009813;91928451;734111134;90;26;12424;0;145;1030
0;8;1573837102303;1573837119884;17581;47502121124;57916368631;2093145424;1098046153;11162531822;92925611;730487269;20;0;5576;1;18;21
0;9;1573837120377;1573837137698;17321;47600842820;57885380495;2081189239;1077336183;11157181118;92216161;732056302;75;32;14208;-1;152;752
0;10;1573837138144;1573837155379;17235;47526428956;57913300793;2086812904;1098216820;11161580350;92163832;730256918;61;26;10872;0;159;848
0;11;1573837155867;1573837173460;17593;48371841372;57890316805;2095104471;1091726954;11158154266;92258504;723186586;19;0;5560;0;15;15
0;12;1573837173928;1573837191688;17760;47278027184;57934185134;2088558062;1084613263;11169076383;93087693;721660956;87;30;15288;0;161;911
0;13;1573837192168;1573837210402;18234;48004717802;57884162117;2064058956;1086264287;11156860972;92472528;721312654;24;0;4720;0;13;20
0;14;1573837210801;1573837228837;18036;47742498882;57913366756;2090250635;1105185141;11161757906;92455771;725218608;52;30;12096;0;125;511
0;15;1573837229310;1573837247311;18001;48331447698;57883671649;2072057318;1092235243;11156736705;92472618;724877998;21;0;5584;0;16;20
0;16;1573837247848;1573837265699;17851;47047915708;57913052063;2076885673;1081944010;11161729767;92659063;723382508;78;20;13088;0;117;740
0;17;1573837266212;1573837284260;18048;47995144144;57882435949;2067893073;1091758546;11156512002;92336288;724483227;81;20;13304;0;136;909
0;18;1573837284758;1573837302646;17888;47496388288;57911907753;2080502413;1100045824;11161484997;92545724;724816615;19;0;3776;0;12;17
0;19;1573837303266;1573837320923;17657;48375307412;57905169614;2081084121;1098148525;11164490830;92047011;725823932;85;22;13632;0;130;899
0;20;1573837321320;1573837338873;17553;46815317706;57911263602;2081713840;1076786736;11161302178;92778117;723357319;20;0;5576;0;16;19
0;21;1573837339304;1573837357621;18317;47817771080;57882467979;2075425311;1085885130;11156589539;92095072;725480321;64;26;12512;0;131;693
0;22;1573837357997;1573837376172;18175;47507276822;57911926500;2085501917;1097064261;11161471941;92361245;726095153;14;0;3264;0;9;12
0;23;1573837376742;1573837395142;18400;48573444742;57883514942;2072867738;1097830702;11156931555;92359699;727882251;71;26;12552;0;140;707
0;24;1573837395669;1573837412758;17089;46799812214;57912651913;2084776607;1070852285;11161724953;92403529;728268748;67;20;13456;0;107;534
0;25;1573837413239;1573837430581;17342;48269880082;57881920793;2079819046;1089378537;11156428047;91895026;726998881;17;0;3736;0;12;17
0;26;1573837431043;1573837448938;17895;47231459316;57911303487;2085017032;1095414850;11161357956;92490350;729536657;49;32;12656;0;125;315
0;27;1573837449536;1573837467677;18141;48522505780;57883255739;2086274539;1100340729;11156885425;92372333;731724853;512;32;57168;0;1903;2681
0;28;1573837468261;1573837485481;17220;46905997284;57911430401;2070150862;1072736620;11161399560;92273618;727504658;25;0;5624;0;16;23
0;29;1573837485859;1573837503710;17851;48312516900;57881692282;2064410551;1093563663;11156378279;92067008;727644720;143;36;14384;0;279;2142
0;30;1573837504082;1573837521828;17746;47517509086;57912203898;2088007296;1100171466;11161686749;92137358;732272729;15;0;4184;0;12;15
0;31;1573837522352;1573837540037;17685;48194224926;57882247667;2069266603;1092773144;11156551424;92585518;727502196;89;36;15488;0;161;1063
0;32;1573837540508;1573837557303;16795;47208199034;57912823458;2077338034;1096400643;11161755883;92553905;728532966;19;0;5112;0;14;16
0;33;1573837557775;1573837574952;17177;48018820380;57903316938;2079225308;1091329819;11163945783;92097064;729057309;49;34;12368;0;124;290
0;34;1573837575376;1573837592754;17378;47367131860;57911338834;2081501168;1101430197;11161367562;92935709;725880336;23;0;4696;0;23;36
0;35;1573837593239;1573837610459;17220;48376059750;57909772660;2085692137;1098533909;11164465548;92346867;732070811;68;30;11648;0;114;630
0;36;1573837610900;1573837628343;17443;47390079410;57911483075;2081756293;1095110841;11161349637;92187512;731654094;18;0;5104;0;13;16
0;37;1573837628789;1573837647023;18234;48251229896;57881825791;2064501291;1093110205;11156411840;92045733;729531425;58;28;13616;0;114;421
0;38;1573837647408;1573837664908;17500;46810151204;57937510522;2080333551;1073229094;11168853671;92544248;728732955;70;32;13544;0;133;624
1;0;1573837839556;1573837863849;24293;44525710958;56955489408;2381370681;1117640783;11123356955;109384302;876102757;0;0;0;0;0;0
1;1;1573837864316;1573837883789;19473;47751757034;54986431650;2240878414;1164266386;10638563270;97991778;773324158;118;3;73088;0;478;11555
1;2;1573837884225;1573837902025;17800;46860738160;54758797160;2206403131;1167708549;10593099367;96155312;767753269;126;48;19248;0;243;2356
1;3;1573837902418;1573837920402;17984;47081414386;54722115305;2106341014;1100576722;10586717140;96254683;752004567;24;0;5240;0;59;77
1;4;1573837921001;1573837938411;17410;45892294902;54776301103;2122963202;1092687794;10600079452;96377666;749366573;77;30;14312;0;133;740
1;5;1573837938798;1573837956144;17346;46692044796;54745516202;2107583666;1092047279;10594382814;95842639;751172725;17;0;4640;0;13;13
1;6;1573837956604;1573837974030;17426;45968404994;54750373645;2118441983;1107642512;10591583758;96217045;755018878;86;30;11224;0;148;1004
1;7;1573837974610;1573837992208;17598;47161246894;54721810640;2138708640;1103914615;10586841767;96124595;755086944;87;26;13048;0;138;982
1;8;1573837992659;1573838009633;16974;45688619792;54749905833;2132077787;1082753151;10591521724;95690692;757310304;22;0;5592;0;14;19
1;9;1573838010078;1573838027606;17528;47207777970;54722459427;2125298886;1109731449;10586755685;95719473;754331076;69;28;10496;0;132;801
1;10;1573838027971;1573838044856;16885;46127987520;54749996115;2137415472;1101420832;10591591138;96565020;757686780;22;0;5584;0;16;21
1;11;1573838045396;1573838062735;17339;46556671990;54721003316;2118316514;1087804856;10586750592;95935846;752839440;78;24;13024;0;112;626
1;12;1573838063119;1573838080158;17039;46296032790;54788022887;2133598057;1106861262;10605513348;95700621;757908460;70;28;11008;0;128;1124
1;13;1573838080520;1573838098013;17493;47097832670;54719732963;2116061713;1102280337;10586435807;95605713;751015072;18;0;5112;0;12;15
1;14;1573838098576;1573838115123;16547;45613826474;54750625451;2128941801;1086515552;10591912961;95958736;753684850;73;18;12952;0;132;755
1;15;1573838115654;1573838132668;17014;47183677604;54718774181;2128983667;1106058742;10586160533;95991127;755304695;17;0;4192;0;12;15
1;16;1573838133004;1573838150628;17624;46229384958;54748097226;2131786108;1109501211;10591273398;95912204;754285167;78;18;11960;0;117;859
1;17;1573838151156;1573838168891;17735;47148837186;54719310967;2131303553;1099850861;10586466511;96257524;755275549;21;0;5576;0;16;20
1;18;1573838169463;1573838186181;16718;45906683348;54749431886;2141571275;1084919351;10591759602;96049586;753442627;72;20;12800;0;106;651
1;19;1573838186625;1573838204264;17639;46926404872;54736959642;2119136341;1105661005;10593427876;95690143;749991045;73;22;10944;0;120;691
1;20;1573838204733;1573838221791;17058;46136384856;54748677788;2115261590;1102294329;10591471620;95757516;750806773;19;0;5192;0;14;16
1;21;1573838222206;1573838240465;18259;47019383220;54740715564;2131145170;1104433173;10593607774;96807776;752520502;85;18;13032;0;111;883
1;22;1573838240976;1573838257714;16738;45503332944;54748310318;2131727410;1086116701;10591352794;95752482;751585039;18;0;5104;0;15;15
1;23;1573838258165;1573838275190;17025;47105368460;54717774756;2122191435;1101048677;10585972182;95536923;751487844;68;24;10832;0;103;670
1;24;1573838275642;1573838292077;16435;46149340604;54748004938;2141062235;1096383598;10591318262;95776270;751252492;21;0;5592;0;15;17
1;25;1573838292518;1573838309797;17279;46574702698;54719027550;2128984482;1086059477;10586447120;95737261;751344135;20;0;5568;0;13;16
1;26;1573838310226;1573838327803;17577;46153964862;54747642636;2138138089;1105849105;10591232690;95737910;753921071;73;34;11392;0;122;719
1;27;1573838328342;1573838346493;18151;47005241514;54719771314;2126182124;1104555288;10586519174;95968464;750901399;74;26;12768;0;114;720
1;28;1573838347113;1573838363637;16524;45389647416;54747482602;2132301449;1082914911;10591161648;95674095;751762009;18;0;5552;0;14;14
1;29;1573838364162;1573838381459;17297;46728411352;54717127537;2137933860;1097215709;10585863582;95687496;752384166;65;22;12256;0;149;661
1;30;1573838381860;1573838398553;16693;46210777842;54749175929;2131675699;1107288878;10591645783;95572325;752518899;13;0;3712;0;8;8
1;31;1573838399108;1573838416514;17406;46903038010;54718738694;2123795235;1090655312;10586385477;95996298;748656945;73;26;13360;0;124;652
1;32;1573838416930;1573838434366;17436;45692324542;54747340853;2122254703;1085283630;10591132799;95903915;753825153;522;28;56992;0;1944;2688
1;33;1573838434911;1573838451782;16871;46891192592;54734807785;2124972416;1104112014;10592825133;95740688;751810061;11;0;2792;0;9;9
1;34;1573838452154;1573838469108;16954;46009121182;54747326361;2135544222;1101020648;10591176726;95913252;754107721;172;24;14888;0;199;2554
1;35;1573838469532;1573838485980;16448;46732327218;54718482441;2116729532;1080834720;10586326493;96042786;751677058;20;0;5568;0;18;21
1;36;1573838486438;1573838503303;16865;46204095130;54749045336;2134542274;1103091451;10591656476;95575355;752613643;91;30;12784;0;163;1367
1;37;1573838503627;1573838521217;17590;47138118888;54718711907;2125374219;1100779045;10586370128;96052975;752290699;21;0;5584;0;15;19
1;38;1573838521837;1573838539311;17474;46020870678;54746824278;2131441388;1096464139;10591032629;96295639;752924032;99;20;13544;0;164;1290
1;39;1573838539726;1573838557277;17551;46980920396;54716995228;2119283047;1098753879;10585833764;95944672;749052842;23;0;4688;0;15;21
2;0;1573838717911;1573838743916;26005;46828092122;64772511330;2401228136;1120087404;12230560426;115360376;877498202;0;0;0;0;0;0
2;1;1573838744336;1573838764904;20568;48523710280;59065851348;2174598334;1165422198;11374807719;97028236;750652084;315;0;7960;0;185;13308
2;2;1573838765345;1573838783191;17846;46829907340;58902481330;2103478892;1131105185;11345652871;93314536;740423920;76;54;18968;0;225;873
2;3;1573838783617;1573838801989;18372;47436971836;58844660325;2057688038;1085123849;11332365197;93158403;728114144;52;32;13312;0;137;474
2;4;1573838802542;1573838820145;17603;45808860282;58875327125;2045671801;1072699544;11337725738;93759468;724969680;24;0;5608;0;14;18
2;5;1573838820568;1573838837579;17011;47318390198;58843824111;2044896817;1088425881;11332156584;92896273;725918986;76;20;10648;0;141;881
2;6;1573838838049;1573838855213;17164;46430191022;58872177412;2042943432;1089661165;11336857283;93260689;728645276;16;0;3736;0;10;16
2;7;1573838855783;1573838873604;17821;47239307546;58846857778;2052851372;1084236042;11333078278;93029313;724833857;69;26;12680;0;121;610
2;8;1573838874104;1573838892031;17927;45857875840;58872213039;2061188060;1071333993;11336915602;93276039;725609922;20;0;5128;0;13;17
2;9;1573838892587;1573838911007;18420;47400030770;58843621742;2058938800;1088765256;11332179673;92663612;725041568;53;26;10712;0;125;501
2;10;1573838911366;1573838928154;16788;46334397502;58872484844;2051813390;1083112869;11337128972;93518430;726509568;25;0;5608;0;17;22
2;11;1573838928559;1573838945420;16861;46984274600;58842098721;2036234274;1080876012;11331848079;92796164;723591236;60;22;11720;0;120;551
2;12;1573838945805;1573838963579;17774;46281554846;58892972956;2057866173;1082853145;11344368065;93100258;723904714;66;26;11656;0;154;693
2;13;1573838964055;1573838982860;18805;47710219158;58843704458;2063441074;1095016067;11332424516;93063594;724659164;21;0;5584;0;15;19
2;14;1573838983300;1573838999969;16669;45892662384;58870327353;2055302412;1069405366;11336569675;93009520;727728865;70;24;12328;0;114;634
2;15;1573839000581;1573839018169;17588;47592372046;58841596044;2069982853;1093971904;11331802580;93174562;724583044;16;0;4184;0;11;13
2;16;1573839018600;1573839035971;17371;46693222578;58870418206;2067214088;1082480572;11336663198;93143461;726288263;69;20;11872;0;119;600
2;17;1573839036341;1573839052137;15796;47178488472;58840279438;2057811343;1076653415;11331553717;92784107;727507432;18;0;5104;0;14;17
2;18;1573839052512;1573839069310;16798;46689062892;58872967388;2062462383;1086879211;11337139111;92649659;729116290;59;20;10192;0;102;520
2;19;1573839069775;1573839087321;17546;47243738208;58865789580;2047548232;1070759290;11340346541;92785943;723180708;21;0;5576;0;17;20
2;20;1573839087830;1573839104644;16814;46524305688;58892557874;2054096680;1084147991;11344185835;92600089;728097644;66;22;10768;0;123;660
2;21;1573839105023;1573839122232;17209;47066138990;58841604154;2052893380;1077295618;11331973386;92877647;724702365;18;0;5112;0;14;17
2;22;1573839122711;1573839139729;17018;46510420066;58892319105;2057992162;1085015526;11344130185;93255767;726181974;59;28;11640;0;97;504
2;23;1573839140361;1573839157885;17524;47177652476;58840733165;2058552736;1083786158;11331761177;92981892;729939272;26;0;5632;0;16;22
2;24;1573839158381;1573839175405;17024;46285184114;58869483086;2045635865;1085595323;11336525811;92742832;724881393;57;26;10296;0;128;608
2;25;1573839175882;1573839193787;17905;47463314908;58842650920;2049148791;1093798125;11332261704;92969480;725333259;21;0;5576;0;15;19
2;26;1573839194225;1573839212239;18014;46101803588;58869285526;2045384591;1081319534;11336479925;93099292;726097099;70;18;11776;0;129;673
2;27;1573839212772;1573839231003;18231;47490051158;58840450830;2027762900;1091290081;11331709208;92585584;722350040;15;0;3736;0;11;15
2;28;1573839231507;1573839248277;16770;46488581240;58869950921;2056441943;1080719462;11336660319;93482145;728451220;73;28;12768;0;165;654
2;29;1573839248838;1573839266085;17247;47445909956;58843180859;2036928937;1083689808;11332433826;93352604;724251030;93;30;13176;0;119;1102
2;30;1573839266547;1573839283610;17063;46409585750;58872865586;2040029012;1081249392;11337437849;93059227;725378981;15;0;3272;0;9;13
2;31;1573839284016;1573839301558;17542;47586433058;58842907177;2044129689;1087657347;11332443613;93051627;723759594;513;36;56568;0;1668;2533
2;32;1573839302015;1573839318755;16740;46297392780;58870191942;2061156439;1074021415;11336698141;92832352;726933140;16;0;4184;0;13;16
2;33;1573839319103;1573839336522;17419;47787560468;58885028877;2072004346;1092623249;11346916831;93015251;729141370;165;34;13440;0;204;2786
2;34;1573839337014;1573839353675;16661;46452667138;58869221891;2057075895;1084083161;11336472489;93150982;728820217;86;38;13872;0;131;1048
2;35;1573839354271;1573839371173;16902;47352327314;58840714317;2047512901;1087114225;11331809077;93208301;726281494;20;0;5576;0;23;24
2;36;1573839371590;1573839389404;17814;46615063522;58869384069;2057267095;1089684696;11336506282;92998201;726521871;62;24;10088;0;127;603
2;37;1573839389799;1573839407637;17838;47723178556;58841074856;2052230501;1085336675;11331831897;93164773;724279157;21;0;5584;0;16;20
2;38;1573839408096;1573839424354;16258;46448384958;58869672258;2056175234;1076843324;11336653156;92509533;726408802;66;26;11288;0;149;705
2;39;1573839424820;1573839442042;17222;46787529672;58840552453;2052703035;1081590588;11331727323;93139255;724017182;19;0;5112;0;20;23
3;0;1573839587607;1573839612768;25161;47375229750;64368109529;2347898504;1109386473;12227045792;112536534;980074760;0;0;0;0;0;0
3;1;1573839613278;1573839632749;19471;47625159996;58068056273;2134143910;1144282529;11152205050;92992962;743279162;352;2;74440;0;613;23960
3;2;1573839633204;1573839650007;16803;46728252358;57916913071;2111261925;1146358036;11121915587;92467672;736188469;145;44;20112;0;259;3571
3;3;1573839650428;1573839667734;17306;46377165282;57882335299;2037902950;1075185630;11116179045;92392599;719088940;18;0;4216;0;13;16
3;4;1573839668211;1573839684956;16745;45671369746;57909380870;2029236784;1079022207;11120705430;91420319;718771824;50;36;12320;0;121;412
3;5;1573839685387;1573839702339;16952;46608035228;57882380203;2032867770;1082634477;11116258727;91524039;724129223;95;14;12696;0;141;1212
3;6;1573839702727;1573839719409;16682;45266799950;57910385889;2044317753;1066638126;11121128053;91660529;720257640;15;0;3280;0;9;13
3;7;1573839719790;1573839737026;17236;46781260870;57880804814;2055996567;1087640115;11116000941;91703468;725879416;76;28;12488;0;148;803
3;8;1573839737462;1573839754793;17331;45829188884;57922042770;2052050485;1085211497;11123059269;92379940;726701586;24;0;4704;0;15;21
3;9;1573839755205;1573839772154;16949;46762112240;57865582183;2056288683;1093252959;11113895156;91808796;724213628;73;18;11232;0;151;940
3;10;1573839772693;1573839790357;17664;45573242562;57891925910;2045290262;1083570919;11118909437;91862879;728144561;16;0;3752;0;10;15
3;11;1573839790779;1573839806443;15664;46074483338;57863000208;2054172194;1057492296;11114308216;91061088;731664980;87;26;12936;0;131;988
3;12;1573839806870;1573839824265;17395;45932637768;57910296442;2055442303;1078245761;11125825602;91310427;730599087;13;0;2816;0;9;13
3;13;1573839824732;1573839842437;17705;47030836920;57865248859;2046853870;1086085836;11115094968;91670959;730323030;84;18;13032;0;140;998
3;14;1573839842994;1573839859736;16742;45330797298;57890796413;2053656189;1065072121;11118967046;91731541;731541414;17;0;4200;0;12;16
3;15;1573839860274;1573839877839;17565;46986528548;57861147191;2049058573;1083637765;11113777594;91556044;732966853;84;24;11896;0;124;858
3;16;1573839878340;1573839894678;16338;45430954174;57888531380;2053373614;1067004357;11118310347;91573358;736043465;18;0;4656;0;14;17
3;17;1573839895052;1573839912518;17466;46894340498;57861524381;2051340234;1084378752;11114096584;91218108;732213714;50;28;11224;0;91;402
3;18;1573839912943;1573839929611;16668;45625902134;57894930949;2054442060;1072469729;11120289037;91340935;733343029;20;0;4672;0;14;19
3;19;1573839930109;1573839947563;17454;46686600018;57903587282;2039146689;1083736534;11128735786;91530616;731833431;57;26;11680;0;131;534
3;20;1573839947971;1573839964631;16660;45507712506;57886383829;2046015989;1084611213;11117990432;92001883;730798050;17;0;4192;0;19;21
3;21;1573839965021;1573839981264;16243;46491975740;57860196758;2054675594;1078485493;11113997837;91730630;730078244;61;28;12760;0;102;510
3;22;1573839981606;1573839999202;17596;45644785044;57910116648;2053022890;1083117670;11125861862;91689873;732359976;19;0;3304;0;10;15
3;23;1573839999639;1573840017111;17472;46914871164;57858380018;2035168874;1078423722;11113396083;91325179;723254228;63;30;12480;0;115;582
3;24;1573840017611;1573840034819;17208;45533086284;57887554067;2035205115;1058987226;11118425794;91878779;723801827;21;0;5576;0;17;21
3;25;1573840035166;1573840053405;18239;46694197128;57858222003;2031778807;1082615589;11113375105;91261010;721091647;58;30;10120;0;109;561
3;26;1573840053728;1573840070416;16688;45280826316;57886289010;2028768266;1055102721;11118020208;91294893;724775614;22;0;5592;0;14;17
3;27;1573840070884;1573840088432;17548;46353983840;57858458091;2044716598;1074442053;11113421174;91459729;730800227;66;22;10960;0;131;685
3;28;1573840088882;1573840105657;16775;45577897188;57886476268;2051228234;1074838314;11118069512;91880776;734176118;48;28;12160;0;125;341
3;29;1573840106088;1573840122986;16898;45868968336;57858129048;2046614016;1065109239;11113365417;91643886;731141326;22;0;4248;0;11;18
3;30;1573840123347;1573840139482;16135;45557497776;57886521619;2044633632;1075544845;11118124512;91712506;734175894;550;32;61032;0;1595;2852
3;31;1573840140060;1573840157219;17159;46411037574;57858703260;2044716542;1075806132;11113473037;91969435;725987116;19;0;4664;0;14;19
3;32;1573840157691;1573840173924;16233;45213410670;57887444840;2036669579;1075242074;11118392272;91552264;727801661;130;30;13352;0;176;1615
3;33;1573840174296;1573840191509;17213;46374382960;57879592612;2040044749;1073661028;11120890230;91250554;727040639;27;0;5248;0;14;38
3;34;1573840192068;1573840208333;16265;45073377836;57888715550;2032518932;1064740702;11118843014;91436669;725916514;66;34;13048;0;136;676
3;35;1573840208784;1573840226966;18182;46696641898;57858343856;2032846076;1089002674;11113445712;91750549;724512107;16;0;4640;0;13;16
3;36;1573840227511;1573840243830;16319;45355789432;57887510602;2043707865;1071797468;11118415129;91923512;722643192;47;28;13032;0;128;323
3;37;1573840244277;1573840261797;17520;46378484246;57860170876;2041744379;1077867205;11113949857;91398135;723555411;20;0;3800;0;20;26
3;38;1573840262332;1573840279135;16803;45751140642;57885700214;2040421672;1083924618;11117866489;91976468;722245131;62;30;12296;0;128;535
3;39;1573840279592;1573840296485;16893;46399670306;57859543174;2048804347;1072053467;11113823754;91814814;722862863;18;0;4232;0;26;32
4;0;1573840442517;1573840467476;24959;46573459362;62447081247;2359279442;1101602430;11926998525;110688422;1016239270;0;0;0;0;0;0
4;1;1573840468353;1573840488401;20048;46298005104;55963111676;2150533509;1138006307;10827477795;94673385;740300100;231;2;74160;0;496;52857
4;2;1573840488912;1573840506108;17196;45491626664;55808856738;2125499046;1140083318;10796476899;93042785;734125905;107;48;17192;0;252;2341
4;3;1573840506532;1573840523983;17451;45920830018;55774660738;2062759367;1083115827;10791353090;93142081;718197361;22;0;5600;0;15;20
4;4;1573840524555;1573840541533;16978;44704278156;55798819427;2074373089;1069762618;10794730263;93121806;720288504;95;30;13512;0;152;1206
4;5;1573840542049;1573840558880;16831;45906488000;55771774260;2071558844;1082773980;10790479187;92444154;723279759;12;0;2808;0;8;11
4;6;1573840559327;1573840576252;16925;45034779816;55798394871;2071817683;1071322522;10794659496;92802317;718190918;95;24;13040;0;156;1126
4;7;1573840576886;1573840594004;17118;45541755910;55771312063;2065932780;1078495720;10790515106;92496896;721519571;79;24;11440;0;196;992
4;8;1573840594374;1573840610855;16481;44883030190;55801667134;2066714064;1081904585;10795433157;92622645;722409805;17;0;4640;0;15;17
4;9;1573840611186;1573840628300;17114;45481048964;55776612390;2071702051;1070625983;10791642812;92378686;722854724;89;22;12552;0;131;1053
4;10;1573840628850;1573840645743;16893;44923561980;55803961839;2077070589;1089377683;10795904467;92477687;724412050;14;0;3280;0;8;10
4;11;1573840646367;1573840663368;17001;45804456338;55777816766;2052153491;1069598084;10792125926;92563847;720860569;68;26;13144;0;140;607
4;12;1573840663907;1573840680550;16643;45017841334;55826291838;2066254522;1083594090;10803820955;92812609;720051153;17;0;4192;0;13;17
4;13;1573840680947;1573840698052;17105;45985903824;55776807667;2060892825;1083886947;10791754522;92558123;717979471;85;24;12344;0;164;967
4;14;1573840698509;1573840714687;16178;44936260038;55825620546;2048215728;1078122545;10803335671;92958239;716175647;26;0;5616;0;16;22
4;15;1573840715132;1573840730983;15851;45736201776;55776159248;2053747417;1081940496;10791598795;92314359;722493825;63;22;10712;0;101;555
4;16;1573840731517;1573840748635;17118;45019970890;55803502749;2066805672;1082643976;10795958216;92764561;722813009;57;26;12424;0;103;445
4;17;1573840749111;1573840766227;17116;46014598226;55774862469;2078535100;1092313749;10791351897;92537863;727887883;16;0;4184;0;12;14
4;18;1573840766713;1573840782454;15741;44987112568;55803673996;2083337480;1081892584;10796144327;92729746;724661531;76;28;11640;0;136;777
4;19;1573840783017;1573840800289;17272;45858986170;55797506653;2063013057;1082705948;10799324565;92959113;722352537;17;0;4640;0;15;15
4;20;1573840800776;1573840818386;17610;45256718066;55803146056;2095157614;1083717546;10796003285;92834585;726303882;64;18;12232;0;108;545
4;21;1573840818890;1573840835106;16216;45789943792;55774678537;2060381913;1074563328;10791379633;92099479;725650164;18;0;4208;0;12;15
4;22;1573840835624;1573840852252;16628;45151191602;55802296022;2064083084;1085441005;10795678768;92621935;722717998;63;30;12200;0;137;449
4;23;1573840852696;1573840869140;16444;45740276490;55774449150;2058894765;1084841895;10791277144;92718415;721606510;14;0;3728;0;11;14
4;24;1573840869468;1573840885644;16176;44953171948;55801513402;2078688895;1081370327;10795497965;93083469;721008102;61;30;13064;0;113;480
4;25;1573840886183;1573840903885;17702;45878435852;55775547605;2058986056;1087216031;10791693166;93022144;721421216;14;0;4168;0;10;10
4;26;1573840904272;1573840920303;16031;44895829718;55801349828;2076105765;1080449671;10795458848;92798316;724049502;58;30;11648;0;110;499
4;27;1573840920845;1573840936960;16115;45834626800;55775524626;2061970592;1082127238;10791693327;92749299;724678331;16;0;4200;0;11;12
4;28;1573840937287;1573840954298;17011;44979529620;55802900836;2082583240;1080943443;10795953476;92825237;724195293;58;28;12696;0;114;424
4;29;1573840954671;1573840971890;17219;45736927688;55774240986;2093887598;1078926110;10791250572;92789673;730030760;17;0;4640;0;14;16
4;30;1573840972334;1573840988964;16630;45025143378;55801904509;2060276594;1079239866;10795671263;92878826;723898004;506;30;55424;0;1522;2156
4;31;1573840989450;1573841005836;16386;45741043282;55776094928;2072109080;1080177579;10791819013;92557190;725813234;22;0;4240;0;13;21
4;32;1573841006164;1573841023418;17254;45258486564;55801577764;2082717483;1094573807;10795505132;92807203;726241383;146;30;13104;0;191;2357
4;33;1573841023938;1573841040146;16208;45682568384;55795669505;2078471636;1074966678;10798773069;92727734;727408187;23;0;5608;0;16;22
4;34;1573841040696;1573841057427;16731;44660192872;55801303054;2063679984;1072588113;10795451289;92320840;723330531;69;44;15032;0;181;726
4;35;1573841057862;1573841074438;16576;45743855826;55775342925;2073107288;1079617684;10791643057;92603832;724646480;18;0;4200;0;12;17
4;36;1573841074903;1573841091568;16665;44868066796;55801817770;2066670476;1078763497;10795548889;92551875;726303634;75;28;12608;0;130;750
4;37;1573841091964;1573841109237;17273;45907866240;55774319173;2065844955;1081199631;10791273795;92441870;724273545;90;24;13424;0;160;1086
4;38;1573841109712;1573841126459;16747;45147866014;55801180404;2072220723;1081735407;10795426084;92484142;727999634;15;0;4176;0;13;13
4;39;1573841127039;1573841142974;15935;45423177484;55774166192;2059922666;1079192190;10791227289;92577771;723910627;97;20;12880;0;148;1213
4;40;1573841143327;1573841158932;15605;45073389224;55822836292;2073132406;1080815733;10803010323;92360209;725626054;13;0;3720;0;8;8
