0;0;1573442301686;1573442329130;27444;47508331380;61355193035;2351975090;1093020460;11809715476;105173678;941132652;0;0;0;0;0;0
0;1;1573442329573;1573442350501;20928;48655859406;56330432981;2190741712;1130970208;10951139621;93289750;739434199;5774;2878;3205424;24;21192;489807
0;2;1573442350989;1573442368587;17598;47068564196;56171558111;2154363091;1111316108;10924803360;91643410;729686846;4512;2334;2721080;-6;18086;473144
0;3;1573442369066;1573442386252;17186;47060284098;56134595154;2075571811;1049328462;10917857953;90911126;718176462;3984;3530;2626368;4;17567;831884
0;4;1573442386621;1573442403269;16648;46015026006;56181797201;2091315796;1050697245;10930605002;91236202;717321151;4731;2022;2532888;-13;16648;346213
0;5;1573442403757;1573442421088;17331;47154639518;56133431405;2088986823;1055161830;10917555772;91064941;718564307;5342;1757;2603424;-23;17427;435586
0;6;1573442421593;1573442438202;16609;46341277460;56157097873;2090126964;1056899727;10922422141;90813228;718917307;4854;2289;2517464;60;17114;517534
0;7;1573442438839;1573442456364;17525;46934848052;56133788092;2079499734;1054804590;10917732843;90289577;718241058;2500;4857;2808576;-19;18162;1232754
0;8;1573442456957;1573442473907;16950;46109251048;56166659642;2095613958;1054065971;10924278875;90678638;722573903;4751;2238;2627056;2;17308;561422
0;9;1573442474447;1573442492332;17885;47244731446;56126488705;2100385064;1059693554;10918118056;90721227;723664673;3986;3123;2741712;-22;18194;541184
0;10;1573442492843;1573442510606;17763;46622527042;56148982706;2108394198;1062741233;10922599471;91468090;721028218;3374;4197;2784504;13;18172;889325
0;11;1573442511025;1573442528283;17258;47016818292;56123943062;2096242274;1053113367;10917431351;90657051;719302015;5475;1158;2522960;-27;17224;430473
0;12;1573442528717;1573442545030;16313;46361183830;56170843419;2095459491;1055014872;10930389853;89969212;723247022;4940;1318;2491064;7;16479;350301
0;13;1573442545510;1573442562404;16894;47232606146;56124223775;2098431188;1060766669;10917551482;90573617;719840184;3738;3106;2535352;-6;17036;480314
0;14;1573442563134;1573442580204;17070;46338921896;56148103553;2107220794;1061628075;10922496808;91258037;719579578;5120;1855;2654208;20;17800;522880
0;15;1573442580772;1573442598191;17419;46961932074;56123909674;2098538681;1061913091;10917507945;90582477;722533474;3242;3503;2747552;-15;17987;579903
0;16;1573442598612;1573442615242;16630;45900880140;56148329192;2092994931;1057614041;10922674512;90165782;720407577;4247;2604;2528824;30;16766;573725
0;17;1573442615660;1573442633324;17664;46820139794;56122274312;2086724616;1061846406;10917158601;90654741;721395505;4323;2684;2814536;-20;17894;439196
0;18;1573442633713;1573442650671;16958;45964747840;56146616620;2095670893;1060273919;10922137459;91217143;720252031;3087;4197;2635392;28;17347;976110
0;19;1573442651114;1573442669043;17929;46876637706;56142516709;2093364459;1061896438;10924280612;91107155;721195881;4394;2643;2857384;-18;18143;501518
0;20;1573442669408;1573442687617;18209;46502478250;56147423619;2097408435;1067253572;10922408285;91005357;721896173;3626;3705;2869264;-4;18386;576425
0;21;1573442688156;1573442704837;16681;46937259972;56121302637;2095949198;1059028104;10916788805;90978582;720112774;4373;2565;2613376;13;17147;543653
0;22;1573442705188;1573442722073;16885;46095824742;56145108510;2098967720;1058387509;10921672058;90642974;720311044;2421;4462;2748344;-13;17236;653074
0;23;1573442722624;1573442740516;17892;47157378040;56121122106;2085991144;1059242980;10916811683;90395836;716219399;3864;3524;2894296;9;18443;668324
0;24;1573442741053;1573442758387;17334;46300723916;56145748848;2087239176;1062387951;10921895264;90686464;714285335;3859;2910;2787376;-34;17855;521988
0;25;1573442758820;1573442776157;17337;47177864030;56120763612;2089817218;1062854342;10916707322;91020856;718116085;3618;3247;2727296;17;17744;618672
0;26;1573442776574;1573442794012;17438;46612040154;56145097198;2081591340;1061976433;10921664617;90631912;714791306;4554;2590;2733624;12;17855;509977
0;27;1573442794717;1573442812754;18037;47086952604;56121161749;2100607212;1064046581;10916810074;91232701;719501221;3877;3188;2900288;-9;18743;587390
0;28;1573442813110;1573442829620;16510;45826258810;56147850204;2088886957;1042901028;10922593651;90015103;720540671;3916;2310;2259856;-4;16866;1128741
0;29;1573442830128;1573442847552;17424;47288382088;56121481990;2095434742;1062882798;10916868408;90988195;720176219;4961;1954;2703400;39;17796;551066
0;30;1573442847944;1573442864833;16889;46631510276;56147784105;2095719091;1061728197;10922587368;90519661;719888704;3173;3416;2637360;-31;17281;621745
0;31;1573442865294;1573442882312;17018;47229161568;56145496473;2093859394;1063971320;10924877870;91012473;718634654;4523;2224;2626992;-4;17157;534197
0;32;1573442882889;1573442899617;16728;45996242230;56145867227;2092459483;1054558804;10921858247;90180976;719700097;4927;1586;2587704;2;17305;444776
0;33;1573442900024;1573442917522;17498;46835254152;56142602131;2099201113;1060175283;10924345942;90730282;720673002;4007;3183;2686184;1;17618;674330
0;34;1573442918031;1573442934823;16792;46132233492;56145250668;2083355194;1054352708;10921756174;90274517;719526521;4949;1477;2567880;6;17163;383715
0;35;1573442935273;1573442952405;17132;46802006886;56144633636;2094505407;1053584999;10924703222;90538141;718730068;3522;3336;2680744;-14;17542;648373
0;36;1573442952852;1573442970148;17296;45923938066;56145061340;2104803736;1062039093;10921668533;90905314;719836729;5099;1828;2640448;47;17555;513665
0;37;1573442970533;1573442987951;17418;46842780452;56122579796;2096249046;1055572200;10917239961;90418908;718452958;3912;2810;2634560;-52;17497;482679
0;38;1573442988337;1573443005012;16675;45912820020;56167631720;2100647023;1057009359;10929225791;90863311;720992412;4349;2329;2586768;1;17057;453866
0;39;1573443005460;1573443023712;18252;47082432882;56120695072;2095073194;1061365518;10916677049;90603503;718002155;3816;3430;2889064;10;18699;541646
1;0;1573443184042;1573443209829;25787;46104140756;59830762804;2363948466;1101677980;11588567254;104002268;841732920;0;0;0;0;0;0
1;1;1573443210403;1573443230917;20514;47578807624;56308577234;2231675726;1137854492;11087417395;92331660;774600167;4573;3876;3352736;-35;21088;682995
1;2;1573443231485;1573443248895;17410;46360178766;56162211073;2190607114;1129132311;11056678311;90454993;767712589;3463;3863;2700744;6;17978;625528
1;3;1573443249298;1573443266951;17653;46359354888;56117584725;2103383545;1065302615;11047833745;90766965;748381127;4128;3122;2727440;1;17899;662671
1;4;1573443267353;1573443284814;17461;45503021088;56150942226;2114117939;1062977369;11055129764;89906080;747827400;3354;3784;2726576;-4;17863;589077
1;5;1573443285227;1573443303548;18321;46791116308;56118589696;2107146487;1066566040;11048088456;90548985;745876892;2919;5345;3002896;32;18734;1063265
1;6;1573443303899;1573443321319;17420;45416176200;56147717112;2120966278;1068615107;11054245781;90496938;750212603;4378;2265;2687704;-32;17724;485739
1;7;1573443321854;1573443338944;17090;46344273964;56138990785;2110532037;1057073752;11055182917;89947557;751595668;3876;3275;2670576;-11;17625;678575
1;8;1573443339484;1573443356782;17298;45627849336;56148003230;2118286328;1068860988;11054479959;90791153;751527102;3906;3483;2805056;30;17788;595359
1;9;1573443357218;1573443374226;17008;46297872244;56115116141;2116357359;1065894820;11047383235;90141699;750502690;3904;2800;2657600;-52;17443;532676
1;10;1573443374594;1573443391891;17297;45565600338;56145828279;2115418813;1071151740;11053867178;90721947;751991536;4214;2692;2638072;31;17607;598944
1;11;1573443392358;1573443408884;16526;46454238828;56115601909;2121223826;1067876667;11047730494;89839799;754055865;4512;1875;2493152;2;16628;369456
1;12;1573443409376;1573443427020;17644;45714367038;56164933400;2143789638;1074925079;11060668431;91270689;757038444;3842;3443;2793896;-20;18115;648639
1;13;1573443427446;1573443445741;18295;46660503102;56116724760;2137350650;1072253478;11047792920;90192934;752791012;4935;2485;2779768;-5;17958;499646
1;14;1573443446135;1573443463084;16949;45729502420;56145224970;2133034174;1066912829;11053828681;90274472;754005658;4665;2330;2590568;45;17241;438124
1;15;1573443463552;1573443480248;16696;46164102810;56114141356;2114340463;1061466044;11047279285;89672778;756720542;3108;3373;2636184;-21;17164;667044
1;16;1573443480638;1573443497106;16468;45230901324;56145247036;2129497225;1072050540;11053895773;89777871;758244379;4287;2680;2539016;13;16687;564735
1;17;1573443497509;1573443515798;18289;46168206724;56113248498;2129025191;1072315860;11047113379;90391327;756912068;2635;4621;2995816;-31;18692;681957
1;18;1573443516148;1573443533254;17106;45256010988;56146243676;2127598327;1070693079;11054253162;90263952;754699108;3971;3057;2635304;50;17431;664828
1;19;1573443533798;1573443551749;17951;46747229146;56135301974;2136661518;1079634031;11054810897;89778317;757196658;3138;4182;3015816;-31;18495;833402
1;20;1573443552237;1573443568584;16347;45207397076;56171367619;2129874743;1067075433;11062566440;89828943;758916456;4255;2341;2539712;-5;16835;500242
1;21;1573443569124;1573443586096;16972;46245729074;56115862457;2128416467;1072293303;11047967530;89860773;755496822;4448;1931;2656696;5;17512;486975
1;22;1573443586717;1573443603562;16845;45137232980;56147807937;2119770918;1065155793;11054718676;89719136;752875647;2741;4476;2672912;-3;17466;814117
1;23;1573443604066;1573443622039;17973;46248115298;56114142355;2129656690;1076255717;11047425592;91035991;753781801;4174;3478;2881168;34;18449;656984
1;24;1573443622403;1573443639418;17015;45651237222;56145577328;2139344912;1079351944;11054066936;90965454;755822900;3219;3337;2717680;-31;17379;596492
1;25;1573443639861;1573443657073;17212;46147805852;56115540839;2115310825;1064434295;11047914366;89677920;756126760;3674;3465;2668960;18;17655;560807
1;26;1573443657498;1573443673709;16211;45245583522;56145760515;2121854819;1072462276;11054131393;89606142;755975865;4330;1825;2490552;-50;16417;392899
1;27;1573443674140;1573443691191;17051;46532014342;56114303208;2131989039;1071310606;11047518365;90247365;754105834;3619;3352;2612256;38;17272;615253
1;28;1573443691569;1573443709215;17646;45437376568;56145720043;2131030772;1072614936;11054132998;90712141;754995150;4226;2541;2833880;-8;18024;542557
1;29;1573443709572;1573443727189;17617;46443039606;56114285853;2128034765;1069624411;11047559093;90273068;755693503;2919;4377;2763344;4;17975;755432
1;30;1573443727757;1573443744510;16753;45205919994;56146553010;2123958253;1069300039;11054442755;89750484;754369346;4616;2430;2647536;-4;17320;485236
1;31;1573443744956;1573443762420;17464;46496740888;56115611932;2128856490;1070831537;11047927024;90525464;749089907;3644;3163;2741176;4;17910;569402
1;32;1573443762924;1573443779475;16551;45428501666;56168781417;2120095776;1066571405;11061835852;89669527;753187336;4391;2723;2494920;37;16800;713875
1;33;1573443779959;1573443798367;18408;46702076164;56134263180;2129000748;1072563423;11054578237;90596295;751084020;2260;5306;2953032;-24;18892;2480724
1;34;1573443798812;1573443816218;17406;45552133882;56146278697;2136903382;1072090752;11054287535;90757001;751942259;5098;1959;2745080;21;17588;597740
1;35;1573443816776;1573443833963;17187;46032618422;56113776699;2120195246;1069147075;11047408588;90291321;749491854;2700;4181;2752432;-40;17745;854985
1;36;1573443834443;1573443851202;16759;45291866836;56147271045;2142075167;1077446315;11054616888;90173051;751881662;4111;2774;2603312;12;17130;555897
1;37;1573443851713;1573443869506;17793;46206826060;56115501782;2118009252;1068992091;11047952799;90414622;750996455;3655;3490;2874112;-7;18304;628969
1;38;1573443870155;1573443886631;16476;45379357336;56145236988;2143772645;1073331765;11054038959;90892770;753022435;4250;2394;2558200;2;17107;535939
1;39;1573443887113;1573443904501;17388;46193152868;56114013993;2124255654;1073721931;11047455102;89833152;751221076;4101;2751;2766392;-12;17532;497357
2;0;1573444050931;1573444082056;31125;53067908742;66513132954;2632821070;1139516990;12923716128;156842880;1098321513;0;0;0;0;0;0
2;1;1573444082445;1573444104803;22358;51871954268;59724326101;2252308835;1158909455;11830673715;122568772;780047257;5539;3574;3420616;15;22465;755842
2;2;1573444105273;1573444124266;18993;49950685956;59496111503;2200218193;1127668922;11803208616;120712415;769110204;4481;2886;2952496;-22;19329;502749
2;3;1573444124853;1573444143728;18875;50163899538;59455560790;2131266439;1069846162;11794527010;120409133;752386442;4645;3140;2885024;6;19462;654330
2;4;1573444144109;1573444162258;18149;49430426344;59512207978;2145629385;1075988004;11809630262;120530621;751192995;5357;1840;2691752;25;17948;548656
2;5;1573444162701;1573444181080;18379;50309614400;59473195473;2134829118;1073198021;11797378294;120913161;749995032;4040;3236;2810488;-19;18461;547721
2;6;1573444181538;1573444200776;19238;49334678522;59501547704;2140899348;1074912890;11804548897;120917928;750325087;4461;3204;2979488;-19;19694;664234
2;7;1573444201247;1573444219841;18594;50337639538;59469518522;2124313359;1073851589;11797176780;120289101;752726590;5773;1761;2820264;46;18804;481381
2;8;1573444220294;1573444238298;18004;49286507866;59500482323;2129682717;1068288153;11804322802;119695898;754737200;2754;4601;2827376;-32;18268;710539
2;9;1573444238793;1573444257974;19181;50447223196;59468458571;2122635948;1069963665;11796984112;120025521;749603586;4436;3904;3018472;5;19676;718229
2;10;1573444258490;1573444276760;18270;49447761946;59502966571;2131735932;1077120855;11805197035;120042972;752500638;4812;2063;2850592;-13;18191;464979
2;11;1573444277438;1573444296033;18595;50171450950;59470762586;2136278536;1073769159;11797829073;120353109;753922041;4257;3579;2818872;7;19273;778951
2;12;1573444296497;1573444314629;18132;49229363904;59544095051;2141961312;1077150605;11819344576;120065769;755020721;5437;1262;2700536;10;18415;419058
2;13;1573444315275;1573444334801;19526;50593928230;59470748060;2132208480;1079446494;11797790246;120488378;752621496;5214;2695;3105344;-4;19673;587236
2;14;1573444335255;1573444352689;17434;49033039018;59501959193;2132221355;1068783032;11805020781;119643759;754854801;4895;1621;2578048;-23;17524;378671
2;15;1573444353173;1573444371298;18125;49960681262;59468674979;2129190132;1075194973;11797263550;120094100;751883173;3929;3584;2798768;21;18609;699355
2;16;1573444371731;1573444390342;18611;49231393888;59522022232;2140372297;1077741846;11811780744;120341168;748576375;4524;3509;2955040;65;19044;631763
2;17;1573444390766;1573444409275;18509;50202163802;59466413622;2122971876;1073446306;11796644666;119919834;747551239;2702;4632;2989528;-69;18933;1237255
2;18;1573444409692;1573444427972;18280;49113077094;59498934370;2133945624;1076600728;11804168250;120473850;747719435;4515;2871;2808480;30;18697;651803
2;19;1573444428565;1573444446981;18416;50279362616;59487573499;2128031160;1071659760;11804138582;120030020;751264891;4445;2717;2906976;-52;18813;531096
2;20;1573444447641;1573444466494;18853;49632321568;59500733739;2118140790;1069460848;11804824484;118937173;745001689;3266;4979;3018024;73;19507;1050680
2;21;1573444466936;1573444485472;18536;50553788596;59467464340;2121666876;1075332539;11797054367;119668939;746436657;4022;4014;3079256;-72;18978;751799
2;22;1573444485887;1573444504487;18600;49510315938;59499903626;2139001586;1081042394;11804506562;120991372;749227358;5326;1577;2837920;20;18972;402480
2;23;1573444504894;1573444522613;17719;50033499784;59466002143;2136993400;1071853217;11796571601;119913448;749335513;5247;1525;2620368;5;17864;387787
2;24;1573444523029;1573444541421;18392;49060345982;59499099076;2139407123;1074380573;11804318899;119512684;754091923;4865;2157;2845200;-3;18209;432315
2;25;1573444542035;1573444560354;18319;50164706334;59467244657;2147703903;1075133224;11797018951;120324238;752855988;3711;3701;2891552;-14;18863;587171
2;26;1573444560919;1573444579120;18201;49085964164;59499641677;2137439104;1076695245;11804512401;120390698;750815180;4826;2469;2792080;28;18766;592846
2;27;1573444579626;1573444597793;18167;50108332668;59465624210;2147777091;1074542321;11796505202;120234465;753497193;4063;2659;2799664;-19;18574;457948
2;28;1573444598185;1573444615632;17447;49067684088;59499092086;2139325751;1075760895;11804313806;119838680;751658330;5032;1657;2647208;4;17207;504747
2;29;1573444616028;1573444634956;18928;50092224926;59489736593;2139493342;1080216296;11804563099;121091497;749562058;5284;1755;2899816;5;19106;427455
2;30;1573444635355;1573444652794;17439;49203567602;59497399952;2141525235;1074287394;11803794612;120189231;749716692;3813;3406;2402464;111;17817;1267513
2;31;1573444653317;1573444671170;17853;50414034184;59467470110;2149123979;1075172353;11797113995;120399248;758197121;3861;3105;3009800;-113;18242;1220703
2;32;1573444671549;1573444689782;18233;49778171188;59499400321;2146059794;1081566435;11804371902;120220955;754227425;4097;3112;2806136;17;18170;709150
2;33;1573444690311;1573444707711;17400;50268332024;59487312396;2134516173;1064411966;11804082846;119161482;751188030;4965;1505;2632936;-38;17482;410031
2;34;1573444708319;1573444726813;18494;49970246598;59500334774;2147758213;1078162364;11804692146;119846786;755424646;3013;4635;2925072;17;19102;1142078
2;35;1573444727510;1573444745818;18308;50335243094;59466949090;2131292936;1071209343;11796956734;119359877;755801652;4962;2618;2887016;11;19006;537634
2;36;1573444746331;1573444764807;18476;49718608298;59497750080;2129426624;1077779786;11803860572;119657018;748361474;3792;3496;2880928;-12;18988;595697
3;0;1573444914746;1573444942109;27363;47976449136;63423552466;2398501260;1106929973;12140182680;117305077;887551094;0;0;0;0;0;0
3;1;1573444942581;1573444964017;21436;50441189162;59369553738;2204279697;1136370411;11520640061;98444262;772204886;5867;3253;3269992;9;21244;723074
3;2;1573444964591;1573444983383;18792;49150586246;59218553857;2173816231;1120397772;11491033369;96485627;767820763;4674;2769;2903216;-37;19326;510978
3;3;1573444983909;1573445002280;18371;48950939130;59172754736;2105577719;1056878250;11487463300;96635772;740129617;4834;2764;2790248;35;18707;511514
3;4;1573445002659;1573445020492;17833;48094446920;59200970717;2082057102;1059036009;11491509707;95320407;744538054;4495;3472;2805112;146;18212;570676
3;5;1573445020929;1573445038681;17752;48736548204;59170646738;2075903517;1044513735;11487258790;94525532;736558102;2656;5160;2854200;-164;18093;969617
3;6;1573445039156;1573445056787;17631;48429385958;59199898218;2090471254;1058289363;11491305822;95311113;744170405;4100;3847;2764368;68;18107;862056
3;7;1573445057277;1573445074754;17477;48953540412;59168944038;2089268758;1064277684;11486784903;95620798;739766586;3496;3315;2769984;-56;17857;605305
3;8;1573445075131;1573445091762;16631;47495844146;59201577329;2088807733;1053863409;11491905340;94940856;741323286;3679;3757;2530720;38;16514;1069342
3;9;1573445092209;1573445110187;17978;48655993142;59167882194;2100340362;1059278446;11486556331;96270491;742086552;3821;3386;2899832;-34;18261;534409
3;10;1573445110652;1573445127463;16811;47612217388;59198756052;2090656612;1054983399;11491133580;95537612;739351497;3743;3196;2623184;-7;17276;751184
3;11;1573445127947;1573445146148;18201;48978343184;59169162524;2113388785;1060879121;11486963006;96223389;743360083;5089;2382;2767032;30;18685;562181
3;12;1573445146600;1573445163661;17061;47920805032;59240993018;2110713788;1063283334;11505512636;98222431;745468612;3378;3433;2617240;-27;17513;703830
3;13;1573445164117;1573445182413;18296;48938145734;59168018588;2111963883;1061098740;11486756442;95801337;745224276;4780;2287;2855752;-7;18035;464423
3;14;1573445182779;1573445200590;17811;47979801734;59198280410;2107178317;1063380111;11491116314;95910804;743865937;4534;2782;2732952;13;18177;525938
3;15;1573445201216;1573445219165;17949;48905937258;59167909159;2107862656;1067750688;11486806092;96103777;740548166;4978;1848;2777632;-25;17644;359212
3;16;1573445219552;1573445237997;18445;48026105634;59197749959;2103261478;1069106814;11491028000;96651506;736622614;4088;3191;2814120;-5;18805;636576
3;17;1573445238499;1573445257392;18893;49005503272;59164392573;2113956374;1069255807;11487089925;96832519;739256534;4492;3303;3011728;45;19334;628780
3;18;1573445257868;1573445275997;18129;48038349340;59191791929;2113722329;1068077336;11493105266;96489218;740681537;3975;3178;2905544;-22;18419;563470
3;19;1573445276772;1573445294922;18150;48990587328;59178432864;2105207583;1062682888;11494707046;95096909;739011860;3563;4651;3035960;4;18925;1035393
3;20;1573445295331;1573445312925;17594;48056960544;59192539091;2114255029;1066009466;11493409309;95484764;740002398;4828;1910;2727728;-26;18003;425916
3;21;1573445313379;1573445331477;18098;48879656528;59159949254;2110936087;1069496460;11488293204;96053470;741161791;3726;3811;2834296;1;18552;744488
3;22;1573445331889;1573445349858;17969;48165790842;59193935879;2112635843;1065048430;11493682196;96038576;740305687;3662;4362;2871432;84;18381;855463
3;23;1573445350434;1573445368696;18262;49185708882;59160339208;2105210806;1070971867;11488350366;96429458;741639836;3360;4062;3023696;-77;18662;913412
3;24;1573445369042;1573445386995;17953;48071854880;59190940931;2116065572;1064578581;11492961351;96042922;740540742;4142;2999;2742224;24;18227;606857
3;25;1573445387347;1573445404802;17455;48851056004;59162480498;2102905540;1060401202;11489177331;95338619;739427727;4694;2089;2715528;-27;17807;461793
3;26;1573445405237;1573445423296;18059;47932595700;59190727453;2101194753;1062459951;11492903097;95557775;739852970;4112;3430;2776928;19;18323;557291
3;27;1573445423881;1573445442181;18300;49146423202;59160426424;2107338179;1070255710;11488625268;96465786;739811644;5611;1836;2797376;32;18225;499610
3;28;1573445442554;1573445459873;17319;47856861412;59190902875;2103891517;1060766801;11492946012;96393140;739299296;3283;3414;2775496;-55;17692;610239
3;29;1573445460231;1573445478050;17819;48845300246;59161179643;2111308013;1061617704;11488767831;95970164;738401652;5070;2167;2710264;19;17340;552347
3;30;1573445478415;1573445495859;17444;48164358436;59213396621;2125723474;1068810821;11500489537;98193322;741170688;2800;4552;2507664;118;17809;1872895
3;31;1573445496419;1573445514294;17875;48659320336;59159762965;2099385098;1061004664;11488306453;96025568;741541393;4972;1853;2805072;-103;17745;697011
3;32;1573445514780;1573445532482;17702;48096427848;59193338052;2121770371;1070064914;11493633585;96012902;746553714;3271;4128;2835976;-20;18146;855649
3;33;1573445532952;1573445550543;17591;48676680612;59180596127;2101309848;1056342437;11495494861;95989721;741130720;5145;1891;2607712;8;17648;418705
3;34;1573445550919;1573445569238;18319;48103690618;59190438252;2106436275;1068494470;11492866166;96646067;739614196;4069;2932;2826680;3;18614;511874
3;35;1573445569689;1573445587758;18069;48781873174;59159308030;2115740768;1060961670;11488257966;95946656;745194953;3855;3483;2823104;1;18520;648996
3;36;1573445588280;1573445605280;17000;47858333676;59192419649;2110714315;1062881720;11493432888;95803215;744386661;4751;1717;2613888;-9;17192;377302
3;37;1573445605683;1573445623491;17808;48941448108;59159174909;2108026248;1065386281;11488189167;95850452;742344128;3804;3531;2783840;10;18177;588498
4;0;1573445770122;1573445793204;23082;44031501250;57281733283;2286588177;1085143292;10994767445;99753954;836488392;0;0;0;0;0;0
4;1;1573445793781;1573445812847;19066;47203476518;55417935822;2185333382;1124983035;10707156281;89906082;769874142;5722;1864;2936712;-31;19517;486490
4;2;1573445813398;1573445830847;17449;45733914686;55284361684;2157452140;1114500369;10681409672;88564410;760861918;4973;2385;2687584;-8;17637;473729
4;3;1573445831298;1573445848189;16891;46009642986;55227540093;2089766822;1053145939;10667405509;88315019;743137759;4898;1785;2601640;-22;17310;384399
4;4;1573445848611;1573445864342;15731;44900962202;55255047790;2087843060;1049059674;10672637298;87861146;748066670;4109;2267;2327536;30;15825;495290
4;5;1573445864682;1573445881774;17092;45905584698;55226863838;2083057890;1057246081;10667219467;88256147;740862940;5409;1987;2528792;41;16743;464649
4;6;1573445882213;1573445899303;17090;45322114824;55264561738;2088897294;1058769300;10673271445;87108160;748422022;2812;4516;2716400;-40;17529;786317
4;7;1573445899731;1573445917809;18078;46239705990;55246787913;2103918574;1064122866;10668777030;88822365;745161476;3989;3677;2840048;-23;18425;597658
4;8;1573445918277;1573445934797;16520;45311060726;55270903157;2107454915;1061333819;10673480843;88848562;743912726;4742;1610;2523024;16;16976;375948
4;9;1573445935382;1573445952651;17269;45998563046;55243548718;2097926056;1057941136;10668487545;88583881;743666012;3833;3487;2693280;-20;17584;605951
4;10;1573445953023;1573445969347;16324;45351417608;55270149977;2097390767;1059007474;10673351935;87971633;748331550;5293;924;2398248;26;15792;262822
4;11;1573445969917;1573445987417;17500;46087530190;55242828529;2093087112;1061775342;10668333127;89336322;742616259;4275;2903;2680936;-28;17316;673140
4;12;1573445987955;1573446004098;16143;45162467912;55291363168;2096468573;1058024999;10680840257;87791264;745028609;5063;1605;2505576;44;16668;423927
4;13;1573446004478;1573446021518;17040;46068956362;55241141100;2091023193;1063001667;10667905338;88561057;746865374;3202;3984;2703496;-45;17412;653664
4;14;1573446022057;1573446038495;16438;45318171072;55271126419;2095889072;1067369984;10673802998;88544993;744035866;4639;1728;2547872;12;16726;401163
4;15;1573446038883;1573446056712;17829;46124335038;55240958152;2092109536;1067491225;10667893293;88102244;745809815;4021;3496;2727672;7;17972;645835
4;16;1573446057057;1573446073836;16779;45140499438;55271634382;2098108509;1061459259;10673884584;88381396;751276492;4712;1885;2629352;10;17118;400812
4;17;1573446074300;1573446091042;16742;46172284066;55240651316;2090380436;1060543402;10668003129;87590532;748767887;2614;4877;2747472;-5;17206;997950
4;18;1573446091573;1573446108784;17211;45185358814;55269406037;2101667135;1067403840;10673392199;89021510;748000819;4814;2057;2674920;42;17322;494564
4;19;1573446109383;1573446126288;16905;46249216576;55260581582;2110070440;1065994668;10675042895;89058517;752241938;3912;2458;2606600;-41;16655;485332
4;20;1573446126651;1573446143795;17144;45461630380;55268195495;2102429074;1068729667;10673034358;88357770;752541204;4101;3053;2686568;32;17506;639307
4;21;1573446144288;1573446161274;16986;46203178688;55240305831;2099727111;1068827517;10667944628;87945104;746433301;3836;2827;2733880;-33;17480;541735
4;22;1573446161834;1573446178881;17047;45327946210;55268582832;2099358984;1065309509;10673145515;87497792;746879336;3173;4278;2773064;15;17607;621853
4;23;1573446179360;1573446196593;17233;46010082300;55261544101;2098317557;1069961945;10675044127;88429845;747647903;4305;2664;2732768;-26;17711;518274
4;24;1573446196970;1573446213554;16584;44698586930;55269351944;2103856461;1059759674;10673455448;88132881;748661157;3417;3637;2587248;-8;16962;562363
4;25;1573446213911;1573446230630;16719;45775536950;55239122070;2092778075;1064833825;10667566317;87955467;743958471;4906;2057;2527384;48;17075;494500
4;26;1573446231101;1573446247664;16563;44941981778;55268146738;2110034619;1065344334;10673062507;88764908;748534086;3204;3028;2580952;-23;17034;602463
4;27;1573446248148;1573446264657;16509;45948511910;55238643890;2097676521;1060242652;10667420577;87999796;746393430;4463;2240;2551056;26;16755;554876
4;28;1573446265093;1573446282270;17177;45188303488;55268158353;2101860203;1064080219;10673021393;88268488;748379205;2638;4517;2829312;-25;17613;679915
4;29;1573446282802;1573446299888;17086;45991558258;55238733202;2116645452;1064999386;10667459190;89006123;753593791;3831;3103;2685728;5;17618;707313
4;30;1573446300357;1573446317443;17086;45400633332;55269843650;2108953976;1065271704;10673505137;88972013;745627821;4124;2533;2670832;-11;17556;524306
4;31;1573446317912;1573446335956;18044;45995156428;55263579277;2107656078;1065501593;10675649021;89078066;747256318;3610;3858;2587816;114;18512;1964023
4;32;1573446336407;1573446352226;15819;44796040616;55301788799;2098066993;1053493241;10682501802;88143301;746005507;3116;3221;2698968;-111;16271;1245236
4;33;1573446352852;1573446370851;17999;46044785186;55262112570;2101773563;1065193754;10673293346;89094461;743160505;3397;4219;2927432;5;18624;733137
4;34;1573446371245;1573446388547;17302;45223118502;55272280103;2108074497;1066044745;10671982675;88350285;748435995;3832;3459;2765112;46;17696;693075
4;35;1573446389012;1573446406262;17250;45785913900;55242607452;2095154835;1062701392;10666439323;88299829;745000113;3212;3631;2820160;-50;17715;739376
4;36;1573446406593;1573446422724;16131;44778911896;55270159114;2087555541;1061872483;10671612880;87890430;748979924;4140;2269;2439968;-8;15991;489071
4;37;1573446423123;1573446440786;17663;46054990732;55239195232;2096544249;1070885094;10665544471;88975990;743787774;3978;3177;2843560;-21;18060;566666
4;38;1573446441290;1573446457486;16196;45078059618;55268373333;2102344924;1067302906;10671120550;88709581;745522715;4061;2447;2492608;25;16552;415478
4;39;1573446457982;1573446475074;17092;45926308084;55261697008;2092620608;1060039205;10673089481;88058541;743885850;4255;2524;2643840;4;17409;483577
4;40;1573446475614;1573446491744;16130;44956192104;55289842866;2100054432;1057209571;10678615278;87848122;746831831;3186;3517;2573072;-3;16670;592335
