0;0;1573407478192;1573407502137;23945;45524619014;58196692076;2406655435;1070447449;11072471927;110193707;862802708;0;0;0;0;0;0
0;1;1573407502558;1573407522137;19579;46875868286;54441150768;2173147891;1090419307;10463855706;93788374;748540800;3154;2558;2134872;-4;8774;68109
0;2;1573407522601;1573407539302;16701;46083828944;54195994438;2147006644;1086742927;10429504550;93227787;743056033;2848;1973;1905520;2;9232;125209
0;3;1573407539866;1573407556126;16260;46314780358;54152945525;2103858150;1026728562;10421811812;93537860;724705673;2702;2486;1862488;38;7463;166846
0;4;1573407556573;1573407573239;16666;45382746288;54171813506;2100889314;1033999677;10425596373;93249608;725269351;2754;1735;1838104;-38;8120;35187
0;5;1573407573795;1573407590005;16210;46040352772;54171293359;2082104582;1026492021;10428037330;93081237;719565980;2399;2603;1908344;-3;7122;179525
0;6;1573407590454;1573407607454;17000;45576691082;54169647576;2135159939;1031209309;10424550449;94652276;728010574;2949;1715;1879128;3;9278;41293
0;7;1573407607931;1573407624727;16796;46185238792;54144084050;2115376368;1026699783;10420329161;93699257;721742393;2639;2682;1930472;-2;7512;332943
0;8;1573407625128;1573407641761;16633;45673303078;54169739191;2138925960;1036244472;10424632834;94112934;726899913;2976;1533;1866208;2;8870;39439
0;9;1573407642181;1573407658652;16471;46334059220;54143345046;2127551745;1031311811;10420196776;93486484;727886205;2715;2531;1882064;0;8370;277367
0;10;1573407659109;1573407675356;16247;45291934872;54168842691;2115499122;1026435720;10424389993;93240266;724285949;2642;1830;1805024;2;7558;32458
0;11;1573407675845;1573407691729;15884;45701039136;54142854595;2074736705;1020237099;10420107499;92499713;720072833;2747;2441;1801984;79;8285;216441
0;12;1573407692136;1573407707893;15757;44910683320;54191428310;2104194402;1024350778;10432335076;92584526;723886613;2495;1823;1812352;-83;7703;103862
0;13;1573407708270;1573407725830;17560;46350130024;54144388909;2129138231;1035140996;10420686934;94032836;727161136;2609;3009;2017768;0;7577;156458
0;14;1573407726197;1573407742636;16439;45197180726;54168502352;2103875627;1029610727;10424369329;93255438;723548874;2943;1594;1893968;-1;9136;41592
0;15;1573407743038;1573407760466;17428;46586806974;54142352095;2151115444;1035892208;10420069980;94767197;732355165;2694;2814;2055776;4;7906;126275
0;16;1573407760886;1573407777797;16911;45440569588;54168273419;2145137213;1035148605;10424450493;94194452;732665295;3069;1727;1927536;-3;8938;48983
0;17;1573407778192;1573407795659;17467;46596337708;54141804290;2155538609;1040641663;10420074394;94867039;735298983;3432;2254;2081032;3;10376;237539
0;18;1573407796066;1573407812445;16379;45174489990;54167394957;2119026441;1031986591;10424261981;93615494;725686978;2593;1998;1960608;1;7386;33491
0;19;1573407812958;1573407829496;16538;46041878034;54165038879;2105889097;1032096833;10428335501;93195851;723950806;3335;2051;2037288;-5;11209;218678
0;20;1573407829998;1573407846804;16806;45297378044;54169146928;2119230046;1035733501;10424881577;94214402;726209433;2852;2489;1964432;57;7290;140601
0;21;1573407847291;1573407864770;17479;46580857620;54143386860;2152619807;1045863098;10420816610;94524999;730910404;3386;1916;2103640;-55;10313;93668
0;22;1573407865179;1573407881413;16234;45067522068;54171317794;2090913469;1028381751;10425668858;93049450;720982423;2775;2490;1972136;-2;7566;221381
0;23;1573407881843;1573407898525;16682;45713258752;54141799794;2090544739;1026202930;10420072131;93010058;721199336;3195;1656;1952288;0;9504;54162
0;24;1573407898966;1573407915433;16467;45601112794;54168245016;2167988921;1042730938;10424613442;94622136;732380792;2857;2706;1879272;4;6939;186060
0;25;1573407915859;1573407932670;16811;45884982054;54141556181;2097078704;1030252699;10420041585;92962269;725463337;3336;1612;1970928;-4;10404;60996
0;26;1573407933077;1573407949520;16443;45363811402;54167420111;2143856652;1037345079;10424352017;94424252;733549735;3098;2431;1906624;0;8116;240775
0;27;1573407949980;1573407966612;16632;46201673282;54142793756;2133047834;1033253805;10420506908;93938378;724557842;3163;1800;1895280;0;8416;47659
0;28;1573407967039;1573407983813;16774;45768155482;54169164709;2159163969;1044332015;10424837309;94470493;730960251;3167;2188;2015160;24;9515;147289
0;29;1573407984265;1573408001490;17225;46409869282;54141890932;2141513521;1034112767;10420182084;94199865;729273934;3282;2403;1897384;154;7791;61719
0;30;1573408001903;1573408018475;16572;45506369160;54167219414;2123980358;1034949320;10424301819;93874693;728835906;3560;1770;1920008;-178;10549;201577
0;31;1573408018978;1573408035336;16358;45597183058;54143195911;2086199124;1023146874;10420557882;92828346;717331781;2897;2835;1892464;28;7691;208667
0;32;1573408035754;1573408051910;16156;44752067022;54167991998;2084030530;1026323343;10424445926;92968275;716789803;3468;1679;1933224;-22;13072;554198
0;33;1573408052298;1573408068449;16151;45977532768;54164820473;2125147819;1026339204;10428187768;93574742;726867834;2668;2451;1831824;132;6100;31316
0;34;1573408068855;1573408084659;15804;44862073496;54167643789;2104054098;1024237013;10424404119;93165402;717168078;3632;1788;1840072;-128;10716;239073
0;35;1573408085185;1573408102035;16850;45924640618;54143133932;2107869232;1030349116;10420582296;93383852;723998732;3018;2737;2014632;-8;7346;145083
0;36;1573408102470;1573408119175;16705;45384730428;54167255165;2137777839;1038720432;10424313345;94017519;731044947;3427;1673;1891072;-2;9486;67477
0;37;1573408119550;1573408135996;16446;46105479284;54141971826;2104788441;1036485311;10420129335;93297675;725282848;3204;2617;1971336;3;7777;163339
0;38;1573408136389;1573408152608;16219;45070656980;54167592817;2112364152;1029876269;10424396187;93182709;728669649;3466;1408;1863968;-3;9623;63590
0;39;1573408153005;1573408169453;16448;46078805084;54143144401;2114085519;1031485084;10420732949;93341707;722315433;3161;2745;1995864;14;8038;176107
0;40;1573408169832;1573408185826;15994;45247082358;54190285547;2120502555;1033124739;10432327652;92939188;727103450;3387;1446;1868512;-14;9148;66788
0;41;1573408186238;1573408202525;16287;46666599916;54142537524;2099323452;1031328076;10420429611;92892229;720416771;3269;2273;2005208;4;8639;247745
1;0;1573408335990;1573408362380;26390;48972518514;64029056256;2526238801;1080044488;12311174969;118254577;984017513;0;0;0;0;0;0
1;1;1573408362917;1573408381728;18811;48704353744;57089059910;2218242189;1104963956;11093089890;90043160;770128376;3211;2689;2108640;14;9015;172744
1;2;1573408382162;1573408399624;17462;48104321338;56942477440;2253819323;1105807631;11063327561;91242540;775926115;2846;1963;1910120;-35;9119;48708
1;3;1573408400159;1573408417074;16915;47777302508;56905956449;2159923269;1035435184;11056868530;90095958;751986794;2658;2837;1924936;1;7516;206602
1;4;1573408417433;1573408435096;17663;46870714924;56934558377;2156220738;1043195901;11062200678;90310326;753840870;2904;1823;1965296;-2;8891;38407
1;5;1573408435512;1573408451521;16009;47435700176;56908756618;2111905595;1037994512;11057344940;88687542;745675610;2126;2592;1870480;0;6834;101015
1;6;1573408451884;1573408469359;17475;47108797124;56935475758;2158505532;1054781660;11062508348;89940613;753753583;2949;1902;2027240;0;9263;41117
1;7;1573408469790;1573408486910;17120;47643557894;56905830644;2163065021;1038122928;11056970805;89982762;755395162;3158;2199;1901104;20;9961;230351
1;8;1573408487267;1573408504477;17210;47162615498;56937122791;2180723036;1049546066;11063028608;90741576;760872209;2401;2326;1902696;-20;6644;21706
1;9;1573408504860;1573408521961;17101;47761092712;56905737958;2142965924;1039264908;11057034989;89525492;751609459;3332;1861;1986616;4;10398;180597
1;10;1573408522449;1573408538938;16489;46655958852;56932768711;2140780268;1042710186;11061791019;89177915;757587897;2602;2774;1873176;-4;7482;179485
1;11;1573408539407;1573408555883;16476;47433971682;56933598350;2140133894;1041294971;11064043633;89182853;749287782;2858;1575;1925664;0;9034;39173
1;12;1573408556353;1573408573427;17074;46611790202;56950442510;2182137367;1050419540;11068057993;89817374;759072141;2480;3026;1948504;0;7292;124970
1;13;1573408573790;1573408591669;17879;47608440368;56905240034;2168462698;1052532245;11057126587;90019538;757411813;3370;1978;2052440;0;10269;179426
1;14;1573408592071;1573408609045;16974;46839087820;56933594578;2162113013;1050612183;11062154739;89599802;757120988;2358;2778;1979552;160;6571;62655
1;15;1573408609539;1573408626220;16681;47537263470;56903355128;2156820544;1042835380;11056550477;89532410;753544611;3146;1778;1956016;-160;10205;136302
1;16;1573408626654;1573408642891;16237;46387811602;56931621107;2149453910;1041470109;11061663194;88925106;748549435;2552;2495;1932568;3;6848;119694
1;17;1573408643290;1573408659929;16639;47337136160;56901892475;2108994274;1038510884;11056199021;88293856;748772289;2930;1675;1949720;-3;9238;43847
1;18;1573408660336;1573408678099;17763;46696576928;56930946880;2159355709;1054856948;11061508857;89513053;756632933;2763;3034;2101080;0;7746;156607
1;19;1573408678534;1573408695646;17112;47536839048;56952250006;2152454910;1048351108;11070694281;89299305;749287401;3232;1711;2018600;0;9649;54277
1;20;1573408695980;1573408712203;16223;46523898348;56931007988;2135267717;1046641839;11061512017;88996089;749036119;2920;2362;1901208;0;8645;191057
1;21;1573408712610;1573408729854;17244;47740635630;56902553114;2159646119;1054316780;11056373615;89557101;754704867;3061;1940;2007128;0;8461;37199
1;22;1573408730335;1573408746739;16404;46539074756;56932234226;2163477246;1049906271;11061951447;89966104;751454331;3138;2284;1916552;2;9263;141064
1;23;1573408747303;1573408764527;17224;47595625218;56903183864;2148218724;1046844839;11056664023;89475883;750830620;2893;2461;2051752;193;7708;49952
1;24;1573408764983;1573408782723;17740;46985152644;56932904842;2173584155;1053378019;11062024429;90363115;758148272;3805;1878;2101824;-193;11027;166119
1;25;1573408783090;1573408800657;17567;47834827384;56901908461;2176170018;1051470727;11056268029;90062342;754724609;2944;2913;2027624;-2;7236;156938
1;26;1573408801012;1573408817608;16596;46706766852;56931141768;2153684488;1044429414;11061564754;89208664;749833407;3268;1580;1968544;0;9507;52947
1;27;1573408818125;1573408835696;17571;47626814468;56932877185;2146747987;1042308367;11064043160;89882946;753238182;3261;2698;2097464;22;9701;304834
1;28;1573408836127;1573408853971;17844;47049835316;56931342781;2192682904;1055083081;11061653768;90886375;761786778;3405;2149;2118576;-22;9180;66901
1;29;1573408854480;1573408871205;16725;47661471364;56902123804;2154365967;1050556578;11056283896;89194506;755964614;3459;1916;1987752;6;10123;188533
1;30;1573408871699;1573408888733;17034;46863590854;56963782801;2155999776;1055806789;11069966793;89542872;753243373;3176;2537;2038488;110;7482;192851
1;31;1573408889234;1573408907543;18309;47855823352;56902641079;2194273703;1052367167;11056475024;91456989;759790403;3966;2356;2250368;-116;15338;1548293
1;32;1573408907927;1573408925521;17594;46657590548;56961699667;2158022329;1056004230;11069225859;89982840;755184941;3178;2830;2059792;56;7775;178483
1;33;1573408925953;1573408943376;17423;47496538814;56921407674;2167857008;1049506017;11063040947;89497923;756868253;3621;1869;2069872;-56;11321;125964
1;34;1573408943741;1573408961179;17438;46554654270;56932751659;2166909991;1050989083;11062009578;90217698;754565250;3191;2964;2102336;4;8172;262186
1;35;1573408961706;1573408979033;17327;47541365924;56901805341;2145202129;1049706325;11056267284;89725726;750443085;3567;1762;2066944;-4;10169;62576
1;36;1573408979520;1573408996724;17204;46453083530;56931237886;2138377341;1043666448;11061543268;89319427;749447026;3587;2469;2071288;22;9091;204175
1;37;1573408997133;1573409013778;16645;47616012658;56901494715;2136934864;1049131100;11056147815;89195151;748420779;3109;1729;1967560;-17;8268;46654
1;38;1573409014191;1573409030625;16434;46741623476;56931719102;2150022628;1046321973;11061856841;89277274;751599144;3687;2182;1955960;3;10057;297527
1;39;1573409031041;1573409048492;17451;47622119838;56901487289;2169490282;1052562405;11056178173;89761177;753160712;3263;2085;2041376;-7;7895;44086
2;0;1573409186824;1573409211848;25024;47481470154;60990594199;2393374305;1066771584;11569397471;107881739;830759682;0;0;0;0;0;0
2;1;1573409212396;1573409232121;19725;49901332992;57490991388;2196863091;1092124555;11064484784;100365109;765074600;3263;3385;2248880;3;8998;215038
2;2;1573409232525;1573409250511;17986;49080656480;57335457558;2182441140;1092424854;11032199359;99107863;758230318;2996;2123;2050992;-16;9823;48977
2;3;1573409250933;1573409268755;17822;49645091312;57298266783;2129332696;1035384988;11024665469;99024355;747668981;2583;3069;1939128;0;7299;105415
2;4;1573409269256;1573409286847;17591;48756508886;57331450789;2136871898;1040248026;11031647790;98940467;749504550;2982;1963;1946264;1;9139;46600
2;5;1573409287288;1573409305188;17900;49439364172;57298198123;2111913590;1036588533;11024561547;98555211;746045353;3411;2651;2045920;11;10368;325459
2;6;1573409305573;1573409323221;17648;48751858348;57352035217;2124101749;1039251380;11038533962;98789615;745474243;2396;2766;1957184;-9;6655;21136
2;7;1573409323781;1573409341793;18012;49642047942;57297361974;2141618319;1043672578;11024480060;99671755;748960623;3531;2432;2030448;-2;10813;216588
2;8;1573409342225;1573409360190;17965;48819877412;57330065298;2140009380;1045483778;11031341670;99500722;749819500;2910;3234;2115288;-1;8470;243064
2;9;1573409360615;1573409378321;17706;49306881874;57296618034;2105627893;1036705182;11024306604;98573242;746652940;3118;1971;2030024;0;9580;48898
2;10;1573409378777;1573409395877;17100;48497075938;57329687393;2108453411;1040936097;11031274023;98261702;747820716;2795;2610;2015736;5;8766;129005
2;11;1573409396331;1573409414183;17852;49214085880;57295559153;2109100747;1043463178;11024104105;97966845;741398932;2945;2440;2012872;-5;8242;37544
2;12;1573409414756;1573409432505;17749;48434679772;57371767486;2140480302;1041122005;11045774487;98881883;750529138;3862;2653;2098936;0;12569;426229
2;13;1573409432942;1573409449945;17003;49144525202;57296991858;2113878360;1038074171;11024645762;97930914;747714954;2405;2535;2014544;0;6715;22627
2;14;1573409450338;1573409468037;17699;48536471994;57327779778;2119407779;1042097682;11030731121;98696998;747019478;2925;3102;2038832;9;8128;120124
2;15;1573409468470;1573409485265;16795;49075352300;57297096565;2096681688;1041707341;11024617316;97679508;748549176;3133;1721;1896560;-6;8952;39474
2;16;1573409485672;1573409502433;16761;48117569232;57329070805;2097152940;1041937628;11031216443;97773340;748779825;2730;2979;1959432;6;7785;160435
2;17;1573409502875;1573409519774;16899;48932013442;57295797444;2101568795;1039503349;11024382090;97722769;751102418;3130;1999;1969872;-8;9195;45598
2;18;1573409520128;1573409537241;17113;48372125342;57331389919;2120275416;1049097446;11031564165;97916614;753821680;3412;2465;1957320;-1;9952;207434
2;19;1573409537744;1573409555411;17667;49155568642;57316453350;2110805652;1042052780;11031704489;98404701;749218143;2880;2431;2094264;0;7916;33672
2;20;1573409555783;1573409572884;17101;48061704960;57328338626;2104314973;1043452666;11031133457;97945140;743261025;3856;2282;2019544;5;11563;331853
2;21;1573409573379;1573409591048;17669;49324886594;57296028833;2115140506;1037044314;11024575865;98546366;745107652;3264;2862;2038704;2;8234;204725
2;22;1573409591495;1573409609064;17569;48598333508;57327247932;2120872541;1046955950;11030775669;98572214;746949194;3374;2057;2094080;-7;10483;65138
2;23;1573409609535;1573409627260;17725;49682200278;57295862977;2162721222;1056766384;11024561225;99094627;758429973;3008;3194;2184408;0;8399;193909
2;24;1573409627698;1573409644279;16581;48117698150;57326892574;2097300659;1036760459;11030625050;97409743;745907001;3281;1774;1931800;4;9360;54509
2;25;1573409644741;1573409662470;17729;49243996316;57294564974;2120461872;1043548838;11024097856;98241365;751764102;3742;2571;2091904;13;10184;165591
2;26;1573409662915;1573409680309;17394;48450249358;57326860476;2139275746;1046938006;11030711410;98660053;754647767;3032;2592;2004600;-17;7865;41797
2;27;1573409680812;1573409698957;18145;49733773756;57296094726;2156402362;1056615205;11024669483;99850078;756734789;3816;2427;2193904;5;11179;134248
2;28;1573409699331;1573409716525;17194;48344064580;57326859238;2105737957;1050430953;11030646390;98185115;743417348;3254;2835;2049176;-5;8603;193184
2;29;1573409716949;1573409734535;17586;49429329008;57294828674;2120904544;1050897840;11024193105;98562117;745886197;3678;1942;2082960;147;11065;93914
2;30;1573409734918;1573409751178;16260;48118880458;57326496739;2092516575;1044995821;11030560359;97521949;745614807;3862;2152;1915264;-144;13677;511435
2;31;1573409751772;1573409768754;16982;48806790410;57294816178;2110713729;1038630859;11024124135;97351983;747364693;3272;3107;1951176;-3;7987;182897
2;32;1573409769111;1573409786674;17563;48742246730;57326969632;2128021481;1052292299;11030689458;98016311;750777522;3654;1784;2097912;0;10208;64059
2;33;1573409787052;1573409805007;17955;49202402814;57318340536;2123382262;1041888651;11032317024;98561456;755267646;3694;2851;2119440;5;9638;260893
2;34;1573409805466;1573409822194;16728;47772850530;57326772019;2098089236;1032367991;11030682644;97687923;743489390;3246;2119;1918736;8;8036;47212
2;35;1573409822653;1573409840124;17471;49360652652;57294215537;2100456492;1047712858;11024007690;97838139;747076916;3947;2199;2098392;-13;10823;261840
2;36;1573409840487;1573409858790;18303;48742225268;57326777001;2140089737;1053195515;11030663326;99000182;755447972;3592;3057;2113296;80;7969;122968
2;37;1573409859487;1573409877434;17947;49110184834;57296629520;2116221467;1041792176;11024676492;98081217;747779763;3796;1975;2111824;-80;10231;101408
2;38;1573409877805;1573409896141;18336;48460663830;57326300894;2122310111;1054657353;11030555228;98232700;752618497;3662;2847;2160480;0;8998;132992
3;0;1573410032393;1573410055411;23018;47577922864;62104319907;2276371592;1055631932;11924725254;110239522;909746347;0;0;0;0;0;0
3;1;1573410055815;1573410075930;20115;49870039352;58632867534;2209282375;1111498054;11357380905;121829054;770187456;2922;2889;2193848;-3;8156;52388
3;2;1573410076354;1573410093419;17065;47886130178;58411745522;2138865332;1093376524;11315502740;119547459;748503026;3212;2081;1963688;0;10440;199515
3;3;1573410093885;1573410111559;17674;48641580168;58367163141;2098858417;1044322311;11306334070;120971036;737010744;2619;2818;1979392;1;7283;117212
3;4;1573410111945;1573410128773;16828;47118507584;58394369556;2063111397;1032310997;11312314239;120048777;728640543;2828;1735;1833256;2;8464;36838
3;5;1573410129121;1573410146784;17663;48213081410;58366826842;2100945640;1039352445;11306591088;120573924;736581200;2797;2829;1961296;3;8385;142473
3;6;1573410147157;1573410164879;17722;48004532382;58390922407;2128210764;1044346482;11311380785;121555595;741083524;2948;2059;2018296;-6;9594;38399
3;7;1573410165371;1573410184528;19157;48862464590;58364675674;2155287535;1045510178;11306275108;122664082;740831233;3594;2540;2193120;0;10586;209470
3;8;1573410184876;1573410202118;17242;47310721256;58396071446;2092590477;1036969814;11312174426;120341341;730295104;2686;2675;1910624;76;7084;167968
3;9;1573410202589;1573410219439;16850;48224588546;58389261909;2079290379;1035494696;11312196099;120128109;730475570;2956;1738;1989992;-73;9722;72039
3;10;1573410219804;1573410236230;16426;47269650142;58391613428;2080769930;1033699642;11309436929;119882647;725698365;2449;2693;1888944;-3;6836;107954
3;11;1573410236659;1573410254686;18027;48048904994;58363890154;2088852689;1037086268;11303888019;120388692;730885072;3197;2005;2116064;1;10231;50999
3;12;1573410255117;1573410271876;16759;47273404240;58411628427;2098392371;1043620504;11316561988;120236827;733199037;2581;2629;1979120;3;8070;146811
3;13;1573410272229;1573410289026;16797;48164618754;58365282182;2104462127;1034649984;11304378576;120518772;734991990;3131;2078;1892088;-3;9445;176452
3;14;1573410289413;1573410305450;16037;46822415350;58390620283;2079625771;1033711995;11309254975;119792623;733387871;2103;2403;1802344;3;5571;17079
3;15;1573410306038;1573410323214;17176;47882488500;58365549574;2107821372;1039097407;11304430817;120287195;732996841;3393;2351;1949160;0;10320;159088
3;16;1573410323611;1573410340901;17290;47095580912;58389887977;2097375418;1046021888;11309037710;120143875;733361824;2818;2671;1975104;117;7178;135892
3;17;1573410341365;1573410359090;17725;48300140042;58363246869;2114534906;1043595020;11303796328;120841278;734765730;3333;1995;2060576;-121;10155;105398
3;18;1573410359495;1573410376370;16875;47448904124;58390533474;2113263531;1046259032;11309331356;120614577;733981451;3004;2820;1971120;0;7792;201899
3;19;1573410376802;1573410394455;17653;48040901420;58386539119;2094071489;1046999141;11311908412;120160711;735001856;3273;1832;2085184;0;9816;46533
3;20;1573410394822;1573410411742;16920;47458904686;58390038469;2084406367;1044341893;11309110621;120026368;732206500;2981;2569;2004024;3;8507;208992
3;21;1573410412244;1573410429560;17316;47953031174;58362465883;2069579667;1038685549;11303780867;119855292;730503968;3029;1907;1989008;2;8713;50234
3;22;1573410430013;1573410447265;17252;47251640604;58387471768;2071143596;1041191137;11308630102;119713357;727457943;3607;2132;2074440;2;11020;423603
3;23;1573410447728;1573410465737;18009;48516476564;58362325990;2129137189;1048970221;11303868789;121481480;741130529;3308;2855;2079088;74;8019;138580
3;24;1573410466242;1573410482882;16640;46964424294;58388845440;2080305577;1039987198;11309110104;119772382;733497330;3347;1785;2014192;-81;10152;104805
3;25;1573410483283;1573410499633;16350;47728367980;58361666430;2046867555;1038871561;11303625058;119119825;728814811;2794;2615;1919728;0;7411;228016
3;26;1573410500068;1573410517148;17080;47219836986;58387315396;2103176491;1048327655;11308632437;120632701;734701161;3483;1891;2011776;0;9728;70057
3;27;1573410517618;1573410535268;17650;48260653612;58362217996;2103828145;1044211075;11303822022;120263547;734246820;3101;2931;2086704;4;8272;184871
3;28;1573410535702;1573410552972;17270;47357667848;58387719516;2106618504;1045571697;11308769855;120547060;736664137;3469;1892;1971008;-4;9299;55064
3;29;1573410553313;1573410570129;16816;48044951752;58361823714;2078896577;1037512683;11303645964;119566006;731088338;3497;2286;1966512;13;10193;349709
3;30;1573410570528;1573410587327;16799;47158162206;58387095561;2097817739;1042470488;11308578194;120092509;730161160;3608;2565;1970352;-12;11846;280170
3;31;1573410587787;1573410605055;17268;48433079466;58362326800;2105235053;1041212304;11303859294;120308322;734188127;3403;2021;2030704;13;9176;61500
3;32;1573410605404;1573410622586;17182;47193300318;58389997732;2074890267;1041923924;11309538966;120051447;729172914;3628;2254;2030472;-10;10385;175569
3;33;1573410622973;1573410639861;16888;47825526454;58384352523;2059041196;1033955768;11311599587;119268371;728883613;2970;2167;1953952;-4;7591;36892
3;34;1573410640224;1573410656445;16221;46651221736;58387318084;2051615231;1033626530;11308649107;119173536;720025297;3498;2053;1932360;6;10742;194191
3;35;1573410656891;1573410674509;17618;48225228902;58364040740;2090601049;1045928875;11304516814;119973380;731635894;3481;2678;2048712;36;8247;173533
3;36;1573410674847;1573410691284;16437;46908822092;58387567472;2059737719;1044832280;11308649338;119431879;725442879;3464;1625;1881656;-40;9689;68442
3;37;1573410691768;1573410709045;17277;48235045942;58361552089;2089639391;1043373392;11303656268;120324359;733884907;3170;2899;2015800;-1;7188;144984
3;38;1573410709490;1573410725894;16404;47026190762;58387173750;2066946739;1040061286;11308639181;119616319;731221830;3519;1635;1948896;-1;9868;66948
3;39;1573410726330;1573410743311;16981;47977130080;58361236161;2080778918;1033292495;11303554018;119720673;729626284;3373;2436;1951224;6;8642;149932
4;0;1573410879541;1573410904009;24468;48796087442;62807104295;2408705121;1060760287;12051216853;112857412;1036540419;0;0;0;0;0;0
4;1;1573410904389;1573410924081;19692;47898661796;55986379397;2164612069;1084755943;10974615442;89019567;746662474;2999;3329;2237816;3;8504;140151
4;2;1573410924577;1573410940810;16233;46138310304;55811745467;2124692629;1068837545;10938006967;87238705;729799922;2636;1657;1763488;-6;8114;31144
4;3;1573410941367;1573410959073;17706;46851359704;55778151946;2108640694;1020103246;10931996046;88045930;726188552;2719;2837;1988240;1;7334;155332
4;4;1573410959468;1573410975884;16416;45800854226;55807542006;2082383899;1019482197;10937522491;87241134;722502981;2717;1606;1800784;-1;8443;36599
4;5;1573410976299;1573410993994;17695;47154654994;55777775830;2102910285;1021686272;10931770035;87496198;726946153;2612;2694;2058152;21;8381;144796
4;6;1573410994524;1573411011284;16760;45866819654;55805747363;2089167066;1018308062;10937116030;87685557;721948336;2834;1846;1850144;-21;8450;39406
4;7;1573411011773;1573411028548;16775;46694406492;55777800139;2082566008;1016956512;10932009642;87458877;723907128;2858;2181;1861672;4;8608;119279
4;8;1573411029105;1573411045029;15924;45942462984;55803787477;2086613247;1016611212;10936540808;87163246;721172842;2217;2103;1809040;-4;6265;20757
4;9;1573411045412;1573411062386;16974;46882863584;55776383276;2077107625;1017376768;10931572128;87263877;721539296;3099;2170;1956240;1;9508;227046
4;10;1573411062973;1573411079712;16739;45990178850;55812843249;2086548319;1025452192;10938244361;87666974;723600302;2647;2577;1990264;3;7183;132515
4;11;1573411080237;1573411097710;17473;46825883434;55775707378;2089876034;1029519724;10931066391;87959956;726907357;3001;1953;1954080;-4;9257;42148
4;12;1573411098153;1573411115704;17551;46176560844;55819484631;2120282611;1026069991;10942952212;88640364;728789918;2614;2800;2019896;0;7449;158530
4;13;1573411116097;1573411132742;16645;46818007756;55769245597;2092198101;1017398909;10929977627;87845768;724872178;3255;1871;1928624;3;10287;195891
4;14;1573411133172;1573411149858;16686;46461207262;55797580142;2126610472;1028133648;10935338850;88241392;728894485;2248;2545;1942544;-3;6132;18136
4;15;1573411150285;1573411167244;16959;46492112542;55768762974;2062899493;1022830019;10929842060;87545937;717996657;3352;2119;2004864;0;10260;146112
4;16;1573411167601;1573411184533;16932;45614884390;55796262256;2083515338;1021680156;10934948794;87782874;722132645;2602;2585;1980176;0;7278;125036
4;17;1573411185015;1573411201899;16884;46359157934;55767459481;2060860191;1022004080;10929611661;87490646;718494513;2964;1787;1992744;0;8943;42328
4;18;1573411202379;1573411219215;16836;45883280570;55795391701;2105635432;1026184004;10934741001;87670529;725925598;2676;2823;1936168;0;7215;116436
4;19;1573411219691;1573411237042;17351;46820609038;55789618898;2109360854;1033733746;10937358222;87864072;726864082;3320;1740;1985768;0;9588;47732
4;20;1573411237597;1573411254533;16936;46030906134;55798498264;2119121637;1027712881;10935736559;88304498;727795884;3287;2329;2057200;0;9535;150428
4;21;1573411254916;1573411272502;17586;47332006158;55767391046;2163154719;1040860807;10929664825;89236437;732363674;3061;2108;2004184;0;7662;34493
4;22;1573411273015;1573411289476;16461;45710195088;55795446171;2091253267;1029404920;10934734431;87688058;722146392;3339;2192;1920208;7;9786;193593
4;23;1573411289934;1573411307474;17540;47071708452;55767125004;2134953187;1036453351;10929602959;89267048;730407715;3132;2607;2014576;56;7435;154652
4;24;1573411307851;1573411324584;16733;45873364688;55796536437;2075274743;1024218257;10935141638;87533666;718313715;3225;1776;2001936;-63;10080;77185
4;25;1573411324957;1573411341487;16530;46537262896;55790399726;2064327173;1021771323;10937826022;86725489;718480353;2852;2605;1975944;1;7683;166709
4;26;1573411341940;1573411359683;17743;46154376144;55794038490;2122331133;1030923840;10934594971;88814807;724793197;3460;1927;2054456;-1;9306;49010
4;27;1573411360187;1573411376888;16701;46437008054;55766136003;2089889513;1024020327;10929544129;87401779;718162487;3021;2773;1923592;4;8794;376529
4;28;1573411377416;1573411394360;16944;45861153832;55795031801;2125778236;1036136884;10934969992;88150986;727484628;3273;1659;1992280;-4;8857;48957
4;29;1573411394787;1573411411011;16224;46261275738;55765123438;2085401244;1019510965;10929246204;86983518;719828566;3239;2277;1952024;4;9059;195592
4;30;1573411411439;1573411427395;15956;45610692000;55793245778;2103319694;1022621911;10934401684;87367222;721540370;2817;1919;1884552;-4;7291;32849
4;31;1573411427885;1573411444708;16823;46835854066;55767153497;2088628562;1021850902;10929856476;87344218;727310251;3491;2568;2023112;133;11399;712213
4;32;1573411445114;1573411461877;16763;46140152386;55793935956;2114451782;1034676618;10934596503;87787774;731997908;3300;2065;1955744;-133;9985;800066
4;33;1573411462328;1573411479736;17408;46915172070;55786849855;2110628212;1030781144;10936880418;87958876;730510833;3276;2791;2034168;0;8112;206871
4;34;1573411480090;1573411497400;17310;46039246676;55795843235;2117709105;1034215559;10935325009;88360462;725469295;3652;1773;1976088;0;9238;63343
4;35;1573411497899;1573411513885;15986;46345616580;55765116267;2076626314;1020101340;10929236779;87006944;718273169;3103;2223;1831304;8;8337;147284
4;36;1573411514269;1573411531336;17067;46482129500;55793298462;2124208498;1036457169;10934442243;88253973;728046134;3250;2052;1985016;-7;8374;48326
4;37;1573411531766;1573411548182;16416;46161264424;55765674538;2064277481;1021995645;10929344540;86951051;719896016;3821;1844;1876344;3;10251;216530
4;38;1573411548534;1573411565703;17169;46126072438;55815781609;2110079737;1036308322;10941981219;88118818;725632402;3058;2464;1971192;-4;7137;37160
4;39;1573411566177;1573411582482;16305;46509622030;55765111170;2089186050;1023941095;10929263628;87352900;725559180;3934;1940;1954480;0;11029;287950
4;40;1573411582891;1573411599821;16930;46014206070;55838988161;2126643601;1032495945;10950057621;87860830;730171726;3633;2581;1916456;68;8165;469430
