0;0;1573443046798;1573443095796;48998;44648668508;60411028835;2341229203;1042491252;11709847205;108981444;818967533;0;0;0;0;0;0
0;1;1573443096273;1573443135654;39381;47594636944;57830065492;2202931940;1094735166;11299811805;101839771;751293561;6975;27156;5280008;-5;39859;5804155
0;2;1573443135982;1573443150353;14371;43943222788;57667489425;2151762301;998485665;11270520702;96907564;744729755;2805;10321;1617560;10;14699;2100912
0;3;1573443150727;1573443164957;14230;45113396728;57628672632;2074076146;983026284;11262584569;95673934;727093349;2596;9235;1965688;12;14604;2188619
0;4;1573443165275;1573443192685;27410;44343165990;57661362840;2066052469;994889046;11269364294;94564385;723077210;5053;19802;3521528;-2;27727;4106801
0;5;1573443193004;1573443208963;15959;45809881114;57628508937;2091827276;1004708764;11262484721;96772428;723145969;2547;5967;2377520;4;16279;2345176
0;6;1573443209286;1573443236882;27596;45033678246;57659489807;2083047314;1003789541;11269020802;96012672;722938019;4775;19991;3727400;-23;27918;4097115
0;7;1573443237309;1573443251461;14152;45383600096;57627552281;2078343320;988605948;11262319929;94897429;728069954;2435;8111;1828312;29;14579;2088166
0;8;1573443251830;1573443280301;28471;44689732322;57663226925;2073761838;996511975;11269573140;94972773;732128428;5205;19319;3795200;-7;28840;4267198
0;9;1573443280694;1573443295589;14895;45510614110;57626867300;2070257326;991983267;11262293845;95256952;727803386;2635;10478;2098368;3;15289;2337339
0;10;1573443295933;1573443324541;28608;43191870142;57659874074;2068161030;928823310;11269325163;94074876;728299525;5142;17618;3838136;-13;28952;4296384
0;11;1573443324927;1573443340429;15502;45573082546;57634159132;2085025010;1000443461;11263313739;96217011;728102248;2674;11478;1964976;14;15887;2265788
0;12;1573443340772;1573443364095;23323;44362201470;57693729251;2063805872;981039163;11281927291;98434407;729546405;3960;15343;3503832;-12;23666;3543850
0;13;1573443364572;1573443378888;14316;43880286422;57617907536;2063465440;931306010;11260943312;95715245;719555542;2953;9698;1507936;-9;14794;2121414
0;14;1573443379213;1573443393160;13947;44129560398;57650454664;2057037582;968952000;11267925638;94838065;722186574;2207;10637;2203568;13;14272;2126126
0;15;1573443393566;1573443423909;30343;45869966100;57617104336;2074861135;1013896795;11260757198;96645027;734686494;5497;17217;4195280;3;30748;4501399
0;16;1573443424396;1573443439547;15151;45064197794;57648699184;2070733927;1012148729;11267419730;95692482;731677589;2450;10485;2148624;-17;15639;2236312
0;17;1573443439920;1573443466158;26238;45885220472;57638634540;2067661944;1004037223;11268079950;100309767;731006322;4373;21299;3862448;21;26611;3936462
0;18;1573443466478;1573443480167;13689;44515917716;57649912931;2062171464;990208919;11267836702;94768200;730891569;2321;7611;1790096;-16;14009;2018495
0;19;1573443480543;1573443508735;28192;43556000858;57634849741;2052579023;922366553;11267000902;94279519;726560599;4855;17757;3902712;-6;28568;4163043
0;20;1573443509133;1573443524448;15315;44897776628;57648494639;2080429300;1008041439;11267366659;96780731;723983468;2712;12795;2244280;-3;15713;2370023
0;21;1573443524810;1573443551890;27080;45462680120;57615527861;2051022206;987564749;11260429666;94717585;722241673;4904;16623;3620424;1;27441;4051495
0;22;1573443552208;1573443566226;14018;42956590120;57649431052;2067518175;929618643;11267706865;95035214;725568810;2268;8838;1886192;5;14337;2059772
0;23;1573443566734;1573443582235;15501;45872357434;57617105771;2092135214;1000128391;11260885490;96415743;732596550;3253;8119;2005096;4;16008;2521355
0;24;1573443582567;1573443609388;26821;43925912298;57648184884;2081242963;953275408;11267312295;94722728;731077059;4654;18590;3254504;-7;27154;3878630
0;25;1573443609709;1573443624411;14702;45518748938;57617067557;2080685204;991848209;11260877438;94706116;735876028;2558;10266;2156640;9;15023;2339245
0;26;1573443624799;1573443655189;30390;44944618100;57670447957;2081134154;1001971624;11274766224;99700407;733970309;5634;20492;3960088;0;30778;4578504
0;27;1573443655893;1573443670095;14202;45554652382;57615638893;2066882128;988574849;11260484061;94694459;724021421;2692;7378;1876880;-4;14906;2130974
0;28;1573443670430;1573443698098;27668;44849964694;57648019983;2070268358;991781082;11267282407;95646812;724831728;4992;18921;3699352;7;28003;4144531
0;29;1573443698438;1573443712464;14026;45600104372;57615023019;2057743273;983331153;11260333689;94761675;725476988;2613;8852;1901800;-1;14365;2174497
0;30;1573443712783;1573443733634;20851;44648627628;57648638968;2067343270;986497332;11267552626;94886585;727968359;3209;11588;3209704;16;21171;3033179
0;31;1573443734016;1573443749523;15507;45761870912;57616727597;2066457647;993955260;11260865960;96041049;731859598;3082;11096;1971648;-19;15889;2378824
0;32;1573443749890;1573443763581;13691;44689152702;57651524673;2066172104;989965328;11268396326;94403546;733873610;2303;7903;1901232;1;14058;2010635
1;0;1573443916899;1573443963236;46337;48311559140;63684835233;2451426816;1068465506;12202203331;128091627;939187485;0;0;0;0;0;0
1;1;1573443963695;1573443997475;33780;47366508294;57251475952;2170750512;1073154882;11167594133;97327927;738629635;5848;20081;4669128;22;34239;5008300
1;2;1573443997817;1573444013345;15528;45030118328;57029422072;2144932253;1023277821;11138824914;95906582;731373826;2590;12292;1996288;-23;15870;2275386
1;3;1573444013732;1573444027512;13780;44420353562;56992529392;2070465026;939551760;11132857515;93557566;715520466;2047;11065;2298024;8;14167;2093699
1;4;1573444027865;1573444056888;29023;44788362038;57019107297;2076305395;991211648;11137132061;94125952;715574212;4940;19271;4025024;5;29377;4336649
1;5;1573444057208;1573444072581;15373;45708676834;56992962466;2075776033;993071387;11132886351;95164098;719893345;2396;11139;2073672;9;15692;2246403
1;6;1573444072897;1573444098635;25738;44416807076;57019209294;2068872948;975516392;11137162994;93915069;714527592;4297;16822;3828280;-9;26054;3885586
1;7;1573444099174;1573444115254;16080;45915703666;56993443046;2089802482;998649643;11133309289;95264449;727001464;2897;9355;1956336;-14;16619;2383821
1;8;1573444115648;1573444130139;14491;44856217728;57019154583;2078678892;985491178;11137210725;94578587;727796737;2235;11456;2242920;24;14885;2201864
1;9;1573444130458;1573444159841;29383;46097620542;57013379634;2083057036;1005215197;11140119943;95578860;729006400;5345;19587;3849816;-6;29702;4453487
1;10;1573444160168;1573444173157;12989;42994165410;57023274750;2080095066;912717576;11138157370;93284216;725000041;2289;7112;1629208;-10;13316;1904238
1;11;1573444173517;1573444201922;28405;45494517172;56991501263;2079570966;981492006;11132941450;95363832;720493735;4617;22588;4032784;-9;28765;4182735
1;12;1573444202242;1573444215993;13751;44521884590;57061968791;2076718610;983407546;11152102217;93909307;721747079;2531;7361;1714976;1;14071;2014888
1;13;1573444216306;1573444244284;27978;45083057928;56991158771;2070894031;971358126;11132909470;93559347;721527034;4938;18917;3718032;16;28292;4212567
1;14;1573444244594;1573444258639;14045;43807465126;57017430941;2075491482;944418599;11136972573;94178612;722586252;2676;8570;1898936;-21;14355;2210705
1;15;1573444259022;1573444287951;28929;45427726844;56989486929;2076801984;980914064;11132336501;94251719;722451208;5210;19227;3895624;10;29311;4358540
1;16;1573444288266;1573444304605;16339;45179332226;57016981483;2096771966;1002091110;11136863359;96586765;722492491;2975;11415;1939712;-5;16654;2344302
1;17;1573444304954;1573444332331;27377;45561534384;56990085886;2067100837;984023979;11132661332;94769997;720701141;4562;21361;3982960;-4;27726;4082361
1;18;1573444332722;1573444346934;14212;44644111264;57017854569;2076408143;980926644;11137216692;94334680;721344328;2545;8458;1772144;16;14603;2095698
1;19;1573444347483;1573444360392;12909;43187387942;57010203217;2063015851;898603253;11139726045;93032370;717562902;2364;9355;1944296;-15;13458;2070188
1;20;1573444360750;1573444389570;28820;45061056750;57018625348;2078957198;998990538;11137457663;94492812;722405830;5250;20909;3769384;20;29178;4330116
1;21;1573444389900;1573444403637;13737;45048156920;56988754209;2073878305;967617054;11132210778;93180856;720508672;2413;7824;1861912;-10;14068;2018808
1;22;1573444403958;1573444426242;22284;44910117862;57018269905;2100096950;995800820;11137729238;96208499;723250164;3832;10843;3361848;-6;22604;3306655
1;23;1573444426606;1573444441416;14810;45549925194;56987960622;2104746339;987521227;11132121312;95445523;731259325;1919;11527;2434864;5;15174;2171488
1;24;1573444441745;1573444467722;25977;44518098080;57038089663;2087698756;993058638;11144239113;94626457;728583396;4304;17485;3886120;3;26306;3920804
1;25;1573444468075;1573444481634;13559;45129491330;56987103451;2057318924;975867283;11131957117;93122695;722538621;2665;9102;1439592;-4;13912;2179372
1;26;1573444481951;1573444496376;14425;44536398158;57016162717;2092072527;980334241;11136946936;94521020;725294240;2410;6195;2131024;-6;14742;2115253
1;27;1573444496774;1573444510476;13702;44480762522;56987764051;2049295504;949330450;11132156572;92726983;712912648;2175;9312;2218712;19;14100;1977653
1;28;1573444510890;1573444529050;18160;44978919924;57040411927;2089235662;1000868282;11145051977;97042759;715635075;3333;10051;2289712;4;18575;2656920
1;29;1573444529426;1573444543834;14408;45296707466;56988060119;2062132061;983662214;11132323787;93935707;717336507;2371;10585;2202472;-20;14783;2216577
1;30;1573444544149;1573444557300;13151;43626033700;57014373071;2057773815;951978015;11136407098;93085463;710529606;2057;6514;1827512;-66;13466;1871695
1;31;1573444557671;1573444575081;17410;46350588756;56987184065;2092422925;1022188531;11131974682;96715601;721973471;3460;10284;2334328;82;17781;2558893
1;32;1573444575398;1573444600771;25373;44662498942;57016730063;2075410699;985405105;11137102128;93646013;719829171;4020;17407;3664368;-15;25690;3803581
1;33;1573444601089;1573444616853;15764;45989414102;57008575438;2087288719;1002420045;11139543621;95927792;722604939;2518;12178;2151472;12;16083;2302686
1;34;1573444617172;1573444630965;13793;44487869656;57016130925;2068036025;984089315;11136995545;94070118;720799085;2696;8001;1849912;-22;14111;2136771
2;0;1573444796716;1573444837959;41243;44318905900;58703341736;2301228154;1042129781;11330561093;107422550;854488101;0;0;0;0;0;0
2;1;1573444838619;1573444857209;18590;45445030910;55099084716;2172929608;1068337217;10726083577;93136717;748548840;3534;10867;2372512;15;19250;2918855
2;2;1573444857554;1573444888429;30875;44922289006;54870564573;2134131315;1066396102;10679598815;90800173;742845975;5353;21867;4005808;15;31220;4631790
2;3;1573444888817;1573444901477;12660;41809278320;54830445045;2007481572;896139178;10671665952;86817527;717313166;1971;8819;1848184;-15;13049;1872229
2;4;1573444901790;1573444916486;14696;43502840068;54855665394;2056218630;985992871;10676782846;89824612;722003280;2122;12123;2496368;-1;15008;2219048
2;5;1573444916828;1573444946517;29689;44517358590;54829498762;2058801014;995938656;10671397048;89006759;723208310;5347;20656;3738368;2;30032;4388644
2;6;1573444946838;1573444960482;13644;43270198266;54853169698;2040558325;979906224;10676118398;87690691;720165079;2479;7506;1784048;-5;13964;1995642
2;7;1573444960865;1573444988140;27275;44276959808;54827421692;2038972725;993557949;10670864234;88940364;722629277;5056;19808;3672192;-12;27658;4150650
2;8;1573444988458;1573445002233;13775;43142928314;54853014721;2034717016;979554520;10676161842;88209847;719999399;2430;8784;1940080;10;14093;2120414
2;9;1573445002547;1573445031958;29411;44468939442;54826471388;2040021055;1000181377;10670712202;88916048;718624009;5197;19303;3879048;160;29725;4417607
2;10;1573445032303;1573445045943;13640;43389856362;54851379723;2031393113;988135074;10675765117;87952602;720750813;2429;10114;2036592;-170;13985;2185219
2;11;1573445046307;1573445072239;25932;41826245710;54825393789;2027729144;880989369;10670461354;86566671;718535546;4369;17420;3394888;17;26297;3769193
2;12;1573445072734;1573445087535;14801;43869592068;54872607486;2056872316;1003105672;10683261512;89896114;726506590;2868;11435;2092744;13;15295;2369436
2;13;1573445087855;1573445101823;13968;44079410420;54828123133;2037344546;980331760;10671351874;87297323;720512745;2488;8184;1689912;-23;14288;2051964
2;14;1573445102142;1573445128255;26113;42351805852;54850236786;2032372214;940464151;10675581117;87099496;719754636;4716;18585;3402736;13;26432;3889671
2;15;1573445128721;1573445142427;13706;43523606670;54827924033;2025278278;958933894;10671383285;86868276;720294840;2636;9180;1902784;-9;14172;2168482
2;16;1573445142748;1573445173133;30385;43953913346;54850216433;2048960942;1004743833;10675587227;89032987;722256763;5535;20498;3997904;-3;30706;4517304
2;17;1573445173451;1573445187767;14316;44131068724;54825492623;2046513708;986169976;10670731797;88287256;721917170;2343;8098;2008128;-2;14634;2091385
2;18;1573445188117;1573445214919;26802;43763893178;54850349640;2035672625;1001079721;10675696790;88119554;721830231;4844;18918;3552056;-3;27152;3965935
2;19;1573445215355;1573445229686;14331;44232025826;54846302121;2025555970;982687525;10677981315;88120676;719860681;2420;8450;1817464;16;14767;2116281
2;20;1573445230036;1573445257673;27637;43628811788;54851653233;2040376460;988772229;10676112398;88953278;724772990;4909;17251;3780736;6;27987;4188908
2;21;1573445258208;1573445274238;16030;44775770560;54825830220;2039784988;996936645;10670784144;89942957;721001334;3142;12697;2165336;-8;16565;2521928
2;22;1573445274566;1573445302545;27979;43280571566;54850896269;2032906521;980209197;10675916179;87976971;721779023;5099;17143;3655056;-11;28307;4150833
2;23;1573445302918;1573445316163;13245;42836613160;54823878178;2031742022;928543824;10670229272;87403620;718442035;2546;9481;1487208;15;13618;1941148
2;24;1573445316484;1573445330059;13575;43425534528;54849903435;2038278603;984430713;10675584255;87974604;720344785;2565;8987;1858280;-4;13896;2115287
2;25;1573445330426;1573445360728;30302;44621436004;54823844726;2042856713;993566822;10670225294;88484864;719516528;5554;19309;3694080;-2;30669;4593987
2;26;1573445361173;1573445375330;14157;44555487950;54849785309;2051149716;993708073;10675561361;88392940;716354929;2445;10140;2132712;-6;14602;2213467
2;27;1573445375721;1573445403688;27967;44436243034;54824528292;2040602711;992572447;10670405737;88843252;720948554;4664;19542;3859856;15;28358;4073368
2;28;1573445404010;1573445417271;13261;43352747834;54849696677;2038795365;987164866;10675545449;87406329;719603874;2380;9286;1958952;-10;13584;2030167
2;29;1573445417677;1573445446793;29116;44489459742;54826886886;2043917096;993913869;10671200630;88982301;723007305;5269;19129;3880096;-14;29521;4357267
2;30;1573445447202;1573445461502;14300;43405094382;54849190259;2056764417;985566472;10675404992;88818521;720117366;2659;8463;1693696;29;14710;2103170
2;31;1573445461873;1573445485988;24115;41581868136;54824713013;2000486481;875905707;10670497615;86551931;715121338;4032;15603;3542976;-11;24485;3616943
2;32;1573445486508;1573445501154;14646;43830715042;54851412784;2054062493;998730193;10676060392;89345425;720490497;3091;10505;1588320;146;15167;2263279
2;33;1573445501518;1573445515727;14209;44288145890;54846509771;2031298320;980409137;10678186838;87663072;717301441;2354;10371;2182304;-140;14572;2164995
3;0;1573445678838;1573445720320;41482;43297911402;58403556862;2290906279;1046070532;11093734404;110304645;817223906;0;0;0;0;0;0
3;1;1573445720838;1573445737190;16352;44502639016;55001249839;2154564995;1052918846;10495093474;97368430;743079051;2746;12199;2425552;1;16870;2484403
3;2;1573445737553;1573445773940;36387;43363674912;54839310670;2121800729;1046790668;10464417685;97571006;734188912;6622;24082;4467848;-3;36750;5364872
3;3;1573445774324;1573445787447;13123;42718765318;54787671210;2056742472;946295811;10452227081;95033449;719667416;2460;8746;1816768;11;13507;2123868
3;4;1573445787807;1573445818094;30287;42770602326;54806381845;2044844818;985636265;10456171074;95526489;716827295;5229;19153;4238960;-13;30647;4502198
3;5;1573445818529;1573445833428;14899;43737980076;54780524924;2051320728;995496052;10451926991;96244570;720919856;2274;9191;2220080;-2;15334;2199813
3;6;1573445833966;1573445848099;14133;42561116270;54808793327;2054871386;987335552;10456825654;96487591;717618383;2742;8856;1818640;82;14671;2205986
3;7;1573445848469;1573445861153;12684;40491704386;54778487929;2029006556;872978302;10451699993;94760659;715552611;1740;10145;2044656;-69;13054;1877419
3;8;1573445861594;1573445886482;24888;42885598496;54807039061;2051820306;989540739;10456704827;95870308;718659837;4446;16942;3010456;-17;25329;3703501
3;9;1573445886819;1573445900695;13876;43263203406;54777470108;2049369780;978646093;10451523244;96053399;718275974;2347;8208;1966648;-2;14213;2031648
3;10;1573445901025;1573445922310;21285;42667573338;54805649079;2049308146;987134296;10456406922;95786580;721022806;3823;16863;2981168;11;21615;3279102
3;11;1573445922694;1573445934936;12242;40956501956;54779487480;2037280112;890339182;10452307108;94395079;719188932;2264;6214;1528872;9;12626;1801129
3;12;1573445935259;1573445947739;12480;41494775778;54826424106;2054324937;938129701;10463770355;94580575;719341192;2075;8834;1756808;2;12802;1838904
3;13;1573445948064;1573445970248;22184;43500985576;54778496502;2065763034;988133057;10451874733;96053469;721930869;3760;16717;3123984;-20;22510;3337367
3;14;1573445970575;1573445983732;13157;42118122778;54806068124;2038593212;964129279;10456704549;94683269;718940138;2180;7439;1908128;-3;13484;1936968
3;15;1573445984212;1573445999497;15285;44063999536;54777831294;2046597570;997687026;10451817720;96906495;722254523;2903;8963;2023464;8;15764;2381286
3;16;1573445999829;1573446024679;24850;42688249858;54802410782;2046865868;976393391;10455583586;94781053;717804596;3432;19488;4022392;10;25183;3724874
3;17;1573446025006;1573446038805;13799;42730147186;54777443214;2045185827;951090331;10451740947;95954137;718105536;2170;5424;2177088;-14;14125;2024035
3;18;1573446039124;1573446065073;25949;42787491752;54802678093;2074032998;987349037;10455673132;96507068;722211632;4797;20187;3145544;19;26268;3895448
3;19;1573446065752;1573446079120;13368;43295245734;54797262475;2060103791;978617405;10458823940;95078253;724315584;2229;8826;1837688;160;14047;2051982
3;20;1573446079446;1573446092145;12699;40569649698;54802012470;2057178509;903985396;10455504658;94995593;721957548;2171;10254;2054184;-173;13026;1975255
3;21;1573446092499;1573446117271;24772;43101724194;54775358439;2053077104;971872219;10451164219;95150779;720647825;4651;16927;3068968;13;25125;3688972
3;22;1573446117600;1573446130565;12965;42138455030;54802062132;2052789766;963274192;10455507518;95278179;721314987;1895;3895;2182848;-88;13295;1896003
3;23;1573446130946;1573446154431;23485;44040773710;54776977189;2065677230;1003873084;10451730055;98117753;713854788;4173;15552;3322064;74;23866;3501295
3;24;1573446154770;1573446167943;13173;42389189590;54801746528;2040583565;980336468;10455460716;95108854;716010714;2357;6802;1707136;13;13512;1938403
3;25;1573446168300;1573446181332;13032;43118614204;54778221417;2057207126;969016719;10452075780;95301334;714548730;2526;8668;1816656;-11;13389;2015538
3;26;1573446181656;1573446205475;23819;42844909026;54803586809;2058556369;991614470;10456012428;95405172;720569934;4133;17195;3064408;-4;24142;3457788
3;27;1573446205852;1573446219789;13937;43348955046;54775629353;2049191432;979135336;10451255844;95211603;721706310;2372;10244;2154192;-8;14315;2160608
3;28;1573446220117;1573446241246;21129;42485689312;54803225873;2060637186;974928502;10455948082;94935518;725127915;4201;12321;2560168;15;21456;3261102
3;29;1573446241582;1573446257025;15443;43823276926;54775258087;2076541133;997526888;10451141387;98157915;722261330;3015;5444;1902808;6;15780;2477307
3;30;1573446257411;1573446269818;12407;40712121462;54804424579;2054042400;902601718;10456369635;94520245;721269251;2096;7122;1692592;-16;12792;1830576
3;31;1573446270287;1573446290948;20661;42544606882;54775176112;2048811432;938022827;10451130667;95598121;717616064;3693;16204;2891664;1;21131;3151240
3;32;1573446291348;1573446304732;13384;42535153090;54803631518;2049738037;967394447;10456066521;94795056;717723114;2250;8071;1879584;-9;13784;1969993
3;33;1573446305069;1573446319446;14377;43563375026;54796876130;2040309973;985710595;10458704675;95879306;716678285;2940;6631;2005328;20;14714;2269424
3;34;1573446319871;1573446343688;23817;42214981368;54802897932;2054020056;961699212;10455874439;95330322;718803906;3584;19988;3624848;0;24241;3550719
3;35;1573446344077;1573446356923;12846;42136529874;54775657740;2038544993;938191129;10451321453;94763745;719970715;2033;9335;2030720;-11;13236;1889559
3;36;1573446357249;1573446370043;12794;42310370468;54801627920;2041473841;964113076;10455436119;94807595;718969607;2096;6910;1759096;16;13120;1879955
3;37;1573446378282;1573446392174;13892;43610344248;54776104394;2043606686;978919041;10451349627;95372581;718563412;3948;14848;2782608;-24;22131;3243213
4;0;1573446570299;1573446617714;47415;47516495992;64487203260;2335299082;1059608582;12144288681;129278715;859085858;0;0;0;0;0;0
4;1;1573446618180;1573446656494;38314;47114899340;59695656825;2101856069;1057408314;11349452794;110276538;735213418;6526;25639;5200160;-12;38779;5685592
4;2;1573446657135;1573446672225;15090;45319999284;59523726176;2093874968;1020632025;11313580574;108520119;728715747;2736;8886;1927960;16;15732;2251337
4;3;1573446672750;1573446688118;15368;46448808942;59477830659;2021009377;995852465;11305130405;107389678;717161472;2519;12042;2434008;4;15893;2413686
4;4;1573446688437;1573446719490;31053;46332553814;59510473046;2034475068;1012438538;11311351908;107665560;720944062;5698;20375;3904240;-20;31372;4659095
4;5;1573446719820;1573446734524;14704;46403969130;59476337379;2018813517;986844480;11304750276;107086672;716540889;2765;8598;1850848;27;15034;2160001
4;6;1573446734843;1573446762540;27697;46338958542;59508347636;2029293141;1010677361;11310868024;108444699;717980267;4814;19794;3792296;-8;28015;4165520
4;7;1573446762908;1573446777347;14439;46594695646;59476692010;2046619333;997014067;11305024988;106615746;721924862;2776;9133;1973704;-20;14808;2327287
4;8;1573446777676;1573446807286;29610;46118740172;59508333618;2046566877;1012504084;11310890211;107637753;721209509;5314;20020;3949704;12;29939;4411480
4;9;1573446807672;1573446822156;14484;45745613082;59475192021;2037464412;961805263;11304624898;106908297;720759736;2478;9090;2066552;4;14870;2176095
4;10;1573446822472;1573446849529;27057;44051345862;59511132818;2028187470;926773825;11311158673;106516703;719669534;4902;17199;3673136;2;27372;3978440
4;11;1573446850181;1573446866724;16543;47161657738;59456001015;2067109424;1017550766;11301132934;108954019;728301907;2905;10049;2125328;9;17196;2461164
4;12;1573446867048;1573446891524;24476;45739153604;59510553327;2049777999;993892882;11314938060;106774599;726008778;3786;18891;4005072;-14;24799;3713582
4;13;1573446892210;1573446906163;13953;44704573368;59457050497;2027027102;925166166;11301426808;106212214;723325658;2697;9361;1536304;-8;14640;2089311
4;14;1573446906515;1573446920149;13634;45225336534;59489895124;2032842656;981762859;11307769317;106174074;723190047;2248;10062;2070864;10;13986;2123968
4;15;1573446920528;1573446941547;21019;46962366570;59455053157;2063906279;1008176844;11301137140;108954753;721696707;3823;10459;2850336;151;21398;3135731
4;16;1573446941868;1573446956383;14515;45823277198;59489134581;2038783843;993536610;11307840635;107502939;722507296;2290;9808;2229816;-153;14836;2198549
4;17;1573446956708;1573446970756;14048;46575679876;59453704249;2016972332;987298915;11300830823;106148287;720945048;2597;8448;1764056;-4;14373;2055767
4;18;1573446984790;1573446999964;15174;45978553016;59488433721;2046319192;997536855;11307673122;107680458;720547235;5391;19548;3689440;8;29208;4330865
4;19;1573447000369;1573447015149;14780;46551350290;59477361723;2035205962;992649914;11309036080;106579449;719299238;2502;11002;2271144;8;15185;2276316
4;20;1573447015488;1573447045129;29641;45934210772;59487086484;2037945985;1005159659;11307213091;107510688;722894742;5452;20233;3843504;-13;29979;4452389
4;21;1573447045453;1573447060161;14708;46536453180;59454973837;2031829777;991599809;11301280602;106557129;724254675;2555;7867;1911600;6;15033;2147117
4;22;1573447060487;1573447087044;26557;45090416328;59488892958;2049121609;963864793;11307801688;107899338;723841149;4883;19280;3503272;-5;26883;3985119
4;23;1573447087406;1573447101664;14258;45770440090;59453648331;2017529532;969296183;11300844981;106938215;715451583;2774;8842;1883832;-8;14620;2207068
4;24;1573447101985;1573447133967;31982;45990199436;59489755986;2040474252;1013383953;11308174270;108517041;717395531;5469;17969;4153880;2;32303;4821134
4;25;1573447134475;1573447150384;15909;46675560082;59455281626;2035161854;1006790781;11301402554;108491875;714905832;2327;12277;2467032;9;16417;2347815
4;26;1573447150787;1573447176400;25613;45909119796;59486868033;2040465546;1003485760;11307222880;107569264;719168645;4523;18378;3524952;-7;26016;3845162
4;27;1573447176769;1573447191028;14259;46605197864;59453814553;2027678635;984659570;11300924947;106158685;717871912;2685;9460;2003832;5;14628;2178760
4;28;1573447191364;1573447220778;29414;46122289140;59488060719;2042621897;1004155553;11307607297;107223171;722605837;5164;17985;3946432;-15;29750;4407453
4;29;1573447221175;1573447237142;15967;46977962144;59453013171;2038600716;1008598574;11300717974;108450238;719820468;2839;8939;2014672;10;16364;2337299
4;30;1573447237489;1573447264727;27238;46473754356;59486219250;2042713539;1015837413;11307065406;108363013;721789513;4421;20321;3997776;5;27585;4054798
4;31;1573447265244;1573447280136;14892;46480919160;59453505023;2026692101;995833172;11300859754;106846326;719246705;2806;8823;1872544;95;15409;2289216
