0;0;1573863266958;1573863290599;23641;46092177370;63122625789;2459126685;1062134026;12089444155;110791670;899138464;0;0;0;0;0;0
0;1;1573863291107;1573863309094;17987;47308002590;57201110452;2170904419;1104271137;11104727640;89555613;746242419;488;4;44864;0;820;101037
0;2;1573863309441;1573863324401;14960;45546272566;56947966479;2130621440;1083828133;11069853433;88395584;735047028;172;102;23952;0;322;5606
0;3;1573863324959;1573863339502;14543;46426786156;56916981682;2094538083;1034693231;11063828423;87843154;735309943;21;15;1192;0;14;117
0;4;1573863339849;1573863353788;13939;45514022772;56941147167;2091464961;1031542509;11068600505;87754827;734303713;75;25;8536;0;123;701
0;5;1573863354210;1573863368255;14045;46171495374;56922187954;2070821787;1034197568;11065207623;87011280;731203176;21;10;968;0;14;82
0;6;1573863368597;1573863382776;14179;45729114790;56942389821;2102510645;1038779918;11068867388;87589917;733323247;81;25;8536;0;123;883
0;7;1573863383155;1573863397547;14392;46904392598;56915964230;2089200347;1039504968;11063576824;87478013;731882131;28;7;1144;0;16;131
0;8;1573863397878;1573863412178;14300;46118893910;56939896702;2099194443;1040240949;11068314625;87704011;731677815;20;6;784;0;6;71
0;9;1573863412521;1573863426895;14374;46754833994;56915477902;2093143077;1035640069;11063497051;87358926;730185130;82;33;9728;0;143;957
0;10;1573863427224;1573863441271;14047;45897523892;56940921023;2094635701;1037239506;11068707828;87354294;730684825;21;16;1160;0;6;68
0;11;1573863441649;1573863456359;14710;46588833892;56915842349;2076075274;1027373965;11063776706;87389486;725868368;75;30;8648;0;110;795
0;12;1573863456731;1573863470959;14228;45546142772;56959556843;2068495993;1031573681;11075609544;87566785;726336202;16;11;808;0;4;23
0;13;1573863471284;1573863485646;14362;46379739846;56916750683;2070824905;1032846954;11064284012;87284887;724938451;69;31;7824;0;118;642
0;14;1573863486010;1573863500736;14726;45635124370;56939388751;2090950079;1033480121;11068536638;87934481;727381601;17;10;792;0;4;34
0;15;1573863501111;1573863515639;14528;46316438042;56913344033;2072102931;1035692434;11063291576;87991187;727934282;68;34;8064;0;114;645
0;16;1573863516048;1573863530431;14383;46104215216;56936823736;2093450307;1041117178;11067873291;87433283;727472299;21;11;976;0;14;70
0;17;1573863530782;1573863545075;14293;46680848786;56911772182;2092269174;1035770346;11062967973;87259486;730093510;19;16;1144;0;14;140
0;18;1573863545400;1573863559450;14050;45934717976;56938798322;2096395394;1036550948;11068423039;87288761;728214573;62;34;8224;0;112;606
0;19;1573863559830;1573863574496;14666;46446276426;56930908668;2081147447;1030441512;11069695971;87650892;734505109;17;9;784;0;5;46
0;20;1573863574828;1573863588990;14162;45968926068;56936352019;2093189263;1042765693;11067800437;87165413;734137106;67;41;8272;0;114;637
0;21;1573863589317;1573863603881;14564;46490370470;56911859271;2087188578;1031568844;11062980965;87315127;728666974;19;12;968;0;6;50
0;22;1573863604208;1573863618721;14513;45560133076;56936218400;2086360931;1028177724;11067789187;87484139;736238050;61;31;7760;0;99;545
0;23;1573863619124;1573863633794;14670;46717885044;56911646980;2089699324;1035553445;11062942573;87383244;729711065;35;1;1168;0;10;158
0;24;1573863634121;1573863648022;13901;45643337016;56938149698;2088119260;1031076297;11068373641;87258383;725033743;42;42;7544;0;124;404
0;25;1573863648347;1573863662484;14137;46407486270;56911503282;2068043066;1027297977;11062918753;87186113;721133206;0;0;0;0;0;0
0;26;1573863662808;1573863676850;14042;44944369608;56936034211;2054336285;1025614831;11067734446;87169900;719887281;16;20;1160;0;14;57
0;27;1573863677238;1573863692105;14867;46221900852;56911397496;2068751011;1027702434;11062900240;87325686;725309411;63;31;7776;0;122;610
0;28;1573863692468;1573863706650;14182;45839657084;56936387617;2104226313;1042284047;11067836700;87396035;728619094;11;12;760;0;3;14
0;29;1573863706997;1573863721561;14564;46771354332;56912189831;2108991370;1041858774;11063054088;87716423;727641375;49;38;7888;0;126;266
0;30;1573863721887;1573863735875;13988;45891047770;56936378950;2087717254;1038943923;11067848176;87251131;724917818;10;13;760;0;4;19
0;31;1573863736261;1573863750472;14211;46717703420;56911776273;2091453508;1034392012;11062973984;87239210;723301587;65;42;8320;0;102;583
0;32;1573863750798;1573863764949;14151;45918450802;56937635942;2109095158;1038028548;11068124815;87449946;724252165;10;13;760;0;3;10
0;33;1573863765276;1573863779522;14246;46722116708;56932007971;2094787394;1037227255;11070136303;87406794;724285556;488;46;51200;0;1513;2023
0;34;1573863779849;1573863794068;14219;45907296110;56935948230;2101258168;1039665285;11067743166;87586135;727376640;14;17;976;0;12;26
0;35;1573863794446;1573863808532;14086;46500187948;56912860120;2089677497;1031823728;11063341974;87113492;721697338;29;1;984;0;23;175
0;36;1573863808865;1573863822966;14101;45813316640;56963199485;2112444523;1038146432;11075455096;87237443;725494339;144;46;9392;0;197;3446
0;37;1573863823295;1573863837881;14586;46158582258;56913007413;2081020752;1032862849;11063369682;87439986;726780071;12;16;944;0;12;26
0;38;1573863838208;1573863852157;13949;45689999200;56936232575;2088251329;1038376349;11067825359;87259231;728123632;52;50;9720;0;151;450
0;39;1573863852532;1573863866651;14119;46386894576;56913077682;2066262932;1026766272;11063382326;87250864;725840501;11;14;800;0;15;41
0;40;1573863866985;1573863880850;13865;45649948042;56958817427;2086336513;1028412228;11075484362;87314521;726246299;49;49;9224;0;139;442
0;41;1573863881175;1573863895166;13991;45933360614;56911056692;2066499502;1021670573;11062847537;87175012;722687929;12;14;800;0;4;16
0;42;1573863895493;1573863909368;13875;45252672114;56937955635;2077110915;1027525910;11068222551;87307929;726105387;42;45;8304;0;116;377
0;43;1573863909745;1573863923828;14083;45969814332;56911157505;2089819971;1027923573;11062859804;87336676;734420040;0;0;0;0;0;0
0;44;1573863924170;1573863938416;14246;46010373278;56936245927;2093932085;1034639451;11067833427;87526309;734941424;16;15;968;0;13;32
0;45;1573863938741;1573863952803;14062;46445533870;56910894530;2079327091;1039401520;11062805577;87036294;732917859;52;43;8016;0;89;439
0;46;1573863953145;1573863967003;13858;45563554440;56936232621;2079092894;1037122223;11067830119;87178855;731297145;13;15;800;0;13;64
0;47;1573863967399;1573863981626;14227;46396527072;56913956429;2081005723;1037062998;11063641690;87429166;734114123;63;39;8320;0;110;520
1;0;1573864116010;1573864139575;23565;46443751356;60837741486;2346542643;1062633272;11472231103;105989428;805774381;0;0;0;0;0;0
1;1;1573864139934;1573864158273;18339;48300914426;56824588212;2176038830;1100359235;10870499109;91308168;735866764;162;3;42064;0;501;19884
1;2;1573864158804;1573864174518;15714;47467537958;56626900223;2144137537;1086096752;10829022549;89282437;732897169;494;111;25976;0;668;81804
1;3;1573864175185;1573864190385;15200;47701680202;56592573675;2048331832;1023519863;10822454109;88607852;720784618;22;14;1168;0;6;88
1;4;1573864190752;1573864205668;14916;46698888838;56625823692;2061381060;1032518165;10828972754;89000963;719620598;69;32;8392;0;122;670
1;5;1573864205988;1573864221021;15033;47567255082;56594141729;2070155613;1028925985;10822317650;88893783;720795638;61;41;8728;0;115;602
1;6;1573864221342;1573864235673;14331;46549692022;56622911888;2058459984;1029587078;10828701588;88702769;719517494;22;8;968;0;13;88
1;7;1573864236046;1573864252177;16131;47788600864;56588465360;2068965241;1028485152;10821647600;88909038;720593522;20;10;960;0;7;73
1;8;1573864252652;1573864266949;14297;46902960338;56621608620;2068866647;1029411309;10828309789;88187819;718996549;88;35;9952;0;131;1038
1;9;1573864267278;1573864281996;14718;47918466696;56610713013;2068777299;1032564964;10829140022;88218521;718683102;16;13;952;0;13;69
1;10;1573864282416;1573864296982;14566;46711288326;56624991877;2065606948;1028714006;10828969093;88537898;721554471;65;29;8096;0;107;600
1;11;1573864297372;1573864312764;15392;47499589338;56586803086;2079041792;1031054841;10821363673;88939112;724061008;25;10;1144;0;15;143
1;12;1573864313085;1573864327279;14194;46462858960;56641683860;2062318237;1028187302;10835615245;88161689;718460621;61;31;7584;0;115;574
1;13;1573864327603;1573864342901;15298;47296741318;56589315706;2061852436;1028453373;10822257702;88531524;717834369;20;5;776;0;13;78
1;14;1573864343243;1573864358569;15326;46746123196;56621239216;2072923487;1031482672;10828554748;88879057;720596938;30;7;1160;0;9;143
1;15;1573864358946;1573864373477;14531;47777886362;56586763737;2039275637;1020518170;10821359693;88144303;714881009;77;26;8280;0;149;857
1;16;1573864373805;1573864388857;15052;46748107482;56619894971;2057766561;1022652407;10828103827;88565182;718423958;18;16;1136;0;6;31
1;17;1573864389178;1573864404821;15643;47655025756;56586113918;2062569909;1027965952;10821248017;88791015;716032203;85;37;8856;0;151;942
1;18;1573864405165;1573864420387;15222;46903838528;56622165208;2066428109;1029972909;10828873355;88754797;717510653;13;11;768;0;4;26
1;19;1573864420833;1573864435316;14483;47388402454;56608073008;2060801355;1019098324;10828909899;88156017;715400347;76;36;8488;0;124;756
1;20;1573864435641;1573864451233;15592;46827330878;56644785636;2085555222;1029696912;10836406556;89130306;720313588;20;11;976;0;15;210
1;21;1573864451553;1573864466051;14498;47676443956;56586944833;2045512997;1023269195;10821608106;88120791;711948391;86;26;8272;0;131;1062
1;22;1573864466391;1573864480710;14319;46900765228;56619133005;2065375666;1027620781;10827897977;88285190;717207532;16;15;968;0;13;35
1;23;1573864481091;1573864495678;14587;47731901472;56585348368;2074176947;1030596576;10821118438;88308681;725822629;65;36;7736;0;119;666
1;24;1573864496003;1573864510464;14461;46518743964;56619184998;2078158683;1032753316;10827965921;88477394;719631256;10;17;792;0;12;49
1;25;1573864510785;1573864525204;14419;47231566480;56586794911;2066670683;1029529054;10821583741;88238944;721153248;10;25;1144;0;13;69
1;26;1573864525526;1573864539683;14157;46513914868;56618776220;2070376837;1031154446;10827853724;88321162;724155023;58;35;8064;0;148;749
1;27;1573864540054;1573864554426;14372;47534174548;56608449813;2052890702;1031235274;10828814235;88035227;718176409;14;17;968;0;13;27
1;28;1573864554749;1573864569022;14273;46761907986;56620444307;2062747565;1037871130;10828411144;88329498;719120479;65;34;7704;0;126;601
1;29;1573864569343;1573864583805;14462;47492911590;56585194801;2059121575;1025536930;10821128839;88100830;719717574;11;17;944;0;3;8
1;30;1573864584127;1573864598549;14422;46779693122;56618595337;2083355863;1033633224;10827858007;89037385;723944345;71;38;7976;0;122;823
1;31;1573864598933;1573864613427;14494;47712761310;56608452270;2069834920;1028845858;10828786925;88108396;721440734;12;18;992;0;13;68
1;32;1573864613769;1573864628016;14247;46806204970;56621392476;2074583025;1029073372;10828731705;88267056;719405919;82;36;8216;0;129;853
1;33;1573864628369;1573864642900;14531;47734866148;56607043809;2074488205;1029276055;10828722462;88120442;719295848;16;15;968;0;4;7
1;34;1573864643225;1573864657543;14318;46863119712;56620382559;2083923015;1032827057;10828381914;88417235;720303245;71;42;9056;0;172;762
1;35;1573864657927;1573864672412;14485;47579546092;56584940609;2069548452;1030004602;10821042522;88101557;715146392;9;21;960;0;13;37
1;36;1573864672773;1573864687350;14577;46642188570;56620637827;2057421738;1032301558;10828446766;88784216;715589859;14;20;1064;0;71;115
1;37;1573864687687;1573864702390;14703;47647011524;56585128807;2052501449;1031809431;10821071931;88615954;712661759;568;58;58224;0;1598;3104
1;38;1573864702713;1573864718065;15352;46927616818;56618300119;2073533202;1032748760;10828298852;89246102;716449999;13;12;776;0;4;17
1;39;1573864718445;1573864733233;14788;47902660298;56584029291;2070722501;1030378486;10820971572;88440144;725128674;86;30;8792;0;129;1118
1;40;1573864733554;1573864748391;14837;46775927928;56637156216;2072685164;1026448761;10834736646;88348939;723135404;90;23;1768;0;256;2708
1;41;1573864748756;1573864764426;15670;47666061166;56581836306;2086599551;1035084160;10820374105;89054470;726911086;10;20;960;0;11;22
1;42;1573864764752;1573864779268;14516;46814348412;56616954009;2066280829;1025266509;10827634219;88510399;725444797;75;46;9240;0;143;820
1;43;1573864779640;1573864794321;14681;47788280832;56582436945;2048210847;1029147732;10820495577;88643397;719138905;15;14;960;0;4;12
1;44;1573864794668;1573864809198;14530;46678720398;56620149825;2072677251;1025921565;10828102381;88593660;721371530;82;39;8664;0;144;831
1;45;1573864809520;1573864824446;14926;47479819916;56567120015;2070336172;1029886971;10817324292;88242654;719679394;19;11;984;0;6;42
1;46;1573864824770;1573864838778;14008;46434604310;56597306349;2053111249;1024575223;10823914832;87871336;719801481;64;36;8080;0;133;609
2;0;1573864974631;1573864999197;24566;47126263688;63707860674;2417770456;1083418705;12022912371;109941608;953138441;0;0;0;0;0;0
2;1;1573864999644;1573865016113;16469;47575880908;57990676546;2131577061;1110896720;11105038645;87765084;746315046;187;5;42384;0;440;28732
2;2;1573865016453;1573865030750;14297;46121479862;57763125435;2098676193;1094207309;11074159883;86467255;743733946;120;104;20000;0;254;3759
2;3;1573865031209;1573865046644;15435;45972779008;57733489418;2039009919;1028726105;11069108438;86987262;724240173;23;12;1152;0;6;94
2;4;1573865046967;1573865062524;15557;45010926336;57757895776;2044376105;1027200747;11073444380;86898236;724788511;45;36;8408;0;106;293
2;5;1573865063105;1573865078612;15507;46284112620;57732092510;2039791234;1032327465;11069028208;86939948;727821434;17;16;1128;0;6;46
2;6;1573865079056;1573865094176;15120;45158945078;57758811746;2048062065;1033185613;11073666060;87584621;724067309;73;29;9328;0;136;732
2;7;1573865094557;1573865108628;14071;45784418860;57729491565;2035272757;1028294086;11068340216;86252497;725354352;15;13;944;0;4;32
2;8;1573865108955;1573865124480;15525;44888178442;57783154854;2064510855;1025039186;11080698718;87318668;729272187;76;32;9680;0;154;831
2;9;1573865124801;1573865139510;14709;45974188492;57729053360;2059560453;1026483039;11068270645;86448223;725558076;18;14;1120;0;5;41
2;10;1573865139838;1573865153701;13863;45207892308;57757711843;2067390805;1033390260;11073430920;86209184;722519414;18;9;792;0;5;50
2;11;1573865154084;1573865169027;14943;46133187456;57727716609;2026943915;1023808357;11068016736;86527592;726355754;75;34;8272;0;108;711
2;12;1573865169367;1573865184833;15466;44987276088;57803819814;2039600352;1026171748;11088060621;86509468;725496742;19;7;784;0;5;55
2;13;1573865185158;1573865200223;15065;45821422560;57729637164;2046215362;1026952129;11068644896;86560962;728580709;82;34;8960;0;118;785
2;14;1573865200550;1573865214888;14338;45161638924;57754813496;2038667070;1025641367;11072765643;86546513;727103163;19;9;808;0;4;27
2;15;1573865215274;1573865231997;16723;46289081876;57727914583;2060312075;1032560081;11068756863;87395572;730480330;67;29;7792;0;125;639
2;16;1573865232329;1573865247603;15274;45138383460;57754173314;2046774096;1032621202;11072775299;86721160;729782748;23;10;984;0;15;133
2;17;1573865247928;1573865262274;14346;46173600840;57724968545;2045268360;1028417366;11067567453;86066222;725711986;83;54;9680;0;172;1260
2;18;1573865262601;1573865276927;14326;45202168378;57753561413;2054189029;1028538472;11072672973;86196014;727866968;23;15;1168;0;6;73
2;19;1573865277301;1573865291727;14426;46267118950;57746485546;2059286776;1030774088;11075128776;86171984;726327766;78;38;8640;0;140;858
2;20;1573865292061;1573865306655;14594;44852943532;57755895302;2036190347;1023857116;11073437741;86315850;723542683;23;14;1168;0;5;49
2;21;1573865306999;1573865323177;16178;45756126250;57726298152;2057146678;1024392806;11068000320;86855965;729749241;46;40;8208;0;151;433
2;22;1573865323524;1573865338027;14503;45072605496;57753031242;2047476163;1026012850;11072527412;86824169;727750833;18;17;1144;0;13;52
2;23;1573865338408;1573865353210;14802;46262617186;57726166137;2023331370;1022636561;11068056164;86416592;724325010;82;33;8096;0;128;937
2;24;1573865353554;1573865368538;14984;45121931742;57752274768;2035366266;1023769932;11072354357;86353655;727136406;12;19;968;0;4;11
2;25;1573865369010;1573865384039;15029;45936836144;57724505295;2039947572;1025065263;11067496020;86499518;725558717;66;37;8096;0;102;653
2;26;1573865384365;1573865398754;14389;44986643470;57752164586;2024234800;1025919719;11072331732;86275343;723967710;13;13;792;0;13;88
2;27;1573865399125;1573865412921;13796;45720771328;57724390660;2016180862;1025134462;11067452407;85924077;723130284;15;20;1144;0;13;19
2;28;1573865413244;1573865427269;14025;44835349656;57753842380;2034672499;1025618159;11072851607;86354491;723774260;84;29;7832;0;119;956
2;29;1573865427594;1573865441910;14316;45586208676;57724356715;2039475442;1021609288;11067460607;86117221;722423645;15;15;984;0;4;20
2;30;1573865442234;1573865455844;13610;44691611780;57752368135;2033638271;1027065765;11072391525;85850865;722228938;53;36;8088;0;104;512
2;31;1573865456220;1573865470596;14376;46065608436;57753961577;2022922564;1035456569;11075894675;86071016;722499497;15;16;992;0;13;52
2;32;1573865470927;1573865485161;14234;45262640264;57752443661;2051668345;1036916558;11072392443;86308401;724466871;57;45;8248;0;111;504
2;33;1573865485481;1573865501241;15760;46243082824;57745957846;2083979322;1031350562;11075047240;87262561;735012618;11;13;768;0;3;12
2;34;1573865501560;1573865515417;13857;45088717910;57752797077;2034305558;1023335155;11072484417;86047355;724105561;58;46;8896;0;147;531
2;35;1573865515788;1573865530364;14576;45952636118;57727612721;2030522551;1024243612;11068477536;86425187;727455022;976;83;253928;0;3025;7023
2;36;1573865530708;1573865544582;13874;45142679510;57752550002;2026960329;1021836231;11072398916;86402861;724394358;13;19;976;0;14;66
2;37;1573865544909;1573865558931;14022;45838523248;57725858104;2025125083;1020590884;11067953956;85907584;724175158;156;51;10328;0;238;3377
2;38;1573865559290;1573865573068;13778;45132991972;57752218355;2033526028;1024739743;11072380164;86143517;724737044;16;17;992;0;4;10
2;39;1573865573452;1573865587778;14326;46111689832;57750874997;2045754548;1028707829;11075057324;86573222;724992896;66;46;9384;0;146;940
2;40;1573865588240;1573865602379;14139;45174253616;57773719355;2048539345;1028393659;11079887105;86091755;729718231;8;22;960;0;13;24
2;41;1573865602847;1573865618051;15204;46207791704;57723976338;2050013346;1028100928;11067407113;86791727;727377882;47;34;7504;0;130;547
2;42;1573865618376;1573865633184;14808;44993249970;57753829108;2044442689;1033109147;11072897083;86522583;727921588;16;14;960;0;5;23
2;43;1573865633558;1573865647768;14210;45886088296;57726040912;2023717100;1025401440;11067945242;86029641;729119382;53;24;7728;0;120;637
2;44;1573865648103;1573865662143;14040;45106927322;57751936606;2033685286;1028835923;11072286966;86280860;725553921;16;14;968;0;13;26
2;45;1573865662652;1573865676676;14024;45916371032;57725966690;2022516977;1019183277;11067967543;86098838;724923878;59;38;8600;0;119;508
2;46;1573865677001;1573865690593;13592;44918705436;57752427417;2020923155;1020969928;11072415694;85845760;725016869;13;10;760;0;12;33
3;0;1573865825391;1573865847992;22601;44684025912;61551814741;2343042484;1076731610;11661892541;101484040;836566436;0;0;0;0;0;0
3;1;1573865848357;1573865866098;17741;46430495432;58550239038;2211539529;1102997681;11178222086;90896589;779575276;187;4;44336;0;540;37390
3;2;1573865866429;1573865882379;15950;45798914470;58324327878;2179649178;1104043492;11146678897;89150710;771092697;565;106;26448;0;685;44793
3;3;1573865882766;1573865898321;15555;46484134518;58284030110;2095137460;1045943002;11140130621;88822515;746775391;30;11;1376;0;75;158
3;4;1573865898645;1573865912597;13952;45473401192;58314474002;2081281918;1041435867;11144975389;88286912;748675761;93;40;9760;0;181;1396
3;5;1573865912923;1573865927572;14649;46237765212;58282943658;2093870426;1045455403;11139633547;88413217;747617037;15;9;768;0;4;30
3;6;1573865928042;1573865943192;15150;45508961682;58314185787;2092506233;1039197980;11144838068;88906311;749520875;29;11;1256;0;17;241
3;7;1573865943739;1573865958038;14299;45950413560;58284204163;2103395560;1045166572;11140990823;88489199;751050761;119;46;10472;0;158;1519
3;8;1573865958364;1573865972790;14426;45327806634;58308439395;2113136831;1045540379;11148199689;88628320;753729579;22;12;1040;0;15;82
3;9;1573865973131;1573865987203;14072;46199593366;58276378839;2094267438;1045665654;11142594186;87882605;755149904;94;29;8776;0;137;1049
3;10;1573865987526;1573866001593;14067;45376717510;58309245425;2093019033;1053547592;11148335868;88099649;754894337;19;13;1000;0;26;96
3;11;1573866002163;1573866017963;15800;46214817954;58276749497;2091881817;1037566787;11143151694;88293033;754163408;111;26;8840;0;137;1531
3;12;1573866018289;1573866032070;13781;45252675910;58323309111;2078435972;1045013237;11154673259;87957720;748053106;19;12;976;0;5;40
3;13;1573866032401;1573866046916;14515;46057068896;58275089255;2094102131;1042930543;11142660480;88358840;750855596;23;7;960;0;7;70
3;14;1573866047283;1573866061434;14151;45540099540;58333608654;2095441958;1043888185;11155670974;88527339;755614561;93;32;8896;0;161;1143
3;15;1573866061937;1573866077009;15072;46162049174;58274829727;2092143015;1037948884;11142627355;88567621;740375840;109;24;8648;0;122;1452
3;16;1573866077329;1573866091295;13966;45235378998;58306657531;2085839400;1038171436;11147924587;87999209;743278901;17;10;792;0;13;91
3;17;1573866091614;1573866106398;14784;46082501512;58272063372;2088902812;1038530774;11141903763;88054572;746729754;97;29;8744;0;149;1168
3;18;1573866106746;1573866122168;15422;45675797196;58304810913;2095212234;1040625039;11147444816;88472301;747226950;18;8;784;0;5;51
3;19;1573866122810;1573866138000;15190;46157079480;58288492331;2093071812;1043068008;11148464108;88549669;751469855;114;34;9392;0;170;1712
3;20;1573866138342;1573866153474;15132;45670922402;58304867469;2113254355;1047092440;11147502518;88562792;753868777;19;12;968;0;13;55
3;21;1573866153840;1573866168529;14689;46238968252;58272088762;2094866094;1045875052;11141939778;88109146;751719649;97;25;8656;0;160;1178
3;22;1573866168857;1573866182640;13783;45380048062;58304989311;2095345530;1044269844;11147513303;87906778;752037345;20;15;1152;0;13;34
3;23;1573866183019;1573866197093;14074;46246229124;58274059072;2079748655;1043241181;11142557774;87963604;749705137;95;30;8112;0;157;1242
3;24;1573866197442;1573866211610;14168;45715818570;58304313843;2085241160;1041908266;11147350901;87870284;753563619;10;22;976;0;13;58
3;25;1573866211936;1573866226502;14566;46221055512;58271907211;2077417481;1035745025;11141906138;87759315;748566862;13;16;952;0;4;11
3;26;1573866226832;1573866241710;14878;45744123152;58304112313;2096922068;1035059801;11147312390;88776734;752917922;90;27;8128;0;155;1144
3;27;1573866242088;1573866257777;15689;46437774992;58272003469;2097317877;1046600393;11141931925;88604202;745113043;15;18;1040;0;4;15
3;28;1573866258258;1573866273106;14848;45448910568;58304380206;2105967736;1046266182;11147391224;88613800;747129843;101;34;8904;0;155;1471
3;29;1573866273462;1573866288858;15396;46804922798;58271740671;2110799724;1052305848;11141889887;88553590;750304459;19;16;1152;0;5;61
3;30;1573866289202;1573866303899;14697;45755301350;58303991355;2108713559;1049720592;11147291366;88386255;747641247;88;38;8592;0;146;1223
3;31;1573866304275;1573866318583;14308;46318391668;58272369486;2083504120;1040728664;11142010012;88097212;746922578;12;13;800;0;12;69
3;32;1573866318914;1573866333774;14860;45834258296;58304235880;2114682671;1049180722;11147350950;88851652;755133723;99;42;8992;0;144;1301
3;33;1573866334103;1573866348994;14891;46307018852;58288765954;2094400671;1046814362;11148603174;88157584;748735533;12;12;768;0;4;11
3;34;1573866349321;1573866363730;14409;45738539820;58305927599;2109505801;1053436609;11147892816;88109276;750683087;13;18;968;0;3;9
3;35;1573866364124;1573866378413;14289;46502744992;58272159579;2095883701;1043315065;11141982355;88199837;748566324;71;39;7952;0;153;882
3;36;1573866378741;1573866393053;14312;45948798362;58332653626;2119939813;1053573236;11155490388;88294248;755105594;14;18;1000;0;26;56
3;37;1573866393384;1573866408237;14853;46196404142;58272378063;2097474673;1048067260;11142028453;88191727;750147498;59;45;8600;0;147;598
3;38;1573866408587;1573866423014;14427;45543688512;58304321293;2105001251;1050658398;11147400787;88463555;751850759;502;53;63432;0;1563;2316
3;39;1573866423403;1573866438479;15076;46138335562;58297045342;2077893199;1034142525;11149728225;88618229;748445050;7;22;960;0;51;61
3;40;1573866438808;1573866452592;13784;44884798250;58322974027;2068430294;1038082753;11154804589;88211262;743213267;134;58;9912;0;217;4876
3;41;1573866452916;1573866467773;14857;45958438304;58269921149;2071481028;1035557418;11141627573;88177613;745402877;18;12;960;0;13;37
3;42;1573866468097;1573866482244;14147;45380108214;58302323193;2100811080;1036497793;11147062683;88355809;746196114;81;40;9816;0;159;921
3;43;1573866482623;1573866498065;15442;46929166900;58271112446;2108044147;1047538299;11141924688;88596312;749880924;13;12;776;0;4;33
3;44;1573866498392;1573866513012;14620;46010815220;58302329806;2102596308;1043650053;11147058761;87884950;756968253;24;14;1216;0;75;215
3;45;1573866513520;1573866528271;14751;46623495752;58270661674;2080630388;1039746529;11141830734;88314221;748910615;46;36;8016;0;130;579
3;46;1573866528695;1573866542953;14258;45572978886;58302458105;2077211862;1038854726;11147074020;87890811;749953392;13;12;800;0;13;85
4;0;1573866676712;1573866698955;22243;45347626572;60548463911;2331124265;1066942099;11522736620;106740318;817137088;0;0;0;0;0;0
4;1;1573866699598;1573866717285;17687;49223879706;58680415135;2191219393;1110429440;11202897624;98458784;775439381;329;8;44936;0;667;82351
4;2;1573866717638;1573866733144;15506;47766855624;58528846436;2165770745;1099424636;11169394512;96046488;769843647;153;96;21168;0;264;3322
4;3;1573866733543;1573866748665;15122;47810440712;58491558932;2094740980;1046460117;11163610644;95160381;758013534;28;8;1192;0;7;141
4;4;1573866749110;1573866764699;15589;46442490792;58530537786;2094339711;1037905362;11169060746;95613770;764320734;74;44;9616;0;120;660
4;5;1573866765134;1573866780779;15645;47155471572;58506102270;2068003377;1039026531;11164430116;95089956;762649550;14;11;776;0;4;34
4;6;1573866781115;1573866796720;15605;46684027206;58532399196;2064117252;1042506027;11169214673;95540774;758246398;103;34;9104;0;275;1435
4;7;1573866797123;1573866812425;15302;47385284332;58502839799;2071164297;1035236001;11164436887;95274867;746065853;25;15;1328;0;61;247
4;8;1573866812760;1573866828705;15945;46931443478;58530714881;2097379497;1043063758;11168721329;95965303;748707360;116;55;11024;0;173;1034
4;9;1573866829273;1573866844229;14956;47745059722;58499673702;2064171348;1038286787;11163614389;94729942;744148530;23;10;984;0;7;81
4;10;1573866844568;1573866860747;16179;46741782908;58534469220;2094326675;1038857055;11169648444;95820813;751716679;77;29;8216;0;132;683
4;11;1573866861337;1573866878257;16920;48057820484;58498515712;2095356258;1050170771;11163263909;96123242;766471722;32;6;1168;0;19;179
4;12;1573866878742;1573866893730;14988;47231670870;58551581412;2101298886;1048460379;11176198641;95204616;765120838;85;29;8192;0;137;968
4;13;1573866894093;1573866908631;14538;48012450838;58500253401;2073668157;1045874441;11163717009;94670316;758132035;26;11;1160;0;8;97
4;14;1573866908968;1573866923604;14636;47292154290;58529751343;2090919080;1047347410;11168603870;95135687;760610534;77;33;8184;0;141;745
4;15;1573866923994;1573866938609;14615;47906281098;58498002585;2092411360;1042785574;11163176468;94930459;750764729;19;12;992;0;24;87
4;16;1573866938945;1573866954427;15482;46797264952;58531475575;2110168267;1044622974;11169310549;95882642;756322074;86;42;9152;0;151;931
4;17;1573866954763;1573866970070;15307;47699234848;58497087816;2103850567;1041192696;11163081693;95546246;756662943;20;10;960;0;21;213
4;18;1573866970414;1573866985676;15262;46532250716;58528939692;2112754296;1038102951;11168526573;95608156;756384778;47;45;8856;0;132;1691
4;19;1573866986139;1573867001144;15005;47617317898;58543712408;2080682319;1035466801;11178995785;95184037;750631404;19;16;1152;0;13;55
4;20;1573867001611;1573867016905;15294;46617744082;58528476775;2085964450;1045684522;11168412225;95631273;755822287;57;35;7976;0;112;557
4;21;1573867017448;1573867032469;15021;47384553894;58497878022;2063122664;1033813379;11163377996;95271801;751671458;10;27;1168;0;14;51
4;22;1573867033090;1573867048637;15547;46720199436;58530363787;2088767241;1047832473;11168995180;95505409;753990369;15;14;952;0;4;14
4;23;1573867049053;1573867064357;15304;47540606578;58496404437;2080706418;1042721474;11162891515;95238512;752530919;42;34;7560;0;108;308
4;24;1573867064777;1573867080228;15451;46976447978;58529578745;2100296739;1047464790;11168821410;95727257;761279965;13;21;1160;0;4;10
4;25;1573867080565;1573867096160;15595;47696363758;58498170168;2094096119;1046565611;11163500245;95693470;754778586;59;37;8072;0;133;556
4;26;1573867096611;1573867111076;14465;46710596578;58528313328;2090657906;1044244835;11168403372;95275385;752109250;12;17;952;0;12;17
4;27;1573867111462;1573867126434;14972;47484769462;58497815459;2066263966;1043651072;11163359988;94993142;749051617;64;47;9224;0;141;584
4;28;1573867126774;1573867141095;14321;46744159496;58529537510;2079489669;1048336500;11168796162;95048786;753594117;12;15;792;0;4;15
4;29;1573867141428;1573867157587;16159;47723377262;58496123179;2077476234;1044035696;11162850601;95597620;752248233;47;36;8120;0;124;319
4;30;1573867157955;1573867173923;15968;46698322358;58529244528;2084088263;1044274294;11168737896;95575358;751670271;17;15;992;0;5;14
4;31;1573867174496;1573867189370;14874;47510334646;58496817390;2082174529;1043397442;11162995176;95214144;757482463;64;40;8208;0;112;646
4;32;1573867189707;1573867204894;15187;46956657970;58529681559;2086338740;1043662841;11168835343;95912132;754919373;17;20;1160;0;14;54
4;33;1573867205226;1573867220458;15232;47590988696;58517826646;2083624111;1037733905;11170445108;95596738;758100598;12;16;944;0;4;10
4;34;1573867220790;1573867236154;15364;46894520954;58527957305;2101644164;1047375738;11168308840;95683397;761454149;52;41;7808;0;111;496
4;35;1573867236698;1573867252206;15508;47583401368;58497481473;2083725014;1042981947;11163298211;95357815;753460040;65;48;8136;0;161;752
4;36;1573867252546;1573867268989;16443;46811653836;58528115834;2102687791;1043437760;11168351139;96333622;755649563;484;37;49184;0;1475;1944
4;37;1573867269353;1573867285107;15754;47653037674;58498462481;2078439304;1045955804;11163550896;95499310;753030815;16;19;1040;0;29;224
4;38;1573867285446;1573867301335;15889;47133288478;58527724270;2114235427;1054860856;11168269754;96252262;758114007;150;42;9928;0;207;2602
4;39;1573867301720;1573867317780;16060;47670277208;58496163046;2073937527;1048002913;11162852755;95012818;756762741;20;18;1168;0;5;43
4;40;1573867318165;1573867333601;15436;47107221346;58549911859;2087848834;1045575386;11175983172;95548443;759654650;71;47;10096;0;134;674
4;41;1573867333936;1573867350165;16229;47795228680;58495830507;2087444873;1044391619;11162796836;95245540;756735069;37;30;2144;0;10;90
4;42;1573867350504;1573867366799;16295;46666516550;58527946467;2093141375;1042558335;11168312268;95775470;761501959;47;37;7736;0;99;400
4;43;1573867367234;1573867383595;16361;47605361082;58497629008;2087899011;1039440112;11163350968;95810895;755051819;24;13;1184;0;31;113
4;44;1573867383936;1573867400565;16629;46636688750;58552440890;2083182124;1034423848;11176479004;96449851;751570489;74;43;8968;0;176;766
