0;0;1573429183359;1573429207510;24151;46644487924;61105783532;2383884482;1069329659;11588017537;105757273;821964459;0;0;0;0;0;0
0;1;1573429207899;1573429227868;19969;49590693026;57144367732;2153859868;1106329529;10929811840;90045152;745716417;417;7;98336;0;952;49541
0;2;1573429228365;1573429245612;17247;47855183580;56922116927;2108915474;1087217078;10899720298;89058017;735061884;77;38;13168;0;227;1001
0;3;1573429246051;1573429264007;17956;48090988472;56887937154;2057728137;1026449108;10893682401;88674760;715824812;66;20;8360;0;173;673
0;4;1573429264554;1573429281351;16797;47046198456;56914498769;2044795047;1024637244;10898123277;88362607;711498850;1;0;8;0;0;0
0;5;1573429281860;1573429299824;17964;47748949016;56902511742;2041847643;1020652085;10896113783;88683108;717640957;78;14;8984;0;147;1010
0;6;1573429300399;1573429317883;17484;46554833120;56916682206;2046974011;1018267808;10898561624;88340464;714908385;1;0;8;0;0;0
0;7;1573429318347;1573429336036;17689;47733694060;56889909030;2031602229;1011477171;10894061456;88516764;716007422;75;18;8976;0;150;836
0;8;1573429336465;1573429353063;16598;46544626260;56920716574;2054380775;1013656011;10899315774;88349309;719671135;53;26;9384;0;124;561
0;9;1573429353551;1573429371239;17688;48020903362;56887558933;2046394545;1014123716;10893419965;88329771;716763485;13;0;176;0;13;21
0;10;1573429371712;1573429389195;17483;47002299760;56915336763;2055823237;1015002648;10898214959;88655627;719095504;53;26;9208;0;159;569
0;11;1573429389655;1573429407234;17579;48232509922;56888467798;2053692402;1024855745;10893802229;88411733;721813781;77;18;8592;0;149;1024
0;12;1573429407767;1573429424684;16917;46998824084;56932476568;2049602121;1021383318;10904321476;88405473;720405456;7;0;80;0;1;6
0;13;1573429425074;1573429442996;17922;47853440632;56887778293;2046843933;1018142564;10893612055;88385681;716958759;59;24;9168;0;139;642
0;14;1573429443563;1573429459977;16414;46776936058;56913890460;2053272171;1015880021;10897924033;88133328;721655362;6;0;72;0;1;5
0;15;1573429460487;1573429477377;16890;47888471726;56912478127;2055323976;1015850324;10900716830;88233466;713844061;55;32;9408;0;157;548
0;16;1573429477776;1573429494903;17127;46729390136;56913466632;2046548928;1021734247;10897904431;88354317;714234794;52;28;10352;0;149;571
0;17;1573429495384;1573429513102;17718;47548662420;56884757692;2058125893;1025441580;10892902382;88631663;717241504;7;0;88;0;1;4
0;18;1573429513620;1573429530924;17304;47069740372;56915115999;2054656412;1020901713;10898469452;88527863;715407833;93;44;15176;0;162;888
0;19;1573429531373;1573429548205;16832;47834760224;56903095513;2041198974;1018904386;10899261979;88207884;718195434;0;0;0;0;0;0
0;20;1573429548620;1573429566648;18028;46986174790;56912550159;2043776489;1022487160;10897692322;88463921;715462112;33;22;6192;0;103;1010
0;21;1573429567064;1573429584190;17126;47660708952;56885363926;2042036127;1015944525;10893088854;88217356;716739379;47;32;9976;0;127;486
0;22;1573429584695;1573429602385;17690;46304696722;56912718079;2041322110;1022120080;10897722059;88243430;717509113;9;0;80;0;2;9
0;23;1573429602956;1573429620546;17590;47910934994;56884394618;2056736812;1023007965;10892833023;88241282;717323172;63;20;8488;0;149;557
0;24;1573429621006;1573429638664;17658;47151835442;56914358977;2058387472;1030305637;10898294266;88500350;716275972;5;0;96;0;9;10
0;25;1573429639117;1573429656571;17454;47705754332;56884429115;2044847064;1021936225;10892851165;88643616;713822973;67;32;8896;0;139;730
0;26;1573429657054;1573429674481;17427;46944666260;56915156453;2060316848;1025430862;10898593463;88442688;717278573;2;0;16;1;18;18
0;27;1573429675108;1573429692568;17460;47743165664;56884666162;2040747298;1019858478;10892927339;88352882;717967447;70;24;7784;-1;112;586
0;28;1573429693068;1573429709490;16422;46717371854;56917044051;2055821871;1017158347;10899107329;88215536;716922011;103;34;11920;0;207;1899
0;29;1573429709950;1573429727224;17274;47917193722;56884296335;2042341415;1019766178;10892830254;88415728;717409211;471;19;48072;0;1468;2023
0;30;1573429727661;1573429744384;16723;46903268252;56913678588;2056302085;1022840393;10898120151;88352943;719497608;3;0;24;0;1;2
0;31;1573429745022;1573429762966;17944;48165236626;56884866207;2047518428;1020317417;10892937946;88492811;717510228;185;28;10696;0;287;4443
0;32;1573429763461;1573429781281;17820;47451590378;56912660036;2055528363;1024852189;10897722519;88617553;722120575;3;0;32;0;1;1
0;33;1573429781779;1573429798934;17155;48067346692;56903141622;2059522441;1019661211;10899301695;88381413;722774460;114;26;11208;0;236;2424
0;34;1573429799332;1573429816280;16948;47000051068;56912794999;2059923200;1016303971;10897787587;88328420;722232789;105;18;8088;0;176;2074
0;35;1573429816711;1573429834127;17416;47795901156;56884202063;2051380349;1024114676;10892797021;88337039;719161393;3;0;24;0;1;2
0;36;1573429834497;1573429851875;17378;46991812726;56913157656;2058209091;1031018746;10897846912;88379527;716309793;106;16;9776;0;255;2004
0;37;1573429852284;1573429869803;17519;47829701032;56884440370;2052811287;1022488853;10892862671;88366691;716731125;3;0;24;0;1;1
0;38;1573429870200;1573429887252;17052;46805294952;56912079128;2055013161;1027867933;10897610946;88353915;718808406;98;12;7752;0;161;1623
0;39;1573429887718;1573429905452;17734;47911710254;56884296423;2050298879;1018991940;10892819667;88347614;713598088;1;0;8;0;0;0
1;0;1573430060365;1573430084376;24011;45035523394;58356407554;2358761779;1067315617;10992256490;109379654;840649005;0;0;0;0;0;0
1;1;1573430084814;1573430103980;19166;48056251130;54890040952;2139258969;1098135837;10453563294;94972743;734719454;200;58;109872;0;1029;28163
1;2;1573430104347;1573430122603;18256;46582338206;54745560358;2102547026;1084587011;10421399971;94111637;728154122;4;0;96;0;1;1
1;3;1573430123097;1573430140336;17239;46605353500;54699548947;2037597695;1024814875;10416972296;94221011;709975192;47;22;7472;0;157;1023
1;4;1573430140795;1573430157407;16612;46045463940;54736882125;2043331583;1032216896;10421785302;93879045;714748919;5;0;88;0;24;24
1;5;1573430157821;1573430175074;17253;46307028050;54699062644;2036551455;1013561511;10416378389;93842163;711075720;59;22;8424;0;225;683
1;6;1573430175447;1573430192882;17435;45456654846;54715995805;2045626948;1021470034;10417377865;93846456;710675639;3;0;24;0;1;2
1;7;1573430193369;1573430211444;18075;46638397242;54696781872;2045745829;1025928778;10415520109;94056330;715194538;78;28;10112;0;189;1006
1;8;1573430211869;1573430228741;16872;45584613772;54717545156;2047543998;1031956424;10417888745;93500215;715404679;3;0;24;0;1;1
1;9;1573430229196;1573430246205;17009;46055279082;54692358872;2041454126;1019449084;10415021061;93591401;713891224;57;28;9512;0;140;652
1;10;1573430246659;1573430263358;16699;45709434866;54720788250;2049327343;1024688302;10418670546;93721862;715022046;60;26;10072;0;132;614
1;11;1573430263853;1573430280559;16706;46648867632;54690648326;2023694353;1021771670;10414600370;93862943;714716509;6;0;96;0;1;4
1;12;1573430280895;1573430297345;16450;45481991540;54736490177;2036060789;1019370269;10424759429;93477889;718022228;65;28;9984;0;152;737
1;13;1573430297696;1573430315214;17518;46658028256;54693066460;2026549447;1021787402;10415391136;93576106;711966640;37;18;4912;0;106;582
1;14;1573430315716;1573430332625;16909;45635038230;54714700207;2030239676;1024990016;10417217834;93538034;714872342;10;0;152;0;57;72
1;15;1573430333092;1573430349972;16880;47340113976;54693215601;2046770910;1022342216;10415483146;93399950;719411038;67;28;10456;0;201;955
1;16;1573430350406;1573430366752;16346;45366114114;54742076643;2041790659;1023722304;10425090699;93338802;718267456;3;0;24;0;1;2
1;17;1573430367107;1573430384454;17347;46343057346;54690606491;2040869287;1019761838;10414978209;93420095;716944772;50;32;9568;0;165;507
1;18;1573430384920;1573430401103;16183;45791045070;54714175470;2049023381;1024755642;10417148751;93494692;718537564;61;30;9720;0;164;739
1;19;1573430401575;1573430418383;16808;46564924348;54710159115;2039510832;1019551394;10421770098;93402733;713957644;5;0;40;0;9;19
1;20;1573430418740;1573430435368;16628;45692477842;54713374220;2037617575;1021414308;10416964446;93534373;713318300;42;28;9104;0;133;453
1;21;1573430435730;1573430452609;16879;45864656372;54688466952;2038879823;1019679324;10414196427;93199360;710709801;7;0;80;0;10;13
1;22;1573430453110;1573430469715;16605;44689089046;54713759680;2048126042;1006835644;10417067892;93561405;714400707;40;26;9024;0;133;430
1;23;1573430470306;1573430487796;17490;46429530810;54688612685;2029606360;1017576469;10414275352;93433050;719000527;14;0;216;0;36;87
1;24;1573430488292;1573430504520;16228;45826961800;54714776952;2030538970;1027518202;10417375181;93257992;720250464;54;26;9528;0;142;583
1;25;1573430504913;1573430522344;17431;46712951996;54688375779;2033416231;1028984691;10414184586;93500010;718298015;52;32;8976;0;121;561
1;26;1573430522749;1573430540059;17310;45625937904;54714684035;2037669800;1027274996;10417589054;93465936;718367419;4;0;32;0;2;5
1;27;1573430540533;1573430556426;15893;46239418224;54688167417;2040490930;1019576551;10414142896;93123609;717869769;58;24;9408;0;139;527
1;28;1573430556846;1573430573727;16881;45847663286;54713347931;2045072019;1028834148;10416955941;93523612;722922826;6;0;72;0;1;3
1;29;1573430574086;1573430590902;16816;46470265832;54688191153;2043748415;1020987129;10414146381;93382382;720980968;44;30;9064;0;116;419
1;30;1573430591345;1573430607868;16523;45683904722;54712953470;2035187761;1023449703;10416883826;93377892;717975675;7;0;88;0;2;10
1;31;1573430608313;1573430624900;16587;46691928434;54688374018;2030741363;1020761407;10414194884;93387401;711335321;66;26;9808;0;158;858
1;32;1573430625303;1573430642095;16792;45951269996;54713428414;2041220497;1025069401;10416965345;94196637;714962437;10;0;128;0;60;73
1;33;1573430642499;1573430658872;16373;46709559394;54711242328;2034561479;1023972175;10422188278;93430809;714955027;1031;107;262384;0;3283;8227
1;34;1573430659327;1573430676264;16937;45957333960;54713567563;2034263018;1023801411;10417035288;93564426;715075665;3;0;24;0;1;2
1;35;1573430676701;1573430694174;17473;46728681014;54688557674;2028399863;1018887336;10414254163;93555172;714728626;161;36;12208;0;467;4850
1;36;1573430694859;1573430711330;16471;45659547688;54714506372;2033855424;1013559163;10417382883;93511213;716180888;3;0;32;0;1;1
1;37;1573430711712;1573430728698;16986;46795731222;54690502078;2035011628;1017142868;10414833956;93463760;718318879;71;48;13056;0;194;952
1;38;1573430729239;1573430746558;17319;45910006600;54712740468;2052863325;1023929571;10416838700;93618758;717355236;5;0;64;0;18;20
1;39;1573430747053;1573430763165;16112;46443322992;54689603965;2035131121;1016800583;10414616718;93156020;715060368;42;36;10672;0;154;464
1;40;1573430763554;1573430779852;16298;45814304914;54735980224;2038127521;1025013599;10424914458;93162111;717048930;11;0;120;0;10;16
2;0;1573430945939;1573430969319;23380;43547391822;58151472148;2307012576;1052507421;10968667077;98433594;815350282;0;0;0;0;0;0
2;1;1573430970020;1573430990170;20150;46923246162;55308692949;2152991983;1099107505;10528422724;88464267;744944603;230;10;90824;0;743;100388
2;2;1573430990736;1573431008314;17578;46556918584;55151472583;2135549930;1094806018;10494959871;87154258;744096864;147;28;15072;0;264;5267
2;3;1573431008941;1573431025834;16893;46858653426;55112334819;2068442830;1038413146;10488650127;87154676;724003293;82;24;8408;0;172;1111
2;4;1573431026181;1573431043463;17282;45999632350;55139236941;2070320734;1041239918;10492538981;87070728;725490849;6;0;72;0;10;12
2;5;1573431043856;1573431061197;17341;46329793684;55111909292;2063971330;1026393871;10488505782;86616588;725242077;70;20;8744;0;171;926
2;6;1573431061744;1573431078808;17064;45695978484;55140152462;2070829017;1031383464;10492982343;86762112;727074657;7;0;104;0;1;5
2;7;1573431079445;1573431095702;16257;46253329396;55111786847;2075375532;1024724828;10488670587;86448509;728095837;84;24;8880;0;199;1061
2;8;1573431096100;1573431112394;16294;45073181028;55139102486;2076995029;1029668123;10492749732;86302723;728944066;3;0;24;0;1;2
2;9;1573431112817;1573431129720;16903;46405575130;55133947095;2085415987;1031583072;10496163952;86565339;730297975;72;22;8528;0;166;948
2;10;1573431130115;1573431146885;16770;45430282574;55137433494;2092339552;1033180004;10492262794;86575919;731794802;76;20;8752;0;162;945
2;11;1573431147542;1573431164706;17164;46531591526;55109006089;2064390014;1030566218;10487969643;86745711;728029207;3;0;24;0;9;10
2;12;1573431165055;1573431182092;17037;45656679372;55159671884;2070414797;1034707844;10500109315;86631188;729604062;66;16;8216;0;144;746
2;13;1573431182584;1573431200293;17709;46819655950;55108889040;2070270097;1037418189;10487999743;86749165;726932473;57;4;4544;0;133;587
2;14;1573431200667;1573431216832;16165;45635420604;55137229095;2072888913;1033563996;10492291429;86505697;727884945;5;0;64;0;1;2
2;15;1573431217283;1573431234355;17072;46440110554;55108778399;2058658148;1029594599;10487944887;86724175;723174811;64;26;8888;0;187;697
2;16;1573431234748;1573431251682;16934;45391846760;55158787097;2075071043;1028550514;10499593976;86528234;725481125;94;32;10632;0;262;1161
2;17;1573431252045;1573431268993;16948;46727491990;55133922344;2063360809;1034127932;10496317062;86455988;723520277;0;0;0;0;0;0
2;18;1573431269495;1573431286782;17287;45701421656;55135737767;2065612501;1030154604;10491931423;86666891;724475872;114;28;11784;0;203;1497
2;19;1573431287218;1573431304027;16809;46695517844;55130274169;2055313014;1029534747;10495582636;86434075;724862100;0;0;0;0;0;0
2;20;1573431304601;1573431321488;16887;45807069738;55136386785;2061498590;1034999603;10492110667;86738329;724582877;76;22;7272;0;144;1013
2;21;1573431321896;1573431338638;16742;46199600520;55107759271;2064833612;1031643840;10487767398;86312012;729166825;3;0;24;0;1;2
2;22;1573431338975;1573431356497;17522;45488018420;55137406006;2089779782;1031663052;10492421654;86620860;725898163;92;16;8992;0;188;1392
2;23;1573431357128;1573431373686;16558;46166438226;55107194416;2065389036;1029950399;10487662510;86394436;722090084;22;0;2488;0;100;1028
2;24;1573431374062;1573431390407;16345;45726589136;55135243791;2058604164;1025073909;10491852264;86301702;720671889;92;34;10576;0;197;1886
2;25;1573431390910;1573431407991;17081;46662753108;55107278939;2056908155;1029365155;10487688468;86549133;721867140;81;12;7552;0;150;1166
2;26;1573431408491;1573431425266;16775;45593845936;55135139281;2081167487;1027398059;10491828343;86645951;722395814;3;0;40;0;1;1
2;27;1573431425857;1573431442960;17103;46556045504;55108908017;2059587741;1027804256;10488238776;86685159;720190705;101;20;8968;0;192;2142
2;28;1573431443431;1573431459345;15914;45684647862;55136171926;2057052350;1022982201;10492172877;86413182;722071999;3;0;24;0;1;1
2;29;1573431459719;1573431476630;16911;46617815330;55107767534;2062435130;1027100383;10487814380;86483492;720622919;113;20;10288;0;172;1781
2;30;1573431477028;1573431492444;15416;45683556804;55138041065;2071541936;1024828583;10492840199;86091021;722466716;0;0;0;0;0;0
2;31;1573431492862;1573431509794;16932;46660855984;55110228616;2072234850;1038667152;10488656368;86596100;727186137;569;30;69008;0;1702;4838
2;32;1573431510156;1573431526835;16679;45650471306;55135304953;2065507490;1029000288;10491914873;86530632;724954401;6;0;48;0;1;6
2;33;1573431527420;1573431544360;16940;46516163268;55129876364;2073853002;1027312366;10495639571;86395660;730176486;192;22;10456;0;257;3803
2;34;1573431544737;1573431561656;16919;45694965098;55137089421;2071170746;1033405146;10492455409;86594539;728287392;118;22;10720;0;211;2848
2;35;1573431562350;1573431579093;16743;46542790456;55106803664;2063751385;1026377226;10487593670;86507008;733110447;3;0;48;0;3;3
2;36;1573431579469;1573431596395;16926;45737987794;55135314028;2057413234;1032745864;10491865538;86644480;729814112;89;14;7176;0;160;1273
2;37;1573431596991;1573431613964;16973;46150493420;55108332037;2055599115;1024086492;10488087790;86451354;726424780;3;0;32;0;1;1
2;38;1573431614363;1573431631120;16757;45608154958;55134951180;2071074431;1028569666;10491845469;86574728;730366107;98;16;8008;0;145;1586
2;39;1573431631637;1573431648560;16923;46710960702;55106767469;2062341470;1031419162;10487597287;86497415;726759809;8;0;80;0;10;38
2;40;1573431649026;1573431666087;17061;45809009932;55156908897;2077571049;1033192040;10499486469;86792422;728458774;57;22;7472;0;133;630
3;0;1573431819270;1573431843798;24528;47508797558;61489866869;2385425315;1058096088;12052486235;132891976;815167278;0;0;0;0;0;0
3;1;1573431844246;1573431864237;19991;50299937812;57636790426;2181419693;1103585354;11329768968;121983888;749160217;450;8;81752;0;876;70098
3;2;1573431864775;1573431883400;18625;48552789100;57467350324;2141652009;1094717476;11296731986;121438916;740802136;41;40;11744;0;144;437
3;3;1573431883964;1573431901265;17301;48785484922;57440678017;2096114484;1035644028;11292663280;120287392;737688922;74;38;12456;0;266;898
3;4;1573431901616;1573431919324;17708;47579382864;57461749895;2087899559;1030405535;11295882789;120438634;734760274;0;0;0;0;0;0
3;5;1573431919795;1573431937529;17734;47777154902;57455844347;2088187364;1020655071;11298766300;120092253;733691377;65;24;7896;0;110;696
3;6;1573431937946;1573431955874;17928;46840386490;57483747237;2090877884;1026422894;11303244162;120122181;736634539;11;0;144;0;5;24
3;7;1573431956449;1573431974542;18093;47974206430;57432774524;2088792484;1023260004;11291118914;120311993;735451795;61;20;7688;0;123;691
3;8;1573431974996;1573431992737;17741;47078865664;57461960794;2101916744;1027785117;11296061356;120306607;735473047;8;0;96;0;2;9
3;9;1573431993205;1573432011492;18287;47847036342;57432966342;2087521278;1023810054;11291362928;120080512;732644643;52;30;8560;0;121;634
3;10;1573432012036;1573432029322;17286;47467883102;57461730447;2096532005;1027292866;11296009915;120072734;736709687;22;1;4672;0;62;290
3;11;1573432029759;1573432047977;18218;48346710538;57431334060;2072903968;1031892589;11290858064;120329718;732126431;51;30;9600;0;127;539
3;12;1573432048460;1573432065622;17162;46950763220;57481460371;2080045979;1024882247;11303074219;119933452;730862136;42;28;7544;0;116;430
3;13;1573432066062;1573432084817;18755;48433247658;57435148745;2077808072;1028056726;11292148144;120438991;729692973;5;0;40;0;1;5
3;14;1573432085189;1573432101945;16756;47672236966;57462800168;2079209109;1029395052;11296406874;120214240;731651539;35;20;6896;0;110;620
3;15;1573432102439;1573432120964;18525;48279045086;57431655910;2074345934;1028920648;11291147750;120368550;725343454;7;0;64;0;1;7
3;16;1573432121349;1573432138197;16848;47184254012;57461149264;2077390333;1022044783;11296154060;120044355;726006515;57;24;8600;0;128;714
3;17;1573432138590;1573432156645;18055;48367660516;57430604454;2072647871;1034606832;11290969968;120235427;725607903;59;26;7712;0;98;599
3;18;1573432157040;1573432174304;17264;47284045304;57459906785;2089158974;1028058867;11295756169;120156876;726710029;6;0;48;0;1;6
3;19;1573432174795;1573432192001;17206;47622268904;57452117592;2067572858;1016115482;11298509357;120028060;727186887;46;20;7080;0;115;438
3;20;1573432192486;1573432209900;17414;46989291598;57459684205;2071079550;1021940919;11295726808;120151146;728674536;6;0;56;0;1;6
3;21;1573432210397;1573432227636;17239;47214925546;57429664519;2076782288;1013369847;11290635525;120193707;728317322;45;24;7496;0;116;450
3;22;1573432228022;1573432245676;17654;46946862538;57458579332;2097181335;1027515255;11295302436;120425662;728557616;47;20;6600;0;94;454
3;23;1573432246129;1573432263912;17783;48347871676;57428884615;2076203637;1021518013;11290483962;119904391;733178767;9;0;72;0;1;7
3;24;1573432264330;1573432282400;18070;47767941864;57457596739;2092721543;1032968603;11295142256;120147453;733300093;41;24;6664;0;101;407
3;25;1573432282826;1573432299627;16801;48484444164;57428642344;2084063305;1023922759;11290447998;119883195;735060620;6;0;48;0;1;6
3;26;1573432300001;1573432317587;17586;47577471140;57457500726;2105029979;1025022278;11295116652;120112108;734628811;29;20;6880;0;86;239
3;27;1573432318039;1573432335008;16969;48295026246;57428871626;2072204776;1021161582;11290531786;120771431;726850327;45;22;7640;0;129;332
3;28;1573432335370;1573432352706;17336;47984630392;57459102812;2087607880;1033648840;11295618428;121213573;727665361;1;0;8;0;0;0
3;29;1573432353314;1573432370663;17349;48629804976;57429253860;2074219143;1026902782;11290601435;120968318;727636437;49;20;7336;0;100;450
3;30;1573432371094;1573432388768;17674;47810612554;57457423020;2087936533;1037113961;11295093018;121109634;730361856;477;27;49024;0;1754;2374
3;31;1573432389374;1573432406923;17549;48270831710;57430055391;2079751053;1019468541;11290927706;120299822;731890348;98;0;3248;0;122;6616
3;32;1573432407514;1573432424417;16903;47430056692;57459116338;2090696142;1030995081;11295619482;119985367;734441016;81;42;12240;0;165;1417
3;33;1573432424802;1573432442362;17560;48207307986;57450131564;2099006767;1026846970;11297984744;119895310;733862692;41;22;7312;0;110;367
3;34;1573432442928;1573432460532;17604;47257358694;57457521765;2099587334;1029107969;11295126690;120261903;731954041;2;0;16;0;0;0
3;35;1573432461011;1573432478479;17468;48243515986;57428437177;2085701282;1023046686;11290399694;120345291;726465433;86;27;13736;0;162;1106
3;36;1573432478852;1573432495757;16905;47306078018;57457500121;2093936380;1023628140;11295115080;119948353;725252303;19;0;2424;0;23;238
3;37;1573432496144;1573432513383;17239;48159714906;57428990095;2098601892;1021836231;11290511286;119947618;730172419;41;28;8272;0;114;512
3;38;1573432513773;1573432531210;17437;47340536792;57458878974;2092381792;1029588702;11295615179;120244071;727156740;15;0;120;0;11;75
4;0;1573432686684;1573432708292;21608;43222636868;57616288540;2220005459;1037109263;10922290555;97416494;810518756;0;0;0;0;0;0
4;1;1573432708835;1573432727789;18954;46941699686;55395479538;2133930171;1097858362;10584414613;86537259;741801260;222;6;95624;0;783;16561
4;2;1573432728173;1573432744836;16663;45081789042;55230863936;2096696630;1071757107;10550506399;85475547;732823864;71;38;13272;0;168;794
4;3;1573432745352;1573432761726;16374;45639779580;55201760220;2048079685;1023305543;10545463935;85123595;720725403;21;0;536;0;30;162
4;4;1573432762333;1573432778813;16480;44688712512;55228431949;2059583355;1019129565;10550405683;85530828;720877202;41;34;9232;0;136;554
4;5;1573432779214;1573432795907;16693;45514181766;55204375135;2064260721;1021736983;10545779995;85003758;726212142;87;36;11944;0;168;831
4;6;1573432796345;1573432812847;16502;44272774864;55235411000;2068881023;1027385033;10552052912;84994785;722327056;0;0;0;0;0;0
4;7;1573432813219;1573432830467;17248;45680853906;55191731249;2048133279;1025423527;10545946249;85312395;722917805;86;34;15056;0;173;1163
4;8;1573432830917;1573432847294;16377;44383693692;55222376775;2039189562;1018499047;10551517600;84972290;721589532;0;0;0;0;0;0
4;9;1573432847774;1573432864239;16465;44881549020;55191904128;2043783090;1022263817;10546363845;84696318;718899618;60;26;8560;0;162;696
4;10;1573432864601;1573432880706;16105;44569240420;55219297388;2043435778;1014975275;10551426991;84813430;721791129;2;0;16;0;0;0
4;11;1573432881126;1573432898442;17316;45350429042;55191145835;2044926781;1020721890;10546252185;85001392;719815758;67;14;7960;0;97;667
4;12;1573432898940;1573432915022;16082;44639430504;55239054511;2056203047;1025790298;10558498871;84660206;720626088;8;0;96;0;12;29
4;13;1573432915445;1573432933132;17687;45757528580;55190078302;2049792654;1027054554;10545912835;85178591;718919182;92;30;13112;0;220;988
4;14;1573432933538;1573432949784;16246;44881102552;55216939000;2041808886;1022548206;10550841285;84806323;720894814;7;0;56;0;1;7
4;15;1573432950461;1573432967527;17066;45660050658;55213394445;2029415695;1024348818;10553741605;84669347;718475902;56;18;7704;0;112;646
4;16;1573432967886;1573432983820;15934;44610744278;55216817196;2037005449;1019997863;10550897893;84737879;723681633;8;0;72;0;2;16
4;17;1573432984243;1573433001338;17095;45112894342;55189178834;2036545320;1024601254;10545879441;84801092;723021848;62;26;7960;0;139;762
4;18;1573433001744;1573433018110;16366;44342640536;55215876098;2034792922;1020584063;10550669576;84769334;722334932;8;0;72;0;2;9
4;19;1573433018546;1573433035409;16863;45603086714;55210647060;2063891489;1020164099;10553417272;84838530;728911989;50;26;9064;0;147;635
4;20;1573433035810;1573433052058;16248;44772935678;55215600795;2056753035;1023717074;10550621313;84767317;727087770;68;24;7904;0;147;698
4;21;1573433052635;1573433069016;16381;45170791226;55192674618;2054726364;1018333558;10546633262;84847396;725933532;0;0;0;0;0;0
4;22;1573433069461;1573433085635;16174;43722606276;55219520335;2066621930;1010520936;10549092386;85097047;725139271;51;28;7696;0;118;488
4;23;1573433086111;1573433102772;16661;44322513852;55191015589;2045788254;998985530;10543759508;84984040;723051061;2;0;16;0;0;0
4;24;1573433103310;1573433120064;16754;44377407224;55217627005;2064607397;1019626626;10549446948;85086194;726456154;69;26;10440;0;121;674
4;25;1573433120475;1573433137272;16797;44995278640;55187217861;2056671862;1016062532;10543746941;85012853;727884847;0;0;0;0;0;0
4;26;1573433137624;1573433154522;16898;44959224816;55214701403;2068633393;1024034197;10548829221;85101823;726425365;44;22;6336;0;99;423
4;27;1573433155146;1573433171690;16544;45773170144;55187135322;2049912875;1021253257;10543726624;84991681;732035589;4;0;40;0;1;2
4;28;1573433172102;1573433188506;16404;44387194334;55214984671;2065597816;1018641777;10548889973;84872045;729980374;43;22;7104;0;107;389
4;29;1573433188954;1573433205780;16826;45684224754;55188626132;2058361994;1023511214;10544721969;84982601;731814451;10;0;80;0;2;8
4;30;1573433206287;1573433222473;16186;44743754074;55214654953;2058311224;1021128615;10548929431;84852126;729834714;49;22;6744;0;110;572
4;31;1573433222902;1573433239527;16625;45568449382;55187412940;2046845499;1021510956;10544065853;84935445;729667915;475;21;48984;0;1593;2212
4;32;1573433239883;1573433256361;16478;44722824828;55213146349;2050509794;1026158692;10548626300;84881902;727453827;2;0;16;0;0;0
4;33;1573433256752;1573433273360;16608;45495347036;55207047657;2047183632;1015725652;10551051471;84744833;725095245;139;32;9752;0;237;2573
4;34;1573433274008;1573433289701;15693;44593827842;55213057573;2058842621;1013337621;10548600132;84741520;727344602;44;34;9480;0;132;482
4;35;1573433290173;1573433306698;16525;45760021822;55188433433;2059730936;1019452876;10544499318;85170369;728329659;7;0;56;0;1;7
4;36;1573433307319;1573433323741;16422;44728932300;55215794495;2049331620;1018803601;10549533872;84825713;727068877;82;40;11656;0;211;1112
4;37;1573433324256;1573433341237;16981;45187610426;55186386247;2049140845;1017055270;10543706930;85066681;731295306;0;0;0;0;0;0
4;38;1573433341641;1573433358128;16487;44906027526;55214704757;2057969269;1020460964;10549161241;85084923;729300022;43;24;6600;0;110;353
4;39;1573433358682;1573433375682;17000;45703011742;55208165914;2056409926;1021721110;10551068648;85002253;731442145;22;0;2456;0;8;92
4;40;1573433376055;1573433392841;16786;44839106674;55237409267;2063189977;1026206776;10557085850;84958868;731066918;28;32;8816;0;142;345
4;41;1573433393218;1573433410245;17027;45783391604;55185602800;2042769931;1029050977;10543581427;84993782;728714315;35;26;6472;0;96;289
