0;18;1572601851767;1572601862637;10870;28676795860;69730854156;1261667731;284493550;9666859063;98188896;1379865997;569;0;1108312;3;2544;4643
0;19;1572601862637;1572601872103;9466;28564142406;69729160151;1242246297;277809126;9666488448;98108263;1376284360;558;48;888152;0;2373;8329
0;20;1572601872103;1572601882308;10205;28578657288;69727806373;1259535529;278411001;9666090054;98084470;1380887869;459;0;885544;-1;2207;4012
0;21;1572601882308;1572601892088;9780;28630678402;69728952268;1271134652;280278261;9666491892;98104333;1379738245;606;54;1000096;-2;2809;10604
0;22;1572601892088;1572601902270;10182;28588739464;69729791987;1264118703;277667165;9666763776;98114496;1379088535;522;0;1020336;0;2561;4606
0;23;1572601902270;1572601912764;10494;28660206318;69728502544;1280143378;281392541;9666389451;98126547;1384519660;525;0;1012792;1;2353;4365
0;24;1572601912764;1572601922801;10037;28581901992;69729066716;1270805516;277532933;9666587198;98108729;1379750706;574;58;918672;-1;2514;10302
0;25;1572601922801;1572601933215;10414;28553377534;69728301614;1256316355;278093083;9666298369;98112706;1376927513;525;0;1026200;0;2493;4476
0;26;1572601933215;1572601943184;9969;28653277596;69728364139;1270897832;281424856;9666332804;98076367;1383981082;515;1;995200;1;2409;4449
0;27;1572601943184;1572601953484;10300;28578671012;69727541515;1267536605;276637163;9666007724;98148878;1378045210;597;58;989488;-1;2715;9277
0;28;1572601953484;1572601963663;10179;28568016662;69728067700;1265991847;277467874;9666267838;98089370;1379737883;497;0;971656;1;2330;4151
0;29;1572601963664;1572601974290;10626;28663397878;69727533804;1281368853;282217286;9666095170;98106399;1383950899;548;0;1057376;-1;2521;4600
0;30;1572601974290;1572601984510;10220;28629905624;69727883960;1266773940;282110147;9666239132;98074161;1380244791;643;50;1040952;0;2682;10386
0;31;1572601984511;1572601994474;9963;28611799580;69728043190;1258714343;282184372;9666315453;98083620;1375456534;498;0;973424;0;2454;4381
0;32;1572601994474;1572602004414;9940;28628960712;69727128033;1278204591;282541233;9665968085;98074778;1384566616;510;0;985232;0;2286;4118
0;33;1572602004415;1572602014044;9629;28586668600;69727438170;1262918261;278972207;9666101787;98081681;1375573391;584;52;922528;0;2401;9353
0;34;1572602014044;1572602024656;10612;28602450470;69699185917;1270460573;280212917;9657016634;98089212;1380575816;538;0;1049688;3;2645;4721
0;35;1572602024656;1572602034606;9950;28579069446;69653975060;1280862514;273623122;9642476324;98029471;1384692409;497;1;961776;-1;2280;4161
0;36;1572602034606;1572602046518;11912;28631795448;69653727768;1266095476;285461030;9642385555;98040950;1381936316;713;54;1181376;-2;3053;10974
0;37;1572602046518;1572602056985;10467;28587689286;69652216632;1265145991;279760468;9642089549;97998017;1380169012;537;0;1049656;0;2589;4639
0;38;1572602056985;1572602067209;10224;28514038126;69651708403;1259390644;272758039;9641912055;98007997;1379914815;517;0;991096;0;2329;4167
0;39;1572602067209;1572602077485;10276;28544924572;69652896669;1254504841;276354260;9642359873;98000958;1377015023;628;55;1040320;0;2664;8530
0;40;1572602077485;1572602087309;9824;28605664076;69651963141;1269790601;279128364;9642016878;97970969;1382061600;497;1;967560;0;2337;4226
0;41;1572602087309;1572602097987;10678;28558089392;69652354330;1251043967;277670423;9642159891;97990320;1376857316;563;0;1079056;0;2501;4599
0;42;1572602097987;1572602107891;9904;28513657942;69651549349;1258458844;273452644;9641900247;98005848;1376582065;583;50;933680;3;2461;8500
0;43;1572602107891;1572602118409;10518;28575655820;69640100469;1253007610;276706781;9638073590;98016960;1376247104;565;1;1090704;-3;2680;4839
0;44;1572602118410;1572602128525;10115;28445586172;69634247802;1245493970;269761871;9636233878;97997994;1373459971;528;1;1014552;0;2308;4176
0;45;1572602128525;1572602138729;10204;28540317104;69634485025;1257583411;273311373;9636265537;98018940;1379758654;629;47;1033560;0;2777;10563
0;46;1572602138729;1572602149110;10381;28543999370;69635203847;1264617489;273300190;9636549796;98028117;1379272881;561;4;1090704;0;2647;4696
0;47;1572602149110;1572602159311;10201;28547248892;69634725606;1256082101;273909043;9636307769;97986536;1378099077;554;1;1061464;0;2564;4706
0;48;1572602159311;1572602169713;10402;28552088354;69635368363;1259938631;274960346;9636548023;98010655;1379899839;634;55;1044520;0;2670;8737
0;49;1572602169713;1572602179852;10139;28545319064;69634308388;1252130680;274717498;9636171108;98045096;1377014902;531;0;1032064;0;2496;4400
0;50;1572602179852;1572602190853;11001;28468854484;69580601685;1242475475;269670617;9618263805;98088126;1372010405;1087;62;1136368;0;5752;20894
0;51;1572602190853;1572602201216;10363;28508142062;69566463627;1255760095;269361243;9613684247;98010305;1379337060;542;7;1032184;0;2539;4577
0;52;1572602201216;1572602211894;10678;28562179436;69566493995;1263071652;272734543;9613715584;98016159;1380311457;582;4;1120024;0;2691;5436
0;53;1572602211894;1572602222038;10144;28515123344;69566411584;1257447491;269626670;9613666448;97988629;1378157226;648;77;1030528;0;2817;15665
0;54;1572602222038;1572602232238;10200;28541777834;69566554408;1256281629;269334587;9613753134;98012819;1380999119;642;5;1079760;0;2850;7008
0;55;1572602232238;1572602242468;10230;28486180888;69566353585;1247421864;267910682;9613645317;98035321;1377236987;519;2;985152;0;2324;4239
0;56;1572602242469;1572602253123;10654;28485713542;69566266746;1238354766;270315172;9613603025;98019805;1372405963;694;67;1095200;0;3053;11653
0;57;1572602253123;1572602263819;10696;28502753202;69566474655;1254135110;270624859;9613697315;98004171;1379876407;565;4;1073128;0;2633;4799
0;58;1572602263819;1572602274572;10753;28521599174;69566389329;1259207603;269310068;9613728375;97972752;1378533730;595;2;1120112;0;2581;4814
0;59;1572602274573;1572602284732;10159;28457999530;69566216514;1252855040;265369605;9613632078;97983385;1378365884;618;56;1022512;0;2775;8164
0;60;1572602284732;1572602295002;10270;28519769356;69566251919;1257268639;270165087;9613666941;97982860;1379831594;569;4;1073128;0;2561;4711
0;61;1572602295002;1572602305332;10330;28514054332;69565991398;1247335813;272185553;9613518765;97988844;1379147745;567;3;1055608;0;2469;4642
0;62;1572602305332;1572602315310;9978;28410912778;69566212035;1238666045;263330469;9613636825;97988615;1371714372;619;62;1010720;0;2685;8748
0;63;1572602315311;1572602325693;10382;28469365338;69566156949;1248925163;266675781;9613579197;98024983;1379789603;548;5;1037936;0;2532;4597
0;64;1572602325693;1572602336303;10610;28555336562;69566277988;1266483006;273050700;9613696103;97980029;1383039548;594;8;1108392;0;2485;4677
0;65;1572602336303;1572602346198;9895;28515190212;69566060311;1253978080;270820266;9613669848;97958671;1379895874;620;70;999216;3;2634;7815
0;66;1572602346198;1572602356613;10415;28499961390;69565999774;1261585759;267009120;9613637279;97978876;1381685000;570;10;1061392;-3;2605;4841
0;67;1572602356613;1572602367035;10422;28478578668;69566180230;1250111509;266583203;9613717470;97982689;1379425917;597;8;1096656;0;2559;4774
1;19;1572602736279;1572602746503;10224;28559665316;69905667674;1265401547;278889636;9773732331;97147171;1378619664;504;0;985152;0;2326;4247
1;20;1572602746503;1572602756433;9930;28490185668;69903319884;1259872279;272738942;9772941517;97141757;1378322968;627;66;958968;0;2760;14293
1;21;1572602756434;1572602766641;10207;28478688898;69903818482;1258666017;273856470;9773141492;97125716;1374864804;453;0;879656;0;2223;4033
1;22;1572602766642;1572602776924;10282;28544548622;69903958560;1262335199;280109799;9773268396;97120492;1376614796;513;0;1002744;0;2314;4245
1;23;1572602776924;1572602786400;9476;28510011738;69904017497;1271177240;277439743;9773374155;97112425;1385296023;548;42;873536;1;2481;8345
1;24;1572602786400;1572602796657;10257;28529576030;69904340943;1263265690;280750485;9773485163;97126588;1379919738;585;53;960072;-1;2836;8766
1;25;1572602796657;1572602806940;10283;28530020308;69903216469;1265740134;280604114;9773085547;97136715;1379340043;504;0;985152;0;2418;4365
1;26;1572602806940;1572602817464;10524;28538987628;69901507882;1266701136;280689948;9772485800;97118577;1379716732;514;0;996912;2;2314;4168
1;27;1572602817464;1572602827679;10215;28498976036;69901794594;1249145066;277998007;9772532623;97142138;1374712404;616;50;1003832;-2;2543;8556
1;28;1572602827680;1572602838624;10944;28481873158;69901894850;1242035432;279725204;9772648104;97109955;1375207096;564;0;1102432;0;2689;4854
1;29;1572602838625;1572602849193;10568;28572897588;69902331781;1279299083;278017332;9772850236;97093618;1384615454;544;0;1055552;0;2470;4602
1;30;1572602849193;1572602859719;10526;28556818462;69902146261;1264581702;280123190;9772816897;97114246;1380594716;686;44;1120256;0;3017;11426
1;31;1572602859719;1572602869845;10126;28564020642;69902084177;1271084705;283383417;9772827491;97105602;1380283820;501;0;979288;0;2384;4212
1;32;1572602869845;1572602880406;10561;28562086580;69900432272;1262074303;281602844;9772232734;97104141;1378465907;535;0;1037960;3;2414;4457
1;33;1572602880406;1572602890909;10503;28519425818;69902575666;1259782227;278512581;9772975580;97120284;1377867403;659;60;1096472;-3;2885;10008
1;34;1572602890910;1572602901383;10473;28524809422;69873454964;1270245542;279142095;9763612387;97064787;1381124890;545;0;1055560;0;2556;4637
1;35;1572602901383;1572602911884;10501;28476611902;69828321884;1255581770;276707267;9749043762;97042674;1377481729;564;1;1102432;0;2539;4645
1;36;1572602911885;1572602924072;12187;28520284006;69781364190;1236971274;284123455;9733414495;97031291;1370736931;754;47;1226152;0;3191;11583
1;37;1572602924073;1572602935209;11136;28571778060;69744646801;1261569907;276221082;9721498036;96995898;1382215607;623;0;1208024;0;2780;5102
1;38;1572602935209;1572602945312;10103;28437913872;69740984916;1259008696;266295228;9720346330;96969153;1379496946;501;0;979288;3;2300;4216
1;39;1572602945313;1572602955381;10068;28431556886;69740817707;1247293746;269430601;9720287577;96958548;1377742717;655;35;1008600;-3;2812;13166
1;40;1572602955381;1572602965322;9941;28497840594;69740793760;1258961056;270037222;9720290959;96924655;1382215258;527;0;1014520;0;2466;4585
1;41;1572602965322;1572602975219;9897;28374238162;69741002358;1245548226;261353427;9720393372;96973595;1376200818;508;1;985152;0;2230;4165
1;42;1572602975219;1572602985813;10594;28403707970;69740559915;1241104144;266443936;9720162222;96948060;1376428441;679;39;1090632;2;2938;11315
1;43;1572602985813;1572602996372;10559;28438385014;69740862211;1247641250;270688406;9720271882;96972322;1375019172;545;0;1049704;-2;2514;4493
1;44;1572602996372;1572603006708;10336;28370127240;69740748442;1234117858;266563575;9720345697;96973775;1371916283;528;1;1026200;0;2303;4228
1;45;1572603006709;1572603017048;10339;28403479626;69740306305;1251861839;263988779;9720208528;96954701;1378667282;633;52;1014464;0;2720;10287
1;46;1572603017048;1572603027354;10306;28373785854;69740119094;1248151391;264885796;9720115321;96930536;1378626185;512;0;985200;0;2324;4233
1;47;1572603027354;1572603036766;9412;28435251562;69740141565;1245094176;269224544;9720135895;96944987;1377219353;453;1;879600;0;2051;3813
1;48;1572603036766;1572603046884;10118;28391674796;69740446861;1252986787;265206489;9720274001;96940651;1379170314;672;42;1056120;0;3056;12813
1;49;1572603046884;1572603057124;10240;28396393954;69740520366;1252444979;264680719;9720320068;96955352;1377360088;566;1;1090744;0;2613;4806
1;50;1572603057124;1572603067075;9951;28392997556;69740183469;1238669683;266805472;9720152445;96943612;1376696300;533;0;1037928;0;2371;4385
1;51;1572603067075;1572603077192;10117;28467378278;69740154467;1265384983;266409152;9720132077;96949375;1383522656;660;46;1038312;0;2971;14919
1;52;1572603077192;1572603087319;10127;28393237726;69739867047;1245007710;266024977;9720041703;96959974;1376145917;526;0;1008648;0;2464;4518
1;53;1572603087319;1572603097493;10174;28387693084;69740240639;1245311245;265452339;9720231828;96958662;1377749932;515;0;996880;0;2298;4182
1;54;1572603097493;1572603107837;10344;28433175296;69740028015;1257459752;267500119;9720123812;96960501;1379160655;661;34;1037608;0;2859;12468
1;55;1572603107838;1572603118993;11155;28422436120;69739949412;1248738684;268279446;9720086819;97030289;1377775132;1143;54;1179632;0;5988;30491
1;56;1572603118993;1572603129448;10455;28351979002;69740014347;1235462870;263960387;9720105398;96947051;1371944779;517;4;985152;2;2247;4255
1;57;1572603129448;1572603139757;10309;28404836696;69739948901;1249504926;266457932;9720077080;96950458;1379739976;558;2;1055584;-2;2369;4463
1;58;1572603139757;1572603150003;10246;28460576722;69740227847;1255484582;269857428;9720224075;96974772;1379790774;828;53;1031800;1;3392;48356
1;59;1572603150004;1572603160067;10063;28399597924;69739882778;1248818404;263994240;9720038056;96953996;1376820971;526;7;1004512;-1;2483;4608
1;60;1572603160067;1572603170446;10379;28442664128;69740287227;1253058048;268746300;9720259802;96945474;1379300961;569;5;1077272;1;2474;4602
1;61;1572603170446;1572603180621;10175;28419799214;69740213194;1243530987;268192494;9720209812;96976926;1377851846;770;49;1012616;-1;2956;41029
1;62;1572603180621;1572603190763;10142;28451853514;69740088246;1241174558;271737967;9720148990;96945584;1371949784;545;2;1042024;1;2446;4428
1;63;1572603190763;1572603201188;10425;28434000050;69740087213;1252974695;268512373;9720148633;96938749;1380397296;574;3;1079040;0;2450;4620
1;64;1572603201188;1572603211829;10641;28473861554;69740024613;1259435262;270423480;9720116167;97006192;1378671175;756;37;1083048;-1;3085;25501
1;65;1572603211829;1572603221810;9981;28420806322;69740004656;1242907595;269279570;9720112907;96971259;1377445829;504;7;955832;3;2261;4156
1;66;1572603221810;1572603231818;10008;28461154298;69740092642;1268286945;268272343;9720158274;96961717;1381158202;535;6;1014544;-3;2327;4286
1;67;1572603231818;1572603242266;10448;28385028438;69739901022;1250810748;262754518;9720054515;96961187;1377396264;835;37;1062936;1;3242;48405
1;68;1572603242266;1572603252094;9828;28405697512;69739982669;1238327777;266387358;9720099314;96980592;1373072960;512;11;957600;-1;2272;4158
2;18;1572603613493;1572603624284;10791;28649290044;70319949759;1273069881;281490964;9868304288;97626520;1377633831;534;0;1039744;-1;2430;4480
2;19;1572603624284;1572603634160;9876;28519436476;70315664502;1255153978;272238882;9867065056;97546593;1377777220;479;0;926552;0;2205;4053
2;20;1572603634161;1572603644312;10151;28548786272;70315758527;1251549862;276459577;9867213313;97544420;1373079452;591;60;985216;0;2836;8942
2;21;1572603644312;1572603654640;10328;28572562080;70315951010;1253032553;278919283;9867299635;97574739;1375028008;525;0;1020392;0;2508;4517
2;22;1572603654641;1572603665177;10536;28622515980;70316300892;1277112923;277682971;9867409989;97557686;1382491009;556;0;1077248;1;2461;4557
2;23;1572603665177;1572603675801;10624;28613653780;70317214840;1273509697;280069461;9867734682;97588028;1379067251;621;54;1038568;0;2839;9545
2;24;1572603675801;1572603686993;11192;28639398544;70316492488;1264259350;285515380;9867510612;97574979;1377505267;626;54;1089360;-1;2957;7143
2;25;1572603686993;1572603697139;10146;28587448386;70314744551;1262989679;280376365;9866885486;97512196;1377815722;467;0;903096;0;2150;3957
2;26;1572603697139;1572603707234;10095;28523588716;70315443660;1258351496;274485338;9867138350;97571525;1373048214;503;0;983384;1;2250;4174
2;27;1572603707234;1572603717736;10502;28586121684;70315032924;1259518947;278643183;9866953756;97576582;1376130198;623;54;1066280;-1;2788;7388
2;28;1572603717736;1572603727928;10192;28627509764;70315087588;1279366816;279188923;9867067536;97547984;1382545820;503;0;973464;0;2325;4297
2;29;1572603727928;1572603738308;10380;28598775358;70315978625;1268964690;279064994;9867347868;97525682;1378367115;507;0;991016;3;2318;4246
2;30;1572603738308;1572603748547;10239;28594891904;70315450422;1271578905;277139722;9867274060;97521110;1377482599;705;30;1004176;-3;2938;26941
2;31;1572603748547;1572603758270;9723;28611338950;70314098174;1262834979;280410567;9866794869;97488887;1377523819;510;0;985200;0;2430;4254
2;32;1572603758270;1572603768643;10373;28584212588;70314132613;1255017598;279697020;9866759057;97481156;1371985641;545;0;1065480;1;2496;4587
2;33;1572603768643;1572603778912;10269;28533653372;70314579772;1251817525;278774177;9866958142;97495197;1374832183;738;42;1027440;-1;2927;41703
2;34;1572603778912;1572603789680;10768;28644518910;70286657723;1276927978;278880609;9857960670;97476733;1383865238;603;0;1166984;0;2858;5189
2;35;1572603789680;1572603800614;10934;28640522744;70241999604;1270490739;283009856;9843658912;97451221;1378000138;564;0;1102432;0;2519;4563
2;36;1572603800614;1572603812556;11942;28675192342;70241031178;1259405707;290178627;9843327636;97471038;1378347741;840;28;1268984;0;3595;31430
2;37;1572603812557;1572603823180;10623;28508697154;70175112672;1248941257;272500620;9824569685;97411030;1376412115;533;1;1030344;1;2499;4561
2;38;1572603823180;1572603833569;10389;28466500234;70160407880;1248549929;267981701;9820504174;97394020;1375283413;540;1;1051480;-1;2351;4338
2;39;1572603833569;1572603843334;9765;28563601622;70160657896;1264296700;274827117;9820644658;97378093;1378690922;691;28;1009312;0;2990;23409
2;40;1572603843334;1572603853677;10343;28468623366;70160469872;1243777153;270541435;9820569837;97375046;1372990664;488;1;944144;0;2315;4232
2;41;1572603853677;1572603863930;10253;28451932208;70160346639;1242257235;269837838;9820474956;97401299;1374004338;513;0;991080;0;2336;4246
2;42;1572603863930;1572603875089;11159;28461112834;70160263453;1242384726;271591632;9820456958;97419168;1373931807;684;30;1032704;0;2897;18716
2;43;1572603875090;1572603885092;10002;28409857782;70160785122;1239107929;265998870;9820661064;97382582;1370338079;505;0;973464;0;2290;4234
2;44;1572603885092;1572603895677;10585;28516384200;70159694777;1256081448;270251831;9820331945;97369135;1377018225;538;1;1043856;0;2364;4292
2;45;1572603895677;1572603905707;10030;28493801942;70160094984;1253393939;270235968;9820512957;97356588;1376676234;652;30;944424;0;2761;15873
2;46;1572603905707;1572603915907;10200;28515022020;70160222385;1256672541;271093430;9820591587;97370276;1377444277;543;0;1043832;0;2506;4529
2;47;1572603915907;1572603926208;10301;28501667400;70159952083;1257772114;268069568;9820455576;97357779;1378086045;548;0;1061440;0;2473;4536
2;48;1572603926208;1572603936221;10013;28482786388;70159426238;1260667665;267271752;9820219987;97366481;1375919250;671;25;979544;0;2855;20005
2;49;1572603936221;1572603946959;10738;28453303586;70159991001;1236879466;272467608;9820466306;97382134;1369516090;560;0;1077256;1;2538;4645
2;50;1572603946959;1572603957331;10372;28488772242;70145959764;1250537777;268989841;9815808020;97385828;1376664245;528;3;1022160;-1;2349;4380
2;51;1572603957335;1572603967699;10364;28476508096;70142527527;1254497290;265171571;9814706994;97385001;1374722049;689;26;1043984;0;2921;16162
2;52;1572603967699;1572603978262;10563;28474430808;70142366698;1250953511;267370836;9814632738;97380967;1374976561;553;0;1061432;0;2489;4528
2;53;1572603978262;1572603988782;10520;28519395596;70142514901;1254854189;269785055;9814708590;97373659;1377023496;714;50;1131880;0;2893;12633
2;54;1572603988782;1572603999439;10657;28502327174;70142672368;1244055503;270086822;9814778669;97355798;1375154626;556;1;1078976;0;2686;4756
2;55;1572603999439;1572604009762;10323;28466963784;70142366633;1240983384;265717932;9814631122;97374729;1372075312;1075;62;1046984;0;5643;29625
2;56;1572604009762;1572604020808;11046;28551278638;70142462770;1273923907;270186739;9814666000;97375812;1381096272;597;8;1147632;1;2703;4947
2;57;1572604020808;1572604031146;10338;28525627752;70142470904;1245955759;270295108;9814673935;97396619;1372076483;574;1;1092472;-1;2396;4536
2;58;1572604031146;1572604041135;9989;28488260220;70142137954;1248983347;266408172;9814571893;97397637;1373996673;638;50;1009992;0;2841;9498
2;59;1572604041135;1572604051722;10587;28515452282;70142079061;1254721055;268579813;9814533470;97389843;1375793183;667;8;1126712;0;2872;6922
2;60;1572604051722;1572604062479;10757;28538779432;70142240877;1247746993;269653920;9814614494;97383223;1373555476;618;13;1190392;0;2692;4968
2;61;1572604062479;1572604072868;10389;28456551064;70142179689;1237045694;267401360;9814593616;97388888;1368574965;702;66;1098784;3;2924;11819
2;62;1572604072868;1572604083158;10290;28481803224;70142361045;1253088929;266825055;9814678883;97363741;1374896318;523;6;979352;-3;2388;4427
2;63;1572604083158;1572604093428;10270;28546180610;70142382849;1265879204;268498657;9814673529;97388598;1379374367;557;8;1055520;0;2488;4633
2;64;1572604093428;1572604104687;11259;28539285760;70142295905;1244842898;274948464;9814671444;97369673;1374015920;774;43;1219624;0;3346;11316
2;65;1572604104687;1572604115636;10949;28580329718;70142256121;1260380561;275101382;9814699168;97373562;1376803006;617;10;1155264;0;2802;5315
2;66;1572604115636;1572604126256;10620;28506169748;70141797390;1243876202;271232734;9814456269;97341996;1373976374;570;11;1067296;0;2452;4600
2;67;1572604126256;1572604136375;10119;28430410056;70142150026;1233497274;265691116;9814635472;97355478;1368699886;645;50;991080;0;2727;10552
3;19;1572604505421;1572604515543;10122;28443588162;69577417027;1246902873;276369757;9730777456;97148586;1373785521;498;0;973424;0;2308;4118
3;20;1572604515543;1572604526587;11044;28534181016;69579006961;1268483355;281288959;9731397613;97156906;1381385710;654;56;1073568;0;3161;9278
3;21;1572604526587;1572604536874;10287;28546223388;69577250734;1277406258;280602141;9730717436;97141290;1386499905;509;0;989304;1;2417;4468
3;22;1572604536874;1572604547058;10184;28460061342;69576764217;1254179898;278229683;9730694628;97120419;1379756162;460;0;898960;-1;2096;3900
3;23;1572604547058;1572604556747;9689;28488391766;69575640591;1255863636;279837911;9730393769;97124440;1379036047;599;54;974008;0;2767;8400
3;24;1572604556747;1572604566510;9763;28435732340;69574399452;1261930473;276327623;9730013310;97114829;1377721752;531;60;829768;0;2358;8914
3;25;1572604566510;1572604577506;10996;28521531138;69576603655;1270632372;281762705;9730714771;97151080;1380989912;528;0;1032064;0;2555;4619
3;26;1572604577506;1572604587638;10132;28456356300;69576289320;1261945407;276419807;9730607861;97138070;1378553728;490;0;948240;1;2225;4075
3;27;1572604587638;1572604597513;9875;28531201156;69576430420;1280548827;277498376;9730655142;97095100;1384280636;640;46;961016;-1;2627;14789
3;28;1572604597513;1572604608043;10530;28446415306;69574582784;1259924561;276323851;9730014725;97134432;1379251044;535;0;1043824;0;2627;4687
3;29;1572604608043;1572604618167;10124;28476483276;69575104292;1259179062;278001258;9730236705;97108680;1378263707;508;1;985192;0;2253;4083
3;30;1572604618167;1572604628419;10252;28461221458;69576177506;1256904267;276481700;9730632557;97102928;1375421612;695;62;1034928;0;2909;25031
3;31;1572604628419;1572604638956;10537;28437227818;69575291289;1248829055;276995030;9730349250;97116067;1373416770;529;0;1032096;0;2558;4568
3;32;1572604638956;1572604649217;10261;28597553922;69575577454;1265823897;287925481;9730442828;97070214;1379749939;539;0;1042072;1;2545;4724
3;33;1572604649217;1572604659527;10310;28558803040;69576419419;1270060869;284967815;9730771075;97128532;1381848942;669;62;1048936;-1;2860;14185
3;34;1572604659528;1572604669978;10450;28474583524;69546689805;1260277722;278891725;9721106711;97109129;1377022117;516;0;1008608;0;2491;4375
3;35;1572604669978;1572604679995;10017;28398193842;69502409476;1250726508;273067787;9706874428;97047430;1379038142;478;0;920704;0;2162;4002
3;36;1572604679996;1572604691567;11571;28456727724;69455279350;1244549721;279239376;9691117966;97043885;1377259889;752;42;1234176;2;3243;11618
3;37;1572604691567;1572604701937;10370;28412433076;69418999093;1233696315;275691800;9679243731;96979658;1371274644;579;0;1117520;-2;2756;4929
3;38;1572604701937;1572604712087;10150;28403144556;69415198130;1242731322;271037255;9678014795;96983580;1379170484;540;0;1055520;0;2464;4474
3;39;1572604712087;1572604721873;9786;28406902304;69415164295;1249594871;269816188;9678008117;97003782;1377389211;586;52;987888;2;2646;8520
3;40;1572604721873;1572604731976;10103;28393944220;69415168756;1256747365;268789624;9677998365;97017853;1380338556;504;0;970912;-2;2486;4477
3;41;1572604731977;1572604742026;10049;28456624940;69415118913;1252726922;273257624;9677987794;96978622;1382762316;502;0;979288;0;2322;4299
3;42;1572604742026;1572604752235;10209;28374079460;69415200821;1233157831;269717136;9678021028;96991955;1376659893;610;48;1036152;1;2848;10105
3;43;1572604752235;1572604762685;10450;28356540626;69415156626;1232088661;266344529;9678019924;97019783;1371045282;543;0;1045608;-1;2662;4807
3;44;1572604762685;1572604773416;10731;28406390136;69414217403;1248441366;270785636;9677866552;96984576;1378874382;542;0;1055520;0;2381;4351
3;45;1572604773416;1572604783956;10540;28414749512;69413992709;1250541452;271484581;9677830202;97008998;1377329229;623;60;1050064;0;2714;8561
3;46;1572604783956;1572604794092;10136;28374065006;69414042832;1252145451;267012451;9677863175;96963660;1378605306;529;1;1020384;0;2543;4524
3;47;1572604794092;1572604804857;10765;28395497952;69413789268;1249116731;267879799;9677734684;96977747;1379738623;533;1;1037928;0;2435;4452
3;48;1572604804857;1572604814986;10129;28345519524;69413917304;1245823287;264964505;9677793883;96972913;1376336982;604;54;1008720;2;2654;7321
3;49;1572604814986;1572604825384;10398;28386127526;69413819108;1234518680;269267771;9677761032;96982884;1374226375;542;2;1043848;-2;2562;4524
3;50;1572604825385;1572604835657;10272;28360423788;69404285441;1257063460;264969906;9677717955;96977420;1383015036;498;1;969920;1;2326;4145
3;51;1572604835657;1572604846137;10480;28359385290;69402496021;1242396846;265464875;9677870965;96969284;1374700982;615;56;1029944;-1;2737;8708
3;52;1572604846137;1572604856481;10344;28387948146;69402427422;1239554576;270771409;9677856072;96966216;1374940626;580;0;1114216;0;2718;4928
3;53;1572604856481;1572604866826;10345;28470649992;69402698081;1256332329;273991429;9677991178;96949782;1383745496;731;53;1098120;7;3373;20836
3;54;1572604866826;1572604877129;10303;28457684170;69402086500;1256249001;272842610;9677687829;96955719;1379240865;900;9;1059272;-7;5105;20506
3;55;1572604877130;1572604887632;10502;28440550194;69402595229;1263634979;271300016;9677934776;96979987;1381725994;558;0;1067304;0;2521;4662
3;56;1572604887632;1572604898307;10675;28470109354;69402505802;1255093215;273716458;9677883718;96977329;1380590726;669;68;1161592;2;2865;8815
3;57;1572604898307;1572604908650;10343;28369198680;69401960812;1243338888;268187168;9677630873;96961963;1377458456;620;2;1042072;1;2967;7413
3;58;1572604908650;1572604918582;9932;28370251486;69402113375;1254200411;263282381;9677738689;96956702;1380067240;528;2;1002800;-3;2328;4290
3;59;1572604918582;1572604928623;10041;28378513918;69402167465;1235281406;267083698;9677751873;96944680;1374403353;622;69;1024240;0;2592;8591
3;60;1572604928623;1572604939279;10656;28322792142;69402219104;1231524697;265996082;9677785182;96961790;1371162060;557;1;1067296;0;2668;4745
3;61;1572604939279;1572604949677;10398;28411925872;69402332139;1253653914;269058246;9677845974;96975324;1380176653;542;5;1026256;0;2389;4335
3;62;1572604949680;1572604960105;10425;28412056980;69402102932;1254786610;268539864;9677712857;96963820;1380538910;675;54;1098840;0;2722;10501
3;63;1572604960105;1572604970077;9972;28406458756;69402267612;1265509979;266454791;9677813327;96966970;1381529024;535;3;1014520;0;2532;4562
3;64;1572604970077;1572604980057;9980;28406604172;69402225702;1256939591;269154588;9677789123;96947982;1382286117;513;3;961744;0;2354;4486
3;65;1572604980057;1572604990482;10425;28332027518;69402136744;1237229761;266146073;9677742795;96963161;1376172250;670;60;1061512;0;2711;9965
3;66;1572604990482;1572605000479;9997;28333210410;69402376806;1243074558;264258523;9677868063;96968700;1378547377;489;10;926568;0;2306;4189
3;67;1572605000479;1572605010537;10058;28398173840;69402241488;1241010773;271736954;9677790193;96952352;1376157602;499;11;944144;0;2314;4306
3;68;1572605010537;1572605020653;10116;28307563904;69402310615;1227876714;267447664;9677841718;96946725;1371666693;641;52;989248;7;2643;12766
4;19;1572605400035;1572605409638;9603;28445987964;69901061627;1233806480;275884551;9775229652;97116122;1373763124;467;0;903096;3;2191;4006
4;20;1572605409638;1572605420412;10774;28568000894;69900193820;1250297719;287740472;9774987108;97130880;1379678691;646;58;1061856;-2;2985;9392
4;21;1572605420412;1572605430033;9621;28511660662;69900537280;1257322142;278091936;9775037248;97125957;1378145371;463;0;899016;-1;2145;3935
4;22;1572605430033;1572605440085;10052;28501768578;69900344994;1258979351;277761148;9775041763;97131682;1377568840;516;0;1008608;0;2324;4263
4;23;1572605440085;1572605449439;9354;28494550630;69897738943;1261504944;277222281;9774262447;97095124;1382300582;547;56;926480;0;2694;8186
4;24;1572605449439;1572605460333;10894;28605432082;69898596447;1250058882;290141724;9774588578;97117992;1377173902;690;52;1156952;0;3148;9285
4;25;1572605460333;1572605470733;10400;28551437048;69898491826;1245930774;286475003;9774570535;97131396;1370924222;567;0;1108296;0;2801;5004
4;26;1572605470733;1572605480774;10041;28452433280;69897766289;1258995667;275208550;9774259005;97149626;1379110781;469;0;908952;0;2116;3873
4;27;1572605480774;1572605491166;10392;28512632292;69899349887;1263294151;280233397;9774770286;97129793;1377997380;598;62;1044624;0;2707;7487
4;28;1572605491166;1572605501645;10479;28508121476;69899011815;1256602106;282400692;9774695976;97121578;1376944038;515;0;996944;0;2448;4390
4;29;1572605501645;1572605512038;10393;28597574216;69898641199;1258165422;289244964;9774595956;97097575;1379042023;540;0;1055520;0;2366;4227
4;30;1572605512038;1572605522370;10332;28517711632;69897022302;1259364351;281086056;9774080749;97067676;1377225192;611;42;1031808;0;2685;7273
4;31;1572605522370;1572605533271;10901;28477456366;69898116897;1249810527;279250296;9774440667;97101983;1369879537;544;0;1049760;0;2714;5045
4;32;1572605533272;1572605543688;10416;28494908476;69897169395;1261171934;279196096;9774135911;97139300;1378030030;510;0;996880;0;2317;4245
4;33;1572605543688;1572605553744;10056;28566924728;69897779676;1258353410;285284896;9774358012;97123523;1377487989;580;60;1020584;0;2740;7222
4;34;1572605553744;1572605564060;10316;28478976518;69869170837;1261469466;277830601;9765092152;97126778;1377199964;495;0;955880;0;2287;4111
4;35;1572605564060;1572605574941;10881;28505865922;69825246713;1256760533;281654598;9751047727;97083108;1378674509;573;0;1120024;3;2562;4655
4;36;1572605574941;1572605586576;11635;28514099008;69778026257;1245860389;281674521;9735252380;97123964;1376539254;723;44;1236104;-2;3286;9776
4;37;1572605586577;1572605596933;10356;28414528468;69755586583;1232306758;275281905;9727963807;97029168;1370467388;580;0;1121840;-1;2661;4798
4;38;1572605596933;1572605607365;10432;28437466382;69755152696;1252924285;275505292;9727818189;97036800;1378275667;525;0;1026200;0;2396;4411
4;39;1572605607366;1572605617571;10205;28439553598;69755299055;1243487400;275810193;9727887498;97003513;1377749886;573;48;944096;0;2659;7422
4;40;1572605617571;1572605627846;10275;28408305948;69755297075;1243170584;272712360;9727880443;97005925;1377070994;510;0;983432;1;2418;4358
4;41;1572605627846;1572605638448;10602;28405889940;69755445396;1252794714;270814236;9727946021;97057996;1379755581;505;0;981056;-1;2305;4211
4;42;1572605638448;1572605648879;10431;28396166194;69754890950;1243017441;272123379;9727692510;97035689;1376500608;660;56;1085088;0;2885;8768
4;43;1572605648879;1572605659457;10578;28365192440;69755284408;1236480967;270783814;9727943802;97029835;1370434177;554;0;1067296;0;2478;4487
4;44;1572605659457;1572605669245;9788;28456077440;69754194773;1258807382;272492882;9727678211;96967181;1378155508;458;0;891328;0;2043;3735
4;45;1572605669245;1572605679201;9956;28413889572;69754031869;1258034941;270376978;9727579871;96961004;1376736837;567;51;937976;0;2703;7590
4;46;1572605679201;1572605689625;10424;28466480816;69754079992;1253974981;274477862;9727630742;96984237;1379522959;557;1;1073160;0;2772;5183
4;47;1572605689625;1572605699584;9959;28391716698;69754368196;1254618467;267192184;9727762004;96992697;1378902887;494;1;961696;0;2195;4032
4;48;1572605699584;1572605709978;10394;28384042500;69754052834;1244712205;268293471;9727615800;97003008;1376738228;634;48;1049456;0;2853;8257
4;49;1572605709978;1572605719891;9913;28396735302;69754265615;1241237262;270249540;9727710346;96956162;1371080476;506;0;973472;0;2358;4288
4;50;1572605719891;1572605730548;10657;28408192944;69739958707;1243788143;270037416;9722922742;96999207;1377834096;532;0;1032064;0;2415;4473
4;51;1572605730548;1572605741104;10556;28449611100;69736673990;1256923434;273013483;9721884708;96984249;1381083560;673;52;1090952;0;3029;10654
4;52;1572605741105;1572605751207;10102;28349182080;69736913358;1245238581;262964106;9722003279;96987972;1376871618;554;0;1061432;0;2482;4553
4;53;1572605751207;1572605761226;10019;28431444612;69736695241;1262703686;268683391;9721888987;97014758;1381776988;665;58;1000656;6;3183;13755
4;54;1572605761226;1572605771142;9916;28410417400;69736624899;1246418915;271842437;9721858299;97040769;1376494255;873;9;991272;-6;4490;13580
4;55;1572605771142;1572605781370;10228;28338829658;69736763997;1229789921;267354719;9721932526;97011339;1371045976;557;1;1055568;0;2406;4451
4;56;1572605781370;1572605791636;10266;28360665564;69736889029;1246400089;264951667;9721980947;97006067;1377650993;552;2;1061384;0;2336;4399
4;57;1572605791636;1572605801724;10088;28451030074;69737214657;1248653856;271046235;9722113802;96997779;1376593717;736;57;1052352;0;3148;11773
4;58;1572605801725;1572605812781;11056;28471630820;69736727024;1247138314;274630787;9721996321;96989685;1376897155;637;2;1202208;0;2913;5342
4;59;1572605812781;1572605823225;10444;28444632646;69736746630;1260055025;269006117;9722007678;96986385;1382649328;575;1;1096568;0;2495;4600
4;60;1572605823225;1572605833688;10463;28337595374;69736804806;1244050038;264826543;9722031242;97026885;1375486145;640;63;1039208;3;2897;9303
4;61;1572605833688;1572605843541;9853;28399156420;69736726179;1233730088;269363918;9721986585;96995281;1372520136;515;3;979328;-3;2369;4232
4;62;1572605843541;1572605853789;10248;28451569690;69736621021;1258156603;271563960;9721926942;96991128;1380696167;538;6;1026200;0;2304;4139
4;63;1572605853789;1572605864236;10447;28380226498;69736796212;1248352478;268399647;9722003817;97003167;1376787034;691;42;1114640;0;3060;10360
4;64;1572605864236;1572605874700;10464;28418405498;69736627651;1249322638;270431600;9721968966;97007190;1377041468;567;5;1065512;1;2648;4902
4;65;1572605874700;1572605885115;10415;28403946534;69736501405;1254749149;268073021;9721960893;96985238;1379533570;549;3;1039696;-1;2397;4509
4;66;1572605885115;1572605895242;10127;28377810490;69736174673;1243431198;267819883;9721789107;97003906;1376905221;614;48;1002552;3;2814;8628
4;67;1572605895242;1572605905763;10521;28337193290;69736148586;1230224003;265702016;9721765384;96977842;1370625250;581;8;1096608;0;2718;5090
4;68;1572605905763;1572605916261;10498;28371547090;69736298718;1251092788;265789387;9721854066;96983084;1378437683;530;6;996880;-3;2363;4404
