0;14;1572640640271;1572640650903;10632;29201094270;69808106429;1249841157;286625787;9773606190;97124409;1383031249;1093;0;2211480;-5;10632;1528555
0;15;1572640650903;1572640663212;12309;29187985514;69809523297;1267847544;285986352;9774162481;97118855;1383786015;1331;1;2690568;-109;12310;646468
0;16;1572640663213;1572640673588;10375;29194680636;69808708313;1256126777;285166351;9773880001;97106390;1382839782;1186;71;2076304;57;10376;396739
0;17;1572640673589;1572640684167;10578;29158668422;69807833308;1254838970;287290879;9773649955;97132071;1381751371;1143;1;2308496;26;10579;1165871
0;18;1572640684167;1572640694915;10748;29068471958;69807096837;1250549762;284587639;9773326537;97086912;1380585032;1140;1;2313400;19;10747;1354880
0;19;1572640694915;1572640707182;12267;29042734494;69805892127;1235930727;280565616;9773238041;97056846;1375757177;1346;70;2445032;-2;12268;1281332
0;20;1572640707182;1572640717848;10666;29190319032;69804302716;1254889196;287595419;9772725077;97109224;1381119723;1177;64;2153960;10;10665;1518601
0;21;1572640717848;1572640727998;10150;29216979216;69805439198;1263716344;291939868;9773136820;97048250;1380559180;1102;6;2225992;18;10150;1455053
0;22;1572640727998;1572640737668;9670;29101620236;69806529949;1256190980;285323895;9773451749;96988591;1379564930;1067;6;2148864;-11;9670;1389645
0;23;1572640737668;1572640750039;12371;29156997452;69804100222;1270540394;286059740;9772649647;97074603;1384961553;1422;62;2598016;-20;12371;1624522
0;24;1572640750039;1572640760718;10679;29136463720;69804005273;1241080646;286111134;9772657043;97080263;1379355406;1103;5;2211936;0;10679;1500671
0;25;1572640760718;1572640771122;10404;28992321862;69804557199;1240029492;283732517;9772888897;97056859;1373502284;1131;5;2262136;21;10405;1491583
0;26;1572640771122;1572640781727;10605;29181610570;69803984733;1258863844;287112563;9772675033;97071153;1381891191;1216;60;2187240;-2;10604;1530740
0;27;1572640781727;1572640796010;14283;29152919672;69805123437;1263336534;286206376;9772940993;97094470;1381584190;1543;10;3058184;-147;14219;1797219
0;28;1572640796011;1572640806838;10827;29109981802;69805289107;1254266132;286038956;9773143758;97099815;1379513980;1298;68;2271824;96;10683;486729
0;29;1572640806838;1572640817405;10567;29156227010;69804051130;1258723967;287331615;9772713366;97086536;1381168878;1069;3;2115120;34;10568;1439711
0;30;1572640817405;1572640827804;10399;29123667842;69805363131;1250690887;283450082;9773228073;97035721;1377693674;1141;4;2245960;11;10399;1489878
0;31;1572640827804;1572640840548;12744;29096930424;69803695819;1246211356;281890263;9772610186;97081401;1376877909;1550;66;2768912;-76;12743;1675486
0;32;1572640840548;1572640850647;10099;29126231602;69803553452;1264274798;284878638;9772558963;97064451;1384833991;1024;16;2023072;90;10100;1250211
0;33;1572640850648;1572640860730;10082;29099311538;69803848776;1243640788;284270487;9772705877;97027058;1375594466;1129;16;2209576;2;10082;1442160
0;34;1572640860730;1572640871708;10978;29095731910;69774983146;1248633998;285850189;9763396166;97037143;1377886213;1336;64;2311144;-22;10979;1589748
0;35;1572640871709;1572640882248;10539;29131968526;69729808416;1260520298;288307853;9748879826;96971223;1386651307;1103;15;2155944;17;10545;1513701
0;36;1572640882253;1572640896282;14029;29107765814;69684594849;1250550953;283179611;9733718049;97029859;1381549223;1568;26;3036944;-24;14030;1640160
0;37;1572640896283;1572640906895;10612;29184741540;69661587916;1255068184;282332301;9726293421;96947837;1382156870;1236;68;2091176;18;10611;1538033
0;38;1572640906895;1572640916847;9952;29020988962;69660895735;1247571237;272572003;9726031110;96951666;1380842288;1123;12;2171624;-3;9953;1425965
0;39;1572640916847;1572640927191;10344;29011853304;69661384328;1239933993;276805659;9726289886;96955228;1379459816;1169;14;2269400;15;10343;1480820
0;40;1572640927191;1572640940916;13725;29040597930;69661076663;1257226404;277298384;9726129632;96989234;1381168167;1597;65;2729672;-23;13725;1602661
0;41;1572640940916;1572640951016;10100;29053353366;69661372167;1238757993;276628173;9726276840;96985531;1377337921;1163;10;2223792;-69;10101;1079891
0;42;1572640951016;1572640961189;10173;29074355028;69661072786;1236497128;276649420;9726091231;96969175;1377810704;1157;11;2198032;17;10173;811739
0;43;1572640961189;1572640971811;10622;29203492612;69661190331;1250562140;284910010;9726179245;96954207;1379613589;1256;72;2076400;58;10621;1408308
0;44;1572640971811;1572640983965;12154;28966491396;69660549996;1236655743;271627391;9726166450;96900000;1376003794;1400;20;2646080;-122;11809;753677
0;45;1572640983965;1572640994813;10848;29092499908;69659979006;1245861347;279413952;9725900193;96942082;1381539811;1368;76;2274064;111;10847;702208
0;46;1572640994813;1572641004837;10024;29110068818;69660420872;1248908483;281201475;9726112666;96923121;1380242641;1068;11;2025856;10;10025;1439496
0;47;1572641004837;1572641015117;10280;29062324336;69660274924;1257623586;277799932;9726036384;96936375;1383027695;1214;13;2275128;2;10279;1474779
0;48;1572641015117;1572641030712;15595;29081719268;69660373487;1252540129;281979491;9726089981;96949835;1381232670;2150;142;2517216;21;15595;2075133
0;49;1572641030712;1572641040894;10182;28942497464;69660471261;1247443062;269503651;9726137378;96894391;1379757489;1219;14;2164808;-15;10182;1462947
0;50;1572641040894;1572641051595;10701;29021244024;69646082038;1234989919;273307634;9721305984;96959250;1377521947;1399;56;2261416;-14;10702;1593763
0;51;1572641051595;1572641062013;10418;29036527304;69642830472;1260426406;274370247;9720285556;96930976;1385002762;1151;14;2026424;7;10417;1506466
0;52;1572641062013;1572641077461;15448;29013697722;69642867297;1232924888;273669014;9720312523;96916150;1376935068;1803;25;3334984;-88;15448;1685759
0;53;1572641077461;1572641087935;10474;28975043492;69643039447;1240799685;272572773;9720383902;96915049;1377279626;1296;90;2010200;83;10474;1303784
0;54;1572641087935;1572641097957;10022;29066799090;69643063191;1257155040;273701833;9720409846;96910661;1385408639;1173;22;2191936;11;10023;1437460
0;55;1572641097957;1572641108147;10190;29013819924;69642833654;1250880169;274174817;9720286976;96924722;1381898090;1183;22;2173696;1;10190;1464394
0;56;1572641108148;1572641121540;13392;29077852458;69642891611;1252441369;277928761;9720319650;96951676;1382880271;1604;88;2682696;-15;13392;1657960
0;57;1572641121540;1572641132441;10901;29050148958;69643140626;1254597187;274533873;9720392935;96933157;1383204624;1301;20;2393344;4;10901;1447312
0;58;1572641132441;1572641143014;10573;28990285016;69642515559;1240803487;274451561;9720161688;96917014;1376654418;1397;71;2223696;11;10574;1527925
0;59;1572641143014;1572641153674;10660;29006391152;69643000781;1243396182;273604326;9720407840;96951807;1380404245;1161;20;2111280;-8;10660;1529619
0;60;1572641153674;1572641166573;12899;29060472910;69642751931;1251917567;273870148;9720282505;96875107;1380929151;1521;22;2784632;-78;12898;1463085
0;61;1572641166573;1572641177238;10665;29015204004;69642688646;1234726091;272752032;9720250023;96932178;1377445383;1365;102;2161944;88;10665;846662
0;62;1572641177238;1572641187343;10105;29107733402;69642944152;1257895596;277884379;9720367513;96914164;1382051914;1152;27;2101056;-5;10105;1449656
0;63;1572641187343;1572641197419;10076;29087025492;69642464845;1246969113;277392026;9720115528;96916483;1381145255;1199;25;2186984;-15;10077;1443232
1;13;1572641469510;1572641480718;11208;29266372038;69618340579;1240154988;287066688;9761904091;97543700;1375293923;1278;52;2185232;122;11209;1325124
1;14;1572641480718;1572641491225;10507;29338466984;69615924247;1253916183;285606249;9761244414;97485421;1383765620;1128;1;2292952;-7;10506;1507525
1;15;1572641491225;1572641501557;10332;29330744460;69616215620;1251905643;285123031;9761404685;97537252;1384289416;1101;3;2246504;-13;10333;1474174
1;16;1572641501557;1572641513708;12151;29223612726;69616862569;1247582385;283587188;9761707278;97498121;1382516976;1421;52;2466320;18;12151;1731711
1;17;1572641513708;1572641523971;10263;29238495090;69614418651;1263964881;279028099;9760830162;97496754;1388046026;1102;1;2230640;-2;10263;1467491
1;18;1572641523971;1572641534521;10550;29228991366;69615268099;1253574947;283578514;9761075892;97521954;1382168409;1291;34;2293168;13;10550;1572605
1;19;1572641534521;1572641545528;11007;29265771978;69613508902;1238150486;285565963;9760702885;97489001;1375313122;1095;0;2173296;-35;11007;1578660
1;20;1572641545528;1572641558717;13189;29354628746;69612826382;1251034239;285862188;9760517483;97510762;1383195758;1432;11;2894600;-47;13189;1454475
1;21;1572641558717;1572641569688;10971;29384015918;69613626653;1269291633;287873055;9760858366;97490092;1387289303;1380;51;2262240;55;10971;1093809
1;22;1572641569688;1572641579717;10029;29323369270;69614728646;1261571498;285644142;9761249305;97473481;1386326458;1219;34;1971080;-13;10029;1490735
1;23;1572641579717;1572641589856;10139;29297988484;69613496353;1262977017;286701461;9760852855;97440336;1383830647;1030;4;2070968;26;10139;1454022
1;24;1572641589856;1572641603836;13980;29281032774;69613272901;1249983537;285464788;9760734811;97413166;1381702215;1529;6;3043368;-150;13959;1502780
1;25;1572641603836;1572641613822;9986;29170465806;69612423859;1246907641;281561777;9760499141;97438770;1379999321;1255;60;2076328;67;9468;328377
1;26;1572641613822;1572641624353;10531;29413128026;69612674809;1266550398;293042611;9760586232;97460899;1386970781;1070;1;2134472;62;10532;1272267
1;27;1572641624353;1572641635177;10824;29388213710;69612982033;1257571871;293550035;9760704177;97476424;1382269093;1201;2;2385576;15;10824;1554278
1;28;1572641635177;1572641648651;13474;29251416674;69612487102;1257940489;288676490;9760600052;97463030;1382188162;1584;68;2837168;-46;13473;1550943
1;29;1572641648651;1572641659048;10397;29285733974;69610638850;1263299740;287453110;9759895947;97417105;1387196767;1106;10;2193552;47;10398;1424588
1;30;1572641659048;1572641669468;10420;29209132008;69610386722;1252380447;282833395;9759889928;97451998;1381692912;1138;8;2255304;-18;10420;1492631
1;31;1572641669468;1572641680460;10992;29187888716;69611223978;1243630378;284569946;9760200612;97459828;1376089871;1282;73;2268776;13;10992;1583550
1;32;1572641680460;1572641695259;14799;29351941470;69611137155;1249325145;289899958;9760183559;97433009;1382859872;1613;15;3151640;-86;14799;1811795
1;33;1572641695259;1572641705720;10461;29207305986;69611756808;1254937564;285641242;9760402448;97438479;1382333467;1312;81;2241864;79;10461;870595
1;34;1572641705720;1572641715826;10106;29219753508;69583674469;1250292921;282128984;9751313399;97408064;1385277730;1011;11;1988576;1;10106;1444163
1;35;1572641715826;1572641726258;10432;29242680618;69539024238;1258803864;283488833;9736999257;97400651;1383263201;1182;15;2307416;2;10432;1501107
1;36;1572641726258;1572641740019;13761;29247896468;69537438164;1243781669;286579800;9736415488;97413909;1380606109;1648;61;2868552;-93;13761;1698525
1;37;1572641740019;1572641750196;10177;29158722004;69536720721;1234872364;282652522;9736326935;97368619;1375742465;1079;21;2088528;101;10177;1210828
1;38;1572641750196;1572641761279;11083;29197064670;69535829996;1251175754;281657360;9736063956;97363145;1383006605;1252;22;2442608;-4;11083;1593371
1;39;1572641761279;1572641771792;10513;29249257626;69536901475;1254186040;282645392;9736417371;97331079;1382131903;1295;86;2219336;8;10513;1534626
1;40;1572641771792;1572641785967;14175;29295305150;69537065785;1243799648;284729425;9736506630;97355631;1380833116;1531;17;2942464;-148;13945;1736164
1;41;1572641785967;1572641796777;10810;29278014078;69537505422;1256153414;283076377;9736654331;97347114;1383436622;1195;11;2304064;37;10664;317169
1;42;1572641796777;1572641807402;10625;29205291624;69536623446;1246313435;283744089;9736314286;97352461;1381985531;1221;79;2056656;102;10625;1356273
1;43;1572641807403;1572641818617;11214;29213091820;69536977646;1234676389;285626347;9736482289;97359843;1375097407;1280;12;2443824;0;11215;1609981
1;44;1572641818617;1572641832334;13717;29230210320;69535299998;1255583738;282236612;9736082366;97285159;1384029162;1642;66;2887272;-104;13569;1650967
1;45;1572641832334;1572641842523;10189;29211006648;69535929195;1255335171;282692090;9736303942;97302847;1382943863;1083;13;2070224;93;10189;1062363
1;46;1572641842523;1572641852670;10147;29231878808;69536023409;1248844068;280409632;9736352886;97297384;1382658764;1169;8;2233024;7;10147;1407940
1;47;1572641852670;1572641863487;10817;29278291624;69536378071;1251117996;286753859;9736458607;97337738;1384443321;1315;68;2245328;9;10817;1541745
1;48;1572641863488;1572641877023;13535;29185117928;69535740334;1251560866;282626683;9736284858;97329519;1382590251;1509;12;2850096;-122;13535;1806155
1;49;1572641877023;1572641887386;10363;29171516860;69535186602;1251836052;280404601;9736022997;97323781;1382241442;1390;86;1591304;124;10364;1309496
1;50;1572641887386;1572641897894;10508;29227829936;69520501981;1272405873;281625778;9731104313;97331091;1387719150;1178;9;2238368;6;10508;1504744
1;51;1572641897894;1572641908233;10339;29206300484;69518098932;1239831464;279095503;9730435374;97320750;1378783807;1221;10;2290176;-5;10339;1485285
1;52;1572641908233;1572641924990;16757;29187584744;69518161476;1241831454;279764429;9730469447;97315422;1378997549;2049;91;3380376;-110;16757;2366577
1;53;1572641924990;1572641935291;10301;29210472142;69517825351;1268457020;280614359;9730375578;97306459;1389346713;1203;21;2258448;15;10301;452672
1;54;1572641935291;1572641945313;10022;29187187040;69518400274;1254253416;278160166;9730505223;97282594;1384110174;1271;89;2080336;77;10021;841430
1;55;1572641945313;1572641955692;10379;29119764240;69518127974;1252147553;277447023;9730448572;97313222;1382635741;1157;17;2147368;11;10380;1489914
1;56;1572641955692;1572641965601;9909;29109933330;69517954028;1248241825;277757929;9730345972;97260703;1384081150;1165;12;2155568;-13;9909;1421093
1;57;1572641965602;1572641978674;13072;29191115170;69455967625;1237586712;274571157;9709685016;97294010;1379598954;1622;92;2704568;7;13072;1388818
1;58;1572641978674;1572641989162;10488;29216230820;69450783125;1245374726;279092652;9708029570;97306653;1384913616;1218;17;2249992;-2;10489;1504679
1;59;1572641989162;1572641999324;10162;29147213554;69450534062;1245360196;272867184;9707892458;97273297;1382030051;1225;20;2242440;23;10162;1457270
1;60;1572641999324;1572642009835;10511;29197855552;69450509680;1252182429;276886462;9707897001;97319230;1384902253;1290;71;2125280;-27;10511;1548632
1;61;1572642009836;1572642022671;12835;29205598808;69450872478;1249124934;274916306;9708078510;97277742;1383454331;1497;21;2739112;-38;12836;1371876
1;62;1572642022671;1572642033192;10521;29193571912;69450187278;1247464774;279443452;9707718720;97319542;1382577046;1247;22;2255112;55;10521;1360261
2;15;1572642330394;1572642340786;10392;29286616544;69770335789;1267938935;284935399;9775713568;97559953;1377892226;1262;53;2242816;-10;10392;1511364
2;16;1572642340786;1572642351024;10238;29235124096;69769904483;1238026549;284819115;9775564068;97520058;1374362109;1020;0;2053560;17;10238;1455531
2;17;1572642351024;1572642362865;11841;29202970370;69769022024;1266070879;286943448;9775295456;97512343;1380915464;1290;3;2612080;-10;11841;1698965
2;18;1572642362865;1572642374853;11988;29346735256;69769277460;1247625630;291936995;9775283409;97567119;1377065630;1421;61;2541176;-4;11988;1723206
2;19;1572642374853;1572642385318;10465;29390784916;69767058343;1251261289;291228979;9774870533;97500129;1375342724;1036;3;2090136;20;10465;1500993
2;20;1572642385318;1572642395131;9813;29305629540;69765921343;1252647974;286408025;9774611479;97501578;1377770830;1090;5;2172512;-2;9814;1410290
2;21;1572642395132;1572642406609;11477;29147019520;69765429752;1235135460;279386669;9774371365;97473452;1371644024;1365;64;2419016;-11;11477;1679449
2;22;1572642406609;1572642417169;10560;29152718192;69765334620;1235443124;283787862;9774311862;97521853;1371423114;1181;59;2091344;15;10560;1525970
2;23;1572642417169;1572642426981;9812;29342578198;69766310559;1259653249;288183828;9774730556;97483021;1379670653;1019;7;2024848;-27;9813;1404912
2;24;1572642426981;1572642436706;9725;29372486006;69766244591;1251557736;289322539;9774694139;97412943;1375593013;1088;9;2153928;1;9725;1393390
2;25;1572642436706;1572642447152;10446;29286332136;69766109219;1259267444;288296421;9774661849;97525632;1375765470;1170;5;2319760;14;10445;1501139
2;26;1572642447152;1572642459677;12525;29252212228;69765379242;1260890814;284938473;9774412520;97523253;1379401108;1423;60;2535840;4;12525;1852907
2;27;1572642459677;1572642470458;10781;29197069196;69765329055;1248168824;283058178;9774361857;97550931;1371857145;1192;9;2349600;-8;10781;1545144
2;28;1572642470458;1572642480640;10182;29323602286;69764043484;1229797832;287907583;9773995459;97469197;1370205272;1243;64;2198256;14;10182;1475728
2;29;1572642480640;1572642490891;10251;29314143238;69765527386;1258032058;289354303;9774505070;97477601;1380378588;1047;9;2053488;-23;10251;1472714
2;30;1572642490891;1572642503833;12942;29312705576;69765114190;1247760342;290395084;9774389248;97461015;1376623719;1450;17;2838504;22;12943;1856584
2;31;1572642503834;1572642513984;10150;29253864218;69765110944;1254652599;286474072;9774400172;97480700;1375141929;1237;65;2147960;0;10150;1471964
2;32;1572642513984;1572642524013;10029;29261410228;69764038818;1255398982;289057663;9774022648;97475364;1377809708;1015;8;1987832;-23;10029;1436640
2;33;1572642524013;1572642534439;10426;29398094552;69763875765;1238632716;292590456;9773953875;97450725;1372274180;1177;11;2288232;7;10426;1495459
2;34;1572642534439;1572642547688;13249;29204779748;69734234964;1233405847;286265185;9764377794;97495391;1370956141;1547;66;2752416;-8;13249;1947029
2;35;1572642547688;1572642558754;11066;29217506568;69691571522;1255523276;285285190;9750731696;97446535;1380677845;1192;11;2305040;24;11066;1586497
2;36;1572642558754;1572642569843;11089;29137631136;69691159550;1248554423;283615752;9750610068;97458418;1376303840;1234;14;2397296;-18;11090;1587614
2;37;1572642569843;1572642579765;9922;29202027356;69679911468;1237426868;282990031;9750144726;97366609;1374831897;1203;65;2064528;-5;9921;1432012
2;38;1572642579765;1572642593723;13958;29186999138;69677104798;1241712084;283930463;9749968326;97393645;1375376430;1539;19;2959592;29;13959;2005500
2;39;1572642593724;1572642604266;10542;29117911500;69678393592;1236558298;279249994;9750450656;97371948;1373338923;1279;79;2246888;-29;10542;1521223
2;40;1572642604266;1572642614393;10127;29349625180;69677079707;1249737493;288670469;9750022334;97371122;1377324467;1071;19;2061560;17;10127;1449803
2;41;1572642614393;1572642623894;9501;29237254966;69677412500;1243269453;279378191;9750107219;97314085;1373541490;1101;21;2081528;-13;9501;1364420
2;42;1572642623894;1572642636513;12619;29106723520;69676991350;1233476541;280843279;9749974984;97366469;1372201478;1566;79;2696504;9;12619;1832003
2;43;1572642636513;1572642647429;10916;29162109058;69626529019;1232341634;278977445;9733133445;97390171;1371848596;1134;22;2175128;-14;10917;1568398
2;44;1572642647429;1572642657704;10275;29041922442;69610167827;1226382165;272248570;9727799811;97326530;1369504665;1190;15;2259864;26;10274;1473853
2;45;1572642657704;1572642667666;9962;29230962366;69609615892;1229190520;277280187;9727558472;97305335;1375689915;1247;63;2096056;-10;9962;1438451
2;46;1572642667666;1572642678073;10407;29242850416;69609809820;1243260870;284050024;9727650760;97363004;1374983737;1096;13;2089376;-8;10407;1493987
2;47;1572642678073;1572642691601;13528;29063134052;69609624668;1235668040;273600534;9727554283;97354522;1373026658;1550;17;2935960;18;13528;1939454
2;48;1572642691601;1572642702549;10948;29118885758;69609819543;1246835069;277978890;9727646814;97385412;1376036602;1362;62;2262208;-7;10948;1590133
2;49;1572642702549;1572642712665;10116;29247850186;69609759802;1235371017;279375360;9727621515;97324376;1372968875;1098;15;2053024;-10;10116;1452099
2;50;1572642712665;1572642722879;10214;29158166766;69595389829;1225956500;275541807;9722826086;97347031;1370060995;1199;20;2253808;17;10214;1466928
2;51;1572642722879;1572642736434;13555;29189468436;69592275860;1255071458;278904836;9721845297;97362886;1379021630;1610;91;2734176;-10;13555;1949280
2;52;1572642736434;1572642747157;10723;29152328810;69592168065;1230283375;274101699;9721797644;97417584;1371266821;1537;56;1893032;6;10723;1571285
2;53;1572642747157;1572642757148;9991;29006149668;69592192299;1236942760;270052776;9721802845;97352540;1371539647;1066;19;1944424;-12;9992;1434765
2;54;1572642757149;1572642766074;8925;29065779864;69592618443;1256705418;261623973;9722026973;97319352;1381242824;1046;18;1958904;10;8925;1280476
2;55;1572642766074;1572642777904;11830;29099570250;69592208462;1242267538;271000623;9721812740;97349469;1375691007;1548;98;2487296;-10;11830;1741400
2;56;1572642777904;1572642787646;9742;29081496910;69592504911;1241104609;272776488;9721963731;97329680;1375695986;1057;20;1968496;-1;9742;1399343
2;57;1572642787646;1572642798133;10487;29147505408;69592363888;1246647443;273537691;9721862279;97342512;1376257797;1247;26;2316616;1;10487;1512678
2;58;1572642798133;1572642807642;9509;29123473224;69592434773;1223243912;272013837;9721983042;97269308;1372456805;1246;93;2023880;-3;9509;1402032
2;59;1572642807642;1572642817722;10080;29150476070;69592275001;1244114482;278720454;9721905385;97336997;1375501082;1090;26;2021832;-2;10080;1446921
2;60;1572642817722;1572642831526;13804;29081400258;69592161998;1232856702;274693070;9721838318;97354789;1372276570;1600;30;2957184;0;13804;1981808
2;61;1572642831526;1572642842768;11242;29101937786;69591886971;1227546696;276094935;9721698556;97374899;1370561175;1410;73;2323736;15;11242;1633253
2;62;1572642842768;1572642852459;9691;29227336456;69592136363;1240576550;277896573;9721819303;97312638;1376193319;1129;22;2080272;-9;9692;1388617
2;63;1572642852459;1572642863148;10689;29162466028;69592515447;1239930699;275060418;9721990462;97343818;1376261716;1259;28;2315808;-11;10688;1533172
2;64;1572642863148;1572642877430;14282;29055839600;69592128601;1241252325;272271801;9721863066;97384629;1371616929;1697;85;2820224;30;14283;2059115
3;14;1572643161672;1572643172567;10895;29274671554;69913055864;1258457905;285116455;9774916356;97188870;1385676127;1186;3;2412080;-1;10895;1561283
3;15;1572643172567;1572643182224;9657;29196187940;69913158806;1240257894;283718714;9775061348;97135174;1377239189;1021;0;2079112;3;9657;1383573
3;16;1572643182224;1572643195259;13035;29243717218;69913813244;1251300715;283774022;9775295343;97190111;1381837299;1422;88;2581872;-47;12893;956180
3;17;1572643195260;1572643205516;10256;29288560242;69912437980;1265153743;284151860;9774859993;97185244;1386392189;1128;2;2287680;-6;10256;772251
3;18;1572643205516;1572643216589;11073;29423046390;69914187093;1252913008;290930673;9775403337;97192585;1383070978;1260;68;2274616;41;11074;1136744
3;19;1572643216589;1572643226919;10330;29217414004;69911602913;1247901853;282361350;9774783821;97151791;1380365668;1039;2;2106696;19;10330;1433283
3;20;1572643226920;1572643238374;11454;29244042214;69909198729;1245955902;281809696;9773993133;97120757;1381099379;1207;3;2439168;-101;10837;477262
3;21;1572643238374;1572643248576;10202;29170977536;69909633404;1244044584;282210916;9774130453;97147446;1376193677;1201;70;2123336;87;10203;701428
3;22;1572643248577;1572643259099;10522;29163539274;69909370954;1240642989;281480154;9774061988;97141359;1376454711;1185;58;2140904;21;10522;1506950
3;23;1572643259099;1572643269151;10052;29244813094;69909543528;1254095662;285943162;9774187456;97105679;1384625865;1012;6;2033352;-20;10053;1443705
3;24;1572643269151;1572643282737;13586;29207784428;69910265162;1253321157;284740781;9774476444;97113135;1380823604;1483;10;2969912;-61;13585;1511598
3;25;1572643282737;1572643293305;10568;29220160118;69910178238;1254287496;284061011;9774462600;97137908;1381092995;1282;62;2242672;62;10569;934607
3;26;1572643293305;1572643303471;10166;29214442174;69908530393;1254544416;283861565;9773834633;97119974;1380692925;1039;5;2078952;27;10165;1448544
3;27;1572643303471;1572643314293;10822;29194783712;69909076757;1242672502;287754956;9774022554;97147674;1375642541;1204;8;2389240;-20;10823;1553601
3;28;1572643314294;1572643326637;12343;29110043852;69907937237;1239911930;281153843;9773716289;97118663;1376130186;1406;72;2547024;-31;12344;1452272
3;29;1572643326637;1572643337221;10584;29350919762;69909380265;1268141700;289567940;9774231129;97126690;1386704948;1127;10;2232456;51;10583;1432302
3;30;1572643337221;1572643347494;10273;29275460976;69909180459;1259664131;289250886;9774196041;97083496;1382395741;1122;10;2225384;-3;10273;1472079
3;31;1572643347494;1572643358088;10594;29303566122;69909111531;1260096436;291749475;9774181993;97064455;1382505100;1259;53;2200216;-18;10594;1526340
3;32;1572643358088;1572643371520;13432;29228244284;69907520743;1250301665;289163964;9773616529;97121265;1381284226;1461;18;2877400;-82;13433;1687147
3;33;1572643371520;1572643381697;10177;29246005038;69907960328;1245776624;288654207;9773771607;97103042;1375913299;1116;14;2204072;-9;10176;509731
3;34;1572643381697;1572643392218;10521;29180621566;69878992614;1244748062;285927657;9764465448;97085967;1377653406;1182;75;2040792;108;10522;1129788
3;35;1572643392218;1572643403136;10918;29204095300;69834777044;1264602626;281168225;9750277813;97047638;1386168112;1228;13;2412560;-12;10917;1566739
3;36;1572643403136;1572643416999;13863;29196695582;69792020172;1243642979;280355422;9735974132;97101985;1381350359;1638;67;2954576;-111;13835;1728148
3;37;1572643417000;1572643428125;11125;29151862340;69752417926;1248559027;278372147;9723104408;97041844;1381573879;1165;7;2264360;106;11126;1281726
3;38;1572643428125;1572643438579;10454;29208566404;69747661421;1240091638;276966121;9721490308;97014270;1379618316;1174;7;2267424;14;10453;1492179
3;39;1572643438579;1572643448989;10410;29156452142;69748200422;1243032065;277799574;9721793445;96983093;1379307258;1311;70;2185520;-15;10411;1510462
3;40;1572643448989;1572643462179;13190;29182971144;69747977127;1245298012;279273104;9721664667;96993138;1380109644;1428;11;2736856;-82;13190;1797872
3;41;1572643462179;1572643472555;10376;29224199646;69748053757;1245794577;280720984;9721698488;96997868;1380885166;1154;12;2224264;15;10375;485336
3;42;1572643472555;1572643483213;10658;29275649608;69747937455;1246171293;281164002;9721636016;97048777;1381551066;1287;81;2135608;76;10659;972656
3;43;1572643483213;1572643495115;11902;29353364678;69748103514;1249166464;285225738;9721701987;96980373;1380338999;1361;18;2573632;15;11901;1707870
3;44;1572643495115;1572643507745;12630;29115830416;69747460097;1240679290;273446509;9721507125;96972353;1378987397;1562;76;2697456;-100;12630;1720931
3;45;1572643507745;1572643518030;10285;29139277140;69747629334;1236145898;276108611;9721666462;96969302;1378581732;1055;16;2034632;84;10286;1144987
3;46;1572643518030;1572643528283;10253;29132896794;69747388955;1243911041;277962833;9721544880;96948680;1382056456;1168;15;2238792;-11;10252;1462581
3;47;1572643528283;1572643538260;9977;29152724470;69747276393;1234305009;275870698;9721487600;96927814;1377541282;1264;68;2145184;9;9977;1441755
3;48;1572643538260;1572643548636;10376;29019789280;69747294200;1225258369;269835876;9721490347;96983370;1371624323;1073;15;2069672;15;10376;1486570
3;49;1572643548636;1572643562219;13583;29117297570;69747702190;1250970421;274976857;9721712829;96982771;1382384392;1704;75;2704992;-26;13339;1200422
3;50;1572643562219;1572643573017;10798;29287226240;69747703397;1248136231;282243502;9721683642;96995234;1382242494;1277;9;1922064;22;10798;1555191
3;51;1572643573017;1572643583537;10520;29271502332;69747395123;1262807181;282424079;9721598657;96946244;1383649846;1213;17;2291704;4;10521;1505871
3;52;1572643583537;1572643593585;10048;29222835568;69747298269;1254204508;280184888;9721590122;96919990;1384138212;1301;66;2203416;-2;10048;1460768
3;53;1572643593585;1572643608804;15219;29158667108;69747072002;1232424735;276213421;9721465822;96975789;1377822716;1695;24;3065424;-74;15218;1713253
3;54;1572643608804;1572643619155;10351;29130310696;69747559162;1223858722;273689152;9721717936;96967145;1373798827;1213;26;2266296;14;10352;953484
3;55;1572643619155;1572643629583;10428;29104429568;69747304919;1241988095;273222336;9721587865;96977110;1380580706;1211;99;2024320;40;10427;1399116
3;56;1572643629583;1572643640073;10490;29147622646;69747209055;1245096898;278891133;9721532030;96957699;1381628832;1220;23;2296968;-4;10491;1506257
3;57;1572643640074;1572643652599;12525;29156161310;69747240624;1240394288;274409954;9721538832;96964237;1375367449;1562;78;2594408;-68;11884;1121261
3;58;1572643652600;1572643663144;10544;29125842658;69747360537;1248001985;277069586;9721659170;96961356;1381312964;1123;21;2117712;78;10544;1397701
3;59;1572643663144;1572643673530;10386;29229978472;69747177610;1243851799;283242307;9721558168;96979000;1379916003;1210;23;2280528;6;10387;1491099
3;60;1572643673530;1572643684560;11030;29125158210;69747070278;1246939765;278039289;9721508464;96963109;1380941824;1422;84;2364080;10;11030;1590001
3;61;1572643684561;1572643697714;13153;29155798354;69747345852;1246565130;276933335;9721647871;96963051;1380035315;1447;33;2687720;-124;13154;1429609
3;62;1572643697714;1572643708493;10779;29149808412;69746958814;1243925872;277535960;9721443786;96949673;1380782552;1263;31;2356648;37;10779;526640
3;63;1572643708493;1572643719268;10775;29147021126;69747001042;1230917798;279637906;9721477467;96984326;1375890548;1289;90;2135368;83;10775;1167289
4;15;1572644015678;1572644025676;9998;28954887608;69395468357;1249592469;276901238;9693191558;96994332;1381104106;1086;2;2193376;-12;9998;319068
4;16;1572644025676;1572644036399;10723;29089392444;69397146932;1275929403;279900120;9693835702;97072845;1391761541;1256;61;2207072;88;10722;592937
4;17;1572644036399;1572644046702;10303;29166334298;69396727999;1262275269;286811521;9693692231;97001376;1388112086;1085;1;2195064;11;10304;1451499
4;18;1572644046703;1572644058850;12147;29237253214;69396770722;1270355003;290133961;9693696865;97051171;1386633981;1290;9;2599152;-67;12148;1501082
4;19;1572644058850;1572644069234;10384;29067994830;69392687608;1265493748;279755501;9692562635;97005085;1385943408;1185;58;2046376;78;10383;940982
4;20;1572644069234;1572644079660;10426;29049437354;69392999413;1254372312;281374296;9692771558;96997810;1381150285;1132;4;2270696;-11;10426;1493916
4;21;1572644079660;1572644090321;10661;29091671942;69392692949;1245087030;283945759;9692680788;97000748;1381039697;1151;5;2311048;1;10661;1528390
4;22;1572644090321;1572644100391;10070;29083535216;69393534503;1279661049;283332165;9692963195;96987734;1391257253;1263;114;2069200;60;10070;1475614
4;23;1572644100391;1572644113843;13452;29149610290;69393756069;1263794631;284445690;9693038194;96969695;1386106844;1470;9;2829576;-176;13453;842148
4;24;1572644113843;1572644124150;10307;29106434440;69393793886;1269282354;284301209;9693139430;97008780;1386245008;1144;12;2278800;30;10306;370747
4;25;1572644124150;1572644134186;10036;29130179880;69391801304;1262220417;284355031;9692373817;96970424;1385736959;1140;81;2236024;104;9857;226822
4;26;1572644134186;1572644144570;10384;29199700262;69394289009;1258345669;286922330;9693244340;97004692;1383187931;1144;12;2015712;-22;10384;1043872
4;27;1572644144570;1572644155774;11204;29118397242;69393139502;1270499945;284606794;9692865085;96983587;1384536712;1229;5;2409848;-94;10921;637716
4;28;1572644155774;1572644166106;10332;29153467610;69392917984;1256204440;285454358;9692843294;96951914;1382907054;1336;73;2278632;-4;10136;233840
4;29;1572644166106;1572644177072;10966;29145416148;69393033005;1245394713;286668070;9692817515;96997115;1377928731;1114;17;2200776;101;10966;1042255
4;30;1572644177072;1572644187685;10613;29202524778;69391776476;1275808505;285679000;9692481902;96993424;1388612676;1190;18;2349192;-3;10614;1432956
4;31;1572644187686;1572644198583;10897;29267544272;69392221650;1277052431;290234017;9692657304;96975752;1387065235;1342;67;2268384;-58;10895;1007637
4;32;1572644198583;1572644208958;10375;29165309670;69392487143;1269166309;290831506;9692717650;97014128;1383762492;1059;7;2090352;78;10375;1317447
4;33;1572644208959;1572644219227;10268;29238678612;69391612962;1274090584;289400594;9692426707;96972638;1390494257;1158;6;2268992;-6;10268;1473449
4;34;1572644219227;1572644230210;10983;29107406654;69363079601;1255493686;284911942;9683218963;96972506;1382659858;1347;74;2376088;-13;10984;1598990
4;35;1572644230211;1572644243791;13580;29072779250;69318596382;1240243008;283012924;9668882459;96880870;1380452578;1430;15;2820344;-97;13581;1794005
4;36;1572644243792;1572644255132;11340;29164295992;69275789102;1263629475;282005580;9654660048;96963806;1387570135;1245;16;2459944;68;11341;692333
4;37;1572644255133;1572644265461;10328;29006411592;69249637658;1255937375;274117535;9646210699;96875897;1386917925;1190;98;2048072;40;10328;1398935
4;38;1572644265461;1572644275553;10092;28991650554;69249293006;1260132401;274300973;9646142283;96898871;1384617126;1110;18;2186024;10;10093;1448586
4;39;1572644275554;1572644288622;13068;28998590372;69249115633;1266917404;275595862;9646058211;96887304;1389427884;1437;86;2818568;38;13069;1837952
4;40;1572644288623;1572644298957;10334;29004622654;69249053039;1241512714;276324727;9646046635;96886196;1383019297;1156;22;2026168;-45;10334;1320114
4;41;1572644298957;1572644309702;10745;29015642150;69249077394;1243407177;277869068;9646045912;96881712;1382327045;1191;19;2339472;11;10745;1538012
4;42;1572644309702;1572644319727;10025;29061787640;69249056727;1247335910;276517060;9646025988;96883560;1383181942;1239;74;2130104;-24;10025;1449438
4;43;1572644319727;1572644330022;10295;29039036460;69249152205;1239793518;277814451;9646071395;96889743;1377084282;1062;19;2063672;28;10295;1473694
4;44;1572644330022;1572644343136;13114;29018502874;69238361613;1258813874;274211910;9645896295;96857356;1385541674;1487;21;2877816;-123;13114;869190
4;45;1572644343136;1572644353965;10829;28982086970;69237003808;1254629107;275233192;9645888584;96856957;1384995555;1303;78;2217512;93;10829;730271
4;46;1572644353965;1572644364932;10967;28954618238;69237233954;1258725294;273500068;9646010099;96852844;1385601977;1174;18;2274488;28;10967;1557913
4;47;1572644364932;1572644375345;10413;28971710020;69237001533;1255266192;273080419;9645890982;96816883;1386395793;1184;19;2279264;0;10413;1493801
4;48;1572644375345;1572644387927;12582;28928741782;69237251102;1254041084;271275016;9646002855;96827619;1383401691;1477;82;2562616;-19;12582;1351641
4;49;1572644387927;1572644398315;10388;28982407586;69237062401;1240219516;273923250;9645925832;96868162;1381644635;1176;15;2254776;-5;10388;1491032
4;50;1572644398315;1572644409420;11105;29118423522;69222598229;1267599471;281632183;9641059421;96889072;1389359360;1495;70;1819488;10;11106;1624139
4;51;1572644409421;1572644420096;10675;28935538520;69219627887;1243456287;273940525;9640173863;96828197;1382009626;1165;8;2217232;-13;10675;1531190
4;52;1572644420096;1572644435019;14923;28953099984;69219368466;1246575266;268306090;9640047593;96800206;1382764007;1857;80;3211896;-30;14924;1541465
4;53;1572644435020;1572644444801;9781;28962775258;69219735610;1264457835;270201858;9640229849;96800020;1390574337;1099;14;1932904;40;9781;1262303
4;54;1572644444801;1572644454773;9972;28973705402;69219494605;1253555070;274438504;9640116014;96809805;1386733569;1164;11;2210928;20;9984;1428548
4;55;1572644454784;1572644465045;10261;29032470256;69219639850;1256087302;273316657;9640187732;96819528;1385933090;1316;87;2175472;0;10260;1530436
4;56;1572644465045;1572644478018;12973;29003086442;69219616169;1262118599;273123524;9640160670;96852325;1387726508;1400;17;2659600;-128;12973;1364457
4;57;1572644478018;1572644487989;9971;28953327598;69219691472;1246758379;272376775;9640197457;96798343;1382735463;1171;17;2197360;-20;9854;203398
4;58;1572644487989;1572644497951;9962;28953471554;69219401204;1245919003;271183175;9640144720;96803058;1381209988;1243;102;2067392;55;9843;317354
4;59;1572644497952;1572644508113;10161;29173401282;69219449355;1270879011;278526773;9640165950;96840934;1390973500;1115;22;2100808;74;10161;1234433
4;60;1572644508113;1572644520275;12162;29009727836;69219262742;1258348489;275904553;9640075788;96829177;1386959738;1407;20;2626144;-78;12162;1559868
4;61;1572644520275;1572644530756;10481;29045549082;69219479219;1269614494;277221459;9640181907;96835231;1390938410;1280;99;2131824;77;10481;1155224
4;62;1572644530756;1572644541240;10484;29165248788;69219533669;1261827317;280312431;9640204419;96838939;1387296958;1194;14;2221048;-10;10484;1502128
4;63;1572644541240;1572644551272;10032;29050289556;69219545776;1272489968;276583480;9640202765;96826316;1389286597;1172;21;2188504;12;10032;1439535
4;64;1572644551272;1572644562152;10880;29046412672;69219535980;1271820392;273864739;9640227978;96846165;1389544712;1383;73;2281024;-2;10880;1575206
