0;22;1573809149858;1573809159608;9750;28485859980;69911201448;1241323087;268116024;9774823468;97569944;1359350887;1366;2735;1503272;0;9750;1549503
0;23;1573809159608;1573809170347;10739;28522911568;69909852570;1247547214;272352112;9774414344;97613910;1360905251;1311;2854;1864776;-120;10739;1348283
0;24;1573809170347;1573809179989;9642;28626314900;69908837730;1268437455;277575711;9774160004;97653109;1361358704;1673;2360;1673440;6;9642;329505
0;25;1573809179989;1573809189273;9284;28535246670;69910439788;1250336437;272488722;9774657085;97544493;1360739482;1715;2297;1382640;66;9284;623515
0;26;1573809189274;1573809198460;9186;28500409464;69911388504;1234414539;271997554;9775018793;97554684;1357212184;1041;2174;1376856;29;9187;1287959
0;27;1573809198460;1573809207880;9420;28579083754;69910087187;1253280710;275064106;9774492364;97611018;1361889029;1163;2777;1705576;-70;9420;1133770
0;28;1573809207880;1573809217309;9429;28430584088;69910205317;1231421745;268416431;9774571219;97527406;1356750283;2071;2053;1502784;78;9429;445945
0;29;1573809217309;1573809226218;8909;28488772242;69910010489;1221108262;269817521;9774463737;97521918;1352771402;1079;2048;1317664;-9;8909;1226988
0;30;1573809226218;1573809235545;9327;28557230912;69908859666;1248422701;274994586;9774186575;97573982;1361173339;1075;2507;1608128;13;9327;1338836
0;31;1573809235545;1573809244890;9345;28463642138;69909649289;1251260888;269363177;9774373291;97566845;1360248806;1149;2511;1697072;-118;9345;1006470
0;32;1573809244890;1573809254649;9759;28521009480;69909467285;1253710208;272913750;9774396264;97539309;1361714507;1581;2574;1381728;110;9759;918188
0;33;1573809254649;1573809264379;9730;28575504126;69908951591;1261802955;276041344;9774205479;97632643;1362267105;1071;2604;1540904;17;9730;1396047
0;34;1573809264379;1573809273675;9296;28468318810;69879848837;1236457257;270574381;9764810026;97621622;1355236816;1109;2514;1676848;-99;9296;983564
0;35;1573809273675;1573809283177;9502;28361387242;69835728619;1214098809;263771450;9750655380;97499541;1350840673;1666;2516;1500400;71;9502;705783
0;36;1573809283177;1573809293553;10376;28516838552;69835846825;1236437381;274285204;9750718443;97594129;1360686600;1214;2407;1615792;29;10376;1483768
0;37;1573809293553;1573809302928;9375;28424932574;69770361514;1247364510;264270670;9732156588;97521671;1360671346;1124;2690;1692200;-79;9375;1032814
0;38;1573809302928;1573809312638;9710;28459805258;69754987813;1248465183;264730542;9727830162;97526924;1362468608;1791;2464;1559480;59;9710;635877
0;39;1573809312638;1573809321811;9173;28368193616;69754830863;1239449307;258225731;9727786405;97398404;1361289367;1072;2234;1323040;8;9173;1265381
0;40;1573809321811;1573809331369;9558;28471737254;69754776030;1235718536;268716532;9727787211;97499109;1359039788;1151;2845;1751520;-13;9559;1358034
0;41;1573809331370;1573809341867;10497;28401989988;69754654311;1229521664;264328425;9727706923;97532768;1353226181;1515;3078;1774920;32;10497;940957
0;42;1573809341867;1573809351042;9175;28466141220;69754750062;1240960061;265878596;9727759836;97495263;1361476197;1200;2160;1326512;-27;9175;1160043
0;43;1573809351042;1573809360159;9117;28424299226;69755178092;1239913251;262010985;9727924489;97499649;1360918288;1070;2418;1579992;-14;9117;1252369
0;44;1573809360159;1573809369335;9176;28374498626;69754452834;1232172181;262781719;9727777619;97440615;1357692898;1171;2519;1586080;-83;9177;646435
0;45;1573809369336;1573809378609;9273;28390532054;69754434832;1249089135;262212640;9727773622;97423234;1362604531;1523;2331;1427696;98;9273;819858
0;46;1573809378609;1573809389369;10760;28345581282;69754300741;1233034734;259771883;9727701536;97406837;1360092392;1606;1954;1564784;-99;10760;922539
0;47;1573809389369;1573809398818;9449;28449775934;69754102630;1258216870;265395127;9727608075;97491401;1364142526;1691;2052;1556656;-8;9449;276077
0;48;1573809398818;1573809407836;9018;28453769618;69754226057;1236718022;265708183;9727671250;97399549;1359457686;1901;1965;1437064;76;9018;629902
0;49;1573809407836;1573809416955;9119;28396380376;69754279898;1239355736;261054278;9727700550;97367447;1358953726;1025;2213;1317216;30;9120;1274366
0;50;1573809416956;1573809426249;9293;28427720736;69739734486;1230597820;264753159;9722794195;97425198;1359381068;1097;2895;1661816;-8;9293;1298445
0;51;1573809426249;1573809436299;10050;28371770032;69737030522;1230708853;258844393;9722049755;97481744;1357940148;1788;2557;1629952;31;10050;676091
0;52;1573809436299;1573809445804;9505;28422489994;69736857869;1235929983;262246425;9721961191;97428489;1361411817;1206;2153;1401992;-2;9505;1268819
0;53;1573809445804;1573809454944;9140;28385966342;69736953036;1220094429;259943726;9721996165;97428493;1355473069;1074;2680;1582248;-17;9140;1310967
0;54;1573809454944;1573809464622;9678;28429595230;69736697048;1231572759;263508614;9721868548;97528124;1356551005;1348;2941;1695840;124;9678;1287636
0;55;1573809464622;1573809474101;9479;28376482766;69736841483;1232549805;261363966;9721942171;97487187;1356841829;1395;1488;1087560;-129;9479;1406564
0;56;1573809474101;1573809488017;13916;28341234862;69736992263;1225466734;257538897;9722023224;97495623;1353737207;2099;2902;2185624;-99;13916;1017412
0;57;1573809488017;1573809497455;9438;28395577960;69736725879;1232225021;261994723;9721885886;97475703;1358623718;1543;2078;1535328;-6;9438;330682
0;58;1573809497455;1573809506832;9377;28453939854;69736646330;1245482977;260549984;9721932269;97390000;1358808070;1578;2509;1268080;119;9377;1319316
0;59;1573809506832;1573809515876;9044;28338203756;69736513731;1231711007;253944388;9721869789;97359958;1357437783;1026;2584;1462240;-1;9044;1300275
0;60;1573809515876;1573809526187;10311;28450701428;69736319474;1241213188;265391753;9721773760;97507916;1359640169;1359;2468;1834168;-108;10311;1041767
0;61;1573809526187;1573809535735;9548;28382847198;69736530523;1219694023;261464976;9721867101;97489821;1355655822;1754;2156;1415584;102;9548;920345
0;62;1573809535735;1573809545014;9279;28341876386;69736449359;1223233093;257516611;9721832446;97427515;1352981830;1072;2478;1432336;8;9279;1331057
0;63;1573809545014;1573809554403;9389;28437683484;69736430239;1244660910;261562166;9721817125;97453984;1361667994;1139;3020;1680824;-44;9389;1181828
0;64;1573809554403;1573809564507;10104;28463527966;69736545781;1266682481;263712320;9721883626;97487383;1366893075;1630;2760;1637120;1;10105;689101
0;65;1573809564508;1573809575606;11098;28395659720;69736648551;1232764366;261932363;9721938037;97475449;1357806041;1450;2309;1654856;-68;11098;832400
0;66;1573809575606;1573809585942;10336;28536975164;69736486027;1251728642;270445351;9721857448;97629383;1361019389;1670;2457;1695576;0;10238;307879
0;67;1573809585943;1573809595594;9651;28422549562;69736833623;1235742983;263090660;9722032379;97541547;1358058801;1746;2506;1479248;88;9651;705608
0;68;1573809595594;1573809604437;8843;28320300944;69736671838;1220927916;256485966;9721951476;97361812;1351708198;1014;2098;1299968;9;8843;1254416
0;69;1573809604437;1573809613545;9108;28400011250;69736512866;1233354923;261567951;9721866604;97396538;1360509063;1110;2783;1686520;2;9108;1302370
0;70;1573809613545;1573809623399;9854;28298623740;69736749472;1227090851;255152759;9721978800;97335677;1358078848;2081;1866;1523544;-57;9854;516777
0;71;1573809623399;1573809632706;9307;28358150714;69736620628;1243694647;255858640;9721923186;97476529;1361303622;1147;2222;1342392;73;9307;1218032
1;22;1573809986257;1573809997041;10784;28481891700;69274049460;1248019517;274100970;9648362714;97130456;1357928151;1973;2105;1772648;-103;10784;494883
1;23;1573809997041;1573810006866;9825;28525508616;69271830433;1258301351;275217801;9647669743;97213914;1362084376;1725;2293;1496824;67;9825;617527
1;24;1573810006866;1573810016287;9421;28467540192;69273520852;1252748082;272590557;9648288562;97175790;1357364203;1340;2296;1327160;33;9422;1349635
1;25;1573810016287;1573810025668;9381;28456048824;69273051474;1238661419;271759725;9648168313;97150827;1356086124;1094;2605;1612688;-3;9381;1350680
1;26;1573810025668;1573810035940;10272;28518782980;69272205355;1261677403;272477409;9647812127;97165580;1361768038;1425;2470;1848920;-104;10272;1201617
1;27;1573810035942;1573810045179;9237;28464815540;69272485555;1242565529;272310446;9647894249;97126589;1354047216;1913;1921;1445000;174;9239;330630
1;28;1573810045180;1573810054541;9361;28464430246;69272885562;1246102184;272408463;9648114217;97085977;1359233913;1410;2280;1376376;-66;9361;1192412
1;29;1573810054541;1573810063717;9176;28488088670;69272832715;1256263726;270712664;9648055372;97021586;1363344220;1035;2552;1528704;-5;9176;1289116
1;30;1573810063717;1573810073167;9450;28499472144;69271970011;1250959308;275534546;9647858224;97075062;1360401191;1125;2552;1641920;-90;9450;810638
1;31;1573810073167;1573810083759;10592;28496226418;69271870879;1259237323;276463928;9647828297;97172283;1360566705;1859;2353;1560128;56;10592;674000
1;32;1573810083759;1573810092910;9151;28410647058;69269969767;1237688217;269587284;9647121232;97016169;1358379121;1050;2513;1471448;-3;9152;1031245
1;33;1573810092910;1573810102411;9501;28421810802;69270509467;1235224185;271749562;9647305028;97115600;1354525987;1604;2102;1688064;-80;9500;453554
1;34;1573810102411;1573810112662;10251;28463807848;69242547946;1247845699;271572664;9638349733;97091116;1360412523;2145;2293;1499952;67;10251;648411
1;35;1573810112662;1573810121875;9213;28389702628;69198886985;1233619407;267381554;9624368998;97000183;1356198178;1064;2409;1367456;62;9214;1174458
1;36;1573810121875;1573810131980;10105;28344488326;69197403537;1219502958;266070603;9623874812;97088148;1350686992;1362;2495;1762544;-99;10105;705449
1;37;1573810131981;1573810141217;9236;28348160956;69132275218;1238698354;262237497;9605499093;96964785;1361004355;1898;2094;1391896;79;9237;581529
1;38;1573810141217;1573810150641;9424;28378393322;69100731091;1240197488;261888237;9595812119;96990062;1360677498;1109;2194;1371360;38;9424;1326027
1;39;1573810150641;1573810159662;9021;28309565856;69098969211;1242244040;252750538;9595236917;96957239;1360780230;1310;1933;1573440;-129;9020;917290
1;40;1573810159662;1573810169144;9482;28376967924;69098970113;1251388908;261178223;9595231316;96977794;1362997031;1921;1803;1530952;7;9482;301115
1;41;1573810169144;1573810179011;9867;28261811154;69099164649;1223808712;255119218;9595331639;96914981;1356074688;1645;2494;1392256;114;9867;1301282
1;42;1573810179011;1573810188395;9384;28293157500;69099137562;1218337455;258969710;9595305886;97055259;1350841284;1073;2590;1564536;-14;9384;1344321
1;43;1573810188395;1573810197847;9452;28396258174;69099150204;1251080652;264263317;9595313639;97085034;1361869918;1131;2641;1748528;-51;9452;1169917
1;44;1573810197847;1573810206823;8976;28270070374;69099326132;1256374649;247852931;9595415076;96955929;1361410620;1636;2072;1369536;-45;8976;634246
1;45;1573810206823;1573810215810;8987;28373691976;69098764250;1244115643;261943353;9595217816;96936356;1358890741;1050;2285;1349240;86;8988;959776
1;46;1573810215810;1573810225874;10064;28363858000;69098706296;1248693936;260357810;9595197250;96964314;1361660069;1219;2985;1770168;-67;10063;922472
1;47;1573810225874;1573810235354;9480;28337930736;69099021121;1238476580;259140697;9595361852;97019548;1357955011;2126;2086;1482496;37;9480;516854
1;48;1573810235354;1573810245084;9730;28419974998;69098801990;1242980777;266139855;9595249696;97162722;1359856422;1119;2161;1445704;60;9731;1364841
1;49;1573810245084;1573810254572;9488;28225139604;69098909424;1230280759;246847015;9595305732;96897609;1355946168;1711;1766;1581088;-120;9488;766089
1;50;1573810254572;1573810263848;9276;28312907796;69099053306;1238105113;259268677;9595373962;97014746;1354690062;1628;2087;1526136;1;9275;322306
1;51;1573810263848;1573810273646;9798;28351023578;69098847538;1236111977;259760359;9595225649;96995456;1359099008;1481;2493;1406056;110;9798;1047395
1;52;1573810273646;1573810283141;9495;28333333634;69098624267;1247528898;258820058;9595209850;96976970;1357649060;1072;2586;1572472;-28;9495;1349182
1;53;1573810283141;1573810292574;9433;28401932756;69098492222;1250758676;261949804;9595135493;96981332;1361136452;1140;2691;1675960;-81;9434;727654
1;54;1573810292574;1573810301969;9395;28407884008;69098405807;1238955854;263599146;9595075047;97028029;1361988815;1699;2052;1384480;117;9394;881839
1;55;1573810301969;1573810311527;9558;28330165580;69098531124;1236667983;259677120;9595160210;97003274;1357793763;1079;2344;1444904;-23;9559;1372249
1;56;1573810311527;1573810320978;9451;28355786244;69098735458;1236835074;263710665;9595273996;97079127;1354674193;1135;2897;1735576;-16;9451;1279777
1;57;1573810320978;1573810332702;11724;28366243348;69098708515;1243409627;261325934;9595263748;97044345;1359407433;1823;2356;1453376;25;11723;1536775
1;58;1573810332702;1573810342505;9803;28414449920;69098754522;1257080652;263929031;9595262920;97106886;1359404799;1119;2594;1478544;3;9803;1409474
1;59;1573810342505;1573810351656;9151;28350994086;69098439895;1226031232;262349865;9595164120;96887779;1357681570;1074;2746;1707488;14;9152;1313960
1;60;1573810351656;1573810363240;11584;28360776816;69098487175;1258297275;259280211;9595191371;96970350;1364554867;1798;2946;1888544;-92;11480;1201928
1;61;1573810363240;1573810372590;9350;28319665552;69098760803;1237449771;257451187;9595327934;96917143;1358756073;1081;2352;1386240;72;9351;1144774
1;62;1573810372590;1573810381852;9262;28206428098;69098604699;1212700057;254041424;9595247777;96923952;1353031630;1375;2427;1599672;-102;9262;564602
1;63;1573810381853;1573810391118;9265;28252113104;69098368961;1232336282;255406671;9595121168;96950085;1359015916;1917;2056;1423064;44;9265;466335
1;64;1573810391118;1573810400356;9238;28290561620;69098531264;1233145805;255775103;9595204084;96945621;1357231372;1082;2163;1328944;54;9238;1219180
1;65;1573810400356;1573810410589;10233;28293192832;69098690989;1233815600;256679680;9595273925;96876601;1357621477;1862;1752;1653632;-104;10233;607346
1;66;1573810410589;1573810419635;9046;28389941484;69098309565;1250571660;261587311;9595105641;96951172;1362467808;1843;1694;1455992;-4;9047;293180
1;67;1573810419635;1573810429079;9444;28350619158;69098181820;1239719085;260638119;9595043060;97031263;1357444508;1708;2308;1352200;120;9444;1297452
1;68;1573810429079;1573810438622;9543;28260044116;69098241805;1223559415;255903822;9595073344;96887734;1352834654;1060;2499;1536288;-3;9542;1367055
1;69;1573810438622;1573810447580;8958;28313317472;69098436124;1235847613;257859783;9595152501;96932918;1358417561;1087;2513;1653120;-96;8959;986330
1;70;1573810447580;1573810456786;9206;28361093198;69098491580;1253870397;261560768;9595198365;96974961;1357714940;1775;2172;1404328;107;9205;676797
1;71;1573810456786;1573810466832;10046;28356621072;69098835303;1236588220;261739338;9595365953;97050830;1357137907;1151;2500;1492400;-3;10047;1447758
2;23;1573810832314;1573810842177;9863;28436914648;69391378614;1280483590;273471579;9707591645;97733660;1383991864;2012;2274;1548008;71;9863;488991
2;24;1573810842177;1573810851500;9323;28452413132;69389453318;1285299801;274905893;9706995873;97713919;1386414363;1279;2530;1299352;96;9323;1340026
2;25;1573810851500;1573810860747;9247;28424232504;69389886092;1284410648;271014197;9707108789;97734624;1388280868;1070;2616;1477576;-42;9247;1336121
2;26;1573810860747;1573810870055;9308;28356767802;69391032188;1257362536;272057702;9707536496;97703893;1378843408;1097;2782;1678112;-53;9308;1223550
2;27;1573810870056;1573810879962;9906;28398379700;69391323810;1266482424;271784386;9707489257;97681995;1383259781;1781;2052;1644744;-66;9907;395020
2;28;1573810879962;1573810889428;9466;28508778768;69390313707;1292692953;274367950;9707332795;97678759;1390360242;1545;2483;1344520;96;9466;1004008
2;29;1573810889428;1573810899179;9751;28489748398;69390556330;1278684549;277954601;9707319707;97837584;1384377153;1060;2577;1536664;-2;9751;1396567
2;30;1573810899179;1573810910016;10837;28452374296;69388927384;1273758477;276506436;9706923725;97782269;1382987350;1918;2084;1832984;-99;10837;671686
2;31;1573810910016;1573810919734;9718;28442426732;69388567880;1273443273;273519910;9706723412;97702968;1383633980;1813;2278;1377200;94;9718;771008
2;32;1573810919734;1573810928882;9148;28379395904;69388765387;1265095329;272255889;9706780142;97665774;1377442799;995;2284;1356936;30;9148;1280763
2;33;1573810928882;1573810938473;9591;28447946408;69390173853;1273393502;275400589;9707325727;97745683;1384356379;1159;2848;1753072;-83;9590;1168295
2;34;1573810938473;1573810948609;10136;28407983142;69361479254;1263954657;272233533;9698083151;97621354;1380688456;1830;2414;1645216;-42;10136;742285
2;35;1573810948609;1573810958040;9431;28362064536;69316220455;1253632648;270733638;9683490114;97683188;1376347219;1106;2423;1373272;112;9431;1015499
2;36;1573810958040;1573810968013;9973;28461034724;69315854580;1279614535;276940834;9683413297;97729823;1387732440;1216;2862;1769488;-98;9975;1017699
2;37;1573810968014;1573810977271;9257;28372894670;69251460642;1273204707;266897170;9665259573;97628694;1385542671;1615;2346;1510144;149;9257;401714
2;38;1573810977271;1573810986474;9203;28317495554;69218703882;1259124835;262992030;9655192142;97577408;1382909961;1187;2133;1280568;-37;9203;1303635
2;39;1573810986474;1573810997445;10971;28384263398;69217558498;1276516206;264835009;9654841321;97639947;1387515111;1376;2538;1830136;-115;10971;1284226
2;40;1573810997445;1573811007024;9579;28307802614;69217409968;1252052087;263046538;9654792222;97629670;1381188551;1681;2130;1622472;-6;9579;325998
2;41;1573811007024;1573811016354;9330;28242787938;69217258514;1253406977;257225022;9654716224;97540285;1381815667;1751;2206;1345216;100;9330;1130806
2;42;1573811016354;1573811025390;9036;28294524790;69217426774;1248198739;261853394;9654807216;97554498;1380290064;1010;2362;1445648;13;9036;1296561
2;43;1573811025390;1573811034008;8618;28233527450;69217535958;1238788749;259904119;9654817507;97443160;1376334548;1036;2325;1568672;-43;8617;1128815
2;44;1573811034008;1573811043734;9726;28309305246;69217355696;1259237437;262980659;9654766660;97624717;1385353747;1504;2519;1535392;29;9727;968150
2;45;1573811043735;1573811052768;9033;28249554454;69217000004;1253996339;259976903;9654632767;97525801;1383441154;1042;2120;1337008;2;9033;1288616
2;46;1573811052768;1573811062295;9527;28380038012;69217320382;1261453957;268443280;9654806636;97717590;1384016544;1125;2569;1719960;7;9528;1349328
2;47;1573811062295;1573811071517;9222;28302794084;69217095310;1262687686;262525014;9654698855;97580342;1387647092;1174;2524;1678480;-101;9221;781551
2;48;1573811071517;1573811081156;9639;28271102302;69216987554;1253012475;260442470;9654639270;97616986;1382092511;1503;2399;1347848;96;9640;1324113
2;49;1573811081157;1573811090124;8967;28213427630;69217012382;1239201304;256661518;9654650938;97518186;1375313280;1021;2519;1481240;10;8968;1286104
2;50;1573811090124;1573811098980;8856;28292771476;69217106618;1256573752;261399818;9654692166;97504796;1383815453;1072;2327;1622632;-79;8855;909915
2;51;1573811098980;1573811108441;9461;28344114128;69217422529;1258689545;264931247;9654807963;97595855;1383415657;1642;2444;1486760;87;9462;955028
2;52;1573811108442;1573811117470;9028;28199688446;69217039710;1241641409;256716368;9654731975;97497668;1382354099;1057;2293;1410968;-1;9028;1300144
2;53;1573811117470;1573811126082;8612;28276471744;69217046865;1252335781;259586456;9654731376;97397424;1384393760;1086;2386;1571656;-108;8612;864000
2;54;1573811126082;1573811135422;9340;28322532846;69216908442;1254107187;263621450;9654676977;97543794;1382884135;1776;2438;1462272;107;9341;534368
2;55;1573811135422;1573811144349;8927;28156167452;69217061813;1230984744;254650237;9654745637;97493620;1376517211;1087;1969;1316712;-16;8927;1248925
2;56;1573811144349;1573811153705;9356;28223779468;69216861291;1247084178;256322161;9654629910;97534598;1384387878;1377;2057;1303840;15;9356;1457036
2;57;1573811153705;1573811166159;12454;28295497880;69217031168;1259179141;260168634;9654726935;97526295;1382158668;1502;2915;1832240;-113;12453;1722578
2;58;1573811166159;1573811174963;8804;28250376142;69216850960;1253058569;259324512;9654610251;97459750;1383085611;1236;2264;1487744;-4;8804;330681
2;59;1573811174963;1573811184177;9214;28261616828;69216813495;1265129566;258615653;9654651613;97572078;1383981114;1892;2044;1379440;60;9215;570311
2;60;1573811184177;1573811193316;9139;28240665682;69216798896;1259730680;258794291;9654658133;97538155;1383746465;1045;2252;1344664;46;9139;1246372
2;61;1573811193316;1573811202644;9328;28241766084;69216767397;1235086996;259948994;9654645266;97518764;1379275742;1185;2604;1643088;-51;9328;1268972
2;62;1573811202644;1573811211921;9277;28311031988;69216863447;1274005377;260543330;9654691567;97523127;1389486860;1496;2477;1544192;48;9257;583689
2;63;1573811211921;1573811220784;8863;28270349088;69216624596;1247356865;261046181;9654562491;97500102;1380205191;1149;2007;1269792;-4;8863;1106525
2;64;1573811220785;1573811229823;9038;28312895386;69216654684;1257804921;261959560;9654576014;97530798;1383211855;1030;2526;1499536;-2;9039;1299931
2;65;1573811229823;1573811239022;9199;28312549220;69216689616;1251556810;262348272;9654601366;97541133;1384171312;1105;2604;1707048;-48;9199;1229039
2;66;1573811239022;1573811248711;9689;28262947326;69216592221;1252461107;260822451;9654563584;97601071;1380634371;1553;2460;1498328;67;9688;854870
2;67;1573811248711;1573811257672;8961;28244312762;69216922013;1231586921;261059222;9654712386;97543421;1376516656;995;2116;1312920;-4;8961;1288844
2;68;1573811257672;1573811266894;9222;28314799226;69216735427;1253028087;262675588;9654614635;97595868;1384150750;1112;2861;1690432;8;9223;1323852
2;69;1573811266894;1573811277571;10677;28268008562;69217017594;1258784304;262227701;9654762470;97596756;1382971647;1660;2586;1727344;-56;10677;1109252
2;70;1573811277571;1573811286814;9243;28251170966;69216748269;1253413333;258907756;9654617996;97567518;1383091159;1049;2217;1343720;29;9243;1188466
2;71;1573811286814;1573811296224;9410;28325405104;69216725470;1267584454;261949435;9654611865;97584570;1386997752;1154;2724;1689056;-84;9410;968106
2;72;1573811296224;1573811306291;10067;28324587358;69216560295;1257272217;265617677;9654535633;97673326;1383352106;2155;2307;1594616;40;10066;404871
3;22;1573811657587;1573811667193;9606;28546975434;69835466479;1264343782;273592564;9727822239;97770562;1379925321;1172;2637;1762472;-100;9606;898659
3;23;1573811667193;1573811677272;10079;28684531378;69833413106;1311313253;277810530;9727182598;97813138;1388455930;1562;2962;1603232;10;10079;468814
3;24;1573811677272;1573811686847;9575;28601374888;69833310683;1268370243;276935148;9727177249;97785845;1380501131;1311;2356;1375280;88;9574;1198611
3;25;1573811686847;1573811696747;9900;28473110092;69833917734;1253073548;270587147;9727462693;97745747;1377359052;1147;2973;1624328;7;9900;1422849
3;26;1573811696747;1573811707096;10349;28506523360;69833327869;1266493449;272543260;9727274528;97737060;1381845602;1249;2916;1826128;-116;10350;1242882
3;27;1573811707096;1573811716701;9605;28579301294;69833652842;1271318908;275671518;9727321425;97682771;1380457176;1964;2274;1509728;66;9604;441235
3;28;1573811716701;1573811726021;9320;28495903320;69833914342;1260411522;269850050;9727463687;97695972;1378511681;1120;2240;1358840;31;9320;1273249
3;29;1573811726021;1573811735324;9303;28539178304;69832844789;1267164025;274168740;9727144932;97739562;1381403942;1107;2587;1629184;-95;9304;969493
3;30;1573811735324;1573811744604;9280;28530632340;69834410823;1273487431;272926505;9727749156;97740719;1379604075;1720;2071;1504120;3;9279;315520
3;31;1573811744604;1573811754893;10289;28602039626;69832642407;1273895578;277509438;9727114533;97756054;1380823126;1705;2527;1502048;62;10290;864737
3;32;1573811754894;1573811764342;9448;28597693644;69832399249;1274708831;278684281;9727013755;97682371;1385056797;1100;2518;1585368;-13;9449;1040496
3;33;1573811764342;1573811773119;8777;28446705846;69832380704;1249491964;268609211;9726990254;97565990;1376328788;1260;2293;1516728;-49;8776;377872
3;34;1573811773119;1573811782237;9118;28518803712;69804253531;1264728174;270605399;9717971764;97685256;1382105371;1760;2007;1387544;70;9119;521439
3;35;1573811782238;1573811791649;9411;28551721018;69758963086;1284261086;272586171;9703399029;97632824;1387210522;1103;2429;1453944;23;9412;1210101
3;36;1573811791649;1573811801707;10058;28512428184;69759452607;1266730835;269789934;9703566008;97660539;1382216397;1545;2341;1737568;-102;10058;737785
3;37;1573811801707;1573811811181;9474;28488221092;69703354431;1259187235;267835334;9685103925;97612296;1380931048;1973;1972;1444784;83;9473;467998
3;38;1573811811181;1573811820581;9400;28445402796;69678907285;1261331557;263236120;9680525433;97573056;1382544497;1129;2432;1384008;31;9401;1277021
3;39;1573811820581;1573811830544;9963;28397819206;69677724793;1256782195;262529841;9680350656;97680112;1376951612;1308;2630;1800552;-100;9962;1142606
3;40;1573811830544;1573811839744;9200;28495867550;69678374470;1270545630;267149105;9680680494;97610442;1383227751;1260;2451;1605712;138;9200;334475
3;41;1573811839744;1573811848836;9092;28311985660;69678134007;1254127308;256376312;9680547029;97573721;1379765710;1444;2214;1236280;-42;9093;1233098
3;42;1573811848836;1573811858166;9330;28388928682;69678025167;1232775429;263528668;9680519959;97602940;1373302034;1049;2456;1566792;7;9330;1341456
3;43;1573811858167;1573811867554;9387;28491602014;69678292454;1271099794;265490240;9680587204;97669335;1384970324;1125;2902;1656464;-94;9387;886399
3;44;1573811867554;1573811877778;10224;28515569520;69678145322;1276154606;266971423;9680618959;97607215;1383315969;1680;2517;1561376;81;10226;864021
3;45;1573811877779;1573811887115;9336;28450704640;69677463136;1264724534;264160418;9680388809;97635267;1381128672;1050;2457;1414160;5;9336;1337963
3;46;1573811887116;1573811896481;9365;28536348532;69677783778;1283381609;268932526;9680555152;97599352;1389630958;1135;2959;1702224;-52;9366;1172197
3;47;1573811896481;1573811906773;10292;28448751452;69677357158;1260512504;263553608;9680351543;97610243;1381550220;1622;2834;1644376;-44;10291;501057
3;48;1573811906773;1573811916485;9712;28459758830;69677615939;1256322573;268680966;9680459305;97687008;1382242557;1122;2659;1418776;106;9712;1172245
3;49;1573811916485;1573811925084;8599;28342308692;69677575054;1244423758;258903609;9680447013;97475959;1379548817;1041;2416;1577760;-77;8600;1064511
3;50;1573811925084;1573811934793;9709;28465599268;69677773695;1251685564;270635927;9680529274;97673570;1376426575;1597;2880;1647112;17;9709;594377
3;51;1573811934793;1573811946561;11768;28489193890;69661003548;1261638807;268489744;9674933455;97733807;1382581083;1392;2785;1696280;42;11767;1537194
3;52;1573811946561;1573811956006;9445;28516443622;69660591517;1263921198;267250495;9674915725;97571029;1380667761;1119;2713;1697592;2;9445;1354919
3;53;1573811956006;1573811965140;9134;28390437008;69660323717;1259452784;260235318;9674765126;97528948;1381082665;1075;2526;1684352;-73;9135;1055820
3;54;1573811965140;1573811973980;8840;28357251354;69660199271;1256483343;256220085;9674708064;97453856;1381813011;1421;1766;1257648;93;8839;1180536
3;55;1573811973980;1573811985297;11317;28371216546;69660064162;1258213132;260768079;9674648218;97702928;1380089078;1351;3414;1830680;-88;11318;1496591
3;56;1573811985297;1573811995107;9810;28399829042;69660188020;1249748631;262694174;9674722747;97656911;1375651858;1565;2443;1672632;-30;9810;390341
3;57;1573811995108;1573812004678;9570;28444559062;69660515518;1269929342;264247382;9674800285;97638175;1383774467;1746;2277;1376360;122;9570;1136146
3;58;1573812004678;1573812013622;8944;28379020392;69660185249;1261252100;257226386;9674785762;97497426;1384136927;988;2273;1396640;2;8945;1282274
3;59;1573812013622;1573812023853;10231;28481362742;69659936531;1262827183;267082127;9674668002;97688832;1381578327;1255;3094;1899376;-83;10231;1027601
3;60;1573812023853;1573812036602;12749;28482492928;69660135875;1269209451;267045740;9674764809;97678865;1381549012;2001;3019;1451536;63;12749;1890936
3;61;1573812036602;1573812045820;9218;28393850926;69659889677;1252312933;260698957;9674634009;97611909;1379884627;1035;2562;1545256;21;9218;1322625
3;62;1573812045820;1573812054942;9122;28335411944;69660090124;1237514280;259566957;9674736118;97507194;1375387213;1057;2889;1632040;-1;9122;1307828
3;63;1573812054942;1573812065142;10200;28380477618;69659876086;1267702983;254993012;9674632410;97578393;1384521293;1664;2507;1643624;-2;10200;1514043
3;64;1573812065143;1573812074032;8889;28455517676;69660211085;1272650202;262636708;9674768983;97518447;1385325520;991;2225;1336952;1;8890;1273492
3;65;1573812074032;1573812083114;9082;28382923702;69659960320;1253942841;260036209;9674731942;97546966;1380484772;1087;2686;1598384;-34;9082;1251737
3;66;1573812083114;1573812092256;9142;28375859200;69659803709;1262094251;259623812;9674660103;97587963;1384888741;1408;2597;1521576;-19;9141;1039556
3;67;1573812092256;1573812101731;9475;28362253898;69659725549;1255153040;258114704;9674600236;97656118;1379549535;1168;2230;1419656;54;9475;1218355
3;68;1573812101731;1573812113153;11422;28348331192;69659834478;1238524641;261136754;9674670300;97588288;1374562900;1382;3374;1872264;-124;11423;1223162
3;69;1573812113153;1573812122764;9611;28469895756;69659707629;1262046847;264535962;9674606262;97582645;1383346759;1789;2340;1576800;156;9610;378168
3;70;1573812122764;1573812131800;9036;28422003084;69659951025;1256358585;263958684;9674716376;97523758;1380545096;1240;2237;1297736;-40;9037;1118737
3;71;1573812131800;1573812141077;9277;28405328424;69659686702;1266311214;258762957;9674584311;97532061;1382476975;1092;2161;1632600;-79;9277;1222504
4;22;1573812486104;1573812495445;9341;28482661704;69802354692;1220878346;270491479;9866494481;97102698;1353947812;1058;2721;1539568;-8;9341;1335611
4;23;1573812495445;1573812505271;9826;28557877400;69802201827;1242582989;273402200;9866555438;97247463;1358861581;1204;3078;1774960;-94;9825;898982
4;24;1573812505271;1573812514933;9662;28487000386;69802585134;1235505801;268234377;9866740714;97098352;1357207378;1835;2356;1403624;104;9663;1046169
4;25;1573812514933;1573812523965;9032;28428468256;69802522843;1226125807;265845259;9866725354;97012765;1356547906;1354;2402;1311792;14;9031;1444344
4;26;1573812523965;1573812533476;9511;28560706150;69803175682;1249872263;273117078;9866965956;97236588;1361333703;1130;2870;1716040;-32;9512;1344485
4;27;1573812533477;1573812543550;10073;28510255558;69801844232;1228354328;269974124;9866396728;97164051;1355736619;1601;2183;1688368;-81;10074;505915
4;28;1573812543550;1573812553344;9794;28474576370;69800233181;1241663059;268044170;9865974881;97122051;1359361844;2014;2171;1442800;41;9794;455723
4;29;1573812553344;1573812563032;9688;28613972060;69803130818;1256654406;275702103;9867000487;97240629;1360350358;1086;2584;1401104;62;9687;1291379
4;30;1573812563032;1573812573704;10672;28553245404;69801770971;1242966301;273694483;9866469361;97079289;1357799697;1603;2349;1815680;-113;10672;771102
4;31;1573812573704;1573812583566;9862;28564923360;69802315505;1251658362;274714664;9866695868;97216305;1357992721;2217;2099;1510288;118;9863;633276
4;32;1573812583566;1573812592392;8826;28492578316;69800577875;1244701034;269520943;9866040512;97028668;1355953739;1044;2083;1278088;0;8826;1254819
4;33;1573812592392;1573812601814;9422;28585803842;69801378495;1268318963;273680905;9866364252;97103827;1364643194;1124;2684;1686520;-68;9422;1222808
4;34;1573812601814;1573812611526;9712;28483865766;69772385033;1232074389;272437012;9857010558;97109514;1355150008;1577;2437;1675072;-44;9712;431488
4;35;1573812611526;1573812621500;9974;28486131978;69727854711;1249037993;267410652;9842743731;97048612;1362058684;1560;2504;1367496;99;9973;1046351
4;36;1573812621500;1573812632790;11290;28457454804;69728145584;1221243743;271313858;9842884778;97166122;1352345646;1313;3244;1931000;-7;11291;1589476
4;37;1573812632790;1573812642734;9944;28513597206;69712329598;1254294670;270065342;9837828738;97147077;1357429563;1286;2833;1777616;-101;9944;752142
4;38;1573812642734;1573812651630;8896;28358327374;69697370515;1218616257;261224118;9836508068;96956537;1351209691;1554;2138;1280976;115;8896;1154060
4;39;1573812651630;1573812662806;11176;28482334518;69696009503;1239978105;267185590;9836271418;97029997;1359497071;1513;2555;1793488;-106;11176;1253820
4;40;1573812662806;1573812672425;9619;28417500006;69695584760;1223888259;265442156;9836136024;97047346;1356212636;1598;2232;1608872;-5;9618;329881
4;41;1573812672425;1573812681658;9233;28398836096;69696563357;1217301288;263105502;9836453902;96915655;1354813578;1710;2089;1343056;100;9233;928003
4;42;1573812681658;1573812690631;8973;28471254578;69696623570;1244535206;265152020;9836494012;96902493;1361416994;1013;2268;1344056;11;8974;1285635
4;43;1573812690631;1573812700049;9418;28306556796;69646140961;1209617056;255319163;9819643808;96980362;1353031496;1140;2914;1711960;-30;9417;1310805
4;44;1573812700049;1573812710542;10493;28446534150;69628910012;1227662993;264189929;9813967730;97127509;1355403288;1694;2722;1700944;-20;10493;800559
4;45;1573812710542;1573812720257;9715;28445928980;69628703374;1226877557;260654808;9813926895;96985388;1357691144;1087;2396;1411680;65;9715;1315728
4;46;1573812720257;1573812729423;9166;28430591680;69628906930;1234534682;260762470;9814037954;96975380;1359257007;1112;2701;1662800;-40;9166;1265967
4;47;1573812729423;1573812739233;9810;28408105344;69628766043;1230213076;258950890;9813973195;96932803;1356842186;1524;2972;1657368;-26;9811;772492
4;48;1573812739233;1573812748516;9283;28415234816;69629061052;1220573859;258591204;9814107971;96908645;1361453919;1141;2208;1374992;56;9282;1268964
4;49;1573812748516;1573812758131;9615;28387080176;69628665942;1219679770;259324033;9813912554;97028580;1356284571;1114;2680;1597392;-33;9616;1312885
4;50;1573812758131;1573812768001;9870;28490959760;69628753327;1245207742;264369235;9813965831;97036091;1363525560;1293;2722;1752272;-75;9870;703427
4;51;1573812768001;1573812777417;9416;28296336212;69629082781;1211248857;253970661;9814103286;96960452;1351365233;1485;2406;1368848;67;9416;779089
4;52;1573812777418;1573812786605;9187;28485581412;69628238381;1235697516;262461226;9813763851;96935639;1360702725;1055;2467;1499112;22;9188;1279410
4;53;1573812786605;1573812796285;9680;28414763528;69628651739;1214637873;261375084;9813957796;96929226;1352344896;1161;2642;1760136;-89;9679;837267
4;54;1573812796285;1573812805509;9224;28407097360;69628561594;1241777877;256954948;9813920358;96964138;1361255488;1781;2311;1398272;94;9225;663006
4;55;1573812805509;1573812814449;8940;28376022282;69628299974;1220361023;256469770;9813795187;96955662;1356112972;1017;2283;1265936;-1;8940;1281257
4;56;1573812814449;1573812823000;8551;28295834702;69628613014;1207659413;253419716;9813946087;96833125;1353373733;1017;2531;1534752;-55;8550;1051121
4;57;1573812823000;1573812833116;10116;28578168188;69628756900;1256545745;267927878;9814041985;97087701;1364784110;1557;3104;1649712;162;10117;695680
4;58;1573812833116;1573812842633;9517;28382533590;69628741120;1226478109;258558117;9814023066;96991152;1354976739;1691;1566;1068016;-98;9517;1455921
4;59;1573812842633;1573812852375;9742;28507465936;69628323204;1258047080;263084898;9813821471;97090361;1359775969;1087;3073;1478544;1;9742;1398505
4;60;1573812852375;1573812865258;12883;28355091868;69628588061;1214148316;256236894;9813931318;96935639;1353306976;1886;3935;2183096;-28;12882;1501977
4;61;1573812865258;1573812874772;9514;28406948586;69628217140;1232507519;258581763;9813735928;96998898;1359460216;1170;2185;1371688;25;9515;1269096
4;62;1573812874772;1573812883965;9193;28378803582;69628244488;1232939776;256723163;9813765480;96984546;1356133611;1153;2739;1582024;-33;9192;1281323
4;63;1573812883965;1573812893410;9445;28431843484;69628168862;1222101363;260524838;9813726752;96966152;1355802870;1172;2614;1719304;-70;9446;575059
4;64;1573812893410;1573812902993;9583;28456885550;69628487823;1239737809;260565835;9813886522;96986454;1360399404;1656;2423;1379808;104;9582;1142994
4;65;1573812902993;1573812914043;11050;28286382370;69628477444;1211242624;254232396;9813879581;97012123;1352472469;1697;2118;1691168;-107;11051;818289
4;66;1573812914043;1573812924013;9970;28520949328;69628535919;1238263554;269207022;9813920076;97054171;1360703302;1779;2301;1680128;15;9970;384863
4;67;1573812924013;1573812933454;9441;28392141850;69628536743;1219854423;259675316;9813900976;97029237;1352347624;1565;2287;1464248;100;9440;836248
4;68;1573812933454;1573812942557;9103;28436179538;69628540672;1222482149;261220452;9813899524;96977626;1359469211;1068;2195;1428480;-18;9103;1305087
4;69;1573812942557;1573812951872;9315;28397484282;69628377325;1221624687;259465012;9813833775;96960781;1356246783;1176;2708;1702216;-96;9315;828589
4;70;1573812951872;1573812961218;9346;28332814896;69628344436;1214553109;256159327;9813801802;96936096;1356736586;1973;2080;1395744;84;9347;497833
4;71;1573812961218;1573812970448;9230;28349000894;69628494634;1231693277;256130812;9813890286;96973306;1357809014;1098;2189;1320232;26;9230;1188581
