0;20;1572594478975;1572594488497;9522;28805509606;69943865695;1238292180;303150352;9774849958;96790473;1359544434;621;46;919528;0;2629;15772
0;21;1572594488497;1572594498796;10299;28776962664;69943786789;1228068630;304899307;9774833679;96827971;1351666435;508;0;974888;0;2477;4537
0;22;1572594498796;1572594508833;10037;28834343146;69942980492;1243814759;305205903;9774451410;96825717;1357668598;682;44;1034896;0;2879;18246
0;23;1572594508833;1572594518944;10111;28777440376;69943206036;1229607226;304785435;9774592225;96816043;1353723416;514;0;998264;0;2555;4643
0;24;1572594518944;1572594528469;9525;28830545832;69941661649;1244813119;307042888;9774104303;96766463;1357046178;476;1;915792;0;2177;3932
0;25;1572594528469;1572594538397;9928;28786827738;69943291081;1225669413;305929840;9774687904;96794185;1354053599;683;40;990472;0;2787;23353
0;26;1572594538398;1572594548675;10277;28840988774;69943922843;1230143431;307798431;9774889408;96822072;1352847660;547;0;1062768;0;2827;5071
0;27;1572594548675;1572594559295;10620;28912785588;69942635900;1256163731;310872771;9774439381;96843872;1361945516;547;1;1053680;2;3100;6398
0;28;1572594559296;1572594569192;9896;28745562006;69944068080;1224043657;301873301;9775019942;96832383;1350970208;688;38;993376;-2;2785;25051
0;29;1572594569192;1572594579036;9844;28824025618;69942423351;1240174852;306047803;9774341262;96836467;1360119858;508;0;986536;0;2583;4614
0;30;1572594579036;1572594589328;10292;28779341880;69942183478;1223010805;306602993;9774369007;96791594;1352596460;543;0;1039416;3;2681;5057
0;31;1572594589328;1572594599631;10303;28777280652;69942825445;1237425608;304518942;9774581916;96812234;1358321484;707;47;1036136;-1;2810;24458
0;32;1572594599631;1572594609758;10127;28792788334;69941685715;1232246662;306954510;9774207154;96801249;1355457818;536;0;1040848;-1;2666;4777
0;33;1572594609758;1572594619534;9776;28779623368;69941589368;1234930934;304534393;9774159236;96788420;1353304933;525;0;1005984;-1;2411;4398
0;34;1572594619534;1572594629767;10233;28830242152;69913452923;1242609295;308973251;9765125235;96782388;1359595515;680;48;1054656;0;2834;13141
0;35;1572594629768;1572594639714;9946;28721283812;69869269496;1222118350;300248306;9750982689;96713965;1350653140;540;0;1049272;1;2764;4944
0;36;1572594639714;1572594651426;11712;28789924106;69868261832;1225773871;307992569;9750588724;96784454;1352579291;612;0;1176040;-1;2808;5038
0;37;1572594651426;1572594661079;9653;28803221786;69857067245;1225572090;305854161;9750171086;96668935;1355107978;700;33;995696;0;2931;32835
0;38;1572594661079;1572594672067;10988;28780376728;69838923057;1231438257;304500771;9744946585;96741317;1357123330;562;0;1092088;0;2860;5129
0;39;1572594672068;1572594682893;10825;28757517946;69837158843;1229430379;302139199;9744456832;96720896;1354683525;603;1;1156680;0;2788;5044
0;40;1572594682894;1572594693697;10803;28830462466;69837112438;1238994318;307846144;9744439028;96697840;1359314521;787;33;1192016;2;3362;23062
0;41;1572594693697;1572594703886;10189;28731450376;69837477438;1223394295;301063514;9744550137;96706971;1355256752;533;0;1030888;-2;2633;4710
0;42;1572594703886;1572594714172;10286;28807297522;69836933325;1237513703;306655012;9744351783;96685896;1362349349;519;0;992480;0;2423;4524
0;43;1572594714172;1572594724374;10202;28653038594;69786793341;1218908811;295049239;9727664595;96702677;1351466751;692;34;1033128;3;2915;16339
0;44;1572594724374;1572594734483;10109;28690098066;69769637972;1232199046;294839503;9721860004;96661058;1358857380;527;0;1019720;-3;2603;4652
0;45;1572594734483;1572594744460;9977;28661911890;69769505060;1215461391;295831884;9721910619;96707268;1350467730;494;0;944664;0;2243;4120
0;46;1572594744460;1572594754424;9964;28631204440;69769494081;1219784977;294728369;9721917580;96676174;1357269801;672;34;967200;0;2675;17851
0;47;1572594754424;1572594764127;9703;28706141714;69769349128;1218013161;296736471;9721847942;96668372;1353879363;493;0;956752;0;2406;4377
0;48;1572594764127;1572594774866;10739;28725224790;69769399697;1217611398;298382311;9721858636;96698034;1354493849;592;1;1133224;0;2765;4934
0;49;1572594774866;1572594784870;10004;28740858032;69769672957;1232578972;299503023;9722015746;96711935;1358808808;695;46;1072368;0;2859;12423
0;50;1572594784870;1572594794931;10061;28652299396;69769730969;1211429020;293651279;9722031561;96657749;1351844307;546;0;1056904;0;2656;4779
0;51;1572594794932;1572594805515;10583;28720897204;69769549880;1229710082;299233557;9721907072;96702152;1356092288;580;0;1109768;0;2630;4819
0;52;1572594805515;1572594815666;10151;28642125094;69769483336;1218855929;294654234;9721953737;96665553;1351411306;1114;66;1093808;2;5741;46029
0;53;1572594815666;1572594825085;9419;28721624722;69769220428;1234915984;294389054;9721818273;96629716;1358298556;496;3;954976;-2;2483;4426
0;54;1572594825086;1572594835419;10333;28735881622;69769232742;1224924223;298758486;9721832488;96668915;1356511250;556;2;1051120;3;2461;4605
0;55;1572594835419;1572594845867;10448;28669844070;69769362872;1219498273;298549836;9721896855;96697570;1353276656;762;52;1062296;-3;3076;15787
0;56;1572594845867;1572594856018;10151;28768128350;69769638791;1235640875;299406786;9722042552;96649392;1359707295;552;2;1051040;0;2757;5007
0;57;1572594856018;1572594865474;9456;28573430780;69769340546;1211577564;289389271;9721886402;96644389;1351492186;508;5;939848;0;2371;4614
0;58;1572594865474;1572594876033;10559;28795596352;69769242975;1233236967;299975745;9721799184;96626641;1359493696;748;48;1113880;0;3107;18334
0;59;1572594876033;1572594885949;9916;28730832358;69769092265;1216918679;298624878;9721805070;96680009;1353598359;513;5;980672;0;2524;4625
0;60;1572594885949;1572594895896;9947;28720320650;69768893036;1225671608;294997225;9721699348;96648546;1357408853;534;0;1004208;0;2328;4299
0;61;1572594895896;1572594906083;10187;28757279382;69768994806;1227392273;296372814;9721756161;96663022;1356771868;771;47;1151976;0;3099;24894
0;62;1572594906083;1572594916559;10476;28705299732;69768988240;1222840132;298680194;9721753011;96662782;1353759426;547;4;1039312;0;2737;4924
0;63;1572594916560;1572594926303;9743;28785019528;69769523986;1237426322;302245449;9722035894;96635652;1359768624;499;6;945112;0;2310;4315
0;64;1572594926303;1572594936083;9780;28645266722;69769435716;1218303096;292240963;9721974577;96699556;1350622871;683;33;957520;64;2649;28770
0;65;1572594936083;1572594945920;9837;28676119588;69769097792;1239376905;293806837;9721809092;96669591;1359982413;575;5;988632;-63;2873;10617
0;66;1572594945920;1572594956239;10319;28661555212;69769350877;1219559527;295917532;9721938794;96681517;1351844632;571;2;1062880;0;2567;4749
0;67;1572594956239;1572594966376;10137;28745696618;69769141639;1236125493;298294644;9721820552;96663381;1357376859;565;2;1051240;4;2572;4819
0;68;1572594966377;1572594977018;10641;28685661564;69769263973;1220567705;297459732;9721902292;96679270;1354805393;816;43;1145856;-5;3519;30966
0;69;1572594977018;1572594987341;10323;28667533912;69769055942;1224040135;296621922;9721791345;96699673;1353542338;550;4;1021824;0;2447;4552
1;20;1572595343985;1572595353900;9915;28846934624;69869878318;1231934046;310691056;9727613735;97059917;1357727998;706;34;999672;0;3174;27987
1;21;1572595353901;1572595364650;10749;28959508654;69871092560;1244476724;314917317;9728036432;97078948;1360394139;554;0;1068696;0;2583;4654
1;22;1572595364650;1572595375107;10457;28799238030;69871003198;1227777073;304574639;9728051826;97091666;1355190913;583;0;1121912;0;2624;4847
1;23;1572595375107;1572595384810;9703;28789478952;69869982160;1239528448;303231694;9727780579;97054730;1355608074;698;40;982944;0;3107;33390
1;24;1572595384810;1572595394990;10180;28753236788;69868437826;1219349915;302237556;9727259645;97043823;1355044149;712;50;1051272;0;3190;34134
1;25;1572595394990;1572595405379;10389;28721571724;69868831841;1219742074;303300625;9727402992;97081255;1350175415;517;0;993360;3;2537;4703
1;26;1572595405379;1572595415641;10262;28830372238;69868697999;1223020398;307270680;9727312438;96994700;1356937034;534;0;1037544;-2;2465;4469
1;27;1572595415641;1572595425647;10006;28800443260;69868870804;1237771198;305158925;9727356897;97052075;1356559020;692;34;1006632;0;2849;18784
1;28;1572595425647;1572595435723;10076;28764295120;69869276190;1221175548;304450593;9727558276;97035960;1353787721;507;1;974856;0;2486;4465
1;29;1572595435723;1572595446216;10493;28898424882;69867202573;1241894567;311915194;9726827759;97061934;1360765034;560;0;1087992;-1;2538;4675
1;30;1572595446216;1572595455823;9607;28728550670;69867181811;1222987394;301311543;9726860599;97014416;1354004526;638;48;943880;2;2698;16913
1;31;1572595455823;1572595466279;10456;28732231622;69867675690;1214964557;304323206;9727063760;97075940;1348833301;526;0;1019192;-2;2543;4503
1;32;1572595466282;1572595476128;9846;28843262870;69867510732;1232754674;308816410;9727006316;97014312;1356303518;515;0;992432;0;2419;4418
1;33;1572595476128;1572595485723;9595;28805312360;69868183366;1238538489;306518918;9727257505;96990485;1354730158;634;38;975192;0;2561;11391
1;34;1572595485724;1572595495952;10228;28767983226;69839572058;1223338223;305826634;9718072508;96976718;1355348423;524;0;1016320;0;2608;4698
1;35;1572595495952;1572595506583;10631;28851417992;69795480600;1226800051;308298649;9703864483;96968250;1356054665;633;0;1221584;0;2889;5231
1;36;1572595506583;1572595517693;11110;28795192224;69794462661;1225649599;306193031;9703519193;96997588;1355047400;765;50;1164384;0;3192;16932
1;37;1572595517693;1572595528362;10669;28699670264;69792835039;1211377446;303322866;9703241779;96946522;1348673877;561;0;1080408;0;2716;4877
1;38;1572595528362;1572595537812;9450;28751628744;69792339923;1227770033;298525568;9703010583;96933714;1356454794;508;0;986536;0;2451;4505
1;39;1572595537812;1572595547963;10151;28794632022;69792596443;1225832531;305158781;9703160137;96947277;1356246001;681;42;1050496;1;2892;13368
1;40;1572595547963;1572595558426;10463;28825949022;69793097390;1229080704;306528403;9703349549;96858795;1357059551;539;0;1046944;-1;2571;4624
1;41;1572595558426;1572595568763;10337;28700789646;69793218232;1225060676;298763398;9703400479;96910750;1356155919;537;0;1033472;0;2574;4744
1;42;1572595568763;1572595578481;9718;28706297350;69791905510;1221614654;298594120;9702905865;96929668;1354405911;652;52;980568;1;2860;18047
1;43;1572595578481;1572595588218;9737;28636324222;69740905866;1206650100;294875564;9685946170;96913215;1349857256;499;0;964848;-1;2531;4508
1;44;1572595588219;1572595598197;9978;28649693150;69724384748;1217355501;294329733;9680506781;96938816;1356910441;509;0;980696;0;2353;4247
1;45;1572595598197;1572595608208;10011;28764526092;69724717023;1225113941;302560917;9680662857;96894141;1356894795;679;35;999752;3;2830;17914
1;46;1572595608209;1572595617773;9564;28669488414;69724393428;1212167326;295048538;9680496822;96890216;1354996295;509;0;986080;-3;2530;4468
1;47;1572595617773;1572595628095;10322;28740870296;69724458352;1233840012;299877577;9680533109;96900416;1360776045;539;0;1037584;1;2532;4644
1;48;1572595628095;1572595638283;10188;28757419250;69724424688;1227784032;302814861;9680513573;96907440;1357254698;693;42;995640;-1;2806;22122
1;49;1572595638283;1572595648784;10501;28741738266;69724212275;1203562151;302272338;9680423973;96878720;1352043002;585;0;1133136;0;2941;5193
1;50;1572595648784;1572595659444;10660;28776434728;69710407494;1234906170;300668002;9675860866;96912880;1359832893;574;0;1103840;0;2650;4802
1;51;1572595659444;1572595669184;9740;28651423834;69706894750;1211363026;294786769;9674728673;96846637;1351692529;658;57;934120;1;2552;18938
1;52;1572595669184;1572595679337;10153;28681827166;69707138176;1213793360;296202903;9674839069;96879444;1352313669;515;1;994168;-1;2618;4741
1;53;1572595679337;1572595689363;10026;28754540714;69707271997;1235248782;298578872;9674908918;96889453;1361711311;504;2;968968;0;2282;4271
1;54;1572595689363;1572595699179;9816;28728359264;69706966994;1232396428;295978468;9674756111;96862073;1357390911;680;29;976584;0;2694;15452
1;55;1572595699179;1572595709153;9974;28712418108;69707377132;1225598788;295928347;9674960864;96898811;1356682149;524;2;1009992;0;2647;4727
1;56;1572595709153;1572595719370;10217;28691320378;69706833946;1217522682;297729327;9674672754;96888848;1355780278;521;2;998304;0;2387;4353
1;57;1572595719370;1572595729409;10039;28734206272;69707329562;1219390685;299694882;9674963099;96891629;1354397726;692;53;987824;14;2692;22330
1;58;1572595729409;1572595739673;10264;28649887622;69706987501;1218600738;295782357;9674843013;96933412;1353000592;1044;27;1080024;-14;6078;28574
1;59;1572595739673;1572595749946;10273;28708177976;69707070721;1231603035;296610316;9674880986;96879066;1359154592;551;4;1039352;0;2695;5116
1;60;1572595749946;1572595760242;10296;28667327176;69706710201;1209529010;296900784;9674692943;96885551;1353721586;553;2;1039384;0;2780;5728
1;61;1572595760242;1572595770049;9807;28628255970;69706829366;1199081447;292477048;9674754410;96895715;1348804816;713;53;1031424;0;2999;26084
1;62;1572595770049;1572595779976;9927;28724283528;69706963317;1226004788;298382912;9674809125;96885849;1356142065;604;2;987344;3;2647;8252
1;63;1572595779976;1572595790089;10113;28727116658;69707010939;1239305756;295591009;9674827957;96899975;1359634605;553;0;1033536;0;2508;4645
1;64;1572595790089;1572595800144;10055;28785702078;69706696111;1228870812;301793228;9674714748;96837616;1358061046;698;52;1052616;-3;2907;12238
1;65;1572595800144;1572595810905;10761;28713513546;69706473969;1223139784;296840770;9674682553;96886531;1356895673;615;1;1156160;0;2844;5212
1;66;1572595810905;1572595821396;10491;28686998778;69706367562;1218440774;294091570;9674632531;96897160;1355163422;607;9;1133216;0;2693;5034
1;67;1572595821396;1572595831746;10350;28657595984;69706571434;1208106254;295696283;9674738376;96910486;1348053875;727;61;1134640;0;3177;14130
1;68;1572595831746;1572595841951;10205;28686510992;69706619372;1214191253;294964529;9674747920;96883747;1356334215;565;6;1056936;0;2544;4732
1;69;1572595841951;1572595852122;10171;28675975924;69706579330;1229851049;293477743;9674745123;96887866;1356995203;589;7;1092160;0;2557;4769
2;19;1572596193182;1572596203529;10347;28731521478;69899721393;1238838231;303035307;9751472640;96725032;1372379482;677;44;1029096;0;2865;14627
2;20;1572596203530;1572596213947;10417;28808801760;69899012036;1255419311;305414183;9751252827;96733053;1383161043;535;0;1039312;3;2684;4841
2;21;1572596213947;1572596223982;10035;28821519382;69899974616;1264040000;309328064;9751617414;96704874;1383769759;476;0;916240;-3;2260;4104
2;22;1572596223983;1572596234220;10237;28784186744;69899844678;1249806591;307127400;9751506231;96704645;1380383457;677;48;1046360;0;2834;14169
2;23;1572596234220;1572596244372;10152;28845244966;69898129648;1272370393;309217576;9750992673;96735077;1385301286;516;0;992560;0;2697;4901
2;24;1572596244372;1572596254217;9845;28783585078;69898887347;1262558409;307657664;9751277715;96706563;1380550155;628;44;917704;0;2620;21205
2;25;1572596254217;1572596264234;10017;28783707134;69897741049;1254193688;309552446;9750870264;96707805;1377873792;498;0;958936;1;2322;4268
2;26;1572596264234;1572596274522;10288;28875684068;69897887577;1266100335;312396754;9750904889;96728500;1385561099;540;0;1048480;-1;2594;4780
2;27;1572596274523;1572596284885;10362;28787917336;69898592724;1246929954;309296251;9751224390;96673460;1377809527;698;48;1047304;3;2972;17171
2;28;1572596284886;1572596294765;9879;28792556340;69898457817;1257690681;308547781;9751130125;96748375;1381069548;480;0;922072;-3;2326;4231
2;29;1572596294765;1572596304652;9887;28807101006;69898037649;1272694673;307379227;9751026803;96658793;1386731048;475;0;922032;0;2216;4033
2;30;1572596304652;1572596314936;10284;28809459198;69898133874;1260265539;309417411;9751037720;96689384;1381561295;682;56;1041120;0;2975;18724
2;31;1572596314936;1572596324488;9552;28802280962;69896809426;1252268522;307522715;9750686700;96631538;1381718588;463;0;898576;0;2295;4190
2;32;1572596324488;1572596334204;9716;28788989560;69896169379;1246431465;307550073;9750380760;96684826;1380549538;489;0;939672;1;2344;4329
2;33;1572596334204;1572596344520;10316;28724656120;69896732885;1243381675;304668076;9750593210;96670863;1377048532;657;62;1060440;-1;2908;11845
2;34;1572596344520;1572596354397;9877;28750016612;69867952741;1248181315;306504124;9741375288;96663716;1377510898;526;0;1021720;0;2625;4671
2;35;1572596354397;1572596364729;10332;28832529534;69824001773;1268106753;312569218;9727250302;96613285;1386687180;528;0;1015896;0;2523;4600
2;36;1572596364729;1572596375812;11083;28853333366;69823911987;1252467725;315171892;9727183704;96642201;1382509449;683;58;1113656;2;3153;11453
2;37;1572596375813;1572596385855;10042;28733524160;69822371447;1259077814;304618053;9726866812;96625160;1382061545;495;0;960520;-2;2746;5324
2;38;1572596385856;1572596395870;10014;28744505112;69821874223;1248163777;304084417;9726648242;96584024;1380812326;537;0;1033488;0;2691;5392
2;39;1572596395871;1572596405591;9720;28786565668;69823215403;1248452758;307927354;9727158877;96580890;1379187113;607;52;968536;1;2750;9908
2;40;1572596405591;1572596416115;10524;28827598092;69821629851;1258874359;310524545;9726603336;96606601;1383245230;567;0;1097952;0;2721;4848
2;41;1572596416115;1572596425913;9798;28712617690;69822185533;1244227374;302728263;9726799183;96576294;1379895064;523;0;1005472;-1;2430;4540
2;42;1572596425913;1572596436329;10416;28730549556;69821745040;1240593193;306424270;9726635704;96606008;1378350257;696;47;1093456;3;3006;12225
2;43;1572596436329;1572596446581;10252;28734061002;69773715012;1239036748;304864262;9710687264;96619276;1377738401;494;2;955448;-2;2515;4423
2;44;1572596446581;1572596456986;10405;28707657924;69754287339;1238247051;301375459;9704372905;96606007;1375355823;541;2;1038896;0;2484;4585
2;45;1572596456986;1572596467398;10412;28730886670;69753780580;1242730684;303634648;9704170491;96576636;1380398362;700;49;1079920;1;2922;12884
2;46;1572596467398;1572596478102;10704;28730574814;69753859069;1247948307;304490003;9704199693;96599288;1379709830;595;1;1142560;-2;2824;5266
2;47;1572596478102;1572596487772;9670;28666466798;69753850519;1248569071;295152078;9704195186;96573952;1382030397;521;2;992440;0;2429;4428
2;48;1572596487772;1572596497954;10182;28703285662;69754142543;1254079488;300555070;9704330963;96569580;1381499097;668;42;1029512;0;2835;11841
2;49;1572596497954;1572596508322;10368;28702265268;69753778454;1237405582;302886099;9704181989;96583209;1378944055;530;1;1021720;0;2550;4547
2;50;1572596508322;1572596518594;10272;28640874896;69739763896;1224850722;297119602;9699530500;96612981;1373095681;555;1;1056944;0;2519;4741
2;51;1572596518594;1572596527769;9175;28623534038;69736337122;1234112454;292829665;9698410922;96511871;1380708310;630;37;929184;0;2476;12564
2;52;1572596527769;1572596537293;9524;28670039710;69736493659;1238478853;298295575;9698490992;96553932;1380135567;480;2;926128;1;2398;4274
2;53;1572596537293;1572596546941;9648;28695156528;69736484554;1237065881;299790311;9698480362;96560530;1378807162;534;4;1017656;-1;2390;4422
2;54;1572596546941;1572596557395;10454;28677106256;69736388567;1241118673;297533696;9698433933;96601841;1381005367;729;49;1099640;0;2983;16881
2;55;1572596557395;1572596567745;10350;28667728384;69736236876;1233463319;299327545;9698352037;96572828;1378953436;1117;49;1165208;0;6382;35760
2;56;1572596567745;1572596577795;10050;28666633822;69736351290;1226267752;301373841;9698405181;96559572;1373031315;524;3;997832;0;2385;4400
2;57;1572596577795;1572596588290;10495;28729382432;69736947794;1252577751;300049697;9698650940;96538234;1381489699;570;5;1084080;1;2543;4723
2;58;1572596588290;1572596598613;10323;28725581176;69736196462;1257718388;301600791;9698411344;96585410;1383643345;725;65;1046264;2;3065;22414
2;59;1572596598614;1572596609748;11134;28708971486;69736028047;1244887335;300583910;9698329157;96590285;1382739305;735;4;1245352;-3;3265;8100
2;60;1572596609748;1572596620342;10594;28730416112;69736320324;1251490593;300799361;9698483529;96586738;1382497824;602;3;1131440;1;2741;5104
2;61;1572596620343;1572596630873;10530;28648963734;69736320843;1230809338;297702528;9698477170;96570464;1379295608;732;52;1078728;-1;3225;21586
2;62;1572596630873;1572596641350;10477;28684286390;69735978114;1234250408;298371154;9698300675;96601855;1377366371;587;6;1109728;0;2857;5398
2;63;1572596641350;1572596651836;10486;28759132122;69736130296;1255027459;301635894;9698369004;96574791;1384712821;578;6;1090384;1;2554;4759
2;64;1572596651836;1572596661900;10064;28708830888;69736165854;1237306795;300320357;9698430588;96562533;1375794868;746;43;1034144;0;3212;41385
2;65;1572596661900;1572596672000;10100;28667508362;69735797148;1234641816;297559840;9698286381;96555022;1377405809;570;9;1070456;-1;2583;4685
2;66;1572596672000;1572596681677;9677;28759878474;69735943476;1256329216;300682839;9698360764;96558256;1386769269;505;6;951416;0;2330;4374
2;67;1572596681677;1572596692026;10349;28681644374;69735777773;1249954555;296897526;9698275742;96544088;1381707405;751;48;1084424;0;3203;20512
2;68;1572596692026;1572596702354;10328;28689511876;69735962158;1248587049;299172057;9698364656;96542265;1379499902;559;0;1033488;0;2526;4649
3;20;1572597057140;1572597066839;9699;28882632792;69902262501;1269714428;311287599;9772827449;97443333;1384185828;600;40;922160;0;2593;11682
3;21;1572597066839;1572597076807;9968;28823100708;69902980578;1259200420;305563406;9773105369;97426973;1375380114;509;0;980744;0;2530;4722
3;22;1572597076807;1572597086897;10090;28806951794;69904176706;1252138733;306594121;9773470856;97434167;1378030145;493;0;957216;0;2319;4372
3;23;1572597086897;1572597097226;10329;28803401804;69902407267;1262446685;306189381;9772945131;97433420;1379625708;658;57;1045888;0;2955;12564
3;24;1572597097226;1572597107270;10044;28796977512;69901759793;1250859784;308383481;9772715485;97463244;1377002871;603;60;988392;0;2772;8835
3;25;1572597107270;1572597117002;9732;28783939712;69902062215;1247491636;305349288;9772844205;97460359;1372932535;502;0;974808;0;2534;4616
3;26;1572597117002;1572597127418;10416;28898336114;69901439612;1263900661;309879268;9772583706;97450251;1379401201;580;0;1115600;0;2695;4904
3;27;1572597127418;1572597137788;10370;28834056256;69902822922;1265982630;307490967;9773079544;97440772;1378528814;662;54;1105592;0;2932;11453
3;28;1572597137789;1572597148014;10225;28838188494;69902737272;1261543494;306579567;9773091932;97392443;1379113677;570;0;1109216;0;2933;5202
3;29;1572597148015;1572597158716;10701;28860235224;69902581606;1266971613;311571740;9773016621;97475575;1379647347;557;0;1074080;0;2663;4886
3;30;1572597158716;1572597169454;10738;28820905306;69902855702;1257034906;308586637;9773135008;97482988;1376506666;694;44;1093440;0;2821;11523
3;31;1572597169454;1572597179906;10452;28834076258;69901945866;1251476423;314152745;9772877029;97484340;1374261047;529;0;1027584;0;2739;4985
3;32;1572597179907;1572597190274;10367;28856000640;69901034221;1276575348;311383062;9772539587;97442330;1384238359;526;0;1012592;2;2404;4416
3;33;1572597190275;1572597200397;10122;28791735090;69901384362;1257876323;305446130;9772684615;97418984;1374556392;660;42;1028800;-2;2731;11759
3;34;1572597200397;1572597210573;10176;28802590774;69872693204;1260669532;305869760;9763445878;97388570;1375351946;532;0;1033448;3;2593;4658
3;35;1572597210573;1572597221059;10486;28853564192;69827948569;1276601599;308411080;9749074458;97376582;1384980236;571;0;1098008;-3;2651;4829
3;36;1572597221060;1572597231377;10317;28727075778;69784638982;1258471102;302106940;9734594207;97416039;1379488060;675;46;1058848;1;2863;12498
3;37;1572597231377;1572597241755;10378;28723292626;69758468631;1259257877;300350202;9726142602;97332634;1380395445;539;0;1046944;-1;2661;4755
3;38;1572597241755;1572597252073;10318;28747297654;69758243786;1249376195;300363640;9725999219;97344467;1379014804;576;0;1109720;0;2681;4872
3;39;1572597252073;1572597261952;9879;28691719688;69758422961;1244963483;300358348;9726167065;97325177;1377151607;648;56;999360;0;2682;10470
3;40;1572597261952;1572597272441;10489;28780461700;69758151848;1261103331;303040292;9726037533;97324783;1380782559;541;0;1051040;0;2772;4992
3;41;1572597272441;1572597282839;10398;28737779038;69758327457;1235493639;302867321;9726117105;97316875;1376812344;573;0;1103304;3;2659;4952
3;42;1572597282839;1572597293074;10235;28722125356;69758363331;1238883957;302610273;9726111785;97324303;1376526156;658;56;1040088;-3;2869;12758
3;43;1572597293074;1572597302974;9900;28763835074;69758283458;1253563757;304070547;9726059137;97315204;1379710906;509;0;984768;1;2531;4488
3;44;1572597302974;1572597312984;10010;28751693276;69747851691;1262556731;300309026;9726068707;97314798;1381577624;529;0;1011816;-1;2370;4332
3;45;1572597312984;1572597323021;10037;28699526600;69746595114;1262432180;299167465;9726112075;97354438;1378476963;646;56;1021616;1;2789;13064
3;46;1572597323022;1572597333085;10063;28756365714;69746544686;1263721287;301131034;9726094498;97361563;1381603275;533;0;1029352;-1;2679;4830
3;47;1572597333085;1572597343575;10490;28712819608;69746342125;1249671037;299245097;9726021284;97318652;1377114867;552;0;1055184;1;2634;4980
3;48;1572597343575;1572597353625;10050;28646266384;69746221860;1243425029;296748941;9725921899;97357994;1375637186;618;45;983720;-1;2715;12024
3;49;1572597353625;1572597364223;10598;28793818510;69746545930;1254625611;304357259;9726107522;97362210;1380297883;569;0;1097952;0;2833;5148
3;50;1572597364223;1572597374838;10615;28740797296;69732300223;1259882757;300000706;9721348450;97345036;1381304078;585;0;1121448;0;2725;5030
3;51;1572597374839;1572597384632;9793;28687416776;69728792619;1253617907;296452741;9720205123;97323996;1378469602;645;48;976480;0;2672;11729
3;52;1572597384632;1572597394329;9697;28808921188;69728958680;1259423753;302987066;9720300277;97295140;1380611341;501;0;973424;0;2478;4358
3;53;1572597394329;1572597404393;10064;28718210658;69729106414;1240044606;300194275;9720362116;97310294;1375852999;522;0;996544;1;2477;4573
3;54;1572597404393;1572597414172;9779;28679795576;69728693815;1249509690;292217913;9720148654;97317186;1376406799;790;56;985496;3;3366;23210
3;55;1572597414172;1572597424187;10015;28717039884;69728845184;1239577842;297962709;9720209727;97345965;1377106461;901;10;1044848;-4;5017;18789
3;56;1572597424187;1572597434507;10320;28693109316;69728945918;1241999408;297331954;9720272522;97302108;1372658387;525;0;992464;0;2505;4792
3;57;1572597434508;1572597444508;10000;28735130598;69728905781;1257684058;297919939;9720237434;97332149;1380906085;672;43;982968;0;2674;14732
3;58;1572597444509;1572597455648;11139;28802885548;69728820265;1268173269;304214467;9720256760;97356010;1382960429;613;2;1168320;0;3016;5480
3;59;1572597455648;1572597465935;10287;28683817000;69728918391;1253995322;293715968;9720294623;97357630;1377644779;642;5;1063600;0;2774;7112
3;60;1572597465935;1572597476174;10239;28771308376;69728597762;1255795133;300685285;9720156396;97322888;1381892160;745;51;1102424;0;3119;20357
3;61;1572597476174;1572597485251;9077;28651561658;69728424715;1241898093;294236571;9720052453;97285129;1377518241;430;2;814744;1;2238;4161
3;62;1572597485251;1572597494818;9567;28681301858;69728947844;1238000103;295692353;9720318997;97274924;1372400794;500;3;940520;-1;2270;4225
3;63;1572597494818;1572597504915;10097;28744724842;69728976647;1244667498;302077206;9720320129;97304275;1378507155;523;39;968280;158;2269;5293
3;64;1572597504915;1572597515391;10476;28841241500;69728693015;1264750695;304914266;9720233645;97289397;1384003288;758;1;1137384;-158;3387;22828
3;65;1572597515391;1572597525378;9987;28665146082;69728452690;1249580520;293538686;9720151537;97310490;1378104604;541;2;1004176;0;2390;4583
3;66;1572597525378;1572597535473;10095;28715465712;69728616317;1248824546;296237141;9720241293;97328116;1380189866;576;3;1080432;0;2599;4915
3;67;1572597535473;1572597545331;9858;28702623260;69728998469;1251080257;295165283;9720423691;97324999;1377986942;766;34;1023704;0;3215;38127
3;68;1572597545331;1572597555087;9756;28657831190;69728511720;1233968084;293920028;9720174922;97279564;1376176311;555;13;1033496;0;2457;4678
3;69;1572597555088;1572597565435;10347;28769008876;69728542802;1259257630;298885339;9720196441;97312390;1383983410;575;7;1078592;1;2609;4919
4;20;1572597927236;1572597937053;9817;28750530386;69759296566;1251757488;304154084;9727764652;96931923;1380742641;609;48;937328;0;2819;13060
4;21;1572597937053;1572597946795;9742;28831643314;69759591758;1265853716;308764059;9727818842;96959010;1379104762;469;0;904504;0;2208;4040
4;22;1572597946795;1572597956916;10121;28773867172;69760070482;1251670512;308182778;9727977547;96965164;1378859464;517;0;1004128;0;2346;4310
4;23;1572597956916;1572597967397;10481;28835115632;69757045946;1271906466;309777852;9726974940;96952291;1385179724;669;46;1064032;0;2911;11969
4;24;1572597967397;1572597977483;10086;28785683390;69757499898;1257213180;306503245;9727171822;96918637;1377513898;602;56;970160;3;2813;10410
4;25;1572597977483;1572597987424;9941;28719324638;69757933829;1250303311;303580703;9727363796;96899849;1372116032;506;0;983232;-1;2492;4497
4;26;1572597987424;1572597997645;10221;28780420528;69758371599;1261949221;306366889;9727481987;96961748;1381740459;507;0;972296;-2;2342;4261
4;27;1572597997645;1572598008039;10394;28842986784;69759281471;1268931694;309485241;9727737707;96929243;1382378916;643;52;1040440;0;2738;9740
4;28;1572598008039;1572598018183;10144;28761743186;69758474217;1248027620;307232527;9727501371;96931012;1377796454;520;0;1009992;0;2604;4743
4;29;1572598018183;1572598028918;10735;28825983770;69758172654;1260682039;310049706;9727425673;96949254;1379814757;568;0;1092136;0;2660;4920
4;30;1572598028918;1572598039753;10835;28840368858;69756189516;1252932661;312895863;9726792852;96930114;1377288857;683;46;1122800;3;3097;12230
4;31;1572598039753;1572598049623;9870;28774224726;69756826687;1248853350;308498171;9726997035;96855434;1371412645;482;0;939160;-3;2360;4286
4;32;1572598049623;1572598059049;9426;28743277836;69756600828;1251485678;304730726;9726914620;96917066;1381102256;481;0;918800;2;2219;4050
4;33;1572598059049;1572598068560;9511;28794226288;69757312358;1255198449;309286533;9727184326;96908333;1379010259;609;46;950184;-2;2544;9631
4;34;1572598068560;1572598078127;9567;28728213848;69728774867;1246480687;303793010;9718032662;96900000;1378339288;529;0;1027584;0;2596;4590
4;35;1572598078127;1572598088003;9876;28722385966;69684473536;1252616028;304881317;9703749570;96873708;1380698935;522;0;998336;0;2410;4459
4;36;1572598088003;1572598099262;11259;28728276044;69683111823;1246060149;305641469;9703283290;96928016;1378207435;692;42;1128728;0;3080;12555
4;37;1572598099266;1572598109588;10322;28699471558;69682201328;1236897349;304083288;9703167423;96845891;1371395046;511;0;992400;0;2611;4623
4;38;1572598109588;1572598119940;10352;28725085360;69682375544;1252713984;303411434;9703281870;96818520;1380401989;557;0;1068688;3;2623;4779
4;39;1572598119940;1572598130018;10078;28779500874;69683512346;1273968074;307169194;9703677470;96858256;1384277481;599;58;969456;-3;2579;9444
4;40;1572598130018;1572598140062;10044;28718033122;69683043979;1245362508;304994421;9703441125;96842275;1382310953;527;0;1026664;0;2591;4608
4;41;1572598140062;1572598150077;10015;28722603360;69683174554;1255034714;301692977;9703502022;96847726;1379890369;531;0;1015904;0;2480;4520
4;42;1572598150077;1572598160869;10792;28766691856;69681895950;1245718968;309680987;9703057947;96842817;1376888786;690;48;1083520;1;2851;11557
4;43;1572598160869;1572598171750;10881;28683893504;69633133631;1242038134;303314658;9686820607;96838393;1372033535;566;0;1095664;-1;2833;5029
4;44;1572598171750;1572598181585;9835;28684959304;69613615451;1249002972;298103805;9680400919;96807332;1378449591;521;0;992464;0;2393;4413
4;45;1572598181585;1572598191824;10239;28683142918;69614017655;1254466356;299020291;9680639923;96807077;1379284655;687;40;1058176;0;2772;10650
4;46;1572598191825;1572598202393;10568;28733624316;69614116167;1250582026;302549326;9680697704;96844745;1378334739;601;1;1162456;0;2923;5256
4;47;1572598202393;1572598212317;9924;28665361870;69614055281;1248874328;299503666;9680671259;96813939;1379569028;483;0;916232;3;2209;4110
4;48;1572598212318;1572598222418;10100;28637817802;69613904545;1251671853;297218355;9680583934;96799478;1378078444;675;36;1034656;-3;2778;13348
4;49;1572598222418;1572598232718;10300;28660904782;69613782998;1237498553;298949844;9680517259;96817890;1375604840;553;1;1068632;0;2742;4916
4;50;1572598232718;1572598243254;10536;28685001352;69599682157;1267558361;298857463;9675831185;96842214;1383972595;539;0;1027632;0;2487;4697
4;51;1572598243254;1572598252754;9500;28641735566;69596451070;1235953041;297359063;9674829239;96794659;1375352744;640;44;958656;0;2546;12463
4;52;1572598252754;1572598262664;9910;28589449462;69596416640;1235166119;294842602;9674823397;96792001;1378289454;484;0;933304;0;2414;4355
4;53;1572598262665;1572598273081;10416;28729783640;69596303304;1257988869;302479289;9674755037;96877124;1384683820;1094;57;1090064;0;5878;25829
4;54;1572598273081;1572598282661;9580;28715244960;69596289316;1252986425;300054238;9674748359;96762998;1380092806;486;0;932912;0;2424;4408
4;55;1572598282661;1572598292639;9978;28667489090;69596323594;1250642907;297525769;9674766639;96816123;1379950250;533;2;1021720;3;2400;4375
4;56;1572598292640;1572598302389;9749;28617157050;69596027043;1247961998;294618833;9674612862;96815076;1379054016;526;3;992472;-3;2382;4573
4;57;1572598302389;1572598312387;9998;28656920880;69596556814;1240567798;297174017;9674841898;96774588;1377782906;734;53;1000256;1;3317;14347
4;58;1572598312387;1572598322825;10438;28665168566;69596059927;1235486510;297885659;9674731118;96802829;1380353461;581;3;1111448;-1;2700;5022
4;59;1572598322825;1572598332515;9690;28654709710;69596102581;1244204140;294102673;9674755815;96796061;1378224038;543;4;1021784;0;2510;4774
4;60;1572598332515;1572598342407;9892;28611988942;69595919571;1233138341;295612364;9674665295;96789455;1373723939;698;49;1011952;0;3109;24029
4;61;1572598342407;1572598353275;10868;28748609464;69596092600;1247154123;303954792;9674749995;96792114;1382580650;585;1;1115544;0;2715;5003
4;62;1572598353275;1572598363159;9884;28678606844;69595980494;1253938014;298302223;9674681723;96797116;1381717599;511;8;969040;0;2407;4409
4;63;1572598363159;1572598372960;9801;28723846258;69596195846;1259838731;298743981;9674796214;96773005;1382023004;689;62;1020328;0;2923;14144
4;64;1572598372960;1572598383548;10588;28725650380;69595989302;1253989494;301667424;9674734680;96773549;1382798240;570;2;1074496;0;2532;4752
4;65;1572598383548;1572598393229;9681;28614158356;69595715841;1242682607;294149860;9674649645;96760355;1375989530;489;6;925248;1;2117;3967
4;66;1572598393229;1572598403443;10214;28618919562;69595760202;1220173540;297770264;9674669348;96762325;1371541314;719;49;1032040;-1;2994;22859
4;67;1572598403443;1572598413153;9710;28688415562;69595920574;1248784443;300631263;9674744882;96771688;1381943860;514;6;962696;2;2455;4593
4;68;1572598413153;1572598423105;9952;28633025936;69595909079;1246255682;295763687;9674751230;96783736;1381053115;535;3;998304;1;2447;4573
4;69;1572598423105;1572598433404;10299;28703869954;69595761834;1251054562;298273326;9674664531;96763134;1378661260;740;57;1128744;-3;3265;17807
