0;11;1572589469086;1572589479634;10548;28872943356;69601686905;1286543748;279268157;9744124745;97120743;1381846287;3255;11329;1411976;1;9287;785418
0;12;1572589479634;1572589490646;11012;28885231008;69601141829;1288713259;278102831;9744068409;97316295;1380027632;2226;10420;1020080;-18;11012;1577992
0;13;1572589490646;1572589504716;14070;28824223594;69600408779;1277420205;277425397;9743928248;97174479;1376719002;2075;20164;1903464;5;14071;2006689
0;14;1572589504716;1572589515790;11074;28999479950;69598270756;1292818316;286601508;9743346699;97109589;1382369299;2625;12395;1346840;8;11074;1623379
0;15;1572589515790;1572589527391;11601;28945094512;69599007632;1296610584;284821126;9743634506;97213472;1380991085;2117;13255;1318752;-5;11601;1652386
0;16;1572589527391;1572589538918;11527;29096798878;69599581045;1297312161;291848628;9743820150;97299154;1383753624;1704;16226;1623592;-36;11527;1618529
0;17;1572589538918;1572589551695;12777;29153462938;69598533659;1300647424;294442186;9743538907;97372890;1381909015;3186;12040;1294848;47;12777;1790100
0;18;1572589551695;1572589562528;10833;29077986486;69600215705;1289611935;278522193;9744024955;97100504;1379436650;2165;11436;1199040;9;10833;1695824
0;19;1572589562528;1572589573506;10978;29009638484;69598019416;1278848685;287913869;9743526671;97140835;1377900266;2143;11090;1102576;-30;10978;1570833
0;20;1572589573506;1572589585044;11538;28911595542;69597682089;1303184387;279074708;9743445119;97123586;1385460004;1634;18555;1753264;0;11538;1643234
0;21;1572589585044;1572589598011;12967;29063525624;69597434835;1299396190;290716111;9743325121;97384309;1380582678;3145;12576;1475680;2;12832;1689205
0;22;1572589598012;1572589608611;10599;28936612788;69597635894;1293644961;277873478;9743440443;97065012;1383001407;2418;10667;1192736;-95;10600;1104778
0;23;1572589608612;1572589619302;10690;28965996894;69596232782;1292117060;281767948;9743117569;97096346;1381901419;3139;11817;1290840;-13;10426;254903
0;24;1572589619302;1572589630039;10737;28822179302;69595044901;1285449388;278619460;9742689437;97035362;1379692655;2577;9779;1000936;116;10736;1502901
0;25;1572589630039;1572589644065;14026;28907439944;69596344517;1283736866;282323717;9743179296;97164575;1373685557;2166;19681;1825296;2;14026;2002293
0;26;1572589644065;1572589654571;10506;28921380170;69595183526;1290642648;279344447;9742710047;96975803;1381752663;2412;12981;1524240;9;10279;1013645
0;27;1572589654571;1572589665928;11357;29089950602;69594634228;1314768782;292699052;9742538454;97191471;1390665319;2222;11613;1123848;-14;11358;1618844
0;28;1572589665928;1572589677437;11509;28904964222;69594848299;1293857236;282084179;9742751548;97229229;1381167130;1737;16259;1574608;-8;11509;1639246
0;29;1572589677438;1572589687619;10181;28864855394;69593558067;1288318853;275272310;9742281849;96987540;1380724725;2488;10477;1193320;15;10181;1099536
0;30;1572589687619;1572589697996;10377;28790223406;69595722969;1273570054;271787285;9743071004;97019834;1377954850;1929;10604;1133296;-101;10378;1450704
0;31;1572589697996;1572589709045;11049;28952533066;69595230351;1285362545;281312087;9742958302;97205967;1376346439;2899;11687;1284792;-7;10892;333202
0;32;1572589709045;1572589720321;11276;29000382230;69593465460;1296464941;285897204;9742301536;97150470;1381723262;3405;10888;1193560;122;9726;970611
0;33;1572589720321;1572589730947;10626;28850478628;69594586540;1298115432;275447079;9742614511;97124942;1381092113;2200;10801;1171416;-111;10627;1232892
0;34;1572589730947;1572589741480;10533;28998782800;69566685270;1290666246;285105194;9733623383;97048823;1383707188;3192;10734;1292408;-46;10056;289393
0;35;1572589741480;1572589753009;11529;28872790494;69521946373;1291382889;279027895;9719261653;97180206;1381001802;3673;10220;1127608;158;10698;1167046
0;36;1572589753009;1572589766154;13145;28959862704;69520104191;1281303322;286364990;9718668307;97149888;1378835081;2194;16292;1498256;-17;13145;1879426
0;37;1572589766155;1572589778437;12282;28691761152;69509512935;1264141929;268978325;9718466029;96914525;1374165594;2271;17827;1855240;6;12282;1642479
0;38;1572589778437;1572589788923;10486;28791170216;69507078115;1287655216;272002739;9718508499;96955803;1382500628;2247;9459;969704;-5;10487;1500893
0;39;1572589788923;1572589799032;10109;28861802680;69507221366;1295668773;269120467;9718490753;96810954;1387738306;1472;13356;1310168;0;10109;1437493
0;40;1572589799032;1572589810463;11431;29007234010;69507714087;1288970156;285968286;9718712188;97009225;1384371547;2428;14577;1573744;15;11430;1374833
0;41;1572589810463;1572589823298;12835;28825475836;69505609609;1289413711;271872904;9717965584;96898906;1385620942;2611;12764;1239520;-18;12836;1835967
0;42;1572589823298;1572589833627;10329;28890687612;69507117558;1278322461;276710525;9718484442;96859235;1380381913;1506;14550;1373016;-2;10328;1472743
0;43;1572589833627;1572589844174;10547;28696989558;69507551629;1269430396;267307070;9718641758;96875157;1377885907;2345;12925;1430688;8;10492;1251167
0;44;1572589844174;1572589855937;11763;28908849574;69446447407;1292984150;273424245;9698188622;97107629;1386053400;2180;12372;1236968;-3;11763;1693074
0;45;1572589855937;1572589867161;11224;28765715846;69421862530;1267367954;270807389;9690147793;96959509;1375881979;2051;13651;1506160;-88;11224;1340389
0;46;1572589867161;1572589878329;11168;28723484178;69421690122;1268668365;266445846;9690072167;97073567;1377523363;2659;7938;874216;105;11167;1673565
0;47;1572589878329;1572589888783;10454;28747600750;69421895359;1290560360;262375122;9690193542;96913025;1387333147;1788;11716;1136352;-28;10455;1490034
0;48;1572589888783;1572589901913;13130;28855002730;69421950646;1284080562;275897701;9690181237;97029637;1382645258;1999;22638;2102272;3;13131;1867005
0;49;1572589901914;1572589912053;10139;28718754070;69422009489;1276433117;264396504;9690230155;96915266;1382516699;2586;8066;979616;17;10138;1582293
0;50;1572589912053;1572589922321;10268;28763925594;69421657676;1272397374;258884285;9690034496;96714088;1380427546;1779;12549;1175376;-18;10269;1466627
0;51;1572589922321;1572589932787;10466;28849559412;69422185034;1284205251;268952883;9690296024;97037497;1380330846;2286;11816;1431496;-133;10218;1110548
0;52;1572589932787;1572589946317;13530;28829024950;69421738890;1274482886;274924199;9690148379;96982321;1380806815;3703;12869;1293632;128;13472;1795788
0;53;1572589946317;1572589957725;11408;28841603726;69421980806;1287910298;276949269;9690270861;97110423;1381980953;1708;15499;1463832;20;11408;1631923
0;54;1572589957725;1572589968719;10994;28880160136;69421590528;1284185260;270199707;9690074582;97024749;1383590734;3349;13104;1536888;3;10014;1155833
0;55;1572589968720;1572589979775;11055;28805906580;69421620086;1286488544;271231046;9690084039;97044222;1382636237;2325;10773;1060048;-21;11056;1583187
0;56;1572589979776;1572589991996;12220;28755598484;69421532219;1273682402;264269643;9690029036;96959322;1380932516;1844;17159;1678280;16;12221;1743525
0;57;1572589991996;1572590002406;10410;28808123736;69421990911;1271109422;266410918;9690274791;96825555;1380257834;2515;11178;1233168;-17;10410;1368988
0;58;1572590002407;1572590012902;10495;28836313416;69421659402;1288368773;262607949;9690100112;96898013;1384022694;1985;11311;1119360;0;10496;1495179
0;59;1572590012902;1572590024093;11191;28861394318;69421721258;1284132570;271735733;9690138914;97096323;1378460333;1708;15270;1595504;-81;11190;1536973
0;60;1572590024093;1572590034757;10664;28754156588;69421568548;1262777798;268082070;9690071796;96907694;1373612066;3625;9655;1113040;81;9333;910462
1;10;1572590313066;1572590323710;10644;28705057810;69594988085;1275948075;271365209;9732042908;97589099;1374183351;2123;15238;1583008;17;10644;1654432
1;11;1572590323710;1572590334696;10986;28746215940;69594686532;1258482659;275026948;9732116156;97587038;1368747508;2403;10154;1053152;-2;10985;1576791
1;12;1572590334696;1572590348335;13639;28858991596;69593437994;1287187972;277836087;9731802162;97682732;1378023391;2190;18909;1824520;-13;13640;1945821
1;13;1572590348335;1572590359930;11595;28893542642;69591371208;1296229343;285001068;9731162699;97763704;1379152601;2601;12276;1371520;8;11595;1758849
1;14;1572590359931;1572590371344;11413;28764225916;69590826708;1274898837;277431232;9731151860;97691158;1373056411;2145;12789;1250400;-1;11414;1624794
1;15;1572590371344;1572590381064;9720;28966403504;69590275094;1274797061;281564317;9730978819;97470291;1373164763;1657;12121;1325672;-147;9634;1136143
1;16;1572590381064;1572590391335;10271;28935223744;69590915735;1296240102;280650488;9731306653;97548172;1382951973;2779;9669;941800;149;9840;1270637
1;17;1572590391335;1572590402418;11083;28886884458;69591935777;1290631155;283420651;9731596734;97617410;1378406093;2075;10892;1311016;-131;11082;804380
1;18;1572590402418;1572590413437;11019;29014870102;69590761126;1289557184;285808559;9731219459;97651794;1377471906;5196;9351;1282896;-20;8337;161810
1;19;1572590413437;1572590426516;13079;28822710450;69588688178;1281846861;276951238;9730697603;97662812;1376523996;3194;11901;1188056;150;13062;1859396
1;20;1572590426516;1572590437864;11348;28790040906;69588715468;1272985554;274522294;9730777336;97532105;1372118104;1685;15396;1475744;-16;11349;1621916
1;21;1572590437864;1572590448633;10769;28860938214;69588525695;1271262151;280237063;9730705483;97446876;1372759083;1727;16919;1696432;-65;10769;1459544
1;22;1572590448633;1572590459430;10797;29025001334;69589361654;1297688728;287659161;9731018290;97616058;1381073275;2639;10310;1090040;61;10796;1411567
1;23;1572590459430;1572590472379;12949;28935738102;69588228061;1280979955;287023790;9730702671;97550629;1375740316;2144;16362;1621712;2;12949;1845047
1;24;1572590472379;1572590482898;10519;28737647492;69590165931;1267889734;274816751;9731410561;97529533;1368310438;2215;13520;1468184;3;10520;1141170
1;25;1572590482898;1572590493386;10488;28828208226;69587183480;1282535199;277993847;9730364207;97539871;1376525299;2239;9350;973512;21;10488;1388195
1;26;1572590493387;1572590503861;10474;28824398940;69588081985;1293131840;280799021;9730673028;97585500;1379932710;1628;13314;1298096;-45;10475;1441953
1;27;1572590503862;1572590514322;10460;28790901430;69589222333;1285740925;271329073;9730980659;97525315;1378896011;4135;10490;1319640;25;8576;657429
1;28;1572590514325;1572590525040;10715;28938121406;69587634197;1285013947;285287841;9730508662;97510671;1377285073;2370;9546;951832;-6;10715;1401390
1;29;1572590525040;1572590536429;11389;28802112040;69586747993;1272746151;277233167;9730228222;97623165;1374628811;2534;11841;1396584;-107;11193;1051554
1;30;1572590536429;1572590547125;10696;28672642014;69586840137;1263543583;276390137;9730330738;97572402;1369976084;3846;10414;1176368;125;10197;653958
1;31;1572590547125;1572590557537;10412;28728428906;69586503562;1271747928;272905508;9730250182;97518657;1376490375;2091;10000;1026752;-12;10413;1490351
1;32;1572590557538;1572590570242;12704;28848539310;69586878671;1284759486;278812712;9730348685;97399771;1376597027;3459;14162;1636376;-122;12082;983294
1;33;1572590570242;1572590581107;10865;28869262842;69587898754;1278328371;286136914;9730703384;97640873;1374983013;4562;8703;1087472;130;8593;926307
1;34;1572590581107;1572590591046;9939;28654304268;69557249060;1273082294;266838230;9720800709;97410606;1376668368;1786;11147;1079232;6;9940;1414643
1;35;1572590591047;1572590602081;11034;28764256576;69514097905;1272854691;275767610;9707002607;97475051;1374900653;1706;15679;1500840;-18;11035;1568483
1;36;1572590602081;1572590614957;12876;28830097320;69469086161;1282237927;277784835;9691915944;97583764;1379558913;3202;12170;1429768;16;12847;1550750
1;37;1572590614966;1572590625545;10579;28666026754;69443516401;1272667883;265072759;9683561960;97350408;1376169115;1805;12665;1200376;3;10579;1516526
1;38;1572590625545;1572590636657;11112;28724777300;69443604140;1271387973;267336261;9683761911;97432849;1375299935;1646;17313;1676096;-27;11113;1585418
1;39;1572590636658;1572590647939;11281;28833832000;69443645263;1284190061;275501377;9683775616;97563750;1379284466;2820;10007;1164120;7;11282;1668583
1;40;1572590647940;1572590662076;14136;28642178676;69443571561;1268921765;262892686;9683732434;97401767;1374986085;2209;18640;1790064;1;14137;2018579
1;41;1572590662076;1572590672829;10753;28554378948;69443316759;1258007055;260249979;9683606851;97270150;1373017786;2094;14856;1545320;19;10753;1624239
1;42;1572590672829;1572590683724;10895;28873391284;69443314711;1272087041;276939495;9683624099;97441988;1373797925;2267;9988;1009192;6;10894;1561602
1;43;1572590683724;1572590694467;10743;28685779094;69443671444;1261218658;266376667;9683768022;97446413;1368685484;1647;14852;1423928;-15;10743;1527316
1;44;1572590694467;1572590706974;12507;28684442464;69442937207;1274863764;269459114;9683589685;97650915;1376315495;2733;14539;1569392;-1;12507;1677910
1;45;1572590706974;1572590718093;11119;28679719072;69442962004;1278102265;267286109;9683622079;97437215;1375858206;2019;12866;1271560;-1;11120;1584557
1;46;1572590718093;1572590728940;10847;28622689866;69443210218;1261929399;263720158;9683751739;97443122;1374641153;1797;14235;1544232;-126;10847;1134248
1;47;1572590728941;1572590740226;11285;28728128000;69442878743;1267696808;271415853;9683591672;97402626;1377633567;3257;8568;1000096;125;10227;1161222
1;48;1572590740226;1572590755888;15662;28648401196;69442685277;1267294946;266682462;9683494972;97393492;1375604734;2801;16427;1710784;-103;15662;1832533
1;49;1572590755888;1572590766357;10469;28675772546;69443020277;1255858747;268738331;9683659380;97424903;1368858421;3923;10231;1243552;121;10058;452724
1;50;1572590766357;1572590777273;10916;28732855626;69429005309;1272788452;269888621;9679002587;97532498;1378307436;2266;10327;1025176;-25;10916;1561227
1;51;1572590777273;1572590787627;10354;28749612922;69425518186;1285314446;267918709;9677883407;97396451;1378571939;1659;14553;1324752;8;10355;1474010
1;52;1572590787627;1572590798202;10575;28705941256;69425591411;1274781358;265990161;9677914907;97403400;1377847016;3131;11660;1410728;16;9381;786511
1;53;1572590798202;1572590809390;11188;28716787450;69425515053;1276520406;266519726;9677870095;97482312;1377112443;2268;10950;1121968;-28;11188;1591469
1;54;1572590809390;1572590819962;10572;28806105140;69425822696;1268512948;273890448;9678027342;97416030;1373131538;1659;14876;1403056;6;10572;1480750
1;55;1572590819962;1572590831272;11310;28687773308;69425389832;1259755617;268555519;9677809288;97454303;1372936336;2930;11615;1329568;2;11126;942500
1;56;1572590831273;1572590841931;10658;28814128716;69425617119;1288583067;272101928;9677910479;97452324;1379739126;1955;11225;1145816;-3;10659;1521516
1;57;1572590841931;1572590852411;10480;28777343578;69425686398;1272574753;269451608;9677960002;97396917;1373785118;1584;14966;1391504;-14;10479;1478956
1;58;1572590852411;1572590863773;11362;28715812608;69425283391;1265971449;269658267;9677820021;97360796;1375951395;3908;10484;1302672;25;10205;1087061
1;59;1572590863773;1572590874412;10639;28748465654;69425581689;1271619127;269246521;9677965805;97463043;1379128565;1985;11350;1161392;0;10639;1519261
2;12;1572591157268;1572591167756;10488;28899550980;69848923273;1293959791;281812621;9841114604;97736447;1382627446;2193;9960;964112;14;10488;1503487
2;13;1572591167756;1572591180096;12340;28861025814;69848025766;1279417689;283669058;9840936716;97896544;1377392478;1814;16376;1644864;-14;12340;1749837
2;14;1572591180096;1572591191671;11575;28894762764;69846939712;1297606343;279875337;9840731126;97644775;1384291314;4349;11684;1368824;19;10334;901565
2;15;1572591191671;1572591201907;10236;28771563438;69847760988;1277839127;274888866;9841085279;97581444;1376122445;1900;10319;1044416;-10;10236;1458636
2;16;1572591201907;1572591212439;10532;28827189730;69848242414;1277454560;276724818;9841209557;97727158;1379087933;1599;12821;1429472;-102;10533;1111569
2;17;1572591212439;1572591224647;12208;28924797592;69845685011;1297394627;283574432;9840336010;97799020;1383611288;3577;12337;1253312;93;11698;980646
2;18;1572591224647;1572591236135;11488;28834260218;69846787435;1278641245;275557757;9840730847;97653159;1377570382;2098;13042;1303416;16;11487;1641603
2;19;1572591236135;1572591246653;10518;28695929598;69844782940;1266364110;268414057;9840335312;97575158;1372808899;1625;15331;1583672;-99;10518;1360154
2;20;1572591246653;1572591257317;10664;28995677964;69844357184;1297309307;288345882;9840242810;97635593;1381809719;3059;9912;1090568;82;9494;1028411
2;21;1572591257317;1572591271414;14097;28954913158;69845667112;1302247771;281390228;9840737260;97772585;1383368337;2892;15176;1481560;10;14098;2166687
2;22;1572591271415;1572591281640;10225;28756124230;69845473593;1285062755;272670465;9840613521;97510690;1380927514;1474;15556;1544160;-56;10226;1443778
2;23;1572591281641;1572591291971;10330;28825572342;69843039039;1303327752;273254174;9839799059;97598221;1383875383;4719;8715;1295128;84;6627;141988
2;24;1572591291971;1572591302875;10904;28812980718;69843490668;1281997570;278260439;9840000131;97684423;1378919556;2667;10293;1028312;-32;10904;1547241
2;25;1572591302875;1572591314891;12016;28726228832;69845290766;1272243099;265774983;9840665390;97575016;1371706189;1939;15713;1514344;14;12017;1711926
2;26;1572591314891;1572591326609;11718;29026488928;69843092716;1287450543;286426105;9839842419;97613069;1379864196;2354;14284;1532904;-6;11718;1431027
2;27;1572591326609;1572591337561;10952;28905783428;69844099428;1288533671;284740081;9840224357;97743567;1379975537;2155;10749;1098848;-11;10951;1565843
2;28;1572591337561;1572591348940;11379;28856285924;69843921235;1287467103;280279904;9840208756;97658934;1379622462;1756;16398;1520208;4;11380;1622103
2;29;1572591348940;1572591359541;10601;28916514282;69843130314;1299312296;279816366;9839873820;97550358;1383577983;3277;10293;1262368;12;9865;939352
2;30;1572591359542;1572591371308;11766;28962592758;69843612292;1287775213;285248546;9840135134;97682760;1380715617;2146;12999;1288016;-2;11766;1675963
2;31;1572591371308;1572591381687;10379;28853786404;69842085683;1267855269;278675870;9839607235;97560839;1376124755;2708;10686;1279168;-120;10206;655883
2;32;1572591381687;1572591393896;12209;28940803572;69842606747;1295814680;282870997;9839746207;97567152;1384932686;3531;11397;1204864;123;11349;1148205
2;33;1572591393896;1572591404858;10962;29005731816;69843114012;1275706553;285467129;9839972362;97620330;1374581129;1843;13515;1358544;-20;10962;1558564
2;34;1572591404858;1572591414457;9599;28816706638;69814798786;1285923098;272814681;9830876991;97420659;1381324819;2609;12015;1402224;-129;8688;846161
2;35;1572591414457;1572591425457;11000;28796289560;69769395795;1296007658;272400098;9816228662;97502904;1384476827;3422;10162;1074648;146;9567;1129064
2;36;1572591425457;1572591438718;13261;28852426268;69769341939;1285295564;280312381;9816260088;97629847;1381023080;2162;16878;1644104;13;13261;1889978
2;37;1572591438719;1572591449956;11237;28833055718;69703345864;1291463381;273558083;9797587367;97454345;1380688977;2529;14439;1534928;-18;10973;1131054
2;38;1572591449956;1572591461066;11110;28714572192;69687847983;1270501146;267298104;9793143245;97575728;1380691906;2285;10081;1062256;-13;11110;1593516
2;39;1572591461066;1572591472130;11064;28748694436;69688184026;1276281096;271568833;9793361190;97641829;1378980858;1695;14758;1428464;4;11065;1570615
2;40;1572591472131;1572591482585;10454;28886052404;69687730070;1281216259;273560422;9793151291;97473812;1381536034;3653;11222;1363672;3;9132;882941
2;41;1572591482585;1572591493256;10671;28775891608;69688002886;1269831600;271995425;9793293451;97399964;1377385622;2156;10815;1022024;19;10671;1530316
2;42;1572591493256;1572591504610;11354;28706904564;69687848916;1256630577;265946606;9793184154;97568472;1373647296;1663;15533;1531736;1;11354;1615328
2;43;1572591504610;1572591516993;12383;28756189346;69688157581;1280407195;268065815;9793319898;97491603;1383636070;2990;13660;1483200;-22;12383;1363070
2;44;1572591516993;1572591527782;10789;28807099838;69687994031;1284513425;273287179;9793257940;97613788;1382272157;1989;11410;1182984;-5;10789;1537960
2;45;1572591527782;1572591538073;10291;28813912928;69670786942;1276752979;265319621;9787636514;97461575;1377171823;1602;13760;1404656;-55;10291;1349252
2;46;1572591538073;1572591549081;11008;28769197070;69670496214;1284277772;271062874;9787553984;97569844;1383469686;3636;10512;1168584;70;9295;1030180
2;47;1572591549081;1572591559361;10280;28672551640;69670366742;1262347027;257912905;9787494306;97429556;1375006189;1830;11851;1173000;-5;10279;1468388
2;48;1572591559361;1572591574243;14882;28825021338;69670453817;1272152087;272931611;9787508045;97588992;1376700851;3056;11845;1324376;-4;14883;2471674
2;49;1572591574243;1572591582769;8526;28594412148;69670149977;1283809508;221778416;9787386417;97147145;1378682748;1406;8407;969528;-101;8526;1089870
2;50;1572591582769;1572591593795;11026;28909906906;69670758849;1286746405;277219136;9787682282;97552608;1381382205;4530;10405;1324744;-33;8380;126904
2;51;1572591593795;1572591604230;10435;28855258668;69670600640;1287836631;271195872;9787569001;97501753;1382965078;2657;9705;940760;151;10350;1472708
2;52;1572591604230;1572591617933;13703;28763217056;69670336743;1281881542;268031185;9787525126;97635505;1383238968;2982;14395;1618384;-111;13686;963915
2;53;1572591617933;1572591629335;11402;28751460260;69670423736;1275550441;269713603;9787569347;97567740;1379419643;3797;11138;1285968;90;10764;733240
2;54;1572591629335;1572591639927;10592;28777365040;69670268972;1287647498;259901501;9787490743;97445228;1380484045;2023;10293;1063624;-74;10592;1497520
2;55;1572591639927;1572591650803;10876;28890265380;69670190906;1281384383;273516595;9787442939;97454514;1379167984;3146;11661;1332256;-49;10559;413390
2;56;1572591650803;1572591661252;10449;28750899474;69670246157;1273351093;263792915;9787462608;97391845;1378898771;4673;8826;1077472;125;8610;746710
2;57;1572591661253;1572591672252;10999;28812878372;69670249984;1265691595;272196996;9787475046;97415100;1373993650;1987;11593;1183552;-2;10999;1579648
2;58;1572591672252;1572591682530;10278;28878671374;69670408211;1277854878;268653244;9787549540;97470128;1376568487;1557;14181;1397952;13;10279;1464806
2;59;1572591682530;1572591694386;11856;28779765718;69670370581;1268781337;269448645;9787529524;97476263;1376952370;2874;13019;1354944;14;11500;1418678
2;60;1572591694386;1572591705144;10758;28697486104;69670196802;1260273915;266524064;9787459352;97527337;1371373790;1930;11926;1234848;-8;10759;1541390
2;61;1572591705144;1572591715820;10676;28764751078;69670226669;1280608742;267993951;9787476713;97488060;1381408851;2042;13005;1436808;-123;10426;1010154
3;10;1572591981054;1572591991536;10482;28749630004;69566835925;1276081725;269811755;9732245846;98787198;1379917627;2553;12485;1307856;-4;10165;422723
3;11;1572591991536;1572592002612;11076;28751410182;69565839751;1266029897;276014244;9732058258;98804915;1373276167;3512;11657;1258600;90;10846;762075
3;12;1572592002612;1572592015727;13115;28944675784;69564888958;1293862973;284169874;9731874418;98965740;1382205045;2382;14365;1427304;20;13115;1867471
3;13;1572592015727;1572592028524;12797;28983049110;69563170990;1294997700;289509041;9731273068;98949622;1383931043;2232;18119;1948856;-149;12718;1543236
3;14;1572592028524;1572592040101;11577;28781538888;69562393603;1283117518;276701093;9731166748;98991542;1376966349;3162;10718;1132232;130;11431;1470019
3;15;1572592040101;1572592051114;11013;28792739570;69561591260;1272669917;276096222;9731013285;98778800;1377104913;1843;14552;1321928;14;11013;1563379
3;16;1572592051114;1572592062673;11559;29024056130;69562094368;1305992646;287278820;9731242793;98880018;1386381218;2448;13447;1548848;3;11238;936031
3;17;1572592062673;1572592072426;9753;28919288136;69563286292;1294295996;282231515;9731649076;98658915;1382443567;2226;8519;937864;-107;9754;1186686
3;18;1572592072426;1572592084136;11710;28946743144;69562587821;1295847559;286630144;9731432625;98806306;1381578632;2123;14383;1428888;-21;11709;823944
3;19;1572592084136;1572592094912;10776;28872885686;69560584091;1303166882;284284364;9730945556;98955861;1385678374;4642;9991;1239064;128;7690;368842
3;20;1572592094912;1572592108784;13872;28807747202;69560628873;1284511435;276763759;9731021034;98939244;1377077968;2871;13711;1384728;-1;13872;2077155
3;21;1572592108784;1572592120000;11216;28772440314;69559806118;1274017144;277728880;9730677302;98888829;1376403567;1632;16503;1559984;2;11216;1598690
3;22;1572592120000;1572592130704;10704;28918148168;69559790970;1296568620;282097965;9730724161;98765546;1386132357;3379;11492;1443952;-16;9001;691309
3;23;1572592130704;1572592141462;10758;28737627052;69559822520;1282462775;272257460;9730810522;98856232;1381257828;2282;9928;1020224;-10;10758;1539259
3;24;1572592141462;1572592154993;13531;28945911528;69558445189;1289702092;285659971;9730379613;98843635;1382246826;2001;19107;1802808;17;13531;1929701
3;25;1572592154993;1572592165928;10935;28783099482;69558622528;1284917877;278546936;9730362010;98812139;1381611306;2582;12056;1311800;8;10935;1257912
3;26;1572592165928;1572592176623;10695;28799620842;69558541193;1274973478;277369216;9730350295;98788727;1375757505;1995;12312;1166456;-11;10696;1527784
3;27;1572592176623;1572592187868;11245;28937715380;69559073476;1287261671;284006124;9730573738;98996120;1377875196;1749;14275;1603904;-132;11245;1375934
3;28;1572592187868;1572592199059;11191;28909541030;69558063387;1298794388;286204778;9730295915;98939190;1385718118;4290;9580;1087648;134;9960;1073608
3;29;1572592199059;1572592209954;10895;28725077914;69558883831;1280265173;273671871;9730464429;98775085;1381721219;1878;12821;1234760;-16;10896;1559238
3;30;1572592209954;1572592220413;10459;28927865344;69558653707;1292631502;287201101;9730521537;98711101;1380744611;1567;13960;1511520;-96;10459;1276264
3;31;1572592220413;1572592232261;11848;28828187348;69556964294;1286093878;279850328;9729882184;98926615;1379730102;4061;9883;1165832;108;10331;1366693
3;32;1572592232261;1572592242950;10689;28753105826;69559223530;1273093635;271945070;9730735017;98623967;1379349492;1783;13319;1210680;-13;10688;1528278
3;33;1572592242950;1572592254091;11141;28914535106;69559327409;1288554261;284787961;9730781339;98848043;1383353433;1681;16895;1740304;-66;11141;1480431
3;34;1572592254091;1572592265030;10939;28841222520;69529279843;1281012878;280838993;9721037103;98794220;1377883169;2673;9408;1024784;90;10939;1616914
3;35;1572592265030;1572592276083;11053;28708590572;69483854216;1261202306;268592209;9706388303;98710926;1377296336;1739;14306;1271560;-11;11053;1572147
3;36;1572592276083;1572592290290;14207;28709081424;69484989396;1268305789;274327096;9706807335;98797782;1377982780;2740;18990;2004616;-9;14208;2137288
3;37;1572592290290;1572592302516;12226;28888363146;69482329843;1271373718;285155247;9706172775;98822569;1376381842;2405;12258;1271760;-3;12226;1756747
3;38;1572592302516;1572592313392;10876;28852582342;69465982423;1277990692;276120935;9700823886;98689377;1381144960;1653;15115;1478152;11;10875;1550284
3;39;1572592313392;1572592324003;10611;28771126022;69465723598;1292156068;268596172;9700799508;98640063;1383028775;2408;11916;1273880;17;10612;1538961
3;40;1572592324003;1572592337348;13345;28695558320;69465352258;1270287012;267327707;9700652168;98534400;1378377147;2359;15795;1534736;-23;13345;1899916
3;41;1572592337348;1572592348068;10720;28748713562;69465405371;1270967666;273016105;9700661111;98673091;1379324682;1720;16176;1626664;-42;10719;1501209
3;42;1572592348068;1572592358284;10216;28660741408;69465247041;1277888480;266696275;9700654187;98663236;1377256802;2505;9055;992832;49;10216;1478662
3;43;1572592358284;1572592368403;10119;28704901882;69464676743;1265865908;256210562;9700407397;98529258;1375866916;1704;12374;1195624;13;10119;1446627
3;44;1572592368403;1572592382027;13624;28706369182;69394276576;1284203989;268020657;9680281153;98793141;1384530789;2486;18773;1985456;-5;13625;1995061
3;45;1572592382028;1572592392293;10265;28554060084;69385615425;1257528829;258756796;9677923599;98621565;1376614357;2173;9720;957552;4;10266;1464506
3;46;1572592392294;1572592402784;10490;28622498460;69385837666;1268781989;261386041;9678036714;98691235;1377781548;1645;13470;1325776;-4;10491;1491741
3;47;1572592402784;1572592413772;10988;28638073448;69385620851;1293171291;260088664;9677944160;98659389;1386846995;2202;13871;1467656;-13;10987;1799386
3;48;1572592413772;1572592430208;16436;28730269090;69385526437;1279536150;267790551;9677884540;98759513;1382123828;3196;14596;1464352;7;16436;2343286
3;49;1572592430208;1572592440841;10633;28795523060;69385603414;1287739633;262033189;9677921704;98768306;1381773240;1564;17179;1556280;4;10633;1513510
3;50;1572592440841;1572592452483;11642;28840604210;69385151417;1276397671;274354405;9677688446;98902407;1380485086;2658;9988;1242160;-20;11642;1730862
3;51;1572592452483;1572592462480;9997;28720764782;69385946063;1265397974;264277515;9678077872;98521471;1379323869;2086;9829;1081616;-53;9850;708608
3;52;1572592462480;1572592473253;10773;28743834388;69385727679;1271201953;268843070;9678017387;98674999;1378814887;3328;11678;1345088;-57;10706;347598
3;53;1572592473253;1572592484511;11258;28797864900;69385561346;1262953083;273550789;9677937172;98649963;1378171522;2807;10031;1039072;113;11236;1570733
3;54;1572592484511;1572592494521;10010;28631985540;69385639883;1258941807;254517467;9677977172;98460879;1375009189;1538;12763;1225576;-2;10010;1424686
3;55;1572592494521;1572592505459;10938;28838738476;69385498720;1279569229;273182575;9677901858;98614960;1382846510;2913;15361;1616920;-22;10185;1176298
3;56;1572592505459;1572592516583;11124;28880391400;69385453057;1282669317;274399152;9677877941;98716072;1382466618;2365;9658;1034176;38;11124;1579941
3;57;1572592516583;1572592527512;10929;28723036104;69385409781;1285485908;263830849;9677865848;98687875;1384742576;1657;14592;1412688;8;10930;1554780
3;58;1572592527513;1572592537915;10402;28698604318;69385730929;1280647075;259820057;9677986471;98611690;1383982596;2131;13128;1434552;-9;10402;1257144
3;59;1572592537915;1572592551997;14082;28831856328;69385527791;1274574073;277976647;9677968781;98749413;1379251336;2859;13045;1359728;-73;14082;1735578
4;9;1572592808361;1572592824027;15666;29077869686;69957346976;1301736518;283740433;9824803417;98163654;1382257981;2524;20906;1979192;4;15665;2233081
4;10;1572592824027;1572592835566;11539;28967548874;69955089132;1286485112;285007675;9824189363;98204418;1378848490;2660;13524;1468416;-6;11540;1797232
4;11;1572592835566;1572592846092;10526;28788384390;69956358787;1273431044;274721710;9824611483;98127706;1378395012;2036;10778;1086432;-17;10526;1508486
4;12;1572592846092;1572592862347;16255;28943368792;69954703970;1301945211;279190643;9824190936;98141213;1385542915;3031;22577;2185128;11;16255;2463940
4;13;1572592862347;1572592873808;11461;29029807362;69954355069;1268404773;287854882;9824177725;98179014;1375894815;2406;10519;1203096;0;11461;1634463
4;14;1572592873808;1572592883536;9728;28992403622;69952484862;1302980366;277438301;9823716574;97986100;1386011851;1565;12264;1180208;3;9728;1387157
4;15;1572592883536;1572592894257;10721;28952571610;69953442661;1276726370;281829603;9824101135;98043984;1376631049;2247;15209;1461560;-3;10720;1670376
4;16;1572592894257;1572592910808;16551;28942001064;69953019557;1289128704;277708193;9824041134;98078685;1381338840;3349;16044;1761712;-16;16552;2275636
4;17;1572592910808;1572592921683;10875;28867106568;69952337967;1283210878;276733644;9823779706;98010870;1377316540;2683;12620;1488288;-124;10454;863740
4;18;1572592921683;1572592933296;11613;28890087990;69952737780;1277960970;280051246;9823895654;98233912;1377512206;3405;9855;1077144;147;11178;1660266
4;19;1572592933296;1572592944545;11249;28940551284;69950151516;1298983616;280874678;9823334030;98142361;1384473054;1879;15233;1363696;10;11249;1606380
4;20;1572592944545;1572592955426;10881;29006266030;69949807410;1278465075;284363752;9823280657;98099391;1375601382;2765;11296;1449808;-149;10002;864786
4;21;1572592955426;1572592966746;11320;28956307312;69949346334;1296085011;280934295;9823122960;98232462;1383196727;5041;10480;1252848;151;8638;450037
4;22;1572592966747;1572592977401;10654;28921768822;69950383377;1282457738;284137153;9823416604;98131415;1374221277;2218;9994;1059752;-42;10654;1517890
4;23;1572592977401;1572592990193;12792;28966239254;69949483338;1289801628;281269526;9823116703;98021056;1382111952;1884;18255;1721200;36;12793;1821095
4;24;1572592990193;1572593000175;9982;29029778016;69949314489;1288505287;285249099;9823146939;97986269;1377734994;2329;11165;1230472;-4;9982;1464752
4;25;1572593000175;1572593011476;11301;28960629058;69949544647;1285036002;282776844;9823158589;98155335;1376993521;2254;12519;1220776;-13;11301;1616922
4;26;1572593011476;1572593022849;11373;28926073340;69949381810;1294447569;278608462;9823147654;98180671;1385362912;1742;16154;1575416;11;11373;1615441
4;27;1572593022849;1572593033942;11093;28876354354;69949576438;1268343285;282524254;9823238870;98183461;1375735197;2864;11203;1251576;2;10922;1206649
4;28;1572593033943;1572593044783;10840;28815497466;69948393575;1267256532;273610566;9822868798;98126033;1375899540;1952;12816;1273312;0;10841;1544049
4;29;1572593044783;1572593056196;11413;28984069504;69948066159;1283617764;285144405;9822672770;98313807;1379398594;2812;13305;1570736;-142;10755;983481
4;30;1572593056199;1572593067941;11742;29004928524;69948141421;1291762659;286674338;9822890007;98290966;1380204406;3109;11067;1105928;146;11562;1468605
4;31;1572593067941;1572593078896;10955;28809433356;69948297060;1281956005;275633126;9822885988;98116452;1377787651;1743;14082;1386576;-16;10955;1564815
4;32;1572593078896;1572593089698;10802;28875148978;69948530968;1284173828;279310464;9822946520;97950028;1382987137;3366;13939;1565880;-7;9906;1119152
4;33;1572593089698;1572593100713;11015;28935087526;69948112455;1279582230;282112965;9822824791;98118286;1378681426;2419;9702;1011816;27;11015;1566714
4;34;1572593100713;1572593112255;11542;29017555188;69917749910;1289327389;284914357;9812964957;98229196;1380684168;1752;15177;1493928;-23;11541;1645435
4;35;1572593112255;1572593122809;10554;28945792100;69874530126;1292935380;271012899;9799140307;98122658;1381374595;2870;12001;1339832;9;10417;1134815
4;36;1572593122809;1572593134546;11737;29145806844;69874500473;1283815729;286162266;9799070768;98093243;1379500729;2346;12360;1183832;-6;11737;1671711
4;37;1572593134546;1572593144529;9983;28965040448;69872743367;1283673643;268423687;9798699751;97892238;1381785868;1440;13705;1312360;21;9983;1426958
4;38;1572593144530;1572593155523;10993;28943155778;69873084446;1279050508;273871027;9798801715;98054850;1378131050;2854;12157;1413352;-10;10523;1153316
4;39;1572593155523;1572593167570;12047;29032691592;69872811569;1290600047;282886980;9798719658;98224216;1383792761;2202;13417;1280440;11;12048;1722296
4;40;1572593167571;1572593178143;10572;28965544878;69872955493;1271026148;273811265;9798785339;98001891;1378268203;1632;13501;1478864;-113;10572;1362776
4;41;1572593178143;1572593188787;10644;28962160598;69873374130;1274465478;273994150;9798907264;97985739;1380674554;3490;9684;1124488;82;10527;1001498
4;42;1572593188787;1572593199892;11105;29033576498;69873017884;1287868067;277321608;9798809591;97926875;1380608648;2083;13561;1236464;29;11105;1583943
4;43;1572593199892;1572593211574;11682;29101848434;69824054353;1282639528;280383281;9782468188;98125016;1380093563;1963;16231;1791896;-134;11602;1451337
4;44;1572593211574;1572593222459;10885;28981911624;69804589917;1271861566;273613145;9776185804;98037526;1379122985;3387;9504;994992;119;10229;1200726
4;45;1572593222459;1572593233107;10648;28892002342;69804301316;1277783180;267203918;9776010709;97911594;1380492308;1729;13624;1283760;-1;10648;1519157
4;46;1572593233108;1572593244452;11344;29037499518;69804621060;1306570391;275539764;9776178471;98154517;1387618846;2020;14912;1622664;60;11345;1391841
4;47;1572593244452;1572593255560;11108;28996425192;69804682128;1270509698;271647556;9776209917;98044294;1377021191;2589;7709;819160;-61;11108;1656470
4;48;1572593255560;1572593266856;11296;29110812104;69804792144;1293759627;278701196;9776260684;98034070;1384921502;1846;13258;1295584;11;11295;1615132
4;49;1572593266856;1572593280209;13353;28867412000;69804715059;1263421858;267640038;9776256561;97976857;1375857267;2596;18368;1935016;-18;13354;2017590
4;50;1572593280210;1572593291274;11064;28895985806;69790165069;1270493293;270452025;9771311053;97911927;1380013225;2261;10848;1070016;12;11064;1583543
4;51;1572593291274;1572593302501;11227;28774162530;69787061105;1266440159;274846274;9770383252;97987278;1375572487;1741;15503;1489160;-14;11228;1590571
4;52;1572593302501;1572593314176;11675;28838347196;69787283361;1278386672;274392627;9770442116;98128181;1379692451;2705;13670;1464632;1;11675;1770377
4;53;1572593314176;1572593329036;14860;28770369596;69787008034;1279322251;266741034;9770374037;97913866;1380546869;2675;16843;1627056;13;14860;2128160
4;54;1572593329036;1572593340103;11067;28803368224;69787072038;1265913474;270119506;9770411333;98014500;1376790225;2024;17268;1680176;79;11067;1655892
4;55;1572593340103;1572593350234;10131;28745242704;69787115806;1284869776;263205091;9770425980;97911039;1384720110;2266;9588;1085376;-86;10131;1457369
4;56;1572593350234;1572593361468;11234;28731946630;69787183118;1263949952;267484658;9770448126;98100710;1372220894;1957;13679;1368936;-4;11234;1598629
4;57;1572593361468;1572593374612;13144;28762723284;69786977602;1278982499;262197173;9770343141;97950771;1382356985;2671;17272;1839728;-3;13144;1988205
4;58;1572593374612;1572593385661;11049;28739439058;69786845950;1263656839;264081541;9770365092;98064963;1375250805;2365;10508;1053416;4;11048;1579567
