0;15;1573770566533;1573770577280;10747;29059146500;69869570573;1350407083;273187109;9730439407;97553550;1393133742;64;19;6584;0;106;662
0;16;1573770577280;1573770587189;9909;28882990200;69868965985;1281032476;263424888;9730202820;97215991;1384749555;0;0;0;0;0;0
0;17;1573770587189;1573770597422;10233;28944051050;69869097037;1282162196;270580218;9730260389;97167358;1384163740;9;5;408;0;11;19
0;18;1573770597422;1573770608122;10700;28981395514;69869215886;1284994996;274803489;9730294624;97246365;1384829716;52;31;6840;0;85;483
0;19;1573770608122;1573770618770;10648;29070985056;69868194161;1339037569;273306631;9730152983;97525960;1392649628;9;10;592;0;11;20
0;20;1573770618770;1573770629536;10766;29065298210;69867330734;1358993034;270748458;9729929285;97599873;1392854226;32;16;5592;0;88;314
0;21;1573770629536;1573770639846;10310;29071818132;69867960906;1369743562;267589025;9730092892;97479724;1397671522;7;10;568;0;2;9
0;22;1573770639846;1573770650987;11141;29201382328;69868245945;1394739839;276872831;9730264208;97694289;1401894368;9;12;608;0;11;19
0;23;1573770650987;1573770662272;11285;29155797040;69867208117;1379611309;274589823;9730022396;97625986;1401671357;40;18;5808;0;105;461
0;24;1573770662272;1573770673101;10829;29208990826;69867276539;1405941729;274623308;9730076170;97663181;1402363061;6;11;568;0;3;9
0;25;1573770673101;1573770684412;11311;29309464084;69866220569;1429782716;278798294;9729685005;97744820;1403832229;49;35;6576;0;102;442
0;26;1573770684412;1573770695729;11317;29396916624;69865861530;1424939866;283367904;9729629203;97765561;1401533766;6;11;568;0;11;13
0;27;1573770695729;1573770706986;11257;29237342858;69866447558;1387172307;278423642;9729724434;97583712;1398185692;0;0;0;0;0;0
0;28;1573770706987;1573770718231;11244;29240576904;69865216442;1362652960;279795003;9729352051;97573287;1399694597;46;25;6264;0;86;397
0;29;1573770718231;1573770728864;10633;29136519930;69865302983;1359782561;275302682;9729352185;97475556;1398384490;8;9;568;0;3;10
0;30;1573770728864;1573770739555;10691;29194383672;69864644798;1357374341;275829512;9729264553;97486002;1391422494;0;0;0;0;0;0
0;31;1573770739556;1573770750318;10762;29111194332;69864296028;1378865026;270125739;9729099436;97576294;1397000329;53;32;6760;0;88;460
0;32;1573770750318;1573770761236;10918;29176629342;69864444850;1377627539;276258293;9729163664;97502060;1398510389;8;10;576;0;11;35
0;33;1573770761236;1573770772140;10904;29229826778;69865137566;1367435901;281131432;9729435955;97458167;1398725197;10;10;600;0;11;27
0;34;1573770772140;1573770783487;11347;29212401240;69835700227;1351360191;281692325;9719908861;97427186;1397557578;63;28;6608;0;120;751
0;35;1573770783487;1573770794397;10910;29188986928;69791071956;1363671623;272973628;9705548727;97468037;1399517331;5;8;392;0;3;5
0;36;1573770794397;1573770805969;11572;29135730654;69791121979;1370185139;271710839;9705554165;97521012;1399493361;53;32;6720;0;114;509
0;37;1573770805970;1573770816913;10943;29053614414;69789715428;1363221210;266432559;9705277192;97458126;1398810247;0;0;0;0;0;0
0;38;1573770816913;1573770827328;10415;28922374868;69789236638;1324317440;258905174;9705099223;97287967;1393857349;7;12;584;0;3;9
0;39;1573770827328;1573770838054;10726;29116624218;69789936367;1375481463;270051099;9705434106;97496336;1400133675;42;38;6368;0;83;356
0;40;1573770838054;1573770849505;11451;29348512806;69789658582;1413913343;279952398;9705301220;97658582;1404594586;7;11;576;0;3;11
0;41;1573770849505;1573770860101;10596;28994982858;69789638833;1365221036;260304293;9705284667;97477937;1401579285;0;0;0;0;0;0
0;42;1573770860101;1573770870875;10774;29116119350;69789763913;1358876072;271137691;9705344757;97480064;1400143038;43;28;6248;0;160;449
0;43;1573770870875;1573770882356;11481;29184189222;69789623078;1379746458;274075359;9705341579;97554408;1401723723;6;7;392;0;2;7
0;44;1573770882357;1573770893366;11009;29145052462;69789232572;1387701260;269484140;9705333276;97542699;1401708983;0;0;0;0;0;0
0;45;1573770893366;1573770904203;10837;29202451632;69788792913;1373202623;274627640;9705183267;97501907;1401796275;43;26;4904;0;118;510
0;46;1573770904203;1573770914763;10560;29056669026;69788803126;1365018621;269080785;9705194631;97464761;1401382851;5;12;568;0;3;8
0;47;1573770914763;1573770925416;10653;28941270334;69787747376;1329308048;262368021;9704803308;97393062;1390543327;481;40;49488;0;1930;2581
0;48;1573770925416;1573770935734;10318;29005406236;69788652924;1352313719;262619030;9705103439;97378312;1397118742;0;0;0;0;0;0
0;49;1573770935734;1573770946646;10912;29144186536;69788598802;1372981189;270750657;9705091095;97543636;1402242366;35;43;7368;0;112;379
0;50;1573770946646;1573770957839;11193;29246660578;69774245825;1385093736;276490804;9700303604;97576059;1402463592;74;10;1152;0;38;973
0;51;1573770957839;1573770968795;10956;29017759588;69771150412;1344622400;262143148;9699309481;97274025;1396983386;0;0;0;0;0;0
0;52;1573770968795;1573770979496;10701;29089850592;69771299265;1372256199;263214832;9699419284;97452015;1399452537;69;38;8976;0;114;795
0;53;1573770979496;1573770990278;10782;29185979474;69771387228;1402195131;268343670;9699425927;97499274;1401173093;9;11;600;0;2;9
0;54;1573770990278;1573771001830;11552;29227703062;69771174415;1404968824;272334859;9699368311;97622301;1404512784;0;0;0;0;0;0
0;55;1573771001830;1573771012437;10607;29071258806;69771736794;1358951646;265652984;9699572151;97460378;1400926993;37;30;6480;0;98;348
0;56;1573771012437;1573771023377;10940;29242656820;69771230939;1408267828;269788131;9699378091;97544463;1403622063;7;12;592;0;11;11
0;57;1573771023377;1573771034074;10697;29084366394;69709099253;1373369857;260112777;9678642186;97466246;1401816227;7;12;584;0;3;8
0;58;1573771034074;1573771044484;10410;28917700824;69703610403;1340242739;256798452;9676867624;97367894;1398915583;49;16;5520;0;81;515
0;59;1573771044484;1573771055489;11005;29013191102;69703388407;1351735256;258621228;9676759551;97468096;1397092746;8;11;592;0;11;13
0;60;1573771055489;1573771065899;10410;28885173484;69703246667;1325223106;254786494;9676685983;97354977;1386467182;7;11;576;0;3;7
0;61;1573771065899;1573771076867;10968;28915029024;69703638058;1348373760;253330517;9676850852;97430581;1386244563;52;20;6000;0;99;573
0;62;1573771076867;1573771087836;10969;29047067190;69703461367;1360204887;261444314;9676803657;97564263;1391046022;7;13;600;0;11;24
0;63;1573771087836;1573771098706;10870;29022692198;69703656181;1337686592;262835077;9676859474;97487259;1390710990;54;30;6408;0;110;553
0;64;1573771098706;1573771109524;10818;28995062282;69692218612;1351133583;255543333;9676881702;97401387;1394691104;8;8;424;0;3;10
1;16;1573771439278;1573771449849;10571;29154948342;69817015266;1349727072;271397639;9775819791;98822728;1392098659;63;10;5712;0;182;925
1;17;1573771449850;1573771460659;10809;28960352096;69816694893;1308918970;268430278;9775680483;98646254;1388088171;9;11;600;0;11;26
1;18;1573771460660;1573771472620;11960;29253729752;69816548384;1392139520;275535493;9775694314;99143617;1400324246;55;22;5136;0;117;618
1;19;1573771472620;1573771483496;10876;29057763880;69813598093;1352322790;268323827;9774980478;98864853;1391290001;0;0;0;0;0;0
1;20;1573771483496;1573771494757;11261;29194450102;69814161406;1376894795;274641605;9775180575;98924668;1394920872;8;11;592;0;11;21
1;21;1573771494758;1573771505344;10586;29030665258;69814179437;1335103209;269437869;9775200102;98762397;1391562381;57;30;6040;0;105;600
1;22;1573771505344;1573771515673;10329;28951588446;69813425170;1337573616;263322497;9774950721;98757471;1390495429;0;0;0;0;0;0
1;23;1573771515673;1573771526992;11319;29127774384;69813943559;1364149865;273797753;9775130104;98963840;1395803339;54;26;6688;0;125;595
1;24;1573771526992;1573771537836;10844;29040430030;69813832734;1326110772;272795438;9775128330;98717924;1388829776;7;8;408;0;3;11
1;25;1573771537836;1573771549105;11269;29227836360;69813783833;1382390975;273805841;9775155005;98919474;1395399423;7;11;584;0;2;6
1;26;1573771549105;1573771560136;11031;29200767960;69814030186;1364954649;275033842;9775212037;98908328;1394099710;49;18;5712;0;96;544
1;27;1573771560136;1573771570739;10603;29103134694;69813650660;1364005124;269959330;9775011423;98829120;1393530197;10;10;592;0;3;9
1;28;1573771570739;1573771581830;11091;29044346188;69812924729;1351577323;268889634;9774826838;98805154;1393354333;51;26;6552;0;92;488
1;29;1573771581830;1573771592485;10655;28957273686;69812612946;1309804350;266335303;9774680892;98663850;1388419180;0;0;0;0;0;0
1;30;1573771592485;1573771603518;11033;29173484210;69812095337;1363597109;274793840;9774611053;98925640;1394401715;9;9;576;0;4;16
1;31;1573771603518;1573771614407;10889;29129806704;69812768948;1336058709;274373773;9774861135;98742688;1391615217;50;29;6760;0;92;462
1;32;1573771614407;1573771625140;10733;29195342016;69812734819;1365814039;273947176;9774854068;98783838;1392628855;7;11;576;0;3;7
1;33;1573771625140;1573771635735;10595;28965047456;69812634037;1315649013;265288634;9774781281;98621297;1388483864;0;0;0;0;0;0
1;34;1573771635735;1573771645948;10213;28922360706;69784057409;1316782194;261164764;9765535826;98572816;1387545705;65;26;6376;0;103;702
1;35;1573771645948;1573771656291;10343;28990823172;69739422874;1324801388;262759061;9751230350;98586572;1389955803;6;12;576;0;11;15
1;36;1573771656291;1573771667280;10989;28946197980;69739061000;1290550852;264276442;9751120874;98416619;1385187607;0;0;0;0;0;0
1;37;1573771667281;1573771678586;11305;28983844226;69723267102;1341755947;263627445;9746166013;98691857;1392124380;48;25;6504;0;86;480
1;38;1573771678586;1573771688457;9871;28764298040;69719491828;1266356549;253043250;9744948739;98223251;1382485915;6;13;584;0;11;13
1;39;1573771688457;1573771699046;10589;29025308372;69719557905;1328489430;262786144;9745029368;98583950;1390143910;0;0;0;0;0;0
1;40;1573771699047;1573771710073;11026;29144566574;69719665069;1381604534;266827528;9745114715;98814360;1394617042;62;23;6424;0;105;647
1;41;1573771710073;1573771721527;11454;29146751902;69719623625;1373313131;266673221;9745092319;98848666;1395121594;7;13;592;0;12;19
1;42;1573771721527;1573771732180;10653;29062198630;69719702910;1353777113;262077937;9745112995;98696868;1393151015;52;23;6488;0;90;507
1;43;1573771732181;1573771743648;11467;29058327732;69659446061;1366108178;258303152;9727878665;98881176;1397655728;0;0;0;0;0;0
1;44;1573771743649;1573771754335;10686;28874077046;69639882832;1329210745;252228387;9722301730;98647720;1389990317;9;11;592;0;3;7
1;45;1573771754335;1573771764691;10356;28916093656;69639556204;1332388685;251096683;9722192057;98571432;1390628245;49;32;6744;0;98;497
1;46;1573771764692;1573771775535;10843;29009142084;69639544076;1346201262;256959754;9722195246;98649111;1392325062;0;0;0;0;0;0
1;47;1573771775535;1573771786135;10600;28981361350;69639735624;1346082579;255499691;9722271964;98674712;1393361885;8;12;592;0;3;13
1;48;1573771786135;1573771796700;10565;28924406020;69639805168;1336934016;252537838;9722322591;98649323;1392165250;53;31;5752;0;106;859
1;49;1573771796701;1573771807435;10734;29008376314;69639588483;1345152443;254820324;9722229633;98721498;1393327947;0;0;0;0;0;0
1;50;1573771807435;1573771818052;10617;29042040410;69639658189;1325509624;263078751;9722250848;98646978;1390806380;472;36;49432;0;1802;2179
1;51;1573771818052;1573771828888;10836;29080213424;69639826834;1343490153;262308389;9722319334;98654451;1393517012;15;4;592;0;47;156
1;52;1573771828888;1573771839939;11051;28935209582;69639464658;1323704166;254896325;9722235732;98651216;1388936190;11;8;584;0;3;18
1;53;1573771839939;1573771850400;10461;28870307180;69639615330;1322469352;251002267;9722298964;98601616;1390250087;45;22;6800;0;103;542
1;54;1573771850400;1573771861160;10760;28838011396;69639341606;1294689499;252643595;9722153432;98551581;1385354381;75;9;1136;0;38;1097
1;55;1573771861160;1573771872169;11009;29001690390;69639732946;1318979754;257561189;9722375901;98687142;1388693468;9;9;576;0;3;14
1;56;1573771872170;1573771882933;10763;28813286880;69639617474;1286374528;253405670;9722244616;98493419;1382683387;51;22;7184;0;111;634
1;57;1573771882937;1573771893719;10782;28955875882;69639528800;1310841390;260211797;9722258393;98571695;1389864423;7;13;600;0;11;30
1;58;1573771893720;1573771903906;10186;28872836776;69639370876;1297523191;251853470;9722193110;98547366;1386775324;17;1;576;0;24;134
1;59;1573771903906;1573771914556;10650;28817520588;69639623354;1304266290;248763015;9722311656;98550262;1387704267;41;18;6032;0;96;401
1;60;1573771914556;1573771924705;10149;28739616886;69639673786;1262798417;246638116;9722323393;98333212;1382194929;8;11;592;0;11;16
1;61;1573771924705;1573771935847;11142;29019281200;69639411403;1321913218;258990164;9722224405;98668084;1388307680;8;11;584;0;11;35
1;62;1573771935847;1573771946397;10550;28934588498;69639702735;1333639405;254468632;9722360423;98624387;1387878247;58;21;6616;0;101;578
1;63;1573771946397;1573771957275;10878;28983378632;69639504034;1352431135;255955122;9722279602;98752274;1387917499;0;0;0;0;0;0
1;64;1573771957275;1573771968002;10727;28964269422;69639609883;1320422565;256058636;9722314374;98625084;1388944501;7;13;592;0;12;19
1;65;1573771968002;1573771978793;10791;29043699408;69639596488;1333735212;259398085;9722326391;98734352;1391417505;53;26;6296;0;101;528
2;16;1573772315960;1573772326712;10752;28966118658;69432204238;1322437602;272057507;9725990452;97372687;1364936381;43;29;6296;0;86;345
2;17;1573772326712;1573772337427;10715;28844418606;69432634224;1305344087;267021991;9726192519;97380485;1365271197;8;11;592;0;11;27
2;18;1573772337427;1573772348819;11392;28900993314;69432286158;1313793404;271670146;9726127790;97460236;1366207990;34;23;4960;0;77;282
2;19;1573772348819;1573772359872;11053;28865300110;69431122005;1320757398;266008725;9725904366;97374119;1366443821;0;0;0;0;0;0
2;20;1573772359872;1573772371081;11209;29035970752;69430833001;1332124496;271326338;9725895377;97455284;1369945561;9;10;592;0;11;18
2;21;1573772371081;1573772382274;11193;28916494572;69430448320;1320481978;269087046;9725671819;97422604;1366859304;28;29;6032;0;81;195
2;22;1573772382274;1573772392591;10317;28828364884;69429737250;1289487563;267727126;9725449474;97212408;1363169711;0;0;0;0;0;0
2;23;1573772392591;1573772403302;10711;28872999858;69428384143;1304538038;268306908;9725042544;97280390;1362013551;41;35;6448;0;91;304
2;24;1573772403302;1573772414239;10937;28835398142;69429301836;1315378046;265270662;9725459901;97347433;1366962439;7;11;576;0;2;6
2;25;1573772414239;1573772425205;10966;28994216504;69428472519;1347210003;268902219;9725115798;97429500;1367038822;9;11;600;0;3;6
2;26;1573772425205;1573772435719;10514;28921580628;69429278872;1313183334;268760398;9725410219;97281695;1366118053;33;18;5648;0;89;347
2;27;1573772435719;1573772446482;10763;28983749764;69428998154;1314997407;271916386;9725238996;97318778;1366028929;9;9;576;0;11;27
2;28;1573772446482;1573772457559;11077;29038622550;69428473783;1353545858;273625507;9725166553;97458668;1368940916;9;6;416;0;3;14
2;29;1573772457559;1573772468896;11337;29061244958;69428639461;1358590336;273039897;9725234213;97494596;1369294576;29;14;5520;0;74;276
2;30;1573772468896;1573772479577;10681;29010184232;69428045675;1338719255;270665177;9725059873;97352012;1366114864;7;10;568;0;2;6
2;31;1573772479578;1573772490209;10631;28851406604;69427988426;1315577882;265951653;9725042423;97319598;1365340214;40;33;6568;0;93;220
2;32;1573772490209;1573772500564;10355;28715435782;69427831452;1269345039;261833143;9724948982;97098042;1360166481;0;0;0;0;0;0
2;33;1573772500564;1573772511279;10715;28712173704;69427744420;1277117599;262786699;9724906014;97137794;1360978908;6;12;576;0;11;22
2;34;1573772511280;1573772521899;10619;28776075276;69398596650;1305394381;260789013;9715527021;97207962;1364072803;35;32;6248;0;97;222
2;35;1573772521899;1573772531801;9902;28617623958;69354181174;1270840429;252328246;9701238021;96989400;1359534510;0;0;0;0;0;0
2;36;1573772531801;1573772543211;11410;28783806268;69354034835;1287262212;264101471;9701286011;97148043;1361966755;6;12;576;0;2;5
2;37;1573772543212;1573772553546;10334;28767132338;69338063389;1270755969;260521611;9696171077;97006714;1359954025;43;32;6464;0;97;384
2;38;1573772553547;1573772564908;11361;28791274168;69335000033;1285693807;261363262;9695285135;97134622;1361702502;6;8;400;0;10;20
2;39;1573772564908;1573772575860;10952;28819476988;69334681508;1315487848;259576466;9695194441;97183990;1366211044;0;0;0;0;0;0
2;40;1573772575860;1573772586508;10648;28775911756;69334562699;1283921299;257441027;9695158305;97099827;1362590519;34;34;6496;0;98;235
2;41;1573772586508;1573772597200;10692;28844236690;69334413631;1306650868;260164314;9695087590;97151678;1364637596;8;10;576;0;3;4
2;42;1573772597200;1573772607509;10309;28808228126;69334499296;1296009606;261603031;9695123728;97103832;1363027610;0;0;0;0;0;0
2;43;1573772607510;1573772618195;10685;28916236590;69334340830;1312775608;264992073;9695027189;97171605;1364286437;40;33;6824;0;116;266
2;44;1573772618196;1573772629426;11230;28830488454;69273763623;1326789778;259158451;9674943147;97305770;1368802418;7;11;576;0;11;23
2;45;1573772629426;1573772640375;10949;28726252484;69266234634;1304612439;252520721;9672421397;97171321;1365195368;8;7;416;0;3;12
2;46;1573772640375;1573772650901;10526;28780819692;69266286163;1297665199;252383537;9672449912;97164183;1365504183;41;16;5904;0;90;437
2;47;1573772650901;1573772661348;10447;28749063086;69266288954;1293773252;251435294;9672460108;97161447;1364995070;6;11;568;0;2;3
2;48;1573772661348;1573772672021;10673;28785754784;69266514412;1291035101;257120434;9672525040;97068203;1363708705;44;26;4720;0;101;543
2;49;1573772672021;1573772683063;11042;28847685794;69266264185;1308653029;257604946;9672448153;97231066;1367079333;0;0;0;0;0;0
2;50;1573772683063;1573772693465;10402;28688724644;69266111667;1277964858;251035488;9672306029;97106695;1361949630;6;11;568;0;2;5
2;51;1573772693465;1573772703908;10443;28730627082;69266210266;1307356549;251311416;9672407266;97133775;1365250406;56;33;6504;0;112;574
2;52;1573772703908;1573772714861;10953;28924321048;69266179162;1309062732;263808414;9672444576;97209255;1365141095;958;83;253960;0;3731;8075
2;53;1573772714862;1573772725050;10188;28693663386;69266116638;1286200966;251867385;9672409747;97113216;1363821710;9;9;576;0;3;15
2;54;1573772725050;1573772736058;11008;28790843468;69266219833;1300359523;255592752;9672474955;97189627;1365999531;8;7;416;0;2;10
2;55;1573772736059;1573772746900;10841;28864918758;69266365394;1313948886;259118486;9672517431;97233279;1368933851;64;24;7600;0;120;903
2;56;1573772746900;1573772757544;10644;28724556694;69266006270;1291351077;251208557;9672359135;97130748;1364289989;77;14;1336;0;35;1128
2;57;1573772757544;1573772767887;10343;28721951324;69266215253;1294372209;254191567;9672435312;97127724;1364117400;52;44;8200;0;136;568
2;58;1573772767887;1573772778894;11007;28808477348;69265854751;1307843273;257487353;9672340314;97220963;1365667082;7;11;576;0;3;5
2;59;1573772778895;1573772789301;10406;28834097866;69266011415;1316441359;255651528;9672408269;97126193;1365873406;0;0;0;0;0;0
2;60;1573772789301;1573772799815;10514;28806809152;69265981956;1298237811;254406409;9672391780;97148050;1365813847;33;31;6448;0;92;224
2;61;1573772799815;1573772810707;10892;28997993086;69265911210;1344931031;264102035;9672378527;97241423;1368111943;6;11;568;0;2;3
2;62;1573772810707;1573772821281;10574;28807943572;69266057070;1300007196;259889386;9672431049;97113513;1364187553;0;0;0;0;0;0
2;63;1573772821281;1573772831808;10527;28747642360;69266055989;1305559614;254108259;9672415900;97127367;1363743176;37;34;6376;0;103;318
2;64;1573772831808;1573772842618;10810;28777144726;69266130919;1321899382;249018830;9672480395;97216546;1367658378;7;11;576;0;11;23
2;65;1573772842618;1573772853281;10663;28764577484;69265931466;1301426555;254804538;9672382854;97140417;1364818132;0;0;0;0;0;0
3;15;1573773155691;1573773166501;10810;28855675060;69696853763;1306291564;268845094;9773593812;97281340;1368024976;0;0;0;0;0;0
3;16;1573773166501;1573773177267;10766;28899038082;69696498074;1320986124;269233442;9773528813;97381756;1370443434;48;24;5280;0;126;1047
3;17;1573773177267;1573773188163;10896;28873716718;69696702496;1311390071;267998858;9773615637;97297525;1369903833;10;8;584;0;11;24
3;18;1573773188163;1573773199127;10964;28859111608;69696589227;1303786193;268353583;9773586302;97360000;1367745062;45;25;6552;0;89;378
3;19;1573773199128;1573773210573;11445;29080645730;69695494385;1355970771;277094704;9773461133;97469755;1373039527;0;0;0;0;0;0
3;20;1573773210573;1573773221508;10935;28981231994;69695374240;1332534692;271728401;9773433490;97361809;1369696779;8;11;592;0;11;24
3;21;1573773221508;1573773232246;10738;29014770676;69694836204;1316229691;273469266;9773221511;97305863;1369170723;33;33;6168;0;90;248
3;22;1573773232246;1573773243235;10989;29010203504;69694253940;1321028430;276396372;9773054635;97329185;1369262361;0;0;0;0;0;0
3;23;1573773243236;1573773254622;11386;29115793040;69693551708;1351624893;277793027;9772952554;97462836;1372310878;62;18;6576;0;113;676
3;24;1573773254622;1573773265342;10720;29035212282;69693495593;1349433277;273503461;9772908788;97300300;1369642777;7;12;584;0;3;3
3;25;1573773265342;1573773276312;10970;29064219270;69693505719;1337548588;277046058;9772901567;97328828;1369894526;7;12;592;0;3;4
3;26;1573773276312;1573773287051;10739;29147587460;69694107092;1335192812;279745376;9773108795;97219948;1368133379;43;22;6288;0;105;517
3;27;1573773287051;1573773298120;11069;28917720534;69693313868;1322913360;268982950;9772819246;97319836;1369929220;11;8;584;0;3;25
3;28;1573773298120;1573773308780;10660;28821868030;69692796580;1312415728;264530484;9772685710;97205476;1367063235;51;24;6424;0;85;494
3;29;1573773308780;1573773319605;10825;28869085598;69693520349;1309416329;266295602;9772894482;97248884;1366629997;0;0;0;0;0;0
3;30;1573773319605;1573773330567;10962;28797281192;69692515373;1293091740;266165271;9772630728;97094022;1363831428;7;13;592;0;11;31
3;31;1573773330567;1573773341580;11013;29119674304;69692400271;1340596009;280085460;9772591001;97310225;1371175298;50;22;6432;0;94;486
3;32;1573773341581;1573773352492;10911;28943557862;69692548914;1330380967;269482892;9772677729;97269397;1368599930;8;11;584;0;3;17
3;33;1573773352492;1573773363057;10565;28841197700;69692440616;1305786321;265875493;9772604229;97153254;1367301108;0;0;0;0;0;0
3;34;1573773363057;1573773373905;10848;28943364266;69664156476;1320517923;267316940;9763521644;97289970;1368368407;65;25;6496;0;105;678
3;35;1573773373905;1573773384244;10339;28783008378;69619543642;1244825403;261358387;9749087902;96765486;1358242393;8;11;584;0;3;7
3;36;1573773384244;1573773394621;10377;28654697592;69573201112;1221837295;250251556;9733565044;96770968;1357267344;0;0;0;0;0;0
3;37;1573773394622;1573773405169;10547;28882468396;69550054980;1305312752;254715144;9726147732;97116183;1366624268;50;35;6912;0;90;490
3;38;1573773405169;1573773415506;10337;28878824820;69549916008;1319607522;253633158;9726124829;97153113;1368838886;6;12;576;0;3;10
3;39;1573773415506;1573773426646;11140;28961954884;69549943251;1317744434;257333394;9726136861;97237692;1367767497;0;0;0;0;0;0
3;40;1573773426646;1573773437544;10898;28974698786;69549969109;1321873653;259598805;9726149206;97232469;1369594184;32;31;6120;0;90;196
3;41;1573773437544;1573773448446;10902;28939732808;69550142199;1321384544;257826812;9726233992;97211532;1368994184;6;13;584;0;11;12
3;42;1573773448446;1573773459257;10811;28915756980;69550001437;1306628620;257782922;9726143889;97154809;1367643494;39;31;6240;0;92;321
3;43;1573773459258;1573773469760;10502;28733373926;69549745855;1277733672;250571742;9726033773;97069642;1364925135;0;0;0;0;0;0
3;44;1573773469760;1573773480697;10937;28964088236;69549118944;1323284371;257031708;9726045803;97287639;1372173758;8;11;584;0;3;17
3;45;1573773480697;1573773491713;11016;29020142746;69548890698;1315334854;263667436;9725957972;97140524;1366818702;38;30;5336;0;97;380
3;46;1573773491714;1573773502582;10868;29006559198;69548994204;1312432216;262950815;9725995644;97098678;1367431163;0;0;0;0;0;0
3;47;1573773502582;1573773513568;10986;29034464616;69548831684;1324607408;262025635;9725914453;97121412;1368907527;10;5;408;0;3;17
3;48;1573773513568;1573773525192;11624;29094751812;69549227365;1370829357;262868800;9726110316;97328770;1372773491;54;27;6616;0;111;569
3;49;1573773525192;1573773535976;10784;29003468816;69548893808;1330906514;258131379;9725953747;97173802;1368967907;11;8;584;0;4;27
3;50;1573773535977;1573773546290;10313;28821341846;69534569302;1297876581;249912242;9721129408;97050799;1365333952;55;16;6768;1;204;507
3;51;1573773546290;1573773556852;10562;28796219918;69531582987;1275064511;252848987;9720246296;96957397;1362450393;453;18;85832;-1;1910;2508
3;52;1573773556852;1573773567846;10994;28970405364;69531506729;1325955277;258973889;9720216467;97161483;1369436151;8;11;584;0;3;4
3;53;1573773567846;1573773579236;11390;28941859006;69531576131;1323563444;256747942;9720261641;97278924;1370106582;0;0;0;0;0;0
3;54;1573773579236;1573773590506;11270;29012190710;69531754126;1351369798;255505232;9720315226;97339206;1369895323;136;36;9152;0;185;1897
3;55;1573773590507;1573773601698;11191;28998791268;69531615842;1323792774;258842952;9720285337;97199765;1368194204;6;12;576;0;3;10
3;56;1573773601699;1573773612644;10945;29040974756;69531402318;1327849717;261088327;9720175855;97177811;1370385725;52;37;7912;0;93;500
3;57;1573773612644;1573773623581;10937;28871095434;69531520286;1312355856;257545513;9720224830;97185203;1371338594;0;0;0;0;0;0
3;58;1573773623582;1573773634047;10465;28610432874;69531150013;1235511400;252653175;9720099046;96732642;1361187922;5;8;392;0;2;4
3;59;1573773634047;1573773644727;10680;28779139962;69531296637;1309181803;252556317;9720205800;97120254;1368027168;33;31;6176;0;104;201
3;60;1573773644727;1573773654754;10027;28666233198;69531306109;1289464923;246907061;9720203746;97096207;1364217154;0;0;0;0;0;0
3;61;1573773654754;1573773665264;10510;28752902448;69531168044;1290802956;254496882;9720131296;97049589;1366714643;6;13;584;0;12;17
3;62;1573773665264;1573773676194;10930;28766876108;69531108624;1319327037;252849053;9720108516;97088829;1368116993;44;35;6616;0;96;401
3;63;1573773676194;1573773686932;10738;28889252286;69531280615;1324227804;255055440;9720185706;97171130;1367906243;0;0;0;0;0;0
3;64;1573773686932;1573773698038;11106;28914272598;69531408489;1329435388;261079110;9720254826;97173489;1369878460;7;13;592;0;11;16
4;16;1573774025153;1573774035655;10502;28805229724;69439924130;1274006251;266762163;9753974199;98587277;1376098145;43;25;6528;0;97;417
4;17;1573774035655;1573774046223;10568;28907048956;69440240856;1322563501;267444770;9754149739;98969975;1384394758;8;11;592;0;12;30
4;18;1573774046223;1573774057384;11161;28903714900;69439439842;1330200336;267613043;9753853949;99032833;1384219955;33;35;5080;0;88;290
4;19;1573774057384;1573774068434;11050;29027338356;69437812904;1357312703;269843590;9753616216;99073290;1387526426;0;0;0;0;0;0
4;20;1573774068435;1573774079467;11032;29008847018;69437661770;1357117602;271287575;9753670964;99134948;1386876893;9;10;592;0;11;21
4;21;1573774079467;1573774090110;10643;28938349312;69437588206;1341498791;269020814;9753631207;98977905;1385176586;52;28;6488;0;118;560
4;22;1573774090110;1573774100885;10775;28854934694;69437554895;1318864936;264780252;9753523403;98857802;1381806995;0;0;0;0;0;0
4;23;1573774100885;1573774111774;10889;28952144122;69437379352;1350461826;266743364;9753574638;98994363;1385034519;91;17;6960;0;198;1467
4;24;1573774111774;1573774123387;11613;29218207076;69437109047;1380479710;278522359;9753531859;99169874;1387884322;8;11;584;0;3;13
4;25;1573774123387;1573774134448;11061;29044433642;69436977047;1351484969;274366062;9753431448;99044009;1385696232;8;11;592;0;3;8
4;26;1573774134448;1573774145330;10882;28918126706;69436602077;1326735461;270537656;9753278851;98992411;1384135510;72;12;6704;0;191;1102
4;27;1573774145330;1573774156313;10983;29013798024;69436966029;1349098247;269986811;9753447991;99004228;1386150973;8;11;584;0;3;8
4;28;1573774156313;1573774166400;10087;28863963918;69436144019;1300397888;264343993;9753154230;98745662;1380172607;7;11;584;0;3;11
4;29;1573774166400;1573774176132;9732;28815141518;69435786246;1245124194;268482416;9752938726;98439659;1373346858;81;4;6160;0;160;1338
4;30;1573774176132;1573774187005;10873;29019648828;69436277312;1334737616;274297498;9753308680;98863419;1383723076;9;6;408;0;3;13
4;31;1573774187005;1573774198460;11455;29149895720;69435995414;1367202291;277538930;9753182777;99183404;1389639269;110;25;7448;0;180;2211
4;32;1573774198460;1573774209176;10716;28942469286;69435934893;1340775666;266024668;9753141566;98924931;1384405593;0;0;0;0;0;0
4;33;1573774209177;1573774219488;10311;28852932888;69435950721;1297847379;263042202;9753125976;98613753;1378257618;8;11;584;0;3;9
4;34;1573774219488;1573774230141;10653;28813784886;69406515354;1302736658;263391863;9743599808;98745281;1379850103;106;21;7680;0;204;1946
4;35;1573774230141;1573774241106;10965;28906136894;69362376972;1344316716;266420233;9729505361;99038395;1388026610;8;11;584;0;3;7
4;36;1573774241106;1573774252237;11131;28714865360;69316515514;1290805096;257232808;9714169266;98652413;1378399038;0;0;0;0;0;0
4;37;1573774252239;1573774264036;11797;28989539686;69293075931;1359882552;266844588;9706664572;99081117;1387876469;111;24;7464;0;174;2335
4;38;1573774264036;1573774274240;10204;28714157844;69292575305;1268781681;253908082;9706475438;98484802;1377318383;7;11;576;0;3;4
4;39;1573774274240;1573774284777;10537;28848132408;69292625754;1308852828;257253228;9706527522;98772571;1382631647;0;0;0;0;0;0
4;40;1573774284778;1573774295970;11192;28958715290;69292619827;1344539422;263531761;9706536554;98990533;1386288037;95;18;7208;0;159;1507
4;41;1573774295970;1573774305564;9594;28706759878;69292561224;1268231027;251872381;9706456103;98450316;1375126711;7;11;576;0;3;3
4;42;1573774305564;1573774316487;10923;28968803890;69292596826;1344951567;261953842;9706520337;98872653;1384821205;0;0;0;0;0;0
4;43;1573774316487;1573774327260;10773;28820609510;69292708968;1317262687;254516865;9706540893;98847505;1383773384;119;22;7464;0;176;2576
4;44;1573774327260;1573774338243;10983;28873944624;69292097571;1335438035;259884943;9706458669;98966523;1386557738;5;8;392;0;2;4
4;45;1573774338243;1573774348921;10678;28701021786;69292250563;1300253465;254070961;9706467553;98703961;1381680403;85;27;7008;0;187;1344
4;46;1573774348921;1573774359791;10870;28822756440;69292205041;1328668431;256369821;9706495306;98841087;1384181837;0;0;0;0;0;0
4;47;1573774359791;1573774370061;10270;28723469140;69292061517;1304881214;251332959;9706404748;98642535;1380416215;7;12;584;0;11;13
4;48;1573774370061;1573774381100;11039;28938477938;69292161576;1347451844;261788722;9706478303;98865227;1385434074;84;15;5344;0;177;1926
4;49;1573774381100;1573774392131;11031;28961033916;69292111394;1345035460;262957138;9706460236;98975540;1386032320;0;0;0;0;0;0
4;50;1573774392132;1573774403339;11207;29004139248;69277992916;1341524172;265331687;9701780360;98903913;1385175536;8;11;584;0;3;7
4;51;1573774403339;1573774414027;10688;28891710196;69274524390;1318750849;259274396;9700625831;98845693;1384654346;521;27;49952;0;1914;3464
4;52;1573774414027;1573774424835;10808;28829070210;69274583852;1332251083;252102836;9700671588;98963130;1384953052;0;0;0;0;0;0
4;53;1573774424835;1573774435753;10918;28776153678;69274772325;1303289346;253074950;9700742325;98799038;1383810531;134;21;8160;0;243;3846
4;54;1573774435753;1573774446736;10983;28853836628;69274650867;1330928401;258441473;9700697936;98958282;1383138159;80;11;1336;0;40;1171
4;55;1573774446736;1573774457007;10271;28787961720;69274350202;1300998487;257890906;9700521637;98745613;1383536692;7;7;400;0;2;9
4;56;1573774457007;1573774467668;10661;28884006068;69274278049;1317963701;260571740;9700502697;98856242;1382783748;105;14;7824;0;178;2349
4;57;1573774467669;1573774477870;10201;28627941924;69274449684;1275983735;247328490;9700544265;98480225;1378269508;7;12;592;0;12;30
4;58;1573774477870;1573774488835;10965;28851322508;69274437498;1320610021;255493735;9700656536;98862563;1384573075;8;11;584;0;3;9
4;59;1573774488835;1573774499387;10552;28798803826;69274441935;1306267956;254605508;9700645587;98722657;1381804425;83;12;5968;0;179;1423
4;60;1573774499388;1573774509498;10110;28696645728;69274222355;1277728149;252371199;9700520739;98559439;1377926292;8;11;592;0;3;5
4;61;1573774509498;1573774520580;11082;28833206244;69274313276;1295371926;261768191;9700581286;98709157;1380794718;8;10;576;0;3;10
4;62;1573774520580;1573774531108;10528;28804184802;69274510426;1309025482;256624593;9700686364;98815349;1384088425;79;6;6288;0;130;1257
4;63;1573774531108;1573774542005;10897;28764890946;69274457497;1318150355;251780874;9700641541;98869526;1384193797;7;12;592;0;11;33
4;64;1573774542005;1573774553306;11301;28862452526;69263126724;1338160696;254928380;9700680936;98934316;1385000667;7;7;400;0;2;10
4;65;1573774553306;1573774564500;11194;28825995012;69262837727;1321007262;254934775;9700615206;98883681;1385084978;79;23;6688;0;169;1086
