0;60;1572681840488;1572681847403;6915;18500890196;64068043714;1344123574;921984585;13367723879;23246432;672255223;713;37;1034576;4;4166;44968
0;61;1572681847403;1572681853178;5775;18498780642;64068029048;1352134129;927965886;13367717761;23220906;671822027;378;0;781440;-5;2647;8325
0;62;1572681853178;1572681859050;5872;18508371966;64068030328;1345667595;919628475;13367719041;23243536;672044861;461;13;931256;0;3096;10940
0;63;1572681859050;1572681865153;6103;18487593976;64068041274;1341331315;921961467;13367729987;23241972;673509127;440;0;908160;0;2897;10142
0;64;1572681865153;1572681871404;6251;18516709880;64068034711;1339377006;921819049;13367714887;23235757;671217261;455;0;941224;0;3102;11388
0;65;1572681871404;1572681877276;5872;18446058874;64068031686;1347304064;924186906;13367720399;23240386;672245747;644;48;947720;0;3887;43114
0;66;1572681877276;1572681883264;5988;18575333552;64068036069;1349517022;928493422;13367722112;23219559;672453632;461;0;950856;5;3169;9660
0;67;1572681883264;1572681889276;6012;18532316550;64068044195;1348814866;919606057;13367732908;23261860;674049221;443;13;889192;-5;3003;10500
0;68;1572681889276;1572681895253;5977;18469731752;64068028129;1341109254;930153707;13367716842;23230060;671891461;425;0;876480;5;2846;9848
0;69;1572681895253;1572681901211;5958;18538123700;64068029117;1340777050;917840811;13367717830;23232108;671957010;465;0;949416;-4;3082;11630
0;70;1572681901212;1572681908048;6836;18409071526;64068044735;1340263830;932514875;13367725641;23241938;672772916;661;45;1022400;-1;3937;35546
0;71;1572681908048;1572681913780;5732;18463462950;64068026813;1338928284;931066229;13367715526;23218041;671675309;413;1;846176;0;2840;8837
0;72;1572681913780;1572681919585;5805;18451744844;64068030345;1345285849;923610079;13367719058;23231414;672103371;409;5;815080;0;2688;9227
0;73;1572681919586;1572681925592;6006;18558365432;64068035661;1343122219;935823784;13367720629;23224331;672286931;412;0;855352;0;2775;9856
0;74;1572681925592;1572681931629;6037;18509456600;64068037219;1347028019;923490969;13367725932;23247943;673080330;410;0;835624;5;2774;10183
0;75;1572681931629;1572681937605;5976;18481434382;64068033553;1343690425;923994456;13367722266;23229725;672620573;600;43;890064;-3;3375;29048
0;76;1572681937605;1572681943848;6243;18568328472;64068032716;1343032882;921841305;13367722015;23250663;672515174;479;0;976808;-2;3303;9743
0;77;1572681943848;1572681949955;6107;18470770542;64068049660;1351700973;923825771;13367738373;23262234;674726480;437;3;871072;3;2905;10356
0;78;1572681949956;1572681955736;5780;18545999816;64068021357;1338344911;928614078;13367710070;23204922;670935426;425;0;862744;2;2803;10258
0;79;1572681955736;1572681962094;6358;18585735906;64068051400;1353484775;927298869;13367740113;23267744;675000182;486;0;994024;-5;3206;11816
0;80;1572681962094;1572681968256;6162;18405572344;64068024450;1339658522;927847616;13367713163;23223185;671352298;591;44;897968;3;3322;21340
0;81;1572681968256;1572681974322;6066;18498307748;64068033946;1338685863;916130824;13367718914;23238794;671859365;437;0;884312;-3;2948;8859
0;82;1572681974322;1572681980414;6092;18480252804;64068029595;1344774301;929866587;13367718308;23248785;671970883;874;52;888848;6;5552;47606
0;83;1572681980414;1572681986107;5693;18510021328;64068023067;1338295605;924414195;13367711780;23226339;671245622;476;7;850920;0;3612;24586
0;84;1572681986107;1572681992078;5971;18406726036;64068033054;1339190373;915006218;13367721767;23227668;672361799;463;0;929744;-1;2994;11032
0;85;1572681992078;1572681997832;5754;18587356360;64068024245;1352696243;927898169;13367712958;23207610;671200623;429;7;825408;-5;2739;10109
0;86;1572681997832;1572682003692;5860;18400426866;64068031792;1342242287;919290183;13367720505;23238090;672409063;449;0;898984;0;2887;11018
0;87;1572682003692;1572682009659;5967;18523599766;64068028499;1347686332;930722942;13367717212;23228298;672003558;570;44;894032;5;3362;22250
0;88;1572682009659;1572682015582;5923;18542456396;64068038398;1347337314;924362654;13367723855;23238501;672670260;483;11;826216;-5;3116;13670
0;89;1572682015582;1572682021374;5792;18500335688;64068022724;1347313056;935031184;13367712023;23218160;671228600;392;0;792000;5;2607;8849
0;90;1572682021374;1572682027645;6271;18612945780;64068035082;1342281430;917834118;13367723795;23249941;672796938;502;8;960720;-4;3156;11648
0;91;1572682027645;1572682033459;5814;18433216714;64068024419;1347293467;922330568;13367713132;23222935;671357588;411;0;828608;3;2686;10255
0;92;1572682033460;1572682039376;5916;18500128076;64068025783;1344392716;928631083;13367714496;23216900;671497634;539;48;859640;-4;3191;20149
0;93;1572682039376;1572682045154;5778;18416838726;64068026582;1339048187;914826024;13367715295;23230967;671589303;469;8;907320;1;3110;9680
0;94;1572682045154;1572682051260;6106;18610882946;64068039689;1342638404;926595973;13367728402;23241758;673481464;464;0;919176;0;3070;10384
0;95;1572682051260;1572682057329;6069;18464546708;64068035904;1344520087;918994278;13367720872;23244720;672182198;492;7;944384;4;3105;11509
0;96;1572682057329;1572682063539;6210;18508030910;64068040100;1343860821;931646135;13367728813;23249349;673373231;446;0;884672;-4;2889;10883
0;97;1572682063539;1572682069244;5705;18454285390;64068022335;1338874801;911045820;13367711048;23216265;670959749;540;48;893624;0;3084;15227
0;98;1572682069244;1572682075275;6031;18473911586;64068035736;1342795940;924811947;13367724449;23240289;672788991;443;8;858296;5;2990;9245
0;99;1572682075275;1572682081500;6225;18551552634;64068052752;1342859210;918418530;13367741465;23252382;674995669;452;0;888424;-6;3025;10226
0;100;1572682081500;1572682087447;5947;18396486326;64068037561;1344132615;917949571;13367726274;23239098;672906443;455;4;857368;0;2850;11437
0;101;1572682087447;1572682093687;6240;18433629456;64068034414;1342482917;933466846;13367723127;23230488;672549572;473;0;950392;0;3080;11659
0;102;1572682093687;1572682099485;5798;18410961058;64068028455;1339628375;912224972;13367713423;23217404;671299344;446;1;851880;1;2778;10632
0;103;1572682099485;1572682105425;5940;18409675090;64068020843;1342734175;928542217;13367710142;23222040;671011101;538;54;868592;3;3195;13346
0;104;1572682105425;1572682111373;5948;18548809586;64068026883;1338321109;922228578;13367715596;23213730;671731466;460;0;896568;1;3143;10870
0;105;1572682111373;1572682117228;5855;18383601972;64068031282;1345588460;919359269;13367719995;23229160;672287887;426;0;838800;-2;2869;10539
0;106;1572682117228;1572682123060;5832;18595247952;64068036238;1340497648;926063181;13367724951;23226886;672959183;485;6;913800;-2;3040;12079
0;107;1572682123060;1572682129280;6220;18517159268;64068053039;1346710798;920428468;13367741752;23277911;675159605;459;0;910992;5;2919;11356
0;108;1572682129280;1572682135128;5848;18501531574;64068027393;1342318045;925293966;13367716106;23219206;671791616;544;66;841432;-6;3336;26182
0;109;1572682135128;1572682141117;5989;18472110968;64068032268;1346821865;919144799;13367718311;23234587;671914320;486;0;941224;0;3214;10802
1;60;1572682663316;1572682669342;6026;18457676094;64063193277;1344919613;924141175;13367721990;23363739;672497445;423;0;877856;5;2862;10246
1;61;1572682669343;1572682680225;10882;18533040126;64063207619;1347293544;938277490;13367728175;23399220;672715646;939;36;1581008;-5;5727;32649
1;62;1572682680225;1572682686389;6164;18434090816;64063201676;1344573298;920498568;13367730389;23373749;673621638;437;0;908616;0;2984;10009
1;63;1572682686389;1572682692490;6101;18570446786;64063182437;1347082230;931708642;13367711150;23346963;671077791;460;3;920240;5;3031;11311
1;64;1572682692490;1572682698276;5786;18551364148;64063192488;1346112820;925521395;13367721201;23349675;672387658;422;0;864936;-4;2796;10107
1;65;1572682698276;1572682709273;10997;18429547880;64063198220;1343596006;939744419;13367718396;23393631;671732548;1000;45;1719608;4;6132;37953
1;66;1572682709273;1572682715254;5981;18454680320;64063200966;1344694018;917779584;13367727009;23369670;673052915;448;0;920104;-5;3191;11294
1;67;1572682715254;1572682721159;5905;18527130338;64063189874;1344791788;928621845;13367718587;23352818;672135462;423;12;853792;1;3017;10838
1;68;1572682721159;1572682727009;5850;18477373392;64063185879;1341329439;924503823;13367714592;23349958;671379259;431;0;880232;-1;3101;11635
1;69;1572682727009;1572682732995;5986;18483363772;64063199552;1345369611;924238866;13367728265;23360868;673237309;423;0;867296;0;2765;10237
1;70;1572682732995;1572682738940;5945;18499900754;64063188061;1347792136;936608158;13367716774;23360110;671892149;593;42;862040;0;3509;36802
1;71;1572682738940;1572682744932;5992;18540496346;64063192114;1350953243;930406636;13367720827;23357187;672311590;455;0;930656;0;3109;9806
1;72;1572682744932;1572682753260;8328;18500806830;64063214840;1351074857;942355399;13367735291;23378248;673780020;633;8;1279720;0;4341;15624
1;73;1572682753260;1572682760091;6831;18469908704;64063202905;1348188924;938031757;13367723111;23363464;672512142;479;0;983008;5;3252;12147
1;74;1572682760091;1572682765933;5842;18486496202;64063184474;1350793071;931048018;13367713773;23342281;671299432;638;23;854920;-2;3327;44504
1;75;1572682765933;1572682771852;5919;18507553490;64063188982;1342868677;919093141;13367717695;23357975;671989188;449;0;916008;-3;3180;9536
1;76;1572682771852;1572682777701;5849;18454071646;64063189249;1340735422;927179447;13367717962;23349002;671855180;416;0;863552;1;2854;9164
1;77;1572682777701;1572682783799;6098;18540779878;64063184239;1342354447;926596886;13367712952;23357551;671393469;454;9;899592;0;3026;11729
1;78;1572682783799;1572682789539;5740;18442177756;64063185071;1342916058;915247898;13367713784;23341148;671249380;427;0;869672;-1;2851;10180
1;79;1572682789539;1572682795419;5880;18525776918;64063195935;1342720525;928595273;13367724648;23356789;672935309;444;5;887616;0;2827;10869
1;80;1572682795419;1572682801486;6067;18543155152;64063194815;1346045612;925984608;13367723528;23359464;672774847;686;38;934984;2;4152;76430
1;81;1572682801486;1572682807407;5921;18461130016;64063188207;1340910645;916613306;13367713175;23348763;671211729;457;0;924008;3;3095;10186
1;82;1572682807407;1572682813451;6044;18567708848;64063197950;1346535333;937101358;13367726663;23357803;673159459;461;10;908968;0;2953;10447
1;83;1572682813451;1572682819264;5813;18452322858;64063188910;1343394370;927564645;13367717623;23353850;671931113;447;0;909544;-5;2955;10630
1;84;1572682819265;1572682825227;5962;18447783426;64063192524;1336882401;921365355;13367721237;23360464;672414782;692;44;846360;52;4199;129919
1;85;1572682825227;1572682831476;6249;18562861064;64063189493;1348268795;938617535;13367718206;23356104;672025460;798;6;1000248;-1;6250;427806
1;86;1572682831476;1572682837313;5837;18471984678;64063182431;1338685819;922887939;13367711144;23344304;671044010;495;0;1004584;-51;3902;59042
1;87;1572682837313;1572682843495;6182;18486289758;64063200979;1339791079;920171729;13367729692;23366652;673485200;495;7;972584;0;3155;11513
1;88;1572682843495;1572682849473;5978;18572167834;64063194694;1337715239;923335185;13367720247;23349089;672103517;422;0;856280;0;2796;10323
1;89;1572682849473;1572682855626;6153;18524755356;64063204840;1343303450;919614715;13367733553;23373292;674027653;458;0;920104;5;2986;11206
1;90;1572682855626;1572682861536;5910;18536081306;64063195936;1343824352;921619187;13367724649;23361956;672852911;665;55;800656;-5;3379;43675
1;91;1572682861536;1572682867388;5852;18529978360;64063183202;1338159000;921951547;13367711915;23352688;671055333;440;0;877864;5;3042;10127
1;92;1572682867388;1572682873159;5771;18442823368;64063187840;1342605512;922217740;13367716553;23347304;671661915;436;8;836368;-5;2705;9529
1;93;1572682873159;1572682878964;5805;18466161760;64063183073;1353009467;940024913;13367711786;23342462;671058066;423;0;855360;5;2778;9965
1;94;1572682878964;1572682885015;6051;18461087822;64063182048;1341545001;924257150;13367710761;23345713;670885689;458;0;909544;-5;2934;11259
1;95;1572682885015;1572682890992;5977;18403248170;64063192376;1341759898;925402878;13367717833;23351430;671675821;678;50;973168;0;3986;59310
1;96;1572682890992;1572682896705;5713;18459193764;64063185794;1342962022;927739594;13367714507;23343749;671393135;400;0;800648;1;2737;8536
1;97;1572682896705;1572682902543;5838;18571029326;64063189890;1347350832;915887885;13367718603;23352117;671938371;439;8;849160;4;2928;10241
1;98;1572682902543;1572682908431;5888;18453262222;64063197608;1343782761;925416717;13367726321;23356188;672960830;420;0;845264;0;2741;10150
1;99;1572682908431;1572682914218;5787;18519797780;64063186055;1343659544;928333057;13367714768;23344538;671453680;433;0;864464;-4;2775;10532
1;100;1572682914218;1572682920165;5947;18423201260;64063195726;1342251712;918431853;13367724439;23363564;672718942;682;28;943616;2;3547;41395
1;101;1572682920166;1572682925941;5775;18454527458;64063191206;1342574932;926671830;13367719919;23360388;672169368;419;0;840704;-3;2904;8899
1;102;1572682925941;1572682931644;5703;18499077314;64063185182;1348910767;928875831;13367711225;23347547;670970857;433;0;856736;6;2848;9814
1;103;1572682931644;1572682937314;5670;18380711756;64063186002;1343459115;915570197;13367714715;23340387;671495213;439;10;857344;0;2848;10641
1;104;1572682937314;1572682943632;6318;18590186570;64063193882;1346730001;932819820;13367722595;23359375;672625123;483;0;960960;-1;3083;11438
1;105;1572682943632;1572682949332;5700;18443162380;64063183306;1343265305;922382227;13367712019;23343660;671142038;574;51;850904;12;2943;18647
1;106;1572682949332;1572682955357;6025;18471629022;64063196202;1349065000;928882643;13367724915;23362523;672874124;461;0;898080;-17;3364;18830
1;107;1572682955357;1572682961255;5898;18494040606;64063187509;1343902806;932572449;13367716222;23347384;671710019;444;0;881496;3;2982;9981
1;108;1572682961255;1572682966976;5721;18478540516;64063183941;1347557258;927850783;13367712654;23352863;671200699;460;10;884920;2;2923;10899
1;109;1572682966977;1572682972940;5963;18383977192;64063188734;1342137662;926453903;13367714777;23344472;671500872;458;0;905792;-4;2961;11033
2;60;1572683500195;1572683508622;8427;18562268742;64063205555;1348249302;937098527;13367723512;23662686;672445821;764;57;1284736;-4;4822;32476
2;61;1572683508622;1572683514571;5949;18478425760;64063192555;1350677323;917433686;13367719069;23656579;672156414;405;0;842080;2;2856;8924
2;62;1572683514571;1572683520292;5721;18521108422;64063191258;1344228190;937582777;13367717772;23661680;671945183;393;8;809448;2;2829;9880
2;63;1572683520292;1572683526555;6263;18598852400;64063190418;1340194780;922557482;13367716932;23660422;671783588;480;0;998120;-2;3257;11621
2;64;1572683526555;1572683532531;5976;18520475512;64063190120;1339091636;919191924;13367716634;23656575;671810868;419;0;873312;2;2878;10367
2;65;1572683532532;1572683538418;5886;18557274520;64063187536;1345078798;934001660;13367714050;23652915;671452611;537;64;873856;-5;3478;25183
2;66;1572683538418;1572683544367;5949;18608316558;64063189161;1343971923;920430375;13367713005;23650308;671220701;445;0;920104;0;3075;9371
2;67;1572683544367;1572683550432;6065;18543092810;64063195655;1345444035;922900987;13367722169;23662628;672648313;451;0;930664;0;3096;10540
2;68;1572683550432;1572683556294;5862;18609151678;64063189111;1341447674;933687605;13367715625;23648797;671611181;421;8;843208;1;2807;10114
2;69;1572683556295;1572683562375;6080;18559249900;64063197178;1344684905;923116929;13367723692;23664776;672702865;437;0;901344;-1;2994;10881
2;70;1572683562375;1572683572378;10003;18535929612;64063203587;1344370549;937038686;13367721564;23667573;672187496;823;62;1478480;0;5291;26843
2;71;1572683572378;1572683578647;6269;18535746528;64063198588;1354568080;937584391;13367725102;23668465;673070390;465;0;951776;0;3247;10631
2;72;1572683578647;1572683584415;5768;18515819864;64063191158;1353121330;933055455;13367717672;23656272;671856297;425;11;856416;0;2826;9986
2;73;1572683584415;1572683594612;10197;18570251876;64063206334;1347841238;939588719;13367723881;23661714;672180951;722;0;1480704;0;4764;17405
2;74;1572683594613;1572683600483;5870;18527717988;64063188323;1345094860;933990147;13367715423;23653757;671584305;532;57;859944;0;3375;27594
2;75;1572683600483;1572683606292;5809;18588052780;64063191012;1339462125;918560453;13367717526;23658109;671968831;393;0;803944;0;2699;8476
2;76;1572683606292;1572683612495;6203;18550178190;64063195673;1344544641;921934099;13367722187;23663311;672434598;478;9;952392;5;3215;11700
2;77;1572683612495;1572683618472;5977;18533470242;64063194173;1346616845;939011774;13367720687;23660156;672437555;475;0;982080;-5;3120;11297
2;78;1572683618472;1572683624461;5989;18564383552;64063195537;1350680668;934348904;13367722051;23662975;672472184;447;0;909544;0;2937;10709
2;79;1572683624462;1572683630535;6073;18566982060;64063197377;1344004942;925292068;13367723891;23664682;672796841;614;45;936104;0;3772;38494
2;80;1572683630535;1572683636554;6019;18430114798;64063184159;1345349622;937809021;13367710673;23651379;671070757;442;0;904256;2;3045;9076
2;81;1572683636554;1572683642265;5711;18631240018;64063190472;1339771603;918525427;13367713241;23657319;671255046;409;0;826600;-1;2708;9490
2;82;1572683642265;1572683648280;6015;18519267070;64063186863;1337790676;920157764;13367713377;23652010;671380810;482;2;933656;-1;3055;11813
2;83;1572683648280;1572683654362;6082;18556405382;64063194370;1345117113;928399379;13367720884;23659978;672385545;440;0;897600;5;2976;10901
2;84;1572683654362;1572683660365;6003;18662677468;64063187986;1350013974;934210420;13367714500;23655625;671498043;581;56;909328;-2;3383;25956
2;85;1572683660365;1572683666249;5884;18505104048;64063185651;1341697958;921126282;13367712165;23649943;671182990;517;44;820624;23;3063;19945
2;86;1572683666249;1572683672218;5969;18547378786;64063201805;1343805532;932471282;13367728319;23677905;673434812;821;0;954248;2;5970;151027
2;87;1572683672218;1572683678130;5912;18575917114;64063191442;1341453893;927305768;13367717956;23659966;671998902;525;18;934336;-23;3862;44417
2;88;1572683678130;1572683684068;5938;18525864226;64063193218;1342387262;922784104;13367717062;23656312;671721031;425;0;854376;-4;2810;10354
2;89;1572683684068;1572683690063;5995;18537229888;64063190560;1345275538;930478742;13367717074;23653190;671852782;476;5;932240;-1;3053;12293
2;90;1572683690063;1572683695921;5858;18624853832;64063184695;1345077001;921878982;13367711209;23655332;671075702;435;0;877864;0;2805;10393
2;91;1572683695922;1572683701756;5834;18502951132;64063193647;1345511069;923689885;13367720161;23656504;672320444;608;54;898104;0;3547;33445
2;92;1572683701756;1572683707746;5990;18524222164;64063185347;1346730491;933824485;13367711861;23653451;671204816;510;9;860776;3;3255;14472
2;93;1572683707746;1572683713456;5710;18504518734;64063184320;1342437679;918636487;13367710834;23653097;671017912;408;0;810408;2;2730;9215
2;94;1572683713457;1572683719208;5751;18500895452;64063187970;1342784009;918745153;13367714484;23660670;671509124;448;0;890984;-1;2883;10672
2;95;1572683719208;1572683725332;6124;18619220422;64063200709;1341781704;930002013;13367723967;23667829;672547601;463;6;893440;-3;2959;11087
2;96;1572683725332;1572683731170;5838;18562506722;64063185443;1341804995;920923649;13367711957;23657122;671183854;573;62;841872;12;3095;38731
2;97;1572683731170;1572683736985;5815;18563343156;64063188275;1352518000;927381533;13367714789;23649201;671588622;441;8;853248;-13;3123;11673
2;98;1572683736985;1572683742628;5643;18587492578;64063186030;1342628980;932610465;13367712544;23653890;671283055;405;0;802560;0;2647;9229
2;99;1572683742628;1572683748542;5914;18581475188;64063188529;1346874268;926936977;13367715043;23656126;671616021;455;0;888416;0;2885;10644
2;100;1572683748542;1572683754500;5958;18572368876;64063198237;1351336444;930911548;13367724751;23660648;672867068;467;3;889024;5;2930;11367
2;101;1572683754500;1572683760566;6066;18542641670;64063188621;1344309037;936793911;13367715135;23654788;671658681;409;0;806648;-2;2599;9821
2;102;1572683760567;1572683766702;6135;18600635060;64063192033;1343154110;926606761;13367715877;23662053;671586357;610;49;943056;-3;3734;26103
2;103;1572683766702;1572683772409;5707;18513801414;64063185667;1345581915;915584287;13367712181;23645101;671109258;448;0;875496;1;2974;10267
2;104;1572683772409;1572683778343;5934;18480266528;64063192652;1342931888;929672203;13367719166;23659247;672330654;432;0;847168;-1;2761;10223
2;105;1572683778343;1572683784282;5939;18611212614;64063187711;1347228648;931044268;13367714225;23653960;671591263;441;4;836200;6;2749;10030
2;106;1572683784282;1572683790362;6080;18476519584;64063193957;1340585972;929675829;13367720471;23660554;672188861;439;0;856744;-1;2764;10638
2;107;1572683790362;1572683796316;5954;18498150798;64063192383;1346090044;928584560;13367718897;23655444;671975802;572;52;901936;-5;3327;19395
2;108;1572683796316;1572683802295;5979;18589485186;64063188168;1338712018;923032458;13367714682;23656785;671454794;461;10;874568;2;2962;9959
2;109;1572683802295;1572683808238;5943;18519087198;64063195495;1343201890;915800569;13367718753;23659725;671998121;466;0;902888;4;3001;11100
3;58;1572684336521;1572684342412;5891;18580668538;64068025416;1337866113;931194307;13367711930;25739429;671223590;551;50;944848;1;3594;21938
3;59;1572684342412;1572684348511;6099;18566998266;64068038448;1342997120;919422679;13367720456;25701405;672022724;436;0;898976;-1;3075;9721
3;60;1572684348511;1572684354948;6437;18684785226;64068055328;1344354509;930242226;13367741842;25689860;675181199;445;7;890008;-1;2946;10185
3;61;1572684354948;1572684360989;6041;18634478152;64068034461;1344533699;925089124;13367720975;25709715;672310691;444;0;909544;0;2905;10252
3;62;1572684360990;1572684369105;8115;18485604142;64068039623;1348200806;929931746;13367717871;25645414;671678228;751;56;1252536;0;4532;28660
3;63;1572684369106;1572684375189;6083;18596736714;64068036253;1344935106;929120510;13367722181;25733683;672480312;452;0;929280;0;3166;9456
3;64;1572684375189;1572684381029;5840;18551725352;64068027986;1343001599;922953174;13367714500;25737716;671451997;461;0;941256;0;3102;10270
3;65;1572684381029;1572684386927;5898;18596944180;64068035906;1344353897;922715113;13367722420;25718833;672516039;428;8;856416;0;2895;11454
3;66;1572684386927;1572684392753;5826;18587028152;64068027674;1345120637;924100486;13367711029;25706644;670974127;422;0;866832;5;2831;10457
3;67;1572684392753;1572684398895;6142;18639814014;64068039574;1355157169;922957052;13367726088;25716289;673121928;555;64;971968;44;3381;22760
3;68;1572684398895;1572684406968;8073;18579051296;64068039398;1342591581;931817318;13367717375;25700267;671558882;612;0;1182360;-49;4292;21899
3;69;1572684406969;1572684413035;6066;18635770544;64068028112;1348714382;930285856;13367714626;25719481;671357398;430;9;865512;1;2887;9781
3;70;1572684413035;1572684418933;5898;18544739106;64068035855;1345651730;920603759;13367722369;25714136;672581455;463;0;953232;-1;3074;11082
3;71;1572684418933;1572684425064;6131;18675197990;64068030944;1342470998;928299660;13367717458;25729893;671924900;460;0;940760;5;3120;11365
3;72;1572684425064;1572684430771;5707;18526847536;64068032354;1344608773;923371996;13367718868;25740515;672143570;601;44;800464;-5;3278;44443
3;73;1572684430771;1572684436631;5860;18598232338;64068032452;1342194921;925987981;13367715221;25724979;671566008;393;0;813120;0;2762;8365
3;74;1572684436631;1572684443096;6465;18598954308;64068044378;1345065965;929015447;13367731478;25697766;673785255;480;0;972904;5;3191;10902
3;75;1572684443096;1572684449171;6075;18523646194;64068031679;1344142607;925406040;13367718193;25673540;672129575;469;3;919496;-5;3040;11311
3;76;1572684449171;1572684455009;5838;18626720734;64068029922;1344048283;921962406;13367716436;25734150;671737202;404;0;825064;0;2695;9591
3;77;1572684455009;1572684460989;5980;18503287078;64068025706;1346432696;920662084;13367712220;25709508;671305895;659;42;894176;12;3548;41859
3;78;1572684460989;1572684466915;5926;18590400022;64068031446;1345003416;925168920;13367717960;25716097;671977271;413;0;837056;-12;2936;9833
3;79;1572684466915;1572684472919;6004;18679097358;64068029680;1342184267;926057545;13367716194;25693964;671862075;445;0;898984;0;3003;9950
3;80;1572684472919;1572684478828;5909;18549372708;64068034753;1350125734;934326906;13367721267;25739404;672331252;433;4;845392;5;2794;10277
3;81;1572684478828;1572684485115;6287;18634847094;64068028839;1346758845;929631254;13367711608;25734358;671010578;946;26;984528;5;6019;119309
3;82;1572684485115;1572684491018;5903;18565458112;64068033352;1345341316;922728876;13367719866;25731977;672276218;575;16;872432;-10;4126;20962
3;83;1572684491018;1572684496886;5868;18588743652;64068026968;1349211634;931321410;13367713482;25702619;671428692;445;0;887960;0;2966;10911
3;84;1572684496886;1572684502867;5981;18595075088;64068031921;1348078041;922402825;13367718435;25687968;672021042;486;0;962344;0;3359;13820
3;85;1572684502867;1572684508826;5959;18553390044;64068029628;1346567290;927751867;13367716142;25707297;671759652;426;5;824264;5;3004;11695
3;86;1572684508826;1572684514770;5944;18568031800;64068029925;1342914325;918554814;13367716439;25693841;671810511;656;44;917496;-5;4052;67984
3;87;1572684514771;1572684520794;6023;18556413412;64068032004;1342104253;930391593;13367718518;25716216;672081613;487;11;817024;9;2944;13489
3;88;1572684520794;1572684526583;5789;18578762216;64068028874;1343712699;925140937;13367712229;25724826;671071731;449;0;896424;-9;2978;10768
3;89;1572684526583;1572684532434;5851;18577949142;64068040773;1344995602;920107288;13367727287;25718616;673181344;414;0;813120;0;2621;9999
3;90;1572684532434;1572684538137;5703;18619646450;64068027291;1342045307;911252515;13367713805;25721078;671394309;439;4;836208;0;2770;10759
3;91;1572684538138;1572684544152;6014;18549464104;64068043486;1350985237;921824799;13367730000;25749538;673574711;647;44;880928;3;3333;51501
3;92;1572684544152;1572684550028;5876;18552535068;64068028287;1341329777;925062053;13367714801;25726466;671503320;436;0;870936;-2;2985;9212
3;93;1572684550029;1572684555886;5857;18563880582;64068037356;1342564880;920049126;13367723870;25701830;672762974;473;11;902136;-1;3049;11084
3;94;1572684555886;1572684561930;6044;18580633060;64068043872;1344690106;927193555;13367730386;25701947;673587677;460;0;905784;1;2891;11106
3;95;1572684561930;1572684567797;5867;18597252678;64068032559;1342883594;919005300;13367715328;25652711;671436015;462;7;880832;4;2893;11033
3;96;1572684567797;1572684573771;5974;18615547354;64068036347;1342079673;930023670;13367722861;25708782;672725796;601;44;886672;8;3346;39170
3;97;1572684573772;1572684579642;5870;18601154966;64068026366;1339475349;916158305;13367712880;25693106;671284454;449;0;881952;-12;3281;13330
3;98;1572684579642;1572684585539;5897;18490932850;64068033502;1349247433;919058467;13367720016;25721852;672266084;448;8;869336;-1;2943;9843
3;99;1572684585539;1572684591553;6014;18674496314;64068032542;1349819049;932370428;13367719056;25721303;672164246;426;0;835160;0;2728;10174
3;100;1572684591553;1572684597455;5902;18599098264;64068036298;1341330577;915904665;13367722812;25735242;672598103;479;7;899592;5;3003;11966
3;101;1572684597455;1572684603231;5776;18559828644;64068025054;1337919123;926985570;13367711568;25713067;671153009;439;0;855360;1;2742;10828
3;102;1572684603231;1572684609242;6011;18575598542;64068038413;1344200961;925235397;13367721768;25718483;672440703;582;48;882424;-6;3405;23102
3;103;1572684609242;1572684615075;5833;18517091670;64068026143;1344610360;926504172;13367712657;25730238;671319152;438;10;835000;5;2858;9761
3;104;1572684615075;1572684620869;5794;18582119048;64068025260;1348220845;923057607;13367711774;25758387;671186132;411;0;803944;1;2640;9499
3;105;1572684620869;1572684626903;6034;18542028616;64068041077;1343926862;909747168;13367727591;25678300;673333982;499;0;971520;-6;3066;11622
3;106;1572684626903;1572684632861;5958;18689644690;64068024979;1345600455;931981927;13367711493;25706106;671143383;442;3;812752;1;2601;10300
3;107;1572684632861;1572684638658;5797;18575980624;64068027914;1347636002;917816086;13367714428;25690517;671573926;566;62;895320;1;3447;21952
4;60;1572685164853;1572685176167;11314;18527735070;64063194582;1345149059;941496204;13367714758;23252635;671187107;963;57;1770032;5;6271;29944
4;61;1572685176167;1572685182129;5962;18513502990;64063194966;1348769156;920601331;13367723679;23221572;672694033;451;0;928296;-4;3127;10330
4;62;1572685182129;1572685188255;6126;18480030008;64063192517;1344136726;931990156;13367721230;23206689;672315763;482;4;953568;4;3123;11705
4;63;1572685188255;1572685194113;5858;18599318578;64063191825;1341967644;928697487;13367720538;23211467;672152750;425;0;867304;-5;2785;10112
4;64;1572685194113;1572685199934;5821;18486696514;64063186434;1340385052;922509186;13367715147;23204846;671472288;419;6;835752;0;2753;10248
4;65;1572685199934;1572685205797;5863;18459764770;64063184448;1340080710;924921966;13367713161;23206685;671194275;514;52;874136;3;3403;23388
4;66;1572685205798;1572685211773;5975;18535094930;64063199418;1345743939;922638560;13367724972;23215165;672763945;427;0;873768;-3;2933;9459
4;67;1572685211773;1572685217710;5937;18418201928;64063193600;1341746932;922776056;13367722313;23209267;672520928;414;7;824280;0;2755;10015
4;68;1572685217710;1572685223993;6283;18567729434;64063189135;1339550861;925499762;13367717848;23218511;671876079;449;0;917728;1;3021;10829
4;69;1572685223993;1572685230041;6048;18549669818;64063192076;1353733112;929291065;13367720789;23214853;672248480;473;0;964712;-1;3228;12955
4;70;1572685230041;1572685235814;5773;18434783586;64063188220;1338074432;924504721;13367716933;23206369;671810164;540;60;892304;0;3331;17761
4;71;1572685235814;1572685242747;6933;18575206094;64063192774;1343156516;924916088;13367712939;23205247;670959837;527;0;1076120;1;3617;11528
4;72;1572685242748;1572685248716;5968;18518807900;64063194623;1348181237;929067955;13367723336;23212318;672481578;452;6;891408;-1;2961;10790
4;73;1572685248716;1572685254759;6043;18488674960;64063186358;1349909747;921037581;13367715071;23207459;671514816;440;0;898528;0;2912;10650
4;74;1572685254760;1572685260440;5680;18620738822;64063187088;1349764103;927660598;13367712056;23199790;670970490;392;0;803016;0;2583;9601
4;75;1572685260440;1572685266058;5618;18455642606;64063182839;1340008205;910969032;13367711552;23202447;671064233;576;39;903720;5;3524;25718
4;76;1572685266059;1572685272299;6240;18517634790;64063208383;1348071470;931447281;13367737096;23243977;674527310;457;0;929744;-5;3118;9952
4;77;1572685272299;1572685278046;5747;18499285072;64063184136;1342419334;931281735;13367712849;23199587;671154006;446;2;867464;5;2914;10502
4;78;1572685278046;1572685284106;6060;18442032194;64063191045;1342003285;923996126;13367719758;23208269;672087763;432;0;886056;-4;2865;10539
4;79;1572685284106;1572685289993;5887;18467444370;64063194754;1349807886;936201423;13367723467;23217327;672635507;428;0;868736;-1;2848;10800
4;80;1572685289993;1572685296280;6287;18567774548;64063197985;1346136376;930970390;13367726698;23226992;673060316;576;47;918632;3;3383;18538
4;81;1572685296280;1572685302217;5937;18518248136;64063191765;1342766066;919655068;13367717808;23215284;671857147;430;0;873768;-3;2959;9223
4;82;1572685302218;1572685308170;5952;18522618354;64063188843;1342884897;932698205;13367717556;23200528;671956021;425;9;822104;1;2785;10714
4;83;1572685308170;1572685314002;5832;18491445018;64063191454;1351543786;930322664;13367720167;23216656;672281355;434;0;880232;5;2891;10376
4;84;1572685314002;1572685320164;6162;18565963272;64063199601;1344514349;917291434;13367728314;23234182;673429300;448;0;907176;-5;2963;11175
4;85;1572685320164;1572685326353;6189;18554871214;64063197946;1344461357;936349646;13367726659;23220536;673168067;579;51;924120;0;3457;18996
4;86;1572685326353;1572685332073;5720;18534282440;64063184696;1338649345;919314820;13367713409;23199420;671365183;396;0;799848;2;2719;8833
4;87;1572685332073;1572685338132;6059;18493259068;64063201257;1342271941;924374342;13367729970;23228473;673612077;599;54;829120;26;3846;62348
4;88;1572685338132;1572685344364;6232;18635616222;64063212255;1342351655;929773670;13367737712;23253622;674445453;835;7;980792;-7;6232;145066
4;89;1572685344364;1572685349999;5635;18510610584;64063184384;1338183907;917279758;13367713097;23207319;671252914;444;0;886176;-22;3091;21023
4;90;1572685349999;1572685355854;5855;18477927608;64063187526;1347320660;928394570;13367716239;23205800;671830301;429;5;835280;5;2819;10595
4;91;1572685355855;1572685361836;5981;18536007284;64063182857;1341789484;925000954;13367711570;23199838;671198862;422;0;845720;0;2719;10547
4;92;1572685361836;1572685368236;6400;18575250040;64063199929;1345681717;929413875;13367728642;23229819;673502465;481;0;962344;0;3071;11684
4;93;1572685368236;1572685374016;5780;18447903876;64063186705;1349877254;923933404;13367715418;23204914;671697875;705;57;895096;-4;3874;42816
4;94;1572685374017;1572685380068;6051;18573998090;64063182171;1345184228;925486497;13367710884;23204599;671102319;410;0;816408;-1;2787;8917
4;95;1572685380068;1572685386135;6067;18555486604;64063199178;1347845159;926294607;13367725221;23218015;672847910;457;8;878584;0;3045;12104
4;96;1572685386135;1572685392063;5928;18453340624;64063184827;1341201239;925888463;13367713540;23205146;671476722;452;0;891592;3;2890;10974
4;97;1572685392063;1572685397861;5798;18537863966;64063182871;1337228872;920897963;13367711584;23199000;671054438;447;0;892056;-2;2865;10789
4;98;1572685397861;1572685403797;5936;18518331502;64063191379;1340857507;920507021;13367720092;23224645;672339071;609;58;907672;-1;3547;26256
4;99;1572685403797;1572685409896;6099;18484217142;64063210243;1347833975;938676893;13367738956;23238509;674762585;474;0;929272;0;3130;10271
4;100;1572685409897;1572685415735;5838;18488982290;64063181018;1343259091;919933898;13367709731;23205152;670897813;434;10;825832;0;2821;9841
4;101;1572685415736;1572685421630;5894;18513098132;64063188331;1342641147;923233769;13367717044;23220422;671697475;456;0;898976;0;2921;11086
4;102;1572685421631;1572685427544;5913;18547110730;64063188126;1350839192;934049223;13367713094;23191738;671265970;445;0;876480;0;2793;10566
4;103;1572685427544;1572685433504;5960;18554251444;64063182713;1343727670;923479514;13367711426;23204892;670998954;607;54;907664;0;3538;26559
4;104;1572685433504;1572685439143;5639;18443675278;64063184768;1342474231;924804363;13367713481;23193924;671420628;432;0;845264;0;2862;8947
4;105;1572685439143;1572685444970;5827;18511679450;64063183507;1344268182;925864497;13367712220;23202103;671143740;427;0;824600;0;2718;9748
4;106;1572685444970;1572685450959;5989;18535028354;64063194758;1342376787;923174783;13367723471;23224157;672588774;478;9;907752;1;3008;11383
4;107;1572685450959;1572685456592;5633;18419435774;64063187006;1351259121;929722370;13367716305;23196532;671665588;407;0;804928;-1;2632;9928
4;108;1572685456592;1572685462387;5795;18594115430;64063192571;1346395034;931893670;13367721284;23210964;672273854;547;38;757592;0;2974;22339
4;109;1572685462388;1572685474431;12043;18543061420;64063213786;1347360823;942242124;13367733513;23286785;673333434;897;0;1723128;0;5837;19227
