0;15;1572729422519;1572729433053;10534;27198532136;65860730059;1852542177;589491125;12703046740;29717119;931589644;700;50;1118096;1;3144;12077
0;16;1572729433094;1572729443896;10802;27590917210;67238793349;1870458332;588344168;13204743228;30345896;933023282;536;0;1034832;3;2705;5046
0;17;1572729443964;1572729455176;11212;27037506400;65436100333;1848056858;609195191;12551165928;29568166;928260994;621;0;1193288;-4;2818;5307
0;18;1572729455265;1572729466627;11362;27136832974;65256423456;1847063396;617948818;12485719994;29446355;929158276;747;42;1183224;0;3473;14613
0;19;1572729466700;1572729477607;10907;27547414174;65609847042;1839189923;698589550;12613452095;29555022;928241844;718;46;1165640;4;3216;11235
0;20;1572729477639;1572729488559;10920;27663451762;66810080387;1853943117;653125978;13049743304;30387139;930969824;600;0;1158064;-4;3031;5561
0;21;1572729488594;1572729499538;10944;27068971152;66075536351;1853308381;584862397;12783170462;30038825;929694781;606;0;1162064;2;2787;5322
0;22;1572729499592;1572729510894;11302;26927215810;65916154211;1853607147;592621913;12725764948;29925913;928166092;731;58;1197952;-1;3152;11545
0;23;1572729510965;1572729522562;11597;27545826424;65864088036;1852354690;663991587;12706788303;29798968;928930606;648;0;1240160;0;3140;5870
0;24;1572729522590;1572729533845;11255;27274157362;66075659561;1854174096;624615376;12783326986;29839405;928305665;569;0;1099336;0;2575;4748
0;25;1572729533894;1572729545295;11401;27578360188;66418300164;1850937762;668794730;12908341233;30055059;927516224;684;72;1131088;-1;3202;9462
0;26;1572729545356;1572729556468;11112;26709040564;65495042648;1852117888;591102614;12573467830;29616802;927382348;619;0;1187280;1;2879;5353
0;27;1572729556497;1572729567441;10944;27127439334;65446922121;1842551242;637666963;12555158609;29730019;929602745;609;0;1169752;3;2744;5164
0;28;1572729567477;1572729578237;10760;27504294680;67048439431;1858127884;614906139;13137430967;30334562;929207693;674;58;1122808;-3;3172;10425
0;29;1572729578306;1572729588635;10329;27010849136;66391844390;1853112903;597772609;12898645416;30135207;929879140;529;0;1011440;0;2420;4564
0;30;1572729588669;1572729600278;11609;27539406074;66447808478;1864489283;667464743;12919894182;30189860;930974017;758;52;1248448;-1;3180;12593
0;31;1572729600315;1572729611807;11492;27399334842;65653021476;1843142030;644490375;12631846649;29701938;924413494;651;0;1257696;0;3232;5757
0;32;1572729611895;1572729622611;10716;26982964596;66205516807;1851102968;605083996;12831871875;29968901;925301205;552;0;1058264;1;2496;4576
0;33;1572729622680;1572729634048;11368;27390137864;66700754745;1837347298;612364442;13017876298;30420296;926476064;755;38;1236080;0;3236;12768
0;34;1572729634074;1572729644865;10791;27465999464;66240501171;1843049400;654391622;12856341913;30186150;925718367;595;0;1134624;0;2919;5427
0;35;1572729644923;1572729655905;10982;27290696680;66323840597;1845415327;626941218;12885869366;29927471;926904521;608;0;1175576;0;2818;5200
0;36;1572729655932;1572729666579;10647;27538338960;67006369506;1843494938;618819181;13134023139;30304913;924696890;695;54;1135880;0;2975;9118
0;37;1572729666613;1572729677679;11066;27348201262;66168314582;1833361457;620243066;12828855684;29958326;924630639;632;0;1205072;-1;2977;5376
0;38;1572729677744;1572729688310;10566;26889838058;65986662811;1842323689;583405329;12764232766;29855686;924229482;562;0;1087520;1;2605;4896
0;39;1572729688338;1572729698761;10423;27627744688;67007034800;1851315368;627595787;13133706366;30196126;925459111;669;52;1085488;2;3001;10232
0;40;1572729698807;1572729709347;10540;26999451792;65350000994;1834268081;630279470;12533145846;29507044;923998639;601;0;1149720;-2;2854;5261
0;41;1572729709373;1572729720399;11026;27172362950;66244600282;1837838123;618442078;12857507322;29891750;926310625;611;0;1181432;0;2915;5497
0;42;1572729720466;1572729731519;11053;27182511410;66512790786;1845260755;604722157;12955018803;30166468;925279812;693;60;1159808;3;3231;10695
0;43;1572729731547;1572729742887;11340;26714727702;65298225523;1835610275;615526242;12513618258;29628239;922624350;617;0;1181584;-3;3058;5853
0;44;1572729742957;1572729753763;10806;26749978526;65416504878;1833763662;606074588;12558083495;29401559;921390278;696;63;1144272;2;2906;9706
0;45;1572729753789;1572729765176;11387;27933021198;66381489556;1830023308;701880691;12907002103;29855913;923765576;634;1;1221128;0;3267;6196
0;46;1572729765217;1572729776431;11214;27162959236;66478997696;1850288968;600355620;12943072330;29868415;925497509;647;1;1240136;-3;3025;5604
0;47;1572729776460;1572729787505;11045;27205974486;66678509397;1842560219;592518167;13015739341;29958887;924891321;1110;66;1160536;0;6087;33879
0;48;1572729787569;1572729798180;10611;27158005310;66986188412;1848170381;573757926;13127628689;30066308;926742102;561;2;1057464;6;2607;4865
0;49;1572729798206;1572729809301;11095;27452405258;66677737379;1849513542;647181114;13015882266;29946126;926758875;603;2;1140384;-1;2743;5170
0;50;1572729809328;1572729820455;11127;27211215010;66557006735;1835340954;606740025;12971757754;29926152;925987496;783;68;1173264;-5;3288;12662
0;51;1572729820525;1572729831597;11072;27100373854;66600003909;1845898577;590807798;12986531519;30113678;925809435;608;2;1117528;1;2848;5389
0;52;1572729831632;1572729842990;11358;27215799118;66044152022;1845407567;631992480;12785053300;29633432;924404663;673;4;1274880;4;3082;6055
0;53;1572729843061;1572729853404;10343;26674506746;65735361762;1829383887;552765382;12673170480;29568937;924442531;691;75;1149424;-5;3247;9447
0;54;1572729853471;1572729864334;10863;27301380376;66971301119;1843156379;581842132;13122312841;30043006;927185611;631;7;1187272;1;3028;5797
0;55;1572729864414;1572729874615;10201;27164713280;67000508680;1851166511;579645375;13133324965;30067331;924776196;578;3;1080880;3;2472;4697
0;56;1572729874676;1572729885828;11152;27083468952;66412802445;1837649968;600650949;12919224829;30056666;924732284;713;67;1189048;-4;3367;10843
0;57;1572729885884;1572729896667;10783;26732468162;65400142746;1833709435;587820387;12550801750;29393742;925447706;600;11;1122856;4;2682;4958
0;58;1572729896718;1572729907936;11218;27084780032;65926885688;1845231336;621203856;12742438981;29830821;924316780;720;65;1177456;1;2989;8642
0;59;1572729907965;1572729918487;10522;27005698986;66989879991;1851382365;540141203;13129543014;30131629;927344311;574;8;1070024;-5;2703;4987
0;60;1572729918523;1572729929353;10830;27274068156;67261573945;1847858284;579723087;13227396453;30189100;926457730;612;6;1128736;3;2722;5144
0;61;1572729929410;1572729940598;11188;27146463280;66208934021;1847500405;607710905;12845765648;29865415;924579926;776;57;1242392;-3;3200;10852
0;62;1572729940679;1572729951529;10850;26738743534;65384465811;1839040495;577861439;12545566595;29384851;922223149;646;6;1181456;1;3058;5742
0;63;1572729951577;1572729963198;11621;27454773816;66101016726;1835442122;652391286;12806795412;29543506;923227912;647;10;1199024;3;2906;5565
0;64;1572729963273;1572729974567;11294;26613466190;65166910709;1833699392;594407099;12467052998;29065063;922483265;765;59;1241704;-4;3417;10320
1;16;1572730307343;1572730317359;10016;26218467278;64165510611;1849999258;577612541;12446944621;29197959;928290465;542;0;1040776;0;2807;5146
1;17;1572730317410;1572730327640;10230;26310895644;64875287841;1846748770;542418542;12705384994;29493742;929254941;521;0;1005512;0;2661;5149
1;18;1572730327723;1572730338283;10560;26335343052;64703994926;1856398520;561826106;12639195250;29437601;930702602;664;54;1052440;1;3069;12293
1;19;1572730338322;1572730348968;10646;26561428578;64415590957;1845134964;618074870;12539118022;29347400;930787774;536;0;1030776;-1;2762;5232
1;20;1572730349035;1572730359492;10457;26335572126;64915883296;1862815745;544346517;12720686200;29499591;931151186;518;0;999648;3;2455;4447
1;21;1572730359565;1572730369933;10368;26285889056;64313623786;1860777539;553921847;12501812707;29206192;930461141;724;54;1171256;-4;3134;15221
1;22;1572730369979;1572730380917;10938;26328942850;64753042413;1857119025;538087625;12661530392;29510544;930300312;678;56;1159448;0;3132;8138
1;23;1572730380961;1572730391356;10395;26361127090;64963878198;1854757800;559383249;12738108117;29451446;932216903;559;0;1081656;1;2749;5038
1;24;1572730391386;1572730402074;10688;26304449452;64461835419;1846042527;566886737;12556163882;29209513;931242198;579;0;1105336;-1;2634;4933
1;25;1572730402152;1572730412987;10835;26879006756;65977159516;1846639733;579993276;13106833659;29985953;932327336;665;64;1119384;0;2998;9387
1;26;1572730413025;1572730423330;10305;26825717486;65715017188;1850436750;585195171;13011348042;30034970;930928829;559;0;1069976;1;2776;5119
1;27;1572730423374;1572730434474;11100;27733309404;66431604272;1860402339;655497980;13271248816;30225133;931113699;572;0;1105200;0;2679;4946
1;28;1572730434507;1572730444793;10286;26751600732;65521583634;1862598364;562291853;12938898270;29861496;929386722;623;68;1049936;0;2843;9320
1;29;1572730444833;1572730455010;10177;26536886124;65199555530;1859905853;567014381;12824102345;29496338;928304865;516;0;982120;0;2563;4705
1;30;1572730455040;1572730465582;10542;26970030164;66107912433;1857970948;574387438;13155019288;30217386;929422022;613;0;1185528;1;2921;5329
1;31;1572730465666;1572730476397;10731;26740396108;65724805516;1862195773;545789265;13016238832;30099509;929012675;678;56;1120096;-2;2989;12050
1;32;1572730476428;1572730487546;11118;26560886042;64666345125;1849688211;616622930;12625116869;29714193;928389527;598;0;1140896;0;2867;5206
1;33;1572730487595;1572730498613;11018;26897962082;65125518145;1847425501;610678688;12797648014;29746031;927537695;589;0;1140296;1;2686;4927
1;34;1572730498646;1572730510044;11398;27338888944;66211528532;1845004882;668351676;13202876669;30310083;931030954;763;52;1242008;-1;3504;15564
1;35;1572730510121;1572730520106;9985;26518138556;64443568080;1843786801;594434523;12561266646;29314401;925658403;556;0;1066216;3;2614;4794
1;36;1572730520143;1572730530821;10678;26658929568;64750325412;1831670372;627300028;12672307367;29457836;925239119;610;0;1172688;0;2669;5035
1;37;1572730530895;1572730541854;10959;27190701864;66046280249;1846009236;605836162;13143197655;30159044;927528372;727;54;1213240;-2;3305;10094
1;38;1572730541881;1572730552429;10548;27177535438;65812129469;1843146564;603378701;13058386248;29908037;926328863;604;0;1151704;3;2769;5176
1;39;1572730552458;1572730563493;11035;26834792554;64293638385;1836761593;671999645;12507058118;29462093;925320538;697;54;1159112;6;2811;7729
1;40;1572730563520;1572730574191;10671;26504423462;64074213129;1827593237;636441502;12428618997;29329670;925265852;592;0;1134448;-9;3087;6751
1;41;1572730574265;1572730585152;10887;26472311784;64478951888;1843924630;610230661;12574803864;29551991;926096464;614;0;1169760;0;2763;5149
1;42;1572730585222;1572730596427;11205;26982618430;65090754676;1839159815;645374928;12797950777;29816099;928423617;745;58;1206672;-1;3145;11370
1;43;1572730596508;1572730606955;10447;26372616852;65054414032;1845163050;569358327;12783600286;29645919;925106736;559;0;1075880;0;2759;4943
1;44;1572730606994;1572730618071;11077;27068717550;65409569879;1839449785;630882025;12912607400;29958463;925950974;647;0;1234200;1;2877;5329
1;45;1572730618098;1572730628535;10437;26361734012;64582392571;1844891648;591295237;12612148202;29606705;925858170;667;54;1071528;3;2803;9794
1;46;1572730628585;1572730639755;11170;26636363370;64391521157;1839864010;642560335;12542392046;29453417;927038248;636;0;1210816;-3;3041;5609
1;47;1572730639822;1572730650617;10795;26357481762;64232557395;1838598629;603336961;12486100519;29268352;925705731;559;0;1074200;0;2600;4725
1;48;1572730650678;1572730661082;10404;27137210676;65662397966;1844142097;651275270;13003909211;29896844;926400025;654;51;1061672;0;3026;11906
1;49;1572730661145;1572730671886;10741;26893891748;64765398293;1838097150;640481492;12678624423;29632410;925865563;590;0;1122840;0;2817;5209
1;50;1572730671944;1572730683134;11190;26819845658;65220642398;1846927531;612496090;12844473464;29800693;926969921;626;0;1204888;0;2822;5222
1;51;1572730683166;1572730693931;10765;26695645648;64714691578;1838083212;646110777;12660155695;29599290;925960919;1122;114;1149544;8;5505;28816
1;52;1572730693977;1572730705169;11192;26629213166;64253574931;1827514328;651331965;12493784147;29366280;925561589;714;13;1229160;-6;3848;10655
1;53;1572730705238;1572730715869;10631;26591024384;64505833975;1830495380;633140252;12584779525;29626172;925604182;604;3;1138216;-2;2699;5105
1;54;1572730715936;1572730726879;10943;26926515740;65089023498;1842137354;631506391;12795871694;29789789;926592237;807;69;1175712;0;3206;17637
1;55;1572730726917;1572730737429;10512;26978622118;65391189332;1849041968;628477036;12906010170;29905356;926798834;643;6;1059128;0;3130;10086
1;56;1572730737495;1572730748295;10800;27024615038;65940619383;1853375207;602080550;13105486147;30078148;926510056;574;9;1087656;0;2612;4886
1;57;1572730748371;1572730759439;11068;27062326984;65166803705;1849219264;657680613;12825240732;29845941;923774729;774;67;1188640;3;3379;17020
1;58;1572730759466;1572730769641;10175;26919728200;65725820443;1846751282;592206357;13026994797;30038526;924508988;579;5;1084072;-2;2741;5125
1;59;1572730769670;1572730780238;10568;27317219040;65729663014;1845943942;671181089;13029683066;29919619;924406402;589;5;1112872;-1;2578;4823
1;60;1572730780295;1572730790566;10271;26889297858;65283823441;1834899469;630766698;12867424887;29695349;924632949;697;53;1076968;0;3060;15024
1;61;1572730790633;1572730801295;10662;26501531494;65291703607;1841420000;597146026;12870265632;29704562;924928803;595;8;1116992;0;2831;5211
1;62;1572730801361;1572730812063;10702;26106890720;64526032548;1835047303;557740121;12591900115;29506662;925245754;620;5;1163888;0;2723;5064
1;63;1572730812094;1572730823285;11191;26888263448;65251986694;1840374911;652078822;12855412723;29680851;926003304;765;44;1153184;-1;3220;16972
1;64;1572730823316;1572730834360;11044;26860302696;65300179557;1837274447;624447568;12873701794;29816209;925720760;636;6;1199024;0;2910;5381
1;65;1572730834423;1572730844552;10129;26500532270;64244151727;1840511356;606693383;12490324142;29269932;923345906;573;10;1069976;1;2504;4829
2;19;1572731210658;1572731221434;10776;25306045242;58754332490;1840196834;522115733;12350915517;29646516;921037564;653;50;1059592;-1;3146;10610
2;20;1572731221510;1572731232112;10602;25205078504;59067655314;1851298537;510568107;12465308481;29731459;922188123;535;0;1029008;0;2515;4641
2;21;1572731232177;1572731242361;10184;25196931704;58781249135;1853892825;489455047;12361713859;29517225;921242568;530;0;1011424;0;2384;4508
2;22;1572731242432;1572731252929;10497;25800046170;59325656779;1852241320;565848853;12560124121;29862919;921968760;680;62;1101808;1;3149;12840
2;23;1572731252961;1572731263157;10196;25557820198;59391884610;1861446611;530375227;12583757932;30109576;922027798;619;48;1029272;0;3035;10755
2;24;1572731263221;1572731273262;10041;24958285068;58115464640;1847307766;518705997;12120861693;29115693;919687442;530;0;1011504;2;2561;4752
2;25;1572731273318;1572731283443;10125;24876970076;58274015910;1842871095;515563513;12178944845;29231683;921944084;539;0;1043168;0;2505;4835
2;26;1572731283480;1572731293472;9992;25235328682;58601622204;1851427805;523291782;12296933848;29345113;922631608;592;48;945840;-2;2706;10775
2;27;1572731293522;1572731303786;10264;25418887912;59340194504;1855599328;491910530;12565866464;29631262;920918589;591;0;1128800;-1;2893;5276
2;28;1572731303837;1572731314368;10531;25404688098;59138006777;1857739179;533689007;12491816326;29661063;922122572;552;0;1069096;0;2506;4589
2;29;1572731314431;1572731325160;10729;25936995046;58793015082;1840492920;623463447;12367389871;29713127;920221736;634;50;1076392;1;2893;8009
2;30;1572731325226;1572731335138;9912;25284263502;58740431659;1849005110;524021190;12348040600;29497289;919272999;564;0;1072736;1;2766;5077
2;31;1572731335184;1572731344884;9700;24781995908;58211978930;1841464493;533722432;12156099245;29142823;919735085;529;0;1020544;-2;2483;4593
2;32;1572731344925;1572731355130;10205;25354692442;59472308916;1846503851;510084950;12613571123;29712942;919944687;640;48;1051496;2;2866;12633
2;33;1572731355203;1572731365311;10108;25416098874;60003463741;1862361900;473881353;12808158075;30012687;921588078;554;0;1054336;-2;2757;5041
2;34;1572731365338;1572731375944;10606;25878269904;60117206571;1839249145;552530894;12859424949;30115547;921069379;596;0;1156968;4;2748;5058
2;35;1572731375973;1572731387128;11155;25563514198;59131871521;1838282721;563717324;12501880931;29767195;922590512;684;60;1147608;-3;3057;9331
2;36;1572731387154;1572731397114;9960;24996555464;57871481275;1836093820;548274535;12044597052;29144597;919872358;530;0;1011424;0;2598;4817
2;37;1572731397194;1572731407438;10244;24936596914;58176964569;1831942385;553044121;12155354513;29306684;919702392;578;0;1116928;0;2715;5037
2;38;1572731407511;1572731417485;9974;24791992090;58180422714;1838551032;499268324;12156023640;29125609;918713182;632;50;1024296;3;2823;9204
2;39;1572731417564;1572731427533;9969;25428004298;58981151026;1841305024;494500797;12448036999;29639498;918837421;575;0;1093544;-3;2698;5007
2;40;1572731427596;1572731438113;10517;25605248298;58652625173;1829082642;565475566;12328528886;29380111;916505929;594;0;1145328;0;2741;5134
2;41;1572731438137;1572731447960;9823;25271455214;58674399165;1833286265;541195750;12336373435;29520797;919402582;635;44;1015016;2;2760;11066
2;42;1572731448027;1572731457938;9911;24948467590;58514485217;1835597626;538049676;12277467875;29360403;917606323;531;0;1003200;-3;2608;4865
2;43;1572731458017;1572731468273;10256;24830993070;58223792710;1821861187;530759092;12172532246;29194971;917810012;523;0;1009520;2;2452;4545
2;44;1572731468299;1572731478298;9999;24809949360;58069891737;1833735381;516832022;12116914659;29110353;916877617;620;52;1025136;-2;2939;8778
2;45;1572731478356;1572731488494;10138;25276393226;59905296093;1834846170;488592300;12784108166;29940273;917859372;555;0;1052480;0;2740;5042
2;46;1572731488526;1572731498928;10402;25276908168;59071119232;1841979951;525800956;12480359548;29527249;917794851;548;0;1057280;1;2522;4682
2;47;1572731498956;1572731509382;10426;25452069478;58985301143;1840132509;555248701;12448951355;29845386;918135946;678;52;1100912;3;3049;11335
2;48;1572731509439;1572731520178;10739;26032314358;60150528432;1843746074;572788608;12871777509;30360324;922208967;586;0;1109272;-3;3020;5851
2;49;1572731520222;1572731529990;9768;25506541202;59943402862;1843358515;520112594;12796184030;29943850;920612479;537;0;1029056;-1;2670;5312
2;50;1572731530039;1572731540205;10166;24885291346;58018961631;1829450382;517947923;12098859025;29098473;916552319;696;52;1175856;0;3156;9708
2;51;1572731540242;1572731550896;10654;25135505854;58470345167;1838451932;545330728;12262367123;29349268;917177817;609;0;1156192;2;2961;5461
2;52;1572731550931;1572731561287;10356;25066226518;58721739266;1845419373;498584810;12354552952;29381064;918958086;577;0;1106968;-1;2688;5155
2;53;1572731561322;1572731570928;9606;25460564634;60014225748;1837395092;503620119;12823084993;29925293;919967632;610;50;964576;4;2831;11445
2;54;1572731570953;1572731581061;10108;25325818898;58551109730;1835675632;561788657;12292307460;29507414;918069782;533;1;1005944;-4;2519;4599
2;55;1572731581089;1572731591188;10099;25297781934;58516200107;1825451582;544325446;12279288241;29268770;916789011;808;46;1146952;4;4009;19650
2;56;1572731591246;1572731601064;9818;24887067728;58155267114;1832379829;539139185;12148072663;29224803;915642836;835;10;1029296;-3;4321;12559
2;57;1572731601090;1572731611056;9966;24854410156;58379252388;1833879063;522218188;12229706012;29265783;918209775;556;1;1036664;-1;2507;4788
2;58;1572731611082;1572731621309;10227;24782446318;58245219415;1827706281;514669642;12181003913;29116546;916504598;521;3;993872;-1;2261;4353
2;59;1572731621371;1572731631989;10618;25515641090;58766757769;1829797872;547452965;12370781256;29396185;918600477;786;62;1159720;1;3585;13850
2;60;1572731632015;1572731642799;10784;25193821028;58145873741;1825720538;569640328;12144700181;29276213;917242138;586;1;1098912;0;2787;5298
2;61;1572731642851;1572731653378;10527;25377387704;58358808862;1829893797;568444087;12221951816;29498185;916827863;731;54;1183760;-1;3029;11473
2;62;1572731653429;1572731663781;10352;24943393944;58262381212;1834550832;535165653;12187158969;29206299;918712502;564;3;1058352;0;2754;5024
2;63;1572731663851;1572731674307;10456;24895570330;58094042853;1834463122;554566839;12126037009;29099853;917079893;596;8;1122848;0;2779;5322
2;64;1572731674350;1572731684531;10181;24811057500;57840270464;1826713772;556454264;12033604373;29046821;916318083;639;72;1058544;4;2736;8212
2;65;1572731684603;1572731694712;10109;24828878260;58308547826;1834355719;518658436;12203396009;29062097;915818938;561;4;1058336;-4;2688;4933
2;66;1572731694748;1572731705868;11120;25555997826;59212531847;1843058613;558210274;12532134815;29549923;917611271;605;12;1140440;0;2853;5339
2;67;1572731705909;1572731716038;10129;24795481490;58537740001;1830531397;507918362;12287190293;29163357;915854239;682;38;1062936;2;2795;11435
2;68;1572731716105;1572731727134;11029;25732466128;59812522806;1843614923;543592522;12749763751;30124155;918357688;627;4;1170616;-1;2966;5399
3;16;1572732066284;1572732076640;10356;26488763648;66884463365;1850144311;528794188;13165623209;29230644;927420743;523;0;1005560;0;2578;4759
3;17;1572732076724;1572732087937;11213;26643775790;67614228797;1854609157;514376475;13431400984;29486604;928497366;594;0;1134504;1;2688;4980
3;18;1572732088007;1572732098709;10702;26398310954;66337938611;1845834888;571248156;12968922601;28935133;927544342;650;52;1105520;0;3069;7842
3;19;1572732098749;1572732109910;11161;26595674776;66859950992;1846775670;590094093;13156306135;29102838;927254479;574;0;1105248;0;2773;5040
3;20;1572732109969;1572732120522;10553;26493129194;66681156573;1844693196;577486935;13092783733;29058775;929919512;695;40;1135808;7;2893;10475
3;21;1572732120587;1572732131411;10824;26229230398;66424220590;1840443819;554228145;13000144739;28993948;927038283;593;0;1144856;-6;3071;5915
3;22;1572732131466;1572732141994;10528;26041417750;66423536881;1849301810;550243265;12999794953;28887757;927701170;667;44;1107784;-1;3170;9296
3;23;1572732142071;1572732153010;10939;26303970864;66692328153;1859306538;560405141;13098001735;28993279;927278882;620;1;1187432;2;2839;5306
3;24;1572732153085;1572732164015;10930;26435973260;66740918708;1847193334;560395186;13115328324;29112682;929945312;568;0;1099248;-2;2609;4970
3;25;1572732164112;1572732174880;10768;26342752844;66367214675;1838605052;583972446;12980065726;28863422;927314566;639;52;1077656;0;3063;7322
3;26;1572732174939;1572732184493;9554;26299863446;66729499424;1847117037;553400767;13112159728;29103612;927221808;526;0;1002352;1;2505;4745
3;27;1572732184521;1572732195728;11207;26672190456;67241195679;1846019229;587220305;13297943420;29365538;929435333;619;0;1190568;-1;3087;6009
3;28;1572732195779;1572732206114;10335;26384919542;67078159155;1859940856;563168611;13238470235;29313710;929302251;629;52;1029856;2;2985;9674
3;29;1572732206165;1572732216848;10683;26927089082;67884071209;1865359675;558552933;13530941965;29541672;931278672;601;1;1152168;-3;2832;5214
3;30;1572732216914;1572732227849;10935;27029876002;68547774174;1861285340;565037214;13756297231;30135518;931105013;677;46;1116880;10;2699;8318
3;31;1572732227885;1572732238923;11038;26284061866;66759013301;1847351050;562719607;13122754093;29016307;926438100;613;0;1175960;-9;3223;6800
3;32;1572732238978;1572732250545;11567;26153115342;66326082090;1841578635;574521611;12966144795;28807947;923614327;654;0;1251864;0;2965;5527
3;33;1572732250622;1572732261729;11107;26369602098;66876311286;1839992574;575331316;13165264092;29160437;926291764;736;56;1229432;-1;3270;11127
3;34;1572732261795;1572732272940;11145;26438624328;66643887651;1847046887;597851870;13092339383;29100826;924304160;609;0;1163832;1;3029;5629
3;35;1572732272996;1572732284383;11387;26762084992;67244203118;1832543990;599262021;13309897525;29316130;923436711;642;0;1240160;-1;2984;5570
3;36;1572732284450;1572732295100;10650;27019110838;67143125491;1833926190;610608263;13272448878;29378154;923502421;714;52;1085624;1;3096;31616
3;37;1572732295138;1572732305414;10276;27115498870;68302927598;1850142449;582131001;13694634035;29653432;924019664;572;0;1087680;0;2801;5081
3;38;1572732305479;1572732316393;10914;26664700364;66500484170;1837826040;630193611;13040117315;29047838;923505885;600;2;1157976;0;2750;5083
3;39;1572732316434;1572732327256;10822;27084033680;67861380776;1851481739;629680045;13535380442;29828877;925391277;681;50;1152160;0;3188;9987
3;40;1572732327287;1572732338386;11099;27031828898;66649462323;1839732530;671286753;13094181214;29201432;925843050;619;0;1176176;4;2943;5501
3;41;1572732338421;1572732349430;11009;27406759818;68712914079;1852451710;591867045;13843025007;30104301;926522325;633;2;1216680;0;2790;5275
3;42;1572732349459;1572732360428;10969;27208292966;68274269452;1850157253;586042727;13684585870;30020538;926082707;696;47;1164600;-5;3293;10828
3;43;1572732360503;1572732371095;10592;26805286830;67352895573;1839783820;583904358;13349628594;29449560;923525610;603;0;1151704;0;2826;5227
3;44;1572732371120;1572732381219;10099;26665869240;67244914605;1839547574;563277350;13310980607;29391097;923766303;526;1;1005584;0;2392;4467
3;45;1572732381252;1572732391678;10426;26989856818;68212923766;1847857641;593169984;13662010981;30076359;926321839;645;55;1080536;2;2979;8667
3;46;1572732391725;1572732402107;10382;27248932650;68415132207;1841539007;600850699;13736654036;30063800;925466257;559;1;1065592;1;2703;4976
3;47;1572732402185;1572732412880;10695;26526418216;66925316940;1846501955;564187421;13195136851;29329901;923197286;679;54;1127128;-1;3000;9615
3;48;1572732412924;1572732423514;10590;27128023188;68429534815;1845594093;593710442;13740385696;30001657;925801242;556;0;1069640;1;2869;5236
3;49;1572732423541;1572732434034;10493;27043692274;67782912265;1844211392;595444533;13506992083;29510393;924509611;562;1;1066360;-2;2642;5009
3;50;1572732434062;1572732444512;10450;26835755862;67410568017;1838693165;586739874;13371680484;29574130;923471691;684;69;1074728;-1;3016;16996
3;51;1572732444544;1572732455195;10651;27114402264;67927640170;1848540575;606651814;13559234390;29704428;926038851;574;0;1105576;1;2892;5237
3;52;1572732455265;1572732466547;11282;27013441366;67704626059;1841684772;607395692;13478348642;29578781;924558357;1191;56;1266136;-1;6372;35512
3;53;1572732466595;1572732476839;10244;26617850570;67531140080;1850326806;569161921;13415355741;29394740;925708336;596;2;1133560;1;2759;5054
3;54;1572732476922;1572732487500;10578;26734574504;67040504782;1835072452;589258115;13236100697;29373758;925427597;593;3;1111120;0;2584;4944
3;55;1572732487528;1572732498515;10987;26572794240;67022705024;1832110122;590972228;13230063518;29357600;923099200;759;54;1166536;-1;3116;14864
3;56;1572732498568;1572732509717;11149;26931702390;67978830507;1849117733;593183651;13576722732;29670632;924068597;695;7;1169120;2;3224;7907
3;57;1572732509757;1572732520392;10635;26507007224;67225189284;1838185635;565719178;13303419679;29134541;922369002;568;8;1065984;-1;2615;4897
3;58;1572732520470;1572732530835;10365;26438825808;67295661956;1841852633;570735040;13330060108;29233980;922959207;682;53;1047936;0;3003;13962
3;59;1572732530865;1572732541193;10328;26723392656;66896422090;1840683285;585068771;13184670620;29177386;923741146;592;6;1111192;2;2760;5013
3;60;1572732541248;1572732552149;10901;26954123318;67791293584;1842471983;574330135;13508695152;29549535;925493065;635;7;1187272;-2;2767;5213
3;61;1572732552176;1572732562514;10338;27026590856;68315102750;1848627403;583237555;13699676616;29936868;925203449;693;45;1074520;1;3054;12610
3;62;1572732562540;1572732573212;10672;27036546012;67805543219;1841516393;584498067;13514573341;29716373;924802264;562;7;1052008;0;2704;5150
3;63;1572732573240;1572732583789;10549;26938610818;67437326675;1839132668;585970921;13380333852;29410377;923549692;555;3;1030872;-2;2560;4899
3;64;1572732583860;1572732594394;10534;26825113776;68397242909;1848029689;539116380;13728927371;29854586;924929542;720;48;1109720;2;3125;11484
3;65;1572732594420;1572732604964;10544;26924199888;68253218258;1841017143;555640498;13677248989;29766626;926365219;588;2;1083576;2;2744;5259
4;16;1572732944543;1572732955298;10755;27153017512;62769414451;1848984318;586306377;13130644840;28783729;923703114;576;0;1105344;-1;2686;4890
4;17;1572732955355;1572732965965;10610;27206558924;62663622213;1856834890;612568069;13093454708;28445488;922028783;545;0;1052424;3;2434;4521
4;18;1572732966035;1572732976943;10908;27546070974;64008873969;1871003637;594633106;13581366114;29000605;927241735;675;44;1099704;-3;3095;10030
4;19;1572732976991;1572732988536;11545;27736595718;63658131662;1865120059;642255906;13454669284;28876011;924226990;647;0;1246360;1;3156;5802
4;20;1572732988565;1572732998834;10269;27101753116;62500876090;1858218754;572635776;13031953159;28291486;924481481;574;0;1098928;3;2608;4909
4;21;1572732998906;1572733009432;10526;26876413212;62467733531;1853636935;597073622;13019702401;28478353;924101043;673;54;1100232;-3;3160;10492
4;22;1572733009478;1572733020595;11117;26688482304;61951938396;1850574094;608345375;12834661743;28393363;920413576;692;54;1163536;1;3248;9293
4;23;1572733020632;1572733031603;10971;26741946190;62628744718;1858770330;595905263;13081220047;28568099;924273321;597;0;1142216;2;2869;5537
4;24;1572733031649;1572733042295;10646;26620204966;62551431081;1855168545;581858284;13053608896;28450775;923488517;533;0;1028968;-3;2434;4578
4;25;1572733042370;1572733052816;10446;26833812748;62335302542;1843897763;604752114;12974405435;28302453;923251516;640;58;1065632;2;2954;9419
4;26;1572733052886;1572733063470;10584;27245168770;63588044642;1841851523;633422442;13429546443;28997100;925459589;575;0;1107328;-1;2813;5177
4;27;1572733063536;1572733073934;10398;26728859480;62761527749;1851110726;594025913;13130955549;28523006;921295724;549;0;1061512;-1;2596;4868
4;28;1572733073993;1572733084409;10416;26590531634;62652549599;1855599516;585643984;13090444464;28452434;922485564;692;52;1099800;0;3088;12677
4;29;1572733084440;1572733094886;10446;26484585712;62913998486;1859402942;566241899;13185151651;28440359;923113857;535;0;1023144;3;2635;4837
4;30;1572733094981;1572733105195;10214;26413509116;62524676493;1842454102;571765299;13043824397;28189812;920367383;536;0;1034832;-3;2490;4575
4;31;1572733105253;1572733116115;10862;26585348634;62330200970;1842991843;595733686;12973332703;28260961;918667131;707;50;1175568;0;3341;11893
4;32;1572733116146;1572733127221;11075;26117702604;61779084963;1847482739;584570358;12773756448;27904564;917212954;599;0;1146296;0;2803;5269
4;33;1572733127300;1572733137752;10452;26156722710;62001542603;1834009236;576252420;12855900307;27953986;919770212;546;0;1046704;-1;2530;4773
4;34;1572733137782;1572733148590;10808;25912740942;61939522146;1835738980;554720078;12842574065;28114447;917234342;693;48;1162240;2;3300;10313
4;35;1572733148663;1572733158856;10193;25964248720;61749894066;1833984856;545170887;12774328580;27899364;915235411;563;0;1074488;0;2611;4746
4;36;1572733158913;1572733169172;10259;26107498372;62136796105;1841819941;562311574;12915040329;28171447;917732780;571;0;1096752;-1;2560;4807
4;37;1572733169225;1572733179523;10298;26329282446;61800575981;1846056419;571196959;12793222909;27831606;916057350;694;38;1150472;1;3247;11504
4;38;1572733179582;1572733190521;10939;27041209106;63730999972;1870060542;580562842;13493589032;28730967;921563473;630;0;1200840;2;2894;5413
4;39;1572733190595;1572733201303;10708;26175494076;62222473046;1840402385;572742856;12945038767;28088380;916596388;675;50;1105440;-3;2869;12246
4;40;1572733201357;1572733212134;10777;26267374504;62078000897;1837891726;561446953;12889908840;28123505;917599617;570;0;1093560;2;2916;5261
4;41;1572733212207;1572733222407;10200;26358498214;62468037591;1842335285;552035988;13033512893;28266687;918163943;520;0;987976;-3;2452;4693
4;42;1572733222516;1572733233517;11001;26498508272;62058247987;1839885175;593192401;12884589917;28075089;916257749;730;52;1223304;0;3298;10526
4;43;1572733233563;1572733243672;10109;26108666518;62179895853;1843129969;552650458;12928696193;28144971;916654702;553;0;1064064;1;2851;5387
4;44;1572733243701;1572733254437;10736;26130752230;62136583203;1842449771;550960345;12914120759;27925347;916945660;602;3;1146392;-1;2822;5272
4;45;1572733254513;1572733264941;10428;26508483722;62718244016;1845157761;570704058;13123935199;28494242;918239339;674;45;1087760;1;2976;11311
4;46;1572733265002;1572733275901;10899;26039423828;62107276788;1839527800;552278035;12903232766;28118340;918362196;591;2;1122848;3;3000;5568
4;47;1572733275956;1572733286584;10628;25964678544;62120607581;1842876623;536680750;12906987680;28278998;917527663;587;2;1128656;-3;2747;5065
4;48;1572733286612;1572733297341;10729;26090481050;61941513058;1828660469;576696728;12842763635;28022900;916683073;787;40;1153024;0;3495;37356
4;49;1572733297401;1572733307472;10071;25938818586;62054829718;1845359464;538281138;12883951939;28004248;919015600;536;3;1017392;-1;2691;4889
4;50;1572733307511;1572733318134;10623;25873448400;61578055622;1843253461;541135405;12711675658;27689939;919262527;596;1;1146248;0;2761;5121
4;51;1572733318176;1572733328596;10420;26285143288;62244871321;1846055865;546112383;12954263511;28068573;919417376;772;39;1117168;2;3190;28916
4;52;1572733328687;1572733339524;10837;26310260982;62314592322;1834806017;571199156;12977667479;28163347;919029272;828;24;1171312;11;3821;60008
4;53;1572733339565;1572733350409;10844;26244835170;61877297076;1837955545;579051359;12819139298;27981977;918348767;1011;10;1196312;-12;6300;32211
4;54;1572733350484;1572733361395;10911;26119311378;61814750343;1830487014;566143883;12796389389;27887156;916940679;617;2;1163904;0;2730;5264
4;55;1572733361424;1572733372228;10804;26545924838;62244440581;1836883626;585594711;12952947733;28033601;916532973;775;44;1130632;0;3072;24264
4;56;1572733372305;1572733382393;10088;26053856950;61873363756;1843114777;552095722;12818143781;27904762;916218713;543;1;1029056;-1;2655;4921
4;57;1572733382433;1572733392652;10219;25972053150;61690743230;1839051189;562184993;12751677456;27787475;915710753;637;1;1053168;1;2815;8570
4;58;1572733392681;1572733403714;11033;26488306376;62336910566;1833423299;588007153;12986180350;28107040;917225537;801;33;1182784;-1;3351;24933
4;59;1572733403793;1572733414365;10572;26128861968;61963696624;1837824763;573415684;12850282661;28050165;917759817;557;4;1058256;1;2776;5116
4;60;1572733414409;1572733425344;10935;26471935250;62064521525;1837891488;587702508;12887638081;28032548;920775241;621;0;1175656;-1;2824;5202
4;61;1572733425382;1572733436652;11270;26237204918;62263541118;1839951290;577713866;12960010367;28082416;918461029;793;38;1209560;2;3382;16636
4;62;1572733436715;1572733447015;10300;26254867998;62079414107;1840568628;576104328;12894095669;28036598;919194023;564;4;1065976;-1;2658;4932
4;63;1572733447078;1572733457817;10739;26171584488;61741987277;1833455147;574742274;12770186156;27799708;917318850;615;3;1163840;0;2782;5208
4;64;1572733457847;1572733468684;10837;26273423430;62320703601;1846910159;569246141;12980480119;28184241;916521251;799;34;1137760;0;3295;32169
4;65;1572733468748;1572733479057;10309;25729550362;62127834131;1834651947;503114903;12909513155;27975008;917406769;560;3;1052576;2;2586;4780
