0;16;1572713221487;1572713231831;10344;26208028278;66087618166;1866749122;481212707;11309317078;28558148;934588292;569;0;1103904;-1;2817;5136
0;17;1572713231869;1572713242370;10501;25314956060;65427051557;1867605680;413340739;11069601732;28413913;936562112;553;0;1068680;0;2529;4631
0;18;1572713242448;1572713252832;10384;25804084238;66190959197;1874826877;438406532;11346169010;28711473;937456901;640;50;1079952;1;2996;8584
0;19;1572713252908;1572713263711;10803;25457029098;65164067021;1871883061;441160134;10972979970;28169860;934898953;595;0;1156592;0;2837;5119
0;20;1572713263737;1572713274754;11017;25613780830;65149645689;1869090604;481956671;10968130484;28115991;934495335;688;54;1146368;-1;3266;10263
0;21;1572713274788;1572713285602;10814;25587186346;65684612643;1875965562;441748051;11162277493;28373842;935417872;573;0;1103864;0;2646;4774
0;22;1572713285684;1572713295948;10264;25613838208;65717857142;1865090890;468342756;11175360366;28396173;934103045;535;0;1033496;0;2409;4429
0;23;1572713296006;1572713306542;10536;25563329946;64854056614;1858977297;489687271;10862179194;27952462;933618018;649;50;1092824;3;3098;9041
0;24;1572713306583;1572713317668;11085;25704830956;65110080201;1862067395;473631590;10955002769;28184277;933787341;593;0;1144816;-2;2800;5140
0;25;1572713317703;1572713327772;10069;25241206350;64811691117;1865024393;444199314;10846815651;28150800;933823360;647;62;1047072;1;2997;12098
0;26;1572713327808;1572713338560;10752;25458041024;65288887674;1863692775;432890163;11018479006;28214676;933228011;575;0;1117312;2;2871;5142
0;27;1572713338586;1572713349051;10465;25500853480;65291910819;1866146828;468785006;11020981788;28214746;933155986;559;1;1077184;-2;2594;4687
0;28;1572713349079;1572713359857;10778;25587251462;65052947020;1865297795;474786407;10932932122;28210481;935386578;707;48;1156040;-1;3070;10754
0;29;1572713359895;1572713370020;10125;25468436224;65610913692;1863464874;413551826;11137409994;28197136;935238421;566;0;1098040;-1;2831;5072
0;30;1572713370067;1572713380017;9950;26221138640;67023854101;1871829241;454102329;11649829229;28967792;934578309;539;0;1033512;0;2472;4475
0;31;1572713380105;1572713390668;10563;25639847962;65451865609;1865370330;463150902;11079209906;28296686;933053603;689;44;1127704;1;2975;11600
0;32;1572713390719;1572713401521;10802;25435211004;65049205793;1856828575;452485868;10931100116;28067694;933756863;598;0;1162456;0;2932;5157
0;33;1572713401570;1572713412587;11017;25291535324;65113318898;1864818639;451938121;10957918333;28045881;932362383;621;1;1197688;0;2800;5130
0;34;1572713412613;1572713423808;11195;25406931826;64690030370;1860216553;457776256;10816852825;28028131;932240146;745;44;1217408;0;3275;11471
0;35;1572713423879;1572713435121;11242;25580678542;65094603227;1855731526;481560778;10963125633;28050508;928914129;613;1;1180184;2;2971;5286
0;36;1572713435174;1572713446110;10936;25289789018;64691742860;1857771593;459877120;10815936445;27824308;930777602;592;0;1150728;-3;2769;5010
0;37;1572713446165;1572713456541;10376;25976805158;66808678896;1876185929;441808296;11585241815;28914479;931616971;692;40;1132352;2;3118;10675
0;38;1572713456603;1572713467061;10458;25933920578;66475542297;1858963781;447629476;11464588535;28643197;930662662;555;2;1070456;-1;2691;4852
0;39;1572713467089;1572713478389;11300;26159273476;66685195253;1874847853;475715144;11541773662;28680237;930966519;625;0;1215232;0;2879;5216
0;40;1572713478454;1572713489200;10746;26099799208;66342699335;1866878130;487743050;11417273213;28665987;932888229;698;42;1138952;-1;3199;10490
0;41;1572713489226;1572713499558;10332;25323501294;64702439723;1849162261;471023551;10820607387;27911791;927292806;570;1;1098000;0;2666;4887
0;42;1572713499612;1572713510042;10430;25547072408;64899115147;1853812740;491802541;10892506414;28062044;929540759;573;1;1115456;1;2611;4756
0;43;1572713510120;1572713520781;10661;25460552954;65240919842;1856135426;443337956;11016195210;28161114;929127379;687;36;1127200;0;3251;11351
0;44;1572713520806;1572713531335;10529;25269573128;64985429865;1849165479;424498337;10924534411;28156166;930147985;599;0;1150864;-1;2871;5273
0;45;1572713531401;1572713542386;10985;25296364858;64853041915;1846328399;462269726;10876695778;27925216;927973350;681;48;1155872;11;2988;9878
0;46;1572713542428;1572713553184;10756;25408196040;65239884556;1846528987;436023157;11017100403;28112499;930214626;596;0;1156968;-10;3109;6370
0;47;1572713553214;1572713563850;10636;25361203604;65129933366;1860974388;456182834;10976919815;28140350;929530685;573;1;1103856;0;2642;4748
0;48;1572713563903;1572713574865;10962;25497833324;64997690348;1857646413;476891484;10928801006;27987023;927615389;1107;37;1150840;4;5805;28188
0;49;1572713574936;1572713585422;10486;25433450974;65329118033;1866005715;442835904;11048746496;28223932;927858793;572;2;1065144;-5;2874;5826
0;50;1572713585500;1572713596310;10810;25295796042;65077068752;1852036864;448626750;10956545252;28214606;928665190;597;0;1127224;1;2569;4751
0;51;1572713596335;1572713607359;11024;25464120318;65036047949;1856696282;465447176;10942211049;28174325;930511815;809;51;1164624;-1;3257;13700
0;52;1572713607434;1572713617967;10533;25406877952;65048044829;1849644667;458762948;10947241610;28001853;928573474;579;2;1097864;1;2881;5279
0;53;1572713618028;1572713628987;10959;25303113416;64879339632;1856375352;460410853;10886039113;28024220;928845315;585;8;1084752;0;3152;6698
0;54;1572713629070;1572713639702;10632;25319492426;65250633520;1856208414;441742429;11020849498;28160402;929441304;742;55;1155680;-1;3247;13957
0;55;1572713639741;1572713650624;10883;25613214934;65138777618;1848480627;477378174;10980491777;28231480;929488550;635;5;1191736;1;3043;5512
0;56;1572713650682;1572713661378;10696;25537262376;65611256764;1858444845;461760044;11150986117;28292119;928519712;572;4;1080360;0;2466;4613
0;57;1572713661406;1572713672021;10615;25361735920;65166337283;1852561015;458222418;10989913666;28061605;929139060;746;56;1164752;0;3377;12015
0;58;1572713672046;1572713683165;11119;25938324230;65367032377;1852269681;496227912;11062997898;28271181;931595284;641;3;1197672;0;2943;5376
0;59;1572713683192;1572713693886;10694;25347861832;64946943658;1857685413;433904400;10911080752;27873263;929183617;615;2;1150728;0;2703;5099
0;60;1572713693942;1572713704373;10431;25453171778;65182598291;1855778091;461801089;10996514376;28174437;930280894;743;56;1171288;3;3298;13678
0;61;1572713704439;1572713714570;10131;25431877240;65350682758;1858992316;434489508;11056702889;28242586;931417905;584;4;1086280;-4;2671;5020
0;62;1572713714643;1572713725389;10746;25200146040;64692424777;1855022934;443766428;10818097440;27995862;929317917;621;5;1162368;1;2755;5204
0;63;1572713725443;1572713735864;10421;25346277586;64856147587;1846655856;474384563;10877695067;27971286;926287477;680;57;1099128;2;3101;11241
0;64;1572713735913;1572713746946;11033;25572049358;65450407597;1851735017;454878458;11092164158;28388430;929568925;648;4;1197680;-3;2903;5482
0;65;1572713747010;1572713757192;10182;25585517128;65746595416;1856873634;449801237;11200484513;28463082;928989597;645;45;1025872;28;2441;8875
1;19;1572714104620;1572714115076;10456;25646337370;65851250486;1882647936;430694089;12994098795;30348228;934532003;640;48;1063336;0;2897;8561
1;20;1572714115104;1572714124811;9707;24125077230;63861231672;1864318851;356619059;12272096170;29354993;929170816;518;0;1004216;-1;2561;4623
1;21;1572714124878;1572714135188;10310;24653280994;64317651059;1860233998;419935244;12437196158;29606626;930972722;505;0;978864;2;2364;4376
1;22;1572714135243;1572714146036;10793;24516946340;64047847484;1860200315;411411040;12338843975;29408600;930684018;634;44;1059600;-2;2869;7481
1;23;1572714146098;1572714156195;10097;24805274148;64345146483;1853128980;439646644;12447322948;29710447;929153616;635;41;1052688;1;3021;8947
1;24;1572714156249;1572714165674;9425;24684413742;64843500313;1861364447;383034915;12627856080;29904969;931223749;482;0;933848;-1;2338;4155
1;25;1572714165739;1572714175209;9470;25047830956;64941801907;1861599336;411643700;12664198995;29838456;931828366;521;0;1004080;1;2506;4565
1;26;1572714175290;1572714186027;10737;24738302780;65270372712;1869941222;412801115;12783667393;29889791;930533688;556;0;1080360;0;2539;4699
1;27;1572714186055;1572714196098;10043;24748538110;64022287843;1859354283;433458439;12331369715;29546668;929052972;628;54;1092784;0;3089;8298
1;28;1572714196125;1572714207277;11152;25030797574;64411600771;1858527716;471031081;12472198865;29508773;928752312;615;0;1185584;4;2920;5306
1;29;1572714207305;1572714217552;10247;24557731440;64296100793;1856792598;425983357;12429158404;29537340;928327738;587;48;1021808;2;2439;5508
1;30;1572714217639;1572714228382;10743;24590260386;63773414546;1854890522;429548479;12240489126;29434206;927322209;592;0;1139480;-7;3364;8217
1;31;1572714228455;1572714239307;10852;24361471232;64027560540;1865957553;402164811;12333248504;29509061;928735921;589;1;1133192;0;2835;5153
1;32;1572714239383;1572714250515;11132;24691678556;64608142238;1856322209;439672059;12543971079;29776672;930264974;692;46;1180144;4;3411;9609
1;33;1572714250633;1572714261027;10394;24796616202;64492343437;1857790739;445718811;12502497553;29478086;928568672;554;0;1074584;-4;2950;5771
1;34;1572714261112;1572714271233;10121;24767194574;64603129548;1854807255;430914430;12554358568;29598158;927205100;524;0;1008184;2;2402;4309
1;35;1572714271308;1572714281617;10309;25081154434;64689346315;1848214146;449320408;12585785518;29687178;928156810;665;50;1123472;-1;2966;8776
1;36;1572714281645;1572714292002;10357;24293618608;63658600396;1837331451;410836137;12211871013;29182115;927457257;560;0;1086312;-1;2776;4918
1;37;1572714292077;1572714301975;9898;24255307478;63877191024;1841843221;414186356;12290393020;29310408;924615875;527;3;1015840;4;2476;4546
1;38;1572714302016;1572714312006;9990;24790473982;65029644988;1847287086;417967955;12710607037;29724130;927297323;633;64;1093176;-2;2890;8062
1;39;1572714312073;1572714321651;9578;24901773578;64757526624;1857651761;435334085;12610062050;29676095;927089304;518;0;1005896;-1;2578;4692
1;40;1572714321709;1572714332410;10701;25108324742;65306585592;1864958609;429397066;12809957467;30087402;930723043;607;0;1162600;2;2887;5290
1;41;1572714332464;1572714342406;9942;24441473684;63571635116;1843352255;446281744;12180850874;29209242;924846757;639;48;1074904;-3;2769;7381
1;42;1572714342435;1572714352532;10097;24819802900;64448762164;1841880105;453208287;12498463920;29602697;925665675;524;0;1014000;2;2647;4778
1;43;1572714352607;1572714362805;10198;24830558574;64754689337;1848599638;423802411;12610276981;29781878;924979851;512;3;988344;-1;2456;4514
1;44;1572714362878;1572714373153;10275;24411157368;63936962283;1836627325;437053057;12313667829;29416577;923765772;665;45;1098776;3;2826;8429
1;45;1572714373215;1572714383506;10291;24460481424;64389465515;1847271536;404094901;12477808389;29586738;926135399;559;1;1078680;-3;2700;4812
1;46;1572714383579;1572714393700;10121;24614084958;63847074041;1849969393;431769006;12281187311;29402941;925424247;555;0;1058720;-1;2534;4615
1;47;1572714393730;1572714404119;10389;24315547370;64390620112;1852406358;389970535;12478874316;29530417;924953479;627;52;1016160;0;2783;8815
1;48;1572714404161;1572714414020;9859;24822197008;64442243733;1840422179;446700302;12496944112;29526241;924417817;522;0;1009904;1;2634;4742
1;49;1572714414081;1572714423932;9851;24318027326;64035890219;1850247022;415101861;12349772600;29319364;925308220;498;2;951408;0;2342;4240
1;50;1572714424001;1572714433791;9790;24171736348;63871539362;1842733020;404693869;12289584189;29446004;926733687;595;47;986720;0;2568;7506
1;51;1572714433822;1572714444661;10839;24545010168;63894141908;1838640106;424850323;12298474583;29322097;926637844;593;1;1144864;0;2958;5314
1;52;1572714444689;1572714454762;10073;24632041936;64506030814;1853612600;411065456;12520110737;29598703;925601385;572;2;1098080;-1;2671;4861
1;53;1572714454821;1572714465404;10583;24491608040;64106150244;1845260063;417753137;12374647437;29387814;925118565;678;46;1134584;1;2960;9085
1;54;1572714465479;1572714475397;9918;24394873258;63808835203;1838185331;417414448;12267283155;29283364;923015729;1045;63;1079856;8;5884;26115
1;55;1572714475453;1572714485784;10331;24527570030;64061620121;1838009085;436627814;12360520709;29326521;924215501;559;13;1036000;-8;2773;6123
1;56;1572714485831;1572714496085;10254;24584873716;64390797941;1843210283;425439674;12478606958;29489744;924014881;553;3;1051080;0;2423;4480
1;57;1572714496162;1572714506954;10792;24430956720;63860866336;1831693736;420898875;12286290291;29273655;924316205;706;59;1157768;0;3329;20334
1;58;1572714506992;1572714517372;10380;24731648246;64128538329;1848624229;455204286;12383459036;29485470;923822880;681;6;1139872;0;3269;10546
1;59;1572714517460;1572714527733;10273;24644772552;64416447515;1850719247;413300400;12488186108;29578616;925920109;606;2;1145000;2;2746;5028
1;60;1572714527789;1572714537812;10023;24599098934;64167774275;1843807188;437765153;12396527693;29574816;926693682;673;56;1077216;-3;2881;8815
1;61;1572714537871;1572714547409;9538;24375740104;64395778728;1856708633;380435744;12480542772;29595770;926026911;520;5;980640;1;2571;4699
1;62;1572714547437;1572714557723;10286;24651448694;63886953011;1850917957;438784176;12295619212;29285544;925679729;597;1;1121528;-1;2689;4965
1;63;1572714557783;1572714568403;10620;24517339226;63831544888;1846929795;438208902;12275955792;29191651;923772918;710;40;1150448;1;3028;8989
1;64;1572714568434;1572714578249;9815;24688808196;64248339326;1859241150;426559923;12427069412;29534288;923672101;549;13;1027744;2;2656;4847
1;65;1572714578324;1572714588848;10524;24610894128;64171578397;1849539543;434411852;12399787095;29425095;924338067;637;9;1201688;-1;2860;5255
1;66;1572714588929;1572714598425;9496;24332819170;63691889986;1834758377;413619848;12225475658;29130925;923289069;635;57;1024664;-2;2646;7792
1;67;1572714598501;1572714608715;10214;25012435154;64819682528;1839483051;444768102;12633462149;29733897;927623936;596;9;1115184;2;2844;5137
1;68;1572714608744;1572714618949;10205;24395116786;64113400372;1843185612;397736246;12378477389;29383882;925680087;540;6;1010408;-1;2397;4420
2;10;1572714926193;1572714937829;11636;29556744430;74014363522;1907388964;474452946;16913761860;28876924;935506022;583;0;1124040;-1;2765;5077
2;11;1572714937869;1572714949736;11867;28873700804;72027949359;1889564996;482786807;16193245308;27827391;931357117;740;46;1243216;-3;3401;12155
2;12;1572714949801;1572714961501;11700;28847531618;72125955755;1883896215;475825978;16228166912;28032038;933293112;605;0;1168376;0;2930;5269
2;13;1572714961564;1572714973378;11814;29693296040;73488309026;1906038688;517983995;16723144611;28597368;933273779;597;0;1162368;1;2837;5199
2;14;1572714973425;1572714985466;12041;29044806088;73011027364;1895014380;468503158;16550526200;28108074;931575723;745;33;1243216;1;3334;10266
2;15;1572714985496;1572714997684;12188;29606903314;72882465310;1874335493;536682176;16503041056;28225003;930701114;659;0;1275688;-1;3151;5719
2;16;1572714997724;1572715009501;11777;29674018638;73176910598;1897849669;500783068;16610555990;28376661;931821196;687;51;1163520;0;2998;8470
2;17;1572715009566;1572715021950;12384;29281730216;73043757332;1894340374;519719869;16562483637;28306059;930856033;649;0;1260464;0;3333;6222
2;18;1572715022013;1572715033978;11965;28998191208;72665795396;1883575513;483360726;16426862923;27977810;931071635;613;0;1187648;3;2856;5165
2;19;1572715034021;1572715046048;12027;28905954248;72034667943;1875674172;521841668;16196393573;27924954;931394850;715;44;1215280;-3;3280;10623
2;20;1572715046074;1572715058519;12445;29366292978;72811598425;1885315712;545475572;16478999310;28173842;931624410;704;38;1209248;0;3244;8625
2;21;1572715058575;1572715070826;12251;29077080848;72477859846;1872851502;514793000;16358934504;28000407;930581712;685;0;1320912;-1;3193;5799
2;22;1572715070908;1572715082440;11532;28918476084;72164061100;1871951456;498244400;16245143569;27791180;930540433;630;0;1226960;4;2870;5274
2;23;1572715082469;1572715094352;11883;28825723014;72363020052;1882197052;495702085;16317498933;27897569;931268010;704;44;1221560;0;3423;8989
2;24;1572715094377;1572715106351;11974;29390692498;73084048023;1887579497;509860105;16579379893;28453470;930659669;663;0;1274024;-4;3053;5616
2;25;1572715106428;1572715118355;11927;28939238452;71884423810;1876758184;520786370;16143559806;27689808;931276648;734;48;1279592;0;3216;8088
2;26;1572715118396;1572715130655;12259;29140861532;72135850299;1877552332;542842455;16234488077;27782355;931893425;658;1;1273824;1;3136;5598
2;27;1572715130682;1572715142732;12050;29030598682;72610760094;1878177109;522448140;16407550236;28079018;931184921;651;0;1266240;1;2978;5411
2;28;1572715142771;1572715153498;10727;29335763502;73769017904;1874163181;452264071;16827386403;28641445;932299259;643;50;1074720;0;2958;8587
2;29;1572715153524;1572715164863;11339;29197952788;72751765027;1882459856;518390378;16459396655;28009689;933443048;616;0;1187728;2;2929;5280
2;30;1572715164933;1572715177007;12074;29120434234;73050125602;1878022943;499585854;16566455094;28327607;928944760;730;57;1291328;0;3266;7566
2;31;1572715177093;1572715189743;12650;29240547996;72121532334;1878046013;553175700;16230069177;27891476;927732016;732;0;1424568;-2;3668;6482
2;32;1572715189826;1572715202552;12726;29056678516;72146820932;1870760541;519745694;16238474611;27797320;928543288;719;1;1391200;0;3259;5932
2;33;1572715202624;1572715214566;11942;28657730888;71857738249;1867498676;498279778;16143347962;27753603;926842895;750;40;1276880;-2;3388;8965
2;34;1572715214635;1572715225964;11329;29010130066;72021833945;1871864087;522551116;16206260776;27806618;928136403;609;0;1170840;3;2953;5372
2;35;1572715226004;1572715237855;11851;29154178046;72635616407;1864216516;508379962;16429257925;27972734;925829690;678;0;1300776;-3;3015;5594
2;36;1572715237910;1572715249739;11829;29533752350;73763511593;1880993662;520048152;16839444482;28562565;926947698;748;42;1280096;4;3500;9294
2;37;1572715249823;1572715261831;12008;28708364710;72169870909;1867608332;482349412;16260366239;27878901;925196758;651;0;1250536;-4;2920;5304
2;38;1572715261882;1572715273988;12106;29031636158;71993511249;1868359773;534662516;16196452107;27656294;925319428;757;46;1304360;1;3511;11655
2;39;1572715274047;1572715285805;11758;28762533630;71655314861;1867911600;527285724;16073875613;27444734;923410450;667;0;1279784;0;3180;5739
2;40;1572715285830;1572715297906;12076;28612340802;71753623628;1866338267;501359465;16110550778;27660564;924921862;649;0;1256280;0;3037;5574
2;41;1572715297955;1572715309541;11586;28693443072;71893165942;1861993497;498706461;16160728711;27705278;925469810;695;42;1157320;-1;3247;9282
2;42;1572715309575;1572715320701;11126;28746671460;72547915358;1862982306;464778989;16397717001;28052483;925441115;588;3;1133104;1;2721;5066
2;43;1572715320729;1572715332124;11395;28627803662;71806145905;1864537928;501964100;16129481654;27688936;924335877;693;42;1128144;2;3026;11172
2;44;1572715332198;1572715344228;12030;28630794910;71706471025;1867897672;516778039;16092704491;27484056;927330835;666;0;1285576;-2;3371;5969
2;45;1572715344287;1572715356477;12190;28975742686;71600579237;1857980917;528566763;16054317257;27484802;925505352;1298;65;1463200;-1;7448;44611
2;46;1572715356546;1572715367926;11380;28549899376;72108299500;1870932330;475281422;16240182856;27680848;926634709;602;2;1144944;0;2918;5674
2;47;1572715367993;1572715379278;11285;29320116828;73016306977;1870917987;507175424;16568173065;28171654;927400349;645;1;1226912;1;2857;5266
2;48;1572715379305;1572715391144;11839;28746605614;72334301729;1874510968;492025254;16320497771;27778493;926449607;824;56;1241424;6;3589;13661
2;49;1572715391172;1572715403102;11930;28928856684;72179169953;1866776553;495631175;16264144180;27705031;925147757;670;5;1279824;-7;3298;6513
2;50;1572715403145;1572715414377;11232;28733053602;71946865582;1873239351;516048759;16178940882;27781973;926676159;706;67;1153904;1;3138;11230
2;51;1572715414404;1572715426353;11949;28987949308;72242905445;1870097741;506314252;16287358225;27921414;927533055;666;2;1265920;2;3210;5782
2;52;1572715426411;1572715437978;11567;28712352992;71874678162;1870029584;510552799;16154752365;27524778;926670132;645;6;1223280;-2;2913;5288
2;53;1572715438005;1572715449516;11511;28839790698;71925830226;1872153544;516809779;16170570969;27731036;925109834;751;55;1257840;1;3338;9990
2;54;1572715449604;1572715461300;11696;28824358352;72080813990;1866789929;520775792;16228328712;27724104;925954932;645;5;1223008;-2;3454;6927
2;55;1572715461361;1572715473011;11650;28873794828;72126132803;1871588599;519145889;16244649392;27696540;926198458;616;10;1168288;1;2809;5165
2;56;1572715473037;1572715485044;12007;29472358620;72864879642;1870304781;557012821;16513520381;28120388;927917198;748;49;1245256;-1;3384;10827
2;57;1572715485104;1572715496237;11133;29330034900;72676624916;1880862373;535521833;16442687996;28124556;925365439;635;4;1203416;1;2882;5347
2;58;1572715496264;1572715507773;11509;29019447932;72184630879;1861389544;515432067;16266367222;27830624;926280392;770;41;1298696;-1;3362;10414
2;59;1572715507844;1572715519104;11260;28609770326;71717245107;1855425170;486962249;16096239685;27563537;924282522;639;7;1209328;4;2991;5482
3;11;1572715821245;1572715832757;11512;28421664218;72280723196;1873391443;466473418;15989981556;28992282;931132446;698;44;1122312;-4;3022;10185
3;12;1572715832817;1572715844475;11658;28565970472;73159288814;1881454254;460680854;16307935966;29498740;932786666;581;0;1121392;4;2844;5150
3;13;1572715844557;1572715856540;11983;28551005180;72539632003;1880974530;493576670;16085044676;29152418;932171306;617;0;1197728;-4;2875;5175
3;14;1572715856589;1572715868816;12227;29027030880;73533374738;1890506330;508937043;16445848168;29596622;932912917;802;38;1285952;0;3645;15810
3;15;1572715868891;1572715880200;11309;28906296472;73268072553;1885796171;494842247;16348224092;29345309;933178720;552;0;1068592;4;2683;4905
3;16;1572715880272;1572715892201;11929;28373917692;72838250096;1880882311;464151508;16191961558;29220655;931139146;717;60;1227800;-1;3215;8898
3;17;1572715892244;1572715903912;11668;28349958362;72515007546;1878747993;466006024;16076300592;29135564;931276689;589;0;1138968;1;2920;5237
3;18;1572715903968;1572715916179;12211;28838094908;73290901479;1869706452;486111698;16357678265;29487537;929869820;685;0;1332512;-3;3209;5867
3;19;1572715916206;1572715927747;11541;28193441690;72683498903;1870261800;450373311;16137012204;29083522;930221954;728;44;1180720;0;3324;13006
3;20;1572715927772;1572715939861;12089;28604423368;72985612017;1874057001;473562886;16247220718;29218216;928779187;764;40;1286856;0;3456;10534
3;21;1572715939886;1572715951774;11888;28351470630;72342607369;1865631329;485415463;16013967635;29042665;928060563;617;0;1191808;3;2984;5246
3;22;1572715951801;1572715963089;11288;28227818996;72845945318;1867334821;444015709;16197386050;29099373;928599083;605;0;1174280;-4;2752;5009
3;23;1572715963155;1572715974905;11750;28596818666;72875499876;1873972977;480341054;16207733351;29164192;930575149;819;29;1296232;3;3620;18827
3;24;1572715974943;1572715986641;11698;28642488342;72626743481;1874028232;518875738;16117560128;29140797;930619875;653;0;1259632;1;3002;5498
3;25;1572715986704;1572715998555;11851;28386007368;72553433308;1870041775;487170692;16090720031;28992784;929055235;782;38;1246424;-4;3530;17713
3;26;1572715998660;1572716010015;11355;28202399082;72123916506;1868247959;474026514;15936011632;28849146;928839043;574;0;1115544;0;2976;5360
3;27;1572716010080;1572716021521;11441;28529998700;73507887766;1880873291;464647329;16437692617;29285420;930202860;622;0;1203448;1;2932;5418
3;28;1572716021576;1572716033426;11850;28144142746;72285073262;1876126511;474158450;15993863982;28844780;926256362;792;37;1246008;0;3506;16879
3;29;1572716033497;1572716045518;12021;28438679204;72542821331;1874501207;517471671;16088036152;28996074;928801151;673;0;1303216;0;3231;5767
3;30;1572716045568;1572716057205;11637;28291831966;72939029210;1870811894;465994911;16230348381;29216205;926083270;566;0;1091784;4;2619;4831
3;31;1572716057265;1572716069499;12234;28443915348;72815539758;1868028439;493820014;16187008037;29018910;926858925;791;44;1266768;-2;3626;16149
3;32;1572716069578;1572716081468;11890;28588546598;72655449757;1872284381;518616803;16126348873;29239242;926465130;632;1;1221144;-3;2937;5375
3;33;1572716081536;1572716092522;10986;28428181658;72647992845;1874629001;484618220;16130744319;29004083;926231507;697;33;1104904;0;3016;11014
3;34;1572716092581;1572716103997;11416;28922444364;73394984900;1871134362;496975559;16407933311;29367812;928514961;635;0;1226904;1;3304;6056
3;35;1572716104042;1572716115971;11929;29161576304;73958820511;1866087344;510818822;16612361453;29518011;930244000;711;0;1379424;3;3225;5879
3;36;1572716116045;1572716127486;11441;28245923726;72264475564;1863447581;476858850;15998043238;29031587;927184091;737;43;1210528;-3;3406;11020
3;37;1572716127515;1572716138963;11448;28191042326;72479126637;1862020616;475003946;16076217799;29014257;927672379;619;1;1191888;-1;3296;6558
3;38;1572716139036;1572716150721;11685;28132295430;72241756376;1858281194;473234961;15990771913;28707312;925365173;743;48;1239704;10;3119;8658
3;39;1572716150790;1572716162668;11878;28350995546;72592137669;1859259402;480582240;16117714793;28961033;925089671;677;0;1301848;-8;3506;8525
3;40;1572716162693;1572716174482;11789;28343328210;72403890581;1873415199;482896676;16049728394;28952178;925926139;635;2;1228752;2;2962;5417
3;41;1572716174506;1572716186131;11625;28259760292;72830442396;1860882570;453671448;16203904251;29221899;924899241;776;42;1251016;-3;3401;13932
3;42;1572716186158;1572716198434;12276;28507320082;72905271652;1857518206;495807359;16230338284;29103461;925549890;648;2;1250560;-1;3208;5672
3;43;1572716198473;1572716210818;12345;28694707286;72993947118;1871595431;508555680;16262870495;29257993;925043884;740;2;1438032;1;3448;6231
3;44;1572716210844;1572716222068;11224;28334476668;72375358473;1858812216;476174776;16039632041;28919523;923242516;674;41;1110856;-1;3243;11665
3;45;1572716222091;1572716233832;11741;28492222076;73104409124;1861974278;491323408;16304306748;29222738;925916317;623;2;1203536;0;2842;5160
3;46;1572716233901;1572716245368;11467;28441776740;72855218181;1871182793;486066273;16212728661;28994543;925150145;700;51;1198408;4;3156;8915
3;47;1572716245436;1572716256709;11273;28199422580;72164365792;1864330848;494771092;15962728212;28889467;923205287;1153;61;1269904;-1;6785;36446
3;48;1572716256772;1572716268655;11883;28451879064;72281002953;1861637876;506065980;16005069946;28988612;922494315;618;2;1185912;-2;2903;5513
3;49;1572716268718;1572716280333;11615;28480638728;73537193262;1874349433;468140160;16461002336;29386773;925315714;768;61;1200544;0;3351;27866
3;50;1572716280383;1572716291879;11496;28312624410;72665635971;1859940592;467166056;16145299677;28989205;924345258;712;3;1210272;-1;3408;8400
3;51;1572716291955;1572716303663;11708;28359930454;72005847032;1853148932;520682131;15904855914;28773029;923067112;640;3;1223368;3;2965;5516
3;52;1572716303724;1572716315021;11297;28528795660;73266694799;1861906634;459837229;16362473079;29331280;926632346;730;43;1186288;0;3265;10816
3;53;1572716315078;1572716326437;11359;28363075294;72764309450;1856785353;473206949;16180137620;29029547;924979708;612;3;1172360;-1;2854;5210
3;54;1572716326500;1572716338670;12170;28708356242;73403400477;1863026244;506619602;16412088756;29262872;925520299;686;1;1305032;-1;3176;5879
3;55;1572716338697;1572716350247;11550;28029579174;72028612740;1865767109;465215521;15913879223;28812996;924338080;709;49;1157976;3;3290;11256
3;56;1572716350318;1572716362078;11760;28031967296;72151574579;1861154956;464813944;15957683576;28774000;925380501;648;2;1238776;-1;3025;5536
3;57;1572716362150;1572716373702;11552;28176212814;72356261289;1853341114;471156910;16032298292;28762786;923264921;751;41;1204384;-3;3161;10837
3;58;1572716373774;1572716385342;11568;28621523326;73792578631;1868128631;463204498;16554252084;29561555;926101505;651;2;1232800;4;3160;5702
3;59;1572716385416;1572716397397;11981;28447184142;72202580009;1855054509;509456033;15976753820;28826301;924102281;676;3;1285272;-2;3054;5640
3;60;1572716397441;1572716409193;11752;28296396218;72791858583;1867385601;468959171;16189919879;28983326;923255295;779;50;1286800;-2;3615;10794
4;9;1572716725098;1572716736822;11724;28689858626;73223650983;1877152810;458875335;16220500006;28275671;928437942;629;0;1221184;-1;3135;5596
4;10;1572716736895;1572716750108;13213;29405540260;73808373912;1873749563;549714009;16434042646;28515712;929824926;688;0;1336568;2;3118;5672
4;11;1572716750151;1572716762091;11940;29541573862;75026660475;1892638343;488870171;16878482033;29091442;930546473;688;60;1179448;-2;3392;11138
4;12;1572716762158;1572716773559;11401;29589262718;74903408989;1887114783;489025443;16833812971;29061705;931293131;596;0;1156552;1;2845;5100
4;13;1572716773623;1572716785444;11821;29467582376;74006018446;1881109749;532611025;16508658980;28700349;928686756;721;40;1227648;0;3189;8824
4;14;1572716785514;1572716797982;12468;29132438938;73776353631;1873019727;545860317;16424255368;28376774;928493698;621;0;1207600;1;3107;5563
4;15;1572716798053;1572716810505;12452;29348015968;74279292665;1884774955;506073156;16608280904;28698828;931604120;659;0;1275768;-2;2988;5439
4;16;1572716810593;1572716822889;12296;29122887764;73336348423;1882190193;534684796;16265972875;28291375;929453068;774;48;1339208;1;3651;11833
4;17;1572716822926;1572716834489;11563;29004277364;73456225593;1873786973;502371996;16310512962;28184741;929983820;652;0;1262200;0;3029;5438
4;18;1572716834542;1572716846148;11606;28677753036;73159802356;1874923623;471658174;16201943044;28308550;929166705;716;56;1204800;0;2996;7184
4;19;1572716846225;1572716858510;12285;28928879460;73212440254;1876307466;520106859;16221810010;28120727;929703228;669;0;1301424;1;3348;6025
4;20;1572716858570;1572716869680;11110;28836966766;74402961718;1881023130;459051295;16654793946;28628493;930398905;659;44;1153192;-1;3187;7357
4;21;1572716869747;1572716881805;12058;29097951986;73374990300;1880862182;517170780;16281189552;28351530;928586490;657;2;1268072;0;3039;5599
4;22;1572716881837;1572716894256;12419;28960836816;73092578054;1868650155;521974328;16179183328;27967716;927548656;745;42;1292672;-1;3284;8465
4;23;1572716894324;1572716906950;12626;29379093236;74167468939;1878770669;531126412;16569158221;28714361;928732756;689;2;1332488;4;3366;6047
4;24;1572716906988;1572716918786;11798;29170217460;73852543513;1873901152;497593881;16455934791;28387532;927862181;622;0;1209368;0;2839;5213
4;25;1572716918811;1572716930642;11831;29050259772;73092449826;1875161507;548401671;16179030433;28042402;926800311;727;52;1268344;-4;3415;9795
4;26;1572716930705;1572716942428;11723;28867273446;73711740196;1875816914;483580167;16404286401;28265687;927913063;626;2;1209416;0;2886;5206
4;27;1572716942498;1572716954417;11919;29483918754;74694559859;1889407199;516177708;16761385433;28747809;929918323;751;46;1283632;2;3470;11759
4;28;1572716954466;1572716966571;12105;28894150440;72990626327;1879928297;532604591;16142891659;28045421;926885747;645;0;1252272;-2;3208;5758
4;29;1572716966620;1572716979082;12462;28817910116;73152014549;1878997334;516571302;16201055385;28025715;926933931;680;2;1314880;1;3120;5684
4;30;1572716979141;1572716991357;12216;29275864520;73686242252;1880443492;526828516;16395694830;28433583;931287767;796;42;1321248;-1;3660;13588
4;31;1572716991428;1572717003331;11903;29267448058;74609277017;1884906589;511666293;16730137423;28823082;928841108;632;2;1221144;0;3028;5349
4;32;1572717003358;1572717015770;12412;29044729000;73477157918;1866077501;510805767;16317582450;28282581;925191307;798;46;1278632;1;3554;18767
4;33;1572717015836;1572717027822;11986;28753755088;73287340610;1864043871;508811906;16269787353;28126884;925415809;622;0;1209368;0;3118;5578
4;34;1572717027870;1572717040201;12331;29628214204;74842629433;1888755887;524326214;16840779408;28933647;928134817;674;1;1295248;2;3175;5905
4;35;1572717040228;1572717052165;11937;29078901760;74128975575;1870925774;493302762;16581416426;28458736;922372399;758;46;1253960;-2;3336;11194
4;36;1572717052218;1572717064103;11885;28778207460;73373987585;1868359638;500243854;16308164933;28312441;923250771;632;2;1215368;-1;2966;5347
4;37;1572717064220;1572717076082;11862;28983660412;73773169912;1867076638;484083060;16452840505;28523582;923730487;644;0;1244592;3;3006;5423
4;38;1572717076151;1572717087805;11654;28659185194;73154214579;1864393609;504975781;16228501466;28136272;923625841;746;36;1233544;2;3498;13007
4;39;1572717087861;1572717099949;12088;29659773418;74460517825;1860301721;568830350;16702125230;28821713;925401128;716;1;1373992;-4;3232;5912
4;40;1572717100013;1572717111563;11550;28855189464;73251012501;1867176821;519957767;16262402862;27956365;922644333;719;47;1233480;2;3242;10090
4;41;1572717111631;1572717123591;11960;28763791858;73161140213;1863177547;494708180;16231621580;28195667;923842909;678;1;1303240;-3;3223;5795
4;42;1572717123619;1572717135276;11657;28775463244;73265249787;1863629576;527154882;16279491442;27936116;923423650;627;0;1215232;0;2832;5236
4;43;1572717135335;1572717147316;11981;28757298070;72668824389;1867764021;524966487;16062003896;27553749;923710529;755;54;1315928;0;3573;9632
4;44;1572717147351;1572717159567;12216;28868610222;73231616777;1865260184;521184869;16266412267;27889514;924135278;1176;43;1316288;6;6278;34265
4;45;1572717159631;1572717171721;12090;29608317762;74400937670;1868697830;535379369;16692494903;28454429;925426415;719;3;1312168;-6;3688;9136
4;46;1572717171768;1572717183547;11779;28959081020;73223881820;1860898615;522991791;16265531740;27794047;924916488;639;0;1221064;1;2748;5171
4;47;1572717183576;1572717195596;12020;29201413426;74219731742;1876885577;502149849;16627202700;28220266;926493084;750;60;1255536;0;3411;11184
4;48;1572717195652;1572717206841;11189;28552909750;72953864968;1865378231;499415499;16167234808;27803637;922960260;674;4;1145712;3;3094;7607
4;49;1572717206866;1572717218445;11579;28565924190;72809372980;1858053754;496661913;16115514662;27571353;923389573;639;1;1211752;-1;2906;5469
4;50;1572717218470;1572717230739;12269;29001656956;73241930854;1868218272;525454301;16271942892;27832392;924430188;835;57;1409424;-3;3901;11291
4;51;1572717230813;1572717242740;11927;28640240964;72864168085;1859258451;498112348;16134469802;27763928;922351277;671;1;1285512;1;3099;5642
4;52;1572717242809;1572717254110;11301;28912062450;73821692699;1870005599;489742324;16482527985;28084451;924179237;769;44;1224568;3;3326;14111
4;53;1572717254136;1572717265185;11049;29046020516;73102511699;1860254992;525399033;16221423191;27767877;924455870;570;4;1084392;-3;2707;4876
4;54;1572717265211;1572717276230;11019;29050521696;74050772528;1873990006;496562994;16566930765;28173430;925135357;592;7;1115600;0;2676;4927
4;55;1572717276295;1572717287831;11536;28534800932;72765980235;1852040431;500889982;16099751764;27677188;921943933;775;54;1193752;0;3387;22680
4;56;1572717287885;1572717300114;12229;29021293226;73178629845;1861140002;535238480;16249160499;27709310;921682072;670;8;1271768;2;3110;5715
4;57;1572717300141;1572717312033;11892;28704922468;73243063922;1856966583;505822191;16272744835;27804578;922767895;810;50;1305336;8;3355;13876
4;58;1572717312108;1572717324266;12158;28776480864;72788749177;1861527092;491107522;16107160879;27609502;922585266;720;7;1344664;-10;3732;7749
