0;0;1572717506056;1572717520186;14130;29672273354;70730466425;2493710651;358906047;13713559041;49980423;1186829202;0;0;0;0;0;0
0;1;1572717520267;1572717538634;18367;26311085006;65614690867;2038982822;453433961;12676440798;32274903;991990460;3428;19655;2047712;15;18448;2718132
0;2;1572717538668;1572717557863;19195;27028030270;65109175727;1990303364;608392081;12529920411;31176085;974169297;4450;19410;2133912;-139;18966;2018742
0;3;1572717557987;1572717568654;10667;25606682894;66065844581;1911682813;411355803;12884273811;31351809;939656928;3588;11107;1149368;135;10358;917679
0;4;1572717568707;1572717582855;14148;25418419982;65389171350;1888780724;444135857;12657525943;30479338;937337385;2253;17469;1699008;-12;14201;2022236
0;5;1572717582903;1572717595923;13020;25350330254;66092977061;1889981642;386121010;12916878098;30988081;936783213;2350;19478;1979592;3;13068;1901891
0;6;1572717595953;1572717610022;14069;25476916196;65214671553;1879507444;447705172;12605934703;30630574;935663626;2761;14865;1462880;-6;14099;2013922
0;7;1572717610108;1572717628177;18069;25534092862;65764522019;1879604068;439471921;12806924539;30747008;934814180;2957;25833;2502176;24;18155;2672961
0;8;1572717628223;1572717646385;18162;24797594986;64958782017;1879292748;378018806;12516121876;30343155;930670337;3408;19028;2049448;-13;18208;2597033
0;9;1572717646456;1572717667666;21210;25313668924;65034000423;1883261706;461006094;12543849034;30177444;932974720;4009;28541;2865448;4;21281;3186314
0;10;1572717667748;1572717692261;24513;25096374350;66159493169;1890806826;383270667;12953594179;30627850;934571504;4732;28943;2961544;5;24595;3085182
0;11;1572717692347;1572717705453;13106;24749311910;64851149988;1877980207;415891700;12479953451;30053124;931995616;2569;13537;1328968;-1;13192;1756956
0;12;1572717705514;1572717718245;12731;25337925948;65110663113;1870700954;439457562;12575577274;30074610;931935661;1904;19027;1913824;-108;12791;1713502
0;13;1572717718316;1572717728028;9712;25563168762;66558412731;1872327547;396289626;13119734314;31274819;932319061;2688;9832;1015264;98;9323;1016438
0;14;1572717728057;1572717740712;12655;25760294896;65956741710;1874677140;448356276;12901544298;30850686;934068044;2394;13769;1435528;-14;12684;1889383
0;15;1572717740815;1572717761563;20748;24558694018;65519475155;1896333576;276570474;12740698829;30275089;931467227;3426;28614;2674280;3;20852;2966854
0;16;1572717761596;1572717781615;20019;25412640864;65743330569;1877641834;428439825;12824388620;30317953;933470011;4140;25156;2690552;8;19955;2832823
0;17;1572717781653;1572717797479;15826;25577015694;65514651019;1880488495;470823384;12743057670;30681899;933583430;2511;21886;2120552;-5;15863;2262028
0;18;1572717797539;1572717809446;11907;25124212316;65062620251;1866311148;413475980;12579397738;29939397;930219629;2730;12502;1334840;-3;11968;1834156
0;19;1572717809554;1572717830738;21184;25916075728;65937184185;1885367767;485572214;12895435672;30624376;936340182;3249;31581;2950984;22;21291;3027538
0;20;1572717830770;1572717848648;17878;25204476546;65623477144;1876718252;391096088;12781768105;30397475;931549112;3735;18851;2016808;-20;17911;2668243
0;21;1572717848681;1572717868064;19383;25046328616;65618165432;1875203820;320334860;12780767325;30326633;934508296;3177;26105;2694400;6;19416;2781381
0;22;1572717868140;1572717879312;11172;24927874582;64673273170;1872587186;428052745;12438590963;29566612;928829361;2369;11161;1089760;-1;11248;1613066
0;23;1572717879430;1572717895033;15603;25224676522;65948829334;1868918879;370690169;12900763471;30485065;930343077;2666;22331;2130920;-1;15721;2372770
0;24;1572717895062;1572717914301;19239;24585501224;64701262606;1880237538;330964279;12447549438;29806135;930615502;3422;21220;2323104;-93;19268;2687112
0;25;1572717914329;1572717924826;10497;26204868108;66560359177;1881830932;504211058;13123625727;30715842;933731876;2569;13258;1388992;6;10292;444298
0;26;1572717924885;1572717936810;11925;25532713016;65247069136;1881400524;490590774;12647281373;30061090;931479112;2734;12074;1157808;89;11983;1710507
0;27;1572717936842;1572717954102;17260;25102466200;65133346982;1864475256;415863634;12605360391;30344118;931230203;2515;26039;2483592;16;17292;2472248
0;28;1572717954130;1572717971788;17658;25838048072;65512956181;1892123743;511995525;12743520657;30097853;933798492;3692;19528;2084696;-23;17687;2632513
0;29;1572717971816;1572717991031;19215;24421246844;66047988963;1881637315;231042865;12936869332;30307835;930080048;3235;27927;2662088;-2;19242;2857366
0;30;1572717991065;1572718015954;24889;25324897638;65774137415;1882064285;400754534;12837007078;30335553;930065705;4386;29406;2990408;2;24924;3546296
0;31;1572718016048;1572718037513;21465;24101678102;65189757456;1872290174;235341007;12624741901;29999802;926571811;4235;25529;2607864;9;21559;3172741
0;32;1572718037545;1572718061262;23717;25110241430;65062561374;1865973717;444483309;12578901989;30132225;928204927;4751;27234;2827720;-1;23652;3310751
0;33;1572718061352;1572718078082;16730;26094406552;65800926346;1864437093;493802534;12854406814;30785867;928793221;2543;24554;2321576;6;16820;2393697
0;34;1572718078110;1572718091019;12909;25628891100;65687902009;1865783764;465154781;12818070923;30087030;928251512;2821;12787;1500264;12;12938;2153966
0;35;1572718091099;1572718114327;23228;25576159842;66130382356;1876765583;441591065;12977755850;30470507;928584197;4308;28953;2770192;-5;23308;3413379
0;36;1572718114363;1572718135631;21268;23792557704;64173935826;1869303335;298028715;12268364396;29623416;924650017;3816;24828;2511264;-4;21304;3045992
0;37;1572718135686;1572718156264;20578;25371814446;65791296609;1867921386;441889991;12856102944;30259187;927735362;3973;26683;2719632;8;20633;3096134
0;38;1572718156331;1572718176981;20650;24173860356;64837827215;1870927002;269616968;12509063354;30005006;925333974;3567;26720;2595240;130;20716;3014432
0;39;1572718177024;1572718201401;24377;25256438822;65014831033;1858943871;460497879;12573192991;29910812;927164743;4675;28213;2904160;-158;24421;3554516
0;40;1572718201430;1572718219916;18486;24620142498;65813431385;1882080279;273631437;12864791547;30218836;928167336;3586;23692;2434744;16;18515;2752128
0;41;1572718219964;1572718245965;26001;25377672258;65031680974;1866555725;469966528;12578998670;30114195;927627059;5066;30087;3061760;-17;26049;3462059
1;0;1572718400838;1572718414898;14060;31110919540;75907749494;2494066663;353444622;15591147506;52510481;1203474744;0;0;0;0;0;0
1;1;1572718414979;1572718433129;18150;28939916330;75299348440;2042667285;264677806;16809956551;33497990;999440413;3111;21198;2185544;4;18232;2699856
1;2;1572718433252;1572718447518;14266;29595433116;74550821423;1998425058;433632761;16774601219;31260005;964663570;2671;15847;1499424;2;14389;2059912
1;3;1572718447552;1572718466273;18721;29274532416;74150615942;1905305494;529024118;16639322762;31015664;938239865;3575;25215;2564192;13;18755;2802220
1;4;1572718466347;1572718496301;29954;29061152540;73549679497;1912464732;533564840;16428377394;30644483;939960443;5317;38071;3857200;2;30029;4361083
1;5;1572718496392;1572718521884;25492;29203425890;74026128066;1910439322;531734349;16611013532;30605461;934603984;4497;32180;3147328;-21;25581;3720022
1;6;1572718521971;1572718544444;22473;28310672536;74563360862;1897990838;310244629;16811322254;30868992;932420541;4112;26065;2633088;0;22560;3221506
1;7;1572718544515;1572718567462;22947;29260686214;74322679804;1900303096;548980182;16726253832;30353296;934532987;4450;28523;2880520;20;23019;3371950
1;8;1572718567491;1572718589253;21762;27897679562;74211670866;1894780762;265661640;16687550353;30413888;934686651;3819;29598;2985168;1;21791;3199612
1;9;1572718589290;1572718615640;26350;29097897236;73463921563;1905636633;575135231;16416449467;30069188;935674244;4888;31624;3124616;142;26387;3814745
1;10;1572718615675;1572718633296;17621;29652472104;74229330195;1900639867;583157839;16695020573;30425000;934583664;3470;19008;1976432;-156;17656;2494496
1;11;1572718633324;1572718651977;18653;29204566150;74025867571;1894786603;531683350;16623208677;30210128;934030704;3199;25860;2584888;-9;18680;2778164
1;12;1572718652051;1572718680830;28779;28967526098;74447153881;1899746598;479166541;16775190367;30477054;933835888;5152;33629;3346416;8;28854;4215472
1;13;1572718680855;1572718699612;18757;29255005354;74296889889;1898042504;529002450;16721378460;30590388;934786902;3777;24831;2507408;14;18782;2782758
1;14;1572718699677;1572718721742;22065;29297337762;74230667620;1907210052;521144544;16696923593;30810169;935642836;3930;28863;2827336;-10;22130;3266379
1;15;1572718721779;1572718747376;25597;28801634766;73698128151;1896613241;515415603;16503638481;30198013;934375240;4674;30252;3065016;3;25634;3659094
1;16;1572718747468;1572718774639;27171;29178158984;74674861698;1896387415;527755339;16859429682;30389802;933377227;5177;32750;3377512;9;27263;4008110
1;17;1572718774666;1572718787487;12821;28297911990;73108248947;1904860253;464494221;16291816746;29849946;932413352;2877;14948;1592768;-20;12848;1947175
1;18;1572718787565;1572718805266;17701;28704163706;74449987022;1894798683;462162812;16778203955;30252043;932690147;3098;21122;1996032;7;17779;2533193
1;19;1572718805319;1572718827011;21692;28521819634;74263816654;1898534550;388756261;16711006283;30353888;931172428;4379;27574;2862584;12;21745;3238591
1;20;1572718827054;1572718845584;18530;29275020494;74666410298;1892279091;529007936;16857864999;30433314;932138073;3739;21636;2361784;-133;18487;1512716
1;21;1572718845611;1572718856971;11360;28556114450;73359019645;1895956373;493809809;16383696628;30066351;931797009;2770;11115;1113904;121;11387;1627631
1;22;1572718857001;1572718875328;18327;29386290306;74803705854;1894923731;539553345;16909245105;30310415;933809559;2788;28327;2659032;-4;18357;2612035
1;23;1572718875387;1572718888050;12663;29322682632;74920404282;1887549171;504713169;16952016006;30446413;931808439;2968;11270;1325480;0;12705;1658811
1;24;1572718888105;1572718904003;15898;28837345344;73183778419;1883522819;536948498;16320459042;30001779;932269972;2550;22099;2121936;-9;15953;2279666
1;25;1572718904050;1572718917672;13622;28978858180;73602977903;1890763399;519517001;16473934573;30070029;931439667;3017;15710;1670608;30;13669;2056998
1;26;1572718917712;1572718937279;19567;29806439178;74886640768;1890500333;595758709;16939247834;30396695;932711480;3598;23060;2434128;-141;19606;1853959
1;27;1572718937348;1572718948863;11515;28771336992;73708910724;1881800878;525375166;16512269267;29782224;930947435;3148;12110;1226728;121;11504;1275376
1;28;1572718948904;1572718965808;16904;29032189790;73618575112;1895885617;525165009;16479067013;30126536;932463240;2972;21546;2071072;1;16945;2601795
1;29;1572718965854;1572718992659;26805;29070099274;73835302635;1895951394;546349444;16556458487;30340978;931573752;4847;26088;2921736;-4;26850;3853219
1;30;1572718992732;1572719014252;21520;28675850802;73433152732;1878789790;502982146;16412284235;29996815;931614427;4163;26560;2694736;7;21594;3207122
1;31;1572719014291;1572719035922;21631;28918531272;74200975794;1891108132;476272947;16690424452;30228319;929273705;3638;27916;2806280;6;21670;3203863
1;32;1572719036029;1572719061378;25349;28721913656;74148122286;1880156230;470494913;16671355962;30166187;929225561;4759;30405;2974432;-5;25456;3755687
1;33;1572719061413;1572719082122;20709;28831839684;73561258905;1881881838;514648901;16464615418;29841079;925927356;3803;23841;2459496;7;20744;2963160
1;34;1572719082186;1572719106376;24190;29119130892;73309839868;1881534802;570887610;16378009359;29925330;927342054;4677;29742;3047192;0;24254;3571852
1;35;1572719106403;1572719128437;22034;29026183496;74719531384;1892016981;420952575;16889547059;30513412;926477565;4021;27821;2851352;-30;22061;3129169
2;0;1572719261734;1572719280099;18365;30853213188;75860843434;2458650937;360484585;15831910702;50293252;1210096649;0;0;0;0;0;0
2;1;1572719280160;1572719303525;23365;26831583620;66695216482;2034876549;486860114;12999270269;31725691;1004904136;4289;25481;2604872;-26;23425;3428056
2;2;1572719303557;1572719325808;22251;26209699248;66136656912;1975891412;466021525;12892396384;29958731;970857030;3766;30251;3074744;20;22283;3260663
2;3;1572719325887;1572719346860;20973;24014127450;65179321808;1915644853;292305282;12556480769;28997898;944861763;3679;24743;2422000;-26;21052;3006385
2;4;1572719346929;1572719363519;16590;25724355828;66371352842;1900565404;449825412;13001252292;29418550;940819554;3585;18362;1938208;5;16660;2330746
2;5;1572719363561;1572719377578;14017;25718112868;65759067047;1894089625;479554797;12788698988;29113531;938181863;2155;19258;1806552;3;14058;2012603
2;6;1572719377629;1572719389923;12294;25505260490;65942986202;1890445100;438706336;12858546583;28957248;937367252;2740;14973;1583152;20;12345;1770253
2;7;1572719389993;1572719409961;19968;25110043600;65544669323;1906719648;457969541;12714866531;29175898;936391883;3188;25365;2495640;-15;20039;2854740
2;8;1572719410007;1572719427565;17558;24753747682;65405726353;1894544751;395549616;12665229625;28860901;936887428;3727;21796;2224616;8;17604;2683266
2;9;1572719427612;1572719450274;22662;24915595106;66754401167;1925235006;266439050;13155915225;29439157;941229180;3960;30131;2864008;11;22708;3392636
2;10;1572719450306;1572719473867;23561;26029577004;66832484607;1894260612;478483857;13182321579;29266036;940334778;4257;26668;2865616;-70;23594;3020308
2;11;1572719473896;1572719483670;9774;24986593884;66592047225;1899960064;373174549;13100516698;29073153;936463229;2143;11514;1168848;48;9802;985770
2;12;1572719483696;1572719501631;17935;25711288536;66423685435;1884987812;458322779;13038332716;29050963;937398078;3105;21413;2043992;-1;17961;2566250
2;13;1572719501659;1572719518358;16699;25431084314;66297937506;1879019231;424138789;12988639497;29226625;937548670;3249;22344;2389776;150;16728;2499116
2;14;1572719518397;1572719541272;22875;25658031532;66456320392;1905336127;397366760;13049259538;29616641;936069864;3870;29846;2786216;-132;22914;3363162
2;15;1572719541341;1572719558503;17162;25632422548;65781764803;1875613323;474347574;12804956311;28958180;933475478;3165;25921;2665560;-7;17231;2546030
2;16;1572719558553;1572719581807;23254;25920594136;66141489073;1889215313;473530351;12936695589;29207272;936390098;3916;27662;2753784;-11;23304;3329104
2;17;1572719581848;1572719601614;19766;25138533164;65473220630;1877772993;420922370;12695575181;28684823;934432189;4109;23437;2353672;5;19807;2910319
2;18;1572719601680;1572719622213;20533;25780369896;66728199030;1890389925;412411635;13150380641;28992711;939212585;3772;24728;2580368;-9;20584;2819867
2;19;1572719622294;1572719634347;12053;24513389196;65184946809;1879749883;326454089;12592291054;28497521;934586382;2236;14071;1362104;5;12133;1732775
2;20;1572719634374;1572719649695;15321;25768495132;66434950436;1881914339;447621887;13044718309;29616797;937260978;2703;23071;2244296;10;15348;2289175
2;21;1572719649726;1572719663378;13652;25554216188;66217124082;1872070156;455105856;12966251484;28970509;934847057;2844;13780;1462192;4;13683;1954816
2;22;1572719663448;1572719686265;22817;24635921302;65450686539;1879508323;387673067;12687996512;28525272;935051512;3848;31745;3189760;4;22888;3361362
2;23;1572719686306;1572719710890;24584;25896258126;66257262738;1874922032;500316196;12980281767;28887654;936549271;4157;29867;2871400;2;24625;3518241
2;24;1572719710929;1572719737398;26469;25445381072;65570264841;1889477562;470769067;12731713919;29020821;934924731;5048;30326;3136768;-24;26508;3880788
2;25;1572719737465;1572719757112;19647;25603056254;66048035237;1879963891;441595179;12904506591;28878907;933037723;3962;23786;2449744;19;19713;2901489
2;26;1572719757141;1572719781607;24466;26375189080;66849364535;1892045415;535048997;13196340892;29275747;937580438;4417;32028;3224648;-23;24495;3576120
2;27;1572719781646;1572719804589;22943;25034219522;65337312332;1882468002;427735205;12646946450;28529709;932364909;4039;26220;2589808;-2;22983;3275510
2;28;1572719804656;1572719826493;21837;24894092956;65621554932;1872970688;394764674;12750239013;28729673;933810262;4572;25023;2567360;24;21903;3262363
2;29;1572719826538;1572719844686;18148;25883572916;66086246721;1883310065;505062961;12919468698;28770030;934943215;3535;22055;2315664;-5;18194;2740560
2;30;1572719844770;1572719872682;27912;25517428422;65775616040;1886921776;455957543;12806256355;28726604;931597907;4894;30847;3086024;-10;27996;4193316
2;31;1572719872719;1572719890638;17919;26092550016;66447211862;1879892325;510639044;13050867575;28897758;932717106;3801;22026;2271992;-9;17955;2690818
2;32;1572719890701;1572719917146;26445;25234056584;66522666067;1883729056;381330829;13078023231;29030964;931847356;4717;34698;3472752;22;26508;3905960
2;33;1572719917188;1572719939765;22577;25367849378;65820842593;1863494983;411152887;12832567523;28835378;928779589;4061;26760;2566688;5;22619;3243967
2;34;1572719939893;1572719950585;10692;25298206356;65904998965;1864874052;448397116;12865465533;28399808;928322619;2654;9445;1144528;4;10821;1265556
2;35;1572719950615;1572719966227;15612;25552660850;66420142703;1860572775;440589749;13051630869;28737196;930470077;2512;20529;1957696;-15;15642;2233430
2;36;1572719966299;1572719980882;14583;25883323694;66245255551;1865484129;493974177;12989127046;29001246;931938735;3044;19615;2050664;15;14656;2190785
2;37;1572719980921;1572719995135;14214;25591187768;66105360057;1864282292;465213408;12938694161;28830077;932496969;2683;15294;1600200;-28;14252;1736399
3;0;1572720126892;1572720142121;15229;32758353318;79802526404;2463063616;426825427;17259920399;50200279;1176329244;0;0;0;0;0;0
3;1;1572720142187;1572720174796;32609;29680832458;75582241446;2073435771;528789967;16917070504;31374419;1009953923;5855;36975;3755440;-84;32674;4727564
3;2;1572720174824;1572720186454;11630;29127569692;74636836672;1992502097;568559293;16750282337;29638658;970118149;3657;11519;1376400;81;11068;638916
3;3;1572720186515;1572720199512;12997;28232833074;73501641649;1924234390;545857981;16351075296;28844916;940641212;2252;15453;1441088;-9;13059;1858940
3;4;1572720199559;1572720217965;18406;28390061496;74342649169;1917810063;521631832;16663720805;30014007;942632913;3380;25324;2655192;-71;18452;2567610
3;5;1572720218055;1572720229863;11808;28079731926;73924248779;1898941033;496702486;16540701290;28773801;936804275;2250;13550;1248736;67;11898;1665542
3;6;1572720229926;1572720243524;13598;27951311640;73512602473;1892902132;493187209;16398286751;28767399;935829126;2108;19259;1885016;-27;13662;1933921
3;7;1572720243585;1572720254461;10876;28017046096;73552686373;1894241216;516268259;16416169152;28703370;936513835;2563;10789;1155000;34;10937;1465118
3;8;1572720254510;1572720275152;20642;28123589888;73914024473;1901987578;493868080;16549049147;29027814;934924019;3136;29975;2829632;19;20691;2954560
3;9;1572720275214;1572720291635;16421;27955904508;73343603708;1900292663;541815645;16342250567;28409469;935101263;3480;18129;1939520;-11;16483;2465822
3;10;1572720291660;1572720313637;21977;27953846638;74195882384;1911589653;387597329;16653164686;29123255;936737242;3586;31396;3030088;-1;22002;3210832
3;11;1572720313735;1572720337517;23782;28096153130;74281896839;1910288286;511239876;16684906239;29062743;938487220;4208;25823;2804808;-105;23879;3018056
3;12;1572720337541;1572720348641;11100;28121732768;74054959574;1899223155;523010903;16602862430;28926112;936452998;2566;11685;1152760;113;11125;1368024
3;13;1572720348665;1572720366595;17930;27362371146;73107970400;1886687362;454012825;16254983369;28539734;937733689;3191;21773;2303088;-146;17819;1671874
3;14;1572720366626;1572720378909;12283;28140579762;73747596205;1889521505;552177611;16494395481;28516628;936243551;5005;11108;1341168;142;10508;1095854
3;15;1572720378933;1572720397847;18914;28030272966;73934175801;1896229576;504237390;16563004445;28723236;937963805;3366;22179;2166944;-21;18939;2783220
3;16;1572720397930;1572720417888;19958;28235911338;73660238558;1899668899;529989772;16463667568;28870319;935235845;3286;31674;3112056;1;20041;2978710
3;17;1572720417912;1572720441368;23456;28240787592;74497178241;1894065573;486758124;16767203311;28836673;935332109;3982;27438;2717288;19;23480;3341847
3;18;1572720441431;1572720461218;19787;28536795876;73830321308;1886219857;544365609;16526424371;28541978;932626802;3851;23474;2386128;-10;19850;2896712
3;19;1572720461257;1572720477830;16573;27849607456;73743680315;1882719169;464031599;16494392397;28825686;934050233;2896;22699;2148384;13;16611;2488530
3;20;1572720477891;1572720499725;21834;27265233112;73440749581;1894674108;376330490;16385587176;28241160;931837345;3906;24220;2641440;-119;21895;2998961
3;21;1572720499782;1572720511575;11793;27783069854;73293753806;1876989910;509267523;16332944298;28253210;931587056;3193;13467;1451608;100;11851;721981
3;22;1572720511601;1572720527334;15733;27082211746;72861249290;1882236913;433415877;16175374889;28026035;928972665;2801;18849;1766840;14;15759;2247929
3;23;1572720527360;1572720545036;17676;28137666040;73866829516;1883806836;537457855;16540793414;28855662;934222658;3326;26369;2681672;-11;17702;2664470
3;24;1572720545069;1572720561548;16479;28095526644;73346807005;1892929223;542749776;16351175091;28246477;935422883;3067;17566;1764496;22;16511;2333625
3;25;1572720561579;1572720580280;18701;27558284896;73952798975;1891186065;404402443;16570983864;28585929;933225018;3750;23864;2384304;-20;18732;2818174
3;26;1572720580318;1572720603444;23126;28704271162;74248517188;1902930027;579891269;16664383056;28478970;936012634;3571;30880;2970832;168;23164;3312657
3;27;1572720603472;1572720628435;24963;28080071960;73743723737;1889183972;504824750;16481964678;27969809;930733112;4814;28668;2962856;-180;24992;3656413
3;28;1572720628480;1572720649426;20946;28421066640;73659908197;1883734353;558350126;16451463762;28205610;931713507;3955;25114;2607144;5;20991;3100812
3;29;1572720649479;1572720672079;22600;28007656982;74674596882;1885172721;419704923;16819479283;28729768;931322634;4047;31064;3069968;11;22653;3349969
3;30;1572720672111;1572720695398;23287;28449109152;74824843495;1891967415;501905614;16873628557;28577962;933219185;4145;26813;2634944;16;23319;3336960
3;31;1572720695436;1572720721872;26436;27002001390;73601168868;1891693191;302289747;16430721237;28004376;929208557;5276;27436;2915640;-30;26474;4005874
3;32;1572720721929;1572720743502;21573;28337414626;74431699571;1881088709;542155915;16731132338;28482630;930287571;3892;28129;2841272;16;21630;3163789
3;33;1572720743558;1572720766997;23439;27735161998;74188665943;1894931360;356899134;16653446895;28626469;930637183;4401;29346;2824648;0;23495;3448498
3;34;1572720767031;1572720789809;22778;28291685674;74666686454;1898559110;478041974;16830022685;28566026;929781084;4126;26432;2705688;3;22811;3256164
3;35;1572720789882;1572720814229;24347;27795817698;73892811415;1876972454;431849779;16548842952;28251875;930710934;4711;29471;3001680;-15;24420;3569392
3;36;1572720814257;1572720835544;21287;28481194404;74478767209;1885248461;545125320;16761846101;28678503;931908386;4095;24154;2556712;1;21316;3044970
3;37;1572720835621;1572720854910;19289;28016711464;73393772020;1873232554;567238342;16368480993;27697215;929538983;3194;27408;2568776;10;19366;2759919
4;0;1572720985942;1572721006076;20134;32591140540;76936052044;2501092425;454598960;16374172232;49142604;1196579903;0;0;0;0;0;0
4;1;1572721006157;1572721028711;22554;29775296648;75593221107;2059302759;432455549;16898819394;31920908;1009545822;4151;24089;2582312;-12;22635;3331538
4;2;1572721028782;1572721052731;23949;29509728050;73616110549;1993007180;605813212;16390599309;29828466;965557622;4333;30187;3066440;6;24019;3487202
4;3;1572721052775;1572721073354;20579;27670417130;73429788764;1935788280;381543774;16336668634;29103034;938025902;3291;26324;2631304;-116;20623;2627825
4;4;1572721073405;1572721085085;11680;27852642796;73009396521;1912486382;404139939;16196681541;28590356;934342557;2870;11574;1165384;134;11722;1533440
4;5;1572721085127;1572721104125;18998;28998236906;73577278990;1915995848;577258287;16411956799;28642731;936940294;2761;29308;2745008;-21;19041;2725473
4;6;1572721104166;1572721120135;15969;28990737032;73785381326;1908568251;525504816;16497433586;29374359;934075503;3464;17247;1830624;7;16010;2374063
4;7;1572721120185;1572721138624;18439;28531772892;74013476959;1914610760;459843607;16578700423;28934758;934720248;3354;24291;2506296;-15;18488;1781978
4;8;1572721138665;1572721151742;13077;27831083122;72961725408;1897758490;430904498;16201000842;28422081;933364826;2616;13551;1295416;25;13118;1887795
4;9;1572721151803;1572721172516;20713;29151518072;74403801453;1903768536;506015418;16726935322;29120622;933970566;3665;30024;3066728;-8;20775;3109774
4;10;1572721172593;1572721192355;19762;28593416136;73426920042;1904203256;503369862;16371717408;28505973;932105941;3478;23179;2244720;-17;19838;2835964
4;11;1572721192392;1572721214019;21627;29118674350;74227880097;1888687360;529262024;16663161840;28641644;931499267;4317;27095;2712432;20;21664;3258184
4;12;1572721214043;1572721238075;24032;28999455276;74369631276;1905514381;498994027;16712344393;28850183;933057195;4013;32360;3272144;6;24057;3503954
4;13;1572721238129;1572721261954;23825;28809128508;73718186282;1906743642;500143423;16473792193;28763955;932656891;4544;26526;2625016;-16;23879;3547789
4;14;1572721262011;1572721281413;19402;28862162424;73765921860;1889129388;530104419;16492193530;28567086;931952191;3721;28995;2934984;-2;19459;2893554
4;15;1572721281458;1572721304711;23253;29107643174;74013364489;1907819234;554830809;16582685396;28810618;934695276;3899;27913;2753736;5;23298;3317923
4;16;1572721304749;1572721325936;21187;28626587044;73722914717;1908980303;473495955;16477754468;28664913;931230251;4279;24045;2474440;12;21225;3136283
4;17;1572721325962;1572721349181;23219;28585484248;73496427815;1906447404;498342486;16402905102;28410124;932980277;4302;29185;2987456;-22;23244;3427421
4;18;1572721349236;1572721373491;24255;28823705732;73703724897;1899331756;514037976;16478286726;28744868;931596771;4303;31881;3085992;11;24311;3547971
4;19;1572721373555;1572721397751;24196;28453857364;74025478981;1898074315;463492061;16595328973;28749240;932002088;4500;27475;2812264;-10;24259;3455774
4;20;1572721397784;1572721419177;21393;28842612148;73868610112;1899462186;519357242;16539615488;28742575;931032301;4300;25643;2616656;6;21427;3168751
4;21;1572721419229;1572721441112;21883;29016866652;73921927192;1894888148;515304603;16559028125;29075831;932592718;3981;27792;2853184;-5;21934;3234096
4;22;1572721441154;1572721465510;24356;28625597018;73780210368;1902523123;492541244;16508131006;28715241;932800679;4595;30170;2995768;11;24398;3578686
4;23;1572721465589;1572721486449;20860;28935326528;74350633777;1903686221;493995462;16714324961;29047826;931861068;4013;23953;2449616;-14;20940;2984885
4;24;1572721486500;1572721509476;22976;28952374656;74188544661;1893790891;536742592;16655583931;28673918;931287044;4522;28286;2869704;14;23027;3403982
4;25;1572721509502;1572721531562;22060;28833279974;74347474338;1908431184;441135935;16713730672;28701334;933320950;4199;26459;2723552;1;22086;3145886
4;26;1572721531587;1572721551057;19470;28860957486;73664031700;1886381877;554533358;16466280619;28261280;929477103;3416;23527;2289880;-19;19494;2788302
4;27;1572721551096;1572721567676;16580;29324099124;74049811240;1898074804;609089130;16606235498;29043256;932939202;3555;18258;1934304;0;16619;2676012
4;28;1572721567749;1572721590089;22340;28371480222;73629474408;1888206223;377340707;16453243655;28435313;932490257;3997;28669;2780432;6;22414;3288044
4;29;1572721590115;1572721615917;25802;28969542212;74073266709;1897145207;540522507;16614326518;28864126;931954156;4618;30143;3069776;2;25827;3686099
4;30;1572721615961;1572721633449;17488;28718367316;74085883066;1887017501;495183940;16619618167;28269426;931204182;3770;18551;1960928;-2;17498;2466636
4;31;1572721633476;1572721645369;11893;29005410908;73283958895;1884506740;589108704;16328846457;28246806;931947568;2135;13934;1562256;-121;11920;925721
4;32;1572721645399;1572721657582;12183;29254739488;74139107399;1884085608;602147453;16639921092;28525622;929356404;4220;12376;1338232;132;10842;889757
4;33;1572721657669;1572721675243;17574;29048830578;74543336885;1889250460;537170101;16792042122;28853221;928302720;3384;19666;2022472;-64;17661;1963653
4;34;1572721675307;1572721686589;11282;28917862008;74146259551;1894112480;520183411;16653154102;28579777;928423324;3209;12960;1449344;75;10695;761402
4;35;1572721686649;1572721701762;15113;29399285766;74589020883;1895533729;567721851;16814682682;29416671;928550721;2800;16815;1636888;-18;15173;2169886
4;36;1572721701794;1572721720843;19049;28772010636;74019546997;1883317944;516096995;16606486872;28738951;926959650;4027;22834;2434056;20;18795;2245082
