0;35;1572779775782;1572779784049;8267;17483040392;49775482751;382817673;256229208;8852965085;673194;167468926;1864;838;1147264;-2;6624;196822
0;36;1572779784049;1572779792019;7970;17476679318;49775513004;383336425;256271494;8852974685;664529;167832978;1042;1129;1148384;9;5070;26715
0;37;1572779792019;1572779799950;7931;17477267260;49775444762;383054776;256126902;8852942694;659734;167854859;1747;413;1107424;-7;6780;89213
0;38;1572779799950;1572779807433;7483;17467054852;49775468226;382308673;255285829;8852963464;622068;167494762;1057;1092;1054864;-10;4656;24418
0;39;1572779807433;1572779815324;7891;17480473420;49775479750;383714516;255621326;8852967899;640470;167499391;1404;1323;1166768;5;6255;218343
0;40;1572779815324;1572779823925;8601;17479209498;49775473368;382850454;256253968;8852962001;673060;167720793;1036;1201;1226488;-3;5244;26112
0;41;1572779823925;1572779832251;8326;17487875182;49775431228;382682881;256346791;8852949043;648281;167745004;1765;391;1111448;9;6277;67552
0;42;1572779832251;1572779840126;7875;17484389286;49775494947;380248235;256296919;8852969684;582078;167577913;1785;395;1095640;-15;6385;72506
0;43;1572779840126;1572779848006;7880;17486008718;49775411330;381855164;256360192;8852935371;608850;167651812;1432;1285;1183208;4;6258;262638
0;44;1572779848006;1572779856518;8512;17479146280;49775497735;382852004;256695458;8852974508;627785;167491647;1120;1127;1236848;5;5684;34800
0;45;1572779856518;1572779865236;8718;17482035620;49775577948;381971228;256568440;8852996999;685348;167535412;1912;312;1215680;13;6995;79481
0;46;1572779865236;1572779873770;8534;17482474642;49775442840;382196322;256489162;8852945728;658901;167589958;1126;1128;1196048;-18;5081;29806
0;47;1572779873770;1572779881897;8127;17484056990;49775458476;382501353;256410833;8852953495;638646;167381133;1521;1295;1208304;0;6428;160723
0;48;1572779881897;1572779889631;7734;17468999864;49775452170;380518590;255709649;8852968466;634713;167515069;1441;711;1031184;24;5815;57027
0;49;1572779889631;1572779896766;7135;17462404022;49775429150;383433849;256018107;8852946874;629356;167666299;1781;338;975264;-3;5815;69880
0;50;1572779896766;1572779904080;7314;17463767078;49775683896;381301840;255792617;8852996206;626362;167718628;1364;793;1019088;-15;4895;34179
0;51;1572779904080;1572779912427;8347;17479765466;49775723028;381169214;256327872;8853020857;671320;167873525;1385;1292;1206768;-3;6191;132900
0;52;1572779912427;1572779920568;8141;17477163308;49775459741;382939780;256178514;8852953674;667189;167458735;1418;758;1088648;30;6155;61000
0;53;1572779920568;1572779929533;8965;17448426274;49775630347;381784298;256498269;8852996897;673784;167355891;1944;366;1283304;-8;7216;66775
0;54;1572779929533;1572779937367;7834;17336935418;49774778128;382087244;255998729;8852811997;652351;167243177;1665;1147;1077448;72;6218;335980
0;55;1572779937367;1572779946198;8831;17336057520;49774709025;381489785;256392596;8852778895;658921;166805649;1055;1339;1337472;-93;5946;91343
0;56;1572779946198;1572779955162;8964;17335185316;49774845523;381319905;256085182;8852811975;659323;166724268;1826;479;1304160;16;7754;104172
0;57;1572779955162;1572779964212;9050;17334427868;49774671460;381708970;256165268;8852794965;702446;166848205;1649;639;1219800;-16;5891;46993
0;58;1572779964212;1572779972152;7940;17335958094;49774620727;381324401;255102301;8852770491;616240;166958234;1458;1381;1128824;2;5784;244317
0;59;1572779972152;1572779980060;7908;17334781918;49774632142;381346539;255418633;8852771887;800987;166776313;1171;1045;1093248;1;5332;37322
0;60;1572779980060;1572779987814;7754;17332765220;49774633489;382343436;255821299;8852785053;670182;166740032;1886;287;1048120;5;6301;99066
0;61;1572779987814;1572779996374;8560;17345090686;49774637202;381542677;256106158;8852768021;699678;166795916;1362;889;1127352;-11;5405;42895
0;62;1572779996374;1572780005224;8850;17332611044;49774690476;381813796;256004638;8852804009;660715;166886160;1576;1357;1319552;0;6847;275244
0;63;1572780005224;1572780014071;8847;17340375324;49774678313;382458755;256058443;8852794607;664697;167458987;1394;912;1251936;29;6252;63008
0;64;1572780014071;1572780022187;8116;17333691152;49774568504;381640693;255749844;8852756264;653261;166700446;1943;356;1177224;-29;7147;102461
0;65;1572780022187;1572780030919;8732;17351498042;49774638839;381342634;256026231;8852778305;772524;166961706;1853;1047;1149408;126;6520;340367
0;66;1572780030919;1572780039439;8520;17320879652;49770820495;381992760;255809301;8852803026;667462;167213623;1418;1376;1272320;-72;8520;796908
0;67;1572780039440;1572780047841;8401;17292847214;49765732893;382312145;255305641;8852768359;655684;168502502;1908;414;1243592;-38;7852;149097
0;68;1572780047841;1572780055742;7901;17300278030;49765775004;382711179;255109818;8852775833;655801;167788929;1462;803;1118504;-18;5796;60616
0;69;1572780055742;1572780064173;8431;17295329798;49765751947;382389729;255466912;8852784074;654028;168032574;1620;1351;1252568;1;6761;245276
0;70;1572780064173;1572780072749;8576;17299056156;49765712719;382452876;255497643;8852757104;655181;168245403;1219;1159;1203488;20;5559;42608
0;71;1572780072750;1572780080804;8054;17296557950;49765847644;381372156;255183437;8852814868;652666;167859753;1949;304;1120576;-5;6872;181307
0;72;1572780080804;1572780089264;8460;17301601520;49765761657;381985563;255325177;8852786931;649829;167911312;1825;529;1240880;-18;6442;53948
0;73;1572780089264;1572780098032;8768;17296186964;49765734605;382435497;255591868;8852761333;665457;167906754;1496;1409;1316432;6;6797;301674
0;74;1572780098032;1572780106520;8488;17291514672;49765742657;382302577;255482086;8852768913;663316;167746748;1393;860;1148960;29;5886;49268
0;75;1572780106520;1572780114714;8194;17294301228;49765762674;382227141;255263855;8852789847;661381;168126652;1896;349;1053224;0;5981;70678
0;76;1572780114715;1572780123740;9025;17302577384;49765698159;382513726;255869149;8852760952;678173;167780120;1570;1395;1203488;38;5773;230283
0;77;1572780123741;1572780132201;8460;17292509224;49765718967;382557595;255354189;8852767701;660701;168330374;1184;1227;1278504;-74;5588;63967
0;78;1572780132201;1572780141008;8807;17305281012;49765751151;382190241;255439839;8852786573;653754;168128986;1844;543;1321104;22;8038;172504
0;79;1572780141008;1572780148740;7732;17295236796;49765678819;382754342;254858368;8852753707;674963;168003113;1899;370;1086376;-11;6360;64943
0;80;1572780148740;1572780156580;7840;17299772724;49765782218;382071971;254960546;8852796579;645713;168151914;1610;1200;1148944;-3;6174;321695
0;81;1572780156580;1572780165134;8554;17301094608;49765830443;382044636;255428975;8852799408;665835;168290729;1151;1172;1193432;-8;4975;26603
0;82;1572780165134;1572780174483;9349;17300074652;49765721860;382886376;255863382;8852761828;672874;168161421;2025;369;1325040;21;7548;73372
0;83;1572780174483;1572780183601;9118;17304553202;49765745267;383464480;255688915;8852773882;677550;168095375;1500;821;1156384;-7;5248;35743
0;84;1572780183601;1572780192970;9369;17298927384;49765797492;382110338;255649150;8852794767;676303;168245830;1779;1367;1424152;-10;7679;428938
1;34;1572780642363;1572780650706;8343;17621948150;52646156540;382788750;256086820;9696500542;712364;170983182;1625;1268;1263256;-176;6817;351585
1;35;1572780650706;1572780659239;8533;17626592264;52646220817;382122456;255981467;9696540779;704487;170954046;1437;768;1219712;22;6427;107829
1;36;1572780659239;1572780667017;7778;17617272062;52646182714;382543314;255634083;9696513973;728889;170595706;1757;388;1082408;-13;5768;50001
1;37;1572780667017;1572780675643;8626;17620218488;52646171422;383124369;256092860;9696508645;703214;171017092;1961;821;1242000;20;7307;179032
1;38;1572780675643;1572780683846;8203;17622456814;52646162874;383200327;255511027;9696515996;649600;170525104;931;1290;1205024;-24;5209;33154
1;39;1572780683846;1572780691809;7963;17623972878;52646172647;381799924;255557407;9696509816;684559;170812640;1680;476;1101192;9;6485;92674
1;40;1572780691809;1572780700135;8326;17617147086;52646217813;382228615;255974378;9696521689;700224;170671014;1376;825;1158688;-13;5448;43560
1;41;1572780700135;1572780709123;8988;17626037026;52646176526;382839661;256351572;9696514851;716063;171464085;1696;1309;1299704;0;6943;332555
1;42;1572780709123;1572780717507;8384;17620933304;52646166529;381999656;255932003;9696507769;699008;171915890;1049;1145;1162976;2;5054;25903
1;43;1572780717507;1572780725080;7573;17638092684;52646139265;381342360;255630498;9696503753;646634;170654838;1828;295;1002120;-6;6274;70575
1;44;1572780725080;1572780733043;7963;17616904288;52646204202;382134097;256055466;9696537238;654817;170475641;1741;435;1124376;13;6058;52129
1;45;1572780733043;1572780741193;8150;17616672586;52646131764;382621047;255999165;9696504172;654365;170269824;1464;1298;1158256;-8;5946;226911
1;46;1572780741193;1572780749805;8612;17622778306;52646146475;382379849;256001778;9696504133;702672;171153926;1199;1012;1180032;13;5360;37584
1;47;1572780749805;1572780758222;8417;17620663934;52646182970;381548826;255755844;9696519987;690272;171589160;1902;339;1202496;-10;7153;113922
1;48;1572780758222;1572780766163;7941;17614959714;52646189011;380859297;255543966;9696510530;662475;170515526;1120;1087;1124712;-4;5199;29705
1;49;1572780766163;1572780773905;7742;17615787680;52646155101;381658798;255188653;9696513563;654431;170673821;1403;1303;1131344;3;5636;156711
1;50;1572780773905;1572780782295;8390;17626110026;52646259821;381599581;255668596;9696529643;652997;170553002;1455;711;1058872;10;5808;57788
1;51;1572780782295;1572780790220;7925;17610448752;52646384768;381607324;255823159;9696555044;680140;170359440;1801;373;1084752;7;6080;59594
1;52;1572780790220;1572780799185;8965;17622282928;52646202982;381922068;256104585;9696525491;704712;171926778;1785;962;1296104;10;6919;151347
1;53;1572780799185;1572780808294;9109;17622390384;52646284744;382607848;256137798;9696543001;718371;170572135;1083;1210;1241128;-34;5318;32591
1;54;1572780808294;1572780816774;8480;17607784544;52645457776;382079992;255407460;9696349139;696886;169023363;1715;513;1170752;16;6974;136426
1;55;1572780816774;1572780825848;9074;17601580858;52645512184;381933173;255761837;9696352283;695015;169064644;1621;698;1279280;-11;6208;45768
1;56;1572780825848;1572780834608;8760;17606633334;52645378247;382616276;255775349;9696338955;699848;169186124;1478;1287;1271016;2;6543;238803
1;57;1572780834608;1572780843731;9123;17599960696;52645345860;382604120;255750588;9696325772;698737;169069325;1319;980;1270160;26;6372;60115
1;58;1572780843731;1572780852206;8475;17607936384;52645351386;381231184;255263973;9696332777;691138;168866597;1921;341;1200832;-7;7208;108968
1;59;1572780852206;1572780860077;7871;17597184944;52645326323;380769147;255064233;9696327269;670438;168820370;1627;992;1064272;43;5895;107895
1;60;1572780860077;1572780868104;8027;17611899408;52645366204;382160414;255172010;9696330670;719966;169194969;1165;1136;1170584;-61;5578;51798
1;61;1572780868104;1572780876913;8809;17605475116;52645391007;380978411;255599016;9696335806;694151;168971893;1692;605;1230560;-1;7277;140776
1;62;1572780876913;1572780886069;9156;17595673990;52645437362;381875835;255797921;9696365672;698287;168751647;1836;488;1282896;0;7002;61817
1;63;1572780886069;1572780894521;8452;17601369304;52645457294;381504345;255476301;9696352178;701340;168775974;1643;1305;1176608;-7;6275;277490
1;64;1572780894521;1572780902917;8396;17597354742;52645377521;382446151;255364025;9696326246;680186;169174270;1115;1141;1153728;5;4826;25680
1;65;1572780902917;1572780911428;8511;17552908838;52636903325;381941257;255598611;9696341246;685279;168664925;2052;632;1063512;150;8172;513266
1;66;1572780911428;1572780921338;9910;17534552404;52633603241;381606661;255671816;9696355844;697328;168597719;1513;1400;1584288;-141;9415;751479
1;67;1572780921339;1572780930107;8768;17528852710;52633572706;380651469;255749587;9696349613;688982;168262916;1985;364;1297504;2;7356;77278
1;68;1572780930107;1572780938569;8462;17527901228;52633550631;380731462;255633490;9696340848;693490;168572558;1137;1121;1135232;-2;4878;26056
1;69;1572780938569;1572780947737;9168;17526788124;52633563552;380723143;255895427;9696340192;702451;168239492;1609;1414;1310968;-14;6703;275845
1;70;1572780947737;1572780956241;8504;17527379570;52633481600;381152718;255538846;9696310122;686253;168375410;1324;1068;1237568;26;5852;44073
1;71;1572780956241;1572780965414;9173;17532813398;52633594888;380815675;256070747;9696355588;709516;168488083;2014;315;1223568;-8;6779;64204
1;72;1572780965414;1572780973298;7884;17521565558;52633546626;381277451;255561132;9696345298;687695;168185361;1986;592;1084528;149;6688;106819
1;73;1572780973298;1572780981384;8086;17525473102;52633485215;382228882;255493558;9696312598;684602;168229494;1388;1147;1201664;-163;6426;214885
1;74;1572780981384;1572780989465;8081;17526849152;52633508373;380872912;255543259;9696334509;686036;168582359;1545;682;1096472;52;6435;167519
1;75;1572780989465;1572780997655;8190;17529779080;52633533336;381186799;255509951;9696337747;691655;168359514;1606;707;1146096;-51;5906;61307
1;76;1572780997655;1572781006774;9119;17538285770;52633518155;380731856;256020739;9696338294;688242;168315538;1612;1333;1354552;29;6442;206223
1;77;1572781006774;1572781014841;8067;17536689698;52633546725;382123271;255484352;9696340948;680886;168141291;1081;1224;1156344;-32;5325;67206
1;78;1572781014842;1572781023870;9028;17543725438;52633550529;380606434;255735714;9696339630;686123;168369236;1952;442;1335904;11;8057;139830
1;79;1572781023870;1572781032446;8576;17533058386;52633482327;381280452;255724506;9696316772;691955;168451446;1967;339;1160504;7;6736;66972
1;80;1572781032447;1572781040695;8248;17522850504;52633553872;381699475;255508010;9696348789;681042;168460076;1844;1191;1305072;-16;7613;367733
1;81;1572781040695;1572781049254;8559;17526868716;52633550142;380186014;255670324;9696342675;680458;168062393;1210;1119;1225896;36;5454;35834
1;82;1572781049255;1572781057709;8454;17522970954;52633476761;381323499;255704213;9696309228;686713;168419114;2047;315;1230312;-19;7452;115191
1;83;1572781057709;1572781065752;8043;17527797422;52633604788;381924735;255443530;9696358246;680779;168262379;1082;1189;1082424;-16;4658;28031
2;37;1572781504190;1572781512293;8103;16967121360;49991348706;382159314;256567192;9163148499;683889;169037793;1699;448;1103552;-1;6455;72168
2;38;1572781512293;1572781520689;8396;16963946736;49991396720;381680122;256691516;9163166417;712450;169482927;1824;381;1190488;-2;7102;71065
2;39;1572781520689;1572781529098;8409;16960712836;49991381872;382551915;256749576;9163149375;683482;169645051;1542;1276;1167280;-10;6039;181881
2;40;1572781529098;1572781537050;7952;16961597450;49991415711;381681289;256765923;9163170117;651250;169181354;1149;1026;1173016;36;5593;41163
2;41;1572781537050;1572781544920;7870;16963756790;49991384345;382029130;256790265;9163157837;643279;169489832;1854;345;1150272;-30;7274;223035
2;42;1572781544920;1572781552919;7999;16955982728;49991347056;381323303;256258591;9163141775;660999;168989325;1101;1073;1124456;0;5176;36894
2;43;1572781552919;1572781560905;7986;16958681684;49991343408;380685609;256205005;9163141588;650064;169729737;1558;1350;1202416;0;6554;305882
2;44;1572781560905;1572781568676;7771;16967291596;49991376367;381130369;256541251;9163168012;614506;169446301;1071;1071;1051024;-6;4676;32596
2;45;1572781568677;1572781576719;8042;16962251384;49991401475;382050672;256880480;9163156279;665095;169290355;1847;319;1126792;19;6827;73699
2;46;1572781576720;1572781585076;8356;16963058034;49991361960;382686747;256744279;9163148385;696497;169492619;1676;549;1185688;-13;7204;82739
2;47;1572781585076;1572781593017;7941;16958817902;49991432362;382721381;256580591;9163173215;680603;169377908;1489;1368;1163248;-1;6236;271394
2;48;1572781593017;1572781600893;7876;16963025184;49991320769;382095357;256549976;9163137280;675359;169460308;1286;870;1100720;58;5790;75546
2;49;1572781600893;1572781609151;8258;16963943086;49991394477;381489202;256235047;9163164850;680807;169712931;1886;387;1272672;-34;7453;160979
2;50;1572781609151;1572781616784;7633;16965148024;49991406679;381377626;255901157;9163161688;658803;169446392;1135;1079;1127608;-19;5363;34219
2;51;1572781616784;1572781624619;7835;16975194430;49991598097;379569016;256240744;9163190646;613774;170135838;1338;1345;1172840;-8;6431;261254
2;52;1572781624619;1572781633104;8485;16969402318;49991370132;381792269;256905673;9163151229;663193;169543171;1452;754;1145848;22;6794;82414
2;53;1572781633104;1572781641713;8609;16977638616;49991623619;381940204;256723072;9163215330;699486;169949976;1890;405;1325248;-9;7759;118026
2;54;1572781641713;1572781649511;7798;17008843488;49990659441;381871839;255911573;9162988580;660601;169711244;1777;963;1097136;91;6334;192640
2;55;1572781649512;1572781657031;7519;17005664046;49990611618;382932779;255363181;9162978241;643787;169627499;1091;1206;1178752;-100;5662;111063
2;56;1572781657031;1572781664873;7842;17008583170;49990665726;381155839;255490546;9162997253;635654;169730539;1592;594;1092984;7;6618;75624
2;57;1572781664874;1572781673105;8231;17008138892;49990618647;382293276;256172193;9162976520;663046;169821342;1601;678;1232872;-13;6290;51107
2;58;1572781673105;1572781682097;8992;17018160770;49990686065;381878300;256467566;9163000425;668943;169824538;1588;1238;1318000;24;6557;224951
2;59;1572781682098;1572781690962;8864;17009419458;49990648062;381652610;256465835;9162987244;673685;169699725;1075;1247;1317120;-10;5749;39155
2;60;1572781690962;1572781699105;8143;17017322438;49990659556;382605287;256135964;9162983971;670855;169596205;1787;461;1163760;13;7486;143755
2;61;1572781699105;1572781706910;7805;17018896464;49990657587;382237366;255966005;9162985842;674346;169916077;1855;344;1070000;-6;6527;70847
2;62;1572781706910;1572781715800;8890;17021160048;49990832452;381936740;256314455;9163042270;687191;169839910;1758;1237;1325992;-16;7075;254147
2;63;1572781715800;1572781724145;8345;17007492258;49990797774;382502456;256336595;9163015555;681582;169429009;1201;998;1074160;6;5054;35335
2;64;1572781724145;1572781732617;8472;17010790982;49990583097;382007660;256075141;9162977163;669441;169942778;1968;325;1276568;10;7949;157016
2;65;1572781732617;1572781740405;7788;17011166640;49990607355;381450760;255928241;9162987500;667961;169423372;1074;1175;1115696;-19;4809;28523
2;66;1572781740405;1572781748976;8571;17010463212;49990530582;382050859;256304993;9162964043;671348;170139793;1530;1327;1242672;9;6526;246872
2;67;1572781748976;1572781757129;8153;17013266850;49990581082;382205067;256093436;9162983653;663477;169618622;1493;765;1160448;18;6149;69136
2;68;1572781757129;1572781765565;8436;17019772318;49990527959;381723470;256487380;9162967462;675314;169742014;1920;376;1205288;-29;6531;67386
2;69;1572781765565;1572781773789;8224;17014245488;49990539724;382617210;256214121;9162965873;669415;169734303;1999;946;1041328;121;6310;222165
2;70;1572781773789;1572781782232;8443;17011943652;49990578539;382397832;256210900;9162974069;684501;169513246;1377;1365;1306376;-91;8443;1037089
2;71;1572781782232;1572781789994;7762;17007435902;49990595029;381841507;255926208;9162997777;667483;169879285;1647;579;1115392;-12;6847;101343
2;72;1572781789994;1572781798347;8353;17012514658;49990576669;380856097;256004763;9162978854;673580;169637290;1582;700;1151776;-18;5656;43807
2;73;1572781798347;1572781806717;8370;17015945658;49990571781;381979806;256195048;9162974417;672273;169854117;1590;1244;1138608;74;5894;283634
2;74;1572781806718;1572781814905;8187;17004708622;49981638518;382389232;256014941;9162994235;668496;168557651;1227;1177;1211200;-53;5635;58128
2;75;1572781814905;1572781822661;7756;16995917816;49978732118;382797602;255639153;9162971468;662325;168468628;1829;432;1103784;-21;6641;107263
2;76;1572781822661;1572781831395;8734;17000062318;49978757617;381782664;255956727;9162986917;727510;168412190;1977;343;1230088;13;6656;63074
2;77;1572781831395;1572781839314;7919;16991731704;49978742801;380964227;255536973;9162977501;659022;168382019;1723;1265;1121816;33;6379;432532
2;78;1572781839314;1572781847740;8426;17000805312;49978691806;381273077;255966748;9162961850;683319;168824904;1195;1143;1231704;-39;5534;44790
2;79;1572781847740;1572781856963;9223;16998467560;49978690933;382067350;256253554;9162963531;678778;168291187;1992;400;1365152;6;7543;81205
2;80;1572781856963;1572781865464;8501;16996973688;49978762682;380468349;255836972;9162997463;667359;168804119;1493;832;1201032;-6;5774;41394
2;81;1572781865464;1572781874133;8669;16997026832;49978675066;382405769;255923954;9162963327;679631;168421119;1583;1303;1274320;0;6486;160057
2;82;1572781874133;1572781882356;8223;16993946086;49978731574;381535830;255718731;9162975229;678226;168550795;1477;758;1078488;29;5936;91656
2;83;1572781882356;1572781890934;8578;16994008866;49978774633;381917655;255877551;9162996330;667518;168465551;1998;367;1252928;-14;7151;83817
2;84;1572781890934;1572781899627;8693;17002480370;49978717784;381241831;256030144;9162965835;700491;168770216;1709;1160;1138024;39;6092;216833
2;85;1572781899627;1572781908025;8398;16995832698;49978746670;382060065;255887633;9162989031;663786;168569982;1186;1219;1301040;-56;5797;81653
2;86;1572781908025;1572781916493;8468;16997736246;49978763758;381178656;255897146;9162986905;668813;168628790;1843;498;1234080;8;7651;178023
3;34;1572782366624;1572782375822;9198;17640279326;50032234638;383949082;256440135;9172036638;706998;172615744;1074;1174;1293400;-1;5541;27423
3;35;1572782375822;1572782384680;8858;17642333692;50032295778;383622072;256224693;9172066089;701915;172927050;1447;1344;1283248;4;6450;141942
3;36;1572782384680;1572782393909;9229;17632089748;50032264415;383834768;256478482;9172046017;701394;172444156;1541;741;1363160;22;7356;82224
3;37;1572782393909;1572782402976;9067;17634022642;50032200158;384262795;256583125;9172020870;729814;172941211;1887;377;1268944;-11;7261;68112
3;38;1572782402976;1572782411535;8559;17636990968;50032209550;383719733;256294209;9172032840;698659;172996365;1899;917;1287360;-7;7838;304791
3;39;1572782411535;1572782420127;8592;17627992112;50032227858;383755981;255990039;9172035359;696913;173067659;1090;1168;1285592;-9;5653;26868
3;40;1572782420127;1572782428251;8124;17636990822;50032253643;380858226;255482438;9172045276;634334;172791581;1855;317;1151960;20;7325;127625
3;41;1572782428251;1572782436045;7794;17625122336;50032236419;383458227;255482630;9172042690;663876;172804717;1038;1134;1103584;-18;4746;24246
3;42;1572782436045;1572782444810;8765;17642355592;50032212275;382941841;256060063;9172030688;692442;174011149;1601;1281;1299888;2;6897;281649
3;43;1572782444810;1572782453970;9160;17643444168;50032273757;383426900;256559265;9172044448;708712;173428417;1265;989;1278976;13;6161;54591
3;44;1572782453970;1572782462623;8653;17637503428;50032289169;384510692;256268004;9172065090;699195;173557917;1912;339;1251392;-5;6992;67470
3;45;1572782462624;1572782470385;7761;17635449208;50032230642;382391806;255750728;9172039289;643050;172593550;1774;819;1072496;149;5869;115138
3;46;1572782470385;1572782478339;7954;17639457200;50032147582;381115957;255772556;9172012163;620463;172883211;1147;1193;1181288;-164;6051;145115
3;47;1572782478339;1572782487063;8724;17639199218;50032278384;383305529;256259449;9172042561;670299;173218756;1634;622;1272240;25;7169;224733
3;48;1572782487063;1572782496149;9086;17637521970;50032263098;382939411;256563084;9172045338;706186;172434169;1552;723;1251440;-17;6233;53270
3;49;1572782496149;1572782504157;8008;17629395756;50032222216;381644906;255560628;9172041811;643108;173167709;1357;1324;1168912;25;6168;256079
3;50;1572782504157;1572782512166;8009;17633132772;50032318919;384212302;255512645;9172060481;661094;172988597;977;1188;1045304;-33;4478;34030
3;51;1572782512166;1572782520315;8149;17636342874;50032493836;384405947;255547120;9172089787;685539;173571233;1859;350;1156040;19;7466;141180
3;52;1572782520315;1572782528902;8587;17634178716;50032230990;383608989;255953833;9172036747;699655;173737816;1844;452;1264544;-10;7349;70941
3;53;1572782528902;1572782538006;9104;17623866444;50032282694;383332417;256185900;9172054432;689551;172282511;1610;1271;1384552;-6;7138;279549
3;54;1572782538006;1572782547133;9127;17588794178;50031489970;383310755;256124080;9171872478;696141;170863069;1360;911;1251384;38;6012;65102
3;55;1572782547133;1572782555612;8479;17531237474;50020144254;384257380;255597318;9171859008;682327;171801310;1917;345;1205032;-26;6774;137481
3;56;1572782555612;1572782564019;8407;17531255724;50019628808;384790795;255483686;9171863967;675797;171864652;1476;1380;1222760;10;6044;145161
3;57;1572782564019;1572782572936;8917;17526877184;50019632229;382951111;255361405;9171857130;681848;171897701;1129;1184;1275056;-16;5524;40827
3;58;1572782572936;1572782581923;8987;17528928046;50019643967;382493662;255538605;9171875668;674721;171727272;1828;480;1304152;17;8047;114185
3;59;1572782581923;1572782590363;8440;17536427336;50019664970;383925014;255375665;9171878204;688080;172141922;1853;398;1166960;-16;6386;60506
3;60;1572782590363;1572782598325;7962;17526308806;50019602533;383776505;254616390;9171859974;695449;171617153;1650;1144;1179592;-4;6387;293258
3;61;1572782598325;1572782606163;7838;17529240194;50019611656;384879910;255092971;9171855867;684964;171903403;1135;1060;1107360;38;4765;29188
3;62;1572782606163;1572782614785;8622;17532004850;50019845406;384130584;255497810;9171918889;716013;171695422;2050;278;1233136;-38;7414;84353
3;63;1572782614785;1572782623981;9196;17539174618;50019698606;383975758;255684592;9171884820;694005;172080732;1255;1103;1325360;-6;6128;43063
3;64;1572782623981;1572782632755;8774;17530587044;50019558567;383713777;255511964;9171838344;745776;171853315;1565;1327;1251912;2;6513;195461
3;65;1572782632755;1572782640554;7799;17531124762;50019575706;384242687;255126037;9171856937;674286;171807756;1556;681;1106232;6;6576;88500
3;66;1572782640554;1572782649574;9020;17529441236;50019589732;384297446;255739389;9171854513;697046;171965473;1975;345;1255280;7;7219;68933
3;67;1572782649574;1572782658340;8766;17528595458;50019564651;383952821;255604085;9171858467;692263;171648192;1910;1068;1133104;131;6679;356890
3;68;1572782658340;1572782666620;8280;17531457350;50019604271;385030069;255416560;9171868187;704407;171901221;1403;1365;1276520;-122;8281;736789
3;69;1572782666620;1572782675370;8750;17544558076;50019594960;384586163;255613340;9171859841;696582;172238223;1917;366;1189648;-3;7123;83482
3;70;1572782675370;1572782683412;8042;17528737808;50019550515;384786808;255017695;9171844745;676192;172436648;1501;761;1099616;-17;5720;41696
3;71;1572782683412;1572782692175;8763;17535524472;50019602121;383338666;255432363;9171871648;684696;171979039;1521;1357;1296648;-4;6647;239914
3;72;1572782692175;1572782700794;8619;17528737370;50019595394;383225527;255551865;9171864504;681624;171566764;1325;1054;1209680;21;5524;35257
3;73;1572782700794;1572782709084;8290;17534226970;50019548046;383523928;255198369;9171835947;685140;172072970;1965;308;1153688;11;7254;109454
3;74;1572782709084;1572782717544;8460;17528394854;50019651636;384206099;255318080;9171871572;752036;171967931;1716;582;1127368;-27;5957;59226
3;75;1572782717544;1572782725839;8295;17526143972;50019550479;383925775;255289990;9171854812;681139;171632040;1452;1375;1140512;5;5910;253557
3;76;1572782725839;1572782733744;7905;17529956616;50019509035;384105381;255130674;9171852049;677246;171951334;1612;641;1118176;29;6192;87236
3;77;1572782733744;1572782742691;8947;17536600930;50019538657;383651402;255584260;9171857282;690189;171777519;1788;590;1279016;-35;6707;69921
3;78;1572782742691;1572782751290;8599;17534789362;50019532807;384268474;255436813;9171850714;681294;171933876;1525;1312;1241536;48;5942;182817
3;79;1572782751290;1572782760286;8996;17540342618;50019541388;384028944;255477982;9171850154;690236;172373997;1149;1246;1285240;-34;5698;37282
3;80;1572782760286;1572782769420;9134;17529607822;50019602217;384069924;255488610;9171878971;691691;172222709;1998;406;1314712;-2;8303;111332
3;81;1572782769420;1572782777720;8300;17529814558;50019523982;383746526;255222103;9171851679;668015;172056653;1969;342;1152368;-8;6624;68965
3;82;1572782777720;1572782785468;7748;17534638252;50019478573;384755751;255018505;9171829901;675430;171838396;1598;1246;1044776;5;5697;264846
3;83;1572782785468;1572782794190;8722;17528607138;50019546482;383763385;255512862;9171853920;693491;171610867;1370;940;1151296;10;5357;47366
4;35;1572783235690;1572783244263;8573;17476658440;50243520152;383038651;255874734;8955927976;708132;168047556;1029;1181;1238200;2;5318;29996
4;36;1572783244263;1572783253127;8864;17475729296;50243560490;383644526;256320191;8955934310;711404;168066190;1898;314;1257824;18;7774;90655
4;37;1572783253127;1572783261088;7961;17477818702;50243414827;383312888;255888180;8955886193;686637;167969238;1737;419;1112296;-5;6217;67510
4;38;1572783261088;1572783269027;7939;17479446894;50243474192;383372788;255830980;8955914939;683571;167941115;1490;1240;1112488;-11;6118;219807
4;39;1572783269027;1572783277199;8172;17481435852;50243473334;382542430;255693171;8955913272;698448;167819876;1329;840;1152448;24;6116;47329
4;40;1572783277199;1572783286041;8842;17479603552;50243459009;383400634;256035901;8955915102;713973;167829448;1853;399;1266088;-23;6879;72924
4;41;1572783286041;1572783294197;8156;17484308694;50243489030;381032704;255609410;8955918556;644398;167807877;934;1244;1149720;14;4941;24554
4;42;1572783294198;1572783301773;7575;17478933850;50243465602;383909860;255639206;8955909569;642897;167695466;1416;1275;1084048;-8;5940;265776
4;43;1572783301773;1572783309838;8065;17490062700;50243466236;384608623;256185222;8955903429;678041;168034238;1532;635;1147288;21;6607;197457
4;44;1572783309838;1572783317714;7876;17480604528;50243504554;381888346;255717161;8955927503;654826;167934606;1846;367;1173376;1;7159;107132
4;45;1572783317715;1572783325949;8234;17486302762;50243465642;383835529;255922338;8955912836;673257;167890105;1677;1034;1190344;15;6015;106730
4;46;1572783325949;1572783333842;7893;17478690176;50243394266;382384854;255314581;8955871910;663293;167664032;1108;1161;1264432;-46;6386;113100
4;47;1572783333842;1572783341889;8047;17470860488;50243463760;382921557;255618307;8955912967;677313;167925278;1628;576;1156600;7;6939;112625
4;48;1572783341889;1572783350268;8379;17482335504;50243499316;383411924;255910344;8955918910;674631;167838474;1737;493;1202408;-4;6997;82402
4;49;1572783350268;1572783358086;7818;17484026768;50243457221;381588851;255660230;8955915065;644507;167818662;1412;1259;1074512;57;5546;196187
4;50;1572783358086;1572783365916;7830;17475587676;50243522430;382096357;255206718;8955923262;661364;167812261;954;1270;1178184;-43;5506;100660
4;51;1572783365916;1572783373404;7488;17476413744;50243737847;384682388;255254029;8955964753;687446;167925840;1729;384;966120;-2;6447;78117
4;52;1572783373404;1572783381782;8378;17472425754;50243407753;382712097;255602588;8955895441;703497;167970959;1835;399;1175456;-2;6703;63570
4;53;1572783381782;1572783390207;8425;17478608562;50243732228;382794385;255783122;8955963226;714072;167742347;1523;1164;1209520;-12;6140;136935
4;54;1572783390208;1572783398601;8393;17491113608;50242799662;383691621;255544771;8955762825;693150;167223434;1122;1148;1236760;1;5372;28316
4;55;1572783398601;1572783406986;8385;17492974524;50242690750;383124646;255585970;8955719983;713773;167267639;1841;414;1247224;14;7973;290474
4;56;1572783406986;1572783415720;8734;17497304154;50242713227;383160296;255711676;8955740582;736458;167466671;1601;703;1262024;-10;6824;68344
4;57;1572783415721;1572783424632;8911;17494357728;50242695016;383551974;255567687;8955736124;685224;167155455;1589;1245;1386648;-8;6863;143955
4;58;1572783424632;1572783433032;8400;17488511012;50242703546;383614758;255453772;8955742734;696034;167434168;1411;847;1211352;31;6205;68709
4;59;1572783433032;1572783441455;8423;17494878218;50242822970;384208688;255726692;8955770413;701391;167447244;1910;357;1196200;-14;6649;64877
4;60;1572783441456;1572783449975;8519;17490101828;50242725471;383383118;255607003;8955742337;698786;167342978;1679;1153;1151504;83;6110;154755
4;61;1572783449975;1572783458754;8779;17484459074;50242725562;383796591;255688113;8955737317;750843;167133485;1168;1202;1269800;-95;6095;159314
4;62;1572783458754;1572783467843;9089;17479262934;50242786292;384651747;255777459;8955761655;705522;167630071;1791;484;1219696;8;6978;112845
4;63;1572783467843;1572783477048;9205;17489557102;50242874644;383245633;255806979;8955776190;702368;167243951;1891;497;1388704;-13;7947;97067
4;64;1572783477048;1572783485806;8758;17493937540;50242660333;382912888;255816409;8955719663;693477;167284858;1654;1315;1246280;15;6811;343300
4;65;1572783485806;1572783493186;7380;17483928218;50242629828;382655349;255271160;8955729982;678284;167251665;1334;828;1000328;12;5315;41734
4;66;1572783493186;1572783502155;8969;17498115914;50242649995;383279664;255570141;8955732800;697447;167322230;1973;352;1272544;-11;7604;95970
4;67;1572783502155;1572783510684;8529;17496604376;50242708337;383434284;255452616;8955750079;697396;167427899;1194;1091;1177776;-16;4798;27484
4;68;1572783510684;1572783518949;8265;17505578412;50242657936;384701360;255389271;8955736933;804088;167360777;1547;1327;1162408;9;6427;260206
4;69;1572783518949;1572783527470;8521;17488193900;50242689502;383310652;255703128;8955739049;697753;167214786;1575;685;1135368;-6;6362;91601
4;70;1572783527470;1572783535856;8386;17483425832;50242614454;383192436;255632913;8955720175;735233;167392229;1913;372;1167072;3;6609;68568
4;71;1572783535856;1572783543748;7892;17479669398;50242700812;382475538;255115181;8955739369;688781;167206201;1742;1092;963384;102;5246;203867
4;72;1572783543748;1572783552236;8488;17495560914;50242699565;383231099;255289170;8955748261;691816;167201503;1457;1361;1324672;-77;7107;328805
4;73;1572783552236;1572783560488;8252;17481116842;50242612736;383802568;255518156;8955715438;712340;167461305;1859;326;906016;111;8252;1100057
4;74;1572783560488;1572783570319;9831;17465787426;50236050040;384897944;255402215;8955759040;1056735;168247797;2248;648;1654312;-66;9831;1356051
4;75;1572783570319;1572783578753;8434;17442475168;50233776454;384501635;255006610;8955738700;1031011;168527850;1181;1226;1324296;-75;5682;60324
4;76;1572783578753;1572783587289;8536;17464461600;50233771691;384531705;255031768;8955729803;1225698;168838578;1690;1341;1204360;-1;6492;323325
4;77;1572783587289;1572783596639;9350;17462046322;50233766977;383958847;255300505;8955723836;1186894;168537914;1240;1169;1346576;0;5951;36778
4;78;1572783596639;1572783605397;8758;17458557360;50233763733;385047103;255129438;8955729226;1127853;168558671;1997;325;1209120;6;7139;84956
4;79;1572783605397;1572783614080;8683;17445816378;50233729776;384208856;255091577;8955710583;1079518;168589839;1887;451;1219512;1;6478;62018
4;80;1572783614080;1572783621812;7732;17448434596;50233822831;383580303;254769825;8955753542;1047257;168770305;1554;1356;1173296;3;6196;262217
4;81;1572783621813;1572783630270;8457;17460245850;50233799285;384158271;255095781;8955747538;1204116;168665212;1564;723;1135232;16;6472;90420
4;82;1572783630270;1572783638196;7926;17453669134;50233703944;383701475;254542421;8955707602;1193126;168580905;1683;608;1124728;-19;6079;60345
4;83;1572783638196;1572783646622;8426;17454522212;50233739222;384480511;255011876;8955726302;1068509;168612619;1386;1420;1114352;148;4983;123750
4;84;1572783646622;1572783654740;8118;17438726910;50233786428;383390001;254639776;8955740039;1081695;168630820;1362;1099;1233968;-152;6102;246236
