0;41;1574040012727;1574040020473;7746;17616989990;52726409641;384467631;256509271;9700065501;869784;168585395;3992;1788;491760;-64;7542;269923
0;42;1574040020474;1574040028529;8055;17615673070;52726390965;383719580;256452187;9700054799;768883;168583723;3357;2765;525520;-16;7867;255118
0;43;1574040028529;1574040035882;7353;17607150466;52726392267;382864981;256310036;9700056314;739337;168692798;3631;2267;508544;6;4851;50666
0;44;1574040035882;1574040043819;7937;17607333696;52726442890;381468826;256452086;9700085568;759544;168634520;3602;3451;571944;112;7591;1025107
0;45;1574040043819;1574040051751;7932;17626584088;52726356404;383460878;256722250;9700051679;835585;168837496;4312;1559;476944;-109;7805;281173
0;46;1574040051751;1574040059590;7839;17623513708;52726387616;383127129;256526366;9700059127;851111;168825499;3220;2642;492432;-12;7839;279379
0;47;1574040059590;1574040066918;7328;17614109994;52726449555;384082510;256455292;9700083673;812456;168583772;3236;2313;442232;-2;3418;19821
0;48;1574040066919;1574040074525;7606;17615096662;52726347342;383304113;256442317;9700040687;1005623;168632546;3491;2975;497648;104;7086;929190
0;49;1574040074525;1574040082358;7833;17621766818;52726398039;383900355;256356832;9700067724;848960;168810648;3807;2166;515136;-73;7647;276234
0;50;1574040082358;1574040090620;8262;17609242500;52726409514;383062047;256724809;9700054934;794327;168955231;3487;2786;558488;10;8262;306162
0;51;1574040090620;1574040098162;7542;17618447070;52726624094;383166769;256404984;9700114680;802494;168577053;3497;2366;501352;-45;4776;70367
0;52;1574040098162;1574040106026;7864;17609270970;52726515883;383530996;256606005;9700087555;828798;168430471;3643;3043;505784;84;7388;606434
0;53;1574040106026;1574040113725;7699;17633402434;52726712344;383972159;256071662;9700129538;760634;168694750;3886;2260;543736;-19;7699;366785
0;54;1574040113725;1574040121219;7494;17664338374;52725675202;384655214;256203042;9699903081;933419;168339484;3058;2994;518480;-18;7493;309739
0;55;1574040121219;1574040128865;7646;17665503600;52725573502;383581913;256205411;9699871366;877655;168259100;3349;2492;476120;-48;3529;32087
0;56;1574040128865;1574040137172;8307;17662158594;52725609492;384480005;256268969;9699888209;883797;168273835;3751;2957;550536;47;7631;561081
0;57;1574040137173;1574040144779;7606;17656943912;52725580925;383813730;255980090;9699878883;832424;168472582;3907;1757;483048;7;7532;262111
0;58;1574040144779;1574040152535;7756;17654052820;52725706541;384722439;256060598;9699911661;792163;168321031;3289;2515;492560;-30;7756;284082
0;59;1574040152535;1574040160306;7771;17662002812;52725638745;383740440;256171642;9699896862;878544;168707977;3734;2097;482696;-23;4692;43284
0;60;1574040160306;1574040167577;7271;17663815548;52725607522;385132251;255966828;9699886192;880832;168374751;3189;3059;483816;125;6831;847396
0;61;1574040167579;1574040175590;8011;17664333848;52725647556;385240742;256420290;9699894128;846291;168174743;4157;1699;490472;-63;7991;325288
0;62;1574040175590;1574040183263;7673;17662526076;52725668402;383281372;255850078;9699915830;876064;168087660;3330;2519;497992;-19;7672;293575
0;63;1574040183263;1574040191040;7777;17659576146;52725642074;383499188;256207046;9699895754;853438;168527031;3479;2388;481456;-43;4043;53308
0;64;1574040191040;1574040198680;7640;17652260816;52725556907;382765725;256038112;9699868932;864761;168548643;3479;3084;510248;89;7008;760340
0;65;1574040198680;1574040206184;7504;17667736670;52725611534;383138892;255868170;9699880514;824742;168420954;3935;1903;479992;-59;7484;294121
0;66;1574040206184;1574040213819;7635;17649224892;52725626075;383926720;256111310;9699889543;822631;168461238;3366;2418;477856;1;7634;277526
0;67;1574040213819;1574040222049;8230;17648879310;52725586687;382996142;256298170;9699885884;805479;168006183;3984;2224;514504;-31;4426;38964
0;68;1574040222049;1574040229963;7914;17668914014;52725608195;383822494;256338035;9699891297;847180;168238339;3610;3038;518776;92;7058;835587
0;69;1574040229963;1574040237645;7682;17656304578;52725621413;383752720;255970051;9699888424;863535;168263175;3928;1751;476872;-48;7304;265131
0;70;1574040237645;1574040245469;7824;17655393392;52725638263;383510474;256083435;9699892311;790690;168254637;3379;2589;502120;-11;7825;288262
0;71;1574040245469;1574040253054;7585;17648995672;52725659329;382674110;255906632;9699913617;779328;168986230;2537;3124;481144;120;7585;943954
0;72;1574040253055;1574040261061;8006;17661177766;52725604623;384369392;256523991;9699888022;890956;168405056;3516;2888;463840;-9;8006;1150574
0;73;1574040261061;1574040268827;7766;17663296810;52725537286;383567641;255878411;9699866323;893674;168646082;3621;2980;561296;-144;6134;524022
0;74;1574040268827;1574040276211;7384;17614613986;52716662608;384515752;256117113;9699891574;890978;167793382;3465;2124;444376;5;3273;21585
0;75;1574040276211;1574040283880;7669;17596912800;52713728363;383873795;256125784;9699876913;795616;167813540;3595;2914;507384;52;5399;349645
0;76;1574040283881;1574040292099;8218;17589378032;52713834089;383642403;256270749;9699910695;810239;167582408;3832;2377;566760;1;8219;400156
0;77;1574040292099;1574040299881;7782;17589919546;52713789517;383547420;255974721;9699897312;784503;167772141;3661;2284;496808;-31;7782;331545
0;78;1574040299881;1574040307709;7828;17592826114;52713764258;383706072;256122035;9699885538;790875;167983119;3322;2593;496720;-19;4822;104170
0;79;1574040307709;1574040315615;7906;17593646634;52713769573;382980939;256205014;9699885265;878092;167253024;3667;3015;520024;129;5812;601854
0;80;1574040315616;1574040323330;7714;17598365938;52713845981;384315922;256205396;9699909366;867589;167610201;3720;2136;491648;-94;7715;521553
0;81;1574040323330;1574040331431;8101;17588995804;52713771481;383075292;256156827;9699886081;786099;167732849;3978;1886;486912;1;7873;247023
0;82;1574040331431;1574040338919;7488;17589450740;52713699891;383851946;255840453;9699860736;801243;167589315;3024;2664;482352;-34;6163;158223
0;83;1574040338920;1574040346411;7491;17592732090;52713786899;383534206;256067673;9699896545;847834;167643105;3317;3008;495488;75;5016;428864
0;84;1574040346411;1574040354310;7899;17592809470;52713814798;384482679;256172249;9699899417;883428;167609146;3843;2132;508864;-60;7898;398172
0;85;1574040354310;1574040362251;7941;17595426958;52713772093;383738178;256067719;9699891629;793181;167748055;3668;2345;498184;9;7849;286373
0;86;1574040362251;1574040369871;7620;17598574718;52713762810;384099121;256003289;9699886364;783166;167626217;3058;2841;510072;-35;5091;143668
0;87;1574040369871;1574040377842;7971;17601676196;52713826095;383698636;256453216;9699900220;845079;167579019;3679;2888;507288;86;5391;501749
0;88;1574040377842;1574040385213;7371;17584526452;52713683385;382885140;255892726;9699858837;777885;167766340;3522;2085;456800;-46;7370;460234
0;89;1574040385213;1574040393486;8273;17590415654;52713806442;384371868;256144492;9699901693;772308;167580713;3965;2025;527776;-6;8089;239598
0;90;1574040393486;1574040401059;7573;17595497476;52713784472;383855293;256019457;9699896010;783782;167594089;3038;2669;465664;-33;6324;162289
1;41;1574040868301;1574040875910;7609;17592500826;49982099388;383007929;257114868;8985280534;778467;166946751;3356;2361;523496;-49;7610;946630
1;42;1574040875910;1574040883673;7763;17586930488;49982083034;381258755;257146778;8985271385;801235;166853794;3854;1941;503608;-19;7636;258251
1;43;1574040883673;1574040892000;8327;17597426428;49982106885;383537252;257594536;8985277143;809667;166770535;3203;3118;549872;-6;8146;260025
1;44;1574040892000;1574040899980;7980;17597014124;49982177670;383567938;257558992;8985311726;813131;166961619;3507;3046;508112;111;3730;154920
1;45;1574040899980;1574040907596;7616;17595718812;49982097379;384470605;257327009;8985277893;826699;167140832;3625;2081;473864;-99;7617;705697
1;46;1574040907596;1574040915293;7697;17598694438;49982063830;384648187;257199369;8985265394;792907;167028489;3964;1683;486536;12;7697;250707
1;47;1574040915293;1574040922714;7421;17602513360;49982086494;384436702;257279334;8985279207;837097;167487238;3222;2352;456368;-41;7188;229775
1;48;1574040922714;1574040930503;7789;17593137970;49982092556;382619801;257213990;8985272105;901486;167235151;3703;2651;502600;96;3337;79034
1;49;1574040930503;1574040938200;7697;17601626556;49982114915;383716160;257165927;8985284123;827114;166835768;3269;2641;501488;13;7697;958202
1;50;1574040938200;1574040945706;7506;17596804906;49982152602;382912373;257161571;8985287469;765005;166877313;3774;1901;487800;-73;7447;282434
1;51;1574040945706;1574040953864;8158;17591374144;49982243045;382718385;257407127;8985302295;861614;166713307;3463;2506;515800;23;8159;268287
1;52;1574040953865;1574040961913;8048;17601398066;49982203984;383487291;257504795;8985297211;830169;167073693;3571;3043;510448;88;3835;133476
1;53;1574040961913;1574040969623;7710;17611380232;49982417953;382468060;257018728;8985347764;759053;167117833;3309;2789;533896;-45;7710;980626
1;54;1574040969623;1574040977609;7986;17656187194;49981365810;383415948;256602409;8985113181;725535;168069868;3938;2256;552200;-69;7900;331877
1;55;1574040977609;1574040985007;7398;17657281902;49981272527;383886055;256701838;8985091996;809428;167894896;3112;2417;436672;-33;6938;220294
1;56;1574040985007;1574040992995;7988;17654289924;49981315790;382947509;256964214;8985109300;779058;167943759;3817;2775;520632;118;3275;100145
1;57;1574040992995;1574041000250;7255;17651197936;49981298608;383847311;256390770;8985095266;778980;167852468;3216;2190;468800;-72;7255;674739
1;58;1574041000250;1574041008488;8238;17655728170;49981348576;383999907;257032434;8985115516;797327;168194004;4181;1818;493856;13;8073;270128
1;59;1574041008488;1574041016244;7756;17656563874;49981299443;383959208;256781036;8985100117;774114;168384988;3095;2762;500984;-25;7756;287551
1;60;1574041016244;1574041024410;8166;17664091634;49981307014;384934629;257254454;8985095414;824880;168116392;3629;3108;520440;67;3780;108413
1;61;1574041024410;1574041032181;7771;17652017580;49981293434;383809768;256797433;8985094128;775515;168662004;3324;2490;512000;-30;7772;804376
1;62;1574041032181;1574041040139;7958;17664855798;49981442086;384706950;257030619;8985144783;852235;167920616;4167;1667;478096;-30;7925;303605
1;63;1574041040139;1574041047313;7174;17650342230;49981360241;381769687;256366265;8985111524;770214;167782862;2934;2369;436792;-4;7175;240092
1;64;1574041047313;1574041055258;7945;17633932560;49981338791;383912550;256830018;8985106357;812968;167942804;3726;2677;530728;131;3621;73903
1;65;1574041055258;1574041063364;8106;17640594394;49981351398;384911871;257087134;8985122602;811607;168163576;3695;2558;529664;-134;8106;716303
1;66;1574041063364;1574041071621;8257;17631712776;49981291429;383384058;256974371;8985091312;833375;168130367;4255;1716;504920;14;8032;263992
1;67;1574041071621;1574041079173;7552;17638906780;49981348018;385009813;256666402;8985119946;796441;167949982;3011;2578;458648;-17;7552;260741
1;68;1574041079173;1574041086727;7554;17627759972;49981336402;383826761;256723530;8985111000;791238;168038027;3386;2811;480112;140;3586;93651
1;69;1574041086728;1574041094582;7854;17636912420;49981291327;384658392;256965311;8985091706;870436;167874612;3427;2505;520360;-121;7854;550357
1;70;1574041094582;1574041102765;8183;17634536124;49981279148;384682095;256754353;8985091121;767605;167785428;4085;1922;518960;-6;8099;274096
1;71;1574041102765;1574041110671;7906;17628851760;49981343781;383292183;256787888;8985120951;788668;167716898;3277;2548;503992;-42;7897;238742
1;72;1574041110671;1574041118179;7508;17634399760;49981261984;384031128;256671477;8985088667;770210;167767876;3635;2747;480416;170;4255;127673
1;73;1574041118179;1574041125849;7670;17633724072;49981271090;383227088;256732956;8985091035;807382;167965805;3360;2501;496600;-130;7670;962565
1;74;1574041125849;1574041133695;7846;17631717448;49981365592;382578130;256741908;8985124066;779298;167733765;3315;2402;450488;92;7845;1297951
1;75;1574041133695;1574041141602;7907;17627520824;49981271823;383428188;256919297;8985089895;861516;167970918;3218;3792;594680;-131;7824;703714
1;76;1574041141602;1574041149343;7741;17638895830;49981316999;384314682;256642198;8985113386;791374;167815100;3360;2328;467568;-3;2499;11883
1;77;1574041149343;1574041156713;7370;17629281292;49981332599;382210323;256455903;8985106454;876331;167692949;3267;2255;457104;15;3090;18645
1;78;1574041156713;1574041165020;8307;17635875820;49981258111;383950723;256729945;8985084454;781952;168049880;3972;2743;531000;78;7187;485050
1;79;1574041165020;1574041172889;7869;17632287578;49981267683;383780539;256801210;8985087853;785600;167912602;3816;2116;517632;-47;7868;382451
1;80;1574041172889;1574041180756;7867;17636797518;49981343032;384553439;256792903;8985122588;792177;167868749;3419;2420;488024;-12;7868;310250
1;81;1574041180756;1574041188915;8159;17630232044;49981273796;384144366;256974774;8985091300;782290;167868035;3556;2435;526448;-17;4800;88971
1;82;1574041188916;1574041196545;7629;17626572262;49981305748;382521444;256699599;8985098733;760863;167742558;3529;2996;520808;137;6741;811485
1;83;1574041196545;1574041204235;7690;17627454102;49981357976;380181033;256463578;8985122679;729671;167579464;3732;2483;546680;-112;7689;628766
1;84;1574041204235;1574041211990;7755;17640608264;49981362365;385042171;256782066;8985109519;752137;167913575;3130;2886;531984;-7;7627;343136
1;85;1574041211990;1574041220058;8068;17642995218;49981343758;384754661;256917578;8985115236;780374;168116349;3172;2910;525536;-35;5520;144082
1;86;1574041220059;1574041227448;7389;17624594108;49981297987;383310941;256549198;8985100925;812432;167860758;3430;2719;476128;73;5859;490148
1;87;1574041227448;1574041235132;7684;17632078652;49981274707;384158515;256655038;8985089126;795864;167891346;3878;1885;494168;-41;7685;330294
1;88;1574041235132;1574041242823;7691;17633078460;49981240385;384306575;256700220;8985080288;775060;168112671;3663;1965;462368;8;7320;227878
1;89;1574041242823;1574041250903;8080;17633456892;49981356079;383623556;256910218;8985128944;824488;167848936;3616;2386;484576;-33;4029;54895
1;90;1574041250903;1574041259182;8279;17628629256;49981380809;383077600;257163639;8985121077;808486;167704956;3841;2976;548624;59;6809;618473
2;43;1574041760478;1574041768238;7760;17222251542;49487632224;377581069;252588485;8813752740;803151;164285250;3188;2650;493944;-35;7702;243484
2;44;1574041768238;1574041775825;7587;17223264490;49487596780;376000698;252460864;8813736338;886990;164109413;3200;2727;506792;119;3377;41102
2;45;1574041775825;1574041783208;7383;17232547462;49487576666;378638397;252596608;8813729746;837005;164354456;3269;2583;484192;-87;7383;648920
2;46;1574041783208;1574041791048;7840;17234178574;49487557848;377147429;252687897;8813730340;906894;163846220;3928;1923;485672;-14;7779;337732
2;47;1574041791048;1574041798487;7439;17224020770;49487590762;377821486;252651319;8813741393;883449;164608555;3278;2179;465816;-1;7439;235546
2;48;1574041798487;1574041806056;7569;17229898584;49487586836;376880476;252823344;8813738393;1071595;164104128;3334;2334;465920;-38;2870;31518
2;49;1574041806057;1574041813666;7609;17223118052;49487578427;376924727;252667432;8813732629;821445;164179665;3411;3092;514992;127;7413;1002980
2;50;1574041813666;1574041821609;7943;17231618172;49487617467;375868686;252709133;8813739301;839730;164146315;4029;1953;518152;-108;7669;335914
2;51;1574041821609;1574041829063;7454;17227840276;49487771905;377196621;252427644;8813770446;964556;164665157;3381;2158;435568;12;7308;203180
2;52;1574041829065;1574041836642;7577;17222491128;49487755369;377427657;252584912;8813782107;826181;164405259;3341;2421;495032;-35;4387;64493
2;53;1574041836642;1574041844201;7559;17207184780;49487793554;378236138;252714597;8813766241;876211;164033434;3326;3043;504448;122;6787;865419
2;54;1574041844201;1574041851644;7443;17110519202;49486811938;377163292;252017061;8813566593;806744;164446309;3807;2071;519648;-75;7360;336916
2;55;1574041851644;1574041858852;7208;17111984166;49486798385;375675422;251618878;8813562440;806415;164328619;3093;2544;485112;-37;7208;307021
2;56;1574041858852;1574041866468;7616;17096863092;49486752349;375866648;252066609;8813539339;798481;164112899;3562;2188;483824;-8;3854;34575
2;57;1574041866468;1574041873789;7321;17109239512;49486841717;377003883;251950767;8813583331;828833;164702320;3472;2804;490832;131;5933;691264
2;58;1574041873789;1574041881676;7887;17115815352;49486831831;375528729;252195283;8813567115;801667;164315138;3939;2163;516648;-82;7887;513295
2;59;1574041881676;1574041889124;7448;17105171222;49486781833;375769428;251906200;8813549913;811948;164422675;3341;2297;466224;-26;7448;291163
2;60;1574041889124;1574041897216;8092;17108928970;49486827870;376859803;252292784;8813571933;874911;164551510;3532;2637;544928;-26;5872;128186
2;61;1574041897216;1574041904856;7640;17107344140;49486790425;377314614;252012718;8813553708;808612;163936251;3543;3095;534432;68;5705;468381
2;62;1574041904856;1574041912671;7815;17101927102;49486848577;376857103;252142153;8813578157;814876;164253808;3778;2151;511320;-27;7814;383310
2;63;1574041912671;1574041920600;7929;17116153780;49486912620;376583830;252030998;8813590086;895320;164967794;3515;2362;485840;0;7930;304953
2;64;1574041920600;1574041928259;7659;17112963388;49486844446;376535930;252185337;8813558712;837216;164500327;3315;2508;486848;-38;4976;98559
2;65;1574041928259;1574041935860;7601;17099833608;49486793139;374852997;251920782;8813563885;891256;164281498;3445;2580;485128;129;6168;624616
2;66;1574041935860;1574041943284;7424;17114349366;49486750900;374954632;251771897;8813548206;805051;164100981;3721;2005;470320;-87;7424;556337
2;67;1574041943284;1574041950784;7500;17124848664;49486782886;376152217;251882244;8813563909;813981;164235230;3615;2023;455944;-14;7281;225425
2;68;1574041950784;1574041958023;7239;17112384498;49486796905;376786310;251857623;8813570453;802898;164339855;3276;2337;466896;-28;5236;98591
2;69;1574041958023;1574041965382;7359;17108126262;49486774308;376753935;251838357;8813548682;858708;164011019;3343;2849;478056;48;4841;351921
2;70;1574041965382;1574041973091;7709;17120001610;49486776099;377629473;252243973;8813550409;828120;164160990;3839;1918;499568;-8;7709;340550
2;71;1574041973091;1574041980772;7681;17108275620;49486794654;375927420;251904872;8813562352;798929;164367931;3769;1832;462424;91;7318;743714
2;72;1574041980772;1574041988118;7346;17107940112;49486827821;376020121;252042328;8813578287;880031;164425667;2923;1869;371440;7;7347;1059371
2;73;1574041988118;1574041997633;9515;17122699544;49486756629;376726022;252718846;8813549243;850346;163933496;3678;4388;694456;-134;7259;555841
2;74;1574041997633;1574042005011;7378;17105676236;49486753170;376216895;252030210;8813547217;816902;164700813;3379;2212;458976;3;3255;18406
2;75;1574042005011;1574042013156;8145;17105985756;49486789635;376118864;252250611;8813559600;816473;163898950;3781;3211;582664;60;5765;511155
2;76;1574042013156;1574042020688;7532;17108772750;49486784094;376656343;251982431;8813565723;812082;164216894;3738;1994;484768;-38;7532;424101
2;77;1574042020688;1574042028410;7722;17110728858;49486771602;375447377;252103743;8813551710;940675;164263646;3604;2222;463024;17;7721;330241
2;78;1574042028410;1574042036356;7946;17119179192;49486779481;376612688;252445273;8813556948;914441;164675037;3521;2453;503424;-44;5309;117322
2;79;1574042036356;1574042043968;7612;17109086212;49486804376;376486001;251972155;8813571234;790090;164369259;3686;2633;504760;46;5665;300291
2;80;1574042043968;1574042051589;7621;17114672026;49486742436;375899510;251991760;8813538203;801443;164129467;3636;2111;499336;-18;7620;356134
2;81;1574042051589;1574042059328;7739;17109697660;49486821914;376565570;252163827;8813578702;840333;164367067;3864;1966;482472;9;7740;292211
2;82;1574042059328;1574042066954;7626;17116125018;49486787551;376722907;252221014;8813558284;893360;164185708;3272;2461;470592;-42;5556;126411
2;83;1574042066954;1574042074133;7179;17107374070;49486766203;376605757;251791344;8813549849;879335;164442614;3358;2992;498840;135;4719;394010
2;84;1574042074133;1574042081442;7309;17098034742;49486820890;375067998;251763594;8813569601;831237;164090113;3392;2269;482512;-90;7309;716207
2;85;1574042081442;1574042088898;7456;17111749690;49486749739;375709791;251900519;8813542130;877919;164152883;3808;1703;458960;21;7364;288498
2;86;1574042088898;1574042097090;8192;17110693234;49486815397;375274900;252187631;8813580492;800861;164266124;3452;2743;556512;-66;6481;180936
2;87;1574042097090;1574042104323;7233;17099629354;49486805305;376530240;251706891;8813565680;890477;164871939;3494;2670;505480;140;4729;284664
2;88;1574042104323;1574042111740;7417;17114622970;49486734286;376064341;251852971;8813536425;791890;164574662;3492;2236;474480;-78;7417;724940
2;89;1574042111740;1574042119378;7638;17105021134;49486801278;377363421;252169043;8813568978;830575;164281181;3900;1781;462520;5;7498;257109
2;90;1574042119378;1574042127077;7699;17118878432;49486742604;376776160;252139131;8813542098;885780;164596363;3271;2621;507688;-67;7040;218488
2;91;1574042127077;1574042134591;7514;17102587168;49486788145;375377909;251989400;8813564221;821020;164137917;3458;3088;485544;151;3875;176070
2;92;1574042134591;1574042141940;7349;17117901838;49486792569;376763464;251918993;8813565081;1059470;164122186;3192;2418;493704;-92;7349;897499
3;40;1574042622738;1574042630839;8101;17707276244;52820460131;385206937;257823014;9711906624;766463;172439438;4059;1725;511864;-16;7983;307324
3;41;1574042630839;1574042638965;8126;17709942496;52820469821;384689538;257565137;9711904923;802251;172522477;3741;2270;518280;6;8125;275988
3;42;1574042638965;1574042646830;7865;17708708796;52820487695;385293859;257653568;9711921537;771204;173333046;3264;2504;487888;-36;4719;103859
3;43;1574042646831;1574042654883;8052;17700250578;52820435095;385598557;257480374;9711893092;775572;173511453;3927;2538;496360;90;7608;599640
3;44;1574042654883;1574042662988;8105;17725957090;52820481510;385219847;257852771;9711926081;880435;173460540;4122;1715;505840;-34;8105;310370
3;45;1574042662989;1574042670564;7575;17699949526;52820504499;384196279;257260325;9711928846;731484;172269019;3367;2315;474168;-30;7576;251441
3;46;1574042670565;1574042678050;7485;17701360324;52820447441;385233439;257555246;9711896410;832430;173153820;3246;2305;450616;-21;3095;32510
3;47;1574042678050;1574042686537;8487;17706623478;52820520521;385545562;257636743;9711926000;839331;173846661;3982;2613;505208;37;7982;551252
3;48;1574042686550;1574042694560;8010;17708621050;52820506190;385995404;257498343;9711925654;749815;172443847;3951;2026;523264;-18;8010;338407
3;49;1574042694560;1574042702417;7857;17702259976;52820491728;384050808;257490226;9711916623;763742;172828077;3160;2624;486248;36;7857;267343
3;50;1574042702417;1574042710573;8156;17717866500;52820520293;384370368;257889448;9711917508;774795;172882372;3637;3192;545680;-27;4760;166394
3;51;1574042710574;1574042718269;7695;17705986772;52820754653;384478576;257370576;9711971810;752001;173033402;3376;2289;521968;23;7695;498747
3;52;1574042718269;1574042726486;8217;17708564694;52820481171;384350342;257400515;9711902960;735788;172412257;4016;1942;543800;-21;7973;266325
3;53;1574042726486;1574042734510;8024;17701219872;52820768341;384820213;257461971;9711970641;778304;172168510;3571;2314;498576;-33;7962;219561
3;54;1574042734510;1574042742124;7614;17694087626;52819771168;383935617;256576845;9711762084;719296;170631272;3414;2842;522528;122;3431;156544
3;55;1574042742124;1574042749805;7681;17689757120;52819671007;385846838;256959838;9711722468;759310;170525570;3726;2078;485120;-81;7682;538950
3;56;1574042749805;1574042757956;8151;17681983934;52819751793;387538450;257100826;9711756994;797310;170726267;4279;1419;486888;-29;7876;239272
3;57;1574042757956;1574042766212;8256;17692855386;52819741189;385129415;257095790;9711752099;754291;170748665;3387;2676;522464;-12;7758;245161
3;58;1574042766212;1574042774113;7901;17687498792;52819738461;385632415;256801797;9711754616;787982;170636314;3464;2831;500992;101;4215;190645
3;59;1574042774113;1574042781971;7858;17689551552;52819698188;385931426;256829827;9711734630;746097;170479307;3675;2136;498704;-42;7858;365787
3;60;1574042781971;1574042789501;7530;17684850498;52819748170;386609448;256717522;9711755948;792940;171080118;3878;1646;487800;-23;7530;289210
3;61;1574042789501;1574042797747;8246;17690840294;52819670438;386639361;257419622;9711721735;785796;170412104;3193;2838;507352;-42;7535;249196
3;62;1574042797747;1574042805221;7474;17669262808;52819737000;384803966;256801109;9711761733;811073;170596869;3367;2706;485336;114;4447;210280
3;63;1574042805221;1574042813034;7813;17672520506;52819759310;385182487;256998664;9711761763;804795;170199563;3562;2217;495472;-63;7813;459128
3;64;1574042813034;1574042820757;7723;17671009406;52819717855;384439097;256759656;9711732630;741427;170036946;3861;1834;483688;-14;7723;306997
3;65;1574042820758;1574042828815;8057;17692788226;52819692193;386456507;257063911;9711735862;771471;170424079;3498;2393;507208;-37;7305;218909
3;66;1574042828815;1574042836184;7369;17681044716;52819686993;385833539;256544669;9711743587;750112;169941791;3288;2923;489840;143;3986;210915
3;67;1574042836184;1574042844160;7976;17676728518;52819676128;385342276;256990559;9711733183;766261;170393548;3810;2122;503272;-99;7977;501407
3;68;1574042844161;1574042851926;7765;17677749496;52819683953;385926410;256679107;9711735973;762856;170721373;3687;2073;480280;263;7765;482558
3;69;1574042851926;1574042859714;7788;17695681800;52819722730;385768206;257042536;9711756164;838832;170028207;2991;1744;380264;-148;7789;1256640
3;70;1574042859714;1574042866801;7087;17676143204;52819641888;386284840;256411228;9711721548;820709;170403644;2570;4650;571120;-121;7087;935235
3;71;1574042866801;1574042875001;8200;17693837090;52819711774;385363582;257064640;9711753616;774698;170174598;3556;2454;515496;-37;3187;22514
3;72;1574042875001;1574042882564;7563;17678470006;52819667596;384937402;256734043;9711738166;799583;170338013;3412;2837;480080;42;3426;112262
3;73;1574042882564;1574042890228;7664;17676936714;52819636892;386176022;256931014;9711720254;761263;170437254;3416;2166;501336;-2;7665;507758
3;74;1574042890228;1574042897747;7519;17672853532;52819677479;384531223;256716570;9711727438;768042;170319152;3736;1738;441672;16;7519;317357
3;75;1574042897747;1574042905703;7956;17680901782;52819766788;385428635;257019059;9711767688;786587;169828318;3489;2411;494936;-57;7817;245487
3;76;1574042905703;1574042913459;7756;17684937076;52819670504;384746816;256807655;9711731393;753606;170429975;3620;2590;494048;182;3636;85915
3;77;1574042913459;1574042921301;7842;17688792498;52819685158;385416477;256981146;9711737369;786514;170191707;3583;2358;496736;-147;7841;490719
3;78;1574042921301;1574042929252;7951;17677099212;52819708324;386618233;257041154;9711750726;764101;170496932;4005;1892;498360;13;7795;275733
3;79;1574042929252;1574042936636;7384;17673544988;52819687378;385963240;256671008;9711730828;754772;170353102;3064;2353;460920;-3;7384;264323
3;80;1574042936636;1574042944304;7668;17683215736;52819661011;384521758;256730381;9711738612;758009;170197223;3352;2512;477616;120;3637;43251
3;81;1574042944304;1574042952491;8187;17704325292;52819659908;385135433;257097052;9711732206;792634;170979476;3670;2664;519120;-106;8186;615191
3;82;1574042952491;1574042960311;7820;17686805146;52819683429;384471325;256752234;9711728613;791568;170330933;3936;1803;479664;4;7642;267621
3;83;1574042960311;1574042967970;7659;17693182280;52819704156;385770726;256682903;9711736772;802552;170183259;3248;2461;502008;-48;7659;253735
3;84;1574042967970;1574042975932;7962;17674328862;52819736761;384036666;256822661;9711762215;739736;170074188;3787;2633;511016;140;3488;86186
3;85;1574042975933;1574042983359;7426;17678116248;52819683764;384600506;256546465;9711734634;786059;170458927;3461;2191;480344;-118;7427;478998
3;86;1574042983359;1574042991099;7740;17684088962;52819634460;385503543;256666440;9711726083;737426;170386414;3878;1870;486136;8;7723;272945
3;87;1574042991099;1574042998909;7810;17694233188;52819737107;386059350;256632982;9711757859;765955;170157992;3555;2087;482480;-29;7595;225552
3;88;1574042998909;1574043006645;7736;17681878522;52819642382;385169441;256873080;9711721934;732894;170428030;3529;2245;491040;-16;3154;18053
3;89;1574043006645;1574043014492;7847;17680827760;52819739524;385363998;256661075;9711758763;744727;170451479;3601;2807;521256;53;7839;629834
4;43;1574043484071;1574043491909;7838;17094832524;49636350663;384916855;256560568;8822760144;834450;169025556;4041;1934;519888;-45;7838;310678
4;44;1574043491909;1574043499383;7474;17095830726;49636511978;384586050;256617596;8822822823;861961;168690468;3104;2323;443856;-30;6702;177391
4;45;1574043499383;1574043506591;7208;17093371210;49636390964;383810081;256382677;8822792993;878807;169401998;3242;2925;456336;123;3396;134822
4;46;1574043506591;1574043514248;7657;17102842376;49636363165;384814770;256618947;8822765239;857511;168890037;3367;2330;528096;-95;7657;598783
4;47;1574043514248;1574043521897;7649;17105965316;49636373139;386423207;256588891;8822781834;875648;169469509;3824;2079;509336;-10;7648;301421
4;48;1574043521897;1574043529341;7444;17098871176;49636392808;384170382;256519209;8822789431;823651;168855453;3027;2676;494976;-25;7264;271837
4;49;1574043529341;1574043537019;7678;17108882688;49636343666;383981255;256692207;8822771732;892993;168671664;3642;2111;497952;-1;4474;40966
4;50;1574043537019;1574043544702;7683;17098979800;49636461608;384273943;256549839;8822789875;860140;169237431;3343;3227;532488;53;7682;783348
4;51;1574043544702;1574043552572;7870;17099504816;49636553731;384092648;256487722;8822819411;821100;168929119;3890;1865;509344;-22;7670;253280
4;52;1574043552572;1574043560193;7621;17086175892;49636409921;383641876;256381259;8822775355;810766;169061306;3087;2697;499704;-7;7621;308437
4;53;1574043560193;1574043567904;7711;17082872350;49636477379;384492793;256499778;8822802616;850208;168945014;3507;2229;489136;-28;4012;37708
4;54;1574043567905;1574043575651;7746;17058005630;49635695958;386377415;256323832;8822631519;837544;169793641;3557;3045;531016;40;7210;578073
4;55;1574043575651;1574043583567;7916;16996814840;49627262360;386646284;256062014;8822627833;855682;169296073;3884;2030;535840;4;7702;291428
4;56;1574043583567;1574043591434;7867;17000028154;49626712993;385417212;256186078;8822612524;863766;169996360;3582;2207;498072;-4;7868;281174
4;57;1574043591434;1574043598859;7425;16997798880;49626714840;386589491;255920084;8822612270;878647;169807299;3388;2164;471000;-30;5873;106250
4;58;1574043598859;1574043606458;7599;16999311732;49626728381;384838019;255969345;8822612944;893056;169629475;3401;3015;504536;121;6799;771595
4;59;1574043606458;1574043613932;7474;16994527458;49626682250;386075345;255725692;8822600389;867957;170107149;3819;1866;473592;-91;7473;327998
4;60;1574043613932;1574043621579;7647;16996377278;49626731242;385561609;256163588;8822614307;880700;169191003;3500;2113;458208;6;7648;279476
4;61;1574043621579;1574043628746;7167;16995291914;49626639320;385260916;255799871;8822579815;848865;169617568;3143;2317;449904;-44;3633;51537
4;62;1574043628746;1574043636758;8012;17003121894;49626754949;386963831;256335493;8822623714;907122;169679668;3680;3128;526792;123;6376;668280
4;63;1574043636758;1574043644435;7677;16993489106;49626791815;384491225;255879556;8822629665;844991;169698019;3724;2206;528896;-93;7678;368899
4;64;1574043644435;1574043652217;7782;16996147474;49626687696;385798390;256081427;8822587078;873644;169312390;3647;2096;476616;11;7727;235423
4;65;1574043652217;1574043659913;7696;16991671260;49626676046;385947663;256007056;8822603725;874157;169589781;3489;2235;479984;-21;5583;114429
4;66;1574043659913;1574043667828;7915;16998304332;49626683246;385095146;255956672;8822603209;924213;169237317;3523;2873;515224;68;6457;604654
4;67;1574043667828;1574043675803;7975;16993519620;49626697369;385083894;256050093;8822610455;839546;169372152;3983;1969;529784;-39;7865;300128
4;68;1574043675804;1574043683396;7592;16995327392;49626658082;385090032;255961311;8822599774;840323;169775524;3484;2182;476656;-14;7593;289174
4;69;1574043683396;1574043690652;7256;16988495468;49626685557;385200547;255537256;8822602497;843262;169877957;2984;2463;452304;-33;4889;101988
4;70;1574043690652;1574043698306;7654;16984227888;49626663964;384099368;255829474;8822589673;830956;169174902;3560;3070;518496;128;6183;736784
4;71;1574043698306;1574043705852;7546;16989324748;49626678184;385035051;255724247;8822609616;863366;169752305;3706;2149;489288;-77;7519;578410
4;72;1574043705852;1574043713567;7715;17001616342;49626703822;385502434;256023321;8822608419;870507;169926004;3468;2258;470880;-11;7715;306459
4;73;1574043713568;1574043720958;7390;16998196146;49626626182;386561442;255815850;8822575065;875547;170137678;3362;2264;471800;-42;5547;109198
4;74;1574043720958;1574043728713;7755;16991579572;49626660779;385316170;255914778;8822597677;843408;169591127;3241;2720;487232;146;6339;484212
4;75;1574043728713;1574043737444;8731;16985672558;49626677780;386372331;255755054;8822600575;900640;169329091;3549;3187;563880;6;8731;1264721
4;76;1574043737444;1574043745508;8064;16996518898;49626663940;385345958;256153564;8822602156;928182;169937670;3930;2630;573008;-120;8064;542129
4;77;1574043745509;1574043753309;7800;16989970652;49626690204;385091676;256000994;8822609446;855163;169472181;3201;2726;509824;-30;6782;173228
4;78;1574043753309;1574043761259;7950;16994760182;49626664722;385448030;255986440;8822598363;839495;169389102;3705;2821;534272;116;5872;443062
4;79;1574043761259;1574043769064;7805;16999277714;49626684267;384490051;255945320;8822594248;830386;169484486;3556;2451;514152;-58;7805;464492
4;80;1574043769064;1574043776428;7364;16997587326;49626692437;386445227;255737251;8822614188;872141;169947054;3560;1990;475944;-51;7364;315680
4;81;1574043776428;1574043783891;7463;16996086300;49626679113;385688244;255874604;8822604192;822575;169943488;3277;2334;466856;6;5922;129046
4;82;1574043783891;1574043791018;7127;16990308496;49626615053;383773440;255618432;8822573262;817797;169316134;3560;2996;482104;124;4941;323665
4;83;1574043791018;1574043798688;7670;16997141734;49626709679;385683108;255933207;8822608067;875167;170399571;3614;2276;501120;-77;7671;871111
4;84;1574043798688;1574043806039;7351;16995537924;49626659739;385713184;255774974;8822597495;837525;169822138;3631;1829;436848;0;7351;309114
4;85;1574043806039;1574043813842;7803;17000929850;49626693685;386197571;256084888;8822609892;895641;169626152;3378;2510;513864;-63;7184;222833
4;86;1574043813842;1574043821417;7575;16989369424;49626692059;385086310;256018462;8822608192;845272;169886270;3522;2483;483336;161;3871;47008
4;87;1574043821417;1574043829368;7951;16998654878;49626680484;385147981;255989981;8822599826;859071;169741812;3607;2419;503144;-103;7952;479472
4;88;1574043829368;1574043836822;7454;16978793622;49626639947;385430842;255717578;8822586732;828618;169496218;3755;1725;462432;-57;7222;292353
4;89;1574043836822;1574043844702;7880;16985458084;49626758388;384704227;255955936;8822627370;875892;169334197;3238;2585;485744;23;7638;189069
4;90;1574043844702;1574043852236;7534;16996467944;49626631430;384759631;255807704;8822594190;864577;170396649;3506;2175;474736;-17;3688;27983
4;91;1574043852236;1574043860076;7840;16989923348;49626638837;385696878;255963103;8822578909;839420;169596660;3483;3092;525808;58;7763;796550
4;92;1574043860076;1574043867572;7496;16994461320;49626696578;385095839;255900237;8822604309;852011;170099410;3845;1739;467576;-35;7497;297119
