0;40;1572779247124;1572779255333;8209;17337803388;50438599603;380445285;255456317;8867083717;719331;169291090;1456;2558;970248;-40;4299;26937
0;41;1572779255334;1572779263070;7736;17344130444;50438530000;382090332;255475866;8867063822;745440;169270911;1587;2915;994360;16;5156;192352
0;42;1572779263070;1572779270846;7776;17341404186;50438742771;380936738;255175990;8867098751;769664;169320960;2152;1655;893640;-17;7308;676594
0;43;1572779270846;1572779278601;7755;17348469272;50438554907;380082319;255707219;8867065340;711448;169315972;1683;2236;953984;15;4858;48943
0;44;1572779278601;1572779286105;7504;17350249304;50438539305;381286355;255132359;8867082879;707063;169642182;1353;2459;852496;-15;3578;17865
0;45;1572779286105;1572779293599;7494;17340431826;50438558609;382072743;255270992;8867068789;714306;169581718;1492;3051;941872;-1;4776;215114
0;46;1572779293599;1572779301237;7638;17346154880;50438495436;383052935;255314111;8867058276;767815;169562485;2191;1492;821576;-1;6983;554228
0;47;1572779301237;1572779309060;7823;17327237952;50438563688;380790043;255449917;8867081506;711410;169219341;1565;2258;880984;-2;3745;28051
0;48;1572779309061;1572779317406;8345;17348193186;50438480398;381112315;255476237;8867047983;710004;169469943;1567;2541;1008040;6;4526;25443
0;49;1572779317406;1572779325852;8446;17335915608;50438557663;380824687;255638285;8867082096;745878;169581840;1783;2997;1046376;15;5106;194014
0;50;1572779325852;1572779333917;8065;17344164900;50438652339;382385279;255569016;8867088689;789487;170037572;2232;1823;910344;-14;7720;755208
0;51;1572779333917;1572779342278;8361;17339223822;50438766294;381831157;255711944;8867107645;710358;169294529;1828;2274;1036288;-1;5478;77938
0;52;1572779342278;1572779350280;8002;17336368938;50438640031;382253440;255570562;8867094798;740045;169508694;1400;2592;955544;-3;3563;15390
0;53;1572779350280;1572779358335;8055;17323722272;50438741397;382339022;255379735;8867116788;736480;169158251;1876;2460;914880;139;5681;245680
0;54;1572779358335;1572779366670;8335;17288951058;50437859186;381011957;255466326;8866910397;736462;167082320;2054;2190;1026328;-139;7033;671035
0;55;1572779366670;1572779374812;8142;17285477864;50437761158;381097629;255362880;8866885282;734165;167008609;1814;2191;981816;10;4942;40183
0;56;1572779374812;1572779382760;7948;17300644490;50437829484;381733063;255301575;8866909031;716246;166883683;1732;2867;956912;154;4282;97485
0;57;1572779382761;1572779390340;7579;17289914074;50437779395;381245181;254978732;8866890858;772853;167769868;1856;1868;867368;-15;5898;359182
0;58;1572779390340;1572779398191;7851;17286076172;50437787998;382175733;255339044;8866900009;722176;167044207;1894;2380;999432;-152;6605;554126
0;59;1572779398191;1572779406365;8174;17291793970;50437812949;382325397;255544380;8866901928;727661;166872612;1810;2339;975152;6;5807;54749
0;60;1572779406366;1572779414614;8248;17277734462;50437808432;382147543;255332509;8866895685;714213;167107912;1677;2943;923376;88;4265;150617
0;61;1572779414614;1572779422594;7980;17285851186;50437804744;381636489;255268928;8866896429;723016;166970195;1927;1932;894072;42;6106;407130
0;62;1572779422594;1572779430144;7550;17278010548;50437864562;380873978;254994215;8866928819;712281;166797851;1767;2363;959440;-115;5887;448553
0;63;1572779430144;1572779438055;7911;17300114948;50437919597;381695891;255331820;8866918774;777778;166785387;1807;2168;935584;-16;4826;43401
0;64;1572779438055;1572779445953;7898;17299174562;50437843393;380809463;255095790;8866911668;728362;167059077;1752;2920;904184;39;4015;159158
0;65;1572779445953;1572779454033;8080;17296126082;50437740194;381737509;255264872;8866893615;720809;166978499;1968;1938;897512;96;6323;451700
0;66;1572779454033;1572779461966;7933;17289506880;50437712653;381107644;255141402;8866880285;702363;167283983;1693;2483;958776;-135;5381;311458
0;67;1572779461966;1572779470341;8375;17285386030;50437730215;380807649;255339695;8866890462;709484;166776453;2117;2678;980992;81;7089;551975
0;68;1572779470342;1572779478576;8234;17295326586;50437774725;381417801;255431926;8866898454;738093;166918168;2265;1614;915832;43;8235;962806
0;69;1572779478577;1572779486523;7946;17272183542;50437747741;381380815;255313401;8866888123;714409;167004824;1657;2865;1105976;-129;5710;378140
0;70;1572779486523;1572779494823;8300;17285396542;50437714785;381174640;255458236;8866882338;711776;166831752;1360;2692;1004664;6;3663;16086
0;71;1572779494823;1572779502527;7704;17282876874;50437801186;382005504;255064998;8866918977;739671;166983391;1691;2718;906144;119;4901;177127
0;72;1572779502527;1572779510175;7648;17276707206;50437710491;381665996;255044293;8866886112;720168;166950148;2146;1714;856152;-121;6973;568277
0;73;1572779510175;1572779518300;8125;17285941560;50437692107;382054945;255263779;8866872132;720949;167032192;1888;2228;916576;-4;4527;43899
0;74;1572779518300;1572779526176;7876;17282554214;50431090632;381759975;254775944;8866903128;690530;167180157;1594;2456;947896;1;4144;23538
0;75;1572779526177;1572779534637;8460;17266053732;50428835799;381634429;254872610;8866884366;711381;167165883;2091;2664;1002432;127;6022;286758
0;76;1572779534638;1572779542305;7667;17263337986;50428833682;381418429;254482566;8866888232;766977;167038848;1979;2036;898152;-126;6658;705922
0;77;1572779542305;1572779550254;7949;17272108936;50428861601;381185859;254568428;8866893832;708057;167149059;1828;2205;909152;5;4717;41692
0;78;1572779550255;1572779557709;7454;17276612744;50428885006;381999114;254586894;8866893233;729142;166953889;1335;2480;865256;1;3358;14660
0;79;1572779557709;1572779565604;7895;17268347684;50428799790;381973445;254538781;8866876167;702646;167061746;1972;2582;910024;65;5317;194309
0;80;1572779565605;1572779573144;7539;17265418048;50428907671;382385205;254503013;8866915881;717315;167108304;2025;1925;873640;-73;6633;577399
0;81;1572779573145;1572779580911;7766;17272003670;50428861615;381347325;254435907;8866891275;696599;166904132;1807;2182;896744;0;4765;47450
0;82;1572779580911;1572779588831;7920;17271582022;50428786469;381159674;254526299;8866858026;707256;167018434;1577;2468;949576;0;4004;21195
0;83;1572779588832;1572779596650;7818;17278041646;50428849446;382390900;254537593;8866889933;774454;167093396;1884;2432;849056;133;5426;253383
0;84;1572779596650;1572779604263;7613;17270924730;50428864526;381526522;254253052;8866890043;711945;167593883;1959;2185;908072;-133;6583;699421
0;85;1572779604264;1572779612167;7903;17270412562;50428849198;381964407;254608646;8866892006;706545;167084405;1763;2202;925016;2;4729;42640
0;86;1572779612167;1572779620311;8144;17279541212;50428844222;381684120;254637928;8866891895;699149;167082787;1355;2730;939112;3;3570;15290
0;87;1572779620311;1572779628447;8136;17265106484;50428863406;381587508;254737714;8866889862;706527;166959539;1919;2347;922008;127;5526;244263
0;88;1572779628447;1572779636204;7757;17267196036;50428822163;381070342;254449030;8866879906;717617;167413091;1946;2217;954544;-123;6741;727815
0;89;1572779636204;1572779644243;8039;17267213556;50428906502;381498675;254686649;8866913464;711897;167025204;1871;2289;933168;-9;4757;46368
1;40;1572780113433;1572780121141;7708;17227468998;49857732002;376088468;251729975;8903135287;701943;165955787;1501;2979;866440;98;3403;91281
1;41;1572780121141;1572780129012;7871;17232719888;49857710122;377275354;252006277;8903134282;693198;166151008;1756;1899;872696;34;5958;406838
1;42;1572780129012;1572780137053;8041;17222952342;49857752362;378357023;252009982;8903146452;696449;166243121;1797;2389;981664;-130;6093;376991
1;43;1572780137053;1572780144256;7203;17224915312;49857781073;375404378;251422644;8903160127;631350;165903348;1559;2174;891984;21;4743;49578
1;44;1572780144256;1572780152345;8089;17232759308;49857751603;377520372;252122766;8903147520;679370;166149912;1595;2933;960000;164;3965;102590
1;45;1572780152345;1572780159860;7515;17226112950;49857721135;377662876;251864795;8903135171;693630;166187475;1808;1949;832536;-33;5666;395282
1;46;1572780159860;1572780167490;7630;17233647572;49857719601;377811767;251800336;8903140310;690997;166187265;1684;2282;921136;-154;5663;465641
1;47;1572780167490;1572780175444;7954;17226603948;49857750121;377892586;252065821;8903149225;695474;166267350;1732;2257;923760;-1;4567;33724
1;48;1572780175444;1572780183203;7759;17231073738;49857754561;376950810;251831933;8903156491;688224;165994314;1383;2802;921024;131;3268;26457
1;49;1572780183204;1572780191200;7996;17234449988;49857743577;377708464;252036788;8903142815;682750;165974579;1913;1938;868472;1;5875;335485
1;50;1572780191200;1572780199339;8139;17211918392;49857781848;377080945;252033763;8903150228;689154;166120536;1790;2327;981448;-121;5827;401978
1;51;1572780199339;1572780207412;8073;17231604886;49857961087;377226717;252037972;8903190719;686163;166212594;1687;2220;956040;-11;4704;38749
1;52;1572780207412;1572780215091;7679;17239604664;49857805833;377842986;251917181;8903165887;641738;165958455;1662;2750;958400;16;4556;96013
1;53;1572780215091;1572780223290;8199;17221151724;49857813197;375954411;252009689;8903149756;696919;165625577;2009;1932;897752;111;6166;451722
1;54;1572780223290;1572780231345;8055;17181027566;49857007100;376099483;251740705;8902978116;685488;164463419;1646;2436;959488;-124;4887;197693
1;55;1572780231345;1572780239034;7689;17174677442;49857029280;376609148;251594397;8902981932;681460;164614056;1584;2291;863904;-1;4092;32325
1;56;1572780239034;1572780246803;7769;17170490454;49856972923;376655205;251733833;8902965512;683469;164688290;1549;2838;916560;-2;4238;121707
1;57;1572780246803;1572780254312;7509;17179361414;49857025552;376648868;251589147;8902993501;674928;164760547;1889;1678;771584;158;5416;494373
1;58;1572780254312;1572780262298;7986;17182899432;49856968401;375805040;251613487;8902969035;687875;164569285;1679;2476;967480;-152;5029;239306
1;59;1572780262298;1572780270217;7919;17182122712;49857088136;377115586;251786120;8902994961;680346;164700856;1847;2203;921320;4;5149;45982
1;60;1572780270217;1572780278321;8104;17173995622;49857017837;376334129;251816179;8902984507;690125;164891948;1695;2940;1001320;-6;4808;159564
1;61;1572780278321;1572780286753;8432;17176669028;49856998805;376928908;251794853;8902966643;696105;164670490;2229;1742;879168;104;6700;648515
1;62;1572780286753;1572780294683;7930;17179839564;49857037699;375110236;251659399;8903002182;705256;164775899;1556;2610;987280;-109;4770;104812
1;63;1572780294683;1572780302607;7924;17181595506;49857037897;376246422;251763975;8902987142;681794;164763217;1620;2299;925072;0;4551;31501
1;64;1572780302607;1572780310818;8211;17173872544;49856927437;376705110;251878463;8902953197;681238;164671494;1661;2777;1053784;2;4738;96824
1;65;1572780310818;1572780318672;7854;17189356866;49857084725;377234507;251437450;8903001212;684097;164669290;2237;1600;825928;-1;6816;562939
1;66;1572780318672;1572780326452;7780;17179527708;49856855840;376671343;251637289;8902944668;676174;164822475;1564;2363;884504;23;3733;20606
1;67;1572780326452;1572780333525;7073;17178621632;49856952299;375758317;251084103;8902983832;673117;164585721;1535;2106;751552;-16;3792;30087
1;68;1572780333526;1572780341079;7553;17191252530;49856930771;376902832;251434416;8902973469;683256;164600825;1660;2859;905800;-3;4619;216112
1;69;1572780341079;1572780348685;7606;17190160742;49856899980;375642870;251231846;8902954596;681843;164689512;2130;1540;778248;75;6149;574256
1;70;1572780348685;1572780356355;7670;17173862616;49856911546;376969600;251665538;8902968409;681569;164606666;1570;2384;935144;-78;4064;39345
1;71;1572780356355;1572780364371;8016;17178213416;49856896730;376583291;251664213;8902959218;673440;164427640;1770;2246;949744;-2;4892;50148
1;72;1572780364371;1572780372240;7869;17180283112;49856926574;376466061;251572718;8902973703;678317;164691964;1678;3102;934800;0;4644;211908
1;73;1572780372240;1572780380667;8427;17175127852;49856946289;376552706;251738250;8902981933;689275;164734486;2472;1636;780112;156;7228;979375
1;74;1572780380667;1572780389161;8494;17191072220;49856890751;376324705;252002607;8902954381;700902;164661669;1993;2926;1105160;-21;8494;1224343
1;75;1572780389161;1572780396484;7323;17192057282;49856998461;377485819;251397881;8902976408;683039;164789392;1609;2550;894192;-131;4691;194554
1;76;1572780396484;1572780404115;7631;17174807236;49856913630;376331068;251383339;8902968464;674887;165094026;1314;2627;858800;-3;3101;16286
1;77;1572780404115;1572780412198;8083;17182885270;49856923181;376844208;251591331;8902975923;674064;164944572;1787;2975;976168;38;4871;194297
1;78;1572780412198;1572780419933;7735;17178942394;49856865269;376562746;251627756;8902953507;681592;164798575;2000;1795;851200;89;5941;470414
1;79;1572780419934;1572780427610;7676;17170516588;49856872100;376700911;251571215;8902954525;676963;165095927;1677;2445;962768;-121;5417;261939
1;80;1572780427610;1572780435960;8350;17174365732;49856904315;376435213;251824733;8902965614;671809;164752215;1872;2243;968376;1;5324;51286
1;81;1572780435960;1572780443887;7927;17188882804;49856925438;376117128;251529169;8902973914;674656;164843743;1798;2969;959680;25;4779;262118
1;82;1572780443887;1572780451659;7772;17174418876;49856872429;375784914;251525960;8902953506;677413;164858008;2041;1645;835056;96;6243;523915
1;83;1572780451659;1572780459508;7849;17186198886;49856917149;377684339;251381921;8902966858;681490;165190304;1699;2545;1011128;-126;5234;293900
1;84;1572780459508;1572780467146;7638;17186549578;49856925526;376827481;251590513;8902966796;676983;164999762;1704;2168;942528;2;4934;59106
1;85;1572780467146;1572780474618;7472;17190037080;49856868547;376927177;251427262;8902951286;676196;164941719;1669;2780;870472;35;4220;200425
1;86;1572780474618;1572780482231;7613;17177199592;49856926791;375985080;251562248;8902979902;679893;165092388;1935;1752;829200;94;5876;455090
1;87;1572780482231;1572780489796;7565;17191974792;49856881557;376772558;251286394;8902956951;671702;165035315;1667;2390;916072;-124;5580;341154
1;88;1572780489796;1572780497226;7430;17185204042;49856893087;375573028;251377127;8902963348;679456;165087506;1785;2017;836464;-10;4849;50615
1;89;1572780497226;1572780504779;7553;17171970310;49856887629;376066547;251400963;8902963605;675717;164786556;1703;2836;822480;97;3646;114505
2;41;1572780969324;1572780977123;7799;17107937338;50121188021;382178396;256134718;8878857750;686611;169591013;2070;1695;827096;116;6399;658409
2;42;1572780977124;1572780984594;7470;17116395556;50121210845;382229921;256120723;8878869892;684789;169207225;1379;2586;984224;-120;4664;99560
2;43;1572780984594;1572780992299;7705;17105216482;50121142647;383547985;255854664;8878838540;710540;170089773;1680;2304;852480;4;4514;48159
2;44;1572780992299;1572781000093;7794;17112426984;50121217099;383743923;256048175;8878874759;711959;169455072;1525;2904;952640;-4;4537;139967
2;45;1572781000093;1572781007985;7892;17113954582;50121270736;383664009;256179242;8878887429;845814;169237674;2103;1692;833416;129;6512;737087
2;46;1572781007985;1572781015800;7815;17104974852;50121142472;383562535;256024162;8878840687;707980;169299451;1509;2561;1000424;-128;4526;100092
2;47;1572781015801;1572781024058;8257;17108038516;50121181806;384120786;256343760;8878865493;701839;169768778;1808;2263;997496;3;5016;35076
2;48;1572781024058;1572781032228;8170;17108556816;50121233204;383441708;256130183;8878878459;698379;169411891;1641;2985;1027448;2;4966;200654
2;49;1572781032228;1572781039875;7647;17109250316;50121186921;384014550;256117333;8878860607;707842;169810531;2153;1647;815648;74;6936;794282
2;50;1572781039875;1572781047904;8029;17110481680;50121254682;383146970;256030922;8878868297;716706;170748091;1607;2383;1000672;-63;4716;78179
2;51;1572781047904;1572781055408;7504;17106492522;50121368766;382803266;255974452;8878903540;720535;169341604;1388;2541;891352;-17;4050;25734
2;52;1572781055408;1572781063116;7708;17109624076;50121274604;384532849;256256228;8878868567;696149;169686502;1501;2861;919224;6;4258;93898
2;53;1572781063116;1572781070991;7875;17121987502;50121324997;385597231;256007930;8878892347;719629;169686731;2197;1752;913520;10;7481;779325
2;54;1572781070992;1572781078738;7746;17155833222;50120594426;386195009;255652101;8878732169;704915;170672425;1598;2292;915976;0;4128;28777
2;55;1572781078738;1572781086730;7992;17145068642;50120541822;384874508;255618893;8878700296;699267;170499211;1599;2382;965712;-11;4221;26723
2;56;1572781086730;1572781094614;7884;17157256576;50120460453;385670877;255508777;8878705359;711020;170928230;1751;2942;978536;-5;5482;190629
2;57;1572781094614;1572781102624;8010;17152988266;50120433410;385935344;255641293;8878699750;705447;170924017;2321;1724;944072;1;7548;773095
2;58;1572781102624;1572781110244;7620;17138777940;50120415807;384837972;255402489;8878693340;696082;170744358;1545;2339;850200;16;3922;31631
2;59;1572781110245;1572781117841;7596;17153049294;50120418946;385317456;255509298;8878690015;722631;170575247;1455;2516;868488;-17;3877;20342
2;60;1572781117841;1572781125524;7683;17154491190;50120435503;385162697;255564477;8878697540;691621;170661306;1648;2791;963200;0;4795;169631
2;61;1572781125524;1572781133499;7975;17156860186;50120391713;386311511;255704160;8878664439;718104;170722358;2222;1689;876488;43;7372;797197
2;62;1572781133499;1572781141161;7662;17155387922;50120457261;385079897;255405814;8878710764;698627;170486693;1606;2375;876416;-11;3987;52329
2;63;1572781141161;1572781149078;7917;17152009482;50120463387;385392619;255619872;8878710600;701855;170623827;1675;2358;978504;-21;4600;38747
2;64;1572781149078;1572781156830;7752;17146743846;50120443315;385080428;255463601;8878696875;698403;170638490;1736;3011;924152;-11;4215;167159
2;65;1572781156830;1572781164355;7525;17153947486;50120466767;385773361;255463159;8878699438;702529;170816690;2182;1594;849632;20;6942;732390
2;66;1572781164356;1572781171818;7462;17138248836;50120399382;385585478;255382683;8878695532;723074;170920194;1598;2312;847904;-14;3901;31340
2;67;1572781171818;1572781179542;7724;17153121564;50120409124;386162534;255562320;8878684852;694574;170742395;1525;2430;906192;0;4281;25259
2;68;1572781179542;1572781186720;7178;17151034494;50120363094;386242838;255305895;8878670503;693367;171396795;1640;2675;887672;-4;4566;199057
2;69;1572781186720;1572781195076;8356;17156598116;50120466335;385567956;255744327;8878710547;695915;170733499;2347;1663;920536;61;7170;737569
2;70;1572781195076;1572781203326;8250;17156168438;50120393592;384751541;255630125;8878676372;691824;170636221;1644;2520;1050184;-38;5033;58917
2;71;1572781203326;1572781211068;7742;17158476552;50120447089;384681075;255333793;8878710171;694535;170705227;1682;2269;912192;-24;4545;39832
2;72;1572781211068;1572781218559;7491;17160510186;50120444636;384660671;255351213;8878703414;743320;170279840;1740;2914;879664;3;4566;176776
2;73;1572781218559;1572781226554;7995;17148724628;50120378057;386268948;255553383;8878674058;711949;171152302;2437;1918;795384;158;7353;931757
2;74;1572781226554;1572781234993;8439;17164448390;50120415994;384805969;255802875;8878688501;727614;170601765;1796;2959;1196616;-162;8294;993782
2;75;1572781234993;1572781242865;7872;17116060632;50114850834;385443474;255602385;8878713464;693319;170395726;1878;2148;972456;1;5291;59728
2;76;1572781242865;1572781251511;8646;17078348102;50108520506;385465886;255487669;8878673445;693473;170478053;1544;2767;1057104;0;3810;16912
2;77;1572781251513;1572781259324;7811;17080608328;50108559853;386351864;255321363;8878682521;694223;170675432;1725;3061;1023928;3;5196;316726
2;78;1572781259325;1572781266914;7589;17089168600;50108633210;386565819;255272462;8878710283;708141;170523058;2206;1619;804216;104;6439;681812
2;79;1572781266914;1572781274911;7997;17084067068;50108638892;385633134;255222038;8878708193;698572;170692703;1653;2582;992280;-69;4924;79485
2;80;1572781274911;1572781282439;7528;17074506404;50108621060;384723326;255108466;8878706185;692478;170449728;1749;2168;911192;-32;4486;46081
2;81;1572781282440;1572781290224;7784;17083349186;50108552019;385046890;255137831;8878686609;749375;171224925;1764;2942;983432;-4;4781;237566
2;82;1572781290224;1572781298028;7804;17088902296;50108588625;386345727;255274825;8878687637;711294;170620120;2242;1655;819336;118;6687;724347
2;83;1572781298028;1572781306562;8534;17087261110;50108646581;385658453;255494521;8878714118;698469;170371824;1835;2543;1114176;-98;5458;137425
2;84;1572781306562;1572781314514;7952;17075630458;50108672695;385464729;255242624;8878723598;693201;170353861;1639;2391;946792;-21;4458;36793
2;85;1572781314514;1572781322479;7965;17079695244;50108576549;385013908;255209878;8878690443;694060;170518702;1640;2953;982312;2;4627;119291
2;86;1572781322479;1572781330038;7559;17088090536;50108514693;385438487;255023809;8878655054;779751;170516095;2278;1619;858984;8;7069;697853
2;87;1572781330039;1572781338454;8415;17095648080;50108558693;385519427;255428717;8878686519;697609;170364088;1824;2392;1013408;-7;4790;40619
2;88;1572781338454;1572781346139;7685;17069390856;50108570354;385678839;255259130;8878688967;688400;170223602;1520;2396;905472;1;3780;21336
2;89;1572781346140;1572781353950;7810;17077573572;50108647983;385193135;255222977;8878720085;699849;170655568;1782;2984;996352;2;4951;232598
2;90;1572781353950;1572781362430;8480;17095752470;50108564132;385875208;255279549;8878686852;697815;170525721;2446;1714;1007688;-6;8054;809181
3;41;1572781813705;1572781821196;7491;16926371300;49224269672;374780769;251618323;8727912527;716663;164253743;2053;1514;792688;70;6403;648563
3;42;1572781821196;1572781829227;8031;16937471534;49224254363;375219362;251648593;8727908365;713552;164577492;1386;2530;974384;-68;4205;51058
3;43;1572781829227;1572781836535;7308;16933767660;49224353528;375617560;251391288;8727937456;713707;164270202;1483;2077;764448;-3;3730;23944
3;44;1572781836535;1572781843769;7234;16922884966;49224266562;373776552;251233726;8727916181;707479;163999884;1408;2796;838128;11;4124;155836
3;45;1572781843769;1572781851753;7984;16935273942;49224260242;374591928;251786866;8727905776;720846;164133801;2059;1707;844960;130;6082;573278
3;46;1572781851754;1572781858856;7102;16935223864;49224253008;376258009;251498292;8727908645;693288;163997057;1419;2411;883096;-137;4710;231070
3;47;1572781858856;1572781866446;7590;16938773708;49224246759;374831909;251430099;8727909813;735343;164167504;1642;2148;871912;7;4659;30650
3;48;1572781866446;1572781873878;7432;16930590262;49224280225;376611430;251612008;8727926834;687762;164177972;1669;2710;830320;84;3846;135061
3;49;1572781873878;1572781881614;7736;16953568764;49224223814;374384620;251637202;8727892445;687025;164090851;1899;1865;937256;59;6210;468667
3;50;1572781881614;1572781889629;8015;16944181548;49224340857;375375456;251693624;8727924677;701759;164183474;1788;2361;1014344;-152;5817;453958
3;51;1572781889629;1572781896827;7198;16934319540;49224444211;375333471;251512371;8727951432;705397;163995442;1715;2011;830072;-3;4274;31435
3;52;1572781896827;1572781904584;7757;16931023444;49224371712;375369946;251446958;8727944990;689554;164006079;1553;2778;907640;136;3572;82461
3;53;1572781904584;1572781912293;7709;16926264866;49224385675;374085651;251424523;8727923804;747806;163948532;1874;1796;917248;16;6159;422531
3;54;1572781912293;1572781920229;7936;16909364928;49223584054;372970244;251542279;8727755150;699227;163204330;1886;2323;1044592;-136;6574;560637
3;55;1572781920229;1572781927884;7655;16883752440;49223599403;373322928;251324468;8727756268;703988;163628823;1736;2100;915608;-16;4809;44845
3;56;1572781927884;1572781935764;7880;16885016362;49223507083;373694592;251471752;8727729909;702483;163472090;1802;2821;887768;113;4095;158412
3;57;1572781935764;1572781943516;7752;16879073432;49223582717;374755626;251566430;8727767399;721174;163603852;1849;1730;914584;21;6186;437764
3;58;1572781943516;1572781951217;7701;16880842952;49223527763;373764059;251467712;8727742456;704083;163443500;1813;2379;982344;-130;6047;495486
3;59;1572781951217;1572781958945;7728;16879965200;49223528647;374329105;251458099;8727741621;706171;163442767;1719;2082;917504;5;4783;44234
3;60;1572781958945;1572781966542;7597;16882366024;49223547729;373485000;251436392;8727751244;697543;163606328;1474;2631;878712;196;3568;87208
3;61;1572781966542;1572781974188;7646;16872698488;49223547245;373852771;251531267;8727737396;705237;163576913;2031;2145;889856;-48;6072;498438
3;62;1572781974188;1572781982627;8439;16884640412;49223618385;373685912;251579029;8727779787;715002;163329611;1916;2443;1044632;-146;6788;514124
3;63;1572781982627;1572781990538;7911;16873498276;49223628907;373668968;251606490;8727767092;708246;163434919;1809;2156;939008;-1;4725;38093
3;64;1572781990538;1572781998592;8054;16870001284;49223494342;374015484;251710028;8727726017;705077;163409593;1829;2751;959576;120;4220;203672
3;65;1572781998593;1572782006343;7750;16874723216;49223517852;373952991;251319116;8727749074;751362;163550281;1940;1863;899080;2;6160;451203
3;66;1572782006344;1572782014462;8118;16872830910;49223500426;373796105;251335205;8727731301;695998;163470239;1770;2380;965360;-132;5632;422379
3;67;1572782014462;1572782022377;7915;16872124416;49223544696;373774877;251593238;8727755566;697753;163445765;1798;2136;942280;3;4764;42519
3;68;1572782022378;1572782030271;7893;16886049604;49223540401;373577098;251477470;8727746760;714971;163436967;1669;2940;953136;36;4260;199783
3;69;1572782030271;1572782037890;7619;16886167718;49223510678;373957819;251500823;8727732549;709884;163390143;1948;1700;843424;92;5997;460955
3;70;1572782037890;1572782045383;7493;16869772356;49223498611;373476838;251106058;8727736335;699989;163466407;1616;2318;891320;-131;4915;245299
3;71;1572782045383;1572782053142;7759;16880371372;49223504917;373445617;251533061;8727737649;694396;163418095;1801;2084;924160;6;4660;42871
3;72;1572782053142;1572782061585;8443;16875842598;49223532304;373911783;251555985;8727753006;725216;163542465;1798;2878;1004440;3;4467;135463
3;73;1572782061585;1572782069532;7947;16884300232;49223535486;373612730;251710773;8727749831;707714;163603002;1940;1473;724064;136;7823;738922
3;74;1572782069532;1572782077313;7781;16887656042;49223593184;374284531;251361857;8727751933;771229;163435768;1918;3104;1125136;-144;7037;792184
3;75;1572782077313;1572782084981;7668;16863647218;49223470649;374448290;251422959;8727735107;696410;163482778;1753;2091;879336;-1;4683;41751
3;76;1572782084981;1572782092747;7766;16874960320;49223495111;373134934;251297221;8727744487;708580;163399586;1688;2898;900632;58;4348;226407
3;77;1572782092747;1572782100786;8039;16881041950;49223473107;373945982;251513688;8727745946;751648;163580457;2082;1731;952360;80;6526;508497
3;78;1572782100786;1572782108663;7877;16884403308;49223448321;373319830;251436134;8727730554;729935;163327947;1745;2425;1007608;-137;5598;328380
3;79;1572782108663;1572782116446;7783;16878997366;49223450250;374047103;251562093;8727726731;689859;163446339;1739;2092;963624;-1;4771;47112
3;80;1572782116446;1572782124587;8141;16880503210;49223487821;373435066;251382099;8727735526;700556;163402658;1782;2861;1008608;8;5190;211104
3;81;1572782124587;1572782131899;7312;16873827944;49223508564;374018068;251130543;8727756952;704600;163486302;1988;1559;735616;126;5618;504369
3;82;1572782131899;1572782139684;7785;16879837888;49223471333;373371059;251420990;8727735451;702331;163559410;1621;2453;984136;-134;5365;231709
3;83;1572782139684;1572782147100;7416;16865904816;49223465707;374250466;251396775;8727734190;700318;163620669;1770;1940;851680;5;4289;30885
3;84;1572782147100;1572782154669;7569;16877183170;49223500081;374173104;251226012;8727746614;700535;163357256;1500;2847;785280;132;3577;146453
3;85;1572782154669;1572782162298;7629;16884639244;49223426519;372976278;251384498;8727719580;708935;163409042;1923;1823;889792;-4;6271;482531
3;86;1572782162299;1572782170102;7803;16872368674;49223496546;373053328;251290926;8727754168;699013;163456112;1766;2375;955616;-133;5717;394531
3;87;1572782170103;1572782177946;7843;16886055590;49223466440;373641395;251608077;8727740250;697245;163412396;1789;2161;948144;0;5129;52132
3;88;1572782177946;1572782185764;7818;16884433676;49223467086;373408750;251411258;8727726957;745460;163345179;1647;2801;929944;93;3800;136174
3;89;1572782185764;1572782193614;7850;16877073232;49223494426;374103208;251333218;8727748343;700367;163482352;1928;1760;901016;59;5948;382731
3;90;1572782193614;1572782201556;7942;16871230750;49223443959;374223036;251244542;8727728050;707727;163666928;1878;2349;920144;-147;5480;345521
4;38;1572782667139;1572782675418;8279;17691277272;52766927096;380877625;256358357;9711303063;758339;167396206;1478;2554;992096;-3;4194;23945
4;39;1572782675419;1572782684043;8624;17687357610;52766916746;380380285;256222628;9711296029;670169;167258158;2017;2751;934152;130;5460;233836
4;40;1572782684043;1572782691615;7572;17696173528;52766921859;381889840;256180587;9711302600;655167;167520275;1883;2141;962792;-132;7269;714490
4;41;1572782691615;1572782698575;6960;17682680354;52766931400;381528963;256005190;9711305111;662616;167194235;1545;2126;823944;1;4269;60314
4;42;1572782698575;1572782706556;7981;17691347498;52766949199;379461550;256087009;9711302486;647763;167461314;1359;2586;969808;-1;3971;17370
4;43;1572782706556;1572782714658;8102;17674286668;52766960985;380255489;256131588;9711306124;679699;167082846;1663;2574;893976;126;4759;124885
4;44;1572782714658;1572782722757;8099;17703133786;52767027202;381337655;256477014;9711345573;680705;167588652;2094;2016;1026144;-124;7806;892442
4;45;1572782722758;1572782730737;7979;17686488472;52766913891;380329837;256101511;9711300878;680427;167256592;1739;2233;882448;0;4315;32119
4;46;1572782730737;1572782739384;8647;17687382284;52766938227;380828593;256335027;9711295202;684395;167789520;1549;2675;975760;0;3784;15478
4;47;1572782739384;1572782746777;7393;17686465550;52766901347;379873252;256003424;9711298061;675665;167108566;1914;2337;806808;137;5682;399271
4;48;1572782746777;1572782754374;7597;17684288398;52766950113;380439097;256024927;9711301964;683234;167459831;1840;2122;926760;-142;6368;551799
4;49;1572782754374;1572782762623;8249;17699376768;52766928186;380611666;256255536;9711306061;678547;167433491;1748;2210;943600;26;4817;45690
4;50;1572782762623;1572782771023;8400;17690584210;52767025031;381629927;256200498;9711324783;659095;167175890;1584;3129;970776;142;3953;69836
4;51;1572782771023;1572782778679;7656;17679730862;52767167303;381031846;256129126;9711347618;698895;167260187;1925;1858;836976;-38;5832;417087
4;52;1572782778679;1572782787179;8500;17682619034;52766951300;378195166;255933016;9711308727;644626;167481598;1848;2727;1094728;-126;6382;558265
4;53;1572782787180;1572782795490;8310;17689266706;52767156990;380605616;256104148;9711354640;680917;167396788;1756;2254;944256;-2;5066;47345
4;54;1572782795490;1572782804080;8590;17677273536;52766242399;380415850;255826379;9711143673;666206;166708318;1761;3034;1088648;13;5046;211767
4;55;1572782804080;1572782812578;8498;17679151826;52766221350;381047825;255943016;9711131491;723862;166933166;2184;1791;938808;122;6648;620540
4;56;1572782812578;1572782820790;8212;17664515472;52766193955;380482926;255585310;9711136098;665703;166726677;1620;2647;1043840;-132;5019;218039
4;57;1572782820790;1572782829108;8318;17685982436;52766201373;379684789;255688982;9711131299;669538;166811547;1837;2265;997696;-5;4902;39982
4;58;1572782829109;1572782837160;8051;17665333072;52766210441;380165431;255575825;9711138917;660984;166700143;1701;2975;1004344;0;4996;174159
4;59;1572782837160;1572782845841;8681;17668808894;52766251863;380413171;255706467;9711146705;676986;166828265;2338;1711;979408;0;7723;786264
4;60;1572782845841;1572782853627;7786;17665373076;52766195847;379606400;255357997;9711130255;673000;166760037;1552;2291;825264;30;3813;28141
4;61;1572782853627;1572782861905;8278;17667905592;52766294695;380780363;255729049;9711157330;698278;166867167;1654;2586;1021296;-25;4591;32575
4;62;1572782861905;1572782870337;8432;17677516918;52766267142;380451052;255766578;9711166089;661528;166853988;1920;2913;1001568;22;5558;277183
4;63;1572782870337;1572782878535;8198;17681311750;52766197153;380491029;255653476;9711137140;703954;167013858;2187;1948;962832;-21;7429;810379
4;64;1572782878535;1572782886782;8247;17666467784;52766161854;380940358;255699214;9711119435;664177;166577230;1847;2195;990512;0;4706;35603
4;65;1572782886782;1572782895570;8788;17668401262;52766293814;379442890;255855384;9711156312;662925;166631385;1651;2710;1082560;-6;5126;30561
4;66;1572782895570;1572782903926;8356;17676183792;52766129235;379876265;255525761;9711121426;668486;166922816;2257;2247;955960;133;6532;523716
4;67;1572782903926;1572782912734;8808;17683899308;52766170471;380114185;255617811;9711135214;669987;166947727;2182;2627;1020848;-30;6946;548267
4;68;1572782912734;1572782920589;7855;17666309082;52766111609;381285824;255486197;9711122991;688579;166945108;1895;2277;854392;55;7853;580355
4;69;1572782920589;1572782928959;8370;17670169760;52766146016;380776630;255374460;9711124664;671627;167100983;1778;2582;1038176;-153;5545;258501
4;70;1572782928959;1572782937310;8351;17678811208;52766115242;379754633;255682641;9711119481;748304;166968307;1553;2666;1027840;-5;3685;16564
4;71;1572782937310;1572782945303;7993;17669623136;52766219847;379993348;255489703;9711161384;665171;166880393;1797;2996;999640;4;4892;203920
4;72;1572782945303;1572782953929;8626;17675883032;52766178373;380340028;255527144;9711136537;671869;166863289;2446;1702;899576;-3;7299;709917
4;73;1572782953929;1572782961313;7384;17667531832;52766200858;381215603;255322159;9711134803;664357;166784140;1398;2316;829184;17;3328;14792
4;74;1572782961313;1572782969378;8065;17672183392;52766170010;379936036;255688465;9711135195;666335;166627955;1821;2147;1000496;-11;5189;59532
4;75;1572782969378;1572782977676;8298;17638476080;52760493112;379840649;255635545;9711127862;680064;166735683;1930;3003;1033336;-7;5049;231678
4;76;1572782977676;1572782985546;7870;17598414702;52754279792;381153704;255252233;9711124536;685866;166751380;2262;1647;814712;0;6594;556965
4;77;1572782985546;1572782993166;7620;17597163336;52754286995;381032524;255411672;9711124932;676665;166696468;1603;2206;805808;31;3631;44413
4;78;1572782993166;1572783001319;8153;17589836910;52754276332;379837348;255570137;9711117747;670156;166676492;1494;2598;998280;-26;4123;29332
4;79;1572783001319;1572783008976;7657;17591269024;52754280852;379982838;255262367;9711119468;673097;166794850;1602;2777;912792;-3;4346;128780
4;80;1572783008976;1572783017827;8851;17604545826;52754414799;379919756;255408832;9711173663;679681;166762642;2461;1592;934128;-2;7312;580224
4;81;1572783017827;1572783026465;8638;17605434236;52754352588;381522940;255905391;9711135242;676015;166939418;1909;2240;1083112;23;4873;50699
4;82;1572783026466;1572783034456;7990;17586077410;52754272798;380150488;255434087;9711101601;672938;166640011;1616;2450;921608;-18;4394;32588
4;83;1572783034456;1572783042425;7969;17595159340;52754335347;380081953;255600258;9711136091;673856;166884867;2121;2478;939776;142;5866;356364
4;84;1572783042425;1572783050016;7591;17589533376;52754391268;380177712;255415629;9711155118;673177;166717743;1972;2046;922024;-141;6537;670101
4;85;1572783050016;1572783057800;7784;17590750870;52754295399;380012369;255239377;9711129049;670756;166941903;1758;2258;854472;0;4560;51546
4;86;1572783057800;1572783065719;7919;17602095946;52754295823;380846632;255468584;9711125678;672553;167200668;1421;2655;936936;-4;3530;15980
4;87;1572783065719;1572783073891;8172;17606335202;52754348611;380657667;255637830;9711139273;699603;166699583;2080;2428;976216;131;6114;336332
