0;44;1572797381753;1572797389146;7393;18577051680;52995751534;377583610;254211317;9657981437;667763;168900099;1577;4982;108040;5;1057;8676
0;45;1572797389146;1572797396632;7486;18573513808;52995733809;377454493;254224047;9657961085;655163;168935520;1470;5110;108568;-4;701;3258
0;46;1572797396632;1572797404349;7717;18577048906;52995753475;377340363;254326176;9657966012;688115;168541092;1175;5617;112272;-1;673;2099
0;47;1572797404349;1572797411968;7619;18572619120;52995735885;378339858;254348340;9657971614;734121;168364525;3288;3787;142680;5;4625;307659
0;48;1572797411968;1572797419446;7478;18572295584;52995722914;377675114;254288196;9657953973;665698;168777304;1561;5059;109360;-5;1042;9141
0;49;1572797419446;1572797426995;7549;18571095318;52995723899;377805904;254264306;9657967967;703466;168577200;1498;5158;109824;0;746;3357
0;50;1572797426995;1572797434848;7853;18582614280;52995802225;377851217;254422647;9657976869;753418;168806401;1125;5663;111904;3;675;1661
0;51;1572797434848;1572797442565;7717;18584411102;52995918846;377477687;254284945;9657993141;669436;169107508;3380;3754;144448;-3;3953;159044
0;52;1572797442565;1572797449991;7426;18575846596;52995760748;377753182;254157018;9657964984;689981;168953360;1513;5056;108312;0;921;8621
0;53;1572797449991;1572797457450;7459;18559535184;52995996800;377945617;254080579;9658019853;788846;168773482;1371;5126;107216;0;676;2958
0;54;1572797457450;1572797464982;7532;18506748446;52994951343;378808962;253717784;9657787561;708893;168031849;1162;5469;109440;0;738;1917
0;55;1572797464982;1572797472432;7450;18500755730;52994926497;378548217;253646839;9657780395;648096;168067900;3011;3941;141240;75;3735;239980
0;56;1572797472432;1572797479681;7249;18498818456;52994995556;378556817;253679942;9657803748;667724;168590008;1861;4586;110160;-74;1822;33018
0;57;1572797479681;1572797487114;7433;18489507890;52994918690;378529911;253636241;9657775980;649558;168178091;1400;5153;108400;-1;671;2682
0;58;1572797487114;1572797494780;7666;18505521900;52994990186;378748301;253649744;9657801625;703087;167891917;1151;5564;110808;0;621;1662
0;59;1572797494780;1572797502083;7303;18499828922;52995039767;378865996;253540666;9657808951;759255;168081118;2508;4518;146088;69;2848;192579
0;60;1572797502083;1572797509544;7461;18499774172;52994948674;378855699;253589760;9657784252;655095;168491866;2697;3902;112280;-64;2544;37918
0;61;1572797509544;1572797516874;7330;18497432916;52994960886;378495886;253706264;9657787983;645793;167866527;1441;5028;107184;-5;634;3131
0;62;1572797516874;1572797524355;7481;18497619796;52995067310;377921878;253634191;9657829982;643318;168236788;1205;5412;109192;0;530;1395
0;63;1572797524355;1572797531730;7375;18498203066;52995038575;378038499;253657677;9657805963;679257;167874628;1773;5403;159152;31;1578;84668
0;64;1572797531730;1572797539205;7475;18492492422;52994938106;379493845;253628443;9657782827;677013;168820593;3118;3468;108240;-26;3685;155604
0;65;1572797539205;1572797546505;7300;18499179660;52994972138;378348607;253654137;9657797895;646141;168363435;1336;5105;106448;-2;908;7064
0;66;1572797546505;1572797553834;7329;18492858882;52994951711;378050743;253560042;9657783669;725515;168049254;1387;5106;106920;3;686;2537
0;67;1572797553834;1572797561422;7588;18500678496;52994934352;378612382;253641949;9657789846;699460;168215513;1734;5771;169344;-6;1569;120426
0;68;1572797561422;1572797568885;7463;18500758212;52994919901;379095833;253746208;9657782135;698460;168296900;3183;3360;107712;1;4056;169098
0;69;1572797568885;1572797576472;7587;18506789764;52994925190;378327173;253626510;9657777836;651359;168310781;1501;5209;110920;-1;854;7928
0;70;1572797576472;1572797584016;7544;18493166942;52994928597;378736281;253798938;9657779152;675426;168174178;2205;4994;194064;155;4475;276212
0;71;1572797584016;1572797592831;8815;18491820822;52994989724;379571340;253939000;9657811754;647615;168414073;3080;4033;123024;-155;4515;424127
0;72;1572797592831;1572797600148;7317;18497113760;52994933407;378788058;253805667;9657782487;643385;168163381;1293;5139;106128;0;988;6548
0;73;1572797600148;1572797607660;7512;18499824396;52994940356;378284119;253906711;9657784366;684436;168273170;1113;5484;108552;1;591;1550
0;74;1572797607660;1572797615348;7688;18497954720;52994976420;378651676;253916844;9657803153;652917;168324041;2045;5292;164664;127;2029;117828
0;75;1572797615348;1572797622805;7457;18502105062;52994899258;379859410;253908256;9657771450;659954;168479852;2746;3979;111736;-128;3703;360794
0;76;1572797622805;1572797630449;7644;18500023102;52994999758;379315477;253995793;9657807351;647563;168201491;1646;5104;111144;2;1011;6749
0;77;1572797630449;1572797637989;7540;18501358856;52994931090;378657050;253890042;9657787812;671498;168219815;1110;5524;109544;2;692;2377
0;78;1572797637989;1572797645454;7465;18512035398;52994916108;378461174;253868758;9657768976;657427;168787412;1778;5590;167680;-3;1488;86355
0;79;1572797645455;1572797653331;7876;18497129966;52994946048;379282253;254150319;9657781859;658231;167959660;3201;3739;114264;9;4017;217987
0;80;1572797653331;1572797660904;7573;18500453364;52994970825;378985083;253984800;9657805922;653531;168217268;1487;5191;110352;-6;906;5976
0;81;1572797660904;1572797668349;7445;18499935502;52994930317;379124992;253947897;9657781029;705088;168305685;1316;5291;109200;-4;726;2689
0;82;1572797668349;1572797676120;7771;18510277704;52994880423;378841435;253970546;9657771275;716390;168055186;1581;5921;171352;1;1471;84703
0;83;1572797676120;1572797683436;7316;18506395856;52994970669;379894340;253943167;9657804851;656194;168020487;3000;3450;106288;3;4035;196962
0;84;1572797683436;1572797690966;7530;18506556018;52994928439;379509288;253837707;9657775392;640757;168357884;1486;5137;109296;1;1025;10487
0;85;1572797690966;1572797698638;7672;18484839832;52995003086;378882542;253878260;9657810602;697137;168009246;1408;5329;111376;-5;929;3953
0;86;1572797698638;1572797706203;7565;18498675960;52994942721;378879386;253984873;9657789433;646417;168133202;1333;5769;143544;6;1165;39178
0;87;1572797706203;1572797713842;7639;18505909968;52994933352;379341835;253976726;9657777877;723367;168434498;3185;3547;111152;-6;4072;280753
0;88;1572797713843;1572797721264;7421;18498210950;52994919424;379313355;253866434;9657770541;654308;168175029;1370;5158;107712;0;752;4629
0;89;1572797721264;1572797728680;7416;18507917614;52995006619;378862461;253861305;9657814468;697799;168298875;1416;5124;107888;0;711;2660
0;90;1572797728680;1572797736001;7321;18498361476;52994899611;379506844;253884428;9657775950;667531;168166264;1064;5395;106392;5;579;1471
0;91;1572797736002;1572797743344;7342;18491230982;52994951535;380496014;254002977;9657788763;677036;168138832;3275;3541;137872;-5;4384;241500
0;92;1572797743344;1572797750766;7422;18489869824;52995012064;379385222;253972612;9657809552;654320;168359958;1538;5023;108272;0;963;7572
0;93;1572797750768;1572797758311;7543;18491369098;52994871527;378894727;253827979;9657765923;642693;168084307;1430;5238;110016;0;743;2736
1;47;1572798224339;1572798231750;7411;17934119802;52802366530;381994508;255021570;9729045527;921454;167901945;1862;5390;157688;36;1601;82662
1;48;1572798231750;1572798239164;7414;17936705608;52802387698;382490263;255104595;9729045094;714080;168282918;3010;3630;109360;-32;3183;89418
1;49;1572798239164;1572798246630;7466;17938229702;52802398672;382224803;254992723;9729052055;701791;167954294;1611;5102;110920;-4;1203;12291
1;50;1572798246630;1572798254042;7412;17940007544;52802459548;382179571;255101910;9729063808;798291;168001615;1183;5457;109560;0;633;2126
1;51;1572798254042;1572798261285;7243;17940519712;52802553701;381459679;255059811;9729078062;724405;167772381;1421;5296;135472;0;1236;34845
1;52;1572798261285;1572798268749;7464;17937346694;52802471617;381945888;254953252;9729063767;734752;167943961;3112;3494;108768;2;3446;132403
1;53;1572798268749;1572798276117;7368;17918468310;52802572727;382920606;254738361;9729095162;701733;168433030;1560;4945;107504;-2;915;6384
1;54;1572798276117;1572798283359;7242;17847954690;52801670666;382982907;254245313;9728882547;687406;168827464;1405;5134;107712;5;745;3191
1;55;1572798283359;1572798291017;7658;17845091338;52801687871;382978892;254161082;9728882317;784554;169642281;1379;5892;141952;111;1035;54685
1;56;1572798291018;1572798298323;7305;17841290228;52801716826;383407279;254181468;9728897878;701293;169454883;3292;3304;124976;-112;3773;120619
1;57;1572798298323;1572798305659;7336;17843433800;52801686179;383409819;254117331;9728880692;850214;168989870;1612;4909;107752;-4;1053;9033
1;58;1572798305660;1572798312865;7205;17841445426;52801737344;383857532;254079725;9728901662;710108;169532462;1417;5079;107184;0;649;2595
1;59;1572798312865;1572798320291;7426;17844430834;52801692232;383705347;254216766;9728887221;696059;170037669;1070;5563;109192;1;768;1811
1;60;1572798320292;1572798327511;7219;17847729850;52801663352;383328502;254134197;9728875893;696301;169872509;3413;3705;161704;-1;4367;191880
1;61;1572798327511;1572798335004;7493;17841200438;52801699675;384240073;254269086;9728884473;703061;169531379;1624;5076;110352;4;1116;9208
1;62;1572798335004;1572798342111;7107;17839906002;52801788591;383168039;254006703;9728922905;690563;169583754;1409;4916;104320;0;649;2802
1;63;1572798342111;1572798349558;7447;17851289184;52801899590;382809627;254216952;9728925331;712152;169402265;1182;5430;109296;-4;496;1445
1;64;1572798349558;1572798356970;7412;17848446418;52801631350;383280269;254124207;9728877742;795421;169434961;2605;4753;166864;45;2957;178484
1;65;1572798356970;1572798364216;7246;17848666440;52801667349;383411122;253917238;9728896827;690492;170439533;2586;3955;111424;-45;2513;29083
1;66;1572798364216;1572798371652;7436;17842239228;52801602225;383526652;254074461;9728865912;842294;169249755;1451;5133;108640;0;765;3538
1;67;1572798371652;1572798379045;7393;17851947790;52801653327;383197497;253964607;9728893149;697293;170110992;1097;5495;108632;1;567;1685
1;68;1572798379045;1572798386459;7414;17853784032;52801662823;383389124;254144309;9728882605;750217;169836561;1736;5488;154104;-1;1534;66161
1;69;1572798386459;1572798393944;7485;17840304144;52801596360;383694185;254176960;9728866592;700972;169311962;3153;3535;109888;16;3901;151334
1;70;1572798393944;1572798401245;7301;17838539734;52801581993;383047816;254158430;9728865497;686487;169101127;1405;5128;108216;-16;946;8167
1;71;1572798401245;1572798408367;7122;17837603290;52801669716;382536318;254033503;9728902952;717704;169322663;1366;4986;104808;0;858;3637
1;72;1572798408367;1572798415749;7382;17837379472;52801628307;383137689;254151718;9728877127;693543;169000953;1422;5612;138976;40;1259;59575
1;73;1572798415749;1572798422918;7169;17866901840;52801628243;384215811;254047202;9728878366;898296;169722640;3196;3220;108920;-28;4010;189792
1;74;1572798422918;1572798430027;7109;17818018412;52792738370;383060807;254007508;9728907573;696862;169416578;1592;4791;105208;-10;1015;8708
1;75;1572798430027;1572798437595;7568;17801118474;52789752598;382726292;254068727;9728863712;678292;169243058;1475;5248;111080;-2;715;3359
1;76;1572798437595;1572798444985;7390;17806796122;52789809087;382873034;253852798;9728890570;923659;169416203;1172;5409;108400;4;806;2825
1;77;1572798444985;1572798452160;7175;17819099834;52789777928;383728530;253952181;9728863871;683640;169702150;3440;3376;138960;-4;3941;172620
1;78;1572798452160;1572798459455;7295;17807713732;52789748898;383595347;253950999;9728862088;680316;169247406;1582;4968;108024;0;995;7190
1;79;1572798459456;1572798466545;7089;17801652250;52789731595;383397631;253876686;9728865161;677107;169315495;1420;4900;104280;0;693;3113
1;80;1572798466545;1572798473876;7331;17805357438;52789846485;382824200;253897855;9728912901;682811;169198721;1088;5465;108128;0;503;1256
1;81;1572798473876;1572798481378;7502;17815282810;52789829365;382840344;254171306;9728891751;721577;169219893;2313;4270;176232;147;4589;381219
1;82;1572798481378;1572798488583;7205;17810549052;52789701531;383826572;253975624;9728846923;685217;169476681;2620;4981;131504;-147;4615;487006
1;83;1572798488583;1572798495771;7188;17808838370;52789775062;383827454;253970026;9728876712;680767;169532471;1339;5115;106440;0;635;2742
1;84;1572798495771;1572798503030;7259;17812153300;52789784553;382949828;253834172;9728875866;678090;169643388;1119;5393;107448;0;676;2049
1;85;1572798503030;1572798510099;7069;17803562952;52789832389;383948902;253800384;9728899781;684391;169269758;1738;5045;141384;26;1397;45882
1;86;1572798510099;1572798517228;7129;17811964084;52789777074;383417425;253849152;9728882178;692459;169984697;2888;3442;104376;-26;4015;251156
1;87;1572798517228;1572798524403;7175;17800702082;52789723855;382956632;253887050;9728865283;683410;169491597;1508;5039;107472;0;1153;9481
1;88;1572798524404;1572798531657;7253;17810630666;52789761618;383103517;253896290;9728867237;723860;169719154;1331;5101;106128;0;615;2102
1;89;1572798531657;1572798538814;7157;17801172640;52789835685;382934120;253764469;9728900091;679706;169537741;1323;5752;163392;14;1315;72737
1;90;1572798538815;1572798546258;7443;17811862176;52789763227;383138839;253952593;9728876918;816635;169917808;3383;3317;111184;-12;3839;136514
1;91;1572798546258;1572798553727;7469;17794815508;52789683462;383117951;254012935;9728839209;717414;169586487;1507;5125;109512;-2;1014;10220
1;92;1572798553727;1572798560774;7047;17802176536;52789717290;382744119;253892614;9728865394;708975;169715969;1403;4933;104544;0;609;2482
1;93;1572798560774;1572798567858;7084;17806292860;52789744075;382541674;253784278;9728869106;717513;169254938;1194;5135;104432;0;798;2160
1;94;1572798567858;1572798575002;7144;17807172656;52789760788;384038697;253912257;9728877905;689317;169548412;3231;3664;143864;29;4049;242701
1;95;1572798575002;1572798582628;7626;17816983272;52789762008;383245227;253967164;9728878030;686413;169731664;1821;5024;113080;-24;1326;10526
1;96;1572798582628;1572798589976;7348;17810787324;52789756975;382811996;253822696;9728871148;683373;170031348;1398;5166;108440;-4;721;2851
2;52;1572799073247;1572799080103;6856;16731002276;49747908624;382215307;253631607;9097919981;806765;171661259;1391;4660;99584;4;704;3227
2;53;1572799080103;1572799087190;7087;16727964454;49747946156;381885411;253736939;9097933248;741000;170953509;1147;5189;104544;0;680;1830
2;54;1572799087190;1572799094207;7017;16733830004;49747093839;381637948;253400086;9097733804;682472;168979582;2018;4986;162776;66;1896;105111
2;55;1572799094207;1572799101263;7056;16739376690;49747165611;381970743;253349237;9097749532;740090;169072196;2767;3591;105440;-70;3683;258734
2;56;1572799101263;1572799108246;6983;16728714164;49747031550;381720915;253394223;9097738087;670303;169157345;1341;4841;101976;0;878;7668
2;57;1572799108246;1572799115164;6918;16734582488;49746958168;381596667;253209566;9097705576;675870;168925177;1266;4910;101904;0;626;2438
2;58;1572799115164;1572799122082;6918;16726374368;49747024345;382093735;253144180;9097742110;693822;169582552;990;5179;101800;0;584;1561
2;59;1572799122082;1572799129039;6957;16742120468;49747018603;382519954;253330215;9097737283;710823;169267485;3395;3306;140728;4;3924;150215
2;60;1572799129039;1572799136091;7052;16739548532;49746985067;382052885;253247757;9097711064;669459;169219181;1553;4705;103224;-2;972;9744
2;61;1572799136091;1572799143224;7133;16736503118;49747009082;380924937;253279633;9097726561;806352;169120949;1438;4939;105392;-2;623;2704
2;62;1572799143224;1572799150128;6904;16721114426;49747017294;381300301;253363071;9097735868;664706;169127495;1060;5132;102168;0;730;1984
2;63;1572799150128;1572799157012;6884;16750044618;49747046232;381578516;253113216;9097732247;782778;169147460;2306;4384;150152;93;2598;167771
2;64;1572799157013;1572799163888;6875;16735627848;49746978587;381468773;253234222;9097713697;723612;169145745;2373;3880;105808;-93;2710;91904
2;65;1572799163888;1572799170692;6804;16716844072;49747025629;381788427;253146966;9097734819;678656;169540335;1401;4718;100896;0;953;8501
2;66;1572799170692;1572799177648;6956;16706173078;49746945563;381253455;253264488;9097700091;790959;169437152;1192;4952;101376;0;572;2077
2;67;1572799177648;1572799184487;6839;16709002120;49747037798;381820980;253158591;9097742931;724267;169138807;1175;5360;131568;7;839;38263
2;68;1572799184488;1572799191297;6809;16712412972;49747039491;381571812;253298661;9097742447;768160;168969313;3055;3031;103096;-4;4118;215016
2;69;1572799191298;1572799198133;6835;16710550012;49746977289;382109148;253137084;9097707842;686067;169531813;1421;4655;100456;-3;973;9534
2;70;1572799198133;1572799205057;6924;16700831814;49747011505;381923169;253377314;9097731465;675230;169464206;1337;4870;102168;1;579;2630
2;71;1572799205058;1572799211819;6761;16703065176;49747024156;381405545;253091929;9097735020;661294;169196505;1034;5058;100584;4;625;1555
2;72;1572799211820;1572799218723;6903;16714815256;49746972241;382489927;253240646;9097720764;685935;169677559;2139;4608;152744;119;2425;157833
2;73;1572799218723;1572799225654;6931;16708080422;49747006076;381567277;253266777;9097716960;665586;169203190;2470;3813;105568;-123;3085;185098
2;74;1572799225654;1572799232563;6909;16701895570;49747035594;381658716;253207168;9097736096;664647;169617847;1411;4762;101856;25;978;6889
2;75;1572799232563;1572799239396;6833;16713538924;49746978929;381477997;253113107;9097706598;689158;169356061;1362;4808;101904;-26;624;2391
2;76;1572799239396;1572799246248;6852;16706712548;49747027806;381415951;253173029;9097740539;697306;169613097;1121;5317;114760;161;703;16312
2;77;1572799246248;1572799253308;7060;16709063294;49747026417;381623006;253265657;9097739379;707836;169467077;3293;3457;145640;-159;4751;306021
2;78;1572799253308;1572799260470;7162;16708346142;49746960072;381047446;253257439;9097704617;663350;169219011;1558;4802;105056;-2;1233;9244
2;79;1572799260470;1572799267088;6618;16701339164;49746976013;381087126;253169737;9097724228;677099;169214004;1403;4517;97680;0;739;3459
2;80;1572799267088;1572799273830;6742;16704780384;49746990673;381627916;253120645;9097728087;668450;169666768;1011;5006;99296;0;595;1722
2;81;1572799273830;1572799280997;7167;16709144032;49747030056;381832366;253444858;9097732340;761955;169391969;2561;3964;185272;158;6279;555289
2;82;1572799280997;1572799287819;6822;16710295972;49747032520;382312642;253203028;9097725385;675998;169631338;2286;4842;120384;-145;3238;280045
2;83;1572799287819;1572799294756;6937;16713635138;49747021163;381289408;253149060;9097732836;673083;169123439;1466;4778;103280;-13;697;3290
2;84;1572799294756;1572799301616;6860;16701482098;49746995398;382001690;253304044;9097709682;672400;168796665;1117;4995;100848;0;538;1733
2;85;1572799301616;1572799308514;6898;16712039796;49747096556;381693120;253082743;9097763816;675453;170016756;1414;5333;135688;55;1100;61978
2;86;1572799308514;1572799315604;7090;16715716368;49747062544;381746839;253339007;9097744751;683807;169452152;3208;3156;111648;-55;4320;190156
2;87;1572799315605;1572799322505;6900;16706781606;49746980303;381348101;253193445;9097710503;672312;169241190;1464;4723;101856;6;1091;8973
2;88;1572799322505;1572799329437;6932;16702476650;49746987776;381741944;253322410;9097720068;760137;168658012;1412;4812;102624;0;687;2858
2;89;1572799329438;1572799336541;7103;16709266964;49747013029;382026997;253252327;9097736047;687632;169951112;1038;5218;103496;-5;682;1790
2;90;1572799336541;1572799343720;7179;16707935736;49746975003;381736142;253414024;9097715350;672682;168986173;2579;4319;135840;54;2884;176675
2;91;1572799343720;1572799350656;6936;16709320108;49746997686;382238159;253282457;9097717614;833215;169292708;2541;3705;106840;-54;2300;28945
2;92;1572799350656;1572799357568;6912;16708628506;49746995034;381703365;253346122;9097730142;677319;169383055;1390;4841;102832;0;853;4167
2;93;1572799357568;1572799364541;6973;16709897392;49746953044;381692120;253299007;9097702782;727165;169126565;1069;5142;102664;-1;587;1700
2;94;1572799364541;1572799371499;6958;16704690010;49747064542;381389093;253212468;9097749334;673542;168901139;1628;5376;159880;0;1504;98950
2;95;1572799371499;1572799378544;7045;16710105150;49747011956;382549314;253393222;9097737714;672903;169586338;3037;3225;103224;10;3975;194272
2;96;1572799378545;1572799385410;6865;16704071700;49746963863;382173327;253213096;9097705996;666757;169238961;1451;4695;101440;-10;1288;13487
2;97;1572799385410;1572799392369;6959;16700454550;49746976474;382148719;253398514;9097721652;741017;169334365;1467;4735;101904;6;740;3366
2;98;1572799392369;1572799399431;7062;16707008198;49747023537;381406987;253260393;9097735682;801412;169257412;1145;5140;103984;-3;622;1556
2;99;1572799399431;1572799406107;6676;16711071086;49747019380;382116724;253123300;9097728709;674183;169341569;2440;4046;146272;87;2849;217821
2;100;1572799406107;1572799412983;6876;16712649200;49746987123;381771781;253200025;9097717756;729200;169165971;2276;3912;105624;-53;2723;107773
2;101;1572799412983;1572799419912;6929;16709399240;49747003335;381746191;253225380;9097729461;675111;169849210;1339;4890;102960;-37;827;4639
3;49;1572799891488;1572799898892;7404;17439188270;52784617502;382044824;254653479;9583896275;725665;168128003;3314;3654;158032;26;4387;252669
3;50;1572799898892;1572799906056;7164;17439606706;52784635024;382054411;254730478;9583892907;730282;167785359;1772;4616;107272;-27;1488;14590
3;51;1572799906057;1572799913335;7278;17438288472;52784732376;381586327;254621669;9583908289;723971;167802288;1417;5091;107184;4;671;3464
3;52;1572799913335;1572799920265;6930;17434307490;52784722901;381244364;254440467;9583909066;720472;167833144;1058;5146;102584;-4;672;1940
3;53;1572799920266;1572799927518;7252;17442203608;52784888442;382259490;254462251;9583949804;726759;168165947;2018;5124;162208;94;1992;122142
3;54;1572799927518;1572799934767;7249;17485582690;52783859125;383031983;253937214;9583720131;711814;169539010;2727;3769;109440;-94;3307;118090
3;55;1572799934767;1572799941803;7036;17466255356;52783803691;382825645;253928692;9583709588;767173;169362966;1526;4771;103776;10;939;7437
3;56;1572799941803;1572799948946;7143;17464975228;52783861617;383244875;253931045;9583732807;747544;169528474;1284;5110;105600;-10;632;2106
3;57;1572799948947;1572799956179;7232;17458634010;52783801813;382498943;253865152;9583698082;702817;170079430;1600;5687;156960;22;1491;107318
3;58;1572799956179;1572799963423;7244;17450335078;52783817998;383061084;253980808;9583718690;710658;169414769;3200;3286;114472;-22;4123;210641
3;59;1572799963424;1572799970663;7239;17456477152;52783800172;383128852;253972258;9583709219;706550;169590174;1504;4996;107216;0;934;6278
3;60;1572799970664;1572799977994;7330;17469279600;52783755808;383056224;253997327;9583695470;747377;169578421;1450;5158;109032;0;743;3170
3;61;1572799977995;1572799985371;7376;17459773686;52783797819;383033627;254050015;9583705616;711836;169381991;1110;5360;106552;4;699;1884
3;62;1572799985371;1572799992471;7100;17468094518;52783892083;383602515;253942875;9583744880;713558;169617913;3230;3610;136368;7;4263;290972
3;63;1572799992471;1572799999747;7276;17464794188;52783879174;383183577;253959425;9583724993;799018;169366753;1704;4776;109088;-11;1326;8637
3;64;1572799999747;1572800007083;7336;17454331682;52783834562;382825577;253874337;9583714999;712926;169766832;1519;5088;108864;1;680;2792
3;65;1572800007083;1572800014353;7270;17463283818;52783796527;383069871;253820437;9583719629;748972;169624362;1085;5359;106472;-1;566;1394
3;66;1572800014353;1572800021678;7325;17463901398;52783838818;382445799;253949447;9583710990;730434;169454950;2779;4600;158848;67;3039;215432
3;67;1572800021678;1572800028621;6943;17458666568;52783808917;382600740;253774130;9583721475;778705;169682519;2535;3731;107424;-53;2428;58109
3;68;1572800028622;1572800035753;7131;17457438562;52783796594;383108297;253842333;9583712651;705391;169366590;1512;4938;106392;-2;958;6072
3;69;1572800035753;1572800042976;7223;17461952298;52783770503;382325231;253773211;9583696971;705526;169538553;1213;5290;107344;-12;719;2624
3;70;1572800042977;1572800050398;7421;17467622938;52783770300;383780506;253960902;9583698336;714338;169477068;1626;5690;167232;4;1537;77922
3;71;1572800050398;1572800057559;7161;17465951822;52783842500;383020553;253971348;9583730823;720848;169321556;2924;3497;106160;-4;3998;291496
3;72;1572800057560;1572800064675;7115;17458144910;52783828957;382125938;253846511;9583713777;714852;168987552;1526;4910;106160;0;942;7427
3;73;1572800064675;1572800072079;7404;17468657786;52783777158;382225156;253912896;9583705117;1041781;169572269;1411;5228;109392;1;677;3283
3;74;1572800072079;1572800079460;7381;17455902350;52783835617;382846259;253923031;9583728809;742957;169453367;1139;5465;109128;-1;700;2195
3;75;1572800079460;1572800086533;7073;17459738354;52783788792;382936950;253819163;9583703366;706462;169694171;3393;3622;160192;0;4624;235983
3;76;1572800086533;1572800093729;7196;17463686778;52783793027;382824543;253771314;9583713094;707823;169704252;1533;4887;105896;0;877;7763
3;77;1572800093729;1572800100871;7142;17457144226;52783820100;383305962;253882466;9583709536;706529;169507146;1423;4915;104608;0;697;4238
3;78;1572800100871;1572800108041;7170;17462575280;52783779166;382048110;253773278;9583702435;835652;169277064;1074;5321;105504;0;570;1319
3;79;1572800108042;1572800115069;7027;17456311150;52783792424;383318637;253825244;9583706831;767772;169841777;2688;4116;139160;19;3161;173056
3;80;1572800115069;1572800122199;7130;17459514828;52783897004;382912340;253763408;9583749060;711964;169820696;2262;4194;109248;-19;2092;38905
3;81;1572800122199;1572800129314;7115;17463128766;52783798532;383191316;253844342;9583710745;857786;169708285;1774;5079;149832;28;2842;166548
3;82;1572800129315;1572800136472;7157;17462028218;52783822878;383736973;254053443;9583706778;752282;169327159;2902;3741;137104;-18;5973;630914
3;83;1572800136472;1572800143631;7159;17465190140;52783801193;382997620;253847706;9583712630;701250;169321370;1306;5136;106392;-10;681;2685
3;84;1572800143632;1572800150874;7242;17462986854;52783830763;382079359;253817096;9583713204;710370;169630007;1034;5498;107744;0;760;1948
3;85;1572800150875;1572800158086;7211;17458951268;52783795727;382256442;253810275;9583711906;705151;169305907;1085;5361;106192;2;651;1997
3;86;1572800158086;1572800165194;7108;17451989112;52783785113;383178934;253831199;9583709857;723257;169304943;2002;4985;164144;110;2134;122340
3;87;1572800165195;1572800172617;7422;17461299678;52783765517;382591910;253583732;9583699693;765170;169539032;2846;3805;110920;-112;2868;119731
3;88;1572800172617;1572800179604;6987;17460320018;52783768775;382467473;253456061;9583702175;706539;170137644;1531;4719;102960;6;988;9307
3;89;1572800179604;1572800186750;7146;17466971048;52783842176;382020162;253464685;9583737135;707917;169581115;1248;5177;105896;-5;563;2143
3;90;1572800186750;1572800193841;7091;17458803954;52783841198;382938326;253480077;9583725807;701280;169425397;1606;5549;167312;10;1559;90436
3;91;1572800193841;1572800201250;7409;17467608046;52783759571;382627610;253479083;9583691521;707700;169898926;3268;3147;105488;-9;2803;55885
3;92;1572800201250;1572800208346;7096;17453532916;52783795094;382364336;253569991;9583709718;701881;169256300;1413;4972;105600;3;976;7156
3;93;1572800208346;1572800215425;7079;17462604772;52783759313;382639197;253500090;9583700283;705627;169531887;1429;4954;104904;5;662;2868
3;94;1572800215425;1572800222539;7114;17458749934;52783793209;382060623;253499359;9583712533;701611;169561332;1080;5345;106424;-9;713;1903
3;95;1572800222539;1572800229893;7354;17463037954;52783796167;382590893;253554359;9583713528;721499;169688972;3242;3874;162120;27;4494;192200
3;96;1572800229893;1572800236980;7087;17462466510;52783763971;382646739;253527306;9583701534;708885;169975668;1865;4500;106400;-28;1266;12161
3;97;1572800236981;1572800244175;7194;17460897156;52783776039;382417936;253599441;9583704200;700020;169373462;1409;5059;106432;1;619;2556
3;98;1572800244175;1572800251314;7139;17456925518;52783837183;382154787;253456546;9583735174;696161;169381922;1088;5393;107184;-1;605;1576
4;50;1572800727708;1572800734775;7067;17276438858;49585710004;375107582;250379182;8840450536;746005;164366466;2302;4019;104872;-1;1974;13082
4;51;1572800734775;1572800741848;7073;17281004424;49585833377;375232158;250271310;8840480102;757255;164608602;1358;4922;103560;0;616;2551
4;52;1572800741849;1572800749255;7406;17278419932;49585859729;375250157;250492204;8840494488;722964;164491481;1150;5378;107544;3;681;2225
4;53;1572800749255;1572800756332;7077;17268827002;49585831197;375655578;250388401;8840467610;978012;164191056;1572;5207;141320;1;1236;56435
4;54;1572800756332;1572800763483;7151;17250154332;49584986566;374911834;250319260;8840289104;780102;164465648;2903;3405;104280;-4;3936;235439
4;55;1572800763483;1572800770906;7423;17247395224;49585104923;374277519;249998178;8840315083;700211;164438870;1450;4925;105152;0;1098;12902
4;56;1572800770906;1572800778008;7102;17252951692;49584802982;374511584;249971993;8840246218;696946;164252816;1331;4971;103784;15;659;2556
4;57;1572800778009;1572800785099;7090;17247639628;49584905530;373795870;249814635;8840292494;693274;164610921;1218;5600;123640;156;1006;54954
4;58;1572800785099;1572800792249;7150;17243640542;49584837557;375057925;250170879;8840265061;710304;164484969;3309;3243;133880;-165;3978;190783
4;59;1572800792249;1572800799468;7219;17249912556;49584809626;374037662;249940675;8840246905;733307;164663367;1470;4892;104920;-2;1000;7486
4;60;1572800799468;1572800806703;7235;17248918296;49584871507;374666265;250068428;8840276476;695806;164350110;1394;5058;106656;-4;841;3968
4;61;1572800806703;1572800813784;7081;17240193190;49584837458;374166845;250040659;8840254964;798928;164375692;1066;5296;104968;0;647;1733
4;62;1572800813784;1572800820936;7152;17251487020;49584893090;374035401;249963885;8840285982;703015;164375964;3199;3668;139280;76;3859;208331
4;63;1572800820936;1572800827771;6835;17248788648;49584902459;374559796;249949296;8840281898;699705;164374137;1772;4384;103216;-76;1571;23276
4;64;1572800827771;1572800835091;7320;17241041742;49584797979;374619641;250043798;8840245823;700035;164264700;1351;5061;105856;0;754;2657
4;65;1572800835092;1572800842224;7132;17278103842;49584901819;374311599;250068615;8840285025;698798;164308695;1131;5172;103848;1;628;1752
4;66;1572800842224;1572800849463;7239;17302472118;49584828075;374056670;249946188;8840257638;925076;164277043;2034;4840;141424;65;1843;85241
4;67;1572800849463;1572800856505;7042;17301263092;49584854324;373890017;249908152;8840271767;745242;164308034;2771;3488;103944;-66;3216;131012
4;68;1572800856506;1572800863375;6869;17294564612;49584857130;374459801;249954176;8840274832;702389;164118113;1410;4723;100912;3;984;7469
4;69;1572800863375;1572800870438;7063;17291738052;49584819357;373662806;249952714;8840250720;869700;164182363;1261;4983;103256;-3;632;2337
4;70;1572800870438;1572800877549;7111;17290845408;49584830061;373587917;249969077;8840259358;694483;164090494;1196;5312;115064;167;751;19106
4;71;1572800877549;1572800884800;7251;17296502616;49584886264;375090180;250112166;8840276870;710160;164520715;3693;3570;152488;-167;4916;294298
4;72;1572800884800;1572800891780;6980;17292619746;49584869574;374669067;249927356;8840280367;699116;164185318;1638;4592;102744;0;1137;9804
4;73;1572800891780;1572800898833;7053;17288456410;49584829379;374765931;250011835;8840258827;700047;164312051;1418;4870;103752;0;802;4259
4;74;1572800898833;1572800905862;7029;17298463250;49584840302;374498245;249903857;8840260018;701207;164382390;985;5260;102848;4;474;1209
4;75;1572800905862;1572800913142;7280;17293012778;49584870275;374326892;250031791;8840270872;700822;164278334;2492;4742;158888;80;2627;182835
4;76;1572800913142;1572800920371;7229;17284401552;49584865150;374461230;250019258;8840274813;710506;164280123;2573;3920;110232;-50;3078;118841
4;77;1572800920372;1572800927416;7044;17278051866;49584838300;374076694;250037563;8840262195;805682;164356293;1556;4785;104120;-26;1009;9095
4;78;1572800927416;1572800934574;7158;17296331796;49584834880;375707219;250246386;8840263036;784046;164415372;3112;3783;190144;131;6730;623085
4;79;1572800934574;1572800942114;7540;17288209670;49584829603;374543159;250067577;8840260910;731090;164225879;2278;5046;123760;-133;2919;206070
4;80;1572800942114;1572800949032;6918;17295733050;49584836327;374490046;249954044;8840260984;740276;164312394;1146;5036;102168;-6;719;2180
4;81;1572800949032;1572800956212;7180;17301178704;49584870650;374438487;249973835;8840281415;862295;164483247;1115;5254;104872;7;559;2485
4;82;1572800956213;1572800963188;6975;17290451792;49584846191;373829778;250066930;8840263512;757062;164252944;1806;5309;163584;-7;1551;95669
4;83;1572800963189;1572800970558;7369;17293370916;49584893221;374559571;250017534;8840279559;784143;164308956;3106;3412;107080;0;4071;295570
4;84;1572800970558;1572800977676;7118;17294766822;49584900959;374676634;250025032;8840279771;709173;164175686;1539;4781;104280;0;937;7221
4;85;1572800977676;1572800984706;7030;17292672452;49584825092;374471137;249989935;8840250428;765016;164303130;1320;4957;103368;1;621;2527
4;86;1572800984706;1572800991655;6949;17295282348;49584901754;374604233;249866850;8840292153;700962;164229394;995;5146;101280;3;582;1665
4;87;1572800991655;1572800998857;7202;17300560394;49584860214;375158254;250095733;8840269314;729036;164409836;3556;3632;168880;-4;4093;335636
4;88;1572800998857;1572801005946;7089;17293422746;49584826209;374110956;249988374;8840250531;773332;164155262;1598;4738;104544;0;1054;9231
4;89;1572801005946;1572801012994;7048;17287235412;49584860956;374581972;250046069;8840274760;715437;164439517;1460;4867;104184;1;674;3110
4;90;1572801012994;1572801020063;7069;17288888862;49584838692;373587308;249960936;8840257810;896705;164241634;991;5278;103392;3;537;1250
4;91;1572801020063;1572801026979;6916;17289166116;49584860668;374537724;249929524;8840273673;699793;164147611;2123;4345;134816;124;2200;149029
4;92;1572801026979;1572801034209;7230;17288357714;49584845445;373253988;249706439;8840271129;698083;164295238;2547;3784;108264;-128;2631;125211
4;93;1572801034210;1572801041264;7054;17294534974;49584815613;373820438;249598525;8840249999;704858;164230111;1681;4612;103752;11;1126;11530
4;94;1572801041264;1572801048261;6997;17282901986;49584869407;373954788;249679657;8840273016;697980;164218834;1279;4964;103024;-11;592;2053
4;95;1572801048262;1572801055473;7211;17293156442;49584833072;374156933;249650148;8840259537;731984;164109035;1548;5600;163424;0;1341;80137
4;96;1572801055473;1572801062669;7196;17281506664;49584871220;374094255;249654637;8840276794;741286;164411270;3060;3208;103400;0;2898;147384
4;97;1572801062670;1572801069779;7109;17297387230;49584866316;374459114;249739646;8840278580;711769;164348681;1551;4797;104776;0;1013;8060
4;98;1572801069779;1572801076762;6983;17296678108;49584824610;373727040;249578929;8840254376;737883;164247695;1325;4921;103008;0;592;2522
4;99;1572801076762;1572801084026;7264;17286172970;49584822426;373916114;249767639;8840256832;699857;164288357;1198;5234;106128;0;690;1724
