0;46;1572817944336;1572817952040;7704;17685428512;52689759945;382701431;255380749;9720129637;687277;169758296;819;2429;53592;0;364;1605
0;47;1572817952040;1572817959970;7930;17692884148;52689869378;382977417;255694456;9720168524;717120;170212144;893;2978;100288;1;1047;61834
0;48;1572817959970;1572817967577;7607;17680082722;52689814637;381842380;255420862;9720137791;734978;169570078;1785;1509;54320;2;661;5886
0;49;1572817967577;1572817974271;6694;17674710652;52689817730;382468786;254863032;9720159129;669078;169810948;730;2112;47344;-3;339;1015
0;50;1572817974271;1572817981784;7513;17717719770;52689953590;387643645;255473168;9720195890;744074;172036241;974;2290;53856;0;411;2240
0;51;1572817981784;1572817989386;7602;17683583948;52689944523;383600218;254666926;9720164894;711877;170019104;926;2971;101128;0;926;50124
0;52;1572817989386;1572817996454;7068;17667169898;52689939889;380892393;254270443;9720172918;859683;169576729;1616;1418;49896;6;559;5341
0;53;1572817996454;1572818004439;7985;17700135822;52690092380;385132430;255628847;9720206515;772575;170449327;977;2518;57944;-1;540;1794
0;54;1572818004439;1572818011906;7467;17700288830;52689060511;384307222;254435708;9719985195;714676;169734314;1144;2187;54912;-3;531;2906
0;55;1572818011906;1572818019260;7354;17656802876;52689036306;383458834;254281716;9719971932;721408;168920164;918;2849;97544;-1;995;45575
0;56;1572818019260;1572818026472;7212;17646384608;52689077961;380177530;253397661;9719979944;646633;167745408;1634;1634;54024;12;590;6088
0;57;1572818026472;1572818033944;7472;17659974142;52689023251;382722274;253937723;9719959504;680106;167712505;913;2431;55288;-11;348;1385
0;58;1572818033944;1572818041415;7471;17671733566;52689065652;382891504;254518895;9719997283;701929;169095950;1015;2249;53856;0;461;2392
0;59;1572818041415;1572818048789;7374;17672789146;52689105444;381687888;254877428;9720000273;671392;168512695;827;2743;80000;-1;696;17703
0;60;1572818048789;1572818055744;6955;17647617432;52688993226;380976879;254414498;9719951123;633727;167493078;1345;1782;51648;9;606;4644
0;61;1572818055744;1572818062608;6864;17664361442;52689047367;384161817;254421879;9719982966;713249;168981482;1164;1939;51592;-10;506;2748
0;62;1572818062608;1572818070107;7499;17697639368;52689101231;386912202;254633007;9720005552;734463;170284973;1029;2197;53096;7;441;2450
0;63;1572818070107;1572818077286;7179;17666635100;52689088347;383378830;254529644;9719987394;686891;168409647;674;2424;51536;-7;370;1067
0;64;1572818077286;1572818084384;7098;17698118978;52689019994;383789529;254547095;9719972130;780430;167863095;941;2531;81448;16;923;24301
0;65;1572818084384;1572818091953;7569;17707302670;52689047815;384656414;254784366;9719985616;713322;168657071;1657;1584;53128;-8;590;5251
0;66;1572818091953;1572818099209;7256;17695643548;52689017273;382045239;254518528;9719950691;705357;168044261;1017;2150;52800;-4;380;2139
0;67;1572818099209;1572818106618;7409;17701403832;52689047606;384905843;254632676;9719994471;712206;168373350;743;2508;53592;-3;338;1239
0;68;1572818106619;1572818113895;7276;17713260200;52689114236;386552777;254749537;9720003915;716109;168867629;1092;2753;98760;3;890;51048
0;69;1572818113896;1572818121339;7443;17688716286;52688968944;382782918;254612613;9719951508;687101;166987377;1825;1375;52896;3;823;9045
0;70;1572818121339;1572818128654;7315;17689459864;52689013961;383029095;254581799;9719968130;718063;167825353;944;2142;51344;-7;385;2139
0;71;1572818128654;1572818136017;7363;17702340276;52689052001;384635910;254666685;9719994792;735834;168409642;852;2364;52928;1;353;1577
0;72;1572818136017;1572818143384;7367;17688089216;52688963269;382341511;254729877;9719954849;689725;167354357;954;2763;97296;3;916;53511
0;73;1572818143385;1572818150738;7353;17691602560;52689047034;383575269;254591981;9719975535;693919;168059499;1737;1337;50720;-1;615;6133
0;74;1572818150738;1572818158183;7445;17700760410;52689079772;385246242;254690352;9719998344;710409;168494587;837;2454;54696;-2;401;1378
0;75;1572818158183;1572818164900;6717;17693029418;52688976891;382294251;254271572;9719952677;672312;168307108;917;1943;47160;4;361;2492
0;76;1572818164900;1572818171992;7092;17680932150;52689077154;381976324;254862242;9719996720;688688;167250627;1332;2781;142512;-3;2671;92931
0;77;1572818171992;1572818179040;7048;17688371288;52689033334;382950899;254697668;9719985430;689347;167595554;1426;1689;54224;9;866;5518
0;78;1572818179040;1572818186380;7340;17691008486;52688995111;382875179;254773767;9719962527;710387;168177880;1216;2033;53976;-11;499;2783
0;79;1572818186380;1572818194087;7707;17719433664;52689084699;386360115;254790783;9719994163;761163;168674099;1039;2241;54120;0;438;2790
0;80;1572818194087;1572818201643;7556;17712950242;52689080421;384901954;254719327;9719998911;713429;168461624;973;2708;85984;0;800;36799
0;81;1572818201643;1572818209215;7572;17696714166;52689045693;382255934;254693208;9719971020;682983;167472386;1094;2059;52008;15;482;3416
0;82;1572818209215;1572818216901;7686;17707815276;52689069925;382395318;254805794;9719987136;700229;167678823;1455;1909;55368;-15;633;5083
0;83;1572818216901;1572818224602;7701;17694689292;52689145491;382112318;254892238;9720015853;933271;167700403;997;2239;53328;12;443;2287
0;84;1572818224602;1572818232436;7834;17684990658;52689054546;381550767;254705194;9719970864;683296;167066447;1132;2867;102160;-10;957;61528
0;85;1572818232436;1572818240398;7962;17697801720;52689084524;382966579;254795989;9719990749;699631;167516940;1221;2111;55176;12;469;3858
0;86;1572818240398;1572818248144;7746;17719536448;52689047887;385981075;254908602;9719983810;736645;169095719;1399;2030;56800;-10;506;3170
0;87;1572818248144;1572818255908;7764;17690299948;52689015822;381896434;254687776;9719965679;682567;167587336;975;2277;53856;-4;378;2061
0;88;1572818255908;1572818263910;8002;17709713130;52689045535;383814765;254921093;9719976409;719403;168016141;999;2699;80872;1;751;21690
0;89;1572818263911;1572818271157;7246;17702515622;52689058073;383836114;254446183;9720003577;711342;168221550;1327;1829;52176;12;505;4346
0;90;1572818271157;1572818278921;7764;17707227772;52689019148;381612964;254552464;9719972616;688327;167832640;1188;2067;54144;-13;438;2851
0;91;1572818278921;1572818286326;7405;17697319920;52689013539;382262853;254450526;9719965408;689887;167469299;1089;2154;53328;5;398;2809
0;92;1572818286326;1572818293381;7055;17700827132;52689049956;383894968;254526665;9719985043;696667;168068193;880;2656;83320;-5;749;26558
0;93;1572818293381;1572818300899;7518;17684516304;52689023106;382510589;254729553;9719961335;686459;167966556;1004;2165;52272;15;412;3040
0;94;1572818300899;1572818309172;8273;17705943410;52689047098;382799433;254796272;9719978866;703249;167858948;1612;1989;59552;-10;722;4559
0;95;1572818309172;1572818316987;7815;17709744082;52689062695;383794869;254812733;9719989215;715191;167928912;1121;2353;57288;-2;483;2678
1;46;1572818809693;1572818817160;7467;17516214074;50755577028;393428044;255194681;8986086552;749725;178639303;1009;2229;53424;-6;404;2250
1;47;1572818817160;1572818824554;7394;17481721282;50755541189;389435469;254969408;8986088082;711553;176478649;909;2739;93672;1;902;39661
1;48;1572818824554;1572818831954;7400;17499084186;50755582657;393261467;254865278;8986100975;845657;177234277;1412;1783;52768;5;507;4708
1;49;1572818831954;1572818839314;7360;17500011724;50755595233;391491791;254542940;8986103605;747818;177782753;1129;2078;53136;-3;389;2333
1;50;1572818839314;1572818846343;7029;17475066894;50755621809;386910942;253781269;8986098308;680133;176880061;925;2167;51216;-4;337;1875
1;51;1572818846343;1572818853621;7278;17476505578;50755712421;390043880;253874602;8986119542;700469;177066898;1020;2729;96776;9;891;42940
1;52;1572818853621;1572818861171;7550;17477996092;50755684142;389203614;254455675;8986105142;704794;177216218;1120;2217;55176;-9;492;3603
1;53;1572818861171;1572818868526;7355;17469284272;50755669519;386887153;254712380;8986106250;683802;175532714;1393;2020;56312;1;519;3307
1;54;1572818868526;1572818876239;7713;17487900878;50754841674;389157443;254273395;8985928804;697281;176905623;1112;2329;57024;-1;390;2399
1;55;1572818876239;1572818883993;7754;17496653724;50754874603;390197474;254337044;8985916159;683587;176426284;860;2995;88424;3;708;31762
1;56;1572818883993;1572818891341;7348;17480736950;50754862547;388503303;254505918;8985928953;678325;175751802;918;2285;53064;-3;397;2637
1;57;1572818891341;1572818899501;8160;17503477910;50754851278;392901471;254970313;8985931591;735672;176641264;1592;1976;58944;5;608;4495
1;58;1572818899501;1572818906592;7091;17503516746;50754820257;392679807;254677659;8985932807;732528;177576475;1059;2050;51480;-5;400;2303
1;59;1572818906592;1572818914192;7600;17512222434;50754850694;394285193;254801129;8985940484;737990;177269319;1031;2662;82520;93;735;38608
1;60;1572818914192;1572818921515;7323;17488031548;50754818261;389681963;253576365;8985921939;708694;176034204;864;2497;72696;-77;768;14300
1;61;1572818921515;1572818928513;6998;17482732186;50754815275;388653773;254206588;8985914379;770574;176116121;1666;1390;50496;-11;612;5632
1;62;1572818928513;1572818936286;7773;17522134958;50754979435;394561577;254888959;8985974903;762153;177994590;1098;2172;54120;10;474;2452
1;63;1572818936286;1572818944035;7749;17508675656;50754908471;393290462;254756781;8985951643;783661;176713556;740;2574;55008;-15;363;1175
1;64;1572818944035;1572818951116;7081;17480355890;50754779920;390793473;254550951;8985902481;709326;176290519;883;2753;96072;0;901;53463
1;65;1572818951116;1572818958701;7585;17475787988;50748580336;390579712;254577714;8985952169;731522;175025452;1817;1370;52688;3;634;6144
1;66;1572818958701;1572818966351;7650;17465389576;50745906429;391582228;254133776;8985917525;800130;174415953;988;2291;54056;1;433;2108
1;67;1572818966351;1572818973158;6807;17444981842;50745874807;389661821;253872545;8985915031;704866;173901472;884;2128;50048;-1;381;1704
1;68;1572818973158;1572818981079;7921;17461054982;50745940847;391238286;254684581;8985935559;741863;174311619;993;3021;103408;-2;1066;63631
1;69;1572818981079;1572818988648;7569;17472416556;50745885530;390524777;254384734;8985917327;735261;174337885;1799;1518;55208;-1;653;6469
1;70;1572818988648;1572818995989;7341;17465799690;50745830353;392774548;254584002;8985906496;737969;174955155;1003;2230;53256;4;482;2396
1;71;1572818995989;1572819003896;7907;17454503524;50745884607;390011351;254365147;8985929317;797515;173963038;797;2581;56032;2;505;1712
1;72;1572819003897;1572819011363;7466;17447781246;50745851352;389183397;254277733;8985901528;722588;173681469;975;2736;95416;-4;858;45250
1;73;1572819011363;1572819018519;7156;17473897726;50745840624;391116364;254060448;8985896033;720404;175018770;1772;1396;52304;3;647;6014
1;74;1572819018519;1572819025895;7376;17456407364;50745887867;388290560;254054168;8985915481;727199;175080359;840;2389;53656;7;482;2116
1;75;1572819025896;1572819033498;7602;17467858728;50745887176;390504211;254679076;8985915361;920736;173822618;1536;2628;138344;-11;3146;130605
1;76;1572819033498;1572819040818;7320;17449022830;50745849314;388684608;254258995;8985911714;720718;174125164;1763;1347;51856;-1;648;6224
1;77;1572819040818;1572819048651;7833;17465717346;50745914602;389753719;254483782;8985928907;732063;174237412;896;2528;56496;0;431;1468
1;78;1572819048651;1572819055565;6914;17442687890;50745843950;388330927;253969100;8985903126;704064;173240347;662;2382;50336;1;336;834
1;79;1572819055565;1572819063689;8124;17461762790;50745875317;389831168;254828201;8985911991;751022;174144348;959;2939;103472;-1;836;50725
1;80;1572819063689;1572819070924;7235;17466755114;50745903568;390562284;254337852;8985932018;745099;174555452;1828;1367;52352;5;744;7963
1;81;1572819070924;1572819078696;7772;17462678502;50745880509;390810382;254739047;8985919940;735335;173894056;1056;2325;55736;-4;498;2284
1;82;1572819078696;1572819086196;7500;17439332080;50745865742;385766736;253716972;8985894075;665382;173467091;815;2390;53392;-1;393;1603
1;83;1572819086197;1572819093771;7574;17424352772;50745891081;385435376;252816820;8985913720;660733;172888048;854;2818;86392;0;783;31991
1;84;1572819093771;1572819100987;7216;17458514290;50745883733;389817180;254263238;8985917092;737430;173957927;1766;1410;52576;1;656;6610
1;85;1572819100987;1572819108396;7409;17470633312;50745947584;390987249;254139662;8985938807;809216;175081876;1008;2223;53312;1;420;2190
1;86;1572819108396;1572819115867;7471;17457219270;50745868229;388773026;254361841;8985913861;767541;173871543;709;2499;53424;-2;377;1050
1;87;1572819115867;1572819123190;7323;17468029256;50745893007;389484365;254225008;8985919113;775638;174403914;884;2814;97584;0;896;38941
1;88;1572819123190;1572819130494;7304;17440978230;50745837346;387172094;252919768;8985893286;696611;174029370;1702;1513;53168;5;651;5992
1;89;1572819130494;1572819137646;7152;17442612700;50745906601;386940865;253701124;8985919328;681650;173821922;773;2417;52832;-5;324;1231
1;90;1572819137646;1572819145311;7665;17442556198;50745855566;387414972;254484383;8985910207;720833;173497836;1074;2147;53400;0;411;2558
1;91;1572819145311;1572819152572;7261;17463550268;50745839622;389183590;254250649;8985892500;728134;174898893;943;2741;97744;4;977;58971
1;92;1572819152572;1572819159535;6963;17457816994;50745882708;388526982;254161674;8985916053;700390;173623215;1368;1632;50000;-4;513;4688
1;93;1572819159536;1572819167172;7636;17462902904;50745842984;389575695;254555088;8985909195;731468;173655587;1184;2154;54912;6;475;2567
1;94;1572819167172;1572819174199;7027;17472605626;50745896463;392380710;253949227;8985927499;743304;174943655;964;2198;52600;-6;434;2185
1;95;1572819174199;1572819181816;7617;17463192860;50745917721;391061891;254415700;8985930490;736034;175150392;944;2715;87912;0;888;36576
2;47;1572819679654;1572819687269;7615;17040657764;49583294995;384561289;254722164;8817348836;739283;167410753;924;2792;95520;0;887;38532
2;48;1572819687269;1572819693831;6562;17057902116;49583244532;386085153;254038763;8817340700;731704;167963690;766;2050;46464;16;369;1491
2;49;1572819693832;1572819701284;7452;17059007482;49583266051;387680908;254702657;8817345938;759068;168090767;1674;1527;52872;-12;551;5001
2;50;1572819701284;1572819708098;6814;17011785388;49583332795;382205363;253331715;8817343737;683083;166440890;938;2104;50192;-1;493;2584
2;51;1572819708098;1572819714747;6649;17031020012;49583446815;384412526;253712087;8817373944;706374;167053521;700;2153;47608;-3;319;1170
2;52;1572819714748;1572819721731;6983;17052218044;49583292153;385823258;254550537;8817335627;726569;167548522;961;2765;98008;2;925;62480
2;53;1572819721731;1572819728819;7088;17016979338;49583392217;381801453;253872871;8817355647;680867;166822121;1719;1398;51480;3;656;5971
2;54;1572819728819;1572819735400;6581;17003450978;49582588752;382638215;253239256;8817183752;738383;168490578;718;2143;47640;-5;344;1125
2;55;1572819735400;1572819742843;7443;17012248500;49582491960;385336201;254153225;8817147721;760159;169348375;950;2218;52272;0;387;2052
2;56;1572819742843;1572819750027;7184;17016984448;49582582192;383681919;253826426;8817177859;758416;167982042;984;2756;97064;6;934;62548
2;57;1572819750027;1572819756818;6791;17007100978;49582562232;384147786;253643373;8817172164;683378;168378481;1248;1723;49104;5;482;4466
2;58;1572819756818;1572819764135;7317;17022567488;49582555722;384869245;254177446;8817179990;714553;168546010;1199;1989;53024;-11;522;2711
2;59;1572819764135;1572819771129;6994;17006293598;49582569324;382988848;253270090;8817178169;686529;168299173;1023;1985;49632;0;437;2654
2;60;1572819771129;1572819778625;7496;17009300906;49582570492;386364815;253635898;8817177692;724263;169037564;1017;2801;99600;5;985;59255
2;61;1572819778626;1572819785983;7357;17052185194;49582533923;391903588;254339837;8817174371;767246;171041739;788;2353;52008;11;389;1773
2;62;1572819785983;1572819793140;7157;17009842420;49582647001;386377069;254125641;8817203553;728437;168956440;1637;1504;52104;-16;559;5168
2;63;1572819793140;1572819800699;7559;17026846894;49582772505;386114284;254387642;8817220122;738986;169060920;1024;2144;52272;0;495;2630
2;64;1572819800699;1572819808807;8108;17006117522;49573679473;387674383;254177514;8817162982;751704;171367182;906;2918;90152;3;779;21495
2;65;1572819808807;1572819816008;7201;16971369522;49573567215;385846441;252756573;8817156012;768824;170603986;551;2507;50664;-2;430;955
2;66;1572819816008;1572819822694;6686;16975323494;49573563992;386361997;252654998;8817153827;751510;170828778;1759;1222;49320;0;606;6151
2;67;1572819822694;1572819830300;7606;16997980066;49573626570;386696230;253501407;8817176779;780189;171984953;1015;2191;52968;10;430;2391
2;68;1572819830300;1572819837613;7313;17004573134;49573633310;388634966;253474564;8817184506;801536;172555932;834;2377;53232;-5;449;1781
2;69;1572819837614;1572819844554;6940;16976236286;49573571320;384718304;253391313;8817154236;874391;170604710;1026;2578;94176;-6;996;67938
2;70;1572819844554;1572819851839;7285;17004266826;49573565695;388174803;253767732;8817159291;791739;172086863;1725;1388;51216;7;602;6183
2;71;1572819851839;1572819858926;7087;16983981878;49573643551;384608899;253695807;8817185135;711712;170613110;785;2222;50072;-7;320;1132
2;72;1572819858926;1572819865994;7068;16975928956;49573522388;385751971;252215515;8817148338;689861;170797283;950;2104;50160;2;486;2488
2;73;1572819865994;1572819873370;7376;16976901608;49573593443;384872767;253251437;8817151560;715382;171433272;1030;2735;96072;-2;909;61228
2;74;1572819873370;1572819881333;7963;16990029344;49573599352;386518079;253932991;8817163514;735497;171473867;1405;1852;53656;12;539;4407
2;75;1572819881333;1572819887934;6601;16971106576;49573539304;384400669;252969567;8817147778;703577;170768609;1083;1869;48880;-7;383;2307
2;76;1572819887934;1572819895805;7871;16979367256;49573596318;384401830;253780159;8817162287;741158;170706891;1497;2565;133744;-4;3469;209107
2;77;1572819895805;1572819903194;7389;16999280780;49573545667;388170984;253954393;8817160390;756507;171375470;1586;1603;53072;-1;670;5354
2;78;1572819903194;1572819909876;6682;16989877504;49573564737;385988464;253272336;8817155136;753619;171232232;965;1876;46728;7;455;2121
2;79;1572819909876;1572819917136;7260;16998186948;49573571330;386779763;253361250;8817158805;751726;171727954;685;2399;51288;-7;371;987
2;80;1572819917136;1572819924500;7364;17006042478;49573645266;390188732;253646089;8817196304;748820;171975482;1039;2802;100424;0;1061;79368
2;81;1572819924501;1572819932378;7877;17003478864;49573584847;386992093;253862650;8817158939;974977;171281436;1526;1880;56040;0;1004;10256
2;82;1572819932378;1572819939903;7525;16998562460;49573566839;387369400;253987001;8817151949;764491;171543846;1120;2030;51824;2;405;2376
2;83;1572819939903;1572819947092;7189;16986438036;49573573344;386893287;253749771;8817161746;732418;171262546;1128;2015;52264;-2;437;2680
2;84;1572819947092;1572819954455;7363;17006088906;49573610566;388170129;253790925;8817167223;748711;172026795;987;2654;93648;1;954;59333
2;85;1572819954455;1572819961586;7131;16969901930;49573597035;385420075;253257173;8817160095;702764;170924920;1115;1882;49904;15;491;4541
2;86;1572819961586;1572819969736;8150;17001409022;49573612512;387805546;253976266;8817172415;762123;171137948;1466;1988;56856;-14;501;3894
2;87;1572819969736;1572819977045;7309;16982015550;49573572679;383642991;253605553;8817151815;716727;170508310;907;2202;51544;-1;357;2065
2;88;1572819977046;1572819983624;6578;16977758044;49573585418;387115507;252377282;8817154821;715190;171012017;946;2610;92160;3;834;51536
2;89;1572819983624;1572819991032;7408;16989428262;49573591240;386636995;253413127;8817173803;713072;171448135;733;2396;52120;-4;340;1924
2;90;1572819991032;1572819997756;6724;16979630494;49573534796;386252851;253277018;8817152218;712909;171112998;1682;1262;48376;2;555;5583
2;91;1572819997756;1572820004919;7163;16979488144;49573518165;387472361;253470436;8817133471;724305;171229318;1018;2054;50752;0;407;2525
2;92;1572820004919;1572820012486;7567;16991011924;49573567557;385103685;253448399;8817156375;719142;171241894;773;2415;52872;1;367;1499
2;93;1572820012486;1572820019432;6946;16994224070;49573557600;387889067;253623067;8817159163;740701;172486765;983;2602;95048;-3;901;51389
2;94;1572820019434;1572820026812;7378;16999751776;49573541749;387501188;253664528;8817158172;731418;171454464;1780;1330;51648;0;689;9463
2;95;1572820026812;1572820034414;7602;16985906742;49573569737;384978155;253673583;8817160103;718999;171105407;969;2215;52536;0;398;1986
2;96;1572820034415;1572820041845;7430;16999046304;49573548534;388293791;253844009;8817153742;738423;171158424;721;2468;52872;0;389;1112
3;41;1572820494934;1572820502358;7424;18432703962;52996036539;380799509;255247161;9667448226;672835;168342258;685;2377;50688;10;378;1148
3;42;1572820502358;1572820510129;7771;18406160140;52995984238;379821730;255143213;9667439106;624095;167943226;1811;1684;57952;-16;636;6018
3;43;1572820510129;1572820517750;7621;18386384878;52995983485;380465245;255156463;9667420723;633078;167580645;1028;2347;55536;1;440;2120
3;44;1572820517750;1572820525713;7963;18402460500;52995971950;381280562;254618366;9667432915;667543;168915776;973;3154;102784;3;880;49252
3;45;1572820525713;1572820533431;7718;18412192714;52996041575;382507938;255600444;9667462063;700186;169354906;936;2380;54912;12;449;2425
3;46;1572820533431;1572820541255;7824;18436347976;52995946530;384382262;255504999;9667425194;710738;169661847;1634;1795;56584;-15;588;4508
3;47;1572820541255;1572820548974;7719;18421691036;52996012340;382286873;255104934;9667450912;688902;168733004;1083;2230;54912;-1;386;2308
3;48;1572820548974;1572820556408;7434;18434633790;52996087125;383152953;255277160;9667470203;682880;168617410;1010;2618;94536;4;973;46910
3;49;1572820556409;1572820564651;8242;18436134378;52996022362;383822528;255334860;9667444867;711743;169542113;1160;2348;58080;12;533;3017
3;50;1572820564651;1572820572456;7805;18407713872;52996029890;381501618;255327617;9667441646;685702;168807313;1413;1905;54864;-15;512;3694
3;51;1572820572456;1572820579749;7293;18423079058;52996149479;380818089;254862549;9667475098;660077;168087145;994;2159;52168;-1;389;2084
3;52;1572820579749;1572820587407;7658;18428461640;52996183072;384197602;254871288;9667483198;685651;169357676;918;2939;97984;6;976;54946
3;53;1572820587408;1572820595194;7786;18368694204;52996155188;380313714;254421729;9667474173;654396;168988310;1015;2319;55440;10;479;2800
3;54;1572820595194;1572820602427;7233;18361317408;52995310420;381579205;253444549;9667284817;643687;169896644;1434;1789;53320;-13;465;3624
3;55;1572820602427;1572820610387;7960;18410981644;52995270284;387239035;254692615;9667276376;707073;173022191;1143;2229;55704;4;504;2892
3;56;1572820610388;1572820617669;7281;18372558970;52995279610;384167028;254664147;9667272821;662391;170499397;815;2637;81504;0;714;22474
3;57;1572820617669;1572820625377;7708;18391876668;52995326575;384655653;254702710;9667300492;688141;171385402;861;2378;53856;9;493;2039
3;58;1572820625377;1572820633275;7898;18416768792;52995269490;387944197;254821582;9667276081;710835;172009562;1755;1818;59208;-16;692;5373
3;59;1572820633275;1572820641190;7915;18392683318;52995264326;384501863;254886427;9667268662;686764;170489396;1035;2325;55440;0;428;2398
3;60;1572820641190;1572820648707;7517;18387159262;52995376981;386074386;254856810;9667310551;684715;171357859;969;2886;101376;0;912;50508
3;61;1572820648707;1572820656620;7913;18402053306;52995276510;385696968;255039391;9667272960;693126;171332615;1031;2299;54912;14;445;3071
3;62;1572820656620;1572820664376;7756;18399504146;52995320057;385649277;254720037;9667302525;693134;171150858;1520;1834;55592;-2;558;4450
3;63;1572820664376;1572820672443;8067;18374113432;52995505907;383373363;254809428;9667325513;683197;170439922;1135;2253;55968;-12;416;2412
3;64;1572820672443;1572820680510;8067;18397260418;52995166174;384946373;254738876;9667251278;688894;171216829;1017;2798;97008;2;906;39027
3;65;1572820680510;1572820687805;7295;18387488200;52995188092;384481003;254526990;9667261174;675641;170766172;1144;2014;52272;10;494;3628
3;66;1572820687805;1572820696249;8444;18418558898;52995255109;386230530;254967631;9667293191;710973;171677806;1516;2069;59496;-12;549;3363
3;67;1572820696249;1572820704743;8494;18407314854;52995244134;386152268;255261891;9667275097;713681;171371132;1068;2612;60720;0;472;2304
3;68;1572820704743;1572820712520;7777;18385258342;52995209453;384779712;254627174;9667263619;691483;171276633;1011;2851;102264;0;999;43848
3;69;1572820712520;1572820720538;8018;18387459292;52995228272;383708614;254651909;9667275193;669428;170562084;1531;1834;55440;11;618;5047
3;70;1572820720538;1572820728996;8458;18384164948;52995177941;386519143;255050228;9667255146;700100;171232612;1165;2482;60520;-11;458;2019
3;71;1572820728997;1572820736846;7849;18377598598;52995290787;382712069;254600361;9667296445;691967;170374222;1054;2178;53328;0;492;2770
3;72;1572820736846;1572820744088;7242;18395914590;52995201000;383893208;254630352;9667275160;675034;170800477;831;2643;78520;3;657;22047
3;73;1572820744088;1572820752460;8372;18415093442;52995245269;387699843;254859846;9667272697;722494;171966187;1896;1755;60424;-3;735;6277
3;74;1572820752460;1572820761172;8712;18395396436;52995194650;387589717;255238805;9667271522;717446;170652909;1154;2581;61840;13;579;2728
3;75;1572820761172;1572820769231;8059;18363065758;52995225711;384288135;254900820;9667271713;686042;169343121;748;2645;56328;-13;403;1320
3;76;1572820769233;1572820776924;7691;18360264164;52995147884;383157964;255161929;9667246289;726307;168758778;1568;2996;331344;1;4151;47858
3;77;1572820776924;1572820784087;7163;18359144198;52995182870;381919538;254560410;9667255395;697962;168899345;1839;1271;51608;0;764;6907
3;78;1572820784087;1572820791481;7394;18368299858;52995205077;381298008;254628045;9667274904;674026;168900032;1014;2123;51912;-1;409;2090
3;79;1572820791481;1572820799148;7667;18378833028;52995167246;384271712;254611995;9667251300;681127;170119954;822;2365;52896;0;407;1670
3;80;1572820799148;1572820807009;7861;18368072828;52995225756;382964109;254631018;9667283457;708020;169301782;1042;2886;101168;6;1009;63240
3;81;1572820807009;1572820814445;7436;18406151380;52995232203;386239653;254679705;9667285195;690689;170155381;1910;1425;54760;-2;865;12041
3;82;1572820814446;1572820822778;8332;18393072700;52995172164;384800594;255056905;9667253899;702930;170014447;1050;2473;58176;0;467;2075
3;83;1572820822779;1572820830441;7662;18379112764;52995185432;382603104;254504887;9667262827;678544;168986089;865;2502;56056;-4;382;1662
3;84;1572820830441;1572820838415;7974;18391668180;52995270279;386401308;254895139;9667298894;718363;171201526;973;2960;99240;0;952;47080
3;85;1572820838415;1572820846537;8122;18362644256;52995139990;383575695;254827368;9667241481;685557;169721174;1866;1547;56568;0;658;6192
3;86;1572820846537;1572820854064;7527;18368987810;52995173118;383879822;254560054;9667259465;686110;170245080;1069;2180;53624;0;403;2371
3;87;1572820854064;1572820862509;8445;18392689012;52995262818;385502146;255217897;9667292201;711780;170155024;843;2760;59752;0;350;1150
3;88;1572820862510;1572820870659;8149;18377707222;52995228554;383859537;254870028;9667272990;680698;169822411;1072;2867;98504;5;948;66809
3;89;1572820870660;1572820878306;7646;18357127646;52995234911;384199645;254629593;9667269384;676457;169666652;1841;1443;54456;0;636;6267
3;90;1572820878306;1572820886268;7962;18379770786;52995225848;384530013;254951746;9667276491;694460;169748149;1191;2228;56496;5;508;3099
4;44;1572821384795;1572821392251;7456;17578504974;53041940112;382870548;254238898;9779341085;701189;167110924;988;2286;54184;-6;407;2065
4;45;1572821392251;1572821399999;7748;17594411674;53041892181;388090112;255545658;9779322033;753664;168692685;991;2274;54120;-1;503;2484
4;46;1572821399999;1572821407114;7115;17604429756;53041845964;388184857;255005887;9779306552;777153;168617753;960;2676;85168;0;779;35480
4;47;1572821407114;1572821414642;7528;17627268974;53041932741;391391445;255168116;9779339629;779093;169633735;1422;1922;55176;0;567;4625
4;48;1572821414642;1572821421638;6996;17611474694;53041891363;389251549;254783823;9779318869;742594;168810215;1131;1929;50496;1;444;2756
4;49;1572821421639;1572821429061;7422;17597639004;53041884311;386667074;255163366;9779320000;744523;168163295;1053;2131;52536;0;548;2610
4;50;1572821429061;1572821436156;7095;17574722552;53041952534;383568071;253922411;9779324955;705538;167169727;860;2673;88504;2;871;50095
4;51;1572821436156;1572821442905;6749;17570529724;53042030048;382067592;253959856;9779336968;716243;167231537;640;2386;49992;-2;363;853
4;52;1572821442906;1572821450323;7417;17597947794;53042018115;386097314;254906039;9779342583;749055;168332188;1789;1449;53648;1;662;6362
4;53;1572821450323;1572821457663;7340;17649564488;53042199081;387320817;254315489;9779388442;742474;168738335;980;2210;52736;10;388;2008
4;54;1572821457664;1572821465443;7779;17800167138;53041187976;389083644;254339738;9779162679;738077;170039375;748;2575;55056;-10;383;1096
4;55;1572821465443;1572821472054;6611;17780130536;53041091367;385549495;253745604;9779135760;854972;168176427;763;2537;77120;-1;676;17182
4;56;1572821472054;1572821479481;7427;17782845406;53041155830;386721002;253237886;9779159923;744795;168884461;1790;1458;53928;5;623;6465
4;57;1572821479481;1572821487055;7574;17801364192;53041082429;389632139;254270000;9779136838;743371;169546832;1003;2198;52800;-1;394;2123
4;58;1572821487055;1572821494593;7538;17813404228;53041136406;393586889;254234605;9779168301;770749;170804948;1033;2333;55736;-5;493;2031
4;59;1572821494593;1572821502895;8302;17801777080;53041180681;391190889;254435189;9779170986;784990;170398198;1005;2973;89992;0;836;31874
4;60;1572821502895;1572821510189;7294;17794359842;53041045044;386676168;253904804;9779117439;725154;169114766;1681;1423;51216;0;558;5530
4;61;1572821510190;1572821517268;7078;17786045434;53041127450;387317052;254072731;9779145735;732134;168832957;897;2233;51816;11;438;2118
4;62;1572821517268;1572821524863;7595;17792305914;53041186038;388075345;254353005;9779179799;789155;169238750;900;2275;52272;-7;371;1788
4;63;1572821524863;1572821532864;8001;17792502138;53041175761;388375987;254435586;9779161480;854036;169420832;898;2953;99624;-4;890;47025
4;64;1572821532865;1572821540757;7892;17825662242;53041166692;394555130;254431135;9779167797;863563;171302467;1816;1611;56592;0;794;8537
4;65;1572821540757;1572821548414;7657;17781647184;53041096796;388281458;254397172;9779153126;741888;169580156;916;2339;53936;15;407;1982
4;66;1572821548414;1572821556340;7926;17788543932;53041066016;387884515;254415169;9779133596;745876;169872680;990;2452;57112;-15;421;2075
4;67;1572821556340;1572821564048;7708;17818874556;53041117520;394074933;254504580;9779166608;831251;171198778;975;2882;99368;7;952;53409
4;68;1572821564048;1572821571373;7325;17799025272;53041116003;390175070;254120728;9779152323;747180;170491822;1735;1373;51384;-4;623;5841
4;69;1572821571373;1572821579279;7906;17791749070;53041066598;387124510;254287374;9779131430;740936;169200819;1070;2360;56824;-2;429;2347
4;70;1572821579279;1572821586930;7651;17780776732;53041079665;387454054;254087127;9779131193;738336;168830316;843;2438;54384;-1;396;1560
4;71;1572821586930;1572821594487;7557;17823274120;53041184771;389219069;254158549;9779179447;878019;169633827;884;2860;98688;7;924;43466
4;72;1572821594487;1572821602315;7828;17816511254;53041129008;392210528;254582854;9779153230;835254;170091249;1798;1505;54912;-7;687;5940
4;73;1572821602315;1572821609750;7435;17806496384;53041129000;390364966;254336670;9779153795;749463;170053951;1044;2185;53392;7;435;2395
4;74;1572821609750;1572821617585;7835;17634494806;53041145022;388853638;254403400;9779166920;782359;169890925;955;2364;54912;-7;384;1862
4;75;1572821617585;1572821625365;7780;17590018388;53041123686;388648913;254214129;9779142739;909954;169448593;1417;2896;162960;0;2967;59184
4;76;1572821625365;1572821632264;6899;17589032012;53041120979;388355349;253845140;9779155925;749507;169760323;1795;1357;52008;0;729;6725
4;77;1572821632264;1572821639596;7332;17592170720;53041106042;389626061;254195970;9779148429;740341;170071914;750;2330;51048;13;298;1277
4;78;1572821639596;1572821647154;7558;17579380390;53041051581;387480002;254285176;9779124252;739182;169189325;1054;2174;53160;-12;430;2651
4;79;1572821647158;1572821654753;7595;17597527606;53041115738;388445266;254240779;9779149410;738533;169359887;674;2594;54224;0;290;685
4;80;1572821654753;1572821662422;7669;17572617524;53041181186;387789086;254003868;9779180520;742090;169996855;879;2823;94408;-1;837;33995
4;81;1572821662423;1572821670370;7947;17597404966;53041115773;390263467;254456357;9779152822;763211;169820420;1902;1537;56536;0;1387;33147
4;82;1572821670371;1572821678352;7981;17559698568;53041086317;386251950;253299222;9779132755;736236;168606640;1066;2437;57552;1;382;2347
4;83;1572821678352;1572821685469;7117;17582977976;53041121045;386692769;254087609;9779150477;738317;169169433;785;2278;51104;-1;432;1622
4;84;1572821685469;1572821692752;7283;17584115024;53041156439;386047989;254130161;9779147287;738079;169308451;942;2620;83944;5;907;38368
4;85;1572821692752;1572821700699;7947;17603653328;53041145805;392004850;254523705;9779167284;787104;170563719;1842;1637;57624;-2;697;6402
4;86;1572821700699;1572821707707;7008;17582107232;53041128710;386517947;253739177;9779155854;744813;169381507;956;2118;50784;-2;380;1965
4;87;1572821707707;1572821714906;7199;17573636020;53041097550;383912071;253871090;9779138267;700650;168564781;696;2492;53064;-1;431;1437
4;88;1572821714906;1572821721933;7027;17562201154;53041080867;384912101;253774946;9779133914;695939;168260713;889;2728;93432;1;849;41390
4;89;1572821721933;1572821729311;7378;17577435524;53041109752;387284698;254090511;9779163309;732686;169306022;1715;1492;53304;14;601;6551
4;90;1572821729311;1572821736874;7563;17590132852;53041100562;387346606;254265517;9779148066;746387;169585101;857;2343;52800;0;411;1701
4;91;1572821736874;1572821744303;7429;17595545802;53041124225;391107467;253956741;9779146712;781108;170123063;1063;2133;52888;-9;495;2433
4;92;1572821744303;1572821751811;7508;17581095744;53041104502;388481176;254141839;9779144815;733885;169226894;906;2687;82968;-5;742;28001
4;93;1572821751811;1572821759415;7604;17583993260;53041114050;389335392;254207923;9779151072;756427;169884092;1656;1619;54464;11;658;6262
