0;33;1572772702135;1572772709412;7277;16946494918;49550008747;381899287;257946619;9068494648;780131;170154989;1677;3427;1029704;-12;7277;1109368
0;34;1572772709412;1572772717095;7683;16955984480;49549982596;381555282;258388245;9068489752;848521;169872730;2084;2011;772768;-4;7683;1093494
0;35;1572772717095;1572772724102;7007;16934397942;49549992589;381514111;257453094;9068496325;763994;169753526;1290;3706;975592;-10;7008;1003451
0;36;1572772724103;1572772731659;7556;16928335292;49549997568;381648570;257741770;9068487629;776169;169943257;1143;5853;1139248;9;7557;1082153
0;37;1572772731660;1572772744385;12725;16934540876;49549953250;382353738;258070451;9068476922;792001;169894773;2750;5743;1643928;13;12725;1734216
0;38;1572772744385;1572772752228;7843;16950861486;49549994557;380830301;258455441;9068491190;806096;169507093;1914;3530;911352;6;7844;1124136
0;39;1572772752228;1572772758993;6765;16933108178;49549971339;381386720;257806049;9068484225;786411;169877555;893;4723;1088944;3;6765;969897
0;40;1572772758993;1572772765996;7003;16931206236;49549952320;381565691;258220815;9068480122;805765;169624316;948;5049;1161472;-19;7003;1004013
0;41;1572772765996;1572772772926;6930;16945109524;49549971472;382577423;258040496;9068491351;873359;169790198;1442;4039;1031312;5;6929;1076500
0;42;1572772772926;1572772787664;14738;16927834366;49549987621;381067989;257681549;9068483936;757811;169253340;3587;5725;1708104;-77;14739;1908537
0;43;1572772787664;1572772795193;7529;16940503516;49549996537;381988713;258509140;9068483870;784800;169395181;1204;4573;1158624;68;7529;811766
0;44;1572772795193;1572772802281;7088;16938145032;49549981270;381969719;258445246;9068486960;798898;169564595;1641;3986;1067424;-5;7088;1088044
0;45;1572772802282;1572772809540;7258;16938961318;49549973068;381718036;258169313;9068482753;780438;169265350;2121;1751;729864;23;7259;1037187
0;46;1572772809540;1572772816608;7068;16936166732;49549968516;381282724;257684373;9068484411;822529;169643138;1391;3686;959664;-15;7068;1008014
0;47;1572772816608;1572772830540;13932;16936858042;49549965732;381198117;258046350;9068488929;806527;169476870;2464;8887;2071488;-105;13931;1895637
0;48;1572772830540;1572772837651;7111;16943204662;49549972840;381829793;258232502;9068483332;764897;169549881;1859;2067;765792;114;7111;929082
0;49;1572772837651;1572772845024;7373;16936178120;49549973245;381834038;258119450;9068493308;815594;169331522;1851;3243;858536;6;7372;1059743
0;50;1572772845024;1572772851816;6792;16936678170;49550034704;382230977;258195634;9068494468;816049;169827846;943;4536;1078560;-15;6793;976255
0;51;1572772851816;1572772858948;7132;16943875240;49550140838;381335618;258182750;9068511978;805284;170225310;1084;5273;1115120;4;7132;1024059
0;52;1572772858948;1572772866806;7858;16938751662;49550153597;380836113;258274528;9068522608;784448;169139267;1697;4840;1253224;-14;7857;1229446
0;53;1572772866806;1572772881818;15012;16934718704;49550109488;381949006;258065812;9068501926;851766;169137580;3764;5429;1708936;2;15013;2088309
0;54;1572772881819;1572772888873;7054;16923839806;49549268153;380955182;257279822;9068324376;756509;166854703;1053;4604;1129232;3;7055;1010865
0;55;1572772888874;1572772896047;7173;16925883514;49549228524;381614292;257578631;9068321198;799585;166998527;1656;3983;1047408;-6;7174;1108472
0;56;1572772896047;1572772904028;7981;16922280234;49549245639;381435275;257795344;9068317877;790185;166999015;2111;1761;860208;6;7980;1139685
0;57;1572772904028;1572772910985;6957;16911988256;49549264502;381276007;256952657;9068331782;750022;167061190;1660;3749;926992;4;6958;998087
0;58;1572772910985;1572772923932;12947;16914086860;49549252469;382076507;257042456;9068315156;823466;167341495;2271;8404;2007816;-85;12943;1535552
0;59;1572772923933;1572772931193;7260;16922078754;49549220699;380752873;257492594;9068313695;760081;166952830;2097;2570;815216;80;7261;1069620
0;60;1572772931193;1572772938240;7047;16919488714;49549210507;382007863;257284063;9068306937;779611;167482405;1920;2207;775272;6;7047;1009493
0;61;1572772938240;1572772944985;6745;16919306944;49549299978;381826511;257266820;9068335666;800814;167234135;1126;4865;1003328;-6;6745;968994
0;62;1572772944985;1572772951701;6716;16919139628;49549220984;381570774;257274823;9068315015;790933;166861224;1334;4231;952696;132;6716;1235647
0;63;1572772951701;1572772961231;9530;16900275552;49549391145;381234295;256795570;9068348976;758297;167355354;1813;4919;1162240;-131;9530;1405299
0;64;1572772961231;1572772977687;16456;16913413362;49537388250;382006286;256828250;9068306442;805968;167778094;4103;6074;1933600;2;16456;2287628
0;65;1572772977687;1572772985503;7816;16914729990;49537341622;381809970;257243041;9068310232;813478;167835454;1717;4127;1043544;18;7816;1205153
0;66;1572772985503;1572772992457;6954;16910650896;49537296752;382453099;256645844;9068297075;769330;167802522;1877;1586;751096;-21;6954;995810
0;67;1572772992458;1572773001104;8646;16920811766;49537320192;381836199;256399181;9068305393;755726;168145887;2015;5055;1113960;16;8647;1237365
0;68;1572773001104;1572773014799;13695;16903092184;49537324623;381261430;256508995;9068309984;758705;168069180;2576;8946;2139184;8;13695;1985172
0;69;1572773014799;1572773021744;6945;16923601972;49537329864;381361099;256851631;9068307875;764297;168016516;1906;1818;745320;-20;6945;987916
0;70;1572773021745;1572773029044;7299;16916111296;49537344420;382486555;256831501;9068320128;769814;167764559;1852;2918;856008;4;7299;1048483
0;71;1572773029044;1572773035911;6867;16924865602;49537294620;382232820;256921289;9068296161;824034;168079787;1015;5018;1094992;9;6868;982579
0;72;1572773035911;1572773042290;6379;16920846368;49537315573;381765549;256014606;9068301551;775074;168158641;1017;4729;1036800;7;6378;916567
0;73;1572773042290;1572773049802;7512;16924714784;49537306795;380998008;256427359;9068298550;791785;168157682;1535;5746;1175968;0;7512;1202997
0;74;1572773049802;1572773065356;15554;16907196536;49537314293;382234500;256180653;9068309908;744303;167966929;4098;5786;1784520;-24;15555;2155540
0;75;1572773065356;1572773072379;7023;16918330204;49537273387;381324945;256790144;9068295264;807626;167651035;1071;4605;1072280;25;7023;995013
0;76;1572773072379;1572773079924;7545;16929043684;49537334275;381853920;256865876;9068313126;843281;167805979;1828;3810;1076248;-5;7545;1186208
0;77;1572773079924;1572773087109;7185;16927914958;49537322747;382272525;257163505;9068310404;786635;167635093;1952;1754;754536;0;7184;1027322
0;78;1572773087109;1572773094955;7846;16910209830;49537318680;381786759;256095740;9068307401;753902;167758446;1877;4224;989296;-21;7847;1124902
0;79;1572773094955;1572773107698;12743;16907064114;49537302216;382009869;256724079;9068294764;818852;168087133;2225;8456;1985528;79;12701;1567416
0;80;1572773107698;1572773114706;7008;16917343390;49537344721;381366233;256743789;9068310910;750192;167653465;1990;2557;804576;-83;7007;1067407
0;81;1572773114706;1572773121683;6977;16923573940;49537301662;382629377;257041526;9068299745;783432;167722718;1970;2058;734288;14;6978;999277
0;82;1572773121683;1572773128725;7042;16919993582;49537349555;382030536;256481871;9068317224;769170;167757826;1221;5082;1033624;-5;7042;1012328
1;33;1572773545595;1572773552675;7080;16930228036;49079961012;381713083;257847616;8707284539;782726;171698739;1726;2166;839416;-58;7081;1015591
1;34;1572773552675;1572773559343;6668;16921271666;49079914674;382395772;257793601;8707273899;778206;171443001;1768;2338;753552;24;6668;957982
1;35;1572773559343;1572773566679;7336;16907368816;49079955716;380650247;257740839;8707288564;770713;171526939;1082;5262;1114336;-26;7335;1055238
1;36;1572773566679;1572773573477;6798;16922498796;49079955693;381884761;258095411;8707278099;818710;171492071;895;5234;1101776;1;6799;972597
1;37;1572773573477;1572773585109;11632;16917570128;49079919508;381217162;257863672;8707269661;787606;171582905;2510;6170;1651968;18;11632;1526879
1;38;1572773585109;1572773592635;7526;16927849988;49079932305;382522026;258188457;8707274340;797410;171746977;2035;2253;807296;-18;7526;1082652
1;39;1572773592635;1572773599436;6801;16926805796;49079920874;381360204;257942107;8707275370;873683;172043159;1042;4581;1011768;14;6801;976043
1;40;1572773599437;1572773606504;7067;16926823608;49079926333;381921851;258204597;8707274117;860880;171492516;1058;4681;1125976;-2;7068;1014247
1;41;1572773606505;1572773614520;8015;16927714354;49079948185;381491227;258239532;8707285431;813256;171432017;1610;4953;1197904;12;8016;1242432
1;42;1572773614520;1572773630473;15953;16909943818;49079884685;381761740;257295498;8707261940;777227;172616800;3773;6556;1811776;-102;15953;2194005
1;43;1572773630473;1572773637372;6899;16915277928;49079917079;381909440;257809855;8707267731;745202;171517170;1113;4465;992272;93;6899;804471
1;44;1572773637372;1572773644351;6979;16928744530;49079908238;381841744;258266962;8707265984;785364;172344699;1634;3142;993648;-4;6979;1077714
1;45;1572773644351;1572773651427;7076;16916953132;49079897157;382076972;258239278;8707271209;825960;172193384;2073;1789;725896;7;7076;1014088
1;46;1572773651427;1572773659605;8178;16916328252;49079921092;382000917;257813676;8707270782;820386;171866524;1492;4803;1092848;-20;8178;1172664
1;47;1572773659606;1572773673444;13838;16928648024;49079933407;382118278;257821592;8707282294;807284;172733734;2489;9293;2068104;27;13839;2065618
1;48;1572773673444;1572773681023;7579;16934483790;49079945866;381594327;258745945;8707283105;845280;171487368;1912;2076;830424;-24;7579;1083063
1;49;1572773681023;1572773688173;7150;16918405248;49079935253;382019464;257797538;8707279392;779126;171509838;1772;2542;823944;20;7150;1029035
1;50;1572773688173;1572773695834;7661;16915310924;49079960493;381713236;257666824;8707272185;836420;171322868;1148;5859;1174144;5;7661;1097834
1;51;1572773695834;1572773703234;7400;16930590554;49080077824;381946147;258416839;8707306967;800426;171751568;1365;5419;1142896;-12;7400;1167218
1;52;1572773703234;1572773710384;7150;16912212658;49080077492;381701698;257577177;8707307899;866341;171918981;1297;4044;1095352;-17;7150;1026282
1;53;1572773710384;1572773719162;8778;16885355666;49080003411;380318553;256288775;8707283814;705407;172844880;2526;2812;866216;3;8777;1257337
1;54;1572773719162;1572773731377;12215;16920828994;49079256997;380097435;257215451;8707125196;735942;168603153;2160;8094;1864424;16;12216;1750994
1;55;1572773731377;1572773738877;7500;16924760774;49079279254;381742467;258071937;8707121677;777695;167589630;1747;3638;1015952;-1;7500;1135864
1;56;1572773738877;1572773744496;5619;16910249542;49079183694;380802407;255913763;8707113975;738008;170069593;1623;987;567480;10;5619;798842
1;57;1572773744496;1572773753615;9119;16915109152;49079204469;380990889;256988083;8707108308;752613;169178014;1957;5647;1144272;-5;9119;1306287
1;58;1572773753615;1572773761346;7731;16910402112;49079221846;381495884;256471868;8707106919;706979;170095045;1105;5638;1231088;-17;7730;1115431
1;59;1572773761346;1572773768381;7035;16927165540;49079211196;381770241;258119454;8707110648;783611;167862179;1425;4994;1161832;5;7035;1084920
1;60;1572773768381;1572773780767;12386;16919146928;49079202802;380955948;257936197;8707110831;778245;167277933;2917;4903;1460992;-5;12386;1777381
1;61;1572773780767;1572773787825;7058;16912591090;49079194657;381089710;257887000;8707106086;759581;167535609;1748;2816;866448;13;7059;1016493
1;62;1572773787825;1572773795135;7310;16911956282;49079239313;380907083;257334813;8707124679;787785;168065361;1263;5404;1118648;-15;7310;1050812
1;63;1572773795136;1572773803096;7960;16923925362;49079266281;381906142;257083209;8707117126;870083;169571810;1729;5047;1154544;-1;7960;1227928
1;64;1572773803096;1572773812229;9133;16885312158;49079156109;380701031;255824169;8707095188;695812;169521841;2718;3247;964256;4;9134;1313825
1;65;1572773812229;1572773827992;15763;16926417582;49079299335;380700345;258296792;8707122664;824985;167457136;2679;8112;1976952;10;15763;2422823
1;66;1572773827992;1572773834522;6530;16912968062;49079109237;380820560;257444895;8707098101;766644;167831512;1703;1791;698792;-1;6530;943133
1;67;1572773834522;1572773843952;9430;16914893656;49079110537;380686543;256440389;8707092740;712789;169986312;2365;4812;1107752;2;9430;1357823
1;68;1572773843952;1572773851609;7657;16916840274;49079117390;381107706;255995859;8707100293;746572;170567381;1152;5953;1254664;0;7656;1098926
1;69;1572773851609;1572773858540;6931;16914716412;49079138612;380230659;257386347;8707104002;730428;168095890;1690;4547;1137008;-11;6932;1097004
1;70;1572773858540;1572773873037;14497;16932509140;49079151668;382017688;258221426;8707105205;914697;168273044;3549;5487;1707464;23;14497;2084216
1;71;1572773873037;1572773880173;7136;16921666450;49079102662;380715065;257881875;8707086176;742156;167625428;1460;3956;1026128;-20;7135;1021785
1;72;1572773880173;1572773886863;6690;16920393914;49079135876;381626895;257601671;8707101125;767237;168217679;1557;3694;938720;-6;6690;1063746
1;73;1572773886863;1572773893744;6881;16915306398;49079112032;381584217;257361270;8707095813;797943;168434402;1605;3470;954464;26;6882;984909
1;74;1572773893744;1572773903979;10235;16880935808;49079155794;380939462;253341557;8707101584;758990;172489397;2822;5096;1157000;-6;10235;1478530
1;75;1572773903980;1572773914542;10562;16887424340;49074951694;380743427;256945378;8707114626;744038;168290545;1649;6728;1638776;-16;10562;1517466
1;76;1572773914542;1572773921470;6928;16887974176;49070248586;382961496;257549134;8707098748;809333;168453642;1773;2975;866312;-8;6929;1087313
1;77;1572773921470;1572773928104;6634;16876399734;49070285060;382524933;256969934;8707113114;936327;169035894;1961;1402;655392;29;6634;947750
1;78;1572773928105;1572773937163;9058;16868898838;49070248434;381492910;256632747;8707098001;815836;168744802;1677;5720;1186688;-11;9059;1298425
1;79;1572773937163;1572773944983;7820;16850479186;49070190597;381167864;255473174;8707075639;701024;170318161;1393;4930;1164600;-18;7819;1119034
1;80;1572773944983;1572773952270;7287;16882311420;49070300596;381780745;257642423;8707110862;757061;168267351;1874;5151;1177520;24;7288;1178130
1;81;1572773952270;1572773967100;14830;16881258030;49070261091;382410152;257662927;8707096379;812996;168392307;3555;5444;1724304;-2;14830;2133255
1;82;1572773967100;1572773973912;6812;16881002530;49070272235;381688194;257424034;8707107496;759151;168453551;1568;2974;902480;0;6811;977438
2;30;1572774372794;1572774387085;14291;17672060314;52781555066;383202325;257764954;9708916039;755023;173102300;2362;8591;2007264;-50;14292;1861904
2;31;1572774387085;1572774394806;7721;17664132514;52781517353;382526821;258309940;9708905043;734819;172650277;1071;5262;1330160;-15;7721;773488
2;32;1572774394806;1572774402318;7512;17676186858;52781572568;383747116;258208300;9708919330;788359;172305716;1957;2686;909392;72;7511;1155023
2;33;1572774402318;1572774409756;7438;17669019718;52781563333;384235910;258321657;9708920864;772155;172865522;1873;2107;823744;-16;7439;1064363
2;34;1572774409756;1572774416638;6882;17651080698;52781485725;383715264;257464408;9708899470;762850;172520741;1052;4698;1009960;4;6882;989659
2;35;1572774416638;1572774423879;7241;17666129794;52781575193;384431773;258158500;9708926857;763748;173247531;936;5689;1171624;-8;7240;1040025
2;36;1572774423879;1572774436430;12551;17673079832;52781509456;383946572;258104447;9708899591;750098;172914924;2920;4965;1579352;-9;12552;1738633
2;37;1572774436430;1572774444021;7591;17665656900;52781479056;383267705;258039560;9708896701;790172;173058535;1834;2916;892336;25;7591;1088430
2;38;1572774444021;1572774451485;7464;17656850180;52781502066;383732205;258132354;9708900807;751316;172919777;1066;5198;1206576;-10;7463;1071702
2;39;1572774451485;1572774458407;6922;17668796338;52781512891;384195662;257935115;9708909126;813156;173621808;1052;5053;1102104;8;6923;988048
2;40;1572774458407;1572774466072;7665;17669309674;52781516331;383582105;257976772;9708903421;777219;172197986;1681;4103;1187256;-10;7664;1178728
2;41;1572774466072;1572774482220;16148;17663818760;52781532223;384694543;257932975;9708916085;831443;173933473;4247;5936;1898448;-74;16149;1867656
2;42;1572774482220;1572774489517;7297;17667522488;52781522855;383615700;258268225;9708900307;813427;173478723;1036;4705;1144256;65;7296;783640
2;43;1572774489517;1572774497127;7610;17662362410;52781539224;384635054;258532033;9708909572;795667;172680286;1885;2844;953832;1;7611;1156862
2;44;1572774497127;1572774504625;7498;17667008860;52781502518;384475618;258365044;9708896534;769176;173074559;2036;2176;808312;13;7498;1074298
2;45;1572774504625;1572774512526;7901;17659461390;52781511773;384369435;258220234;9708908387;775160;172777599;1429;5328;1098768;11;7901;1133427
2;46;1572774512526;1572774524552;12026;17663314914;52781517174;384327930;258142300;9708907246;757288;174646871;2214;7921;1873176;-20;12026;1684120
2;47;1572774524552;1572774532251;7699;17672802432;52781519093;383609669;258552423;9708908936;767785;172837195;2175;1897;838984;1;7699;1102109
2;48;1572774532252;1572774539229;6977;17660732028;52781543067;383810632;258193750;9708919079;769887;173160304;1521;3470;904688;15;6977;998051
2;49;1572774539229;1572774546267;7038;17672175800;52781504432;384711189;258032286;9708902612;770530;173369266;983;5248;1113456;-23;7039;1008211
2;50;1572774546268;1572774553245;6977;17664930696;52781545264;384434186;258220459;9708906031;760182;173682439;1009;5124;1132552;184;6977;1010453
2;51;1572774553245;1572774560266;7021;17668612086;52781722797;383862287;258003185;9708946132;755970;174446775;1598;4274;1094984;-186;7022;1074977
2;52;1572774560266;1572774575362;15096;17663455366;52781597854;384078362;258650556;9708927245;771886;172481599;3769;5599;1786536;21;15095;2053431
2;53;1572774575362;1572774582963;7601;17650599336;52781668992;383506488;258186062;9708929969;797840;172700419;1159;4851;1228328;-6;7601;1092049
2;54;1572774582963;1572774590265;7302;17601378502;52780824967;384437300;257790314;9708750855;759658;172738852;1858;3322;997552;15;7303;1171227
2;55;1572774590265;1572774597658;7393;17592144148;52780875156;384145547;257104365;9708757382;823524;172656645;2077;1610;767496;-29;7392;1058383
2;56;1572774597658;1572774606140;8482;17577324710;52780809331;384421713;256637183;9708756295;740423;172677539;1766;5210;1078872;26;8482;1220264
2;57;1572774606140;1572774619261;13121;17599587374;52780729896;383862281;257214595;9708727683;732042;172244645;2600;8034;1970624;-17;13122;1672364
2;58;1572774619261;1572774627446;8185;17611174080;52780739368;385397213;257719486;9708731611;790004;172719914;2308;2001;857624;-2;8184;1171500
2;59;1572774627446;1572774634433;6987;17597481762;52780737690;385092834;257135560;9708729776;748512;172224182;1446;3453;967104;-6;6988;1005471
2;60;1572774634434;1572774641541;7107;17583928582;52780766813;384345164;257178322;9708744479;793356;172682133;1031;5400;1117800;25;7108;1021479
2;61;1572774641541;1572774648793;7252;17598280966;52780731707;384601750;257585389;9708731684;810990;172523354;1345;4734;1103552;-24;7252;1153968
2;62;1572774648793;1572774666390;17597;17583799226;52780751723;385123030;257295509;9708740784;784546;172442522;4145;6243;1941096;11;17596;2588705
2;63;1572774666390;1572774673860;7470;17617516466;52780796358;385228886;257546224;9708736545;765691;172869756;1536;3752;1016520;-1;7471;1068071
2;64;1572774673860;1572774681167;7307;17602851350;52780730740;385143003;257740644;9708732243;756954;172615096;1158;4788;1218840;-6;7306;1047957
2;65;1572774681167;1572774688902;7735;17602529712;52780750486;384439766;257884078;9708732198;835283;171555018;1294;5297;1344416;2;7735;1113666
2;66;1572774688902;1572774696848;7946;17604891846;52780744607;385068237;257871615;9708736217;818211;171506340;2114;3023;1024240;3;7947;1227784
2;67;1572774696848;1572774711971;15123;17580778778;52780728502;384045307;257241058;9708734263;737097;171602711;4064;5685;1822360;-45;15122;1800697
2;68;1572774711971;1572774719335;7364;17590698894;52780734447;384116774;257675673;9708739406;757930;171642522;1299;4698;1157648;58;7365;980229
2;69;1572774719335;1572774727010;7675;17600492574;52780720057;383680143;257537042;9708731510;751752;171878723;1888;3143;1015896;-22;7675;1187515
2;70;1572774727010;1572774734381;7371;17599398450;52780744584;384185418;257627439;9708743290;775055;171207176;2051;1800;775080;-2;7371;1055961
2;71;1572774734382;1572774742350;7968;17587942998;52780713776;384252081;256803933;9708723573;768601;171810550;1557;4889;1081920;11;7969;1145690
2;72;1572774742350;1572774755860;13510;17582286374;52780731263;383752156;256650686;9708731978;750542;171582001;2637;8664;2047744;16;13510;2029097
2;73;1572774755860;1572774763055;7195;17599594966;52780689340;383834683;257467422;9708718663;744720;171606145;1978;1590;749192;-25;7194;1029132
2;74;1572774763055;1572774770096;7041;17556169602;52780683283;383229999;255081153;9708726824;702911;172438601;1702;2988;855160;27;7042;1017733
2;75;1572774770096;1572774777970;7874;17583251142;52780738764;383951273;256809778;9708735148;727874;171557640;1168;5875;1235240;-16;7873;1132753
2;76;1572774777970;1572774785351;7381;17578590676;52780728797;383452702;256959832;9708734557;769202;171809668;1432;5388;1078376;6;7382;1200130
2;77;1572774785351;1572774792707;7356;17586715576;52780746402;383678445;257170587;9708742515;760964;171865699;1434;5319;1209024;8;7356;1048341
2;78;1572774792707;1572774809002;16295;17587824008;52780728832;383854648;257383687;9708730920;720544;171517337;3884;5785;1896632;-24;16295;2247377
2;79;1572774809002;1572774816390;7388;17593412304;52780705041;384992054;257661732;9708721269;766902;171393612;1351;4790;1157024;162;7388;1132169
3;32;1572775231932;1572775239247;7315;17197589514;49455736794;378975488;254843574;8804911059;874896;165260919;1619;4040;1108712;54;7315;774455
3;33;1572775239247;1572775246379;7132;17203006114;49455820322;378345974;254892129;8804940921;795410;165057029;2059;1796;748192;21;7132;1028647
3;34;1572775246379;1572775253620;7241;17190618598;49455768768;378915357;254497570;8804918482;783850;165126045;1211;4166;1013224;-27;7241;1034890
3;35;1572775253620;1572775260567;6947;17192934450;49455750924;378456878;254542734;8804914934;912258;165137926;915;5311;1112680;14;6949;997392
3;36;1572775260569;1572775273296;12727;17194466720;49455767738;378317440;254696218;8804918673;862326;165221437;2666;6855;1814576;11;12727;1644794
3;37;1572775273296;1572775280764;7468;17203099116;49455726635;379601948;254972056;8804918151;822368;165227217;2073;2136;800584;-25;7468;1071032
3;38;1572775280764;1572775288432;7668;17207901494;49455802907;378666998;254723883;8804929910;806036;165121821;1261;4831;1090680;20;7668;1099776
3;39;1572775288432;1572775295421;6989;17199648114;49455737585;379675854;254982674;8804922197;821206;165177735;1071;4488;1079736;-15;6989;999445
3;40;1572775295421;1572775302722;7301;17193015772;49455717327;378437918;254667737;8804913897;792887;165100820;1306;4584;1213032;15;7301;1099395
3;41;1572775302722;1572775309944;7222;17189734422;49455737459;378629173;254277665;8804908112;781933;165419884;1973;1886;769768;-21;7222;1037266
3;42;1572775309944;1572775325184;15240;17196364720;49455807830;378007404;255163216;8804932049;818676;165078708;2800;9174;2072144;13;15240;1916032
3;43;1572775325184;1572775332326;7142;17197045664;49455762201;377890183;254730141;8804916514;789599;165210828;1511;3875;1091832;0;7142;1085392
3;44;1572775332326;1572775339738;7412;17205517168;49455761017;378957514;254902175;8804926712;800268;165421664;1964;1635;748552;-10;7412;1056817
3;45;1572775339738;1572775347010;7272;17195293956;49455741869;378723263;254471926;8804913780;953214;165352856;1576;3919;967432;24;7272;1039908
3;46;1572775347010;1572775354899;7889;17179428720;49455777237;378840138;254253410;8804933357;865230;165280907;1219;5561;1169040;-3;7890;1132388
3;47;1572775354900;1572775368012;13112;17192178170;49455734473;378628173;254811468;8804917904;851845;165268504;2982;6623;1801232;-1;13112;1835072
3;48;1572775368012;1572775375685;7673;17211046480;49455719721;378332927;255124626;8804904933;821362;165151957;1961;2688;882336;-9;7673;1094764
3;49;1572775375685;1572775382434;6749;17190435368;49455793720;378963591;254459643;8804932541;803838;165132788;1026;4969;1052928;-2;6749;966082
3;50;1572775382434;1572775389032;6598;17196726070;49455810780;378561296;254619552;8804927355;834611;165247365;937;4787;1050600;-9;6598;947114
3;51;1572775389032;1572775396347;7315;17205175674;49455925072;378818553;255088119;8804958643;841591;165136141;1353;5073;1220832;27;7315;1091399
3;52;1572775396347;1572775410921;14574;17175457520;49455854432;378466387;254263170;8804932500;772976;165243718;3781;5015;1667976;-111;14574;2027071
3;53;1572775410921;1572775418821;7900;17196027460;49456009971;378527023;254828467;8804961271;902710;165040182;1252;4806;1257584;99;7900;826482
3;54;1572775418821;1572775426548;7727;17189502866;49454973607;378483436;254355125;8804739894;798613;165425027;1748;3897;1087984;12;7727;1189302
3;55;1572775426548;1572775434199;7651;17189579224;49455033099;378453582;254620756;8804764222;840150;165339134;2098;1868;811712;-18;7651;1099823
3;56;1572775434199;1572775441854;7655;17187010792;49454973900;378470785;253645997;8804742632;840721;165666869;1671;4148;1003032;-7;7655;1097296
3;57;1572775441854;1572775455251;13397;17173485936;49455027299;377261959;254023818;8804766555;862767;165471121;2266;9507;2023616;-82;13397;1810626
3;58;1572775455251;1572775462862;7611;17193639192;49454981314;377560813;254466053;8804742866;824319;165089035;2019;2179;849544;100;7611;1058892
3;59;1572775462862;1572775470282;7420;17193722120;49454988152;378192181;254218538;8804748270;770412;165617529;1928;3104;878960;-5;7420;1056544
3;60;1572775470282;1572775477234;6952;17181262334;49454976233;378679296;254034260;8804744865;793722;165189187;1006;5093;1099904;-14;6952;994849
3;61;1572775477234;1572775484507;7273;17200585726;49455020987;377573197;254373203;8804759868;857389;165096654;1090;5351;1195128;-2;7273;1043148
3;62;1572775484507;1572775491788;7281;17192185178;49455012538;377062108;253839931;8804751820;825475;165265837;1458;4707;1203872;28;7281;1171495
3;63;1572775491788;1572775506991;15203;17183118140;49455115606;377492119;253694895;8804783644;805622;165652816;3980;5842;1692952;-10;15203;2083856
3;64;1572775506991;1572775513934;6943;17182500998;49454995566;377349374;254077214;8804749284;808181;165261067;1040;4483;1074360;-16;6943;997383
3;65;1572775513934;1572775521106;7172;17198650934;49454974511;377576534;254262437;8804742585;914657;165105659;1657;3758;1055720;11;7172;1131545
3;66;1572775521106;1572775528290;7184;17177399466;49454933721;377939595;254277252;8804740167;893938;165285392;1909;1777;754688;11;7184;1031725
3;67;1572775528290;1572775536587;8297;17174290396;49454952538;378698899;253604226;8804743085;865072;165151847;1894;4737;1016432;-5;8297;1186616
3;68;1572775536587;1572775550187;13600;17182264916;49454986602;377393344;254060246;8804749742;774543;165331532;2667;8184;1962456;20;13600;1717985
3;69;1572775550187;1572775557566;7379;17190682984;49454939452;378537655;254483335;8804728487;797096;165280678;1535;1642;662704;-25;7379;1062947
3;70;1572775557566;1572775564958;7392;17174762706;49454975703;378174582;253689141;8804750858;794386;165091644;2035;1890;752544;12;7392;1059310
3;71;1572775564958;1572775574046;9088;17159965606;49454960841;377378328;252443063;8804733459;788402;166578711;1659;5974;1265904;-27;9088;1304507
3;72;1572775574046;1572775582005;7959;17165674060;49454971948;377948426;253100746;8804753304;804243;165911750;1512;5665;1158880;-1;7959;1188705
3;73;1572775582005;1572775598193;16188;17187076054;49454956491;377625548;254176687;8804740373;869087;165413219;3969;7066;2036440;6;16188;2259686
3;74;1572775598193;1572775605226;7033;17179439378;49448321755;378223033;253890913;8804772801;806459;165717488;1303;4023;996704;9;7033;1010425
3;75;1572775605226;1572775612231;7005;17151688282;49446072103;378260760;253371406;8804735848;771721;165663890;1429;4478;1080112;-1;7005;1081831
3;76;1572775612231;1572775619611;7380;17157937228;49446070597;377676555;253593450;8804741387;771632;165789760;1734;2851;978192;-6;7380;1056939
3;77;1572775619611;1572775626347;6736;17143569514;49446024698;378597030;253105966;8804728036;776168;166064955;1890;2048;727992;-2;6736;965128
3;78;1572775626347;1572775641285;14938;17141490766;49446120021;377890339;252738297;8804756478;847853;166057833;2677;9910;2166384;-91;14938;1878096
3;79;1572775641285;1572775648532;7247;17159612578;49446091794;378775272;253704596;8804745435;820686;165633964;2024;2939;913520;99;7247;910289
3;80;1572775648532;1572775655883;7351;17163728756;49446068049;378835731;253374411;8804747929;782163;165885276;2056;2363;789920;-6;7351;1052559
3;81;1572775655883;1572775662685;6802;17161329830;49446037735;377473702;253277435;8804734612;790082;165756620;1133;4779;1019328;20;6802;975321
4;34;1572776089476;1572776097000;7524;16745630600;47063771166;378456606;254085739;8306954094;835062;165031553;1621;3890;947864;-21;7524;1079004
4;35;1572776097000;1572776104609;7609;16742593800;47063800304;377116386;253451637;8306973485;781502;164875767;1101;5130;1175824;19;7610;1092332
4;36;1572776104609;1572776117110;12501;16744240680;47063798487;379096653;253570557;8306963061;801321;165343839;2305;8946;1932040;-29;12501;1900109
4;37;1572776117110;1572776124563;7453;16757328120;47063811520;378440702;254286079;8306981349;798125;165184586;1919;1923;800528;20;7453;1067007
4;38;1572776124563;1572776131782;7219;16752329226;47063775713;378123842;253870298;8306964336;787276;164886578;1683;3258;847000;-19;7219;1036841
4;39;1572776131783;1572776139198;7415;16738944968;47063811695;377435555;253700625;8306981323;842502;165049534;962;5460;1147984;-1;7416;1064811
4;40;1572776139198;1572776146483;7285;16758011838;47063823236;378142442;253801295;8306973826;821651;165101438;1218;5554;1125680;6;7285;1082467
4;41;1572776146484;1572776153242;6758;16751566230;47063845578;378752528;253541572;8306975821;904573;165268510;1497;2500;880456;7;6759;973453
4;42;1572776153242;1572776169152;15910;16743217366;47063834251;377543087;253452589;8306978247;765459;165621149;3345;8679;1968952;-9;15909;2027060
4;43;1572776169152;1572776176252;7100;16750323770;47063828923;376618857;254013854;8306980122;819950;164878450;1333;4169;1100392;23;7101;1094002
4;44;1572776176252;1572776183193;6941;16748226334;47063805079;378610048;253961565;8306972372;824207;165366650;1922;1865;754720;0;6940;1007178
4;45;1572776183193;1572776190518;7325;16748749160;47063850720;377384979;253959736;8306988952;781853;164940491;1732;3540;862144;-4;7326;1047563
4;46;1572776190518;1572776197515;6997;16736104538;47063831486;377792956;253617061;8306977782;791465;164807653;1043;4990;1056544;-19;6996;1001815
4;47;1572776197515;1572776209703;12188;16742060316;47063817443;378020550;253919509;8306968398;793903;165193783;2145;8357;1893752;2;12188;1815280
4;48;1572776209703;1572776216431;6728;16751944662;47063802533;377696255;253858168;8306975465;871064;164912085;1949;1628;710712;3;6728;967836
4;49;1572776216431;1572776223719;7288;16752504134;47063809526;378215001;254158167;8306972821;855876;165158296;1545;3613;895424;-9;7288;1040520
4;50;1572776223719;1572776230579;6860;16732439792;47063883404;378687280;253681330;8306989076;816691;165192838;966;5438;1084880;26;6860;982437
4;51;1572776230579;1572776238042;7463;16749860220;47063948662;378025493;254208401;8306989914;861155;164938743;1355;5423;1135856;0;7463;1125447
4;52;1572776238042;1572776244926;6884;16745383714;47063950185;377739800;253898879;8307006794;836447;165268397;1299;3537;1086208;-16;6885;990291
4;53;1572776244927;1572776260280;15353;16733063796;47064075602;378881926;253574557;8307010969;824579;166512024;3828;7232;1746944;-88;15354;1878645
4;54;1572776260280;1572776267220;6940;16745741268;47063107256;377087571;253717788;8306824579;784376;165110934;1156;4484;1006424;98;6939;787116
4;55;1572776267220;1572776274062;6842;16755321204;47062968910;378100642;253811915;8306787896;832469;165536122;1713;2856;924416;3;6845;1075165
4;56;1572776274065;1572776281261;7196;16745547964;47063012300;376636648;253418226;8306806584;773035;165126973;2079;1968;733632;1;7197;1030649
4;57;1572776281262;1572776288859;7597;16723003958;47062953895;376561995;253039950;8306776725;784750;165336626;1283;5037;1066360;-3;7598;1091112
4;58;1572776288860;1572776302189;13329;16723537004;47063015712;377538642;253273020;8306801387;818941;165872459;2420;8935;1996416;-29;13329;1856795
4;59;1572776302189;1572776309393;7204;16751122244;47062967132;377247282;253937764;8306784326;804544;165093379;1967;1792;774688;32;7204;1018721
4;60;1572776309393;1572776316160;6767;16740211664;47063035254;377456543;253469902;8306805923;820338;165102341;1633;2965;798720;-1;6767;969614
4;61;1572776316160;1572776323063;6903;16729395254;47063014386;376812361;253433198;8306796288;766965;165237141;997;5240;1079824;-5;6903;991931
4;62;1572776323063;1572776329906;6843;16739767532;47063054698;376661730;253398434;8306815693;774834;165032644;997;5213;1072520;-5;6844;984382
4;63;1572776329907;1572776336986;7079;16734998004;47063041907;376505068;253317141;8306803007;881164;165363259;1476;4472;1130344;18;7080;1119187
4;64;1572776336986;1572776352952;15966;16739730156;47063085454;377107870;253736946;8306800698;787972;165060196;3968;6716;1814760;-38;15965;2122922
4;65;1572776352952;1572776360303;7351;16746191386;47062980357;376322573;253646085;8306796943;780750;164990221;1536;2956;825400;23;7351;1192999
4;66;1572776360303;1572776367184;6881;16734583510;47062955266;377929047;253433711;8306783434;798886;165251321;1700;1315;582040;2;6881;1001812
4;67;1572776367184;1572776376971;9787;16713554692;47062991347;377278568;252580090;8306799106;766270;165396984;1969;6042;1280880;-17;9788;1404632
4;68;1572776376972;1572776384622;7650;16731870392;47062985994;377227775;253170447;8306782741;820784;165087464;1169;5673;1301024;16;7650;1099911
4;69;1572776384622;1572776395679;11057;16748178446;47062939482;376121385;253218806;8306781382;789065;165010600;2280;6809;1786760;12;11058;1653138
4;70;1572776395680;1572776402667;6987;16752059856;47062961316;376714903;253867292;8306782108;786111;164937217;2062;1618;700976;-14;6988;1004500
4;71;1572776402668;1572776409488;6820;16735327964;47062962581;377471384;253479490;8306792960;798682;165158958;1374;3796;909800;4;6820;975386
4;72;1572776409488;1572776416310;6822;16732363580;47062964671;377176157;253289612;8306785644;819008;165281876;1028;5210;1085624;-4;6822;977624
4;73;1572776416310;1572776423583;7273;16743099690;47063026445;376963650;253370463;8306809675;771500;165156077;1406;5332;1138920;3;7274;1114317
4;74;1572776423583;1572776430749;7166;16736334634;47062989181;377700461;252719907;8306790815;768947;165833898;1840;1958;819760;-16;7165;1028032
4;75;1572776430749;1572776446985;16236;16727386148;47062975559;377072405;253337614;8306785910;775028;165419894;3488;8780;2004384;-10;16236;2018688
4;76;1572776446985;1572776454155;7170;16750809804;47062997066;376845655;253800540;8306795022;794673;165289661;1701;3919;1067680;20;7170;953093
4;77;1572776454155;1572776461065;6910;16749659762;47062994519;378093685;253839328;8306797226;784689;165106502;2014;1485;672304;2;6910;988323
4;78;1572776461065;1572776468072;7007;16728801764;47062989664;376936394;253071669;8306793973;805912;165225509;1429;4235;938528;12;7008;1005092
4;79;1572776468072;1572776475318;7246;16736769568;47062996022;376333959;253303700;8306798819;768066;165223707;1210;4913;1085992;-26;7246;1036005
4;80;1572776475319;1572776488759;13440;16751594554;47063049601;377517941;253727614;8306808414;793790;165029222;2764;8746;2123952;23;13386;1801418
4;81;1572776488759;1572776495746;6987;16741624360;47062980394;376534657;253670607;8306782616;781899;165048626;2046;1535;709128;2;6987;1002007
4;82;1572776495746;1572776502527;6781;16737420144;47062968668;377274086;253458389;8306795377;776806;165205236;1444;3531;877504;-4;6781;976353
4;83;1572776502527;1572776509369;6842;16752460918;47062960888;376701236;253547954;8306783620;804337;165119364;1027;5021;1081336;-3;6843;983324
