0;36;1573999894734;1573999902341;7607;17049531644;49281899661;376142143;253898963;8710829356;946764;168216526;888;1168;753272;-2;2950;9183
0;37;1573999902341;1573999910263;7922;17053408674;49281835770;376649815;254039739;8710802109;964138;168136841;904;1202;803816;0;2922;8871
0;38;1573999910263;1573999918416;8153;17055313974;49281840641;377519077;254425572;8710815271;949957;168270739;1621;516;873480;3;5062;27462
0;39;1573999918416;1573999926645;8229;17054706030;49281864351;376751669;254218202;8710821580;940333;168341561;1300;1361;843800;-5;3952;92482
0;40;1573999926645;1573999935164;8519;17064044774;49281797440;376849084;254397947;8710792362;941993;168166350;877;1272;862920;2;3279;9548
0;41;1573999935164;1573999943063;7899;17053615556;49281851121;376662160;254269761;8710816023;948696;167798831;1017;1128;855088;13;3432;14003
0;42;1573999943063;1573999951927;8864;17064671844;49281851200;377036354;254573502;8710809784;955164;168122592;1792;429;976336;-1;5029;22564
0;43;1573999951927;1573999960115;8188;17066668248;49281870353;378199546;254495486;8710823256;944899;168270269;1535;1102;846664;-7;4852;140538
0;44;1573999960115;1573999968745;8630;17059276706;49281882457;377044175;254295161;8710828072;943347;168443689;971;1223;891584;-7;3385;10839
0;45;1573999968745;1573999977302;8557;17060124236;49281821849;377356954;254578460;8710800191;964717;168134510;1388;796;886640;1;4001;18484
0;46;1573999977302;1573999986167;8865;17073023482;49281794423;377944483;254541497;8710797802;953997;168389643;1747;1079;1014280;2;5559;153741
0;47;1573999986168;1573999994774;8606;17060830876;49281849548;377043695;254489677;8710811852;936547;167951738;1053;1136;888672;-3;3485;11227
0;48;1573999994774;1574000002993;8219;17063054748;49281836811;377499785;254396114;8710818663;938818;168334348;962;1216;857144;5;3081;9853
0;49;1574000002993;1574000012128;9135;17073241022;49281824408;377398583;254413496;8710805609;973936;168230706;1679;580;1007456;8;4697;22530
0;50;1574000012129;1574000021354;9225;17070726464;49281912117;377386476;254807438;8710819302;947060;168302373;1930;992;1065120;-12;5807;164278
0;51;1574000021354;1574000029698;8344;17066381504;49282103999;375970125;254402761;8710862907;945248;168099592;1003;1205;878520;-1;3447;12133
0;52;1574000029698;1574000038351;8653;17062261530;49281862607;377715627;254307012;8710821152;972281;168687401;1148;976;788456;15;3256;12664
0;53;1574000038351;1574000046928;8577;17041590850;49282042728;376178593;254305155;8710842903;941943;167523016;1746;881;828520;59;4712;90293
0;54;1574000046928;1574000055780;8852;16991762218;49281171454;374748573;254332000;8710654818;951994;165717338;1169;1180;1013856;-71;4223;31066
0;55;1574000055780;1574000064124;8344;16980581684;49281236679;376302795;254003232;8710666434;934664;165410894;1021;1171;838216;-3;3336;12314
0;56;1574000064124;1574000072721;8597;16976722320;49281047744;374502550;254165820;8710635973;963641;165249752;1571;685;935320;8;4418;22603
0;57;1574000072721;1574000081007;8286;16980820102;49281073297;374805768;253980329;8710650058;945705;165212259;1978;825;918856;-1;6008;144485
0;58;1574000081008;1574000089271;8263;16980424880;49281032476;374704554;254114303;8710626193;941659;165232121;988;1216;841720;-2;3425;11523
0;59;1574000089271;1574000097538;8267;16974297114;49281044376;375762126;253919832;8710636049;931088;165474555;965;1214;823904;1;3117;10998
0;60;1574000097538;1574000105788;8250;16973074072;49281060784;375916435;254000762;8710636339;927348;165472647;1742;435;800600;0;4239;23224
0;61;1574000105788;1574000113224;7436;16978024786;49281022847;376130135;253566283;8710620675;935822;165248245;1346;1301;777416;0;3886;115873
0;62;1574000113225;1574000121253;8028;16975234580;49281119077;375045471;253977770;8710664762;930404;165361266;981;1232;847424;-3;3105;9907
0;63;1574000121253;1574000129671;8418;16977217260;49281078984;375728963;254059342;8710637991;947042;165284369;1344;1274;820928;36;4649;142889
0;64;1574000129671;1574000138408;8737;16976579386;49281011208;376035444;254249799;8710618054;950316;165327220;1362;1275;1012856;-39;7419;201277
0;65;1574000138408;1574000146735;8327;16973807576;49281073565;376066622;254183757;8710647098;923804;165456836;1793;400;823904;0;4339;23631
0;66;1574000146735;1574000155212;8477;16977784616;49281015506;376215568;253995234;8710625598;934498;165411383;1843;433;909744;7;5381;31676
0;67;1574000155212;1574000163330;8118;16965175910;49281045973;376474652;253860558;8710639012;951318;165490912;1507;1282;882200;-7;4459;150423
0;68;1574000163330;1574000170828;7498;16975396056;49281062976;376195767;253662682;8710647597;932396;165447823;1084;1186;812728;5;3408;15277
0;69;1574000170829;1574000179532;8703;16981081004;49281012681;375772727;254101509;8710620964;928317;165323402;1057;1207;898368;10;3478;14824
0;70;1574000179532;1574000188648;9116;16979832266;49280993246;375904177;254316602;8710618882;929711;165295086;1925;424;966744;-11;4739;26301
0;71;1574000188648;1574000197300;8652;16987846206;49281078600;375335904;254082313;8710645377;940588;165459466;1755;1104;1004176;-4;5939;174944
0;72;1574000197300;1574000205654;8354;16967890488;49281052424;375101489;254026048;8710644113;925077;165617935;981;1267;847432;0;3081;10664
0;73;1574000205654;1574000213699;8045;16985448594;49281026399;376260148;253960494;8710629789;967129;165604057;1447;811;876488;13;4052;23394
0;74;1574000213699;1574000221999;8300;16984933652;49281028815;376423540;254108548;8710628299;945401;165602874;1786;991;844240;31;4684;98754
0;75;1574000221999;1574000231185;9186;16987012108;49281045745;376344699;254253997;8710637433;963947;165357091;1313;1170;1113336;-44;4970;47062
0;76;1574000231185;1574000239244;8059;16979403610;49281077928;375665564;253802739;8710646417;996049;165742696;1070;1177;852960;5;3202;11814
0;77;1574000239245;1574000247311;8066;16979042406;49281012805;375839148;254013991;8710624604;1027533;165408665;1578;646;789056;-5;3989;22458
0;78;1574000247311;1574000255675;8364;16982636488;49281038336;375330634;253717185;8710634437;921718;165467528;2163;649;831768;16;5292;145281
0;79;1574000255676;1574000263785;8109;16972702356;49281032330;374806377;253889355;8710632102;903338;165287464;1077;1156;799176;-7;3121;11756
0;80;1574000263785;1574000271649;7864;16977589414;49281011175;374698292;253634988;8710619465;921346;165601475;1049;1179;812176;1;2849;11070
0;81;1574000271649;1574000279745;8096;16983152306;49281081981;375407005;253928219;8710654780;928838;165703843;1768;511;865032;5;4751;38679
0;82;1574000279745;1574000287812;8067;16971727660;49281008290;375775329;253958112;8710626030;959335;165264524;1598;1270;907152;-15;4504;128139
0;83;1574000287812;1574000295673;7861;16972127408;49281027908;375627770;253891194;8710630186;928235;165344830;1065;1181;823704;9;3250;11721
0;84;1574000295673;1574000303885;8212;16967643748;49281057794;375975085;254003904;8710640886;916175;165630601;1158;1078;823904;5;3226;13711
0;85;1574000303885;1574000312301;8416;16980491602;49280982977;375817217;254101827;8710612569;937477;165659338;1891;408;865304;-14;4386;23625
1;36;1574000728926;1574000737117;8191;17010949684;49849526644;378167908;253960076;8896648369;710106;166024604;1016;1120;859392;-9;3386;10797
1;37;1574000737118;1574000745505;8387;17018484160;49849455770;378693199;253914863;8896629838;701033;166060007;1543;547;826984;13;3741;15560
1;38;1574000745505;1574000753211;7706;17009999808;49849487092;377469101;253459791;8896645057;690006;166268249;1920;778;874744;-3;5338;179993
1;39;1574000753211;1574000761210;7999;17018123978;49849464251;378764023;253914322;8896642704;804891;166264131;909;1176;796352;-4;2962;9436
1;40;1574000761210;1574000768878;7668;17000473308;49849465058;378668383;253744482;8896628684;703562;166147916;873;1199;759480;4;2719;7687
1;41;1574000768878;1574000777290;8412;17012866226;49849443533;378370239;254121988;8896625487;704414;166097714;1524;612;853224;-8;3932;17659
1;42;1574000777290;1574000785583;8293;17020785266;49849480742;378380574;253879844;8896638955;703298;165979137;1372;1315;909720;4;4209;89049
1;43;1574000785583;1574000794128;8545;17010078502;49849524672;378698180;254104393;8896656798;700526;166066135;1007;1195;929784;-6;3451;10425
1;44;1574000794128;1574000802642;8514;17013775368;49849462339;378326294;254154881;8896629793;708179;166280217;1107;1073;882448;1;3461;14265
1;45;1574000802643;1574000810768;8125;17002846976;49849429563;377664170;253821578;8896622933;687881;166149496;1711;435;835800;4;4190;20379
1;46;1574000810768;1574000819625;8857;17022570700;49849463419;377933518;254216567;8896634663;710459;166013744;1619;1180;987168;-5;5124;208980
1;47;1574000819626;1574000828095;8469;17012026288;49849471332;378618020;253929425;8896641325;697279;166242290;908;1230;812232;0;2980;8920
1;48;1574000828095;1574000836479;8384;17024390152;49849474198;377655833;254008982;8896636750;698544;166011397;1337;814;847360;0;3675;15459
1;49;1574000836480;1574000844800;8320;17015236682;49849441669;378007273;254005956;8896629317;694907;166489777;1626;1094;935608;10;4688;127460
1;50;1574000844800;1574000853342;8542;17008472794;49849547534;378440655;254173150;8896649799;701590;166102755;1122;1093;905968;-4;3542;12019
1;51;1574000853342;1574000861964;8622;17026950700;49849688516;377278598;253955300;8896671657;701560;165946920;976;1241;886768;-5;3210;10995
1;52;1574000861965;1574000870566;8601;17017549906;49849590653;378159911;254015220;8896674612;704508;166322635;1665;563;913856;-1;3862;16643
1;53;1574000870566;1574000879482;8916;17027440822;49849740710;378604807;254348901;8896679559;725654;166088142;1943;920;1046424;0;5925;264424
1;54;1574000879483;1574000888155;8672;17009982434;49848723393;377544905;253991667;8896466530;704834;165135123;1011;1226;917728;0;3541;11876
1;55;1574000888156;1574000896429;8273;17014432806;49848691482;376760117;253640554;8896468753;689809;165347519;1144;1040;858880;14;3326;12409
1;56;1574000896429;1574000904432;8003;17009417560;49848646064;377027747;253717913;8896444334;691960;165305512;1427;778;847720;-9;3692;16525
1;57;1574000904432;1574000913047;8615;17015979530;49848750389;376679168;253805414;8896492576;691041;165205261;1435;1333;986936;-5;4602;126146
1;58;1574000913047;1574000921519;8472;17010882962;49848671065;376504553;253772988;8896462576;683915;165214989;977;1209;823968;0;3070;10071
1;59;1574000921520;1574000929221;7701;17003914820;49848639928;377225356;253588941;8896441431;696757;165329287;1412;726;782592;11;3385;14897
1;60;1574000929221;1574000936813;7592;17015850758;49848710715;377801335;253529998;8896473842;700325;165368087;1985;659;820408;8;5297;102320
1;61;1574000936814;1574000945018;8204;17013159540;49848724446;376944712;253861895;8896462020;711461;165330771;1097;1129;894008;-12;3946;26536
1;62;1574000945018;1574000953986;8968;17006460184;49848704120;376019328;253874381;8896473898;686809;164885906;1029;1224;911920;-2;3309;11047
1;63;1574000953987;1574000962297;8310;17002598922;49848717643;376970819;253835680;8896476822;692198;164917338;1567;624;830032;-5;3862;18055
1;64;1574000962298;1574000970265;7967;17009086578;49848642963;376927343;253493722;8896444422;690148;165089033;1597;1151;857360;0;4440;119375
1;65;1574000970265;1574000979046;8781;17014922198;49848672629;376091242;253824401;8896465781;688920;165209921;1025;1233;917464;4;3576;11783
1;66;1574000979046;1574000988410;9364;17023411368;49848659840;376294230;253921977;8896455789;688218;165095525;1149;1168;970824;1;3449;11313
1;67;1574000988411;1574000996477;8066;17015846232;49848695781;377183716;253786369;8896471436;696029;165211283;1834;409;870904;-5;4232;23366
1;68;1574000996478;1574001005197;8719;17027466372;49848707129;376684784;253797378;8896469701;738468;165358177;1603;1091;905960;5;4872;149809
1;69;1574001005197;1574001013169;7972;17007082728;49848673086;376154437;253567992;8896455265;687393;165290979;1047;1199;859440;-5;3270;12189
1;70;1574001013170;1574001021758;8588;17013849974;49848661536;375416851;253682333;8896456900;688825;165296887;1784;926;883952;91;4664;209171
1;71;1574001021758;1574001030086;8328;17020608752;49848692680;376752509;253938430;8896462890;713325;165258032;1493;1215;958576;-75;7018;172743
1;72;1574001030086;1574001038861;8775;17007647164;49848708227;376595500;253762551;8896476976;686371;165371556;1275;994;892664;-9;3439;13701
1;73;1574001038861;1574001047488;8627;17023470352;49848664427;376800149;253992960;8896457622;698065;165163387;2001;328;953200;-7;5615;36825
1;74;1574001047489;1574001056576;9087;16989902178;49851041531;376637715;254131389;8896477955;695249;164709083;1814;1270;990200;29;5033;204915
1;75;1574001056576;1574001064939;8363;16993453774;49851599840;375629191;253714297;8896457647;827005;164889337;1276;1096;909016;-24;4023;28856
1;76;1574001064939;1574001072288;7349;16984039110;49851603548;376173605;253421380;8896462214;681634;164642700;1025;1154;763496;-3;2874;10795
1;77;1574001072288;1574001080383;8095;16978542210;49851585362;376293052;253651807;8896448150;693071;164914510;1698;537;843456;12;3925;20879
1;78;1574001080383;1574001089136;8753;16977166744;49851605309;376034271;253918603;8896456598;696308;164558536;2386;666;929008;2;5909;242500
1;79;1574001089136;1574001097631;8495;16977904482;49851595683;375942473;253864995;8896454148;687221;164688296;1095;1215;894536;-16;3439;13272
1;80;1574001097631;1574001104988;7357;16982375148;49851567149;376176233;253316027;8896439328;674245;164651439;960;1163;677368;5;2583;10204
1;81;1574001104989;1574001113796;8807;16978781504;49851627908;375602303;253941933;8896473403;714655;164724344;1716;550;858824;1;3954;18999
1;82;1574001113796;1574001122088;8292;16978606742;49851587043;375818656;253645990;8896450847;690281;164970839;1876;1217;886864;-2;4929;277773
1;83;1574001122088;1574001130577;8489;16986421246;49851593637;376303178;254048646;8896452681;700129;164745526;1128;1216;941392;-3;3421;12542
1;84;1574001130578;1574001138524;7946;16987635528;49851631733;376115615;253847479;8896465794;694288;164663017;1228;1035;835488;14;3385;15423
1;85;1574001138524;1574001146452;7928;16987462956;49851571720;375183047;253739294;8896439834;683190;164601402;1900;367;848920;8;4333;24627
2;33;1574001543996;1574001553126;9130;17870133550;50325093662;379523308;257744359;8955710395;662762;168506263;1479;699;970536;0;4519;19017
2;34;1574001553127;1574001561692;8565;17869105418;50325034636;379205142;257631713;8955701732;660255;168148304;1377;1306;890000;3;4181;125424
2;35;1574001561692;1574001570574;8882;17872598322;50325105860;379692433;257763234;8955728397;664274;168338603;903;1289;976368;-2;3609;11644
2;36;1574001570574;1574001579433;8859;17868861452;50325071201;379765353;257730086;8955710334;654884;168385218;1451;761;970832;-1;4158;16483
2;37;1574001579434;1574001588560;9126;17870107270;50324976850;379664551;257908365;8955674500;664692;168228339;1978;701;947096;9;5356;143733
2;38;1574001588560;1574001596965;8405;17865583752;50325034078;380204094;257654821;8955694438;661231;168284187;878;1218;792816;-4;3163;9201
2;39;1574001596966;1574001605299;8333;17862824498;50325016847;378914871;257732306;8955698034;664433;168044750;965;1191;855240;-4;3026;9177
2;40;1574001605300;1574001614409;9109;17870528188;50325049884;380162750;258022297;8955709753;662945;168417436;1690;526;958832;-1;4742;21945
2;41;1574001614409;1574001623265;8856;17869699492;50325095150;379206269;257810070;8955718801;663455;168340462;1389;1374;974240;0;4687;132798
2;42;1574001623265;1574001632393;9128;17874664222;50325056089;379325305;258048319;8955705452;663839;168307789;958;1271;964680;3;3662;10897
2;43;1574001632394;1574001640783;8389;17865129838;50325020765;380444063;257790929;8955689380;663077;168317293;1287;871;876712;-3;3756;14049
2;44;1574001640784;1574001649280;8496;17861543202;50325008044;379367886;257710154;8955703965;659867;168222334;2004;666;896760;12;5162;146053
2;45;1574001649280;1574001657556;8276;17865964374;50325030970;379690432;257757884;8955704290;660266;168155389;1047;1110;851456;-10;3504;10926
2;46;1574001657557;1574001666310;8753;17864860760;50324958007;379996171;257645727;8955669481;673199;168163038;978;1217;884776;-2;3135;9789
2;47;1574001666310;1574001675252;8942;17868647270;50325012566;379493086;257881169;8955696837;658599;168432943;1642;560;917464;4;4612;21350
2;48;1574001675253;1574001683586;8333;17865552508;50325000433;379857845;257578965;8955696179;660653;168200561;1606;1275;963640;-4;5276;212234
2;49;1574001683587;1574001692186;8599;17864998438;50325040575;379910840;257687554;8955708066;657277;168496289;951;1222;841496;0;3552;11643
2;50;1574001692187;1574001700641;8454;17863548658;50325099255;380100002;257764916;8955709854;658884;168155831;1232;957;870632;12;3864;21340
2;51;1574001700641;1574001709295;8654;17870760182;50325376467;378475190;257710780;8955771044;666869;168275987;1839;413;951224;4;5211;32673
2;52;1574001709295;1574001717854;8559;17862644918;50325002950;379542798;257798372;8955685716;660872;168499518;1470;1244;899272;-6;4455;136217
2;53;1574001717854;1574001725874;8020;17876813634;50325346899;380852214;257355634;8955768329;667691;170355240;1090;1106;832064;-8;3402;12279
2;54;1574001725875;1574001734687;8812;17886787916;50324272386;381421658;257035348;8955543558;655619;174791753;1535;655;859248;0;3854;16561
2;55;1574001734688;1574001744428;9740;17893072194;50324169769;382267853;257272419;8955501008;657842;174752545;1710;1169;1125536;-2;5293;125573
2;56;1574001744429;1574001753288;8859;17883776228;50324173402;381042542;256664477;8955514261;644650;175197676;1036;1243;958776;0;3649;11937
2;57;1574001753289;1574001761830;8541;17886051346;50324240571;381214846;256647053;8955533709;647425;175281873;1146;1102;915760;16;3352;11951
2;58;1574001761831;1574001770268;8437;17882928114;50324171156;381792663;256679331;8955511119;647851;174947211;1811;438;896072;-2;4469;22354
2;59;1574001770268;1574001778984;8716;17886596510;50324213958;382181882;257057760;8955515153;653880;174819629;1682;1178;1000872;-14;5450;205638
2;60;1574001778985;1574001787911;8926;17885975280;50324181651;381808709;256901267;8955519165;650343;175220274;1015;1249;905800;5;3555;12026
2;61;1574001787911;1574001796586;8675;17883077764;50324155465;382368477;256786384;8955495466;644189;175083034;1526;720;906000;14;4087;19282
2;62;1574001796586;1574001804663;8077;17881199474;50324266498;380965327;256551446;8955542009;643323;174768743;1741;1040;871880;-2;4929;142849
2;63;1574001804663;1574001813084;8421;17894227054;50324266079;382161840;256776664;8955541561;653706;175279229;1131;1170;949696;-17;4011;17643
2;64;1574001813084;1574001821727;8643;17878361234;50324177465;381612767;256781093;8955501183;640407;174666928;1058;1222;923400;3;3206;11783
2;65;1574001821727;1574001830179;8452;17891643000;50324239963;382600313;256862516;8955533751;667784;175238594;1838;1291;861200;46;8435;894343
2;66;1574001830179;1574001838605;8426;17876525430;50324186909;381413145;256587511;8955522069;644838;175220381;1595;741;977488;-42;5069;39603
2;67;1574001838606;1574001846960;8354;17882641662;50324192575;382341394;256759246;8955515562;654546;175245715;1863;373;848392;-5;4701;28571
2;68;1574001846961;1574001856385;9424;17887571936;50324204579;382163631;257012896;8955514565;639781;175357584;1758;1106;1021984;13;5445;173889
2;69;1574001856385;1574001864620;8235;17891379762;50324190816;381240517;256626492;8955517829;642331;175114948;1222;1111;871392;-14;3913;22905
2;70;1574001864620;1574001873657;9037;17882801240;50324149497;381610427;256804494;8955496588;642645;175109115;996;1259;870816;3;3361;12641
2;71;1574001873657;1574001882343;8686;17872502108;50324265260;381904618;256654714;8955543551;647577;174090970;1780;459;853264;10;4598;29662
2;72;1574001882343;1574001890651;8308;17892287152;50324234423;382422772;256808885;8955536128;646786;175395907;1736;1037;853736;-9;5115;210842
2;73;1574001890651;1574001899364;8713;17885834244;50324154315;381544522;256782741;8955502037;650729;174805749;1088;1237;935672;-5;3988;14965
2;74;1574001899364;1574001907701;8337;17882058100;50324222076;381654905;256591111;8955520068;639716;175404582;1352;846;811912;13;3827;18678
2;75;1574001907701;1574001916396;8695;17888326318;50324243530;381832121;256740360;8955537063;648150;175762027;1570;990;917200;170;4436;36838
2;76;1574001916397;1574001925726;9329;17885551588;50324195516;382377743;256791731;8955511180;644208;176210319;1543;1188;1044208;-183;5401;183017
2;77;1574001925726;1574001935708;9982;17888533054;50324166289;382402196;257098031;8955505968;643732;176070025;1243;1239;1105376;0;3898;14319
2;78;1574001935709;1574001944997;9288;17888365154;50324264392;382321708;256836104;8955539769;640694;175961577;1650;691;941016;20;4463;26639
2;79;1574001944997;1574001954016;9019;17891838348;50324174751;382428514;256590786;8955503060;643326;176114835;1886;998;1008280;-13;5344;125951
2;80;1574001954017;1574001962716;8699;17885397850;50324236850;382585551;256645215;8955542782;642631;175481496;1125;1176;865064;-3;3498;14347
2;81;1574001962716;1574001970864;8148;17887774292;50324203099;382757491;256396567;8955523420;648423;176078857;1513;756;830096;-4;4053;23600
2;82;1574001970865;1574001978726;7861;17882906652;50324148465;383630833;256515399;8955499896;640597;176099636;1746;1007;769808;89;3905;84683
3;35;1574002387351;1574002395439;8088;17464780756;50103845573;381187765;258134789;8905625745;683034;167227983;1340;1216;863360;-134;4535;128283
3;36;1574002395439;1574002403412;7973;17456520806;50103849835;381534507;258127185;8905615604;670792;167126287;944;1118;765032;4;3028;10622
3;37;1574002403412;1574002411697;8285;17453403560;50103861153;381857302;258365784;8905622650;682443;166973996;1563;544;841496;6;4259;21384
3;38;1574002411697;1574002419988;8291;17458366830;50103889979;382208224;258085133;8905637976;681647;167135232;2027;614;848504;3;5868;134513
3;39;1574002419988;1574002428744;8756;17457328770;50103809373;382471293;258599428;8905603382;683895;167003162;1028;1143;902168;-10;3565;10395
3;40;1574002428744;1574002437310;8566;17446936928;50103886888;381896356;258400234;8905624885;682972;167278140;993;1149;872632;12;3352;11580
3;41;1574002437310;1574002446368;9058;17456233186;50103848483;382638852;258691768;8905618300;691181;167061046;1597;607;933440;-11;4338;18198
3;42;1574002446368;1574002455064;8696;17468022394;50103845537;382098976;258711778;8905614046;702279;167390571;1479;1307;967608;-1;5076;105164
3;43;1574002455064;1574002462994;7930;17455542898;50103858561;381476630;258277977;8905623115;687595;167070315;940;1210;855024;3;3235;10443
3;44;1574002462994;1574002471562;8568;17459468254;50103894753;382439243;258730916;8905646765;695018;167214250;1442;751;938984;8;4401;22030
3;45;1574002471562;1574002479193;7631;17442851410;50103804432;382724553;258329787;8905610771;708687;167269235;1682;454;796920;-12;4663;25471
3;46;1574002479193;1574002487928;8735;17454469652;50103837282;381750281;258757399;8905610641;691451;167265421;1407;1368;938800;4;4524;138646
3;47;1574002487928;1574002496933;9005;17468155108;50103901728;381045680;258595177;8905633932;693839;166994270;1047;1213;1001624;7;4131;13097
3;48;1574002496933;1574002505710;8777;17458282150;50103815992;381360339;258434133;8905607971;684104;167017502;1629;631;964904;-13;4215;18241
3;49;1574002505710;1574002514278;8568;17460699034;50103866575;382097674;258548460;8905622995;687278;167153479;1765;1005;899424;0;5645;137170
3;50;1574002514278;1574002523498;9220;17465613686;50104000339;382656104;258737455;8905658694;686388;167021931;973;1246;923360;2;3506;10959
3;51;1574002523498;1574002531914;8416;17457083782;50104075907;381899424;258384658;8905662346;717109;167055458;1089;1083;857320;12;3277;12573
3;52;1574002531914;1574002539860;7946;17457177222;50103825938;381552110;258399503;8905618448;686434;167239580;1782;389;831640;-6;4590;26226
3;53;1574002539860;1574002548748;8888;17424095374;50104054819;382322060;258536912;8905666957;716336;167336007;1466;1360;982568;-1;4680;113685
3;54;1574002548749;1574002556944;8195;17366823954;50103127991;382508066;257956107;8905456639;666113;168608999;1008;1188;864984;-4;3447;12133
3;55;1574002556944;1574002565170;8226;17359841942;50103157882;381884269;257691766;8905452111;668209;168151338;1430;770;853488;-3;3703;16013
3;56;1574002565170;1574002573735;8565;17366431506;50103022135;381188678;257819005;8905438898;668404;168016894;1876;849;922272;36;5142;126919
3;57;1574002573735;1574002582446;8711;17368056194;50103029782;381497960;257824505;8905432288;673657;168219092;1187;1096;942096;-36;4202;30102
3;58;1574002582447;1574002591117;8670;17370379200;50103036495;381963387;257742863;8905445290;678044;168332390;1011;1221;897232;4;3357;10935
3;59;1574002591118;1574002600052;8934;17374931626;50103058138;381242487;258095723;8905449809;679328;168398951;1750;538;955968;0;4658;26931
3;60;1574002600052;1574002607934;7882;17355322950;50103011905;381775044;257437415;8905435182;670854;168377136;1623;1036;854088;0;5097;128049
3;61;1574002607934;1574002616420;8486;17369557366;50103019060;382013840;257820139;8905440488;719878;168421278;987;1242;879216;0;3500;12530
3;62;1574002616420;1574002625539;9119;17357193064;50103102885;381524042;258083210;8905466365;668163;168095117;1341;932;952648;10;3877;17135
3;63;1574002625539;1574002634566;9027;17364694982;50103071571;382785629;258164633;8905452434;743432;168325710;1940;808;931888;175;4890;93933
3;64;1574002634566;1574002643320;8754;17370845378;50102970822;382141079;258106357;8905414830;681587;168109706;1400;1081;1000440;-189;4971;144882
3;65;1574002643320;1574002651544;8224;17337918290;50096743625;382929137;257309658;8905460362;677135;169649788;1056;1201;888512;0;3391;13163
3;66;1574002651544;1574002659565;8021;17320293462;50094113182;382760615;257101770;8905431428;671834;169990783;1578;604;826632;17;4415;23258
3;67;1574002659565;1574002668411;8846;17331901046;50094185253;383258336;257507473;8905450508;684134;170207114;1987;1006;861568;127;5851;449187
3;68;1574002668411;1574002676929;8518;17329440800;50094179960;383216339;257338149;8905449373;688233;170005067;1380;1386;1061272;-144;7568;503364
3;69;1574002676929;1574002684773;7844;17326429842;50094121735;382852073;257068074;8905434973;663440;169881364;1107;1077;798416;19;3266;13197
3;70;1574002684773;1574002693073;8300;17328687440;50094119135;383039916;257036294;8905420915;674889;169810279;1888;425;941296;-6;5096;37165
3;71;1574002693073;1574002701298;8225;17326299026;50094171605;382840799;257310736;8905451607;682915;170132929;1757;1168;900640;-4;5183;234893
3;72;1574002701299;1574002709914;8615;17336969874;50094142109;382736846;257304699;8905444066;676120;170190871;1081;1269;889464;-9;3758;15987
3;73;1574002709914;1574002718557;8643;17328026936;50094132767;381720840;257222985;8905423591;712667;169922620;1338;960;940952;8;4311;24201
3;74;1574002718558;1574002727198;8640;17330542370;50094127422;382971851;257378002;8905438039;675467;170102430;1781;558;953248;-8;4799;25925
3;75;1574002727198;1574002735287;8089;17324110632;50094149345;383439570;257037003;8905441818;673326;170163854;1616;1305;909256;0;4404;149325
3;76;1574002735287;1574002744259;8972;17336653784;50094162371;382441012;257489955;8905445176;666561;170099974;1065;1198;890128;17;3507;13701
3;77;1574002744259;1574002753225;8966;17332783470;50094146143;382592949;257251959;8905432695;675631;170178117;1591;684;867216;0;4024;19287
3;78;1574002753225;1574002761568;8343;17325174096;50094163971;383381150;257302746;8905449817;676201;169986108;1937;877;880576;-8;5129;111901
3;79;1574002761568;1574002769740;8172;17322441268;50094044070;383160780;257235266;8905406888;674044;169959644;1112;1162;862016;-7;3503;13317
3;80;1574002769740;1574002778300;8560;17333980086;50094181292;382705905;257086074;8905457931;671301;170218847;1153;1145;894304;8;3552;17183
3;81;1574002778300;1574002786350;8050;17326206462;50094165516;381965913;257203594;8905454191;705651;169895276;1816;384;753880;-5;4536;29380
3;82;1574002786350;1574002794248;7898;17326315232;50094093429;381662926;256937680;8905417273;669009;170337010;1681;1126;895792;1;5005;118020
3;83;1574002794248;1574002802237;7989;17325932712;50094162729;382065535;257333007;8905446005;665049;169987876;1092;1184;843592;-6;3472;13159
3;84;1574002802237;1574002810907;8670;17337054700;50094197062;382800911;257473672;8905454721;688237;170005554;1384;950;923592;6;3987;18571
4;32;1574003205572;1574003214615;9043;17717722106;52630701800;383640930;257680986;9693533248;693334;184779587;1771;365;917520;4;4595;20644
4;33;1574003214615;1574003223644;9029;17733929566;52630664432;384373252;257849337;9693506370;675885;185506230;1492;1174;925800;-4;4178;70951
4;34;1574003223645;1574003232256;8611;17717150370;52630709281;384566739;257710052;9693523282;668946;185447402;891;1205;835400;8;3096;9287
4;35;1574003232256;1574003239951;7695;17736289948;52630717547;382835274;257094613;9693538542;655113;185636327;1117;949;765568;-8;3037;10702
4;36;1574003239951;1574003248418;8467;17730178826;52630696593;384093317;257657311;9693517028;681547;185408494;1682;416;841232;9;3870;17252
4;37;1574003248418;1574003257034;8616;17726515394;52630675037;384296177;257613016;9693514317;664628;185631016;1467;1244;902168;-6;4376;102942
4;38;1574003257034;1574003265864;8830;17739537572;52630672296;383826972;257770857;9693526539;656792;185793922;887;1264;885184;5;3234;9143
4;39;1574003265865;1574003274691;8826;17720039272;52630647557;383954914;257786255;9693503029;681126;185089657;1391;788;932760;4;3778;15635
4;40;1574003274691;1574003282862;8171;17725205920;52630735288;383422561;257594255;9693544675;659806;185026774;1847;825;916600;2;5343;116083
4;41;1574003282863;1574003291078;8215;17729062948;52630771248;383442330;257753942;9693551829;664348;185605492;1048;1095;860656;-10;3833;14492
4;42;1574003291079;1574003299935;8856;17735736608;52630656834;383783313;257884484;9693506857;667980;185264075;927;1252;908088;-4;2968;8490
4;43;1574003299936;1574003308554;8618;17741356294;52630685772;383588910;258114949;9693517050;674827;185023419;1740;450;948832;16;4527;23027
4;44;1574003308555;1574003317343;8788;17729400062;52630712653;384365060;257902985;9693537024;670511;186006966;1528;1237;995792;-10;5023;127069
4;45;1574003317343;1574003325902;8559;17736476536;52630631082;383631011;257931379;9693504663;657844;185261535;981;1216;900400;-6;3676;11339
4;46;1574003325903;1574003334147;8244;17735181808;52630657492;383958936;257709939;9693510892;672740;185569945;1254;897;847152;12;3534;13625
4;47;1574003334147;1574003341735;7588;17729522994;52630643697;384638784;257284566;9693521433;648204;185576167;1581;512;753536;-8;3544;17453
4;48;1574003341735;1574003350054;8319;17729051122;52630661211;383951128;257643788;9693505826;656704;186312861;1368;1309;866504;0;4402;121385
4;49;1574003350054;1574003358316;8262;17724694628;52630745078;384566191;257483505;9693547001;655121;185563480;931;1222;823952;-1;3311;10594
4;50;1574003358316;1574003366786;8470;17717461204;52630780040;384405165;257955795;9693548175;656382;184743174;1489;716;911864;8;3790;15717
4;51;1574003366786;1574003375682;8896;17726042500;52630934279;384482189;257856301;9693559754;685748;185186448;2036;770;979168;18;5459;113744
4;52;1574003375683;1574003384352;8669;17736647356;52630696600;383424132;257701945;9693527846;654643;185470875;1098;1111;882544;-28;3770;21662
4;53;1574003384352;1574003393376;9024;17741151310;52630887123;383578887;257937156;9693560710;671332;182902924;1087;1204;999888;0;3392;11518
4;54;1574003393376;1574003402592;9216;17737692862;52629976741;382246562;257247160;9693354824;654790;174872356;1738;528;967936;16;4406;20014
4;55;1574003402593;1574003411392;8799;17745486780;52629934001;382367696;256910316;9693343815;651604;175419594;1641;1126;873080;-12;4655;91021
4;56;1574003411392;1574003419757;8365;17733713048;52629955931;382763442;256957441;9693360835;655604;175349933;1013;1213;888456;2;3595;12760
4;57;1574003419757;1574003428590;8833;17745156528;52629910555;382282167;257018031;9693332938;657791;175536665;1382;840;894272;5;3512;14275
4;58;1574003428590;1574003437682;9092;17745547224;52630017194;383189397;257348488;9693377433;673240;175422154;2046;785;953960;63;4769;134203
4;59;1574003437683;1574003445724;8041;17737211062;52629949322;383049311;256797346;9693363329;653518;175665839;1147;1059;832432;-61;3339;34819
4;60;1574003445724;1574003454936;9212;17739820520;52629949455;382999868;257159603;9693341241;672584;175736975;1107;1209;964688;-13;3250;10413
4;61;1574003454936;1574003463786;8850;17743659298;52629968940;382599792;257076709;9693360917;651555;175432253;1656;569;870816;16;4027;19766
4;62;1574003463786;1574003471925;8139;17754666530;52629994470;382456704;256683440;9693368203;663673;176444014;1813;1043;883144;-17;5243;176884
4;63;1574003471925;1574003480505;8580;17735125014;52630145291;382938922;257102964;9693395483;684478;175116844;1047;1195;882544;0;3583;12936
4;64;1574003480505;1574003489188;8683;17731362156;52629942627;382814949;256937200;9693344280;661592;175521850;1298;966;923672;0;3687;14326
4;65;1574003489189;1574003497608;8419;17745318442;52629962649;382081891;256956272;9693368061;654216;176312085;1747;524;888048;11;4598;28272
4;66;1574003497608;1574003506560;8952;17737804698;52629864920;383257942;257200412;9693330397;720730;175203420;2216;1251;930600;-11;8134;555758
4;67;1574003506561;1574003515559;8998;17743232394;52629963365;382055580;256932369;9693370520;659279;175390946;1086;1195;917520;4;3284;10957
4;68;1574003515559;1574003523895;8336;17753244052;52629869420;382519265;256738124;9693343296;654715;175128223;1461;794;876776;10;4123;22144
4;69;1574003523895;1574003532206;8311;17741097874;52629887869;382868032;256826596;9693336615;659898;175098612;2127;757;847816;-2;5472;206231
4;70;1574003532206;1574003541962;9756;17745844918;52629879412;382926156;257399056;9693336088;673885;175809041;1167;1227;1038256;-12;4007;14015
4;71;1574003541962;1574003550871;8909;17748443426;52629946349;383289757;257104547;9693368737;662553;175109690;1217;1204;983032;0;3643;16758
4;72;1574003550872;1574003559280;8408;17738315698;52629840241;383390558;256768179;9693331014;675860;175679801;1845;383;832400;4;4627;31425
4;73;1574003559280;1574003567917;8637;17753994784;52629900331;382109261;256937448;9693344050;657850;175816664;1798;1234;964072;-3;5249;282607
4;74;1574003567918;1574003576778;8860;17727949260;52629965060;381934712;256866443;9693373533;677145;175104703;1113;1226;953224;-1;3667;14434
4;75;1574003576779;1574003586285;9506;17742041910;52629846701;382253429;257102991;9693328240;655796;175273261;1642;732;999824;4;4124;18084
4;76;1574003586285;1574003595951;9666;17743002590;52629924721;382278873;257371038;9693360911;673824;175447716;2200;819;1109544;-4;6429;220051
4;77;1574003595952;1574003604575;8623;17724347294;52629903406;382268298;257054735;9693351238;678967;175239154;1077;1214;898144;5;3585;13886
4;78;1574003604575;1574003613641;9066;17728894026;52629879457;382975811;257020864;9693334151;666229;175858240;1247;1039;884312;5;3208;15069
4;79;1574003613641;1574003622317;8676;17730788230;52629852138;382026103;256806021;9693332425;658392;175699341;1715;572;853320;-4;4108;21259
4;80;1574003622317;1574003631312;8995;17728607282;52629907050;381918451;256857411;9693359044;652838;175262662;1725;1249;1016472;-4;5205;256421
4;81;1574003631313;1574003640574;9261;17726738774;52629891120;382477878;257111359;9693339466;654111;175337215;1174;1173;948864;17;3619;14560
