0;48;1574026937313;1574026944572;7259;17133397110;49551042211;386967372;256601866;8808523405;687901;169372165;1514;1121;1102992;42;5969;199214
0;49;1574026944580;1574026951846;7266;17137748202;49551098801;386374351;256468636;8808542646;705271;168992356;1553;686;1175808;-46;6479;128467
0;50;1574026951846;1574026959238;7392;17141954024;49551183434;386681264;256154588;8808562371;746308;169565033;1596;648;1158192;-4;6540;121219
0;51;1574026959238;1574026966721;7483;17109935348;49551191707;383833023;255955161;8808550343;685362;168042817;1006;1215;1167576;-7;5118;30710
0;52;1574026966721;1574026974038;7317;17151497022;49551137133;390294006;256754065;8808555011;751076;170613039;1338;1158;1067768;89;4938;91152
0;53;1574026974038;1574026981145;7107;17123192294;49551246461;385192146;256058791;8808567188;709572;168372865;1467;768;1082408;-56;6885;205156
0;54;1574026981145;1574026988696;7551;17148274364;49550401342;390038052;256402664;8808378094;795028;169049914;1658;560;1092400;-26;6032;133202
0;55;1574026988696;1574026996608;7912;17130514194;49550290693;384986969;256342411;8808342241;724938;168076102;1054;1231;1263552;-12;5411;32883
0;56;1574026996609;1574027004351;7742;17215272888;49550410170;398438483;257222928;8808406775;807016;171928786;1541;1136;1161936;60;6068;99036
0;57;1574027004351;1574027011570;7219;17104045124;49550318025;383580785;255735241;8808357220;691185;167304287;1447;824;1206472;-27;7219;360724
0;58;1574027011570;1574027019713;8143;17105564254;49550397481;381375129;255402895;8808380432;738762;166880012;1846;524;1341712;-2;8143;270653
0;59;1574027019713;1574027026707;6994;17102814928;49550327502;383250478;255534907;8808359040;684069;167229990;1042;1165;1086592;-25;4644;36474
0;60;1574027026707;1574027034072;7365;17155992216;49550354999;393332972;256343093;8808383398;791132;169950590;1220;1057;1177120;-7;5251;34950
0;61;1574027034072;1574027041472;7400;17202476864;49550362478;400325690;257098025;8808390517;821454;172543421;1681;1019;1091752;22;6313;241938
0;62;1574027041472;1574027048808;7336;17136474060;49550530830;388476731;256407788;8808415276;742753;168813829;1798;451;1134864;-5;6809;147973
0;63;1574027048809;1574027056005;7196;17172141130;49550479668;393194612;256138285;8808414565;841875;170562704;1221;994;1096704;-13;5469;51735
0;64;1574027056005;1574027062891;6886;17156605562;49550323062;392234901;255935510;8808369798;768594;170894830;1159;1022;1066760;12;4694;30530
0;65;1574027062892;1574027070372;7480;17125396748;49550276651;387915987;256388871;8808367828;726238;168987723;1776;1101;1183472;-11;6960;389069
0;66;1574027070372;1574027077643;7271;17128245500;49550236211;387107145;255981552;8808353423;707588;168300892;1700;530;1149320;11;6677;159920
0;67;1574027077643;1574027085153;7510;17121646884;49550239997;384966155;255928480;8808356138;704291;167972907;1455;867;1196160;-13;6799;102759
0;68;1574027085153;1574027092824;7671;17164573512;49550327261;391436164;256462945;8808388991;795858;170424551;1121;1164;1191904;-3;4866;25850
0;69;1574027092824;1574027100584;7760;17141210592;49550253078;386774748;256295988;8808358623;755130;168604786;1732;1132;1189368;32;6414;382295
0;70;1574027100585;1574027107414;6829;17111100574;49550224651;385732539;255910933;8808344948;701056;168341804;1613;611;1099208;-21;6701;254025
0;71;1574027107414;1574027114669;7255;17118673156;49550253467;384272446;255909049;8808365842;729896;167905695;1522;758;1139552;-7;6445;92624
0;72;1574027114669;1574027121941;7272;17121413138;49550235229;386148145;255982122;8808352165;712731;168033600;1582;1189;971320;124;6845;870590
0;73;1574027121942;1574027128885;6943;17122558508;49550170256;385475671;256451603;8808323650;716192;167681566;1681;744;919408;5;6944;997867
0;74;1574027128885;1574027135537;6652;17073806042;49543561377;383873684;254533117;8808356299;680028;167153575;1218;1162;1219544;-132;6652;491165
0;75;1574027135538;1574027143112;7574;17074727594;49541327511;386847255;255288345;8808342613;727399;168103720;1179;1135;1158496;-2;4837;27769
0;76;1574027143113;1574027150899;7786;17100866558;49541361641;388769528;255360474;8808361510;719488;169004919;1839;1121;1151080;125;6840;424219
0;77;1574027150900;1574027157513;6613;17077204630;49541390701;383417769;254429431;8808357844;848891;167678167;1437;873;1088648;-20;6614;704954
0;78;1574027157513;1574027164528;7015;17121349628;49541354288;395683416;255565264;8808363765;772650;170431951;1604;718;1112376;-94;6783;293900
0;79;1574027164528;1574027172365;7837;17126232890;49541405012;394152529;256118599;8808374897;786175;170385256;1151;1166;1162064;3;5065;35508
0;80;1574027172365;1574027179237;6872;17089784866;49541429417;387153523;255231153;8808386917;715477;169114299;1197;997;994280;-2;4378;35629
0;81;1574027179237;1574027186693;7456;17086647618;49541412640;387416626;255208882;8808364669;889509;168639527;1864;1205;1165720;37;7347;659305
0;82;1574027186693;1574027193933;7240;17083457080;49541313219;385467107;255224319;8808322666;731492;168087459;1860;403;1152584;45;6986;199933
0;83;1574027193933;1574027201599;7666;17082436686;49541458209;386634102;255656920;8808377400;704825;168331856;1200;1270;1313336;-84;6758;163507
0;84;1574027201599;1574027208022;6423;17067536656;49541393850;382101101;254714984;8808357295;686390;167677020;1262;900;938528;-3;4857;37629
0;85;1574027208022;1574027215344;7322;17083019372;49541391793;388133069;255380143;8808366212;723288;168672979;1773;1114;1043928;89;6279;667354
0;86;1574027215344;1574027222759;7415;17082293606;49541361305;387758259;255234752;8808354340;723854;168472548;1663;719;1293304;-40;7414;540911
0;87;1574027222759;1574027230038;7279;17145013746;49541399004;395569200;255594605;8808378693;760437;171302514;1443;856;1081960;-45;5934;185017
0;88;1574027230038;1574027237329;7291;17101701386;49541335071;390566099;255402557;8808341326;841779;169229653;1205;1125;1147792;-1;5231;35034
0;89;1574027237329;1574027243845;6516;17054727346;49541363856;386958583;254200823;8808357325;688595;167887067;1697;1005;906616;118;4972;289908
0;90;1574027243845;1574027251304;7459;17069791772;49541359214;383433103;254897966;8808352483;680682;167370856;1581;866;1247040;-110;7412;412433
0;91;1574027251304;1574027259123;7819;17075307944;49541316098;383650780;255781214;8808323729;742043;167607063;1768;617;1231488;4;7152;116006
0;92;1574027259123;1574027266418;7295;17080453422;49541348875;385672192;255334726;8808350355;702058;167919670;1087;1155;1012816;21;4685;35816
0;93;1574027266418;1574027273953;7535;17086010182;49541459027;387197080;255296441;8808385082;779904;167962792;1646;1148;1123352;114;5605;145149
0;94;1574027273953;1574027280749;6796;17054952770;49541373531;385043740;254235857;8808350908;691797;167580787;1529;862;1084312;-104;6797;592584
0;95;1574027280751;1574027288361;7610;17105309192;49541365840;391615267;255567764;8808359752;730346;169677097;1848;516;1199920;-42;7200;168572
0;96;1574027288361;1574027296029;7668;17099548032;49541410329;389483234;255637280;8808372783;736914;169267815;1149;1213;1179248;-11;4746;29761
0;97;1574027296029;1574027303163;7134;17082148482;49541322511;385287718;255166592;8808329487;690723;167969967;1267;1077;1165632;3;5391;52831
1;48;1574027783885;1574027791008;7123;17208031872;49550331056;385857820;253000643;8816718383;782208;167269400;1602;1169;1133112;41;6820;698730
1;49;1574027791008;1574027798072;7064;17172489924;49550296618;382743109;252523964;8816705921;775242;166507875;1638;499;1075280;32;7064;507271
1;50;1574027798073;1574027805136;7063;17160815618;49550355150;380065298;252428545;8816709186;729090;165760396;1140;1082;1077856;-74;5335;135774
1;51;1574027805136;1574027811891;6755;17131398954;49550450386;377536103;252228429;8816725463;711863;164997879;1053;1059;963328;-8;4169;26360
1;52;1574027811891;1574027818914;7023;17139873816;49550420855;379406695;252395830;8816732573;716446;164919257;1539;1095;1031352;87;5796;236417
1;53;1574027818914;1574027826050;7136;17151127642;49550544716;384754162;252857273;8816743613;775780;166315458;1504;693;1052216;-63;5984;148984
1;54;1574027826050;1574027833404;7354;17093156006;49549536183;378916124;252869148;8816532278;727160;165574972;1583;636;1118936;-12;6363;101682
1;55;1574027833404;1574027840382;6978;17134750238;49549550522;382254941;252744222;8816543337;758099;167144070;1019;1173;1117632;3;4560;24629
1;56;1574027840382;1574027847654;7272;17096950546;49549475225;378545053;252203912;8816501523;705763;164892384;1465;1196;1156640;71;5587;90285
1;57;1574027847654;1574027855116;7462;17100457758;49549584145;378368788;252081793;8816549477;728952;165508647;1523;759;1213304;-37;7462;398204
1;58;1574027855116;1574027862512;7396;17077041548;49549518607;375933804;252039097;8816521865;696206;164584990;1677;604;1153280;-17;7396;332265
1;59;1574027862512;1574027870000;7488;17116251892;49549497756;379869119;252795206;8816512794;735751;166330634;1047;1225;1221232;-25;5469;56958
1;60;1574027870000;1574027877147;7147;17119709610;49549559328;382496578;252529262;8816548882;753352;166929813;1248;1009;1164672;-2;5840;67296
1;61;1574027877147;1574027883488;6341;17111365126;49549499998;382132124;251993893;8816518699;759652;166250101;1604;1118;961880;39;5956;380450
1;62;1574027883488;1574027891224;7736;17187680494;49549609177;391825987;253197170;8816580623;850424;170057410;1838;433;1216184;18;7736;436959
1;63;1574027891224;1574027898056;6832;17083055726;49549662419;377273275;252163772;8816561356;711000;165260980;1130;1131;1125904;-60;5323;62633
1;64;1574027898056;1574027904812;6756;17103412944;49549571943;382431404;252208447;8816528443;751556;166845703;1170;1035;1042096;7;4955;43566
1;65;1574027904812;1574027912363;7551;17104296390;49549512062;379266922;252626910;8816524563;713311;165879861;1705;988;1135736;34;6337;277085
1;66;1574027912363;1574027919968;7605;17108842246;49549495211;380764302;253125391;8816518764;726248;166236441;1659;656;1214312;-24;7231;136911
1;67;1574027919968;1574027926544;6576;17112030302;49549532324;381540940;252289413;8816535375;741639;166134321;1400;783;1024520;-11;5949;171749
1;68;1574027926544;1574027933919;7375;17152070656;49549535322;385492626;252577446;8816549273;787233;167675846;1147;1086;1113576;26;5042;54858
1;69;1574027933919;1574027941151;7232;17142353188;49549485674;386394776;252861868;8816527814;763762;168049140;1629;1202;1126224;77;5605;192447
1;70;1574027941151;1574027947928;6777;17100914738;49549491851;378085295;251877279;8816516517;705360;166000364;1431;836;1112512;-55;6777;504283
1;71;1574027947928;1574027955518;7590;17133325862;49549510682;384297856;252699930;8816533762;767569;167189779;1703;654;1232856;-52;7569;399486
1;72;1574027955519;1574027963040;7521;17203615956;49549577961;394929569;253592817;8816581169;863733;170847191;1145;1160;1213464;0;5082;29117
1;73;1574027963040;1574027970384;7344;17173187804;49549524492;389833080;253229218;8816543631;806718;169141421;1266;1040;1189640;-3;5662;55463
1;74;1574027970385;1574027977101;6716;17126498902;49549496354;384984297;252223778;8816525854;763074;167477479;1614;1023;1026912;82;6653;554612
1;75;1574027977101;1574027984329;7228;17160251474;49549525000;389011493;252932785;8816545501;805541;168603009;1798;505;1110408;-42;7228;348394
1;76;1574027984329;1574027992119;7790;17118446418;49549537324;380465105;252818362;8816537625;733522;166495809;1492;1295;1123728;100;6618;427344
1;77;1574027992119;1574028001560;9441;17108662228;49549493596;380837909;253049488;8816521892;757538;166324742;1796;821;1424408;13;9442;1357300
1;78;1574028001560;1574028008297;6737;17096260404;49549517697;379409661;252006077;8816521073;727773;165552228;1475;833;1104552;-3;6737;967654
1;79;1574028008297;1574028015145;6848;17126869158;49549507421;382756818;252265799;8816527406;747862;167042453;1222;1418;1300888;-125;6847;662471
1;80;1574028015145;1574028023051;7906;17108498562;49549492900;379595850;252841979;8816519623;722158;166009431;1601;1195;1235944;52;6176;151340
1;81;1574028023051;1574028029613;6562;17082369380;49549548715;375005254;251895333;8816535984;687056;165167316;1439;839;1049280;50;6562;675046
1;82;1574028029613;1574028036759;7146;17103197740;49549495269;378905498;252228277;8816521767;735874;166062477;1666;667;1172128;-46;7146;818949
1;83;1574028036759;1574028043015;6256;17098122050;49549525376;380207551;252268229;8816527633;712396;166218770;1005;1289;1057048;-72;5053;163773
1;84;1574028043015;1574028050369;7354;17118306404;49549537749;382707502;252852092;8816539789;765535;167088518;1435;904;1210568;3;5987;59040
1;85;1574028050369;1574028057497;7128;17158953534;49549496445;388857001;252947012;8816532443;818092;168955295;1664;1125;1074280;92;6043;521943
1;86;1574028057498;1574028063769;6271;17078959696;49549527687;378086275;251481653;8816537238;667220;165462886;1415;644;999608;24;6272;855527
1;87;1574028063769;1574028071118;7349;17174326896;49549562360;391361586;253313489;8816558570;850448;169649411;1392;1160;1261240;-129;7300;684088
1;88;1574028071118;1574028078143;7025;17074984992;49549454416;377656073;251798139;8816495894;691028;165273154;1155;1112;1062560;14;4946;48022
1;89;1574028078143;1574028085522;7379;17117093582;49549505082;380467115;253088950;8816532283;736269;166587585;1589;1254;1092896;63;5474;129592
1;90;1574028085522;1574028092991;7469;17115373118;49549455650;382211969;252972933;8816509172;766916;166906387;1717;643;1166768;-45;7283;284645
1;91;1574028092991;1574028099621;6630;17096141122;49549533509;380465928;251846533;8816536618;724129;166079561;1592;624;980000;18;6388;253293
1;92;1574028099621;1574028106745;7124;17120081180;49549517418;380049477;252186590;8816533870;720013;166668964;1087;1234;1150096;-35;5029;67667
1;93;1574028106746;1574028114193;7447;17106214392;49549483178;378560815;252705127;8816511696;715276;166176773;1363;977;1163896;-12;5438;41149
1;94;1574028114193;1574028122046;7853;17127480168;49549512118;381983889;252727771;8816532887;730403;166645785;1755;1114;1142312;28;6657;380320
1;95;1574028122046;1574028128612;6566;17092210656;49549499612;381336278;252173777;8816522780;774392;166321323;1735;374;975384;125;6567;365957
1;96;1574028128612;1574028136318;7706;17123915140;49549504068;381280360;253006027;8816534634;747635;167116084;1190;1388;1339448;-142;6520;441825
1;97;1574028136318;1574028143769;7451;17124861804;49549542013;384092024;252688406;8816547485;764195;167131166;1401;961;1189640;-14;5702;64642
2;51;1574028636971;1574028643838;6867;16809846218;48893549133;378157367;247194136;8766482544;829040;171102664;1021;1120;1009864;-7;4213;29265
2;52;1574028643838;1574028650750;6912;16779125336;48893497218;375144633;246653540;8766459617;841330;170617434;1159;984;988328;6;4338;36711
2;53;1574028650750;1574028658174;7424;16753150768;48893419451;375511456;246976013;8766421251;747566;168371232;1564;1173;1139264;20;6532;450225
2;54;1574028658174;1574028664581;6407;16707913836;48892640517;370533411;245950449;8766242842;880989;162840423;1533;512;958080;60;6408;316198
2;55;1574028664581;1574028671567;6986;16745898948;48892610117;377161022;246188626;8766260541;769397;165570307;1265;993;1046232;-86;5754;218225
2;56;1574028671567;1574028678620;7053;16697992552;48892554932;370028058;246185579;8766231451;675819;163071433;1048;1109;1029600;2;4505;30337
2;57;1574028678620;1574028685327;6707;16703446820;48892591759;369687405;245953201;8766241069;681838;163187238;1395;1220;969376;79;4933;95097
2;58;1574028685327;1574028691997;6670;16704489260;48892584347;371785535;245914099;8766238677;714533;163748701;1478;694;1041208;-9;6362;267345
2;59;1574028691997;1574028699214;7217;16691914134;48892605457;370568862;245795435;8766247986;726456;162964546;1597;699;1185656;-64;7216;448903
2;60;1574028699214;1574028706564;7350;16723040312;48892578043;372481382;246796577;8766230201;728679;164055416;1036;1189;1144680;2;5160;41865
2;61;1574028706564;1574028713468;6904;16722623774;48892612239;371508956;246332725;8766255898;726825;164430373;1284;926;1034000;-7;5195;41785
2;62;1574028713468;1574028720295;6827;16755569696;48892604909;374698669;246663931;8766254065;786823;165444302;1466;1137;1056824;29;5943;294848
2;63;1574028720295;1574028727608;7313;16740499430;48892756283;375161537;246520071;8766275824;833469;165083421;1831;339;1060008;69;6784;173454
2;64;1574028727608;1574028734817;7209;16718169752;48892583745;372936541;246527089;8766248316;728056;163915141;1117;1193;1155192;-95;5586;141944
2;65;1574028734817;1574028741930;7113;16716854146;48892554157;373550930;246190768;8766247277;727754;164159196;1256;1004;1116096;-9;5213;36490
2;66;1574028741930;1574028749024;7094;16731992302;48892513863;374665370;246485835;8766232893;743075;164030090;1605;993;1087976;151;5901;400055
2;67;1574028749024;1574028756122;7098;16778517100;48892580491;381885695;246881598;8766268858;838470;167121067;1669;718;1132824;-132;6893;184031
2;68;1574028756122;1574028763283;7161;16733441644;48892543214;374105257;246664585;8766251352;731974;164380891;1449;826;1134328;-15;6412;130919
2;69;1574028763283;1574028770190;6907;16709135272;48892456558;370785461;246146478;8766205536;726693;163964391;1184;1048;1086472;-5;4815;31646
2;70;1574028770190;1574028777273;7083;16769985006;48892558396;380246239;246393799;8766266381;811744;166571074;1528;1153;1109688;144;5276;99342
2;71;1574028777273;1574028784612;7339;16737092666;48892478312;373401696;246721952;8766231902;742505;164654007;1554;766;1101944;-117;6711;290746
2;72;1574028784612;1574028791529;6917;16717591446;48892459379;372008721;246383367;8766211561;752160;163643177;1780;474;1061136;-18;6668;125309
2;73;1574028791529;1574028797996;6467;16730639612;48892520699;372277417;245873904;8766245341;736170;165127303;1047;1118;980152;2;4447;30134
2;74;1574028797996;1574028804815;6819;16755600648;48892537209;377487622;246656435;8766258088;775733;165492549;1308;886;997104;-7;4642;36574
2;75;1574028804815;1574028812157;7342;16729116686;48892514063;373498388;246671858;8766227738;728030;163607650;1778;1078;1094376;52;6591;542069
2;76;1574028812157;1574028819099;6942;16713532646;48892521401;372834589;246435871;8766231034;814364;163485328;1654;584;1081504;-29;6797;275983
2;77;1574028819099;1574028825752;6653;16761568982;48892544982;378740402;246084109;8766250368;863352;165916482;1369;848;1016712;-19;5345;59365
2;78;1574028825752;1574028833334;7582;16722056564;48892521033;373500309;246584343;8766240238;739903;163806749;1531;1211;1036880;124;6034;343530
2;79;1574028833335;1574028841504;8169;16710801862;48892472327;369928828;246689503;8766208702;721593;162979694;1756;779;1061536;-1;8170;1053230
2;80;1574028841505;1574028848612;7107;16700398486;48892476116;369914452;246186065;8766220836;784279;163124857;1552;927;1187104;-49;7107;984023
2;81;1574028848612;1574028855605;6993;16736082784;48892544369;375331510;246309733;8766247097;758988;165016147;1205;1140;1220112;-71;6126;282063
2;82;1574028855606;1574028861674;6068;16685295662;48892483528;366995535;245851201;8766211910;658583;162606348;1245;860;847712;-6;4287;39018
2;83;1574028861674;1574028868439;6765;16741813284;48892559597;376217129;246169287;8766257948;774156;165262278;1766;923;894936;149;5642;631828
2;84;1574028868439;1574028875077;6638;16746027428;48892605124;379263828;246579331;8766266121;777770;165337773;1586;771;1053216;-9;6637;933555
2;85;1574028875077;1574028881903;6826;16726052000;48892522058;371832522;246429175;8766235293;791306;164004999;1302;1156;1196976;-140;6737;671740
2;86;1574028881904;1574028888809;6905;16710866686;48892551224;370006513;246339275;8766238559;712653;163242455;1136;1068;988776;6;4250;26453
2;87;1574028888809;1574028895498;6689;16708982702;48892585713;372322994;245868474;8766258262;743781;163747868;1245;1026;1056592;-6;5003;45222
2;88;1574028895499;1574028902522;7023;16708937442;48892467141;371398105;246393759;8766206808;712267;163661673;1772;1086;1049728;19;6970;615399
2;89;1574028902522;1574028909647;7125;16715627308;48892522696;370975615;246255285;8766240718;738613;163813863;1807;452;1095856;5;7125;293534
2;90;1574028909647;1574028916821;7174;16725919140;48892532887;373281199;246226880;8766241370;728645;164013669;1103;1201;1124880;-10;5042;41262
2;91;1574028916821;1574028924186;7365;16753507738;48892495022;377579356;246747646;8766234521;791089;165722219;1301;1023;1149000;-12;5336;39512
2;92;1574028924186;1574028930895;6709;16724783552;48892546417;374318375;246596699;8766243932;726754;164157297;1727;1087;980592;-2;5987;339362
2;93;1574028930895;1574028937861;6966;16711268186;48892530125;371442990;246079287;8766235371;926174;163163818;1797;449;1061320;17;6579;131279
2;94;1574028937861;1574028945355;7494;16702666742;48892497645;369453071;246426071;8766223091;761334;163153909;1397;969;1175304;-17;6257;77130
2;95;1574028945355;1574028951869;6514;16727191676;48892528965;373209252;246220072;8766232654;734136;164383085;1295;878;944848;28;4776;45832
2;96;1574028951869;1574028959018;7149;16731894336;48892541330;373124430;246509979;8766243136;753393;164423951;1603;1214;1047064;76;5558;174070
2;97;1574028959018;1574028965943;6925;16720303542;48892538350;371320043;246189601;8766249370;807847;163832337;1605;710;1098168;-78;6926;375165
2;98;1574028965943;1574028972866;6923;16719194526;48892464785;373150766;246217122;8766208958;734259;164123621;1726;566;1049464;-20;6769;136747
2;99;1574028972867;1574028979974;7107;16738941172;48892564630;375573035;246713422;8766259005;751731;165004813;1140;1089;1015688;18;4568;41237
2;100;1574028979974;1574028986766;6792;16720482684;48892515087;371618136;246102532;8766229772;751581;163726445;1197;1044;1005968;-20;4655;41530
3;48;1574029477457;1574029483873;6416;17175005066;50324872362;381587990;255488480;9201479706;648448;167941350;1556;604;993224;-73;6229;205240
3;49;1574029483873;1574029491096;7223;17256529714;50324961615;392971400;256427632;9201535831;740044;170740245;1582;604;1059168;-9;6057;69940
3;50;1574029491096;1574029498699;7603;17241865328;50325045144;389456054;256590695;9201543503;744975;170837828;1017;1178;1146688;1;4947;25696
3;51;1574029498699;1574029505906;7207;17193593056;50325052710;382414959;255950850;9201516838;663464;168889183;1123;1056;1041416;-2;4810;35628
3;52;1574029505907;1574029512907;7000;17203023196;50325077429;386193977;256308093;9201530822;706623;168564927;1529;988;969376;-10;5813;222037
3;53;1574029512908;1574029520715;7807;17171724446;50325017896;382372187;255748502;9201515115;666705;168798917;1909;307;1147584;32;7250;119349
3;54;1574029520716;1574029527693;6977;17200513602;50324233559;387499514;255159320;9201342581;684452;171919774;944;1217;1035096;-24;4842;35377
3;55;1574029527693;1574029535154;7461;17170622584;50324116351;382335520;254989958;9201311466;635014;170881004;1234;1016;1172952;3;5197;35511
3;56;1574029535154;1574029542106;6952;17215077102;50324204089;389330999;255762151;9201353651;669408;172503136;1551;1138;1073360;-7;6114;278500
3;57;1574029542106;1574029549449;7343;17155318134;50324112581;382170931;254849027;9201306643;639550;171034772;1778;398;1118696;59;6757;121218
3;58;1574029549450;1574029556013;6563;17196319606;50324171605;388062467;255109154;9201348554;676756;171953493;1238;960;1017768;-59;5412;94664
3;59;1574029556013;1574029563166;7153;17223768774;50324212814;391337444;255514626;9201357365;700523;173031388;1182;1012;1086960;2;5182;42315
3;60;1574029563167;1574029570549;7382;17233230158;50324135078;391853433;256304296;9201328367;704440;174193189;1549;1051;1041768;55;5429;178133
3;61;1574029570549;1574029578011;7462;17196371436;50324144870;386496753;255776050;9201326484;672438;171731613;1632;595;1121672;-40;6730;168993
3;62;1574029578012;1574029584993;6981;17277143016;50324223311;399348021;255911092;9201380014;762772;176005837;1548;652;1033928;-12;6283;92240
3;63;1574029584993;1574029592408;7415;17214585082;50324346193;389436650;255939853;9201370143;714924;173430985;1052;1112;1040624;16;4850;32618
3;64;1574029592408;1574029599348;6940;17168319434;50312304423;391329421;254674069;9201327589;692565;176390390;1111;1082;1010320;-25;4398;29005
3;65;1574029599348;1574029606968;7620;17166155568;50312238695;391225685;254920218;9201326409;708377;175623758;1694;1123;1175376;54;7178;515154
3;66;1574029606968;1574029613985;7017;17210999322;50312246181;396737074;254960562;9201330541;745533;178510113;1829;391;1111664;19;7018;281732
3;67;1574029613986;1574029621676;7690;17202295240;50312299724;394658799;255409015;9201356329;734163;177683616;1046;1278;1244480;-57;5547;92154
3;68;1574029621676;1574029628547;6871;17187398276;50312289673;393649629;255037445;9201344735;703995;176912929;1316;856;967792;-5;4888;42257
3;69;1574029628548;1574029635551;7003;17178530966;50312213560;390586800;254300295;9201311488;708508;178137541;1546;1025;1005840;45;5847;549100
3;70;1574029635551;1574029643134;7583;17171435074;50312290983;391185383;254772100;9201333443;718530;176240634;1798;480;1184608;1;7583;191121
3;71;1574029643134;1574029650593;7459;17170289120;50312235574;387460462;254900296;9201330596;679492;175613736;1281;1015;1176312;-52;6310;225543
3;72;1574029650593;1574029658291;7698;17175196618;50312280330;391717277;255553181;9201328269;702055;176334094;1176;1115;1160536;-5;5051;30477
3;73;1574029658292;1574029665693;7401;17140986190;50312212186;385401245;254738337;9201304143;671772;174659548;1647;1032;1145832;66;6271;289150
3;74;1574029665693;1574029673201;7508;17211198028;50312300473;397116754;255263287;9201355526;751740;178212713;1683;644;1224608;-17;7249;232698
3;75;1574029673201;1574029680295;7094;17204459982;50312191757;396070524;254816342;9201313940;732674;177849918;1482;790;1107208;-39;6850;378169
3;76;1574029680295;1574029687946;7651;17169531526;50312246262;388809301;254901840;9201334079;696266;176500296;1282;1035;1200096;2;5493;39347
3;77;1574029687946;1574029695803;7857;17151336860;50312300836;388141236;255225795;9201340779;691817;174849218;1740;1176;1062528;116;7259;679487
3;78;1574029695803;1574029702223;6420;17154026910;50312189168;389750499;254183739;9201297040;704451;175898846;1482;472;915776;26;6420;902023
3;79;1574029702223;1574029708912;6689;17181680770;50312259315;392560827;255010043;9201333382;698519;177398518;1343;1334;1093480;-28;6689;960501
3;80;1574029708912;1574029715467;6555;17129233920;50312256916;385524064;253825981;9201322317;645059;174621846;1017;1344;1297536;-121;6531;487746
3;81;1574029715467;1574029722712;7245;17154494256;50312234905;387499747;254374273;9201313402;685889;175463115;1314;941;1080456;14;5153;45629
3;82;1574029722712;1574029730303;7591;17169461592;50312231237;390978869;254974555;9201316113;687728;176156818;1843;1055;1145056;9;7417;583947
3;83;1574029730303;1574029737046;6743;17168727066;50312213610;390744104;254733606;9201321361;706077;175290463;1845;420;991704;48;6743;497052
3;84;1574029737046;1574029744582;7536;17163243452;50312279198;390183287;255093885;9201316013;709975;175974226;1141;1215;1196080;-70;5882;160058
3;85;1574029744583;1574029752062;7479;17193292150;50312381038;393843421;255070610;9201378144;729024;177993873;1382;914;1136864;12;5468;55238
3;86;1574029752063;1574029759716;7653;17210392692;50312312577;395693992;255660566;9201352496;710814;177559498;1645;1165;1233384;7;7029;328664
3;87;1574029759716;1574029766813;7097;17182419530;50312260948;392195090;254836837;9201320877;705510;176151005;1823;421;1045376;-6;6383;87659
3;88;1574029766813;1574029773676;6863;17143862390;50312198906;387771834;254357125;9201301542;683540;175403682;1297;933;1020424;-12;5660;65685
3;89;1574029773676;1574029781513;7837;17154164734;50312244769;385917632;254951285;9201330072;721416;175850566;1358;1008;1221688;0;5908;49958
3;90;1574029781513;1574029788516;7003;17156097482;50312220265;386241312;254902922;9201311290;666528;175273013;1720;1038;1016672;84;5810;274133
3;91;1574029788516;1574029794928;6412;17137490074;50312224833;387396642;253998100;9201308668;660143;174979018;1646;617;998704;-76;6411;260117
3;92;1574029794928;1574029802645;7717;17206135186;50312334552;393942706;255215139;9201361023;740140;177375325;1623;677;1140448;-9;6586;98781
3;93;1574029802646;1574029810589;7943;17201839574;50312233545;394606476;255261246;9201323655;753350;177651036;1318;1064;1224992;5;5623;40159
3;94;1574029810589;1574029817341;6752;17175124640;50312294790;388957469;254612728;9201348311;689075;176421169;1277;926;980088;-6;4575;42398
3;95;1574029817341;1574029824389;7048;17149896716;50312264037;385060617;254459873;9201325601;671445;174721336;1783;936;1062096;26;6912;348719
3;96;1574029824389;1574029832052;7663;17175759448;50312215552;390083568;254943874;9201306843;712192;175762928;1914;439;1167280;-26;7370;206144
3;97;1574029832053;1574029839620;7567;17169247556;50312195765;390035106;254773603;9201309678;710433;176260221;1075;1185;1072088;7;4652;28151
4;43;1574030310341;1574030317785;7444;18718664964;53718347757;391131881;256957668;9788810618;745023;171838225;1064;1115;1129000;9;4935;31430
4;44;1574030317785;1574030324994;7209;18688118114;53718353376;385484754;256158424;9788809646;683829;169645367;1445;1130;1036392;54;5343;105466
4;45;1574030324996;1574030332518;7522;18695038368;53718275616;386837135;256255476;9788782603;724876;170237829;1586;644;1201960;-8;7277;233104
4;46;1574030332518;1574030339953;7435;18672045996;53718287126;382371309;255655991;9788777774;667930;168995536;1727;545;1184800;-55;7236;140511
4;47;1574030339953;1574030347728;7775;18692749088;53718405795;386214054;256487816;9788825094;707074;170575379;1000;1166;1071840;8;4233;22319
4;48;1574030347728;1574030355230;7502;18678827258;53718319480;384338361;256257838;9788785342;694146;169758732;1430;1082;1135944;124;5556;77113
4;49;1574030355230;1574030362565;7335;18739937748;53718474195;392352688;256704029;9788855798;756358;172209068;1657;617;1059408;-120;6798;159441
4;50;1574030362565;1574030370086;7521;18693131316;53718370315;386482811;256545887;9788814173;736348;170234700;1664;544;1077744;-9;6218;88443
4;51;1574030370086;1574030378117;8031;18681674258;53718454881;384990487;256618192;9788807334;748240;169983752;1106;1146;1221048;-2;5012;28857
4;52;1574030378117;1574030386251;8134;18725964380;53718457233;390553579;257055658;9788832791;784378;172072705;1352;1240;1112616;50;5110;84775
4;53;1574030386251;1574030393413;7162;18673150486;53718477658;382873281;255747569;9788830120;689609;168899877;1506;677;1083600;-44;6802;316517
4;54;1574030393413;1574030401471;8058;18687619670;53717573298;383095808;255624745;9788620719;694572;169305320;1716;596;1242872;-8;7306;146429
4;55;1574030401471;1574030408571;7100;18649425632;53706317861;388646307;255527653;9788648834;742408;170766717;1062;1116;1062672;0;4976;42101
4;56;1574030408571;1574030415889;7318;18688869722;53705735338;396112207;255970032;9788658667;788645;173563296;1363;860;1116056;16;5378;43257
4;57;1574030415889;1574030423724;7835;18641480020;53705613521;388500308;255663724;9788603316;727926;170946356;1821;941;1154032;14;7051;322798
4;58;1574030423724;1574030431724;8000;18627174940;53705653637;387300243;255953822;9788620489;708119;170287098;1913;397;1230560;-1;7602;173208
4;59;1574030431724;1574030439560;7836;18662516576;53705663616;392239662;255912577;9788628445;785305;172452535;1126;1161;1203512;-32;5223;56261
4;60;1574030439560;1574030446946;7386;18625297234;53705617676;382570052;255130903;9788596507;824621;170163145;1187;1018;1041912;5;4346;27646
4;61;1574030446946;1574030453775;6829;18650578156;53705671029;387355384;254831818;9788625812;728737;172030700;1735;932;1010816;41;6726;407372
4;62;1574030453775;1574030461616;7841;18641816842;53705716631;386622371;255813363;9788647875;740580;170990456;1857;425;1169712;-15;6990;135335
4;63;1574030461616;1574030469295;7679;18649359202;53705706552;386884342;255829826;9788631148;720655;171249814;1100;1157;1133336;-23;4665;31462
4;64;1574030469295;1574030477438;8143;18637310260;53705671692;385586803;255710257;9788616398;708418;170796074;1326;1028;1270656;-8;5666;40338
4;65;1574030477438;1574030484352;6914;18608700392;53705658912;385028881;254568653;9788611158;728700;169813498;1659;1083;1041416;154;6612;802211
4;66;1574030484352;1574030492504;8152;18633187512;53705615725;385405099;255653641;9788600935;738770;170405277;1910;530;1291544;-43;8153;1160124
4;67;1574030492505;1574030499632;7127;18596440188;53705606832;382952348;254929823;9788599438;661128;169461642;999;1411;1347392;-111;6571;376311
4;68;1574030499632;1574030506851;7219;18657767926;53705697724;389532388;255611365;9788634524;748961;172674873;1307;931;1073760;14;4654;30878
4;69;1574030506851;1574030514520;7669;18637877616;53705625743;384994353;255608712;9788607690;698847;170614834;1760;1081;1158088;37;6712;554925
4;70;1574030514521;1574030521969;7448;18616517232;53705630530;382242824;254999468;9788603227;674129;169877028;1789;506;1170384;-38;7424;392511
4;71;1574030521969;1574030528701;6732;18619696966;53705665190;386349057;254859015;9788631269;676693;170090093;1208;987;986440;-8;5204;61331
4;72;1574030528701;1574030538255;9554;18657297368;53705669520;390372424;255811523;9788624874;772410;171787487;1910;1235;1266392;139;9014;1015550
4;73;1574030538255;1574030545440;7185;18631876432;53705625193;388769612;255809926;9788604965;721673;170793248;1826;502;1008208;-22;7185;959785
4;74;1574030545440;1574030553022;7582;18660055600;53705690434;392381514;255906572;9788635730;747770;172370041;1406;983;1194320;-111;6245;301418
4;75;1574030553022;1574030560252;7230;18611538778;53705622543;385092735;255091822;9788600179;674860;169975613;1192;1043;1056200;-4;4672;31890
4;76;1574030560252;1574030567703;7451;18659001334;53705647045;391174474;255414393;9788627128;766551;172283031;1885;1001;1112688;65;7213;580592
4;77;1574030567703;1574030575605;7902;18675500356;53705664883;392724859;256400560;9788633159;776290;173036490;1998;359;1214144;-54;7603;177907
4;78;1574030575605;1574030583600;7995;18640490724;53705678186;387020324;255903694;9788624176;712115;170827537;1143;1218;1206832;2;5504;45929
4;79;1574030583600;1574030591009;7409;18669014014;53705685768;390481183;255468563;9788628973;739111;172328933;1408;880;1133192;-9;5455;52582
4;80;1574030591009;1574030597685;6676;18635535046;53705669428;389657285;254692337;9788635636;719624;171352262;1601;1170;1024864;141;6026;585483
4;81;1574030597685;1574030605733;8048;18643690460;53705626283;386981860;255929410;9788613811;724405;170891698;1897;488;1246520;-42;8048;1021932
4;82;1574030605733;1574030612871;7138;18617916350;53705624261;385504080;255398439;9788583311;680970;170014922;1130;1250;1180536;-98;5585;159140
4;83;1574030612871;1574030620369;7498;18633318766;53705706952;387341998;255599286;9788633546;726190;170700414;1227;1050;1104904;-2;4764;30658
4;84;1574030620369;1574030627643;7274;18622198530;53705668364;385564249;255124422;9788616764;687947;169969562;1678;1111;1089176;107;6111;589468
4;85;1574030627643;1574030635571;7928;18634111984;53705644816;387626851;255630143;9788619465;702413;170699439;1902;462;1217640;-17;7929;1023511
4;86;1574030635572;1574030642855;7283;18624048350;53705641519;384052487;255180848;9788612548;702474;170233247;1222;1177;1233688;-96;6183;241809
4;87;1574030642855;1574030650387;7532;18629756366;53705687487;386813995;255353139;9788623569;696411;170671875;1269;962;1002288;8;4543;33326
4;88;1574030650387;1574030657645;7258;18624403422;53705606202;385973174;255332474;9788596751;713506;171018737;1614;1119;1001064;40;5400;254371
4;89;1574030657646;1574030664558;6912;18619106980;53705641907;386125204;255541534;9788615342;678845;169806307;1738;569;1093064;-25;6912;408679
4;90;1574030664558;1574030672012;7454;18661952578;53705674030;391541241;255879945;9788632198;760627;171779500;1418;930;1192624;-22;6212;130414
4;91;1574030672012;1574030679138;7126;18660910722;53705620486;392909507;255532557;9788606434;752742;172423902;1285;927;968248;16;4628;36831
4;92;1574030679139;1574030686818;7679;18650903882;53705663362;390939068;255784994;9788628116;727712;171675602;1671;1126;1093624;96;5271;168771
