0;66;1574049787498;1574049793195;5697;12688487700;22825636413;1415989007;137671958;3738272709;36888940;746764239;325;0;665336;0;2202;7513
0;67;1574049793248;1574049799316;6068;12627922374;22834534899;1411713995;136352689;3739862816;36833579;747345313;408;0;857712;-1;2844;10634
0;68;1574049799367;1574049805311;5944;12699218846;22825585186;1418262650;137959857;3738250450;36909187;747855108;401;0;834272;0;2784;9845
0;69;1574049805344;1574049810901;5557;12614478840;22833304412;1410477222;134997035;3739672643;36855338;750706714;507;42;824944;1;3096;19433
0;70;1574049810956;1574049817640;6684;12655310806;22825160845;1412849402;137475402;3738210395;37008769;748059842;467;0;973880;-1;3213;11327
0;71;1574049817735;1574049824797;7062;12608344066;22766523220;1408285091;137754299;3722044018;37005317;744055503;492;0;1013816;0;3216;11842
0;72;1574049824869;1574049831243;6374;12596929932;22767114506;1419410190;136170966;3720228671;36870693;745283174;456;0;950400;0;3041;11206
0;73;1574049831337;1574049837370;6033;12596843938;22759461225;1415214641;135569992;3718792972;36919846;747309556;514;50;848624;0;3035;16123
0;74;1574049837406;1574049842560;5154;12574448414;22768598445;1406637422;134174881;3720450998;36840788;743381146;333;0;694592;1;2388;7109
0;75;1574049842611;1574049847834;5223;12627376772;22790986805;1411209265;135399762;3723636425;37052611;747090108;331;0;688768;-1;2245;7908
0;76;1574049847885;1574049854221;6336;12615560700;22800732681;1423463199;136444729;3725003570;37019515;750396237;427;0;876552;0;2849;10536
0;77;1574049854256;1574049861593;7337;12640913892;22792131499;1413461420;138831179;3723470536;36912163;746070707;504;0;1045440;5;3439;12749
0;78;1574049861627;1574049867442;5815;12611841058;22809789782;1419696192;135932281;3726681149;36981902;749987739;494;54;806528;0;2881;14730
0;79;1574049867477;1574049873208;5731;12627369326;22800702407;1413820499;135992746;3725022101;37107589;747594533;385;0;802552;-5;2809;8164
0;80;1574049873242;1574049879727;6485;12614163918;22809562887;1412655786;136132096;3726669684;37231039;748547745;454;0;939840;0;3034;10917
0;81;1574049879762;1574049885536;5774;12620897730;22809214645;1413771755;135988629;3726593112;36970891;749698013;377;0;770896;5;3190;12676
0;82;1574049885577;1574049891062;5485;12567122864;22800738099;1409157370;134140277;3724969342;36878563;751357814;843;44;748264;-1;5114;43515
0;83;1574049891097;1574049896846;5749;12574987738;22782194333;1412975117;135219492;3721650311;36895857;746969534;439;6;801520;-4;3212;15242
0;84;1574049896880;1574049903313;6433;12630239540;22809548873;1412022796;136240425;3726646354;36959056;749371546;420;0;865920;0;2825;10080
0;85;1574049903410;1574049909245;5835;12613980104;22802428639;1409731749;135991224;3725332950;36892454;746395925;401;0;823680;0;2745;9949
0;86;1574049909327;1574049915831;6504;12605981494;22791985393;1422384864;136328152;3723455441;36998815;749071111;447;0;908192;0;2924;11017
0;87;1574049915889;1574049921950;6061;12606912974;22791870396;1411556953;136445899;3723479238;36877639;746899566;614;43;844144;3;3292;38752
0;88;1574049921983;1574049927568;5585;12566875248;22800758261;1416117537;134447223;3724998343;36813113;751204697;475;0;799272;3;2998;14277
0;89;1574049927650;1574049935171;7521;12643483784;22800857920;1408225927;139915277;3725066821;37059867;744233543;553;0;1127552;-5;3641;13392
0;90;1574049935205;1574049941538;6333;12589443490;22800441372;1417862521;135970120;3724872416;36948489;750981677;457;0;942200;4;3098;11502
0;91;1574049941601;1574049947481;5880;12594447932;22783258541;1413517596;135837180;3721859049;36825094;744966764;423;0;853024;-4;2838;10856
0;92;1574049947515;1574049953481;5966;12582284380;22801273934;1407818090;135328784;3725136339;36862912;746613209;631;44;866288;-1;3516;48840
0;93;1574049953515;1574049959443;5928;12587023540;22792368071;1409731496;135236518;3723476821;36835788;744695025;413;0;831912;1;2745;9678
0;94;1574049959528;1574049966545;7017;12623641946;22801536401;1412820703;138405094;3725154778;37077853;747751955;487;0;995008;-1;3214;11919
0;95;1574049966654;1574049972920;6266;12598323210;22790337562;1412559233;136320409;3723180660;36921563;744782689;438;0;876528;0;2911;10889
0;96;1574049972955;1574049979342;6387;12598021282;22792891027;1409101489;136729801;3723692769;36899211;750331899;450;1;918720;0;3021;11627
0;97;1574049979408;1574049986001;6593;12615021668;22809001242;1403755104;137240317;3726541370;36928478;746117197;687;26;997488;0;3948;42968
0;98;1574049986058;1574049992990;6932;12625911808;22806998257;1408029608;137528757;3726155249;37043368;751051954;493;0;990312;1;3234;11841
0;99;1574049993025;1574049998864;5839;12584492192;22789501183;1411295070;134793854;3723048208;36917976;748242734;397;0;804928;-1;2572;9756
0;100;1574049998898;1574050005315;6417;12611117628;22792939802;1410366373;136831976;3723490458;36866439;747802525;468;0;939872;0;3147;12103
0;101;1574050005364;1574050012126;6762;12618022990;22792765923;1423387677;137626446;3723488035;36857951;752372265;651;36;957456;5;3693;47516
0;102;1574050012198;1574050018356;6158;12624519698;22801485363;1417475275;136171607;3725185525;36913807;747040631;425;0;865920;-5;2941;9138
0;103;1574050018392;1574050024903;6511;12595987502;22808602436;1414049951;136122828;3726421740;36889115;747378057;473;0;939896;0;3053;11636
0;104;1574050024937;1574050030984;6047;12611482628;22791127864;1413537581;136153630;3723233841;36829762;750166065;420;0;855360;0;2751;10530
0;105;1574050031055;1574050036797;5742;12575605464;22802137067;1405070890;134426030;3725257755;36889851;747757305;388;0;770912;0;2510;9503
0;106;1574050036865;1574050043519;6654;12646758710;22791107598;1417939944;137976753;3723242899;36860379;748834295;618;44;954320;0;3415;20290
0;107;1574050043555;1574050048587;5032;12550233146;22792218390;1411361480;133530164;3723470851;36910361;744922253;292;0;591352;0;2117;6559
0;108;1574050048621;1574050054453;5832;12623674650;22791052184;1413572239;137186436;3723299384;36942481;748099961;364;0;718120;5;2421;8720
0;109;1574050054548;1574050060252;5704;12589522622;22790782602;1413602465;135106302;3723242857;37056255;745236605;405;0;813120;-5;2641;9841
0;110;1574050060285;1574050065180;4895;12612560254;22793294433;1410999483;134537236;3723617088;36804768;748141278;290;0;580832;0;1933;6546
0;111;1574050065238;1574050071387;6149;12585317676;22800735350;1411626755;136374082;3725027388;36854383;744938767;451;0;905784;1;3071;11947
0;112;1574050071480;1574050077286;5806;12593763922;22809395970;1408442211;135166583;3726625248;37213679;747648871;570;36;839696;4;3184;21123
0;113;1574050077321;1574050082752;5431;12587329848;22798432567;1414245006;134602873;3724711434;36785381;748257692;380;0;749808;-5;2492;9005
0;114;1574050082786;1574050088962;6176;12567557360;22799775650;1425738458;135498075;3724824789;36891722;749822677;441;0;887040;0;2855;10872
0;115;1574050088997;1574050094373;5376;12620952918;22799476294;1410579339;135413057;3724789007;36848103;744851920;362;0;728640;0;2385;9270
1;61;1574050645709;1574050651822;6113;12617569952;22644101104;1434932088;135080429;3681515611;36516620;751175652;413;0;857752;-1;2788;10414
1;62;1574050651858;1574050658668;6810;12661618152;22627873833;1429573525;137968543;3678533815;36453713;747865158;528;48;887256;1;3484;20061
1;63;1574050658706;1574050664899;6193;12638603004;22647191877;1413030278;136627924;3681941111;36522271;748089145;429;0;899952;-1;2968;10141
1;64;1574050664936;1574050671674;6738;12636347596;22641833361;1418170124;137223515;3680855948;36597954;749794476;468;0;961024;5;3089;11093
1;65;1574050671740;1574050677901;6161;12630788792;22635217756;1424599305;136076202;3679667093;36513186;750962045;428;0;897600;-5;2954;11008
1;66;1574050677936;1574050684710;6774;12626010796;22645839092;1418456036;137223531;3681739411;36521149;750574799;570;48;995968;6;3416;15992
1;67;1574050684794;1574050691690;6896;12655248610;22647177968;1405928316;137353737;3681971636;36530699;746017272;481;0;1000832;-5;3441;10731
1;68;1574050691726;1574050698225;6499;12651125278;22648086279;1428813412;136294876;3682045288;36533217;752256508;458;0;942256;-1;3039;10813
1;69;1574050698261;1574050704504;6243;12643855208;22647577823;1415705311;135513129;3681969039;36577251;745066329;426;0;887040;0;2881;10361
1;70;1574050704582;1574050710801;6219;12675025040;22658940894;1419757186;136041836;3684006395;36614759;749008786;399;0;834240;0;2811;10348
1;71;1574050710839;1574050715491;4652;12578538896;22656561355;1415656812;131715539;3683614961;36473867;751142943;401;46;623992;1;2191;11919
1;72;1574050715527;1574050722708;7181;12648659192;22649815670;1419242419;137964880;3682395949;36531988;750701771;498;0;1037248;4;3513;10935
1;73;1574050722743;1574050728965;6222;12625187648;22632501177;1423750945;135728230;3679184381;36492849;749220142;432;0;887072;-5;2883;10432
1;74;1574050729002;1574050735054;6052;12600412324;22641680436;1420423208;135090446;3680866027;36487735;749885048;396;0;821304;1;2711;10308
1;75;1574050735091;1574050741520;6429;12629555238;22646716040;1417389031;136218683;3681870336;36602139;747490291;442;0;921088;4;3032;10992
1;76;1574050741556;1574050747301;5745;12601490242;22649584607;1422603750;134651197;3682296113;36513694;749248940;514;38;816248;-5;2852;16837
1;77;1574050747337;1574050753761;6424;12644542868;22651252193;1430734397;136242267;3682593848;36567091;751412734;438;0;908144;0;3094;9395
1;78;1574050753798;1574050759790;5992;12632276824;22640667815;1430831209;135064489;3680688736;36773133;747132014;413;0;844840;0;2723;9769
1;79;1574050759845;1574050766908;7063;12629480486;22633475684;1415118064;137757610;3679312602;36570116;747188688;523;0;1077120;0;3470;13013
1;80;1574050766944;1574050773807;6863;12635495394;22637651236;1424990977;136821970;3680323424;36553143;752576016;461;0;950400;5;3090;11585
1;81;1574050773842;1574050781319;7477;12619252456;22646973369;1416138187;137596973;3681905668;36476764;749249999;667;52;1174072;-5;4244;21837
1;82;1574050781380;1574050788837;7457;12667757306;22633305408;1436770107;138864063;3679347122;36552616;751745604;552;0;1140480;5;3784;13270
1;83;1574050788898;1574050796137;7239;12644163122;22640920127;1417350186;137440000;3680804777;36553575;747579564;522;0;1066608;1;3469;13057
1;84;1574050796243;1574050803020;6777;12684087990;22636030960;1430625772;136935036;3680009024;36621964;751450834;477;0;982064;-1;3251;12230
1;85;1574050803105;1574050809111;6006;12626763280;22662788255;1408436309;135437580;3683924587;36534664;745392588;511;56;848024;-5;3021;15914
1;86;1574050809150;1574050814502;5352;12625143702;22673075212;1413460179;134291340;3685245766;36718961;749229589;358;0;739200;0;2502;7123
1;87;1574050814616;1574050820396;5780;12631661872;22675444200;1416973531;134734894;3685809873;36519810;748609927;394;0;802560;5;2648;9797
1;88;1574050820487;1574050827013;6526;12681579126;22681803709;1418175025;137116447;3686864421;36589948;749326950;454;0;926952;-4;3028;11563
1;89;1574050827051;1574050833595;6544;12661045686;22683344584;1425893009;136459699;3687165795;36515206;751215813;457;0;931648;4;3083;11377
1;90;1574050833632;1574050840929;7297;12664534210;22664231509;1420376952;138718522;3683743845;36545333;747855385;896;46;1103472;13;5917;92399
1;91;1574050841010;1574050847048;6038;12662202882;22690146141;1427897315;136050009;3688383224;36619029;752373356;618;6;868264;-13;4585;57458
1;92;1574050847147;1574050854091;6944;12708300922;22690149659;1412401472;137922675;3688489731;36584983;749894917;508;0;1021992;-4;3322;12616
1;93;1574050854130;1574050859517;5387;12622054196;22679983075;1414756717;134146811;3686543376;36528104;748713934;369;0;752128;-1;2427;9229
1;94;1574050859565;1574050865760;6195;12659239812;22683957417;1418028908;136857382;3687280149;36470081;750398551;462;0;937472;1;3055;11652
1;95;1574050865810;1574050872164;6354;12647693110;22666121591;1418265523;136177629;3684037694;36559257;749603421;651;48;926048;-1;3756;26285
1;96;1574050872202;1574050877838;5636;12616463856;22678395355;1409977309;135012120;3686327785;36507798;751216426;401;0;813120;0;2699;8941
1;97;1574050877943;1574050884493;6550;12682254084;22682654103;1414964747;137144760;3687090308;36514165;747817426;494;0;971696;0;3229;12084
1;98;1574050884597;1574050891252;6655;12699030360;22689915069;1411887297;137759948;3688353053;36619872;751739066;487;0;982080;0;3260;12409
1;99;1574050891292;1574050897669;6377;12655667046;22674681409;1421864302;136029240;3685600120;36672140;747988536;471;0;939888;0;2999;11576
1;100;1574050897708;1574050903874;6166;12655176778;22672651620;1423017024;136126538;3685293919;36682356;752531674;559;66;864304;0;3370;21103
1;101;1574050903931;1574050910184;6253;12654347352;22681326722;1428518653;135161716;3686878043;36542972;750493465;433;0;876472;0;2885;9757
1;102;1574050910222;1574050915923;5701;12642379148;22692479892;1423784147;134954138;3688797876;36568835;750681834;380;0;757984;1;2467;9081
1;103;1574050915982;1574050922856;6874;12663872830;22665171724;1415875503;137085514;3683903788;36551989;747673472;497;0;1005560;4;3267;12255
1;104;1574050922894;1574050928473;5579;12640909220;22674727082;1411957964;134300617;3685622458;36507441;746354605;382;0;749800;0;2431;9252
1;105;1574050928510;1574050935383;6873;12674354316;22661035176;1424164208;137804240;3683190409;36537042;746328365;597;32;984912;0;3477;15226
1;106;1574050935467;1574050941940;6473;12651266314;22681898700;1423333909;136637565;3686926161;36450116;748648960;462;0;929272;-5;3053;10852
1;107;1574050942008;1574050947917;5909;12628142834;22665990165;1409369202;135541696;3684017601;36515826;746765118;421;0;834280;0;2725;10495
1;108;1574050947955;1574050954617;6662;12646449774;22672628326;1415196894;137076751;3685269111;36476322;749748808;471;0;939840;0;3057;11532
1;109;1574050954655;1574050960171;5516;12618199650;22675490047;1423020173;134801062;3685771325;36484630;749008848;385;0;760352;0;2489;9896
1;110;1574050960209;1574050966174;5965;12624464218;22678608703;1422237445;135007240;3686424424;36479990;749872907;550;42;858832;0;3232;16207
2;63;1574051525517;1574051531512;5995;12762677016;22637292167;1431483468;137130395;3667990197;36504572;743604506;488;48;741784;0;2851;21355
2;64;1574051531560;1574051537700;6140;12701630474;22632396613;1431259307;136047104;3667091088;36445305;742901274;422;0;887032;0;2942;9728
2;65;1574051537738;1574051544616;6878;12776091204;22643901519;1445134941;138885663;3669190489;36472088;752201074;437;0;908184;4;2912;10431
2;66;1574051544710;1574051550009;5299;12701318910;22638404015;1439439705;134270347;3668134739;36433218;748621000;370;0;770880;-4;2567;9552
2;67;1574051550056;1574051556071;6015;12744908962;22654609061;1427068270;136215313;3671094957;36462111;746954003;413;0;855408;0;2742;10218
2;68;1574051556129;1574051561965;5836;12759346464;22629801369;1456805386;136121621;3666622338;36454179;748683274;502;42;840296;0;3172;18030
2;69;1574051562001;1574051569017;7016;12755610762;22647072049;1448562044;138457726;3669701007;36445081;749381786;495;0;1034880;0;3399;11753
2;70;1574051569055;1574051575055;6000;12746073750;22640295759;1447444483;136263538;3668468037;36554737;749393527;387;0;792048;0;2569;9344
2;71;1574051575146;1574051582281;7135;12782354604;22637618643;1438269642;138984475;3668057831;36528857;746809913;503;0;1045440;5;3487;13048
2;72;1574051582325;1574051588599;6274;12738561174;22636309414;1443172484;137211952;3667821854;36455614;745127497;549;48;921472;-5;3231;19164
2;73;1574051588636;1574051594539;5903;12736839688;22646811330;1449685568;136307031;3669718605;36474155;747336164;396;0;821312;1;2797;8454
2;74;1574051594606;1574051600698;6092;12757938148;22636203657;1450929559;137373826;3667784825;36473031;749604925;395;0;826048;-1;2664;9249
2;75;1574051600756;1574051606569;5813;12741207862;22646954889;1429142949;136442351;3669732024;36392035;746176272;395;0;813160;0;2636;9576
2;76;1574051606654;1574051611984;5330;12750160582;22640821867;1429184492;136133521;3668621060;36413729;744601457;360;0;747384;1;2514;9393
2;77;1574051612069;1574051617481;5412;12723079480;22639772978;1442589004;134930086;3668456624;36495882;746273066;350;0;720480;-1;2365;8753
2;78;1574051617517;1574051623625;6108;12761127080;22654510697;1440297467;136589816;3671136750;36449648;750078649;503;36;846664;0;3154;20051
2;79;1574051623663;1574051629952;6289;12742255120;22647700146;1430310615;137386312;3669850719;36505572;745155188;426;0;887024;0;2964;10553
2;80;1574051629988;1574051636164;6176;12738821200;22646909627;1443780901;136919567;3669738406;36416838;750200166;418;0;855408;0;2795;10091
2;81;1574051636200;1574051642364;6164;12745805694;22644543260;1436226828;136600288;3669359602;36499978;746748571;438;0;908160;0;2968;11058
2;82;1574051642400;1574051648234;5834;12741843254;22647606719;1437284755;135943981;3669849228;36502155;746802273;390;0;802592;0;2606;9761
2;83;1574051648333;1574051654902;6569;12782905024;22630857093;1444552838;138083460;3666720557;36468988;745392443;601;48;1035344;1;3811;18590
2;84;1574051654939;1574051661577;6638;12725126984;22648193885;1442801040;137203285;3669900983;36453321;749736370;484;0;1005568;4;3241;11664
2;85;1574051661613;1574051668198;6585;12756477856;22659011812;1446319762;138187924;3671051631;36591049;745152797;447;0;918760;-5;3021;11252
2;86;1574051668293;1574051675114;6821;12762131122;22679441419;1443156091;137603896;3674281796;36586469;747981011;441;0;908160;0;2963;11172
2;87;1574051675197;1574051681674;6477;12720449290;22662653279;1436609549;137697883;3671295209;36467581;748058007;711;54;931688;6;4400;24657
2;88;1574051681725;1574051688232;6507;12737956296;22672705766;1438853939;137906424;3673101583;36468425;747398897;720;7;951080;-6;4973;39605
2;89;1574051688330;1574051695519;7189;12764276884;22670305301;1452517791;139407277;3672661243;36536352;752483518;474;0;971544;5;3160;11357
2;90;1574051695557;1574051702285;6728;12763846768;22670728039;1460190185;137492754;3672713661;36486145;754200295;459;0;939840;-5;3047;11597
2;91;1574051702326;1574051708839;6513;12725759602;22679886691;1434158379;137304634;3674409165;36447916;748120391;449;0;908216;0;2915;10733
2;92;1574051708878;1574051714688;5810;12729797232;22678294810;1425052284;136659215;3674081078;36529824;745931769;494;44;817168;0;3191;18932
2;93;1574051714765;1574051720110;5345;12707460400;22676659363;1436749783;135137822;3673917003;36398464;748615268;372;0;760320;5;2502;8758
2;94;1574051720148;1574051727603;7455;12757027546;22680644373;1443042569;139259836;3674597160;36481531;751922502;621;0;1099072;0;3943;20957
2;95;1574051727706;1574051734376;6670;12744687334;22679250205;1436140587;137414317;3674342115;36521464;747698096;456;0;929280;0;3059;11256
2;96;1574051734441;1574051740242;5801;12747573170;22661682207;1447118026;135826374;3671152446;36485734;752348365;412;0;823816;-3;2669;9959
2;97;1574051740281;1574051746383;6102;12723259936;22672047698;1444329103;136781333;3673034880;36391843;749179614;575;54;913680;3;3375;18693
2;98;1574051746440;1574051753406;6966;12762466776;22687494950;1439470432;138045651;3675758229;36475251;747790884;530;0;1077120;-5;3466;12701
2;99;1574051753447;1574051759703;6256;12706791282;22678527262;1434156818;136391260;3674120176;36469754;747953065;459;0;918768;0;3005;11664
2;100;1574051759790;1574051765701;5911;12727275082;22668736397;1442149742;136799170;3672432739;36540944;748312150;389;0;800192;1;2642;9760
2;101;1574051765740;1574051770883;5143;12744900056;22672309502;1454410369;135872898;3672973139;36419973;751325533;342;0;678248;4;2226;8451
2;102;1574051770956;1574051776191;5235;12735291650;22665433019;1450531585;135588079;3671774206;36398272;746844140;457;52;709840;-5;2697;16353
2;103;1574051776231;1574051783809;7578;12797175064;22679310523;1441602915;141303679;3674315914;36430832;750989745;558;0;1129920;5;3695;13037
2;104;1574051783848;1574051790459;6611;12745100806;22662397166;1442826028;137563358;3671292496;36474034;749470859;479;0;950432;1;3078;11610
2;105;1574051790504;1574051795758;5254;12742997092;22679065121;1436232882;134930573;3674275278;36381965;748443557;365;0;747392;-5;2463;9325
2;106;1574051795796;1574051801907;6111;12710840884;22676076209;1441480689;135724722;3673770428;36407308;749691618;546;44;881248;17;3106;17129
2;107;1574051801946;1574051807577;5631;12760468036;22669271417;1442487840;136494950;3672593826;36397809;748234298;377;0;749776;-18;2429;7666
2;108;1574051807672;1574051814081;6409;12773209602;22669418405;1439998566;138290763;3672544511;36454530;748625227;498;0;1003200;0;3296;11744
2;109;1574051814178;1574051820005;5827;12759298284;22671112952;1437984385;137121124;3672876021;36455806;749426369;391;0;770952;0;2542;10071
2;110;1574051820045;1574051827042;6997;12765996472;22673258133;1431759658;138365180;3673156266;36659854;744280800;489;0;986176;0;3225;12068
2;111;1574051827083;1574051833853;6770;12759129070;22679225286;1439714975;137750886;3674321093;36456569;749058071;608;38;980856;6;3534;20804
2;112;1574051833892;1574051841333;7441;12765885074;22669984488;1443051518;139333208;3672665853;36486583;750104857;539;0;1077120;-6;3584;11235
3;65;1574052380026;1574052385743;5717;12507675898;22529588845;1421860972;135212823;3653940806;36280415;749510540;363;0;760328;0;2622;8047
3;66;1574052385851;1574052391131;5280;12502391574;22518520092;1422310842;135530913;3652005756;36273825;747815342;338;0;707512;0;2311;8198
3;67;1574052391169;1574052397063;5894;12482146630;22533874600;1415477801;135615400;3654818909;36279231;748070666;388;0;802576;0;2618;9521
3;68;1574052397099;1574052403521;6422;12511612788;22529397603;1409843005;137166599;3653960988;36325264;744830389;446;0;929280;0;2995;11108
3;69;1574052403559;1574052409642;6083;12438339768;22511847400;1409408284;135331013;3650753161;36294994;742263688;423;0;865976;5;2858;10885
3;70;1574052409678;1574052415252;5574;12487992178;22519869627;1410283351;135573252;3652183004;36421764;746439297;464;48;753352;-5;2798;13952
3;71;1574052415342;1574052421543;6201;12486758916;22521451305;1416785237;136489398;3652499271;36320521;747033951;442;0;918720;0;3067;10632
3;72;1574052421578;1574052427879;6301;12490634924;22520653317;1426586596;135747568;3652323267;36326043;745559054;404;0;834264;0;2697;10118
3;73;1574052427967;1574052434053;6086;12478081844;22521311834;1421193366;135856585;3652448130;36328078;747183237;441;0;916352;1;2989;11023
3;74;1574052434089;1574052439848;5759;12480146430;22529846292;1427109457;134786470;3654053416;36413473;745995522;383;0;781496;0;2562;9820
3;75;1574052439933;1574052445353;5420;12511266038;22526571544;1410096113;135037329;3653489369;36284306;747401993;466;38;743760;-1;2722;14050
3;76;1574052445411;1574052451868;6457;12512476232;22521195727;1418533265;136237976;3652447917;36309583;749656913;447;0;929280;0;3093;10559
3;77;1574052451905;1574052458302;6397;12510775478;22519653367;1417931045;136910918;3652198800;36255082;748030937;444;0;918744;5;2988;10846
3;78;1574052458337;1574052465138;6801;12492499198;22510982000;1424210381;137076568;3650639215;36299007;745966971;477;0;992632;-5;3229;12046
3;79;1574052465176;1574052471714;6538;12513361722;22520016381;1413035212;137733931;3652283177;36269024;746184834;540;52;917576;2;3178;14830
3;80;1574052471802;1574052477352;5550;12443688186;22517830047;1408206971;134131437;3651815665;36299230;744149882;371;0;774776;3;2617;7741
3;81;1574052477387;1574052483293;5906;12481428894;22522313402;1410287267;135543643;3652607789;36269998;744680857;425;0;887024;0;2860;9938
3;82;1574052483374;1574052490568;7194;12493619164;22520669977;1413566236;137833513;3652379220;36284676;745363688;517;0;1066592;2;3431;12586
3;83;1574052490604;1574052496888;6284;12472699554;22518049885;1423888716;136563146;3651918604;36277440;749808971;442;0;918720;-2;3022;10942
3;84;1574052496941;1574052503225;6284;12481067252;22519710431;1412927019;135967029;3652226552;36388073;746632463;581;50;984192;-5;3521;19988
3;85;1574052503261;1574052508232;4971;12498543014;22550337011;1418056007;134574786;3656907880;36264758;749212462;308;0;637696;3;2159;6487
3;86;1574052508270;1574052514356;6086;12442118102;22552767434;1418918206;134832861;3656823850;36272422;749835636;404;0;840704;2;2771;9682
3;87;1574052514398;1574052521151;6753;12527823314;22552943121;1418874944;138158802;3657207492;36287833;751027623;460;0;948080;-4;3084;11107
3;88;1574052521199;1574052527788;6589;12478077172;22569858989;1419013070;136145698;3660052909;36264177;747757803;467;0;971520;0;3181;11871
3;89;1574052527881;1574052534770;6889;12538677246;22561049083;1426129709;137948646;3658472865;36330356;752839556;693;56;985912;11;3804;25005
3;90;1574052534809;1574052541362;6553;12494024168;22544068723;1418134231;137050957;3655313344;36352559;748726896;868;6;964000;-7;6343;56310
3;91;1574052541456;1574052547603;6147;12507125916;22553109111;1424956342;137002153;3656967872;36302974;753945310;439;0;905816;-4;2955;10711
3;92;1574052547641;1574052553646;6005;12484698564;22550685134;1432727246;134982724;3656575906;36321705;751457470;390;0;804928;4;2561;9638
3;93;1574052553745;1574052560526;6781;12529707882;22563238509;1423009915;137854494;3658745405;36293200;751976548;496;0;1024320;-5;3386;12671
3;94;1574052560572;1574052566651;6079;12460159322;22559843359;1425011441;134794633;3658229016;36263182;752467030;454;0;918792;0;2989;11262
3;95;1574052566737;1574052573733;6996;12533059312;22552694363;1430493895;138606162;3656868548;36341576;751073851;624;50;1040976;0;4044;30670
3;96;1574052573816;1574052580185;6369;12490975834;22561710927;1422748178;136056054;3658517656;36314884;746094084;498;0;856152;0;3006;12067
3;97;1574052580288;1574052586328;6040;12510548740;22562960145;1424841114;136129856;3658723021;36273708;749574458;406;0;834240;0;2729;9764
3;98;1574052586365;1574052592676;6311;12470591168;22553006077;1433612175;135156337;3657043867;36219673;751400634;443;0;918720;0;3053;11360
3;99;1574052592715;1574052599888;7173;12495592646;22553427659;1408526331;138134550;3656986474;36300507;744858988;641;68;1055040;8;3682;25620
3;100;1574052599939;1574052606355;6416;12487018650;22554195451;1422310833;135703285;3657171459;36340010;752043873;414;0;851264;-8;2952;9346
3;101;1574052606393;1574052612535;6142;12471555498;22541705282;1408424733;136690703;3654968024;36272766;743978483;422;0;855400;0;2822;10053
3;102;1574052612572;1574052619585;7013;12475770372;22556338259;1418065353;136627852;3657518513;36303983;751397735;501;0;1024320;0;3279;12243
3;103;1574052619685;1574052626132;6447;12486978646;22558277316;1411378945;136760519;3657978952;36311481;747419332;457;0;929328;5;3085;11477
3;104;1574052626198;1574052631492;5294;12430234140;22548143682;1412805439;133289256;3656165322;36268149;746714940;492;56;760400;-5;2837;25265
3;105;1574052631536;1574052637441;5905;12499456244;22550698512;1415582750;136604866;3656587309;36236718;747857116;373;0;770880;0;2661;8023
3;106;1574052637480;1574052643113;5633;12433197356;22569693752;1412794535;133707883;3660053887;36220772;747066976;385;0;781456;0;2531;9368
3;107;1574052643153;1574052649148;5995;12509730410;22552419825;1420784624;135349606;3656843097;36317576;749198354;382;0;781440;0;2523;9407
3;108;1574052649203;1574052656444;7241;12576576656;22556943249;1430594102;139383676;3657777137;36256205;751969302;529;0;1066600;2;3489;12857
3;109;1574052656534;1574052663224;6690;12513197034;22543774767;1420872332;137295874;3655313054;36327074;748456937;572;48;978832;2;3558;23974
3;110;1574052663262;1574052668657;5395;12459484802;22562309527;1422059918;133979716;3658610455;36247884;751023004;374;0;757760;-4;2609;7922
3;111;1574052668716;1574052675899;7183;12480117230;22558231988;1412389364;137323851;3657897193;36249448;746479938;523;0;1045472;0;3402;12742
3;112;1574052675953;1574052682104;6151;12493336508;22568933496;1412038080;136506803;3659906414;36246810;745972758;410;0;834240;0;2875;11027
3;113;1574052682167;1574052688398;6231;12479386792;22550929830;1412153091;136473978;3656657133;36261428;746289578;448;0;895304;1;2943;10983
3;114;1574052688457;1574052694517;6060;12475406540;22543696385;1426547022;136396256;3655362842;36223956;748828774;524;44;881392;-1;3185;16384
4;65;1574053263814;1574053270309;6495;12532881922;22661866466;1418247600;136126575;3679492376;36636123;752428791;552;44;911184;0;3325;18632
4;66;1574053270389;1574053275972;5583;12544591414;22661983753;1420081547;134723760;3679479072;36510909;755901399;366;0;768512;-4;2510;8751
4;67;1574053276009;1574053281982;5973;12513730810;22652955731;1412231340;135820851;3677810136;36642528;749833084;382;0;783848;-1;2581;9506
4;68;1574053282017;1574053287999;5982;12517866260;22670176427;1408375628;135431327;3680963825;36716612;751940856;438;0;918720;0;3000;10981
4;69;1574053288035;1574053294623;6588;12513767310;22653771547;1422288516;135955544;3677982317;36661310;755146844;458;0;950440;0;3067;11538
4;70;1574053294713;1574053301657;6944;12568714410;22662792829;1419517159;137852814;3679591807;36757765;753436835;583;50;1005576;0;3586;16231
4;71;1574053301770;1574053307430;5660;12489445170;22653284467;1405572575;133653660;3677890375;36822264;748337722;356;0;745856;2;2415;8651
4;72;1574053307524;1574053314403;6879;12586142576;22665514296;1411207226;137936758;3679835098;36644918;750715110;472;0;975472;-2;3126;10983
4;73;1574053314498;1574053320284;5786;12486204992;22679413923;1413232938;134865131;3681321579;36760204;752541750;370;0;770880;0;2577;9463
4;74;1574053320397;1574053326938;6541;12569175332;22689607417;1411163373;136641073;3683226350;36601902;752154623;572;59;995216;0;3547;20440
4;75;1574053326993;1574053332594;5601;12524933828;22671565222;1415537034;134829530;3679886354;36769519;747975759;359;0;749760;5;2534;7553
4;76;1574053332654;1574053339177;6523;12571221230;22689659114;1407017427;137553010;3683184922;36635747;749835458;434;0;905792;-4;2934;10235
4;77;1574053339299;1574053345398;6099;12519793898;22692941515;1413320287;134901933;3683769277;36529534;750173791;438;0;910560;4;2943;10661
4;78;1574053345436;1574053351477;6041;12618967172;22687288334;1413930198;137146736;3682824350;36579236;752986058;390;0;813112;-5;2692;9971
4;79;1574053351527;1574053357727;6200;12568659660;22699327864;1412934185;136211840;3684927057;36616833;751528124;590;49;914576;0;3534;35020
4;80;1574053357820;1574053363471;5651;12569366738;22691157112;1413222005;135761024;3683427759;36479466;751537065;364;0;760312;0;2612;7789
4;81;1574053363510;1574053370026;6516;12577872114;22697107484;1417577840;136900795;3684536104;36795625;752680585;460;0;960952;5;3112;11275
4;82;1574053370063;1574053376063;6000;12512874958;22685173592;1408784602;135459358;3682348521;36717843;747588003;426;0;876528;-5;2849;10639
4;83;1574053376120;1574053381476;5356;12580474126;22694005886;1413621706;134263754;3683931389;36556092;749944445;360;0;749760;0;2482;8950
4;84;1574053381514;1574053387015;5501;12528108014;22703550405;1418517485;134084774;3685667946;36540015;754549668;370;0;760352;5;2487;9239
4;85;1574053387052;1574053392594;5542;12589664096;22692198382;1419968006;136029377;3683702819;36557858;751697438;461;44;750064;-3;2745;13418
4;86;1574053392671;1574053399018;6347;12529576190;22702060954;1420659815;135314203;3685425148;36839308;753881360;435;0;912064;-2;2968;10152
4;87;1574053399107;1574053404968;5861;12556441796;22711045063;1406151717;135475259;3687083047;36569498;750308999;443;0;908216;5;2917;10763
4;88;1574053405076;1574053412596;7520;12595559722;22700808343;1410747368;138743269;3685190483;36757262;751443469;781;57;1153928;20;5142;78661
4;89;1574053412633;1574053418679;6046;12603194938;22692678441;1418226922;136461431;3683795010;36708577;755411309;741;7;884968;-25;5337;51232
4;90;1574053418716;1574053424225;5509;12520186638;22703741175;1421134715;133688557;3685802997;36561662;753505278;372;0;770872;0;2482;8905
4;91;1574053424264;1574053430829;6565;12596026192;22694842475;1411687261;136929132;3684185974;36687476;750362869;463;0;960960;5;3118;11306
4;92;1574053430866;1574053437443;6577;12543224416;22695869940;1412198024;135469884;3684324840;36651362;752594820;452;0;918768;-5;2924;11108
4;93;1574053437490;1574053444169;6679;12594828408;22693980611;1427393422;137533897;3683929098;36695580;751947726;565;54;959600;3;3421;17781
4;94;1574053444260;1574053451065;6805;12557381160;22695021330;1428488333;136377475;3684238733;36754779;752435587;553;0;968264;2;3754;20532
4;95;1574053451130;1574053457082;5952;12589701618;22702880917;1416841977;136038549;3685604735;36499310;753403559;459;0;950400;0;3096;10949
4;96;1574053457134;1574053462707;5573;12546389696;22704817923;1418712365;134111664;3685986163;36470299;753045482;394;0;810752;-4;2637;9806
4;97;1574053462777;1574053468681;5904;12594570134;22703142960;1437376300;135720758;3685656293;36564269;755069489;403;0;815544;-1;2776;10243
4;98;1574053468718;1574053474572;5854;12547723114;22695357749;1429870002;134523562;3684177826;36530369;754399953;523;59;803280;15;2945;26946
4;99;1574053474611;1574053480675;6064;12561859272;22695465510;1406252020;135278116;3684296122;36752451;745981750;444;0;905624;-10;3215;10930
4;100;1574053480712;1574053488014;7302;12615260524;22711505907;1423919335;138886169;3687112442;36756379;755501962;517;0;1066560;-5;3470;12128
4;101;1574053488115;1574053494577;6462;12539176128;22693022607;1417200559;136344668;3683764624;36728173;751320388;486;0;982136;0;3278;12580
4;102;1574053494615;1574053501084;6469;12576621770;22701584127;1420941092;136759507;3685409761;36645936;751865870;468;0;960960;5;3119;11560
4;103;1574053501176;1574053507587;6411;12559688544;22694236452;1417102439;137061469;3684004935;36636291;748777094;578;50;918416;-4;3456;26323
4;104;1574053507625;1574053515065;7440;12575600792;22699933692;1416230323;138756638;3685117457;36723807;749841564;531;0;1082072;0;3625;11463
4;105;1574053515109;1574053521831;6722;12553918332;22692357298;1407778979;136946053;3683752102;36623085;748698760;482;0;979520;-1;3173;11687
4;106;1574053521868;1574053528089;6221;12551465532;22701805065;1411961359;136628833;3685459126;36548068;749873482;435;0;876512;0;2927;11346
4;107;1574053528183;1574053533881;5698;12577338484;22703501370;1416522236;135671257;3685743726;36560064;750441698;376;0;768512;1;2462;9079
4;108;1574053533918;1574053540147;6229;12555737492;22711373116;1413339092;136301194;3687150662;36514614;752740220;582;32;884024;3;3347;28184
4;109;1574053540184;1574053546156;5972;12522123036;22693041354;1410828566;135731691;3683872534;36429574;752213103;416;0;852792;-4;2823;9845
4;110;1574053546193;1574053552607;6414;12569000132;22692667118;1423813654;137143960;3683798406;36792586;747157707;444;0;908160;0;2964;10828
4;111;1574053552710;1574053558047;5337;12537243234;22703261256;1413382160;134288123;3685702247;36574648;749320777;372;0;749784;0;2482;9209
4;112;1574053558085;1574053563746;5661;12548183598;22684558062;1415745678;134694374;3682303266;36571114;750646672;377;0;770880;5;2509;9441
4;113;1574053563783;1574053569465;5682;12506298826;22694486177;1424238340;134023877;3684131691;36572391;750751723;589;34;834128;-5;3125;33441
4;114;1574053569503;1574053576597;7094;12580644070;22695829849;1417421874;138447424;3684306548;36592886;751620591;493;0;992696;0;3323;11137
