0;66;1574067739815;1574067745135;5320;12499390106;22808481662;1428144633;130232566;3714302918;36867111;752186902;346;0;718080;5;2208;7976
0;67;1574067745208;1574067750494;5286;12522274584;22800833807;1410097398;131690771;3712899945;36703399;749577505;318;0;654752;-5;1963;7192
0;68;1574067750531;1574067755765;5234;12501889480;22795596445;1416628540;131286145;3711967965;36757232;750002675;334;0;696944;0;2100;7655
0;69;1574067755854;1574067760889;5035;12499525740;22806068454;1429420032;130059981;3713899800;37068211;754921264;500;42;672592;2;2600;37723
0;70;1574067760925;1574067765726;4801;12514082670;22790767343;1420814699;130036810;3711060612;37437167;751528431;270;0;549176;-2;1880;6411
0;71;1574067765764;1574067771873;6109;12539162988;22793350896;1413612773;133348135;3711538365;36662207;752000454;383;0;802560;0;2732;10017
0;72;1574067771910;1574067778259;6349;12522005360;22800386207;1413489754;133509026;3712821706;36896883;749947442;465;0;960976;0;2872;10613
0;73;1574067778333;1574067785145;6812;12552794716;22807862531;1413843486;134770717;3714217648;37049346;752979280;472;0;982080;0;2957;10794
0;74;1574067785236;1574067791139;5903;12527009364;22805063255;1425144678;132585942;3713648346;36978895;754653438;528;52;814128;2;3028;26146
0;75;1574067791176;1574067797262;6086;12539279788;22808822830;1413423405;133357340;3714359412;36826024;751223559;436;0;893400;2;2717;9171
0;76;1574067797356;1574067804365;7009;12531544416;22798670273;1412902880;134561523;3712557784;36741117;749918097;525;0;1093480;-3;3305;12171
0;77;1574067804418;1574067809952;5534;12540461804;22810352059;1427641386;131758468;3714681880;36710187;751346448;366;0;752144;-1;2223;8399
0;78;1574067809989;1574067817296;7307;12570573136;22805924699;1422145087;135491952;3713841390;37233571;751983269;550;0;1140480;5;3355;12174
0;79;1574067817333;1574067822509;5176;12521246452;22808817994;1419515382;131342132;3714321897;37013704;755703277;495;38;700912;-5;2595;22276
0;80;1574067822566;1574067828135;5569;12557674328;22810914418;1414529599;132206545;3714670584;37391038;752679382;353;0;718136;0;2236;7694
0;81;1574067828195;1574067834327;6132;12559647810;22798842977;1438839225;133361863;3712509758;36834741;755019582;434;0;897600;0;2767;10164
0;82;1574067834400;1574067841195;6795;12576325974;22801453821;1426115635;134953912;3712984585;36840666;752864948;472;0;971520;0;2896;10717
0;83;1574067841290;1574067848130;6840;12557965160;22799615886;1412002573;134535205;3712759820;36788043;749470275;486;0;1003192;0;3020;11316
0;84;1574067848188;1574067854575;6387;12569458426;22815350113;1428394968;134156838;3715558633;36834959;752997921;588;58;917912;0;3250;20974
0;85;1574067854662;1574067860585;5923;12576833762;22826959216;1432832905;133552564;3717166831;36701954;750792398;412;0;852992;1;2574;9148
0;86;1574067860624;1574067866690;6066;12574486228;22840616992;1435349780;133389360;3719249695;36859362;751168542;417;0;857728;4;2595;9237
0;87;1574067866787;1574067873363;6576;12572336232;22830410175;1414818236;134684597;3717493454;36753497;750127890;488;0;1003216;0;3001;11223
0;88;1574067873470;1574067880401;6931;12569254464;22838466501;1410166303;135008943;3718940674;36870656;748801767;625;42;1035120;2;3402;23228
0;89;1574067880440;1574067886782;6342;12561725682;22830597172;1433318384;133417079;3717529656;36747127;751866003;474;0;964928;-2;3121;9696
0;90;1574067886822;1574067893374;6552;12567619702;22838136256;1417220125;134027076;3718857643;36769115;748465306;494;2;1013752;4;3104;11292
0;91;1574067893428;1574067899631;6203;12529990830;22839036424;1408570101;133909419;3719084923;36737378;749774346;895;9;973792;-9;5629;34528
0;92;1574067899726;1574067906875;7149;12552480086;22822630660;1418767849;135692371;3715981052;36884077;750582487;499;0;1013776;0;3046;11419
0;93;1574067906935;1574067913905;6970;12570577078;22831380147;1430316073;135600246;3717627587;36774806;753317365;649;48;1082736;0;3790;23183
0;94;1574067914008;1574067920149;6141;12593518204;22839431032;1424838737;134010508;3719140330;37053416;749464006;432;0;865976;0;2688;9456
0;95;1574067920242;1574067927019;6777;12618286958;22831002790;1407723918;134976503;3717607783;37316558;746826523;495;0;1003200;5;3064;11288
0;96;1574067927058;1574067933576;6518;12551761328;22842263904;1413115765;133481383;3719601391;36977837;750565410;552;0;961760;-5;3072;13887
0;97;1574067933621;1574067939193;5572;12512067870;22829337261;1417927950;131897577;3717239321;36722646;753003567;377;0;760320;0;2295;8680
0;98;1574067939233;1574067945753;6520;12548092786;22821624533;1403348854;134020265;3715856148;36673335;747557543;613;64;968784;5;3526;26579
0;99;1574067945794;1574067952272;6478;12574132324;22847694687;1411629871;134083722;3720595850;36838079;748759675;439;0;876536;0;2663;9690
0;100;1574067952328;1574067959158;6830;12588524858;22838113685;1410846523;135068097;3718876931;37145957;748929656;506;0;1024320;-5;3078;11359
0;101;1574067959211;1574067965036;5825;12557722508;22839619876;1414432671;132813149;3719116825;36999054;746990628;420;1;844832;0;2480;9372
0;102;1574067965114;1574067971974;6860;12544224078;22832989520;1419246207;134025812;3717931009;36729865;752192841;510;0;1034880;0;3066;11665
0;103;1574067972020;1574067976535;4515;12441491908;22848304137;1408508128;128420646;3720726517;36671866;748219123;426;36;614672;1;2414;15256
0;104;1574067976574;1574067982687;6113;12482660404;22829605009;1412534579;131988800;3717364952;36722896;749489003;423;0;844848;0;2632;9531
0;105;1574067982747;1574067988356;5609;12518462232;22841119468;1416849468;132202606;3719431149;36698595;750596902;380;0;773248;-1;2366;8821
0;106;1574067988445;1574067994373;5928;12561830802;22849390895;1407301072;133470204;3720899237;36948233;746795586;431;0;865952;0;2580;9779
0;107;1574067994413;1574068000889;6476;12542440542;22849143676;1408626658;134316509;3720875582;37090605;750613182;459;0;929272;0;2744;10122
0;108;1574068000953;1574068006873;5920;12491273236;22849151685;1405790130;132445263;3720894518;36637791;749336701;553;52;882128;0;3297;25511
0;109;1574068006970;1574068013651;6681;12535441156;22830111949;1418077407;134281672;3717360851;36771829;748035040;511;0;1013824;0;3070;11244
0;110;1574068013691;1574068019442;5751;12511803610;22837703021;1411113510;132262028;3718756587;36871011;747962125;386;0;781432;0;2360;8603
0;111;1574068019558;1574068025908;6350;12513052056;22849196121;1407578765;133091247;3720852684;36676477;749578093;471;0;939864;5;2821;10688
0;112;1574068025947;1574068032679;6732;12520723626;22849023744;1410554482;133818084;3720850773;36661090;749959674;504;0;1013752;-5;3009;11317
0;113;1574068032718;1574068038976;6258;12536882906;22827760844;1428302352;133552942;3717012997;36780155;751877872;576;54;934376;0;3493;23390
0;114;1574068039074;1574068045712;6638;12562342240;22831127200;1416812504;134481951;3717606580;36661848;748441761;504;1;1013760;0;3091;11169
0;115;1574068045752;1574068052421;6669;12573383782;22830183788;1410420251;134658867;3717443717;37301429;748883579;480;0;969152;1;2875;10864
1;69;1574068646340;1574068651734;5394;12052475054;23101247159;1348849204;130780055;3754972891;36563444;744992180;367;0;770864;0;2303;8317
1;70;1574068651842;1574068657165;5323;12048012564;23088347810;1349599202;131413188;3752790663;36543497;743095874;461;52;729448;2;2688;20104
1;71;1574068657262;1574068663199;5937;12083852790;23097246053;1349611563;132884322;3754316200;36636660;744272109;405;0;838144;-2;2681;8309
1;72;1574068663288;1574068669501;6213;12070165874;23104727014;1347169919;132027220;3755766803;36761450;745300220;440;0;905784;1;2738;9919
1;73;1574068669592;1574068675277;5685;12058368052;23098675358;1345383537;132247099;3754653810;36600482;744615831;389;0;794432;-1;2478;9253
1;74;1574068675355;1574068681262;5907;12055897440;23089817729;1349859464;132165685;3752912589;36608496;744290785;394;0;813120;5;2418;8992
1;75;1574068681324;1574068687894;6570;12085330894;23097531576;1350132729;134555333;3754317774;36559063;744549533;603;48;997248;-5;3402;22690
1;76;1574068687987;1574068694818;6831;12125729532;23110610107;1346555545;134672270;3756666594;36649631;744930699;506;0;1045440;5;3374;10305
1;77;1574068694873;1574068701145;6272;12090949704;23109189530;1359375735;133303214;3756421482;36604656;748068516;435;0;887104;-5;2686;9786
1;78;1574068701180;1574068707397;6217;12069793428;23106220521;1361146999;132177900;3755923479;36538975;745607233;431;0;887040;0;2635;9922
1;79;1574068707492;1574068713933;6441;12064525018;23104492030;1346727248;133037075;3755759781;36563640;746674499;476;0;982080;0;2889;10703
1;80;1574068713977;1574068720051;6074;12074973654;23090154522;1350620510;133031450;3753016055;36539309;744077490;527;54;858696;5;2944;18355
1;81;1574068720118;1574068725353;5235;12073071858;23082203033;1362591095;131765353;3751522191;36589422;746239808;351;0;728640;-5;2303;7466
1;82;1574068725418;1574068731710;6292;12078880760;23097508906;1358746081;133035837;3754439690;36745545;745558978;440;0;905784;1;2747;9645
1;83;1574068731801;1574068737590;5789;12089885802;23098178956;1351217457;132329326;3754460310;36538451;744413313;384;0;773336;-1;2339;8645
1;84;1574068737625;1574068744014;6389;12129977548;23097945601;1369430798;133533286;3754522533;36757491;748822862;457;0;939832;0;2856;10521
1;85;1574068744048;1574068749789;5741;12071274160;23121810259;1359862368;131426265;3757930841;36577909;748257901;465;48;742960;5;2647;18614
1;86;1574068749870;1574068755623;5753;12079198164;23123564545;1357210688;131652066;3757824864;36757581;745700321;381;0;781440;-5;2520;7810
1;87;1574068755661;1574068761153;5492;12041403436;23120315107;1361498539;131488571;3757370210;36549163;751096729;370;0;760320;0;2285;8278
1;88;1574068761232;1574068766870;5638;12057239472;23131819065;1350714673;132156154;3759309265;36540179;744980718;436;0;876576;0;2763;10658
1;89;1574068766958;1574068773185;6227;12081641620;23123269708;1347990096;133812911;3757695237;36866610;743521589;427;0;876480;5;2627;9750
1;90;1574068773265;1574068779723;6458;12074623984;23122288149;1361035768;133216601;3757537486;36964052;746967143;625;52;980304;-5;3200;23977
1;91;1574068779770;1574068785509;5739;12081646438;23132302162;1351953693;132468462;3759358075;36593560;745735679;378;0;770880;5;2503;7654
1;92;1574068785593;1574068791627;6034;12070070536;23133391841;1350292385;132741219;3759586396;36531700;747991728;432;0;887032;-5;2719;9836
1;93;1574068791720;1574068798133;6413;12058229060;23114269374;1350875188;133499620;3756164006;36711569;747926372;722;2;942056;6;4619;22635
1;94;1574068798170;1574068804494;6324;12077368492;23133158646;1346805087;133864348;3759472315;36699534;747632685;612;7;917488;-1;3683;17609
1;95;1574068804533;1574068810681;6148;12077460180;23131625252;1361916664;133308722;3759204434;36630422;749944698;550;44;860144;0;2900;19590
1;96;1574068810717;1574068816789;6072;12085033638;23110780812;1352737807;133445272;3755626592;36653554;746678467;410;0;834240;-5;2637;8022
1;97;1574068816828;1574068822852;6024;12056280690;23123509014;1350268069;132525840;3757718167;36540558;746612924;429;0;876480;0;2620;9410
1;98;1574068822890;1574068829294;6404;12087028436;23128060777;1354424347;132920301;3758683378;36572432;746799772;475;0;950480;6;2839;10883
1;99;1574068829393;1574068834555;5162;12092884204;23120448140;1359272155;130989137;3757332742;36614705;746301082;362;0;728640;-1;2178;8113
1;100;1574068834593;1574068841040;6447;12108826236;23130122346;1365239224;132791567;3758992756;36908833;754181063;663;62;937760;-1;3368;24608
1;101;1574068841076;1574068847113;6037;12096530554;23138792516;1362638262;132430661;3760586271;36856752;749946744;434;0;882280;-3;2889;8586
1;102;1574068847194;1574068853597;6403;12076456722;23140059533;1348340564;133503523;3760852627;36615777;746911375;452;0;910528;-1;2706;9826
1;103;1574068853636;1574068859648;6012;12116693592;23129826437;1364275003;133187878;3758959887;36648728;749905951;434;0;855440;5;2598;9611
1;104;1574068859685;1574068866349;6664;12127141206;23142602220;1362843859;134054059;3761170268;36561464;748953628;477;0;969152;-4;2864;10568
1;105;1574068866388;1574068871817;5429;12063630184;23128195124;1365228557;131395109;3758780799;36557075;750016976;481;52;745872;-1;2481;15073
1;106;1574068871854;1574068877604;5750;12087308756;23121586674;1372681615;131940601;3757493786;36558019;747309085;386;0;781440;0;2532;7831
1;107;1574068877643;1574068884257;6614;12061082484;23114159896;1357945353;133043631;3756111045;36599872;748412241;492;0;990272;1;3018;11218
1;108;1574068884319;1574068890011;5692;12052530972;23119041471;1349537694;131487325;3757128983;36559673;743643128;383;0;752200;-1;2304;8730
1;109;1574068890098;1574068895870;5772;12048625618;23128349486;1346475783;132719051;3758796730;36515264;744886319;408;0;823680;0;2483;9361
1;110;1574068895908;1574068901882;5974;12047322568;23122257071;1351624821;132101357;3757580054;36716929;745895491;534;46;847784;7;2576;13945
1;111;1574068901920;1574068908135;6215;12071795380;23119604474;1359711571;132784476;3757183478;36566038;748398031;472;0;919856;-7;3143;11501
1;112;1574068908187;1574068914847;6660;12066953144;23141476604;1349386432;133291268;3761018328;36587850;745173391;475;0;960952;6;2904;10802
1;113;1574068914911;1574068921366;6455;12072834608;23140407952;1349759047;133458977;3760846589;36732451;747195332;493;0;971592;-6;2988;11550
1;114;1574068921442;1574068927645;6203;12067560650;23131838373;1350328500;132727856;3759366911;36552435;747043715;445;0;887040;5;2658;10089
1;115;1574068927726;1574068934087;6361;12085133940;23130864217;1358635577;133284619;3759135438;36618460;751332904;610;42;948568;-2;3196;21245
1;116;1574068934180;1574068940262;6082;12081756230;23122378280;1359795514;132964233;3757584844;36597392;748794118;418;0;830144;-3;2650;8346
1;117;1574068940299;1574068946690;6391;12083547066;23119596748;1354031920;133457551;3757224440;36535135;746120595;480;0;950400;0;2849;10533
1;118;1574068946787;1574068953496;6709;12098200356;23122632956;1369790868;133745105;3757650709;36656359;748335614;525;0;1024400;0;3057;11949
2;65;1574069531960;1574069537571;5611;12718168186;22791994599;1437910217;132157240;3706279346;37195623;756625062;365;0;760360;0;2381;8423
2;66;1574069537658;1574069543334;5676;12705003366;22783442855;1447811637;132286604;3704720202;36591602;756296517;361;0;760320;5;2278;8254
2;67;1574069543416;1574069548635;5219;12720214376;22801457061;1425603705;132369541;3707987246;36547345;752291232;332;0;696968;-5;2103;7526
2;68;1574069548718;1574069554094;5376;12677261176;22784877228;1433949920;132002852;3704986645;36562462;754684052;452;48;711000;0;2443;13638
2;69;1574069554186;1574069560237;6051;12745276882;22794818111;1439845886;133788838;3706701827;36633282;754635123;394;0;823672;5;2607;8146
2;70;1574069560272;1574069567148;6876;12726314256;22795335920;1430956049;134633203;3706778298;36645964;754809577;479;0;992680;-5;3049;11061
2;71;1574069567185;1574069573580;6395;12703507742;22792995640;1427471583;133849565;3706364770;36639151;750710884;425;0;887040;0;2667;9843
2;72;1574069573668;1574069579641;5973;12712982704;22792794334;1426108312;134040733;3706405270;36594420;749246327;403;0;844792;5;2504;9085
2;73;1574069579742;1574069585836;6094;12716198646;22778591487;1432654396;133959913;3703757478;36623343;749184162;549;44;874544;-5;3055;20082
2;74;1574069585871;1574069592571;6700;12729852858;22792978426;1441377429;134274335;3706470327;36686998;754402560;441;0;918720;0;2840;9254
2;75;1574069592637;1574069599653;7016;12753565448;22789987432;1429092585;135580763;3705934265;36616917;751299389;516;0;1066616;5;3232;11952
2;76;1574069599737;1574069605945;6208;12743603576;22790034043;1429796956;133670141;3705990366;36642003;750203191;409;0;855360;-5;2577;9530
2;77;1574069606033;1574069612657;6624;12756700652;22795268138;1431604438;134890062;3706763078;36678930;750050261;475;0;982104;0;2907;10527
2;78;1574069612743;1574069619712;6969;12746426048;22793822400;1440806919;135926349;3706608361;36650148;751501283;573;54;1007056;0;3443;13319
2;79;1574069619748;1574069625805;6057;12685627560;22773672566;1428365092;133523676;3703007027;36509998;750819492;439;0;912248;3;2685;9754
2;80;1574069625840;1574069631865;6025;12699723422;22785339560;1429547909;133805064;3704943837;36606004;750350905;412;1;851328;-3;2560;9332
2;81;1574069631956;1574069638076;6120;12711077112;22774094366;1438786532;133614644;3703116545;36707232;753029276;446;0;929272;0;2747;10049
2;82;1574069638112;1574069644487;6375;12730124126;22786282361;1436089201;133735536;3705130461;36637050;751154440;566;44;930208;2;2994;14749
2;83;1574069644553;1574069652013;7460;12763780922;22784285609;1434765496;136121903;3704888249;36727994;750248683;529;0;1102136;-2;3528;10978
2;84;1574069652062;1574069657346;5284;12708227484;22774561919;1431438855;131845628;3703107491;36551971;747806855;359;0;749760;0;2298;8390
2;85;1574069657408;1574069664284;6876;12756070954;22807010357;1425274008;135369176;3708176812;36734423;748228600;481;0;990328;1;2969;10961
2;86;1574069664385;1574069671113;6728;12769918178;22834108699;1427773362;135606900;3712562439;36638816;750481599;481;0;1005568;-1;2992;11039
2;87;1574069671154;1574069677449;6295;12737107890;22817532232;1434730012;134201858;3709666575;36619256;753439145;521;46;857976;0;3013;18336
2;88;1574069677500;1574069683809;6309;12721039860;22826081292;1425685379;133497981;3711129079;36576026;748089295;446;0;929280;0;2878;9452
2;89;1574069683896;1574069689972;6076;12726572968;22818128747;1437283753;133718310;3709742550;36757259;755179104;435;0;897648;0;2752;9909
2;90;1574069690011;1574069695659;5648;12751746434;22827144181;1441746016;133386285;3711324565;36650883;752002243;797;9;782336;0;4821;24690
2;91;1574069695698;1574069702914;7216;12784392618;22835842433;1437499768;135977008;3712901840;36682318;751760480;520;0;1077112;0;3226;11998
2;92;1574069702961;1574069709204;6243;12743029504;22819555425;1431377629;134199569;3709939833;36551822;750392794;578;60;935400;0;3381;25902
2;93;1574069709242;1574069715630;6388;12737198118;22808254416;1436707187;134402612;3707942946;36625297;751023101;452;0;929280;6;2910;10347
2;94;1574069715668;1574069721306;5638;12741483072;22817118892;1452129992;132808343;3709471277;36585272;752942039;405;0;823744;-6;2532;9512
2;95;1574069721397;1574069727481;6084;12749697032;22817307170;1433416718;134189109;3709509359;36595245;751043349;433;0;887040;0;2617;9699
2;96;1574069727546;1574069735229;7683;12787805952;22818744667;1428497242;137346030;3709836694;36877899;750417035;620;0;1108280;6;3526;16296
2;97;1574069735267;1574069742040;6773;12748380112;22826129703;1435491982;134998660;3711147017;36624188;752653996;631;58;1031136;-6;3767;22668
2;98;1574069742077;1574069748579;6502;12731031662;22808787753;1442145689;134485850;3708075634;36608672;752635826;454;0;937472;1;2850;10213
2;99;1574069748679;1574069755754;7075;12768684478;22815359243;1427786094;136485275;3709223922;36700796;749933186;510;0;1037296;-1;3166;11913
2;100;1574069755830;1574069762125;6295;12721826654;22813782956;1429712455;135401010;3708981127;36626196;749924500;453;0;931664;1;2782;10310
2;101;1574069762202;1574069768231;6029;12709922690;22833506415;1430963618;133189885;3712487004;36712596;752600664;508;42;825512;-1;2925;21446
2;102;1574069768345;1574069773964;5619;12723224020;22828083205;1429200432;132891279;3711541721;36646322;750312535;401;0;823680;0;2668;8349
2;103;1574069774068;1574069779319;5251;12673909454;22816198338;1419789024;131101797;3709439215;36555171;750042727;350;0;718080;0;2199;7894
2;104;1574069779404;1574069786178;6774;12739994018;22815007509;1434937586;135438373;3709163467;36678302;752725002;479;0;971568;0;2962;11183
2;105;1574069786220;1574069792080;5860;12718754668;22824144429;1428023562;133268006;3710854144;36635273;748824271;371;0;760320;0;2306;8533
2;106;1574069792185;1574069798649;6464;12738634174;22826020876;1433275244;134263111;3711136512;36628899;754431818;593;48;983256;1;3254;18514
2;107;1574069798706;1574069805618;6912;12737368792;22818403865;1430809515;135586316;3709744872;36690194;748455863;499;0;1026680;4;3215;10088
2;108;1574069805702;1574069812475;6773;12732118778;22816205804;1426377953;135135326;3709396580;36604719;749017122;500;0;1011448;-4;3019;10803
2;109;1574069812533;1574069819193;6660;12707711082;22817506379;1431146469;134274949;3709606145;36600080;751011335;478;0;973880;-1;2859;10399
2;110;1574069819231;1574069825653;6422;12742027360;22825914190;1444556328;133809352;3711108021;36635140;754438646;419;0;855360;0;2545;9662
2;111;1574069825741;1574069832072;6331;12732645108;22825062033;1432196175;134367127;3710971045;36592920;750769367;576;52;894320;4;3275;24613
2;112;1574069832130;1574069837858;5728;12717353506;22826858963;1420447308;132796969;3711301505;36566802;749629591;396;0;800280;-4;2486;8696
2;113;1574069837923;1574069844899;6976;12703384372;22816958566;1429973033;135505434;3709492234;36644348;751955605;530;0;1066608;0;3251;12031
2;114;1574069844988;1574069851328;6340;12726845404;22826067550;1428472110;134495410;3711079579;36614876;750552242;451;0;908160;5;2681;10274
3;63;1574070406890;1574070412710;5820;12788794664;23007612592;1429491824;134071776;3745541729;38734892;748061338;372;0;781440;5;2448;7839
3;64;1574070412746;1574070418209;5463;12711497300;22989068260;1416916054;132328998;3742217924;37206864;745202018;326;0;665360;-5;2042;7162
3;65;1574070418295;1574070424358;6063;12718809126;22997429834;1432546454;132524701;3743818762;37235653;746189897;421;0;887032;0;2721;9908
3;66;1574070424411;1574070429690;5279;12660026898;22987863894;1431475082;129265514;3741978066;36893566;746012363;353;0;739192;0;2226;8242
3;67;1574070429727;1574070435123;5396;12738725278;22988376357;1426978881;131571644;3742089669;37882598;747465244;493;32;681944;20;2486;22797
3;68;1574070435175;1574070441449;6274;12784307646;22987842622;1424995155;134283178;3742000518;38048294;744520379;476;0;995040;-20;3491;16115
3;69;1574070441484;1574070448904;7420;12782410668;22994706086;1441167483;135499946;3743362256;37266818;749336147;537;0;1108864;0;3454;12132
3;70;1574070448993;1574070456235;7242;12755875898;22987962641;1429699370;135253762;3742001703;37188237;744923055;509;0;1066560;0;3163;11525
3;71;1574070456272;1574070462654;6382;12785758740;22997169389;1431281322;135144885;3743722246;37470983;748132348;404;0;844800;0;2562;9472
3;72;1574070462719;1574070469145;6426;12741973778;22980482703;1434716103;134109195;3740702682;36971868;746640297;594;40;895648;0;3270;32792
3;73;1574070469250;1574070476357;7107;12774533968;22995955410;1443066526;135567212;3743493130;37266534;747448294;512;0;1066560;5;3300;11473
3;74;1574070476393;1574070482836;6443;12764776204;23005957977;1430326281;134291442;3745318612;36992567;745231359;440;0;908224;0;2785;9990
3;75;1574070482933;1574070489239;6306;12774136702;22996387423;1434762843;133971612;3743556600;38171689;750197646;431;0;897600;-5;2676;9708
3;76;1574070489275;1574070495980;6705;12754255444;22981601139;1423325381;134713960;3740821546;37035117;748276453;507;52;978728;87;2956;12019
3;77;1574070496015;1574070501877;5862;12780173802;22994592474;1430774792;132680626;3743344295;37443263;750307259;460;0;778800;-87;2710;11425
3;78;1574070501911;1574070508623;6712;12772257682;22985514815;1427163076;134909713;3741662563;37465875;746818282;442;0;918712;0;2786;10173
3;79;1574070508660;1574070515408;6748;12780844964;22999254061;1426513633;135115695;3744017977;38078542;749283616;474;0;971584;0;2898;10554
3;80;1574070515442;1574070521646;6204;12778229958;23007274754;1432684557;133613196;3745496810;37109972;751052503;430;0;895224;1;2681;9828
3;81;1574070521700;1574070528716;7016;12784183400;22988454366;1434503916;135208358;3742165968;38150637;745471321;624;50;1034784;2;3488;19768
3;82;1574070528798;1574070535728;6930;12769653626;22986623767;1430291506;134688388;3741879993;38143576;748261978;491;0;1020224;-3;3168;10097
3;83;1574070535765;1574070541451;5686;12695461974;22988110041;1425685294;132542912;3742022153;37001372;747627795;386;0;781504;5;2408;8561
3;84;1574070541530;1574070548057;6527;12773481308;22977853765;1425157953;135116933;3740232735;37177530;745147632;465;0;971520;-5;2915;10912
3;85;1574070548092;1574070554274;6182;12738946760;23010653849;1430569236;133739807;3745257427;36886358;750590866;413;0;855360;0;2587;9509
3;86;1574070554312;1574070560166;5854;12759883890;23020156234;1425365749;133242750;3746630034;38423967;748226154;531;48;829312;0;2888;18442
3;87;1574070560246;1574070567357;7111;12792391228;23028937303;1428030301;135068615;3748180106;38295573;749448347;537;0;1108784;5;3422;11102
3;88;1574070567446;1574070573501;6055;12792717100;23019632509;1435939302;133452095;3746503815;37815393;749567557;430;0;874176;-4;2679;9706
3;89;1574070573537;1574070579254;5717;12753174168;23040200078;1418906801;132426466;3750232531;38169364;745606051;385;0;794368;-1;2402;9130
3;90;1574070579320;1574070584895;5575;12770568316;23027922202;1433125662;132704896;3748019149;37552947;748946181;361;0;739200;0;2210;8151
3;91;1574070584979;1574070591745;6766;12814393428;23035155661;1431467285;135781082;3749370641;37436797;747025525;750;34;1027536;11;4423;32728
3;92;1574070591815;1574070598148;6333;12768991662;23010842590;1430968560;134314841;3744964318;37543065;751182084;766;7;913504;-8;5245;42924
3;93;1574070598252;1574070604697;6445;12739412354;23012058192;1424380025;134823040;3745173073;36858082;745240679;476;0;956920;-3;2894;10859
3;94;1574070604735;1574070612001;7266;12777337460;23040602868;1422647916;135570676;3750249842;37489084;746086273;549;0;1119360;0;3322;12224
3;95;1574070612039;1574070618598;6559;12778285584;23019315539;1424925002;134307665;3746573858;38463345;746129918;444;0;897640;0;2710;10312
3;96;1574070618700;1574070625345;6645;12764795622;23030266877;1425311765;134361006;3748417679;37292414;748046870;633;46;949520;0;3401;29619
3;97;1574070625395;1574070633115;7720;12817455632;23022505816;1420446832;137335623;3746973309;37176587;744709916;651;0;1145432;9;3774;21314
3;98;1574070633187;1574070639071;5884;12759570574;23018919534;1435091446;133335502;3746452103;36989641;750121246;431;0;872384;-9;2676;10666
3;99;1574070639125;1574070645739;6614;12757274578;23031563772;1417953563;134590271;3748631715;37696955;743748766;461;0;929280;0;2830;10868
3;100;1574070645775;1574070653160;7385;12833779600;23038552882;1425771002;135852553;3749941774;37671615;747145606;705;48;1125248;0;3958;31662
3;101;1574070653198;1574070659636;6438;12806136982;23039604275;1428997102;134435437;3750168137;37927631;750309053;446;0;897600;0;2768;9437
3;102;1574070659698;1574070666374;6676;12770890100;23040955432;1426717760;134582137;3750326864;38205918;748989520;472;0;939912;5;2896;10515
3;103;1574070666490;1574070672492;6002;12743403264;23030474473;1422825013;133478393;3748509303;37892955;746275421;448;0;897592;-5;2666;10069
3;104;1574070672588;1574070678893;6305;12753576544;23019761622;1422106445;134289850;3746489251;37301860;745622055;465;0;929296;0;2711;10038
3;105;1574070678930;1574070685351;6421;12759573494;23028081263;1423418794;134045776;3748102179;37033890;745854445;609;46;948496;0;3343;22305
3;106;1574070685431;1574070692380;6949;12793910358;23025944899;1426140727;135863875;3747817312;37167558;746537382;542;0;1087672;5;3315;12012
3;107;1574070692418;1574070698755;6337;12752159322;23022070458;1422674357;133276049;3747003395;38153521;746139886;477;0;948088;-4;2868;10958
3;108;1574070698793;1574070704437;5644;12728838742;23029047087;1424381966;132152776;3748176748;37188691;747213298;413;0;826040;-1;2475;9410
3;109;1574070704474;1574070711637;7163;12825090556;23026752321;1429383072;136098575;3747896143;38343079;748402776;664;32;1059760;0;3473;23162
3;110;1574070711674;1574070717768;6094;12745380542;23010093834;1428409564;133448795;3744795212;37112563;746465812;435;0;865920;0;2748;8088
3;111;1574070717840;1574070724299;6459;12768185596;23028582914;1424908406;134467749;3748152951;37011562;745836295;468;0;939840;5;2874;10847
3;112;1574070724372;1574070730891;6519;12760245678;23029552369;1416189352;134269505;3748315780;37300259;744207231;475;0;939896;0;2799;10264
4;66;1574071302063;1574071308082;6019;12500716808;22785780157;1424620089;132950895;3719634232;36646641;751621787;400;0;836640;-1;2568;9224
4;67;1574071308118;1574071314506;6388;12480161468;22807008072;1415896626;132703697;3723391430;36626693;753214477;407;0;855352;0;2576;9257
4;68;1574071314541;1574071319833;5292;12463853122;22786438714;1413843948;130876290;3719710149;36530265;748581772;351;0;739192;5;2234;7956
4;69;1574071319868;1574071325395;5527;12469801746;22797900032;1418336200;131698490;3721729320;36601171;752391355;511;58;824200;-4;2979;20862
4;70;1574071325485;1574071331155;5670;12431253804;22779835107;1414764295;131512400;3718555475;36623305;751019338;378;0;794368;4;2501;7746
4;71;1574071331213;1574071338173;6960;12489303550;22789769071;1415468333;135338857;3719940863;36666610;752127772;503;0;1045456;-5;3122;10866
4;72;1574071338230;1574071344209;5979;12470517876;22787080635;1411395941;132413224;3719425497;36667598;747565314;379;0;789632;1;2398;8706
4;73;1574071344269;1574071350154;5885;12480070218;22778538647;1425166503;132110155;3717818876;36545317;752895519;409;1;857728;-1;2591;9267
4;74;1574071350191;1574071355944;5753;12471734348;22785405257;1415674594;132770694;3719107100;36618465;749051200;509;58;808000;1;2864;21437
4;75;1574071355981;1574071362601;6620;12474843710;22777671976;1417328558;133894377;3717618650;36639153;751743503;470;1;984448;-1;3124;9557
4;76;1574071362664;1574071369129;6465;12488247386;22786763277;1421668376;133391277;3719313841;36645806;751220733;453;0;939880;0;2861;10211
4;77;1574071369163;1574071375004;5841;12433888082;22783970753;1416138092;131482237;3718856194;36630492;753906603;384;0;802560;0;2455;9203
4;78;1574071375081;1574071381319;6238;12458060426;22768827379;1410292564;133438709;3716018444;36623026;745846902;435;0;908160;0;2708;9937
4;79;1574071381366;1574071387253;5887;12445509682;22788275381;1411663105;132409788;3719525758;36581915;748786981;525;50;870128;6;3141;16901
4;80;1574071387359;1574071393345;5986;12459704970;22778107342;1417862884;132909421;3717723502;36637934;749214892;425;0;887040;-1;2790;9096
4;81;1574071393379;1574071399768;6389;12448275944;22778362804;1425360320;132662435;3717736508;36649778;755628053;455;0;939872;0;2860;10116
4;82;1574071399805;1574071406185;6380;12451768264;22777538950;1415889800;133016011;3717667201;36688090;748956893;441;0;918712;-5;2752;10241
4;83;1574071406263;1574071412063;5800;12442394042;22778184499;1413303237;131558691;3717770210;36651683;750778903;398;0;831872;1;2503;9404
4;84;1574071412098;1574071418020;5922;12440620434;22768559191;1419009994;132322695;3716094919;36661429;752226782;531;38;841016;-1;2954;18908
4;85;1574071418056;1574071424970;6914;12505696868;22800340599;1409955554;134990417;3720938678;36728309;748400182;480;0;1003200;0;3098;10191
4;86;1574071425065;1574071431255;6190;12495479934;22813584031;1417089137;133901161;3722821610;36680850;750195538;424;0;876520;5;2668;9534
4;87;1574071431314;1574071437264;5950;12441227210;22809759023;1418115720;132016859;3722189774;36619479;750360716;406;0;844800;0;2523;9223
4;88;1574071437358;1574071443845;6487;12511311590;22821200737;1424844468;134147646;3724246536;36649972;751680982;451;0;939840;-5;2772;10260
4;89;1574071443932;1574071450688;6756;12459542764;22811997397;1421380326;133613108;3722558171;36609845;753864337;627;50;1046872;1;3643;20856
4;90;1574071450740;1574071457046;6306;12469877520;22803316199;1417057935;133443343;3720999019;36653242;747816028;431;0;899952;4;2680;9407
4;91;1574071457085;1574071463053;5968;12470895140;22819300750;1421285350;132612867;3723901172;36642547;752022883;420;0;863592;-4;2583;9359
4;92;1574071463151;1574071469960;6809;12518631008;22809978531;1425134430;134677200;3722295967;36679679;753926946;478;0;995008;-1;2948;10608
4;93;1574071470013;1574071477206;7193;12514104132;22819144941;1424212139;135192331;3723927309;36677132;754724788;800;53;1064824;19;4819;36724
4;94;1574071477287;1574071484078;6791;12509843560;22820116749;1417290677;134723672;3724100690;36713646;749481640;775;8;1084248;-14;5446;49844
4;95;1574071484136;1574071491065;6929;12478997118;22821029252;1417813467;134489049;3724129704;36652653;754196308;493;0;1013800;-5;3088;10947
4;96;1574071491102;1574071497516;6414;12477918470;22809520066;1402975643;133718536;3722226301;36631275;745837988;456;0;939840;5;3232;11947
4;97;1574071497553;1574071504068;6515;12473180770;22810789856;1409846708;133458713;3722436602;36635404;749275743;475;0;979712;-4;2895;10813
4;98;1574071504125;1574071511149;7024;12502645322;22810182673;1418182735;135063587;3722309978;36648469;750961904;713;44;1052704;-1;4033;30667
4;99;1574071511218;1574071517025;5807;12478447282;22828320038;1425679111;132114020;3725584669;36605768;753601480;375;0;770880;5;2393;8196
4;100;1574071517063;1574071523987;6924;12462627890;22809926111;1416032228;134048716;3722268471;36685663;751956386;496;1;992864;-5;3024;10956
4;101;1574071524057;1574071530722;6665;12481528904;22811404568;1416290079;134084413;3722397575;36691208;749854165;477;0;979712;1;2959;11256
4;102;1574071530786;1574071537641;6855;12520130282;22818570336;1422969364;134468559;3723913789;36687024;750149992;477;0;963368;-1;2898;10844
4;103;1574071537760;1574071543486;5726;12462762794;22815378110;1408017909;131724636;3723354495;36612000;748600793;530;50;861136;0;3065;16309
4;104;1574071543594;1574071550500;6906;12508534086;22806414980;1431001116;134513332;3721707482;36705673;754318362;502;0;1024320;0;3102;11439
4;105;1574071550544;1574071556542;5998;12478017896;22812135529;1424953979;132284358;3722599902;36629195;749826318;424;0;855400;0;2623;9818
4;106;1574071556639;1574071563009;6370;12514876326;22818636077;1424651065;133930650;3723875458;36689055;748330587;457;0;939832;0;2800;10294
4;107;1574071563048;1574071569201;6153;12457897782;22808081740;1420104489;132979484;3722006160;36604174;751723085;541;46;888376;12;2881;18103
4;108;1574071569265;1574071575539;6274;12490576232;22810101104;1420793209;133343724;3722210529;36579397;751468518;465;0;950392;-11;3138;10506
4;109;1574071575647;1574071582172;6525;12504047798;22809250654;1419644319;133427831;3722168080;36739780;752884564;499;0;1016128;-1;3064;11176
4;110;1574071582210;1574071588358;6148;12498790776;22817774247;1420432456;132765979;3723768149;36608308;749114839;464;0;939864;0;2867;10700
4;111;1574071588458;1574071594429;5971;12490686316;22816980856;1422046947;132980406;3723591400;36602063;751726162;419;0;844800;0;2557;9835
4;112;1574071594467;1574071600879;6412;12535899304;22812892210;1420241500;134258261;3722673750;36740651;751340052;560;45;890824;0;3139;23187
4;113;1574071600916;1574071607579;6663;12503812884;22810022844;1422163355;134158883;3722218610;36627668;750834646;459;0;929280;2;2937;9461
4;114;1574071607617;1574071614648;7031;12486061766;22827495090;1425564762;133450416;3725398845;36647350;749986313;512;0;1028456;1;3138;11502
4;115;1574071614714;1574071620881;6167;12472755034;22818643726;1415801385;133021406;3723897802;36623660;749906007;454;0;925184;2;2806;10606
