0;34;1572932966803;1572932973980;7177;17954047780;42557744154;221188070;97078772;7446559609;142390144;325030813;1073;2302;1309336;5;7177;1093363
0;35;1572932973980;1572932982044;8064;17915431510;42566943730;220249373;93550156;7448931685;142394035;325016535;868;489;1502752;-7;8064;1161511
0;36;1572932982044;1572932994573;12529;18050043218;42559983286;224695776;103638434;7447020378;142667613;325505996;1474;4446;2145584;-1;12530;1800227
0;37;1572932994573;1572933002301;7728;18033809040;42558364015;222363058;102355261;7446796587;142519265;325302445;1218;1986;1248424;-5;7728;1200826
0;38;1572933002301;1572933010429;8128;18045948210;42559694890;224313815;103211906;7446856242;142650336;325217100;923;1828;1327424;8;8128;1169000
0;39;1572933010429;1572933018166;7737;18031214328;42561858636;223919566;101560173;7447497608;142673948;325258028;832;1794;1325968;0;7736;1111316
0;40;1572933018166;1572933025787;7621;17896197470;42564757817;218622959;93153157;7448244413;142174245;324918531;840;1215;1494584;-8;7621;1092203
0;41;1572933025787;1572933039065;13278;18032491828;42558352119;222013635;102711510;7446634221;142516045;325209839;1836;4198;2352064;-9;13278;2016092
0;42;1572933039065;1572933046548;7483;18039083582;42560178514;225132784;102222373;7447119072;142765931;325370956;820;2141;1149576;12;7483;1072735
0;43;1572933046548;1572933054040;7492;18034747820;42566649080;224112020;102184560;7448614944;142635693;325423285;815;1735;1365880;-13;7493;1073460
0;44;1572933054040;1572933061623;7583;18029361880;42567653436;222580914;101935964;7449037229;142559041;325251007;819;2037;1447440;13;7583;1090944
0;45;1572933061624;1572933068366;6742;17902255740;42564019641;220052295;92107504;7448120823;142202661;324950488;1055;1256;1195784;12;6743;1046816
0;46;1572933068366;1572933076268;7902;18036955194;42563068204;222323454;102760532;7447780428;142456488;325297531;909;1234;1418080;-12;7902;1133869
0;47;1572933076268;1572933089343;13075;18023044606;42559166023;223057401;101940659;7446729916;142449234;325214723;1493;4911;2167888;11;13074;1873588
0;48;1572933089343;1572933096935;7592;18026934046;42565749473;223330613;101633297;7448668493;142604186;325279605;1202;1896;1306192;-11;7593;1178725
0;49;1572933096935;1572933104693;7758;18035789676;42557318570;222982283;102510155;7446382103;142531289;325289570;896;1726;1303208;0;7757;1111975
0;50;1572933104693;1572933112078;7385;17977439900;42563564223;223673819;98304291;7448002099;142423962;325270957;800;1699;1262376;0;7386;1056441
0;51;1572933112078;1572933119249;7171;17912103294;42561943963;222144461;93415575;7447319618;142259607;325381149;784;750;1475472;-16;7170;1025508
0;52;1572933119249;1572933131946;12697;18028754374;42551244966;224445165;102671319;7444057939;142505626;325286359;1778;4020;2225288;3;12698;1881830
0;53;1572933131947;1572933139995;8048;18043198154;42554174256;225423858;102778385;7444503922;142755313;324770380;906;2117;1237800;23;8049;1153541
0;54;1572933139995;1572933147010;7015;17965394024;42546909399;222392166;97929990;7442525103;142555653;323615094;770;1945;1274168;-2;7015;1007658
0;55;1572933147011;1572933154466;7455;18008070554;42544972338;222029566;101676866;7441643595;142408053;323675708;823;1965;1451536;-23;7456;1071641
0;56;1572933154466;1572933160925;6459;17860428638;42551012496;217956677;89942684;7443424084;142109592;323088707;975;1505;1175784;3;6458;963913
0;57;1572933160925;1572933168879;7954;18006085684;42543499387;222713171;101303856;7441445250;142523938;323569573;912;1096;1452120;16;7954;1141782
0;58;1572933168879;1572933181735;12856;18002159598;42551378657;223943181;100719930;7443499065;142641975;323685187;1456;4375;2156352;-15;12857;1842476
0;59;1572933181735;1572933189476;7741;18001814016;42542442823;222508749;101216214;7441082852;142440026;323528716;844;2117;1447520;154;7741;1142289
0;60;1572933189477;1572933196885;7408;17990735098;42543675201;223326167;100064847;7441684853;142465621;323555062;1094;1508;1213744;-149;7409;1134850
0;61;1572933196885;1572933204190;7305;17945392024;42546953634;221337462;96713023;7442340918;142355160;323490982;793;1758;1183304;7;7304;1046948
0;62;1572933204190;1572933212708;8518;17875739220;42542912346;219282265;92014076;7441269815;142179016;323380392;1288;852;1208336;13;8518;1299524
0;63;1572933212709;1572933226215;13506;18007394720;42547224783;223798615;100834695;7442437179;142672839;323660119;1596;4174;2407392;-4;13507;1937428
0;64;1572933226215;1572933233509;7294;17983868572;42546040777;223161779;99697280;7442111580;142435939;323588061;798;1889;1346576;2;7294;1043929
0;65;1572933233509;1572933241448;7939;18016593304;42544505258;223384054;102064468;7441704134;142595669;323602941;1109;1811;1449800;-11;7940;1170240
0;66;1572933241449;1572933248772;7323;17999117396;42540402403;223481401;101068648;7440658498;142485173;323727857;847;1538;1197872;-15;7323;1048521
0;67;1572933248772;1572933254794;6022;17826283618;42541511185;218483875;88347472;7440709359;141988917;323233682;737;1203;1063232;3;6023;874577
0;68;1572933254794;1572933262725;7931;18021132882;42548440520;224554979;102462766;7442829977;142726357;323710397;888;1411;1663536;9;7931;1138434
0;69;1572933262725;1572933274580;11855;18001634144;42541219877;224058073;101296618;7440731068;142566807;323556342;1551;3521;1877176;-14;11855;1727078
0;70;1572933274580;1572933281685;7105;17968738154;42541516520;220447370;99236812;7440856045;142393620;323223162;767;1567;1211784;6;7105;1019525
0;71;1572933281685;1572933289727;8042;18027107494;42549208303;224024022;102645279;7442879937;142737249;323683449;885;1933;1502584;11;8042;1153923
0;72;1572933289727;1572933296987;7260;17948462988;42541693654;221633063;97170682;7441054858;142405342;323446044;802;2053;1399624;-1;7260;1041394
0;73;1572933296987;1572933304115;7128;17862575568;42537472691;221346057;89608459;7439505880;142089644;323190010;1140;782;1362992;9;7130;1084434
0;74;1572933304117;1572933316773;12656;18011053918;42549604754;223655959;101126641;7442958969;142669911;323547424;1434;3725;2070392;-26;12655;1812573
0;75;1572933316773;1572933324548;7775;17997024924;42548423970;223521267;100787982;7442792418;142566759;323407222;909;2291;1406552;20;7776;1115517
0;76;1572933324549;1572933332444;7895;17994128138;42540908360;223086308;100736050;7440767788;142480270;323523009;1260;2044;1384368;-2;7895;1269476
0;77;1572933332444;1572933339913;7469;18002773820;42542858880;223503090;101382048;7441142428;142440861;323566838;885;1538;1260856;11;7469;1073498
0;78;1572933339913;1572933346199;6286;17862509284;42552703350;219447725;89518143;7444019301;142254036;323005938;693;1113;1072216;-21;6286;901941
0;79;1572933346199;1572933354197;7998;18007985290;42545574359;222922391;101462328;7441922506;142520465;323559224;894;1460;1655816;2;7999;1151189
0;80;1572933354197;1572933364235;10038;18001138766;42548586460;222312242;100941304;7442738883;142508347;323525129;1434;3164;1747160;-2;10037;1507126
0;81;1572933364235;1572933371520;7285;17972655480;42535724884;222579511;99650353;7439074673;142320299;323592931;860;1419;1190944;4;7286;1045284
0;82;1572933371520;1572933378925;7405;17986682576;42539020161;222542212;100183988;7440012675;142489808;323551008;814;1708;1295608;18;7404;1062172
0;83;1572933378925;1572933386784;7859;18005203698;42537812697;224517045;101451531;7439874006;142549280;323698650;880;2024;1486240;-16;7860;1130651
1;33;1572933797369;1572933806467;9098;18102505252;42663434625;223330115;103639073;7365180741;142777336;323702146;1243;2374;1482376;13;9098;1198912
1;34;1572933806467;1572933814754;8287;18098379146;42657477474;222742578;103270173;7363771644;142777344;323609764;886;2161;1380600;10;8287;1188571
1;35;1572933814755;1572933824260;9505;18095154298;42666499501;223552615;102569906;7366082669;142794528;323642836;1088;2281;1791032;-70;9506;978737
1;36;1572933824260;1572933831934;7674;18095933646;42659631923;222608097;102985439;7364202340;142637254;323673893;941;2342;1402216;162;7675;756843
1;37;1572933831935;1572933839419;7484;18068807284;42658043512;221430526;101347850;7363985585;142631458;323587838;959;1432;1195456;-103;7484;1088805
1;38;1572933839419;1572933847033;7614;18092577982;42662172780;222165884;103303201;7364567291;142839891;325460300;814;1797;1303640;18;7614;1089099
1;39;1572933847033;1572933854862;7829;18082380174;42661873713;223312320;102530035;7364774057;142862453;325783984;905;2010;1549136;-9;7829;1125410
1;40;1572933854863;1572933862287;7424;18072311430;42664792097;222577028;102034553;7365536846;142685267;325714002;760;1908;1323400;8;7425;1064944
1;41;1572933862287;1572933873660;11373;18074947752;42658337393;223274838;102277398;7363906431;142832217;325579075;1571;2462;1900112;-7;11373;1291210
1;42;1572933873661;1572933881291;7630;18084444030;42660066496;223560495;102774250;7364359392;142734049;325552964;814;1810;1286224;-16;7630;1095491
1;43;1572933881291;1572933889665;8374;18081903192;42666745772;222722990;102300305;7365931942;142742940;325681708;950;2298;1572240;12;8375;1203779
1;44;1572933889666;1572933898709;9043;18110404582;42667819465;223669172;104068258;7366348351;142877354;325701076;1285;2180;1518832;5;9044;1339000
1;45;1572933898709;1572933906386;7677;18067625268;42664013058;221368644;102096215;7365396106;142663923;325463404;843;1808;1257440;-11;7677;1103438
1;46;1572933906386;1572933917678;11292;18081086760;42663044250;221749431;102869725;7365046609;142655193;325477755;1364;2869;2060696;-95;11292;1023370
1;47;1572933917678;1572933925744;8066;18071963220;42659182223;221197138;102350590;7364007507;142653995;325444064;1031;2460;1435680;198;8066;608610
1;48;1572933925745;1572933933255;7510;18083333846;42665743298;223272007;102890462;7365951609;142785326;325845984;1024;1583;1198896;-85;7510;1096003
1;49;1572933933255;1572933941262;8007;18061670512;42657322572;221461297;101683032;7363670773;142633472;325786264;868;1945;1367416;0;8008;1149760
1;50;1572933941262;1572933948574;7312;18067235010;42663775923;221207340;101381001;7365347589;142581850;325726687;842;1866;1426488;-10;7311;1049134
1;51;1572933948574;1572933959570;10996;18062305174;42661573926;221651701;101459480;7364489424;142654217;325589294;1523;2512;1943456;-95;10997;1551352
1;52;1572933959570;1572933967469;7899;18090418934;42646889143;222864999;103072182;7359914106;142868606;324809998;911;1801;1271424;77;7899;928183
1;53;1572933967469;1572933976276;8807;18091435240;42652637202;223345312;102539331;7361478676;142981466;324604722;974;2440;1547352;16;8807;1262006
1;54;1572933976277;1572933984711;8434;18094963914;42647987074;221063126;103244352;7360193379;142772341;324564434;955;2335;1594408;-51;8434;1054650
1;55;1572933984711;1572933992491;7780;18056904196;42645086232;221223472;101333952;7359116895;142749839;324522493;1217;1692;1265344;47;7780;1027682
1;56;1572933992491;1572934000033;7542;18061048844;42650722975;221502440;100650464;7360801538;142915408;324583406;845;1736;1245432;-12;7542;1084710
1;57;1572934000033;1572934011152;11119;18065772236;42643395978;221689695;101698745;7358869459;142783180;324569336;1324;2618;2031408;-86;11119;864090
1;58;1572934011152;1572934018733;7581;18058718246;42650876923;220428086;100871140;7360857304;142695807;324618417;878;2020;1390136;33;7582;443479
1;59;1572934018734;1572934026490;7756;18036508726;42642200251;221883781;99778729;7358494160;142699063;324658669;1212;1641;1191136;65;7756;1068724
1;60;1572934026490;1572934033864;7374;18038716976;42643351731;219723042;100153272;7359068500;142543175;324532213;806;1725;1302752;-6;7374;1056405
1;61;1572934033864;1572934041828;7964;18060085682;42646658860;221429914;101162202;7359739402;142765823;324742049;897;2168;1496912;-1;7964;1142497
1;62;1572934041828;1572934051725;9897;18046602436;42642590341;220984005;100397480;7358658745;142732844;324574814;1371;2233;1788528;3;9898;1361490
1;63;1572934051725;1572934059543;7818;18065679380;42646810014;220300977;101858664;7359808539;142722723;324478580;930;1899;1242112;0;7818;1103428
1;64;1572934059543;1572934066938;7395;18034935576;42645380079;221469400;99826256;7359446960;142771600;324504090;802;1657;1323400;-2;7395;1059763
1;65;1572934066938;1572934075024;8086;18076199410;42644290468;223584458;102558679;7359146700;142801659;324667716;1300;1614;1235184;6;8086;1296960
1;66;1572934075024;1572934083238;8214;18079535072;42639797854;223030740;103133540;7358052795;142911373;324705810;1046;1661;1193392;2;8214;1181598
1;67;1572934083238;1572934090974;7736;18046213200;42641066778;221391517;100460186;7358105290;142779308;324605574;811;1918;1361000;-10;7736;1109724
1;68;1572934090974;1572934104165;13191;18043964946;42648069411;220525197;100475493;7360253604;142711287;324541820;1730;3284;2412328;11;13190;1689250
1;69;1572934104165;1572934111585;7420;18051326266;42640854885;221374535;100601319;7358157207;142786916;324537066;908;1469;1170984;8;7421;1058779
1;70;1572934111585;1572934119729;8144;18045832140;42641079895;219529038;101161156;7358259072;142641036;324431255;897;2061;1453296;-1;8144;1168558
1;71;1572934119729;1572934126576;6847;18017767582;42648794986;219853660;98221781;7360283298;142629921;324414753;779;1748;1276288;-11;6847;983281
1;72;1572934126576;1572934134040;7464;18007490788;42641395601;220127542;97936146;7358499827;142609267;324468565;1008;2141;1326472;14;7464;1122396
1;73;1572934134040;1572934146981;12941;18046979700;42637055615;219969366;101365485;7356904626;142494984;324563371;1440;2618;2215592;-92;12940;1791899
1;74;1572934146981;1572934155423;8442;18069281784;42649203125;220937356;101936788;7360368874;142829646;324593438;955;2383;1430752;55;8442;886978
1;75;1572934155423;1572934163243;7820;18059055214;42648087861;220377721;101340511;7360218305;142680634;324494576;920;2050;1491416;-22;7821;792123
1;76;1572934163243;1572934171665;8422;18070901508;42640509380;222064116;102598991;7358181431;142698039;324590913;1196;1972;1298056;50;8421;1168211
1;77;1572934171665;1572934179640;7975;18064808636;42642383884;222758704;101811304;7358532439;142669298;324676973;883;1844;1394456;-18;7976;1144605
1;78;1572934179640;1572934187337;7697;18083762502;42652313706;223135877;102555275;7361437348;142962543;324599549;839;2139;1412216;25;7697;1104238
1;79;1572934187337;1572934197978;10641;18064458090;42645218510;221469030;101766229;7359351790;142683711;324541050;1618;2425;1940392;-73;10641;701042
1;80;1572934197978;1572934205202;7224;18018041916;42648074955;220771871;98288540;7360119048;142733303;324638409;825;1480;1204376;52;7224;978130
1;81;1572934205202;1572934213178;7976;18060338554;42635386758;222069565;101916835;7356506287;142590637;324730892;894;2000;1429056;2;7976;1144655
1;82;1572934213178;1572934221230;8052;18039090882;42638703280;220547890;100138625;7357447046;142557395;324685057;916;2395;1502552;12;8052;1155376
2;33;1572934630842;1572934638906;8064;18354724340;43232958631;233571385;105528190;7457313709;142788356;324331674;902;1625;1319512;-6;8064;1159796
2;34;1572934638906;1572934649472;10566;18315503192;43227098949;229962357;103473269;7455932559;142629664;324045556;1185;2510;1897504;-98;10565;1243677
2;35;1572934649472;1572934657451;7979;18323230534;43236179013;231006674;103245895;7458260298;142779670;324232983;920;2333;1471184;33;7980;501726
2;36;1572934657451;1572934665798;8347;18350569180;43229272216;234249012;105202439;7456369663;142891318;324313128;1140;1901;1301784;56;8348;1055428
2;37;1572934665799;1572934673466;7667;18337358954;43227748351;233773523;104076703;7456181422;142815193;324298933;837;1776;1347600;-5;7667;1096801
2;38;1572934673466;1572934680788;7322;18318372530;43232151444;231863501;102781884;7456747878;142674823;323779821;826;1925;1400520;6;7322;1052425
2;39;1572934680788;1572934687957;7169;18319231302;43231120742;230556411;103166798;7456828600;142618583;323520439;750;1786;1341064;18;7169;1029929
2;40;1572934687957;1572934698288;10331;18327557390;43234055972;232047431;103820090;7457595629;142638874;323657138;1350;2167;1749248;-21;10331;1276752
2;41;1572934698288;1572934705969;7681;18317028016;43227538991;230899819;103029460;7455946234;142633417;323623103;833;1867;1313136;17;7681;1093266
2;42;1572934705969;1572934713442;7473;18337950108;43229354712;232445491;104562773;7456431173;142718154;323686571;859;1906;1454328;5;7472;1070355
2;43;1572934713442;1572934721209;7767;18322912984;43236049730;231507976;103430728;7458001305;142738894;323675942;859;2100;1448240;5;7768;1116893
2;44;1572934721209;1572934728572;7363;18301839490;43237024289;229714044;101727364;7458398160;142523812;323648068;1040;1540;1172016;-21;7363;1100283
2;45;1572934728572;1572934740312;11740;18328515588;43233292592;232161700;103377283;7457461781;142698759;323635695;1255;2636;2035024;-72;11740;1645349
2;46;1572934740312;1572934748248;7936;18313517446;43232392830;230223645;102794190;7457135273;142596894;323583331;911;2327;1488296;15;7936;598738
2;47;1572934748248;1572934756572;8324;18325416884;43228391047;231790229;104006914;7456055791;142684047;323638480;1148;1990;1405488;62;8323;849928
2;48;1572934756572;1572934764301;7729;18323657146;43235012981;231020196;103339333;7458006601;142688325;323646320;875;1823;1303848;-11;7730;1107781
2;49;1572934764301;1572934772246;7945;18330068736;43226538258;232588223;103644299;7455711769;142665423;323647118;901;2144;1453680;-4;7944;1140397
2;50;1572934772246;1572934780607;8361;18366388864;43232935213;235061541;106002659;7457366636;142949287;323904752;943;2232;1573504;17;8362;1200379
2;51;1572934780607;1572934789470;8863;18342630722;43230887799;232506075;103953693;7456563827;142786940;323590581;1261;1870;1441192;8;8862;1196267
2;52;1572934789470;1572934798009;8539;18347708018;43216336337;231521581;104430273;7452035220;142775316;323022982;958;2258;1467472;4;8541;1226852
2;53;1572934798010;1572934806314;8304;18343192238;43223052977;232353052;103349768;7453774136;142847610;323341941;947;2299;1567696;-18;8303;1190276
2;54;1572934806314;1572934813762;7448;18332844196;43215863022;230826426;103252816;7451998399;142754846;322868549;798;1882;1411728;2;7449;1066430
2;55;1572934813762;1572934821740;7978;18329125138;43214469963;231322285;103014569;7451229813;142743262;322839049;1192;1729;1285512;9;7977;1242325
2;56;1572934821740;1572934831958;10218;18307479470;43219591017;229697299;101663156;7452827360;142665028;322648073;1102;1996;1792560;-72;10218;1387814
2;57;1572934831958;1572934839963;8005;18334287844;43212471594;230625763;103776514;7450933590;142704406;322852871;983;2076;1505392;-27;8005;440259
2;58;1572934839963;1572934848452;8489;18337879590;43220127772;231133573;103312138;7452958578;142719788;322682267;1312;2196;1441024;86;8490;562017
2;59;1572934848452;1572934856601;8149;18340604534;43211397063;232426942;103875684;7450568876;142696706;322832418;953;1814;1343040;7;8149;1160110
2;60;1572934856601;1572934864484;7883;18329602412;43212658471;230716020;103451771;7451179149;142682297;322753642;871;1958;1417408;-7;7883;1132776
2;61;1572934864484;1572934871920;7436;18318255438;43215867503;230576865;102206984;7451810781;142697933;322723925;835;1952;1453056;-3;7436;1063426
2;62;1572934871920;1572934880967;9047;18308415476;43211832561;229194163;101895267;7450750299;142565522;322679441;1306;2000;1573120;-4;9047;967962
2;63;1572934880968;1572934888843;7875;18343359554;43216190028;231263690;103643602;7451933034;142825760;323015140;889;1737;1279112;7;7876;1132016
2;64;1572934888843;1572934896688;7845;18317309212;43214639940;230241844;102299511;7451551070;142647753;323121836;863;2077;1411568;6;7845;1126614
2;65;1572934896689;1572934904755;8066;18331873004;43213480197;229916617;103302404;7451210083;142686702;323178424;918;2278;1539024;10;8067;1157643
2;66;1572934904756;1572934913002;8246;18328913146;43208813929;230687684;103268815;7450057191;142789828;323219034;1189;1472;1208608;-8;8247;1329231
2;67;1572934913002;1572934926330;13328;18328785980;43210551214;229844383;103038695;7450245303;142688326;323187459;1618;2712;2059336;-75;13328;1854568
2;68;1572934926330;1572934934313;7983;18310551310;43217345148;229220946;101565621;7452350576;142684363;322900049;940;2166;1484000;-8;7982;582149
2;69;1572934934313;1572934943036;8723;18353312082;43210131523;230437548;104913303;7450250705;142778421;322881295;1301;2379;1515328;67;8724;792682
2;70;1572934943036;1572934951207;8171;18317196938;43210314010;230213595;102286855;7450335820;142735382;322678712;891;1905;1315256;16;8171;1166904
2;71;1572934951207;1572934958766;7559;18314793340;43217979014;231094580;102078324;7452353807;142759848;322805910;894;1866;1311248;0;7559;1084649
2;72;1572934958766;1572934966225;7459;18332493650;43210600468;229524931;102756880;7450586532;142738368;322755957;832;2023;1441048;0;7459;1071392
2;73;1572934966225;1572934976734;10509;18338676750;43206417614;230507336;104153424;7449030060;142521364;322901200;1561;2265;1713096;8;10509;1192221
2;74;1572934976735;1572934984161;7426;18312699262;43218438229;230234617;101599734;7452463080;142804762;322795190;805;1640;1278616;-5;7427;1066458
2;75;1572934984161;1572934991642;7481;18310356838;43217207339;229115401;101994259;7452273307;142644242;322597279;849;1989;1427288;-17;7480;1069265
2;76;1572934991642;1572934999046;7404;18304224546;43209772229;229552623;101424494;7450284633;142610791;322694125;827;1842;1400576;5;7404;1060435
2;77;1572934999046;1572935006904;7858;18301698892;43211665453;228944265;101388600;7450636884;142492908;322765433;1158;1873;1420952;17;7859;1189422
2;78;1572935006904;1572935017810;10906;18330023476;43221513983;229844810;102626891;7453513589;142881924;322713519;1235;2248;1840664;-76;10906;1465080
2;79;1572935017810;1572935025625;7815;18328587128;43214404262;228844959;103044772;7451420580;142539300;322677472;923;2244;1476384;14;7815;727333
2;80;1572935025625;1572935033417;7792;18310993544;43217304260;228793381;101795461;7452208039;142540699;322769196;893;2104;1455568;13;7792;675986
2;81;1572935033418;1572935041465;8047;18331542460;43204629430;229910244;103625568;7448596743;142627599;322836457;1244;1756;1232832;39;8047;1194221
2;82;1572935041465;1572935048840;7375;18291867544;43207882248;226855804;101079397;7449519824;142352756;322567639;799;1794;1265528;1;7376;1060472
3;34;1572935461916;1572935469811;7895;18328605378;42538661497;238472662;105865980;7457194009;142921823;326598530;1213;1761;1303304;19;7896;1150339
3;35;1572935469811;1572935479646;9835;18292741062;42548065503;235707847;103590010;7459642865;142812229;326553758;1058;2026;1710800;-70;9835;1276246
3;36;1572935479646;1572935487676;8030;18306011294;42540862022;235788730;104445252;7457638091;142772621;326506623;977;2221;1513816;1;8031;430193
3;37;1572935487677;1572935495672;7995;18315461582;42539233360;237737243;105770071;7457417738;142792338;326465194;1082;2225;1391504;77;7995;670390
3;38;1572935495673;1572935503458;7785;18309045320;42540430486;237224057;105405808;7457432088;142881605;326451253;885;1593;1248312;11;7786;1114740
3;39;1572935503458;1572935511394;7936;18306794000;42542437626;237933383;104467659;7458016916;142850548;326510110;848;1936;1365432;-16;7936;1139476
3;40;1572935511394;1572935519172;7778;18320377402;42545462673;236929257;105102694;7458810841;142834045;326628086;870;2111;1497688;-6;7778;1114738
3;41;1572935519172;1572935529640;10468;18323631596;42538925070;237051634;105301223;7457154261;142806390;326455739;1425;2412;1750808;21;10468;1199852
3;42;1572935529640;1572935537385;7745;18283894046;42540768516;235917653;103284132;7457650379;142735716;326354528;843;1819;1320688;-24;7745;1109802
3;43;1572935537385;1572935545367;7982;18339025836;42547724497;237024240;105727705;7459303066;142777871;326513440;886;2200;1474592;10;7982;1146328
3;44;1572935545367;1572935553171;7804;18305169750;42548352406;235497807;103994810;7459623119;142777344;326414094;862;2196;1445896;2;7804;1119591
3;45;1572935553171;1572935560517;7346;18291622556;42544855608;236274421;103780817;7458729592;142773680;326452694;1052;1646;1312448;1;7346;1102097
3;46;1572935560517;1572935572395;11878;18331510632;42543909346;236861103;105661988;7458393278;142763070;326494440;1327;2432;1977048;-107;11878;1608974
3;47;1572935572395;1572935580633;8238;18315389166;42539824039;235355551;106056290;7457282659;142661518;326361935;959;2320;1500408;26;8238;466935
3;48;1572935580633;1572935588800;8167;18287159628;42546503338;235955015;103804951;7459261934;142769936;326402989;1180;2247;1453144;79;8167;513410
3;49;1572935588800;1572935596924;8124;18323680068;42538242098;239121591;105738914;7457024275;142902550;326541494;1004;1770;1317472;4;8124;1092607
3;50;1572935596924;1572935604869;7945;18316403136;42544464885;236005206;105197431;7458628208;142715702;326438696;866;1947;1399392;1;7945;1141715
3;51;1572935604869;1572935612615;7746;18309600704;42542534396;237102461;104323489;7457853663;142823174;326549059;884;2108;1482616;-20;7746;1108246
3;52;1572935612615;1572935621505;8890;18299053664;42527743608;236972180;103814552;7453246820;142769254;326194762;1295;1941;1552960;1;8890;933382
3;53;1572935621505;1572935629644;8139;18302857110;42534391464;234923142;103908313;7454975005;142927196;326004119;909;1709;1319520;2;8139;1165727
3;54;1572935629644;1572935637148;7504;18274188988;42527370403;233592435;102015610;7453228229;142615705;325689364;820;2056;1309416;12;7504;1076936
3;55;1572935637148;1572935644955;7807;18295515354;42525471070;234831441;104336362;7452344525;142720373;325829223;876;2027;1501080;-12;7807;1118598
3;56;1572935644955;1572935653259;8304;18293161834;42531235507;235470607;103555577;7454077042;142899039;325763577;1122;1951;1437360;2;8303;1243147
3;57;1572935653259;1572935664988;11729;18298288770;42524199463;236876417;104422170;7452216145;142873604;325873915;1329;2398;1951096;-93;11729;1507018
3;58;1572935664988;1572935672868;7880;18276088594;42531826710;234080045;102494714;7454216532;142698011;325717793;974;2309;1439840;33;7881;435495
3;59;1572935672868;1572935680665;7797;18291896014;42523827325;234400852;104194335;7452103981;142584055;325745394;895;2086;1454896;10;7797;565270
3;60;1572935680665;1572935688487;7822;18273874942;42524266189;235575584;103108337;7452417839;142801467;325776184;1213;1619;1235008;50;7822;1078176
3;61;1572935688487;1572935696022;7535;18292292988;42527583603;234979598;103813720;7453087527;142743700;325651956;835;1794;1328000;-3;7535;1079955
3;62;1572935696022;1572935704096;8074;18295696686;42523550528;235712747;103696416;7452016265;142817032;325768065;889;2170;1494344;8;8074;1161210
3;63;1572935704096;1572935714614;10518;18299452536;42528539100;234802500;104586794;7453331836;142845741;325732500;1422;2714;1842584;-28;10518;1052261
3;64;1572935714614;1572935722466;7852;18278523144;42528349076;234629408;102871430;7453103571;142769354;325978006;883;1787;1268208;31;7852;1105310
3;65;1572935722466;1572935730689;8223;18294164854;42525525247;234796945;103683221;7452478115;142823681;325864993;914;2292;1454768;14;8223;1181451
3;66;1572935730689;1572935738916;8227;18276726760;42520903084;233437322;102864620;7451327910;142671748;325810118;953;2272;1604104;-25;8227;1179000
3;67;1572935738916;1572935746651;7735;18294220480;42522608696;234657071;103953576;7451495541;142702323;326046274;1150;1484;1125848;17;7735;1295632
3;68;1572935746651;1572935760061;13410;18266147600;42529378922;234888577;101622111;7453591194;142941914;325912164;1643;2502;2068120;-85;13410;1718038
3;69;1572935760061;1572935768445;8384;18297703602;42522116270;235296028;104394579;7451493559;142769544;325962149;1043;2395;1543424;-22;8384;479079
3;70;1572935768445;1572935776208;7763;18276813484;42522344823;235087823;102772680;7451590565;142786487;325944687;1145;2181;1327416;111;7762;731241
3;71;1572935776208;1572935784185;7977;18292698722;42530155066;234248278;103702108;7453650117;142757224;325786766;943;1719;1295248;17;7978;1146205
3;72;1572935784185;1572935791787;7602;18286009732;42522621064;234441790;103214921;7451822812;142822164;325668025;880;1827;1297224;-37;7602;1093719
3;73;1572935791787;1572935802906;11119;18280694748;42518489558;233353307;103210276;7450285047;142577271;325689807;1245;2739;2071080;-110;11119;1521619
3;74;1572935802906;1572935810994;8088;18277786720;42530506508;231824457;102604016;7453715355;142746805;325828039;1501;2061;1261656;138;8089;818769
3;75;1572935810995;1572935819226;8231;18294737028;42529411950;234175442;104177567;7453575702;142779397;325894990;887;2021;1351032;-23;8231;1179514
3;76;1572935819226;1572935827269;8043;18283667892;42521875757;234206417;103353884;7451544617;142777945;325882285;924;2098;1535056;4;8043;1153475
3;77;1572935827269;1572935834998;7729;18274914900;42523747750;233563336;102840428;7451888942;142633871;325891595;858;2097;1441248;6;7729;1108418
3;78;1572935834998;1572935842818;7820;18281447232;42533561155;233594794;102535329;7454766967;142698341;325696805;1145;1641;1354632;-11;7820;1190420
3;79;1572935842818;1572935853189;10371;18288554366;42526486544;234856361;103416976;7452682684;142778944;325834005;1191;2439;1777504;-1;10371;1356389
3;80;1572935853189;1572935861011;7822;18283275006;42529442501;234304403;102923363;7453477606;142767408;325924864;903;2103;1449264;12;7822;1048455
3;81;1572935861011;1572935868784;7773;18275814114;42516728757;234392270;103709508;7449863646;142531607;325919172;904;2085;1491808;-19;7773;1013861
3;82;1572935868785;1572935876925;8140;18266586768;42519933582;235167296;102906545;7450770527;142795043;326096868;1239;1701;1256200;16;8141;1230671
3;83;1572935876925;1572935884809;7884;18288335366;42518736399;233772973;103459187;7450634917;142647904;325949762;862;1943;1336088;2;7884;1128187
4;34;1572936301924;1572936309702;7778;17889680760;42373867012;232399401;101980487;7372002072;142704988;322804279;831;1888;1356120;4;7778;1114287
4;35;1572936309702;1572936320958;11256;17904671748;42382807483;233218730;102206387;7374287862;142794087;322779656;1291;2862;2070936;-85;11255;1171949
4;36;1572936320958;1572936330247;9289;17903520830;42376185743;232710140;103164590;7372474913;142778004;322785838;1362;2498;1539256;61;9290;645821
4;37;1572936330247;1572936338009;7762;17889714048;42374563722;232836992;101958222;7372258250;142809270;322827472;854;1923;1315344;7;7762;1092614
4;38;1572936338009;1572936345640;7631;17878839676;42376246038;232721501;101191416;7372453148;142739821;322665355;848;2021;1364520;18;7631;1095065
4;39;1572936345641;1572936353186;7545;17887029254;42377750384;231721311;102299552;7372866130;142569390;322704847;811;2037;1439880;-11;7545;1081884
4;40;1572936353186;1572936363145;9959;17881277292;42380756468;232313110;101324227;7373640084;142642353;322882661;1365;1944;1746648;-53;9960;1239970
4;41;1572936363146;1572936370981;7835;17892046544;42374393856;232464880;102279517;7372050860;142759582;322690149;844;1926;1260256;59;7836;1010939
4;42;1572936370981;1572936379376;8395;17913259322;42376100646;233568874;103943673;7372501732;142849350;322981469;956;2186;1540064;-12;8395;1195644
4;43;1572936379376;1572936387324;7948;17893679846;42382918792;233330325;102028623;7374101211;142787465;322787720;907;2071;1519640;-21;7947;1053140
4;44;1572936387324;1572936394763;7439;17902940480;42383485390;233311374;102678797;7374403818;142664154;322729832;1194;1417;1166552;27;7439;1121922
4;45;1572936394763;1572936402360;7597;17885178558;42380131422;232128165;101688639;7373547279;142738924;322473425;826;1878;1294192;6;7597;1089082
4;46;1572936402360;1572936412900;10540;17889307438;42378994657;231708357;102007096;7373156537;142640897;322550196;1202;2390;1996360;-95;10540;1042367
4;47;1572936412900;1572936420672;7772;17890999140;42375142816;231938494;102702384;7372123168;142592049;322586788;929;2166;1426344;176;7773;528960
4;48;1572936420673;1572936428493;7820;17904986670;42381694839;231530812;103014106;7374052218;142653145;322667898;1072;1820;1200256;-82;7821;1150084
4;49;1572936428493;1572936435948;7455;17875225592;42373465839;232579457;101315615;7371841793;142639227;322535196;804;1755;1293784;-4;7454;1073524
4;50;1572936435948;1572936443374;7426;17898946504;42379734543;232936975;103085253;7373454844;142611007;322767226;840;1782;1407712;-8;7427;1065358
4;51;1572936443374;1572936454388;11014;17866646194;42377700252;230761070;100518174;7372648362;142610861;322605913;1497;2325;1948352;-43;11013;1634739
4;52;1572936454388;1572936462497;8109;17902260996;42362958605;232119463;103085297;7368072539;142772733;322515947;962;1932;1304816;58;8110;996340
4;53;1572936462498;1572936471081;8583;17946670254;42370676147;231770439;103218487;7369980691;142804818;322310925;948;2259;1497920;-19;8583;1233302
4;54;1572936471081;1572936478812;7731;18030807864;42362849953;231605749;101640150;7368046077;142750247;321973234;879;1996;1498984;-13;7732;1049847
4;55;1572936478812;1572936485944;7132;18015122062;42360911694;231874609;100704939;7367148086;142629139;321843687;1056;1610;1267656;30;7131;1031919
4;56;1572936485944;1572936493296;7352;18020841612;42366716868;230559504;101079277;7368894427;142652491;321949373;827;1539;1195432;5;7353;1053485
4;57;1572936493296;1572936503969;10673;18021524016;42359627708;231221043;101451940;7367022087;142630487;321876904;1196;2408;1953024;-85;10673;1167833
4;58;1572936503969;1572936511653;7684;18025352428;42367205634;230847692;101132679;7369016219;142616819;321822015;897;2141;1432744;17;7684;501033
4;59;1572936511653;1572936520806;9153;18043030108;42358524533;232618608;103162093;7366642864;142695092;322163515;1318;2411;1429392;67;9153;1158305
4;60;1572936520806;1572936528653;7847;18031336238;42359682827;232436723;101799237;7367222350;142700000;322263212;866;1868;1365456;-2;7847;1126811
4;61;1572936528653;1572936536088;7435;18023327262;42363071509;231571786;101531014;7367908241;142666713;322081390;847;1885;1431008;-15;7435;1067127
4;62;1572936536088;1572936545784;9696;18005563004;42358981983;230572708;100171652;7366823505;142593096;322034630;1278;2228;1754776;-73;9696;1228230
4;63;1572936545784;1572936553651;7867;18027058876;42365929890;232583026;102225446;7368448238;142822775;322048299;932;1791;1282960;90;7867;1058602
4;64;1572936553651;1572936560517;6866;17845914194;42361543001;228753397;99233252;7367596248;142463922;322642322;726;1513;1149224;-20;6865;988000
4;65;1572936560517;1572936567325;6808;17836132340;42360268732;227573707;98511781;7367254248;142361315;322494340;763;1727;1285856;6;6808;976720
4;66;1572936567325;1572936574928;7603;17887586536;42355692686;231601708;102101876;7366111335;142670236;322761493;881;1843;1375056;159;7603;1173792
4;67;1572936574928;1572936582522;7594;17878559940;42357310114;230740723;101635649;7366252962;142592445;322827877;1151;1119;1024632;-171;7595;1187013
4;68;1572936582522;1572936597991;15469;17876361472;42364150805;230891885;100985681;7368381270;142639522;322892825;1754;3469;2534848;-23;15469;2114721
4;69;1572936597992;1572936607079;9087;17876077356;42356905803;230046071;100941617;7366279304;142652127;322714698;1036;2761;1647328;-14;9088;978205
4;70;1572936607079;1572936614070;6991;17849029104;42357170180;229130499;99329751;7366388811;142469264;322803513;1019;1475;1097640;48;6991;1001342
4;71;1572936614071;1572936622422;8351;17901511286;42364844568;230603815;102824611;7368405800;142698283;322943758;943;1908;1373232;-12;8352;1194886
4;72;1572936622422;1572936629863;7441;17858448732;42357338425;229932587;99587160;7366593107;142602441;322839388;845;2071;1384984;20;7440;1067666
4;73;1572936629863;1572936640325;10462;17862130852;42353190448;230010706;100640198;7365062059;142471925;322835154;1444;2434;1962824;-48;10462;1490064
4;74;1572936640325;1572936647915;7590;17878445184;42365327538;229919535;100557443;7368512504;142710918;322900862;852;1632;1206432;50;7591;1081019
4;75;1572936647915;1572936655714;7799;17891514374;42364248655;230103150;102033465;7368373914;142585229;322945687;851;1813;1380368;-19;7798;1120251
4;76;1572936655714;1572936663009;7295;17876330520;42356585853;230248591;101215932;7366307484;142574838;322852279;839;1832;1386928;25;7296;1045949
4;77;1572936663009;1572936670702;7693;17868890506;42358483291;230501074;100459043;7366667389;142499318;322833715;1074;1979;1354272;-20;7692;1200692
4;78;1572936670702;1572936678330;7628;17900534400;42368369514;230640851;102376583;7369557712;142719906;322833588;884;1576;1276728;14;7629;1099893
4;79;1572936678330;1572936689997;11667;17864947630;42361310260;229570899;100506995;7367480253;142507862;322767718;1293;2767;2041040;-25;11666;1489688
4;80;1572936689997;1572936698138;8141;17886607022;42364171116;231686550;101133352;7368255348;142664426;322881675;954;2244;1543280;-39;8142;792493
4;81;1572936698138;1572936706513;8375;17890546102;42351470197;231328826;102541435;7364637289;142565120;322883280;1324;1994;1370600;45;8374;1006417
4;82;1572936706513;1572936714397;7884;17888990910;42354701691;230874136;102180469;7365554880;142628702;322826429;861;1838;1338656;3;7884;1132696
4;83;1572936714397;1572936722507;8110;17889754198;42353477656;232790840;102035837;7365412437;142650269;322882601;929;2216;1495496;0;8111;1165051
