0;48;1572974878435;1572974885992;7557;17220512974;38894942709;225810501;108625481;6894571059;142301782;325489067;506;0;1056456;0;3462;10895
0;49;1572974885992;1572974893350;7358;17209388650;38886741749;226970880;107900411;6892361804;142353983;325601647;519;0;1057464;5;3257;11498
0;50;1572974893350;1572974900598;7248;17182863078;38892915060;225215291;107008437;6893947294;142268668;325491996;507;0;1056464;0;3226;11561
0;51;1572974900598;1572974908471;7873;17231237258;38890847571;225927905;108466387;6893129861;142387927;325597072;646;48;1071552;0;3531;19040
0;52;1572974908471;1572974915717;7246;17215757608;38880196424;226115639;106812476;6889890760;142338451;325278184;509;0;1057384;0;3466;10805
0;53;1572974915718;1572974923275;7557;17209885342;38882952456;224796628;106932899;6890335866;142410913;324801881;519;1;1059096;-1;3272;11458
0;54;1572974923275;1572974929934;6659;17182880744;38875788262;225254346;105489465;6888573837;142336409;324764265;511;0;1054344;1;3185;11419
0;55;1572974929934;1572974936698;6764;17167707548;38873950854;227234608;105079155;6887710944;142380799;324925152;519;0;1057488;0;3194;11651
0;56;1572974936698;1572974943801;7103;17214434118;38879704017;224729431;107628513;6889441385;142396539;324902513;649;48;1071120;0;3785;21198
0;57;1572974943802;1572974950792;6990;17157400678;38872590496;223730449;105352581;6887552162;142318905;324881052;523;0;1059912;-1;3432;11600
0;58;1572974950792;1572974957432;6640;17157201242;38880245632;224865683;104732898;6889566965;142363558;324809914;512;0;1054040;1;3260;11912
0;59;1572974957432;1572974964028;6596;17195532958;38871504089;224281247;106567097;6887189701;142204399;324937778;510;0;1056920;0;3131;11476
0;60;1572974964028;1572974971274;7246;17162711136;38872721231;225125948;105012499;6887776426;142392037;324965907;678;46;1078488;0;3729;29346
0;61;1572974971274;1572974978353;7079;17193938492;38876033142;224207343;107575906;6888445529;142268436;324781080;509;0;1056000;-1;3454;10715
0;62;1572974978353;1572974985758;7405;17179400396;38872072307;224557593;106232022;6887397852;142379641;324767069;522;0;1059920;0;3238;11750
0;63;1572974985758;1572974992787;7029;17167029816;38876582200;226425783;105127896;6888615463;142507292;324767736;514;0;1054880;1;3224;11708
0;64;1572974992788;1572975000172;7384;17216507902;38877152714;224420321;107685682;6888561692;142201427;324295497;662;56;1071664;-3;3608;28770
0;65;1572975000172;1572975007248;7076;17210814778;38872931797;225430355;106681738;6887662693;142238346;323916859;519;0;1065376;1;3516;10963
0;66;1572975007248;1572975014037;6789;17174915860;38868339326;223832580;104570512;6886521054;142274179;323809331;524;0;1050928;-2;3283;11631
0;67;1572975014037;1572975021421;7384;17224974588;38869771152;224298647;107871966;6886630884;142245791;324146328;512;0;1058432;4;3545;13393
0;68;1572975021421;1572975028749;7328;17227110422;38876859614;224527294;106993414;6888801946;142435260;324053865;521;0;1057392;0;3188;12063
0;69;1572975028749;1572975035871;7122;17189652954;38869577320;225732685;105860774;6886692452;142311514;324122895;643;42;1070160;-5;3801;18740
0;70;1572975035871;1572975043074;7203;17228859502;38869791504;224231680;107696810;6886787377;142295341;323940244;527;0;1056536;0;3386;11608
0;71;1572975043074;1572975050156;7082;17182798984;38877526780;223889073;104757546;6888820131;142303451;324072450;521;0;1057384;5;3210;11476
0;72;1572975050156;1572975057611;7455;17191779590;38870080276;224593308;106195038;6887020483;142369260;324022336;524;0;1057408;0;3215;11948
0;73;1572975057611;1572975065008;7397;17213458400;38865819100;225076583;107176022;6885456448;142119507;324111938;820;72;1068592;14;4682;39378
0;74;1572975065008;1572975072379;7371;17224492496;38878173805;226873050;106944324;6888939030;142500119;324230523;847;7;1115688;-14;6006;56860
0;75;1572975072379;1572975079437;7058;17186950494;38876922363;224558464;104484115;6888764518;142291311;323912813;524;0;1057384;0;3236;11972
0;76;1572975079437;1572975086667;7230;17224209986;38869338505;224907701;107077185;6886719140;142217477;323858091;521;0;1056000;0;3166;11627
0;77;1572975086668;1572975093758;7090;17196605036;38871250999;225413246;105338229;6887080549;142234452;323909294;529;0;1057408;0;3349;13548
0;78;1572975093758;1572975100798;7040;17206320168;38881265166;224214243;106234686;6889987943;142371013;323953786;638;57;1075264;0;3812;24845
0;79;1572975100798;1572975108032;7234;17205937356;38873977339;222917042;106783939;6887872648;142231109;324092292;601;4;1057712;0;3643;16383
0;80;1572975108032;1572975115200;7168;17192590620;38876938002;224435789;105424771;6888671705;142456378;324308322;528;0;1057384;-5;3233;11678
0;81;1572975115200;1572975122530;7330;17199314212;38864170410;223675465;106932942;6885033935;142229242;324084540;529;0;1056960;5;3225;11954
0;82;1572975122530;1572975129907;7377;17234017536;38867429130;224729116;108637034;6885962266;142294371;324266874;668;64;1074232;0;3806;30672
0;83;1572975129907;1572975136919;7012;17190964472;38866281128;223814703;105706735;6885844238;142252027;324097507;537;0;1057448;0;3504;11753
0;84;1572975136919;1572975143751;6832;17177766218;38869109725;223341896;104663018;6886454259;142217056;324147471;528;0;1056464;-5;3243;12169
0;85;1572975143751;1572975151086;7335;17208542872;38872148726;223489269;106673070;6887481006;142202364;323912842;533;0;1056944;5;3245;12083
0;86;1572975151086;1572975158186;7100;17186136106;38871230591;224653123;104949832;6887026900;142258984;324115234;612;58;1049256;14;3288;15232
0;87;1572975158186;1572975165464;7278;17199073458;38868457847;223984185;105982242;6886390555;142292764;324012971;553;2;1080152;-19;3733;16701
0;88;1572975165464;1572975172766;7302;17211850064;38880634232;223772190;105654349;6889783489;142364962;324108573;528;0;1056920;5;3298;11689
0;89;1572975172766;1572975180180;7414;17208112610;38868679905;224548744;106505951;6886385224;142213522;324126786;535;1;1057392;0;3264;12406
0;90;1572975180180;1572975187099;6919;17172500874;38873594892;222447649;104649550;6887716462;142191588;324062776;531;0;1056464;0;3192;12337
0;91;1572975187099;1572975195257;8158;17211328260;38874263891;223953879;107320381;6888023191;142336022;324061121;648;50;1071808;-5;3637;17774
0;92;1572975195257;1572975202333;7076;17188240112;38876859583;223866209;104324444;6888716421;142365674;324119814;536;0;1061480;3;3375;11837
0;93;1572975202333;1572975209394;7061;17164907706;38866651742;223469506;104184908;6885962656;142131510;324038180;533;0;1053288;2;3189;11751
0;94;1572975209394;1572975216366;6972;17205369124;38869088939;223698021;106552889;6886651217;142215632;323936551;533;0;1056016;0;3141;11927
0;95;1572975216366;1572975223569;7203;17192732386;38877249799;223891052;105143141;6888577648;142378095;324090879;647;38;1070680;1;3640;22225
0;96;1572975223569;1572975230894;7325;17180101926;38874308586;223297943;104909174;6888119333;142357124;323696951;543;1;1057456;-1;3378;11551
0;97;1572975230894;1572975237898;7004;17221332180;38871835932;224669828;106951155;6887307465;142271486;323891852;533;0;1056000;-5;3193;11997
1;43;1572975692141;1572975699766;7625;18235746750;42899392647;226578370;111589410;7477066528;142476986;325606055;508;0;1057384;0;3204;11693
1;44;1572975699766;1572975707399;7633;18251611402;42900298434;226614700;112708873;7477433134;142383704;325324044;644;46;1076784;0;3593;21346
1;45;1572975707400;1572975714567;7167;18252803346;42896691526;227109755;113062227;7476534787;142422299;325439936;509;0;1057384;-5;3426;10536
1;46;1572975714567;1572975721971;7404;18285837452;42895677319;226820417;115413737;7476171587;142417534;325303173;513;0;1056072;0;3317;11581
1;47;1572975721971;1572975729492;7521;18243279620;42891742176;225407293;112707629;7475118110;142306425;325439172;509;0;1057384;1;3234;11739
1;48;1572975729492;1572975737306;7814;18251540738;42898195418;227635800;112495404;7477019075;142478157;325563795;631;44;1070960;-1;3513;17936
1;49;1572975737306;1572975744976;7670;18238812604;42890075943;226444386;112343286;7474830022;142428120;325441813;509;0;1057384;5;3428;10949
1;50;1572975744976;1572975752239;7263;18259757180;42896287872;226842663;113860262;7476429796;142312666;325389198;512;0;1056504;-5;3301;11640
1;51;1572975752239;1572975759463;7224;18282965632;42894287679;226873404;114494466;7475648983;142428982;325430361;507;0;1056920;5;3255;12021
1;52;1572975759463;1572975767282;7819;18227553814;42879572215;225302235;111284903;7471049370;142425392;324769746;606;38;1058728;2;3276;14250
1;53;1572975767282;1572975775092;7810;18228619176;42887731788;224272297;110811511;7472885516;142609797;324343076;519;0;1067968;-7;3637;13527
1;54;1572975775092;1572975782193;7101;18231025402;42881425583;223394412;111830688;7471091452;142424274;324368176;514;0;1056480;5;3360;11762
1;55;1572975782193;1572975789868;7675;18267025644;42879983510;224706799;113465131;7470247211;142434494;324406827;509;0;1056920;-5;3187;11545
1;56;1572975789868;1572975797481;7613;18217010862;42885206803;224133922;109659415;7471861775;142490333;324440053;516;1;1057424;5;3228;12014
1;57;1572975797481;1572975805126;7645;18206735674;42878311693;224853576;109688013;7470012408;142452840;324241753;598;55;1071472;-1;3676;14773
1;58;1572975805126;1572975812463;7337;18225189928;42885718077;224185469;111275573;7471979459;142409692;324262835;518;0;1058072;-1;3380;11452
1;59;1572975812463;1572975819906;7443;18232784994;42876968961;225939743;111913013;7469590835;142324216;324387418;509;0;1052824;2;3187;11496
1;60;1572975819906;1572975827469;7563;18234478156;42878202032;225019205;111242846;7470197512;142444063;324313459;517;0;1057408;0;3250;11957
1;61;1572975827469;1572975834697;7228;18229789950;42881550329;225772051;110914739;7470869793;142449821;324507583;611;44;1069592;-5;3741;15642
1;62;1572975834697;1572975842115;7418;18235460882;42877571815;225796042;111895543;7469816170;142440455;324543605;521;0;1056992;4;3364;11728
1;63;1572975842115;1572975850017;7902;18261376466;42881788445;225401073;113229957;7470971787;142560683;324349007;511;0;1056448;1;3224;11373
1;64;1572975850017;1572975857268;7251;18201325790;42880188207;224794020;109648924;7470574627;142323203;324396268;519;0;1057448;0;3237;12020
1;65;1572975857268;1572975864379;7111;18200880052;42879048927;223213087;109651136;7470265583;142362800;324276516;617;49;1069200;0;3556;13626
1;66;1572975864379;1572975871803;7424;18225459006;42874464355;224382640;111568928;7469110527;142395083;324133034;514;0;1057368;0;3337;11292
1;67;1572975871803;1572975879132;7329;18242194986;42875893316;224654213;112538640;7469227986;142374499;324272938;519;0;1056064;0;3175;11303
1;68;1572975879132;1572975886705;7573;18225754802;42882944632;225485292;110259851;7471395772;142549517;324344849;513;0;1057384;0;3181;11768
1;69;1572975886706;1572975893860;7154;18216777700;42875675376;225065343;110389921;7469280209;142345793;324144326;610;46;1069608;0;3601;15601
1;70;1572975893860;1572975901317;7457;18215334052;42875860754;225064349;111322520;7469366680;142395406;324150033;515;0;1057384;-5;3428;11334
1;71;1572975901317;1572975908677;7360;18260872328;42883613387;224544716;113041941;7471420853;142357228;324220023;524;0;1056176;5;3317;11569
1;72;1572975908677;1572975915904;7227;18195449290;42876205959;224323034;109349627;7469614429;142427627;324172816;517;0;1057384;0;3287;11741
1;73;1572975915905;1572975923674;7769;18205040468;42871908220;225111099;110505207;7468051990;142217089;324258406;625;56;1073216;-1;3553;16498
1;74;1572975923674;1572975931080;7406;18232374004;42884103096;223867835;111495988;7471515037;142459354;324258307;699;51;1057896;15;4657;50151
1;75;1572975931080;1572975938529;7449;18261996236;42882906903;224150321;113227989;7471345065;142383070;324397936;859;8;1113800;-14;5777;59723
1;76;1572975938529;1572975945916;7387;18223001534;42875435408;224328445;110181112;7469329447;142392497;324365372;522;0;1057384;0;3198;12164
1;77;1572975945916;1572975953268;7352;18191572552;42877286260;223294026;108886791;7469676831;142263670;324277548;526;0;1057424;0;3160;11919
1;78;1572975953268;1572975960962;7694;18255383604;42887136941;224364044;112831446;7472547881;142450966;324338317;520;0;1056928;0;3179;11740
1;79;1572975960962;1572975968284;7322;18233034508;42880061753;224096795;111825701;7470475906;142296955;324395314;713;61;1077464;-5;4027;24651
1;80;1572975968284;1572975976206;7922;18247353166;42883024015;225178094;111730793;7471276180;142457855;324498996;521;0;1057384;5;3362;11715
1;81;1572975976206;1572975983596;7390;18202043234;42870220673;225553720;110144728;7467633695;142319310;324584154;534;2;1057560;0;3258;11773
1;82;1572975983596;1572975991173;7577;18196866658;42873501898;223188578;109962389;7468563280;142336516;324377478;521;0;1056928;0;3181;11500
1;83;1572975991173;1572975998898;7725;18232355170;42872304973;224212123;112352332;7468414150;142265011;324298640;652;56;1073496;0;3737;17243
1;84;1572975998898;1572976006488;7590;18227199764;42875164944;223979448;111047316;7469050723;142257726;324290394;523;0;1057384;0;3339;11683
1;85;1572976006488;1572976013859;7371;18210766150;42878253846;223445437;110085167;7470077312;142351871;324203827;526;0;1057408;0;3222;12083
1;86;1572976013860;1572976020939;7079;18214957664;42877466095;224258267;110457574;7469674871;142331249;324241788;524;0;1056928;0;3210;12333
1;87;1572976020940;1572976028520;7580;18262397736;42874559065;225443089;113584026;7468995159;142367798;324219579;636;50;1072568;0;3802;20681
1;88;1572976028520;1572976035812;7292;18196899800;42885509822;222626035;108597396;7472040670;142468388;324057148;524;0;1057384;-5;3356;11821
1;89;1572976035812;1572976042922;7110;18211719968;42874734682;224028092;110290688;7468982413;142296028;324227201;532;0;1057416;5;3217;12130
1;90;1572976042922;1572976050036;7114;18203120714;42879557024;224069417;110444496;7470289073;142260147;324161217;526;0;1056464;0;3123;11532
1;91;1572976050037;1572976057843;7806;18249811660;42880400101;225477747;112658360;7470630992;142423898;324366532;633;54;1070656;-5;3646;16398
1;92;1572976057843;1572976065358;7515;18211601708;42882864467;224694825;110335829;7471292776;142517392;324204725;529;0;1057384;5;3363;11065
2;44;1572976520251;1572976528029;7778;18030292192;42001422867;232792708;109825930;7458435348;142352889;325666461;507;0;1057384;5;3218;11853
2;45;1572976528030;1572976535252;7222;17993717586;41997584509;232311391;108057215;7457465557;142378071;325475177;614;38;1070640;0;3632;18403
2;46;1572976535252;1572976542733;7481;18026639272;41996470251;231793002;109812991;7457065054;142288995;325339322;505;0;1056456;0;3434;10862
2;47;1572976542733;1572976550069;7336;18000482350;41992691521;232763517;108080945;7456060505;142270178;325371526;510;0;1059968;-1;3283;11861
2;48;1572976550070;1572976557781;7711;18002692498;41999370241;231930871;108602475;7458042354;142296497;325282578;505;0;1053904;1;3184;11415
2;49;1572976557782;1572976565303;7521;18016352842;41990906083;231827899;109224388;7455733066;142248507;325348945;603;46;1069784;0;3557;14875
2;50;1572976565303;1572976572649;7346;18012601080;41997306422;232153350;108642984;7457391038;142247286;325529208;509;0;1057384;-5;3457;10989
2;51;1572976572649;1572976579582;6933;17990467626;41995230252;231079381;107683521;7456564323;142280847;325464521;511;0;1056512;5;3203;11635
2;52;1572976579582;1572976587352;7770;18029117330;41984418120;232225894;109306854;7453294910;142321814;324961446;507;0;1056920;0;3190;11498
2;53;1572976587352;1572976595588;8236;18011112756;41987032110;231354299;107877285;7453685083;142395091;324870138;614;45;1070824;-5;3489;14781
2;54;1572976595588;1572976603069;7481;17966927170;41980429867;230232608;106067102;7451865972;142317719;324664617;508;0;1056912;5;3453;10768
2;55;1572976603069;1572976610839;7770;18012699046;41979298757;230886458;109266350;7451152645;142249665;324732731;512;0;1056496;-5;3296;11777
2;56;1572976610839;1572976618363;7524;17983887552;41984671780;230875143;106688978;7452797158;142400488;324673666;510;0;1057384;5;3228;11467
2;57;1572976618363;1572976625573;7210;17965815380;41976905638;230480940;106378101;7450784946;142242975;324606465;616;46;1070808;-5;3520;18864
2;58;1572976625573;1572976632998;7425;18003106408;41984595713;230323741;107773660;7452812207;142267642;324741634;508;0;1056456;5;3458;10794
2;59;1572976632998;1572976640215;7217;17989982760;41975874245;231825090;107263057;7450426555;142193043;324801977;517;0;1057432;0;3242;11614
2;60;1572976640215;1572976647732;7517;17972559120;41977101973;231251290;106684317;7451018459;142292031;324778660;511;0;1057384;-5;3244;11957
2;61;1572976647732;1572976655332;7600;18012012700;41980383195;230908887;108747303;7451686638;142234882;324791486;635;44;1069440;0;3538;19297
2;62;1572976655332;1572976662610;7278;17974575818;41976282066;230138416;106185601;7450588194;142240090;324454120;513;0;1057384;0;3456;10328
2;63;1572976662610;1572976669927;7317;17961773370;41980507638;228973757;105856998;7451754508;142304172;324546666;519;0;1057416;5;3322;11688
2;64;1572976669927;1572976677781;7854;18002912666;41979183043;230781029;108753015;7451419796;142236094;324644533;510;0;1056000;0;3190;11149
2;65;1572976677781;1572976685200;7419;17990666770;41977926954;230879281;106611338;7451066340;142320977;324629606;520;0;1057432;0;3165;11741
2;66;1572976685200;1572976692536;7336;17980269234;41973507529;230258706;107304556;7449953103;142259175;324583134;658;51;1070568;0;3756;18062
2;67;1572976692536;1572976699645;7109;17991538974;41974840490;230514084;107928547;7450033212;142168517;324512015;513;0;1056000;0;3335;11547
2;68;1572976699645;1572976706886;7241;18002666802;41982095293;231560692;107554992;7452233244;142381895;324496544;523;0;1057440;-5;3213;11607
2;69;1572976706886;1572976714263;7377;17943025656;41974595509;230000689;105282886;7450083444;142284256;324343172;516;0;1057384;5;3150;11678
2;70;1572976714263;1572976721760;7497;18002922302;41974845686;229699840;108523041;7450184449;142181015;324270289;627;45;1069304;-5;3795;18278
2;71;1572976721760;1572976728879;7119;17990591726;41982625793;230238310;106763499;7452236586;142307911;324231060;517;0;1057384;5;3436;11383
2;72;1572976728879;1572976735795;6916;17956957268;41975086382;229378620;105576522;7450409198;142194575;324142102;522;0;1056504;0;3215;11618
2;73;1572976735795;1572976743445;7650;17982410908;41970879733;229145296;107466780;7448861745;142122899;324118516;517;0;1056904;0;3191;11585
2;74;1572976743445;1572976750730;7285;18008718794;41983051561;231601942;107640255;7452321700;142401867;324378919;633;59;1070984;0;3610;16162
2;75;1572976750730;1572976758835;8105;17986312612;41981911263;229889668;107585576;7452167179;142414157;324164366;516;0;1057384;0;3422;11413
2;76;1572976758835;1572976766317;7482;18003014428;41974351329;229791489;108925228;7450130552;142184150;324163397;522;0;1056048;0;3183;11553
2;77;1572976766317;1572976773917;7600;17962822818;41976177518;229302209;106171815;7450468914;142173829;324292818;521;0;1061480;-2;3250;12136
2;78;1572976773918;1572976781292;7374;17959442188;41986099623;229064313;105484784;7453371861;142363711;324122315;625;53;1066920;2;3676;18337
2;79;1572976781292;1572976788904;7612;18003931162;41979027463;230082408;108892255;7451289608;142269879;324279185;954;52;1112800;1;6167;46729
2;80;1572976788904;1572976795939;7035;17974686048;41982020806;229844857;106335452;7452091234;142293394;324255631;602;9;1061576;-6;3935;17506
2;81;1572976795939;1572976803344;7405;17974496540;41969220578;230391835;107268695;7448453685;142082112;324267949;528;0;1057384;5;3214;11784
2;82;1572976803344;1572976810777;7433;17971060284;41972428403;230218093;106825182;7449364842;142165901;324310210;529;0;1056024;0;3121;11473
2;83;1572976810777;1572976818501;7724;17996426178;41971244310;230391695;108147960;7449236542;142227520;324404830;655;58;1078680;-5;3852;26874
2;84;1572976818501;1572976826144;7643;17964086302;41974082601;231024055;106094392;7449856475;142206027;324484805;612;0;1060672;4;3759;20155
2;85;1572976826144;1572976833957;7813;17988337632;41977144111;230000806;107442698;7450885319;142162249;324369026;527;0;1054008;-4;3247;11835
2;86;1572976833957;1572976841479;7522;17968090206;41976354139;228346331;106565391;7450460991;142153992;324258907;531;0;1056960;5;3263;12212
2;87;1572976841479;1572976848652;7173;17957035670;41973500968;230620304;105231189;7449805622;142307381;324297681;634;66;1075792;-1;3807;23697
2;88;1572976848652;1572976855876;7224;17982767294;41984541941;230192695;106713636;7452871202;142244726;324195935;533;1;1054216;-4;3426;12061
2;89;1572976855876;1572976863213;7337;17973133046;41973701877;229490056;107292834;7449793318;142115944;324224076;531;0;1056912;4;3202;11852
2;90;1572976863213;1572976870447;7234;17962310650;41978522438;229994075;105813065;7451096467;142120789;324277244;537;0;1061512;-1;3221;12059
2;91;1572976870448;1572976878278;7830;17984656534;41979262946;230368639;107414177;7451421692;142332057;324308806;624;60;1065512;-2;3509;16554
2;92;1572976878278;1572976885843;7565;18011357160;41981931531;230440179;108691572;7452137769;142299724;324427434;537;0;1056488;4;3444;11508
2;93;1572976885843;1572976893982;8139;17974906362;41971617995;230656421;106260484;7449351148;142282046;324251348;538;0;1057384;0;3276;12186
3;44;1572977353235;1572977360691;7456;18140555772;42318637373;224786077;114335993;7375311655;142203600;324892558;510;0;1056520;0;3283;12130
3;45;1572977360691;1572977368555;7864;18064976390;42314875238;224215864;110111068;7374368310;142357763;324689131;637;36;1069416;-5;3746;21986
3;46;1572977368555;1572977376302;7747;18073017194;42313892036;224540604;109901979;7374016628;142228995;324714388;511;0;1057424;4;3392;11636
3;47;1572977376302;1572977383366;7064;18038939626;42309875864;223627815;108041392;7372934965;142149912;324594137;505;0;1056928;1;3190;11242
3;48;1572977383366;1572977391133;7767;18115668320;42316538588;224908325;113124187;7374904994;142179002;324604788;510;1;1056512;-5;3179;11874
3;49;1572977391133;1572977398221;7088;18057179698;42308234314;222790681;108997460;7372649466;142184393;324689921;617;50;1069432;5;3676;16287
3;50;1572977398222;1572977405843;7621;18099411804;42314372739;223176944;112705932;7374231814;142104026;324682655;506;0;1056024;0;3333;11134
3;51;1572977405843;1572977413117;7274;18118492690;42312393972;225465732;112006226;7373443520;142301571;324741861;507;0;1057384;0;3299;11672
3;52;1572977413117;1572977420741;7624;18063618444;42301430382;223535758;108901849;7370097035;142184588;324257841;508;0;1057384;0;3187;11269
3;53;1572977420741;1572977428960;8219;18132591910;42304650879;223103873;113122494;7370660826;142371706;323829069;649;36;1068976;0;3667;17252
3;54;1572977428960;1572977436937;7977;18078725940;42297367847;220077533;110491676;7368882758;142235016;323900726;512;0;1056944;-2;3393;11336
3;55;1572977436937;1572977444404;7467;18064254858;42296023015;221580920;109174042;7368113823;142242461;323725934;510;0;1057384;2;3195;11141
3;56;1572977444404;1572977451979;7575;18092133850;42300971999;220928963;111925191;7369674453;142271453;323770399;514;0;1056512;0;3201;11699
3;57;1572977451979;1572977459431;7452;18093245640;42294101426;222213225;111202010;7367838109;142245602;323783635;703;34;1074880;0;3912;38352
3;58;1572977459431;1572977466928;7497;18046416870;42301546994;221269321;108372687;7369819673;142318451;323830677;510;0;1057384;0;3398;11661
3;59;1572977466928;1572977474550;7622;18083387136;42292759510;221352984;111345725;7367416039;142104452;323658954;512;0;1056048;0;3231;11631
3;60;1572977474550;1572977481977;7427;18103381106;42293957213;223039206;111247209;7368004306;142324265;323805098;510;0;1057384;0;3168;11442
3;61;1572977481977;1572977489195;7218;18061505532;42297313351;221590521;109033836;7368689256;142292009;323743658;616;42;1070496;0;3777;18889
3;62;1572977489195;1572977496777;7582;18143393720;42293223737;222311918;114224096;7367595874;142182718;323897016;506;0;1056000;0;3354;11434
3;63;1572977496777;1572977504197;7420;18049685518;42297502585;221053620;108464224;7368766210;142260464;323844125;518;0;1057464;0;3166;10797
3;64;1572977504198;1572977511261;7063;18128551652;42297987395;221441156;113145594;7368702563;142143629;323741418;507;0;1056000;0;3107;11302
3;65;1572977511261;1572977518811;7550;18063971764;42295197465;220400961;110063333;7368081178;142099221;323728273;659;40;1071824;-5;3755;23531
3;66;1572977518811;1572977526613;7802;18073770846;42290616157;221563499;110036403;7366943678;142287740;323717161;511;0;1057368;5;3496;11293
3;67;1572977526613;1572977534735;8122;18015681388;42292107666;220318560;106480033;7367080211;142135022;323654495;517;0;1056552;-1;3319;11720
3;68;1572977534736;1572977542414;7678;18083502330;42299120804;221293502;111067481;7369218291;142282236;323849678;510;0;1056920;-4;3203;11852
3;69;1572977542414;1572977549573;7159;18039859864;42291847382;220250713;108039232;7367108047;142164977;323598279;660;47;1075528;0;3988;32650
3;70;1572977549573;1572977557142;7569;18087977230;42292134225;220805814;111862842;7367223307;142147742;323642317;508;0;1056000;0;3832;13813
3;71;1572977557142;1572977564255;7113;18071444482;42299856597;221041552;109574046;7369262850;142213513;323714727;518;0;1057416;5;3168;11599
3;72;1572977564255;1572977571862;7607;18074286664;42292399447;223005422;110438270;7367458074;142321362;323905357;1098;48;1118912;0;6978;75445
3;73;1572977571862;1572977579684;7822;18106963800;42288124660;221496593;112630494;7365886993;142021332;323817562;521;0;1056960;0;3359;11582
3;74;1572977579684;1572977586927;7243;18056628694;42300233385;219923283;108921005;7369333075;142242814;323833824;519;0;1057384;0;3170;11668
3;75;1572977586927;1572977594609;7682;18081627690;42299078259;220223210;111404626;7369171162;142196405;323692415;523;0;1056536;0;3184;11750
3;76;1572977594609;1572977602012;7403;18018750308;42291591916;221035720;106659328;7367159242;142161781;323816598;679;48;1073000;0;3760;29224
3;77;1572977602012;1572977609244;7232;18029978292;42293494973;220873524;107239421;7367519931;142126197;323807683;603;0;1058168;-5;3688;15053
3;78;1572977609244;1572977616291;7047;18054087710;42303295726;220410546;108287220;7370384235;142190563;323695177;520;0;1056000;5;3199;11531
3;79;1572977616292;1572977623552;7260;18015833374;42296172825;220274994;106510005;7368288003;142165918;323725840;527;0;1057424;-1;3267;11748
3;80;1572977623552;1572977630941;7389;18025612162;42299180161;220128064;106714826;7369099492;142190411;323658066;723;42;1076056;0;3860;40395
3;81;1572977630941;1572977638203;7262;18037768268;42286367854;220264685;108703640;7365449779;142008869;323600833;525;0;1053504;1;3521;11343
3;82;1572977638203;1572977645158;6955;18017373528;42289698927;219485904;106888115;7366402596;142067981;323663915;523;0;1057384;0;3208;11879
3;83;1572977645159;1572977652484;7325;18004109136;42288461542;219797025;107258836;7366258480;142036286;323595971;525;0;1056488;0;3233;11961
3;84;1572977652484;1572977660395;7911;18070691706;42291341995;221192181;110077836;7366887222;142015041;323821015;704;37;1076360;0;3600;33348
3;85;1572977660395;1572977667631;7236;18007652410;42294371645;220722610;106086509;7367906852;142162681;323670819;533;0;1057448;0;3512;10975
3;86;1572977667631;1572977675032;7401;18028112704;42293509340;220517515;107728502;7367464790;142162244;323756406;524;0;1056464;-5;3243;11838
3;87;1572977675032;1572977682228;7196;18045730232;42290670636;220266027;108421366;7366812036;142134172;323589462;527;0;1056944;0;3137;11518
3;88;1572977682228;1572977689682;7454;18042225064;42301766441;220529650;107293965;7369884917;142256570;323687507;662;46;1051336;28;3373;22999
3;89;1572977689682;1572977696863;7181;18004614296;42290932410;220348265;106362630;7366819889;142023030;323666131;551;0;1077544;-28;3578;14403
3;90;1572977696863;1572977703712;6849;18056310852;42295757441;221529297;109117243;7368121295;142055880;323783418;529;0;1056504;5;3329;11475
3;91;1572977703713;1572977711317;7604;18014030128;42296490416;220321048;106439270;7368450881;142223983;323805198;527;0;1057376;-5;3215;11976
3;92;1572977711317;1572977718665;7348;18036406234;42299079379;220005533;107923219;7369143786;142210781;323601666;529;0;1056512;0;3133;11670
3;93;1572977718665;1572977726062;7397;18032708784;42288843384;219976197;107759446;7366374959;142124633;323663004;649;40;1069224;5;3853;26468
4;43;1572978182732;1572978190666;7934;18100361096;41754598867;219499081;115109955;7452906756;142151457;325713204;503;0;1054360;1;3227;11375
4;44;1572978190666;1572978198174;7508;17995789618;41755564547;217968618;108872148;7453293948;142093256;325509892;604;45;1069560;0;3510;14037
4;45;1572978198174;1572978205249;7075;18046733252;41751829395;219060219;111921428;7452350979;142220955;325498554;506;0;1057384;0;3456;10871
4;46;1572978205250;1572978212801;7551;18046198892;41750886325;219196411;112254482;7452028963;142058109;325446358;509;0;1056512;0;3251;11631
4;47;1572978212801;1572978220227;7426;18064086666;41746973039;219563597;113026366;7450970461;142074831;325493727;505;0;1056920;0;3258;11695
4;48;1572978220227;1572978227964;7737;18025455358;41753558679;219016309;110390029;7452918774;142082736;325423582;603;50;1069384;-5;3581;15997
4;49;1572978227965;1572978235545;7580;18028262792;41745215557;219279800;111118406;7450651630;142145470;325716591;509;0;1059944;4;3416;10694
4;50;1572978235545;1572978243094;7549;18038952036;41751384590;217354758;112202710;7452237647;142019074;325595423;511;0;1053960;-4;3322;11669
4;51;1572978243094;1572978250580;7486;18057604120;41749433653;218629425;112338619;7451466625;142135342;325828775;508;0;1056920;5;3184;11466
4;52;1572978250581;1572978258355;7774;18046848738;41734643998;219832287;111806687;7446878380;142153696;325663969;643;38;1071600;0;3658;18544
4;53;1572978258355;1572978266912;8557;18047402954;41742122273;219520949;111308431;7448731256;142322518;325426115;509;0;1057392;0;3452;10547
4;54;1572978266913;1572978274203;7290;18036642316;41735558075;219171875;111149849;7446907853;142130385;325225456;515;0;1057416;0;3269;11774
4;55;1572978274203;1572978281757;7554;18033849190;41733970760;217181166;111959643;7446013813;142007124;324977724;506;0;1056000;0;3208;11198
4;56;1572978281757;1572978289651;7894;18046957362;41740298283;219151552;111218286;7447858995;142231338;325148416;626;48;1071648;0;3737;23048
4;57;1572978289651;1572978296726;7075;18001388426;41732753808;217824353;109156774;7445868145;142046445;324893030;512;0;1057376;-5;3493;10923
4;58;1572978296726;1572978303552;6826;18020127526;41740173941;217226667;109962739;7447844230;142066051;324985252;513;0;1056520;5;3189;11432
4;59;1572978303552;1572978310867;7315;18015767966;41731429937;217286739;110708472;7445454072;142033919;325070169;508;0;1056920;0;3239;11598
4;60;1572978310868;1572978318384;7516;17988799138;41732628661;216283628;108109328;7446045831;142068506;324922646;606;50;1069408;0;3546;18832
4;61;1572978318384;1572978325658;7274;18023641454;41735948794;218543951;110783401;7446718275;142153134;325163278;512;0;1059768;-1;3493;10752
4;62;1572978325658;1572978333310;7652;18051723094;41731899449;219064469;112252172;7445634358;142125563;325241296;514;0;1054128;1;3331;11759
4;63;1572978333310;1572978340704;7394;18079647492;41736117991;218636452;113299022;7446788745;142126460;325166554;510;0;1056912;0;3208;11327
4;64;1572978340704;1572978348225;7521;17992027782;41735180249;219551766;108079222;7446510281;142081361;324622141;519;0;1057440;-5;3302;12454
4;65;1572978348225;1572978355812;7587;18007396764;41733584596;218805399;109854019;7446096843;142112579;324329162;641;42;1070416;5;3784;26453
4;66;1572978355812;1572978363362;7550;18042757234;41728993592;219632412;111886830;7444966632;142018709;324165047;517;0;1056496;0;3299;11350
4;67;1572978363363;1572978370551;7188;18025151678;41730471903;219727579;111366870;7445083266;142016023;324408697;513;0;1056920;0;3159;11213
4;68;1572978370551;1572978377947;7396;17994505548;41737496658;218210908;108588327;7447235189;142122051;324320359;515;0;1057384;0;3196;11930
4;69;1572978377947;1572978385014;7067;18008782596;41730193442;220451262;109970555;7445118618;142142303;324390754;613;56;1069792;0;3748;16323
4;70;1572978385014;1572978392172;7158;18028451132;41730439475;218425763;111891956;7445212468;142069001;324223933;513;0;1058416;-1;3281;11114
4;71;1572978392172;1572978399546;7374;18006925330;41741701612;218706114;109957753;7447821036;142195763;323568158;815;42;1088488;1;4881;37261
4;72;1572978399547;1572978407051;7504;18001472084;41730512831;218070694;109894429;7445373241;142211336;323282166;1011;68;1201600;-3;7375;63458
4;73;1572978407051;1572978414751;7700;17990415066;41726213384;216644576;110231223;7443795391;141919280;323096005;783;3;1140256;-2;4125;19035
4;74;1572978414751;1572978422238;7487;18048201136;41738427448;217798269;112223052;7447284040;142164398;323353621;519;0;1056000;5;3138;11913
4;75;1572978422238;1572978429244;7006;17991437796;41737258193;216527236;108712003;7447113029;142076676;323188121;530;0;1059880;-1;3140;11903
4;76;1572978429244;1572978436554;7310;18022998762;41729774564;218260681;110955186;7445099612;142112065;323436045;639;50;1072352;1;3680;19720
4;77;1572978436554;1572978443673;7119;18010925876;41731692995;217714196;110203967;7445461707;141938407;323340514;607;1;1057752;0;3650;15094
4;78;1572978443673;1572978451159;7486;18055226364;41741531742;218090543;112300349;7448340200;142192652;323195994;522;0;1056456;0;3240;11827
4;79;1572978451159;1572978458214;7055;17963194388;41734359685;216902133;107302137;7446227581;141959606;323146049;530;0;1057432;0;3202;12106
4;80;1572978458214;1572978465904;7690;17994827186;41737334851;217247222;109285202;7447022246;142166388;323319851;633;64;1073560;0;3783;17323
4;81;1572978465904;1572978473320;7416;18003124366;41724561573;216538182;110781354;7443393595;141915245;323284463;529;0;1056504;0;3448;11659
4;82;1572978473320;1572978480971;7651;18042894182;41727804553;218733732;112614519;7444317904;142057128;323491757;525;0;1056920;-5;3184;11546
4;83;1572978480971;1572978488541;7570;18007644088;41726675945;217738037;109672542;7444208678;141989045;323232185;531;0;1057424;5;3246;12040
4;84;1572978488541;1572978495709;7168;17983237560;41729541433;218006840;109137495;7444831631;142005500;323481656;637;44;1070520;-5;3754;22613
4;85;1572978495709;1572978502899;7190;18006964166;41732530443;217123501;110357440;7445839401;141983708;323275444;531;0;1056512;5;3413;11687
4;86;1572978502899;1572978510121;7222;18009781382;41731698784;217559868;110468330;7445418036;142059238;323383328;527;0;1056920;-1;3175;12113
4;87;1572978510121;1572978517120;6999;17996029788;41728978095;219132960;109066491;7444795961;142145402;323431078;536;0;1057424;-4;3211;12268
4;88;1572978517121;1572978524497;7376;17997816536;41739964450;218378285;109652675;7447833741;142150784;323402241;626;46;1069632;4;3487;16696
4;89;1572978524497;1572978532034;7537;18039949362;41729153259;217598931;112968113;7444770213;141951726;323359289;530;0;1056024;1;3482;11401
4;90;1572978532034;1572978539487;7453;18001669476;41733949971;217766089;110094778;7446060410;142038943;323369957;531;0;1057384;-5;3252;12029
4;91;1572978539487;1572978546875;7388;18028834674;41734723713;218763220;110596065;7446411952;142113237;323342489;529;0;1057376;5;3247;12058
4;92;1572978546875;1572978554639;7764;17982382584;41737323962;217044341;108428329;7447104537;142197202;323268713;632;50;1070032;0;3575;18467
