0;0;1572970560506;1572970573705;13199;20618449522;46452807448;352861541;123187723;8100540724;150825340;373510969;0;0;0;0;0;0
0;1;1572970573705;1572970582928;9223;18758098104;43311585910;264936195;105740489;7549133649;143890242;332340031;1415;5086;1175752;-11;9224;1311749
0;2;1572970582928;1572970616864;33936;18718769792;43239632931;260982153;103077074;7535773042;143530455;331172879;5992;23629;4530336;-1;33936;4935590
0;3;1572970616864;1572970631985;15121;18624114050;43229391603;252689083;96460695;7533817276;142833424;329532368;2302;8453;2540640;5;15120;2304803
0;4;1572970631985;1572970667341;35356;18305457808;42524023659;247380310;94544526;7394878044;142663214;328038582;5476;16108;5649120;-3;35356;5132807
0;5;1572970667341;1572970674879;7538;18355210520;42423500957;252973736;99626510;7374397596;143016211;328661045;1458;2647;953816;14;7538;1078741
0;6;1572970674879;1572970691241;16362;18245340994;42420894867;245022354;94465641;7373774473;142430505;327702237;2369;8039;2636600;-21;16363;2411065
0;7;1572970691241;1572970728782;37541;18237644604;42422809048;244799852;92522558;7374322578;142464823;327696952;5773;17007;5847536;15;37540;5440223
0;8;1572970728782;1572970740485;11703;18246760114;42423878070;245889523;96419886;7374504892;142618616;327472810;2244;8248;1359456;-4;11703;1674349
0;9;1572970740485;1572970757487;17002;18296239222;42423839801;242937538;94294078;7374540109;142410621;327422827;2550;9715;2890552;-9;17002;2550887
0;10;1572970757487;1572970792797;35310;18283843822;42421466814;244362567;93296708;7373984024;142366285;327684022;5911;15569;5444584;5;35310;5215408
0;11;1572970792797;1572970803998;11201;18268504186;42431213274;247565690;95262291;7376590462;142747091;328107834;2315;6806;1302632;-11;11201;1603101
0;12;1572970803998;1572970822392;18394;18286315748;42429343978;242346731;93361861;7376453991;142548848;327414839;2977;8014;2998168;3;18394;2714172
0;13;1572970822392;1572970853622;31230;18261123448;42425587654;245291382;93913122;7375398564;142763303;327616348;4874;11607;5117848;-7;31231;4554622
0;14;1572970853623;1572970862733;9110;18260842398;42422204281;251816022;95264089;7374274412;142526238;329019963;1290;8066;1329128;1;9110;1299605
0;15;1572970862733;1572970883622;20889;18222036036;42426661821;239620891;91482127;7375454904;142378557;327422387;3716;8723;3049304;16;20889;3061711
0;16;1572970883622;1572970913720;30098;18305083902;42418244307;243118691;94610236;7373096574;142379193;327465444;4859;12754;4812552;-5;30098;4456257
0;17;1572970913720;1572970926154;12434;18259011558;42423167568;245505228;94817824;7374657776;142570853;327554669;2039;9026;1710688;14;12434;1779797
0;18;1572970926154;1572970947446;21292;18234949444;42422571880;240939645;92587430;7374424967;142406731;327362660;3811;8944;3113056;-12;21292;3152028
0;19;1572970947446;1572970975315;27869;18255943076;42434391168;244866707;93699484;7376834892;142632204;327718211;3928;12450;4723128;-14;27869;3998201
0;20;1572970975315;1572970983729;8414;18291806078;42422650563;249076404;96206655;7374037272;142790827;327613952;1619;3792;1252560;16;8415;1269645
0;21;1572970983730;1572971002113;18383;18256231864;42423880467;243262533;94478265;7374472581;142405406;327469850;2573;8919;2986976;-13;18383;2628557
0;22;1572971002113;1572971036427;34314;18212280754;42423407373;242166065;93359305;7374206986;142424861;327394634;4960;17831;5689936;9;34314;4987221
0;23;1572971036427;1572971048257;11830;18308497674;42415479919;245465997;96589270;7372022025;142425325;327467696;2366;8635;1439944;5;11831;1800520
0;24;1572971048257;1572971067491;19234;18264265660;42421604905;240132710;92537330;7373589948;142211581;327425357;3088;7668;2920560;-6;19234;2761593
0;25;1572971067491;1572971079792;12301;18350969366;42423911459;247365259;96659380;7374238706;142569583;327986737;1938;3585;2335648;9;12300;1881769
0;26;1572971079792;1572971104665;24873;18270943554;42426316349;245301650;95881654;7374957580;142661965;327537761;4094;11098;3391376;-13;24873;3846370
0;27;1572971104665;1572971126878;22213;18253920538;42419349484;240997835;92440144;7373256175;142232412;327218800;3635;8558;3204896;0;22213;3213655
0;28;1572971126878;1572971149093;22215;18355093866;42421566165;250152280;98110668;7374054695;142826137;327858506;3712;9171;3570608;17;22216;3302381
0;29;1572971149093;1572971164735;15642;18310060458;42424971701;242323912;93961329;7374430610;142283687;327299381;2415;8329;2495320;-12;15641;2368897
0;30;1572971164735;1572971200437;35702;18317453606;42425704094;242939286;94228176;7374875905;142512169;327304730;5525;18038;5674632;-9;35703;5169319
0;31;1572971200437;1572971211825;11388;18374142340;42425462594;247860960;96915635;7374599748;142695161;326984550;2047;7385;1435136;2;11388;1627769
0;32;1572971211825;1572971230554;18729;18344175402;42424706171;243384096;93761150;7374498756;142308615;326619093;3066;9449;2958272;0;18728;2802484
0;33;1572971230554;1572971264433;33879;18301750722;42430490336;242429327;92992712;7375885302;142458649;326648305;5566;16761;5222464;9;33879;4956905
0;34;1572971264433;1572971276800;12367;18334755190;42421931809;244086417;95262901;7374024575;142605152;326801226;2412;7325;1487952;-12;12368;1765480
1;0;1572971424315;1572971437924;13609;20297355518;44995616381;338859817;126877381;7966821077;151171380;376119697;0;0;0;0;0;0
1;1;1572971437924;1572971447038;9114;18495302046;42095798894;246754852;107474026;7457961646;143629740;329212020;1552;5048;1044888;15;9115;1315377
1;2;1572971447038;1572971472429;25391;18360547404;42021548744;240284546;102154677;7443709949;143290214;328164625;4433;12139;3610224;5;25391;3720149
1;3;1572971472429;1572971487636;15207;18345595106;42219740695;231066606;97710076;7443678073;142911123;326653442;2593;6913;2285816;-25;15206;2284321
1;4;1572971487636;1572971521095;33459;18409012104;42725576493;229428779;97612256;7441849736;142716961;326166378;5573;17219;4906056;4;33460;4868689
1;5;1572971521095;1572971533466;12371;18323103952;42733789015;225220439;94821375;7445002319;142703286;325292981;1980;6187;1831576;11;12372;1774716
1;6;1572971533467;1572971551736;18269;18308061134;42730205649;221310758;91784530;7444230779;142118526;324788904;2795;10085;3099072;7;18268;2764882
1;7;1572971551736;1572971580667;28931;18371424988;42741700173;223618047;94059391;7446424834;142465382;325396334;4661;14425;4410664;-12;28932;4246996
1;8;1572971580667;1572971594967;14300;18387611862;42735248448;229628223;94836641;7445380626;142270326;326668084;2232;6880;2172976;10;14300;2046514
1;9;1572971594967;1572971615367;20400;18309861314;42734844348;221770115;90641418;7445333425;142346002;325070648;3557;9581;3117536;-3;20400;3008848
1;10;1572971615368;1572971641609;26241;18349787496;42732661595;221949443;94279262;7444813648;142316139;324857304;4374;13560;3971304;34;26242;3872334
1;11;1572971641609;1572971658938;17329;18283736512;42742500930;218148650;90775953;7447431941;142238320;324576887;2601;8851;2646248;-31;17329;2486589
1;12;1572971658938;1572971679805;20867;18294131274;42740516982;218896685;90581039;7447268746;142315648;324657952;3686;9323;3085944;130;20867;3131649
1;13;1572971679805;1572971704995;25190;18325556168;42736740991;222086478;93950433;7446189886;142440927;324818050;4092;14342;3709328;-148;25189;3626234
1;14;1572971704995;1572971722867;17872;18327519576;42733190818;218815345;91670136;7445044630;142239685;324583887;2934;7971;2841424;-8;17873;2714555
1;15;1572971722867;1572971760421;37554;18335599216;42737824071;219426244;90871587;7446280706;142162527;324808019;6069;17541;5879752;0;37554;5523641
1;16;1572971760421;1572971771848;11427;18346499576;42729293178;224012872;93953956;7443911181;142370678;325045627;2360;8126;1295504;11;11427;1641696
1;17;1572971771848;1572971789951;18103;18295921672;42734341206;218782064;90542103;7445471077;142207702;324519523;2591;10175;3032888;3;18103;2710815
1;18;1572971789951;1572971822758;32807;18269891916;42733687196;218389875;90773081;7445239843;142190002;324613124;5400;12704;5212064;-14;32807;4786125
1;19;1572971822759;1572971834768;12009;18359604390;42744713711;224776791;94885686;7447513282;142586995;324992872;2408;7800;1423512;25;12010;1717221
1;20;1572971834769;1572971852396;17627;18335950054;42733377525;218546733;90832480;7445017059;142083055;324603049;2514;10251;2983800;-6;17628;2639454
1;21;1572971852396;1572971885825;33429;18373857494;42734397615;220739126;93100447;7445331481;142292034;324693099;5529;14159;5177704;-11;33429;4864143
1;22;1572971885825;1572971898666;12841;18425093420;42733466525;222779657;94625846;7444990395;142398910;324226309;2386;7502;1588392;4;12840;1841961
1;23;1572971898666;1572971916380;17714;18332143104;42725572115;218135499;92065615;7442813738;142002489;324346209;2430;9635;3030784;-5;17715;2664377
1;24;1572971916380;1572971949271;32891;18318853308;42731884295;220722246;93527620;7444441957;142357310;324546465;5890;16329;4735184;10;32890;4810973
1;25;1572971949271;1572971965045;15774;18376395558;42734116147;222366652;94066303;7445057567;142352675;324542987;2798;7987;2279872;2;15774;2345513
1;26;1572971965045;1572971982532;17487;18408892092;42736270194;220721933;92968563;7445702879;142170141;324729030;2209;9333;3067520;1;17488;2504629
1;27;1572971982533;1572972013615;31082;18413616506;42729452077;223952099;95837451;7444044418;142543374;324598237;5533;15683;4112800;-10;31083;4564938
1;28;1572972013615;1572972029324;15709;18414869332;42731963141;221338885;94556522;7444939101;142271494;324406521;2314;7821;2680696;5;15709;2321883
1;29;1572972029324;1572972050295;20971;18307530278;42733537042;218591104;90439744;7445040785;142065439;324149732;3682;8479;3081064;12;20971;3100669
1;30;1572972050295;1572972073913;23618;18380907980;42735712402;225456730;94714370;7445718971;142686819;324682758;4139;12717;3458752;-11;23617;3387437
1;31;1572972073913;1572972091590;17677;18331428434;42734026495;219093163;91233442;7445186140;142088907;324569588;2748;8826;2965416;-11;17678;2622058
1;32;1572972091591;1572972111322;19731;18336757288;42734538326;219382830;92444980;7445302706;142136163;324387339;3352;8358;3115968;4;19731;2932059
1;33;1572972111322;1572972136914;25592;18337177476;42737691063;220468716;93653118;7446247832;142298452;324312564;4410;14047;3721576;9;25593;3674658
2;0;1572972280016;1572972294546;14530;20408107322;45173429190;350393932;130021929;7948044428;151028842;374386461;0;0;0;0;0;0
2;1;1572972294547;1572972326521;31974;18401010866;41859462490;248953054;106051820;7377503007;143847978;329236199;5427;22457;4080160;-6;31974;4674739
2;2;1572972326521;1572972334587;8066;18257272552;41782261792;241029468;100488925;7362822269;143897389;327784590;1367;4566;1098912;9;8066;1161377
2;3;1572972334587;1572972375122;40535;18219638278;42413152908;228170335;94228977;7364203286;143113675;325785396;6971;23398;5890904;-21;40535;5999476
2;4;1572972375122;1572972394884;19762;18181211516;42578418500;224477951;94230071;7365337618;142847278;324724419;3272;9903;2708672;4;19762;2835113
2;5;1572972394884;1572972425468;30584;18125949640;42574496323;221428353;90882492;7364293432;142574857;323930824;4283;17317;5246648;-6;30586;4451632
2;6;1572972425470;1572972437297;11827;18163955338;42571365283;226981042;93053556;7363534395;142723208;324277853;2702;8851;1288328;11;11827;1812439
2;7;1572972437297;1572972475438;38141;18115115710;42573337967;221721877;90373336;7364097339;142508877;323967597;6102;17974;5918248;-10;38141;5591012
2;8;1572972475438;1572972485198;9760;18155028022;42574396947;223427225;94129590;7364285405;142851117;324314010;1962;7313;1053408;24;9760;1392769
2;9;1572972485198;1572972504133;18935;18274246804;42574289296;217829619;92314763;7364293067;142427701;324299715;2959;9577;3027992;-11;18935;2826589
2;10;1572972504133;1572972538469;34336;18194677534;42572237819;218001771;92442603;7363821867;142485905;324385928;5514;15528;5416808;6;34337;5002814
2;11;1572972538470;1572972549495;11025;18274942348;42581949238;225184919;95384012;7366408717;143066304;325034547;2041;7523;1341912;-20;11026;1582914
2;12;1572972549495;1572972569481;19986;18231167898;42580145386;219219787;93109485;7366308158;142654004;324472114;3388;9273;3063696;-3;19985;2986929
2;13;1572972569481;1572972601165;31684;18175242160;42576229964;219536630;91545104;7365193195;142595527;324612748;5015;15743;4917512;13;31684;4604071
2;14;1572972601165;1572972614782;13617;18207666132;42572740896;221226527;92390106;7364033026;142773723;324732183;2249;7486;1956656;0;13617;1947705
2;15;1572972614782;1572972634342;19560;18275134484;42577400122;221255869;92511197;7365268819;142516975;324804885;3340;9147;2994984;1;19561;2894493
2;16;1572972634342;1572972661958;27616;18228613920;42568916800;219441315;92555260;7362920739;142537487;324423312;4355;13832;4371248;-14;27615;4008237
2;17;1572972661958;1572972678682;16724;18214287524;42573977600;218709433;91282776;7364495468;142495055;324410492;2615;8219;2458424;10;16724;2394289
2;18;1572972678682;1572972697611;18929;18172803668;42573266057;216740019;89516831;7364225794;142374030;324251862;3176;9496;2985528;18;18930;2794494
2;19;1572972697612;1572972723808;26196;18220693712;42583254730;222753510;92701829;7366472420;142861741;323934163;4205;13598;4063928;-14;26196;3882460
2;20;1572972723808;1572972740194;16386;18293832266;42572067677;219723341;91852978;7363848961;142562648;323255527;2661;8309;2470992;2;16386;2350357
2;21;1572972740194;1572972760269;20075;18234265872;42573540162;218405839;91555180;7364351909;142435125;323614224;3548;9358;3053528;-12;20075;2999465
2;22;1572972760269;1572972787125;26856;18284111878;42573014983;225644866;94881430;7364054687;142764623;324318110;4632;14752;3981896;0;26857;3967016
2;23;1572972787125;1572972804632;17507;18253250836;42564854957;221074632;93245954;7361812132;142429758;323689179;2582;7704;2761816;10;17506;2506410
2;24;1572972804632;1572972844713;40081;18200899616;42571145730;219416446;90861069;7363432569;142470982;323906916;6575;18283;6039792;10;40081;5998422
2;25;1572972844713;1572972857392;12679;18216140702;42573234838;221737871;93329739;7364000030;142581720;323804852;2477;8862;1258152;-18;12680;1825187
2;26;1572972857392;1572972875450;18058;18296532098;42575567936;218124017;92106773;7364722839;142306428;323711792;2763;10124;2982192;6;18058;2663693
2;27;1572972875450;1572972908098;32648;18213963988;42568791707;219167531;91450064;7363019645;142352461;324035070;5073;11486;5398224;-11;32647;4797359
2;28;1572972908098;1572972915606;7508;18248748488;42571150836;227955599;95240168;7363869686;143001587;324583683;1163;3550;1185368;21;7508;1075752
2;29;1572972915606;1572972927049;11443;18253699348;42576805608;219464139;91803586;7364633327;142430993;324105213;1458;6508;2063112;-18;11443;1644004
2;30;1572972927049;1572972939103;12054;18330032090;42575285134;224032108;95837021;7364678887;142934472;324641204;1760;1457;2363904;19;12054;1841421
2;31;1572972939103;1572972971428;32325;18300300212;42573722147;223477144;94205153;7364155676;142687998;324989433;5449;14603;4919344;-2;32325;4716320
2;32;1572972971428;1572972979375;7947;18279141746;42574868040;228308052;95938650;7364445952;143099849;325108617;1238;3228;1198120;-11;7947;1145309
2;33;1572972979375;1572972997283;17908;18225929710;42577650187;219823560;91707342;7365277995;142613099;324295280;2654;10034;3061792;19;17908;2647673
3;0;1572973142913;1572973157640;14727;20323366148;44747087781;371224418;130655528;7836533700;151485937;381729521;0;0;0;0;0;0
3;1;1572973157640;1572973178503;20863;17860689686;40142953233;277508156;101582799;7041650729;143886189;328680046;3380;12440;2808480;-15;20864;3081172
3;2;1572973178503;1572973198292;19789;17823933456;40071465983;270528146;101997400;7028589121;143440337;327020037;3493;9446;2775240;4;19789;2835525
3;3;1572973198292;1572973210489;12197;17778529062;40059949943;266785918;98542292;7026076070;143295443;326252116;1991;6536;1852264;-1;12196;1811267
3;4;1572973210489;1572973244553;34064;17750968350;40689499378;258853968;93567069;7146368690;142864901;325057846;6078;21013;4585280;-1;34065;4995024
3;5;1572973244553;1572973259357;14804;18151858216;41736007202;256521759;92613092;7347578940;142649186;324387070;2238;6781;2279264;3;14804;2119411
3;6;1572973259357;1572973292155;32798;18072254344;41731272506;253456373;89783789;7346603364;142452062;324024758;5175;16821;5209888;0;32799;4831345
3;7;1572973292156;1572973302969;10813;18087821740;41733095321;255092455;93493091;7347180108;142732470;324172303;2209;9103;1230240;18;10812;1662912
3;8;1572973302969;1572973323325;20356;18122691650;41734182994;254282631;91628274;7347352315;142431699;324176612;3181;8302;3107448;-12;20356;2919706
3;9;1572973323325;1572973347382;24057;18094192596;41733865111;251783327;91103053;7347330549;142476875;323862614;3219;5076;4572440;-12;24057;3594712
3;10;1572973347382;1572973359543;12161;18223481290;41731679924;258073863;96151446;7346842772;142977939;324035820;2972;8738;1197240;6;12161;1904348
3;11;1572973359543;1572973377934;18391;18104769566;41741102441;253005671;90703851;7349326684;142653473;324044061;2575;9587;3216752;17;18392;2636509
3;12;1572973377934;1572973407714;29780;18185713426;41739430605;256873639;94127976;7349264159;142908908;324180293;5395;13437;4359520;-14;29780;4512589
3;13;1572973407714;1572973423189;15475;18198037432;41735704809;253055260;94566274;7348192419;142560637;323790316;2669;7772;2107888;-13;15474;2212500
3;14;1572973423189;1572973441721;18532;18171266872;41731844963;252943765;92713765;7346949973;142517704;323908375;2978;9465;3025472;16;18533;2725583
3;15;1572973441721;1572973470564;28843;18212997322;41736603166;258433966;95747250;7348233659;142943172;324322724;5043;15464;4125400;11;28843;4226050
3;16;1572973470564;1572973487355;16791;18137375308;41728148862;254127320;93362030;7345876059;142603630;323919766;2850;7009;2464296;4;16791;2409152
3;17;1572973487355;1572973524334;36979;18121214422;41733079954;251642666;91885814;7347433501;142606882;323751670;5846;17303;5866920;-7;36979;5406326
3;18;1572973524334;1572973536808;12474;18108763396;41732319263;253322657;93343229;7347144148;142572912;324188453;2618;9144;1393344;4;12474;1883223
3;19;1572973536808;1572973556582;19774;18114298986;41745419224;249193088;90693583;7350078781;142432447;324255590;3308;8679;3013352;-12;19774;2834718
3;20;1572973556583;1572973587019;30436;18149860644;41732942549;251131036;90952536;7347338959;142473293;323929756;4654;13047;5133592;5;30437;4490158
3;21;1572973587019;1572973599420;12401;18156787176;41734126851;256476610;93574621;7347771988;142747118;324987723;2550;8421;1555360;8;12401;1867472
3;22;1572973599420;1572973619437;20017;18169308720;41733531314;253436554;93274589;7347443483;142544981;324568699;3259;8421;3009888;-24;20017;2880838
3;23;1572973619437;1572973649489;30052;18132597458;41725614008;254687508;92245589;7345286440;142542693;324708445;4766;15113;4874328;10;30054;4401847
3;24;1572973649491;1572973662980;13489;18171557266;41731665122;256626507;94753757;7346838910;142591586;325168267;2497;7709;1839208;-1;13488;1997857
3;25;1572973662980;1572973683461;20481;18137926020;41734112928;252027518;91641284;7347510834;142478399;324370126;3318;8664;3081392;13;20482;2924779
3;26;1572973683461;1572973711339;27878;18215073588;41736150638;255056662;94276110;7348156492;142724775;324739915;4555;13712;4399840;-22;27878;4110869
3;27;1572973711340;1572973729083;17743;18155711302;41729647397;254209071;93405668;7346516934;142598749;324442415;3245;8470;2112144;3;17743;2762450
3;28;1572973729083;1572973748773;19690;18167473938;41731852283;252740700;91521241;7347321714;142402057;324230539;3454;8956;3016232;20;19691;2909976
3;29;1572973748773;1572973775846;27073;18182286368;41734062774;255299329;93340647;7347550671;142682797;324993861;4430;14075;4034792;-18;27073;3876856
3;30;1572973775846;1572973792583;16737;18166998270;41735546795;253098544;92414006;7348083267;142658220;324825435;2834;7792;2566840;13;16736;2531319
3;31;1572973792583;1572973813433;20850;18159492118;41735692726;251144006;91429430;7347917128;142520313;324654456;3813;8766;3122384;-19;20851;3069180
3;32;1572973813433;1572973838180;24747;18146347592;41734667840;253616264;94193722;7347747047;142624931;324871325;3981;13661;3644016;0;24747;3530906
3;33;1572973838180;1572973857239;19059;18208506508;41743527710;250160177;92930350;7349657302;142395231;324940887;3139;8569;2986528;4;19059;2823600
4;0;1572974000487;1572974013892;13405;20223467108;44834959903;350196252;126341633;7962055414;151267135;377744245;0;0;0;0;0;0
4;1;1572974013892;1572974022141;8249;18494634242;41955186084;261188269;107965282;7458092857;144145303;331587794;1372;5242;1066808;-5;8249;1177262
4;2;1572974022141;1572974056727;34586;18378836094;41882350290;254789036;103346670;7444112080;143788853;330223329;5897;21035;4781672;13;34586;5076034
4;3;1572974056727;1572974070204;13477;18269027596;41881621928;242254797;97962388;7445422890;143120808;328199203;2159;9168;2121048;-10;13477;2014176
4;4;1572974070204;1572974108470;38266;18180532908;42158486193;236638617;94695699;7446037257;142801033;327618007;5892;16942;6098104;-98;38266;5391219
4;5;1572974108470;1572974116183;7713;18263697720;42272239644;242728732;99652285;7444963264;143084444;328430905;1524;3334;975512;100;7713;1096614
4;6;1572974116183;1572974130732;14549;18167773968;42269811555;236482124;94183278;7444396342;142716206;327677432;2357;6245;2205752;-5;14550;2155067
4;7;1572974130733;1572974150783;20050;18082989870;42280613538;232211245;90507471;7446568828;142554501;326143988;2993;8805;3099984;16;20050;2869224
4;8;1572974150783;1572974176740;25957;18142706790;42274546693;236060893;95348302;7445549049;142833022;326401767;4662;14322;3768728;-13;25958;3797187
4;9;1572974176741;1572974195895;19154;18138186338;42274286729;233352237;92063146;7445557580;142523229;325524027;2843;9955;3073000;-6;19154;2803481
4;10;1572974195895;1572974226477;30582;18125774732;42272641124;232438082;91346214;7445223877;142397602;325268480;4661;10569;5179776;20;30582;4485024
4;11;1572974226477;1572974236524;10047;18131551368;42281903266;240901254;94325855;7447649492;143256424;326147102;1686;8208;1306288;11;10047;1428484
4;12;1572974236524;1572974254384;17860;18178182600;42279989513;233564853;93375121;7447496413;142825643;325227784;2464;10341;3000040;-10;17861;2645914
4;13;1572974254385;1572974283083;28698;18182121388;42276343780;234921275;94835327;7446472524;142806726;325358227;4596;14631;4378264;-6;28698;4162770
4;14;1572974283083;1572974297738;14655;18145585326;42271571083;236102607;93451832;7444939176;142792490;325745212;2343;8140;2374376;-5;14655;2196400
4;15;1572974297738;1572974316133;18395;18109663048;42277698599;232443304;91473052;7446649116;142600168;325233935;2636;8289;2986040;-6;18395;2624483
4;16;1572974316133;1572974344490;28357;18134324346;42268660462;233889460;92864271;7444115344;142625505;325210370;5138;14236;4134016;24;28358;4170415
4;17;1572974344491;1572974360824;16333;18129362682;42273553579;233837862;92736494;7445639070;142691343;325227397;2631;8856;2525936;-20;16333;2397783
4;18;1572974360824;1572974379841;19017;18086591544;42272528213;230168657;90103478;7445292473;142557885;325032034;2720;9059;3137440;1;19017;2722267
4;19;1572974379841;1572974401124;21283;18126514660;42261441703;234691860;93897211;7444513216;142895787;326517144;3615;10095;3443248;-1;21284;3167883
4;20;1572974401125;1572974417542;16417;18131323900;42249668053;234573766;93140823;7441809028;142704006;326735751;2418;8337;2591736;21;16417;2491107
4;21;1572974417542;1572974451872;34330;18130587914;42251447317;233895625;93539218;7442373866;142725992;326781370;5434;18144;5417192;-21;34330;5004134
4;22;1572974451872;1572974459720;7848;18127829536;42250795101;238202047;94997412;7442054205;143076312;327016617;1178;3453;1144912;7;7849;1114099
4;23;1572974459721;1572974476991;17270;18172231348;42242859868;232965060;90917121;7439888005;142655898;326337140;2057;9696;3062304;-6;17270;2469635
4;24;1572974476991;1572974509169;32178;18144319652;42248723919;233375422;91583299;7441422533;142580809;326838104;4680;16001;5470752;21;32178;4702438
4;25;1572974509169;1572974517750;8581;18184266420;42250967664;244213353;96210138;7442048253;143015598;328219608;1663;4104;1219224;-5;8581;1302350
4;26;1572974517750;1572974533568;15818;18102963108;42253219955;231921476;92125386;7442718983;142604990;326463475;2164;8606;2643520;-19;15819;2263109
4;27;1572974533569;1572974551370;17801;18121895658;42246327204;232184400;90523334;7441034285;142515721;326489533;2529;10195;3059336;14;17801;2686861
4;28;1572974551370;1572974578807;27437;18146416504;42248608927;238374524;95229752;7441851082;143087350;327157474;4444;10025;3968656;2;27437;4094176
4;29;1572974578807;1572974592890;14083;18189534392;42250818042;236117907;94460756;7442147320;142712347;326940520;2302;7031;2205280;-2;14084;2082358
4;30;1572974592891;1572974610530;17639;18137738702;42252382758;232551402;92156547;7442642654;142575920;326602478;2365;8776;3037096;-1;17640;2520929
4;31;1572974610531;1572974639117;28586;18161589700;42250713472;232713375;93510978;7442125183;142668864;326455347;4950;15133;4060632;0;28586;4150250
4;32;1572974639117;1572974657492;18375;18188985724;42251228562;233370758;92886942;7442249860;142519926;326451391;3186;8603;2725192;-2;18375;2709585
4;33;1572974657492;1572974675496;18004;18157651642;42254692284;232475604;91514706;7443284766;142573810;326459442;2569;8363;2921072;-4;18004;2589234
4;34;1572974675496;1572974700671;25175;18191473272;42248524303;235512770;94773916;7441811008;142942144;326426100;4374;13979;3618928;-13;25175;3663971
4;35;1572974700671;1572974720175;19504;18131491654;42257706465;232098398;91498866;7444175918;142654002;326358717;3310;8000;2877928;22;19505;2925476
