0;46;1572962319121;1572962326864;7743;17989384598;41712811523;233994550;98419463;7451115865;142702656;327565949;526;11;1069712;-6;3651;12488
0;47;1572962326864;1572962333810;6946;17956185512;41708856742;232230366;97122717;7450050368;142550356;327179333;507;0;1056000;5;3517;12422
0;48;1572962333810;1572962340929;7119;17945953540;41715619621;229368425;96685694;7452061165;142586386;326548272;521;7;1059152;-1;3413;12500
0;49;1572962340930;1572962348280;7350;17919584626;41707151867;225037197;96755430;7449748260;142595156;326182403;509;0;1053440;1;3475;13118
0;50;1572962348280;1572962355289;7009;17985979878;41713318134;233435835;97521049;7451340249;142484187;327758158;639;44;1067560;0;3921;21386
0;51;1572962355289;1572962362573;7284;17998405354;41711327183;232685247;98169229;7450547788;142663884;327329197;508;0;1056000;0;3496;11965
0;52;1572962362573;1572962369819;7246;17988699420;41700977276;222204629;97354932;7447390379;142503365;325759691;519;11;1056592;0;3475;13014
0;53;1572962369819;1572962377355;7536;17969998280;41703834620;224704619;97184602;7447766567;142685078;326067382;513;0;1056008;-5;3414;12873
0;54;1572962377355;1572962384460;7105;17945699938;41697515772;224521617;96111104;7445995182;142535928;326407176;629;54;1071120;3;4007;23170
0;55;1572962384460;1572962392155;7695;18017305638;41696135545;238335740;96458794;7445232391;142716819;328603829;513;0;1051904;-3;3475;11641
0;56;1572962392156;1572962399516;7360;17946753912;41701128446;223650843;96535664;7446784013;142623952;326211689;524;17;1056784;0;3416;12638
0;57;1572962399516;1572962406520;7004;18016156910;41694052203;231649724;96493151;7444922975;142614370;327305891;515;0;1055992;5;3403;12655
0;58;1572962406520;1572962413998;7478;18015821548;41701686731;234961068;96883343;7446933284;142726175;328001986;637;55;1068264;0;3903;20499
0;59;1572962413998;1572962420866;6868;17984687048;41692950589;230859365;95964158;7444543552;142504874;327307085;515;0;1056000;0;3462;11229
0;60;1572962420866;1572962427861;6995;17967939388;41694111039;229157308;95298494;7445119597;142613215;327142576;526;9;1056608;0;3471;12952
0;61;1572962427861;1572962435268;7407;17916021496;41697533008;220276879;95373236;7445804645;142531025;325732636;515;0;1056000;0;3388;12751
0;62;1572962435269;1572962442845;7576;18021553070;41693456071;241035057;96076939;7444747835;142753341;329162141;649;45;1067648;0;3845;22980
0;63;1572962442845;1572962450176;7331;17996240466;41700338657;236381372;96564516;7446317140;142731267;327953048;516;0;1055992;0;3541;11025
0;64;1572962450176;1572962457744;7568;17980121774;41698484296;231237465;96650164;7445540611;142531714;325833798;531;10;1056600;-5;3472;12811
0;65;1572962457744;1572962465066;7322;18021759514;41697282301;234464740;97329542;7445205345;142506110;326216309;521;0;1058552;4;3446;12957
0;66;1572962465066;1572962472645;7579;17995468418;41692630519;231618457;96908953;7444056112;142537562;325967816;608;46;1066048;1;3602;17804
0;67;1572962472645;1572962480144;7499;18068897366;41694074499;236916754;97816762;7444180001;142542884;326826548;523;20;1056784;0;3553;10863
0;68;1572962480144;1572962487462;7318;17965895388;41701325219;220762687;96408562;7446360749;142567308;323865355;520;0;1056000;-5;3519;12773
0;69;1572962487462;1572962494599;7137;17997827632;41693849120;230414797;96290172;7444213440;142537909;325055773;750;59;1048336;24;4874;49644
0;70;1572962494599;1572962501715;7116;18023594880;41694131748;234928431;96035749;7444336880;142611095;325908858;839;7;1119480;-24;5875;54585
0;71;1572962501716;1572962508807;7091;17940516500;41701813663;227014942;94519826;7446363947;142483211;325126411;536;10;1056592;1;3433;12725
0;72;1572962508807;1572962515922;7115;17979339068;41694266994;232439138;94736921;7444537950;142535868;325901054;526;0;1056000;-1;3450;13517
0;73;1572962515922;1572962522950;7028;17975179674;41690003766;229277767;95244862;7442970878;142349658;325213605;540;11;1056584;5;3495;13792
0;74;1572962522950;1572962530477;7527;18021106310;41702274427;224223163;96716538;7446449570;142598861;324365297;650;36;1068368;-5;3851;17689
0;75;1572962530477;1572962537358;6881;17982273230;41701090593;223881782;95445941;7446281751;142434374;324255892;619;13;1057400;5;3800;19553
0;76;1572962537358;1572962544601;7243;18009439450;41693529335;231818631;96456350;7444256473;142522772;325485125;533;0;1056000;-5;3439;13135
0;77;1572962544601;1572962552183;7582;17980734828;41695366120;226776630;96218531;7444592678;142437110;324902580;548;9;1056600;5;3424;13506
0;78;1572962552183;1572962559477;7294;18057215906;41705326132;242045225;96610052;7447517533;142683759;327067415;629;54;1067824;-5;3998;22688
0;79;1572962559477;1572962566328;6851;18032828942;41698213438;225552976;96054628;7445408278;142388874;324754516;546;13;1056768;5;3536;12459
0;80;1572962566328;1572962573379;7051;17961840238;41701076721;227666348;94875634;7446187771;142501593;325326214;536;1;1056000;0;3442;13426
0;81;1572962573379;1572962581097;7718;18017015390;41688375932;240973556;95832881;7442585314;142450342;327382982;549;12;1056608;0;3400;13800
0;82;1572962581097;1572962588288;7191;18024924940;41691602110;233699930;96741529;7443487455;142516056;325794409;631;46;1067152;0;4009;23108
0;83;1572962588289;1572962595974;7685;18079727062;41690425307;249233311;97368110;7443376922;142647155;328488560;544;12;1056576;0;3592;12730
0;84;1572962595974;1572962603097;7123;17949655954;41693356283;224430666;94717851;7444000060;142372928;324410262;537;1;1056000;0;3483;13237
0;85;1572962603097;1572962610979;7882;17978016746;41696323569;227966228;96459905;7445001847;142526903;325003478;539;0;1056000;-5;3398;13573
0;86;1572962610979;1572962618978;7999;17999888860;41695523190;233681305;96420672;7444589932;142519737;326023872;651;55;1068032;5;3894;19385
0;87;1572962618979;1572962626312;7333;17978246842;41692628920;230620988;95780509;7443920345;142550715;325512917;544;0;1055992;-5;3490;12087
0;88;1572962626312;1572962633661;7349;18014098456;41703667135;236873244;95995453;7446982117;142634779;326413593;545;12;1056584;0;3498;13666
0;89;1572962633661;1572962640689;7028;17975902374;41692825051;228300266;95981308;7443900655;142355283;325182161;543;0;1055992;5;3423;13697
0;90;1572962640689;1572962647774;7085;17941703480;41697722134;227924963;95904967;7445226094;142388210;325236271;657;53;1067888;-1;3909;22556
0;91;1572962647774;1572962654767;6993;18020028100;41698492307;232742043;96266713;7445563314;142503167;325857195;545;0;1055992;1;3556;11791
0;92;1572962654767;1572962662118;7351;17994521754;41701009051;229244168;95416171;7446238785;142616680;325243606;555;15;1056784;0;3471;12949
0;93;1572962662118;1572962669519;7401;17965673614;41690839776;229593804;95411232;7443487546;142494390;325566324;548;1;1056000;-5;3450;13545
0;94;1572962669520;1572962676650;7130;17974342802;41693367314;226452535;94611992;7444202400;142391693;324906659;563;8;1056600;5;3446;13518
0;95;1572962676650;1572962683801;7151;17995514116;41701461671;230949297;95246445;7446111079;142501373;325338023;642;40;1067504;-5;3989;19001
1;44;1572963141572;1572963149253;7681;18381778724;42742507398;241378729;97800882;7444954675;142367882;327475045;504;0;1056000;5;3430;12719
1;45;1572963149253;1572963156808;7555;18442398362;42739030763;238544733;98569096;7444064978;142402040;327237268;675;39;1068448;-5;3914;23582
1;46;1572963156808;1572963164382;7574;18342445594;42737913083;233477946;95790327;7443668287;142330657;326473355;507;0;1060096;3;3543;11836
1;47;1572963164383;1572963171320;6937;18303013038;42734112301;232377159;94858553;7442647440;142221635;326112905;513;11;1052504;-3;3468;12609
1;48;1572963171320;1572963178540;7220;18363291182;42740802636;238959535;95956133;7444630625;142349700;327316023;504;0;1056000;5;3408;12513
1;49;1572963178540;1572963185439;6899;18323849866;42732388693;235835848;95311047;7442346094;142216704;326559918;651;53;1070936;0;4014;28948
1;50;1572963185439;1572963192629;7190;18437732202;42738527655;239870107;97355030;7443918883;142283344;327386213;504;0;1056000;0;3632;12057
1;51;1572963192629;1572963199956;7327;18359269320;42736609585;234974578;96136926;7443157093;142378193;326625221;516;11;1056616;0;3536;12471
1;52;1572963199956;1572963207785;7829;18374077078;42721870498;240540262;96150034;7438584126;142363450;327039621;505;0;1056000;0;3445;12926
1;53;1572963207785;1572963215874;8089;18374969868;42728787652;240187638;96417763;7440411014;142555303;327269012;654;49;1068928;0;3788;20792
1;54;1572963215874;1572963223297;7423;18349004790;42720866152;234289439;95222152;7438612390;142377698;326313182;505;0;1055984;0;3550;10885
1;55;1572963223297;1572963230824;7527;18383671760;42719048164;237252922;95751455;7437756475;142418054;326897469;520;9;1056600;0;3473;12374
1;56;1572963230824;1572963238226;7402;18321950990;42724622510;229694016;94816087;7439439723;142413877;325716140;509;0;1056000;0;3419;12347
1;57;1572963238226;1572963246208;7982;18457452714;42717592798;255455381;96686027;7437605041;142603143;329827561;651;47;1070968;0;3953;29208
1;58;1572963246208;1572963253418;7210;18425904742;42725186825;232742587;97189123;7439577201;142375791;326153495;510;0;1056000;0;3554;10894
1;59;1572963253419;1572963261159;7740;18424193914;42716430879;239963259;97047776;7437198503;142376426;327372280;522;11;1056592;0;3484;12543
1;60;1572963261159;1572963268579;7420;18369862788;42717660484;235682130;95206008;7437783866;142408817;326707723;513;0;1056000;-5;3457;12806
1;61;1572963268579;1572963276170;7591;18351632936;42721030705;239049149;95308482;7438480943;142415530;327356101;622;47;1053808;11;3671;22247
1;62;1572963276170;1572963283608;7438;18330867648;42716887181;229673109;95365425;7437365479;142362811;325939399;519;0;1068928;-6;3597;11416
1;63;1572963283608;1572963291040;7432;18361746210;42721897376;235753492;95717647;7438686813;142435783;326822667;524;12;1060688;-2;3536;12820
1;64;1572963291040;1572963298680;7640;18364814692;42719572495;235900074;95986391;7438169075;142390432;326450255;514;0;1051904;2;3430;12919
1;65;1572963298680;1572963306436;7756;18475646650;42718200143;247722310;97645244;7437813959;142507082;328302740;615;51;1046456;12;3550;16517
1;66;1572963306437;1572963314243;7806;18446203414;42713665769;248610665;97915880;7436694828;142547160;328527102;531;0;1077120;-12;3856;16577
1;67;1572963314243;1572963321651;7408;18340239388;42715326954;230416293;95826804;7436828648;142292928;325658220;517;12;1056192;3;3476;12290
1;68;1572963321651;1572963328751;7100;18393903586;42722091960;240919705;94886574;7438938509;142374956;327359239;526;5;1056616;-3;3529;13870
1;69;1572963328751;1572963335891;7140;18345080164;42714888387;233709380;94867221;7436843008;142257718;326147179;519;0;1056000;0;3447;13027
1;70;1572963335891;1572963343356;7465;18397358968;42715093283;231149207;96533754;7436935038;142344089;325778607;637;54;1067600;0;3898;21017
1;71;1572963343356;1572963350174;6818;18342023362;42722807839;226185318;94946682;7438957104;142283363;325057332;519;0;1056000;0;3528;12430
1;72;1572963350174;1572963357499;7325;18434766504;42715424451;238136870;96572811;7437190509;142336244;326775054;535;10;1056616;0;3466;13015
1;73;1572963357499;1572963364791;7292;18375778416;42711129981;232214386;95999851;7435596584;142077786;326121994;521;0;1055984;-4;3413;12981
1;74;1572963364791;1572963372121;7330;18380012708;42723267575;232227157;96382702;7439063589;142445963;326202685;820;79;1089432;7;5114;37426
1;75;1572963372121;1572963380183;8062;18520930448;42722161599;249677949;99149437;7438941024;142618188;329039217;836;6;1088200;-3;5501;25989
1;76;1572963380183;1572963387703;7520;18376296278;42714549607;237554361;96856919;7436877296;142407225;327275201;540;9;1056616;0;3503;13506
1;77;1572963387703;1572963395316;7613;18367797180;42716456882;241014494;96278785;7437240231;142324952;327779706;526;0;1056000;0;3396;13125
1;78;1572963395316;1572963402264;6948;18424775870;42726353235;232296674;96683125;7440120128;142389454;326150664;534;10;1056576;0;3336;12750
1;79;1572963402264;1572963410053;7789;18448495322;42719296972;247226365;97720675;7438067316;142443082;328564262;655;50;1071632;0;3975;20639
1;80;1572963410053;1572963417973;7920;18445172800;42722177854;243559274;98131047;7438839581;142498253;328172697;616;14;1057416;0;3820;17539
1;81;1572963417973;1572963425472;7499;18358990168;42709411732;231787385;96415181;7435190286;142203740;325976220;530;0;1056000;-5;3393;13076
1;82;1572963425472;1572963432635;7163;18335274950;42712690339;234285023;94719726;7436121095;142276158;326245801;536;12;1056584;5;3378;13216
1;83;1572963432635;1572963440365;7730;18484184146;42711434902;238396640;98252256;7435976280;142333119;326964383;637;54;1074248;-1;3950;20572
1;84;1572963440365;1572963447598;7233;18408298164;42714389259;238632062;96040176;7436633336;142296132;327099645;539;11;1054064;1;3520;12801
1;85;1572963447598;1572963454544;6946;18380168198;42717373397;236250109;94927471;7437634810;142293118;326535577;531;0;1056000;0;3403;13186
1;86;1572963454544;1572963462210;7666;18350630646;42716566046;234521685;96024549;7437206380;142355491;326451950;535;12;1056592;-5;3458;13326
1;87;1572963462210;1572963469886;7676;18353712706;42713793699;237468360;95990137;7436575491;142383091;327301370;625;44;1067016;0;3895;19990
1;88;1572963469886;1572963477242;7356;18469637582;42724702703;245859796;97834480;7439600674;142513144;328300018;541;10;1056608;0;3560;12428
1;89;1572963477242;1572963484395;7153;18366933298;42713890573;233759431;96402186;7436531578;142177245;326117629;539;0;1055992;5;3408;13212
1;90;1572963484395;1572963492091;7696;18383475244;42718686716;239619419;95810583;7437833885;142404837;327302971;546;13;1056768;0;3420;14036
1;91;1572963492091;1572963499351;7260;18313880548;42719470380;229466031;94814851;7438162539;142302942;325648221;703;25;1068296;0;4162;32299
1;92;1572963499351;1572963506544;7193;18369424642;42722053585;240079587;94959392;7438869571;142472278;327253901;550;9;1056600;-1;3543;12136
1;93;1572963506544;1572963513328;6784;18312088398;42712809088;238049792;93712664;7436257827;142174214;325408898;540;1;1056000;1;3417;13058
2;45;1572963976882;1572963984506;7624;18463892190;42359501165;240087738;98259777;7456168581;142678752;329203355;615;47;1068496;-5;3771;21447
2;46;1572963984506;1572963991946;7440;18477914760;42358570347;238566180;99001116;7455833316;142632197;329043259;510;0;1056000;5;3500;11133
2;47;1572963991946;1572963999335;7389;18524841496;42354635642;242918577;99257112;7454774407;142571493;329558941;521;9;1056584;0;3454;12433
2;48;1572963999335;1572964006467;7132;18414886122;42361260296;238524788;96507712;7456727192;142580971;329053582;510;0;1056000;0;3404;12585
2;49;1572964006468;1572964013705;7237;18428881244;42352851110;244288350;97356818;7454456900;142661646;330146073;619;48;1067800;-5;3783;21745
2;50;1572964013705;1572964021430;7725;18437311868;42359176537;242709303;97261135;7456081973;142586555;329529180;511;0;1056000;5;3566;10900
2;51;1572964021430;1572964028893;7463;18408903042;42357118470;236745018;97041817;7455271780;142659421;328757214;523;10;1056584;-5;3472;12343
2;52;1572964028893;1572964036555;7662;18435732294;42342620022;238819500;97134464;7450757384;142626968;329037008;511;0;1056000;5;3455;13046
2;53;1572964036555;1572964044786;8231;18450684300;42350481841;235773229;97708289;7452603331;142794384;328154328;634;48;1068152;0;3735;19388
2;54;1572964044786;1572964052335;7549;18410045784;42343127684;232988515;97130660;7450655519;142569435;327846767;512;0;1055984;0;3498;10766
2;55;1572964052335;1572964059576;7241;18440540804;42341341840;238994711;97775285;7449804972;142601344;328612629;525;8;1056576;0;3543;12964
2;56;1572964059576;1572964066572;6996;18412309076;42347022818;231352797;96158213;7451511139;142577136;327696321;516;0;1056000;0;3392;12875
2;57;1572964066572;1572964074222;7650;18478039882;42339993372;241826566;96962885;7449662867;142704212;329518745;525;14;1056608;0;3462;13201
2;58;1572964074222;1572964081817;7595;18433048814;42347575277;240738600;97094864;7451652224;142705673;328977244;617;42;1066768;0;3873;15822
2;59;1572964081817;1572964089178;7361;18436631070;42338881724;241219398;96939442;7449276950;142583373;329049858;520;0;1056000;0;3445;12192
2;60;1572964089178;1572964096674;7496;18480141260;42340049925;238827267;97833646;7449855820;142659840;328554619;530;7;1056576;0;3463;13130
2;61;1572964096674;1572964104328;7654;18466322214;42343358518;249316755;97294154;7450539983;142799088;330639903;522;0;1056000;-5;3388;13055
2;62;1572964104328;1572964112249;7921;18382168544;42339330219;235251605;95939269;7449455287;142608814;327807607;624;52;1068176;5;3808;15381
2;63;1572964112249;1572964120207;7958;18422216198;42343730732;243547518;97038299;7450653661;142750568;329628868;529;12;1056584;0;3531;12696
2;64;1572964120208;1572964127551;7343;18393241622;42341907721;238496299;96366055;7450217886;142548071;328533732;521;0;1056000;-5;3447;12870
2;65;1572964127551;1572964134990;7439;18443112302;42340784460;237258530;97392867;7449904537;142544123;328265515;522;0;1055992;5;3487;13117
2;66;1572964134990;1572964142789;7799;18472883162;42336249877;246440825;97716870;7448783844;142720051;329946218;635;37;1067992;0;3826;17755
2;67;1572964142789;1572964150103;7314;18405696152;42337899183;237933016;95795331;7448927853;142568864;328499679;521;0;1056000;0;3491;12247
2;68;1572964150103;1572964157415;7312;18434972948;42344625345;233198580;97673909;7451021681;142584350;328019472;529;12;1056584;-5;3449;12904
2;69;1572964157415;1572964164458;7043;18413440576;42337439553;239877965;96556202;7448941048;142535460;328728981;523;0;1056000;5;3427;13080
2;70;1572964164458;1572964171883;7425;18454626154;42337644335;240205004;97843978;7449034128;142568452;328982499;657;52;1067960;0;3843;18529
2;71;1572964171883;1572964179576;7693;18442754456;42345426581;244270568;97640528;7451086571;142690849;329885560;524;0;1056000;0;3520;11850
2;72;1572964179576;1572964186796;7220;18408689736;42337946643;235844748;97473973;7449269782;142563888;328396429;533;9;1056584;-1;3396;12569
2;73;1572964186796;1572964193825;7029;18433808014;42333648382;231864279;97313033;7447678811;142306907;327773407;525;0;1055984;1;3482;13440
2;74;1572964193825;1572964201374;7549;18454376640;42345786761;239895736;97528433;7451148549;142677029;328923696;659;44;1067656;-5;3895;21489
2;75;1572964201375;1572964208405;7030;18401894020;42345937651;228373195;95599944;7451371563;142507032;327325970;527;0;1060096;3;3523;11982
2;76;1572964208405;1572964216029;7624;18492177354;42337124118;246319560;97823829;7448975076;142673371;329884131;539;6;1052504;2;3437;13375
2;77;1572964216029;1572964223487;7458;18482709254;42338975561;241406009;98357742;7449311897;142560399;329307121;784;48;1077944;5;5100;44244
2;78;1572964223487;1572964231008;7521;18471144156;42348979761;237523471;97606825;7452236447;142644206;328672854;832;17;1093296;-7;5590;30875
2;79;1572964231008;1572964238098;7090;18423988492;42341822348;231448474;97251418;7450122072;142463440;327598133;529;0;1051904;2;3392;12491
2;80;1572964238098;1572964245678;7580;18547984832;42344690927;245238406;98943865;7450908853;142660477;329838802;543;13;1056784;0;3791;14633
2;81;1572964245678;1572964253557;7879;18515650504;42331989444;242161553;99874608;7447292847;142485761;329447703;532;0;1056000;0;3650;14535
2;82;1572964253557;1572964261129;7572;18531020070;42335292145;245037686;99112925;7448231511;142644423;329935995;753;58;1070808;-5;4346;31201
2;83;1572964261129;1572964268289;7160;18478431600;42334024172;241961050;97029697;7448072048;142478444;329484513;532;0;1056000;5;3489;12550
2;84;1572964268289;1572964275680;7391;18451413132;42336917773;241383378;97366380;7448706692;142513303;329234022;544;11;1056592;0;3475;13382
2;85;1572964275680;1572964282760;7080;18432518250;42339943578;234383614;96330567;7449718220;142512259;328076968;536;0;1056000;0;3370;13441
2;86;1572964282760;1572964290083;7323;18429183318;42339148539;238218442;97078103;7449299299;142538602;328712616;670;61;1072096;0;3984;22055
2;87;1572964290083;1572964297272;7189;18446368686;42336348237;243881598;95980701;7448665946;142629551;329574678;535;0;1055992;0;3519;12516
2;88;1572964297272;1572964304671;7399;18434727084;42347345767;233747598;96826086;7451694630;142625167;327409488;546;11;1056608;0;3412;12950
2;89;1572964304671;1572964312113;7442;18372872578;42336466842;233420625;96363204;7448621344;142387889;326895413;535;0;1055992;-1;3363;13076
2;90;1572964312113;1572964319406;7293;18436920734;42341283119;238464997;96985541;7449933653;142507251;327758815;641;39;1066928;1;3873;18997
2;91;1572964319407;1572964327224;7817;18492465704;42342782530;240618330;98435605;7450497302;142700475;328054728;546;9;1056584;-5;3555;12691
2;92;1572964327224;1572964334336;7112;18438877280;42344597443;236369508;97392898;7450948858;142661395;327293678;536;1;1056000;0;3404;13109
2;93;1572964334336;1572964341424;7088;18428606764;42335378534;238177408;97539991;7448358432;142532929;328836503;550;9;1056592;5;3446;13707
2;94;1572964341424;1572964348913;7489;18437493930;42336852312;241818948;97405350;7448911662;142602080;329259519;637;38;1066960;0;3818;19650
3;46;1572964810152;1572964817448;7296;18070237354;42007258993;235820340;99554236;7455210857;142557867;327438953;612;43;1036624;16;3499;16895
3;47;1572964817449;1572964825459;8010;18082809560;42003331126;243527086;99342565;7454169061;142610782;329043218;527;0;1087696;-21;3778;14705
3;48;1572964825459;1572964833287;7828;18071298482;42009961646;241725640;99696842;7456123698;142696933;328386248;523;8;1056592;5;3538;12498
3;49;1572964833287;1572964840477;7190;18042373254;42001653582;237904305;98942730;7453863789;142494085;327604658;510;0;1056000;0;3401;12578
3;50;1572964840478;1572964847834;7356;18008155526;42007730273;237320933;98301065;7455411477;142527483;327648538;527;7;1056608;-5;3459;13068
3;51;1572964847834;1572964855170;7336;17979021664;42005833796;233251826;97950751;7454658120;142572479;327086990;626;32;1066832;5;3858;18351
3;52;1572964855170;1572964863355;8185;18159673012;41991469558;254511777;101090198;7450199048;142820640;330250847;527;12;1056776;0;3521;12487
3;53;1572964863355;1572964871070;7715;18058384052;41997442779;236887372;98245778;7451768567;142653502;326959529;514;0;1056000;-5;3433;12811
3;54;1572964871071;1572964878689;7618;18078858654;41991561334;244939700;98366680;7450195167;142750201;328404501;602;44;1064496;45;3627;15758
3;55;1572964878689;1572964885810;7121;18011446074;41989975353;244981055;96811830;7449205916;142711808;328404173;559;0;1062128;-41;3838;16637
3;56;1572964885810;1572964893159;7349;17984297374;41995694170;236428757;96978695;7450917591;142707900;327077512;516;0;1053440;1;3464;12171
3;57;1572964893159;1572964900411;7252;18038319272;41988584583;233679301;97393926;7449027818;142559268;326370971;530;7;1056584;0;3441;12618
3;58;1572964900411;1572964908004;7593;17975155292;41996320153;228202591;97259183;7451063626;142552033;325447058;518;0;1056000;-5;3453;13056
3;59;1572964908004;1572964915464;7460;18092546300;41987540125;247803502;99084095;7448687459;142659916;328664477;651;40;1067592;5;3961;19396
3;60;1572964915464;1572964922476;7012;18040193912;41988705234;233793593;97303025;7449249982;142577422;326443889;519;0;1056000;-5;3474;11943
3;61;1572964922476;1572964930178;7702;18091794838;41992106766;244354582;99240002;7449958318;142753967;328319061;529;8;1056592;0;3475;13259
3;62;1572964930178;1572964937434;7256;18045352676;41988056354;233256977;97680454;7448864737;142572900;326281157;518;0;1056000;4;3427;12814
3;63;1572964937434;1572964945393;7959;18095974672;42001675632;243064439;99030891;7451689209;142768386;328693637;644;48;1068240;1;3879;22707
3;64;1572964945393;1572964952761;7368;18094307206;41990911212;243274563;97969795;7449666956;142549617;328952805;522;0;1056000;-5;3504;11965
3;65;1572964952761;1572964959925;7164;18013961362;41989554743;235998938;96344135;7449290147;142494152;327682951;530;11;1056600;5;3413;13065
3;66;1572964959925;1572964967837;7912;17982884386;41985062006;232733568;97423607;7448173997;142545768;326916876;523;0;1055984;-3;3415;12943
3;67;1572964967837;1572964974995;7158;18035951152;41986679668;233302507;97428848;7448315610;142440601;327069437;646;38;1067880;-2;4021;25946
3;68;1572964974995;1572964982348;7353;18063841824;41993408545;244658785;98389574;7450421894;142705947;328555211;523;0;1056000;5;3524;12127
3;69;1572964982348;1572964989202;6854;18002543870;41986201478;233381449;97152447;7448318665;142480261;326751249;533;11;1056600;-5;3484;13610
3;70;1572964989202;1572964996358;7156;18051422188;41986495182;233766691;98279783;7448439941;142476343;326944293;524;0;1056000;0;3441;13195
3;71;1572964996359;1572965003733;7374;18050312296;41994157463;236151108;97830451;7450457481;142576812;327059418;666;42;1068136;5;3959;28166
3;72;1572965003733;1572965011249;7516;18070159536;41986686455;237375471;98240998;7448648401;142579161;327540309;524;0;1056000;-5;3527;11390
3;73;1572965011249;1572965018303;7054;18090198182;41982459843;247880129;97945271;7447109326;142484527;329401056;537;14;1056768;5;3459;12739
3;74;1572965018303;1572965025720;7417;18084041508;41994677100;241156553;98367892;7450575803;142725053;328171203;792;42;1073960;8;5191;67965
3;75;1572965025720;1572965033017;7297;18116110554;41993514102;245189275;99224308;7450422812;142651032;328730858;829;7;1093584;-8;5760;44157
3;76;1572965033017;1572965040086;7069;18041869992;41985887496;233398760;97865468;7448353517;142518070;327009737;526;0;1056000;0;3433;12896
3;77;1572965040086;1572965047502;7416;18101713932;41987824525;238436138;98805217;7448727417;142434591;327852763;539;9;1056608;0;3480;13598
3;78;1572965047502;1572965054855;7353;18051536944;41997664319;240798919;97042946;7451604294;142612514;328058313;647;40;1069008;-5;3785;21254
3;79;1572965054855;1572965062179;7324;17996560936;41990563348;229450083;96482142;7449510679;142413873;326352165;528;0;1056000;5;3601;11937
3;80;1572965062180;1572965069942;7762;18054393726;41993503307;235053007;98198984;7450305779;142546498;327490209;610;14;1057408;0;3917;19322
3;81;1572965069942;1572965077282;7340;18011137576;41980752567;236111179;97269522;7446680458;142393316;327319011;529;0;1056000;0;3433;13105
3;82;1572965077282;1572965084006;6724;18009665166;41983970037;228681198;96766024;7447583871;142355157;326201192;667;56;1043408;7;3764;27156
3;83;1572965084006;1572965091585;7579;18062497310;41982839577;236387717;97912744;7447479525;142417795;327689720;548;0;1081056;-7;3749;15572
3;84;1572965091585;1572965098627;7042;18065028950;41985674908;242137481;97403361;7448100180;142512788;328465724;540;11;1056584;0;3498;12643
3;85;1572965098628;1572965105651;7023;18004619406;41988793547;231767613;96664160;7449126021;142458694;326466776;536;0;1056000;0;3421;13064
3;86;1572965105651;1572965112871;7220;18048256178;41987911933;242164406;97630766;7448696162;142540384;328576535;554;4;1056640;0;3479;13660
3;87;1572965112871;1572965120381;7510;18077357190;41985122834;240443771;98323322;7448057861;142592380;327988510;695;31;1069128;0;3960;24152
3;88;1572965120382;1572965128055;7673;18101797152;41996077469;240929813;97997251;7451088654;142678799;328265022;542;17;1056768;0;3613;13275
3;89;1572965128055;1572965135372;7317;18034804906;41985318703;236506798;96930633;7448042309;142429123;327718654;536;0;1055992;0;3416;13445
3;90;1572965135372;1572965142901;7529;18106851526;41991960227;242390224;98674039;7449640590;142534318;327853680;548;10;1056600;0;3412;13799
3;91;1572965142901;1572965150294;7393;17982149714;41990884471;226912850;96608752;7449667813;142432210;324893421;705;16;1067464;-4;4046;30522
3;92;1572965150294;1572965157702;7408;18070462632;41993478836;232203340;98682514;7450365115;142564269;325829151;549;11;1056592;-1;3545;12800
3;93;1572965157702;1572965165291;7589;18139730872;41983238899;246400234;99189198;7447616142;142646293;328374345;535;0;1056000;0;3425;13176
3;94;1572965165291;1572965172582;7291;18087961316;41985651605;238634507;98600174;7448286025;142514822;326823113;549;11;1056600;0;3539;14501
3;95;1572965172582;1572965179596;7014;17993925928;41993864634;227242293;96764998;7450212791;142431537;324663556;689;38;1068016;0;4267;39763
4;46;1572965644254;1572965651578;7324;18170509570;42221277612;235952602;97730142;7458949977;142789787;327559090;618;53;1067496;-2;3792;15036
4;47;1572965651578;1572965658887;7309;18147424196;42217521649;236398887;96912682;7457942055;142608531;327455748;510;0;1056000;5;3543;11210
4;48;1572965658887;1572965665813;6926;18135287800;42223973136;237273310;96383029;7459854827;142672549;327488015;518;12;1056584;0;3472;12471
4;49;1572965665813;1572965673406;7593;18202667238;42215696081;235157656;98830940;7457608800;142677867;327098022;511;0;1056000;-5;3391;12817
4;50;1572965673406;1572965680686;7280;18091197698;42221835282;231143171;96313016;7459175625;142575894;326629281;636;54;1068536;0;3874;22639
4;51;1572965680686;1572965688513;7827;18139473474;42219860345;236268765;97139149;7458397713;142816144;327148409;512;0;1056000;0;3542;11019
4;52;1572965688514;1572965696030;7516;18142399752;42204994921;236545111;96613132;7453784244;142661621;326719458;520;9;1056584;5;3463;12026
4;53;1572965696030;1572965704501;8471;18241623104;42211971322;253544487;98310889;7455699102;143066848;329930748;513;0;1056008;0;3453;12838
4;54;1572965704501;1572965711937;7436;18139210090;42204585791;240174666;95687954;7453899043;142786128;327651921;647;45;1070864;-1;3898;20632
4;55;1572965711937;1572965719145;7208;18153367564;42202964140;244445430;95123193;7453022262;142697480;328348450;510;0;1053440;-4;3523;11144
4;56;1572965719145;1572965726598;7453;18133092106;42208252464;235508476;95403784;7454648265;142817501;326893696;525;9;1056576;4;3454;12412
4;57;1572965726598;1572965734329;7731;18194295306;42201352682;235527057;97708543;7452804195;142788200;326742929;516;0;1055992;1;3409;12722
4;58;1572965734329;1572965741863;7534;18190589534;42208778482;240355184;96633172;7454780177;142861422;327407107;613;59;1066048;1;3958;25842
4;59;1572965741864;1572965748932;7068;18108669226;42200003589;236198734;94443213;7452377961;142605167;326674711;519;0;1058368;-1;3665;11272
4;60;1572965748932;1572965756512;7580;18124052808;42201158921;240390575;95903521;7452956860;142801424;327695078;517;0;1056000;-5;3462;12499
4;61;1572965756513;1572965763965;7452;18179413964;42204510571;246643807;96217455;7453650444;142837879;328923612;529;13;1056760;5;3423;12741
4;62;1572965763965;1572965771382;7417;18134817388;42200467200;239943631;95854737;7452561330;142746600;327547293;518;0;1056000;0;3416;12830
4;63;1572965771382;1572965778948;7566;18173719526;42204792999;246198406;96501662;7453746366;142933493;328575777;627;51;1067312;0;3830;18201
4;64;1572965778949;1572965786902;7953;18171396520;42203647041;242110870;96834178;7453422913;142803390;327778645;519;0;1056000;0;3452;12299
4;65;1572965786902;1572965794374;7472;18189786534;42202097140;241631694;97361637;7453013619;142728899;327584154;532;8;1056584;0;3411;12983
4;66;1572965794375;1572965801963;7588;18253599630;42197612958;240103109;98232134;7451920222;142699542;327086707;519;0;1055984;0;3446;13134
4;67;1572965801963;1572965809851;7888;18196726936;42199060891;242353402;97410817;7452032667;142758427;328097660;643;46;1067752;0;3895;16036
4;68;1572965809851;1572965816828;6977;18086364806;42206103075;228550424;94588556;7454184542;142631225;325970801;521;0;1056000;0;3451;12324
4;69;1572965816828;1572965824369;7541;18182044300;42198768469;240230698;97017011;7452063875;142797877;327512047;530;12;1056576;0;3438;13074
4;70;1572965824370;1572965831390;7020;18099806442;42199072581;229718356;94997729;7452177315;142618425;325839006;522;0;1056000;-5;3364;12696
4;71;1572965831390;1572965838441;7051;18160268400;42206823817;231344692;95980483;7454214245;142696041;326202216;632;46;1067776;1;4003;17580
4;72;1572965838441;1572965845509;7068;18134223752;42199316798;239135873;95918963;7452396649;142763106;327383030;524;0;1056000;4;3541;12203
4;73;1572965845509;1572965852802;7293;18194686440;42195071672;243098669;97461333;7450848091;142610766;327857513;534;10;1056560;0;3461;13310
4;74;1572965852803;1572965860469;7666;18255469744;42207175387;247880993;97847666;7454295289;142933789;328476883;527;0;1056000;-5;3429;13514
4;75;1572965860469;1572965867743;7274;18206923430;42205976139;236496277;97136486;7454108762;142750368;327007339;643;44;1068088;5;3864;15957
4;76;1572965867743;1572965874980;7237;18262468254;42198482695;240998866;98369730;7452092412;142734678;327343177;636;42;1063960;3;3790;21007
4;77;1572965874980;1572965882846;7866;18256366476;42200364750;246467158;98634486;7452451468;142851886;328752823;975;17;1103896;-3;6615;40595
4;78;1572965882846;1572965890206;7360;18202257124;42210304950;228075603;96937256;7455355854;142697694;325307514;531;0;1056000;0;3421;13058
4;79;1572965890206;1572965897597;7391;18205643740;42203176338;233783361;97632122;7453259634;142644011;326753317;543;10;1056616;0;3460;13767
4;80;1572965897597;1572965904587;6990;18202576572;42206183721;239505990;96875312;7454072664;142682831;327458415;531;0;1056000;0;3393;13139
4;81;1572965904587;1572965912321;7734;18241739758;42193362406;247531652;97802983;7450437082;142707342;328175247;730;58;1071768;0;4251;29518
4;82;1572965912322;1572965919710;7388;18159693744;42196689471;238813068;96236314;7451375551;142657276;327206420;535;0;1056000;-5;3521;12212
4;83;1572965919710;1572965926580;6870;18168144224;42195374172;236479334;95589371;7451193694;142606715;326833979;542;13;1056616;5;3472;13625
4;84;1572965926580;1572965933742;7162;18143077338;42198294845;237083748;96264977;7451841016;142620767;326890721;534;0;1056000;0;3425;13396
4;85;1572965933742;1572965941218;7476;18177281196;42201328701;244827370;97239999;7452866142;142781239;328098068;637;64;1068816;0;3821;15239
4;86;1572965941218;1572965948917;7699;18209351556;42200521215;243596822;96733469;7452450312;142730049;328408852;529;2;1056000;0;3521;12248
4;87;1572965948918;1572965956039;7121;18104872204;42197627716;231800125;94936548;7451760584;142665187;326041685;535;0;1055992;-4;3417;13239
4;88;1572965956039;1572965963438;7399;18149502798;42208593228;229619275;95637034;7454793339;142649063;325873124;546;11;1056616;4;3437;13496
4;89;1572965963439;1572965970537;7098;18155702834;42197806233;233466080;96630877;7451739643;142577768;326320178;644;38;1066888;0;3862;19765
4;90;1572965970537;1572965977807;7270;18231755110;42202746430;234843300;97899407;7453101156;142609883;326386739;551;12;1056720;0;3586;12761
4;91;1572965977807;1572965985121;7314;18202450720;42203455022;239338151;98135894;7453405498;142772536;327303467;536;0;1055992;0;3391;13046
4;92;1572965985121;1572965992016;6895;18178329476;42206059750;231663707;96738952;7454095317;142705232;326086342;546;8;1056608;0;3454;14147
4;93;1572965992016;1572965999629;7613;18219875966;42195848956;237857327;97725940;7451349833;142687235;326956070;634;41;1069968;0;3994;21918
4;94;1572965999630;1572966007566;7936;18259660674;42198310906;244167669;98486127;7452049436;142756911;327894102;547;11;1056576;0;3578;12274
4;95;1572966007566;1572966014599;7033;18235178080;42206390874;238104024;97690095;7453944883;142737078;327171966;542;0;1056000;0;3435;13042
