0;16;1572976778299;1572976786892;8593;17896800450;42317162200;233754795;87357622;7375445177;142547121;324472466;817;0;1719736;-17;8594;1234356
0;17;1572976786892;1572976805700;18808;17900587836;42321902744;232246421;87441336;7376933334;142588851;324272648;1845;36;3675448;13;18808;2455426
0;18;1572976805700;1572976813466;7766;17905459126;42321351996;234312078;87406372;7376711236;142517585;324142008;722;0;1510400;-18;7765;1111530
0;19;1572976813466;1572976822230;8764;17903347236;42304459081;232987119;85858168;7374909428;142663355;324005036;912;37;1672088;8;8765;1258546
0;20;1572976822230;1572976831767;9537;17875983624;42292300224;232905469;87233010;7372159734;142573332;324638601;903;1;1886136;-6;9537;1369998
0;21;1572976831767;1572976850257;18490;17869636274;42293856215;231711344;86318855;7372660411;142641101;324393309;1814;28;3562904;6;18490;2453410
0;22;1572976850257;1572976857853;7596;17873018072;42293256969;232613801;86744218;7372345222;142638886;324403255;723;0;1507520;13;7596;1091986
0;23;1572976857853;1572976865792;7939;17873023328;42285226889;232285667;87286895;7370126831;142704359;324375385;890;51;1519648;8;7939;1150874
0;24;1572976865792;1572976874156;8364;17873298684;42291603648;233416980;86400448;7371784834;142671669;324454488;813;2;1692304;-12;8364;1210539
0;25;1572976874156;1572976893483;19327;17874087814;42293708383;234748948;86355584;7372360186;142673648;324562611;1824;2;3782200;6;19326;2700089
0;26;1572976893483;1572976902471;8988;17880922366;42295956186;232468326;87267316;7373056726;142653689;324537947;978;45;1731488;-2;8989;1296815
0;27;1572976902472;1572976910515;8043;17893248270;42289577979;233810335;87270188;7371459911;142562063;324522915;749;1;1552320;-13;8043;1153589
0;28;1572976910515;1572976919019;8504;17887374106;42291592719;232602540;86685156;7372204677;142600079;324380906;830;2;1717864;2;8505;1212887
0;29;1572976919019;1572976938243;19224;17882747804;42293399157;233080911;85853338;7372391399;142613483;324511705;1971;41;3798472;-10;19224;2690359
0;30;1572976938244;1572976945361;7117;17877318648;42295372860;231989360;85088261;7373011332;142649673;324616086;658;0;1353376;4;7117;1016061
0;31;1572976945361;1572976953130;7769;17887709614;42293857453;232212678;86504329;7372514680;142603572;324548170;748;2;1533744;20;7770;1112181
0;32;1572976953131;1572976960409;7278;17885375950;42294412128;233474387;86246987;7372620067;142555894;324607582;799;62;1381216;2;7279;1046519
0;33;1572976960409;1572976970570;10161;17893082560;42297856332;232756978;85895734;7373668755;142684342;324481001;991;2;2033640;1;10161;1456942
0;34;1572976970570;1572976988221;17651;17885780224;42291613500;231398949;86617950;7372157030;142652544;324408097;1693;2;3448824;-24;17650;2303406
0;35;1572976988221;1572976996174;7953;17891168792;42300877321;231643555;86324897;7374548286;142800011;324785267;894;79;1523056;-3;7954;1165524
0;36;1572976996174;1572977004096;7922;17887710636;42293964516;231694224;86783736;7372647363;142726811;324559004;747;2;1525576;21;7923;1135712
0;37;1572977004097;1572977012731;8634;17893801902;42292280957;232823219;86834233;7372408638;142696957;324595364;855;0;1733376;-23;8633;1237514
0;38;1572977012731;1572977032012;19281;17886262316;42293762088;231831370;86808172;7372515240;142640472;324418978;1981;43;3813640;3;19281;2689781
0;39;1572977032012;1572977039966;7954;17889235606;42295873752;232185187;86674542;7373137496;142669464;324592453;745;1;1514184;23;7954;1142860
0;40;1572977039966;1572977048022;8056;17892780778;42298840558;231952852;87081600;7373918539;142707316;324600746;790;2;1610232;-22;8057;1158571
0;41;1572977048023;1572977056670;8647;17891967558;42292268819;233294489;86938336;7372244433;142684049;324656072;933;51;1668040;4;8648;1249629
0;42;1572977056670;1572977076467;19797;17880336322;42294122807;231610529;85402495;7372736697;142786127;324639359;1933;0;3880496;-27;19796;2646217
0;43;1572977076467;1572977084131;7664;17890963808;42300758902;232611611;86619675;7374294078;142692043;324741418;842;76;1495000;21;7665;1096219
0;44;1572977084131;1572977092098;7967;17903483746;42301655177;233402886;87351263;7374666398;142684258;324754702;768;1;1543248;0;7967;1144302
0;45;1572977092098;1572977099714;7616;17890539678;42298046961;232616673;86458565;7373768834;142776493;324719078;748;0;1495776;20;7626;1095606
0;46;1572977099724;1572977110357;10633;17891783160;42297053860;233085691;86536602;7373408554;142761296;324585775;1049;2;2094976;7;10633;1524073
0;47;1572977110357;1572977128255;17898;17878161068;42293131301;232315076;85838701;7372356349;142578132;324495075;1832;45;3494128;-29;17897;2457016
0;48;1572977128255;1572977136683;8428;17903689314;42299609400;232808913;87583053;7374272244;142673380;324525949;834;2;1655360;30;8428;1210086
0;49;1572977136683;1572977144773;8090;17890519676;42291465677;232977785;87113905;7372067750;142700970;324668960;1001;44;1336216;-11;8091;1181521
0;50;1572977144773;1572977156419;11646;17886266988;42297619917;233395648;85961578;7373648441;142794809;324825009;1254;16;2082072;11;11646;1672290
0;51;1572977156420;1572977176237;19817;17888713364;42295515030;232685830;86152001;7372827543;142715704;325053269;2121;87;3814584;-10;19592;2384238
0;52;1572977176237;1572977184251;8014;17885458440;42280999392;231353028;87050837;7368313115;142666459;324878985;782;5;1536832;-14;8014;1149232
0;53;1572977184251;1572977192103;7852;17873712886;42287137642;230460100;86096323;7369932915;142796535;324492374;798;4;1553808;3;7853;1135224
0;54;1572977192104;1572977200436;8332;17859172016;42281552241;231409874;86551212;7368441216;142778998;324324132;838;3;1644312;-5;8332;1191022
0;55;1572977200436;1572977217765;17329;17855664074;42278939741;231354691;85794917;7367412534;142700412;324279678;1860;63;3385352;19;17329;2472604
0;56;1572977217765;1572977226018;8253;17861832136;42285097604;230167458;86163992;7369220333;142809920;324325236;814;4;1575736;-14;8254;1186407
0;57;1572977226018;1572977233645;7627;17837292748;42277288104;230014338;84976929;7367180781;142646582;324139851;773;2;1509512;-5;7626;1093900
0;58;1572977233645;1572977242640;8995;17849644786;42286406077;231134526;84505619;7369434434;142871975;324577349;1002;47;1747808;-2;8995;1301132
0;59;1572977242640;1572977262287;19647;17848618698;42276276228;232122142;85537744;7366833125;142699589;324656837;1981;9;3823584;7;19648;2748873
0;60;1572977262287;1572977270063;7776;17847534210;42277546439;231711496;85526161;7367434512;142689296;324643663;945;62;1524312;13;7775;1149193
0;61;1572977270063;1572977278596;8533;17855719846;42280827927;231945059;86019312;7368092367;142720125;324701923;850;5;1637384;-18;8533;1223002
0;62;1572977278596;1572977286148;7552;17847390838;42276803686;231692501;85455070;7367031961;142694227;324610773;787;2;1518088;13;7553;1084511
0;63;1572977286148;1572977296150;10002;17847042190;42280914592;230978126;85185065;7368151996;142736100;324628736;1029;5;1987720;-5;10001;1438958
0;64;1572977296150;1572977313974;17824;17842251930;42279555958;231103297;85761698;7367804830;142597012;324593154;1915;51;3442744;16;17824;2512495
0;65;1572977313974;1572977322060;8086;17845453564;42278361010;231218215;85773974;7367472114;142632507;324625910;831;4;1585848;1;8086;1159442
1;14;1572977645846;1572977654013;8167;17945856012;42501685544;237280198;86875033;7446342785;142453894;323269145;734;0;1546688;2;8168;1174279
1;15;1572977654013;1572977662800;8787;17948281656;42506431141;236846861;86990127;7447605757;142534605;323317818;832;1;1741608;0;8787;1260387
1;16;1572977662800;1572977682514;19714;17933932192;42497965162;236721725;86115146;7445271980;142387143;323492800;1954;30;3913712;-63;19640;2482896
1;17;1572977682514;1572977690636;8122;17942371430;42503023781;236229117;86924506;7446834206;142502442;323431270;730;2;1523088;68;8123;1093537
1;18;1572977690637;1572977698596;7959;17947337036;42502160038;236567553;87051481;7446525986;142473515;323348864;758;0;1594752;10;7959;1138981
1;19;1572977698596;1572977706788;8192;17934679858;42511863921;237223135;87260983;7448706582;142657279;323326080;860;48;1588696;-15;8193;1175617
1;20;1572977706788;1572977726848;20060;17924949542;42501645906;236649871;84425680;7446247607;142477342;322807282;1887;1;3940296;-69;20060;2713358
1;21;1572977726848;1572977735631;8783;17931400260;42502791935;236833009;87533596;7446666904;142603329;323135463;913;75;1707608;69;8783;1142390
1;22;1572977735631;1572977743631;8000;17922836776;42502300520;236112460;87229017;7446383149;142482574;323182995;721;0;1498688;15;8000;1148276
1;23;1572977743631;1572977752108;8477;17917114014;42494279287;235770443;87202937;7444179254;142439265;323085701;893;54;1628904;-17;8476;1218635
1;24;1572977752108;1572977762331;10223;17910905218;42500387304;236106565;85955440;7445747907;142384084;323086154;939;3;1953744;22;10224;1469668
1;25;1572977762331;1572977779270;16939;17923776578;42502748734;235453481;87109807;7446407860;142520290;323055989;1747;78;3332088;-18;16938;2350523
1;26;1572977779270;1572977787515;8245;17931785408;42504880972;235648650;87284447;7447058929;142561051;323274236;792;0;1636992;8;8246;1183316
1;27;1572977787516;1572977795139;7623;17913565922;42498147232;235819722;86295063;7445380117;142399018;323222843;716;0;1465288;-12;7623;1091604
1;28;1572977795139;1572977805704;10565;17911692304;42500527995;235863272;86182203;7446223439;142411916;323166359;1029;1;2129024;-5;10566;1517124
1;29;1572977805704;1572977823773;18069;17916937062;42502034933;237106822;86303618;7446314873;142379592;323179569;1842;40;3539776;2;18069;2192692
1;30;1572977823774;1572977831807;8033;17919806546;42504344592;236061019;86836142;7447043292;142518610;323072213;761;2;1556232;7;8034;1153776
1;31;1572977831808;1572977840096;8288;17921403640;42502623552;235245067;86898757;7446486676;142531924;323043924;804;3;1645872;1;8289;1190994
1;32;1572977840097;1572977849070;8973;17920826210;42503184292;236144807;86842048;7446627129;142514874;323241589;977;48;1732304;12;8973;1303552
1;33;1572977849070;1572977867398;18328;17911882396;42506395576;236232251;85570303;7447582437;142495466;323157185;1761;3;3567784;-21;18329;2424504
1;34;1572977867399;1572977873672;6273;17887952996;42500520487;235428717;82973202;7446197560;142445948;323135346;722;66;1154848;11;6274;910952
1;35;1572977873672;1572977881254;7582;17924847342;42509622678;235197143;86314460;7448538357;142609455;323232817;732;2;1489160;4;7582;1085308
1;36;1572977881254;1572977888848;7594;17917638154;42502744021;235567740;86612677;7446651788;142450911;323225603;721;5;1474312;-17;7595;1090587
1;37;1572977888850;1572977898069;9219;17914686180;42501163601;236487577;86201182;7446439177;142456258;323231719;892;2;1810568;4;9219;1325806
1;38;1572977898069;1572977917031;18962;17917804740;42502489419;235874883;86288622;7446501349;142601697;323314816;1950;46;3633568;19;18800;2298501
1;39;1572977917031;1572977925015;7984;17919721136;42504659843;235500535;86716770;7447140269;142583055;323168165;777;1;1566272;-9;7984;1144321
1;40;1572977925015;1572977933438;8423;17923717594;42507520177;235791107;86778971;7447885078;142444778;323211740;823;7;1660848;9;8422;1211501
1;41;1572977933438;1572977942092;8654;17917428936;42501068801;235767443;86674844;7446254961;142516010;323129334;1012;43;1683856;6;8654;1270163
1;42;1572977942092;1572977960786;18694;17916179030;42502759514;235500214;86279903;7446700545;142532351;323370155;1817;3;3652264;-16;18695;2471403
1;43;1572977960786;1572977970555;9769;17927087712;42509571827;235526370;87001380;7448312897;142519218;323171292;1188;39;1878120;-10;9769;1440177
1;44;1572977970555;1572977978791;8236;17927072236;42510543588;235431608;87325480;7448701532;142540125;323079410;768;1;1548232;0;8236;1181555
1;45;1572977978791;1572977987288;8497;17924442630;42506767039;235585299;86366244;7447747675;142558865;322943668;830;2;1666944;2;8496;1224848
1;46;1572977987288;1572978006483;19195;17920396824;42505634134;235043879;86764371;7447351660;142494987;323231610;2066;37;3768008;16;19195;2601297
1;47;1572978006483;1572978014184;7701;17920203812;42501858574;236402188;86602840;7446343208;142468135;323324808;731;3;1453384;5;7702;1105502
1;48;1572978014184;1572978022077;7893;17922273946;42508463037;236270518;86776635;7448302667;142506861;323339799;788;2;1570880;-20;7893;1131701
1;49;1572978022077;1572978029970;7893;17910709870;42500181031;235595541;86200101;7446054528;142481847;323201985;960;30;1512480;4;7892;1162496
1;50;1572978029970;1572978052684;22714;17925450322;42506365521;237080074;86481518;7447647860;142629204;323103985;2617;51;4005344;-10;22714;3102267
1;51;1572978052684;1572978063707;11023;17931670068;42504143330;235635651;86862794;7446782018;142534968;322850752;1122;9;2164456;15;11024;1470269
1;52;1572978063707;1572978072033;8326;17924889390;42489593032;235507028;86604669;7442265218;142508504;322708767;834;1;1649928;-2;8326;1186290
1;53;1572978072033;1572978080876;8843;17943610970;42495969550;234638401;87675202;7443911688;142690972;322806287;1135;39;1655104;-1;8842;1312231
1;54;1572978080876;1572978098250;17374;17905789670;42490262175;233968170;85278615;7442373602;142534156;323471850;1792;9;3365392;-7;17375;2423659
1;55;1572978098251;1572978106361;8110;17904282220;42488396398;233883515;85848959;7441521638;142544128;322033589;826;7;1605152;20;8111;1159617
1;56;1572978106361;1572978114081;7720;17906108096;42493406979;234138521;85389213;7443094417;142660903;322193294;1026;52;1457992;-6;7720;1160746
1;57;1572978114082;1572978122961;8879;17892074138;42486333319;234160918;85048680;7441225527;142471961;322142079;877;3;1696408;-13;8880;1277608
1;58;1572978122961;1572978143216;20255;17907119438;42493936557;235248895;85120324;7443224580;142698466;322159367;2220;56;3959552;-96;20127;2709299
1;59;1572978143216;1572978151569;8353;17897096246;42485180436;234004471;85710468;7440836358;142447850;321974219;820;6;1577584;115;8353;991784
1;60;1572978151569;1572978159452;7883;17901458434;42486376623;235213676;85929566;7441417854;142496674;321990614;811;5;1574272;-11;7882;1124697
1;61;1572978159452;1572978167727;8275;17901496102;42489708765;234757148;85350460;7442094614;142609718;322013953;860;4;1646536;4;8275;1184087
1;62;1572978167727;1572978176076;8349;17903591202;42485675445;233532242;85773746;7441025935;142518873;322008852;997;50;1592560;-16;8350;1216947
1;63;1572978176076;1572978193695;17619;17892650984;42489966599;234018836;84827920;7442203084;142528245;321946533;1808;16;3457040;26;17619;2439737
2;16;1572978549934;1572978569523;19589;17783377284;42536846545;222103286;86783985;7370183778;142428026;325635085;1956;42;3857248;8;19589;2562904
2;17;1572978569523;1572978577628;8105;17782573408;42541897507;221536108;86650403;7371770134;142495352;325651000;738;2;1533712;-1;8105;1160524
2;18;1572978577628;1572978585689;8061;17803820934;42541016424;222089630;87423977;7371445003;142508077;325747985;768;0;1602880;4;8061;1161671
2;19;1572978585689;1572978594099;8410;17800440012;42551544332;221885687;86751233;7373761661;142499279;325501122;903;62;1630616;-2;8410;1209988
2;20;1572978594099;1572978614158;20059;17794788644;42540500330;222041932;87171141;7371140814;142486126;325420304;1902;0;3953712;-63;20059;2655762
2;21;1572978614158;1572978622788;8630;17822167878;42541882953;221003053;86002027;7371661794;142508472;325056246;905;69;1626104;65;8630;1155432
2;22;1572978622788;1572978630340;7552;17801767444;42541312690;222082650;87364483;7371335900;142343935;325583374;732;0;1512704;6;7552;1087517
2;23;1572978630340;1572978638599;8259;17794755064;42533180913;221517473;87146294;7369110047;142385801;325411225;833;53;1579464;5;8259;1186475
2;24;1572978638599;1572978658741;20142;17789437014;42539399069;221540619;85475899;7370711873;142430427;325501436;1906;1;3943160;-113;20142;2800636
2;25;1572978658741;1572978667672;8931;17798870220;42541615627;221522707;86993738;7371330819;142425428;325573300;945;65;1712880;86;8931;1109238
2;26;1572978667672;1572978675579;7907;17804836802;42543804420;222021764;87260942;7371972357;142488782;325604275;748;1;1548416;20;7907;1136650
2;27;1572978675579;1572978683411;7832;17792016104;42537200407;221849797;86692657;7370346292;142332969;325530104;751;1;1552016;-15;7832;1126859
2;28;1572978683411;1572978691547;8136;17801022552;42539240831;222123206;86895784;7371085553;142390428;325532071;780;1;1609336;20;8136;1164770
2;29;1572978691547;1572978709951;18404;17796966672;42541288782;220682640;86710811;7371340252;142326047;325523716;1846;53;3628672;-19;18404;2603699
2;30;1572978709951;1572978718024;8073;17805780546;42543378579;221794946;86774004;7372000681;142549803;325522816;752;4;1550792;16;8073;1160785
2;31;1572978718025;1572978725618;7593;17793880232;42541347186;220943292;86328075;7371357823;142398311;325500595;740;2;1509936;-4;7594;1088245
2;32;1572978725618;1572978735469;9851;17788982516;42542090737;220640535;86541802;7371551781;142325306;325615835;1018;52;1925936;2;9851;1432586
2;33;1572978735469;1572978753996;18527;17795505650;42545299629;221506697;86095840;7372516626;142360433;325625372;1771;3;3630856;4;18527;2591499
2;34;1572978753996;1572978761479;7483;17794358236;42539507769;221378725;86134237;7371153589;142417962;325537512;816;50;1438208;3;7483;1074646
2;35;1572978761479;1572978768947;7468;17797187570;42548402260;221092321;86043998;7373425238;142470584;325710372;711;0;1450880;-5;7468;1072051
2;36;1572978768947;1572978777975;9028;17796846660;42541702728;220332757;86468344;7371590257;142415061;325639583;869;0;1769992;-5;9028;1289934
2;37;1572978777976;1572978797681;19705;17802278006;42540010781;221832597;86419313;7371346791;142360401;325728897;2020;49;3863904;-74;19706;2655755
2;38;1572978797681;1572978805519;7838;17800526006;42541282537;221867856;86587946;7371395420;142411091;325427680;732;1;1484872;67;7838;1039508
2;39;1572978805519;1572978812820;7301;17800211814;42543380168;221243882;86329676;7372010613;142473460;325452652;720;1;1453184;16;7301;1047554
2;40;1572978812820;1572978820862;8042;17795000782;42546468858;220905802;86064643;7372825037;142347835;325513328;861;55;1543040;5;8042;1153778
2;41;1572978820863;1572978830886;10023;17796709858;42539937121;220295620;86453215;7371163098;142472325;325680204;1012;1;2046272;-20;10024;1444398
2;42;1572978830886;1572978849050;18164;17789119756;42541734572;220800195;85698219;7371659297;142444030;325756729;1737;1;3474144;-7;18040;2194803
2;43;1572978849050;1572978856736;7686;17798194386;42548193295;220293847;86751602;7373161667;142451656;325563536;865;55;1525520;16;7686;1110221
2;44;1572978856736;1572978864542;7806;17807827612;42550237274;221731545;86515856;7373780522;142511540;325790228;726;1;1463944;10;7806;1118154
2;45;1572978864542;1572978873010;8468;17785106654;42546976642;222098301;86703876;7372882618;142436201;325796186;839;2;1682944;-7;8468;1225116
2;46;1572978873010;1572978891696;18686;17758183670;42507017970;221405424;85765635;7365953021;142361858;325443137;1961;42;3709232;3;18686;2682109
2;47;1572978891696;1572978899399;7703;17762049896;42503109883;221451289;86478861;7364902636;142289979;325460104;726;2;1444320;-22;7703;1103191
2;48;1572978899399;1572978907961;8562;17772199816;42509764128;223452484;86534687;7366870363;142364096;325632013;855;2;1698472;9;8562;1232839
2;49;1572978907961;1572978915783;7822;17755415218;42501465262;221077308;86084706;7364620442;142326659;325462500;892;47;1538944;-9;7822;1145540
2;50;1572978915783;1572978935659;19876;17755224688;42507631132;221178869;85875137;7366200952;142322893;325461367;1980;8;3899096;-45;19876;2830027
2;51;1572978935659;1572978943755;8096;17769108266;42505644917;222578283;87177887;7365418544;142439923;325456163;907;57;1554592;48;8096;1130368
2;52;1572978943755;1572978951387;7632;17758595974;42494905330;221164164;85946182;7362156454;142378143;325116282;758;3;1496968;11;7632;1089617
2;53;1572978951387;1572978960153;8766;17772921348;42498033807;220327552;87036530;7362653842;142494855;324863746;1050;45;1426464;1;8766;1281142
2;54;1572978960153;1572978981899;21746;17748247348;42490978494;220743221;84406045;7360886424;142548901;324712031;2280;20;4068584;-59;21746;3032313
2;55;1572978981899;1572978990139;8240;17755413758;42489715519;220514978;85846365;7360148303;142365448;324924274;1029;50;1556416;61;8240;1129467
2;56;1572978990140;1572978998395;8255;17760183870;42494608602;219844700;85635710;7361681444;142505328;324739438;821;1;1631248;-21;8256;1181217
2;57;1572978998395;1572979005959;7564;17736043646;42487570432;218664023;84914193;7359822632;142330270;324763661;753;4;1458360;15;7564;1085046
2;58;1572979005959;1572979015274;9315;17751833108;42495262122;220705580;85002675;7361849809;142424037;324721029;947;3;1832480;14;9315;1340758
2;59;1572979015275;1572979034059;18784;17733451124;42486484287;219179552;84124937;7359454424;142218773;324738253;2070;49;3693336;-4;18785;2477103
2;60;1572979034059;1572979042052;7993;17743764126;42487714189;218649957;85208950;7360045664;142383438;324741023;789;3;1541808;-21;7993;1145635
2;61;1572979042052;1572979049719;7667;17745708700;42491053621;218677222;85104135;7360722484;142321709;324719048;792;4;1541744;8;7667;1100399
2;62;1572979049719;1572979058050;8331;17753616644;42487010640;219726582;85717231;7359650590;142381091;324861325;979;43;1607272;12;8331;1215280
2;63;1572979058050;1572979076888;18838;17742249376;42491194847;220557113;84266822;7360794853;142377456;324629904;1908;13;3673416;-18;18838;2607296
2;64;1572979076888;1572979083950;7062;17728787446;42489794623;219226032;83592279;7360447727;142151221;324747431;810;74;1356216;25;7062;1050141
2;65;1572979083950;1572979092092;8142;17744814158;42488601239;219568206;85221339;7360107675;142253438;324638191;811;5;1565304;-10;8142;1169162
3;14;1572979419444;1572979427731;8287;17903417754;42667606556;237563810;88658210;7389530296;142597039;326569552;757;0;1591488;11;8288;1189360
3;15;1572979427731;1572979436125;8394;17897820260;42672160295;236628780;88146959;7390728778;142597240;326757890;794;2;1659496;6;8394;1201805
3;16;1572979436125;1572979445136;9011;17899680592;42663708307;237092807;88674409;7388391415;142413538;326535133;946;45;1759432;0;9011;1297702
3;17;1572979445136;1572979464124;18988;17902359400;42668531225;237030299;88741477;7389892390;142563361;326245122;1780;0;3709160;-22;18987;2387144
3;18;1572979464124;1572979472573;8449;17904766502;42668014772;237536092;88566526;7389686633;142604037;326275761;798;0;1672568;2;8449;1210748
3;19;1572979472573;1572979480652;8079;17924335612;42676353628;236762760;88954428;7391816678;142608537;325917070;864;52;1586584;20;8080;1164410
3;20;1572979480652;1572979490574;9922;17911263940;42666703387;236008358;87905858;7389406267;142431131;325816359;916;0;1922136;-19;9922;1425016
3;21;1572979490575;1572979507338;16763;17932433210;42667927723;236287179;86205003;7389864374;142561398;325443959;1671;64;3261296;7;16763;2291274
3;22;1572979507338;1572979515377;8039;17920035182;42667409804;235969731;88305096;7389560969;142473407;325970770;754;0;1577776;14;8040;1150263
3;23;1572979515377;1572979523299;7922;17910339030;42659290479;236857637;87868265;7387334947;142355947;325946571;829;36;1478264;-3;7922;1155404
3;24;1572979523299;1572979532594;9295;17911257224;42665531425;236224799;87750617;7388942274;142465500;325879689;876;0;1831120;-11;9295;1327318
3;25;1572979532594;1572979551648;19054;17919367378;42667799803;236452925;88039869;7389562096;142510168;326243302;1814;0;3774208;-11;19053;2674062
3;26;1572979551648;1572979559841;8193;17921937270;42673063031;237578037;87943162;7390759657;142536732;326151447;908;60;1610336;-6;8194;1186678
3;27;1572979559842;1572979567584;7742;17909529168;42663543544;236244053;88252486;7388588209;142415694;326011128;712;0;1484672;24;7742;1113821
3;28;1572979567584;1572979575260;7676;17887391334;42665592168;236093895;87419876;7389328100;142444012;326085197;742;0;1539592;-6;7677;1108921
3;29;1572979575260;1572979594575;19315;17879731006;42667413157;235925760;86670174;7389513827;142470740;326134859;1923;48;3813160;-75;19315;2691368
3;30;1572979594575;1572979602588;8013;17899084182;42669522006;236305360;88252599;7390188089;142567448;326146631;743;0;1529480;76;8012;1055453
3;31;1572979602588;1572979610707;8119;17900123994;42667787307;236684098;87944097;7389617228;142495194;325998901;779;1;1609360;-11;8119;1167333
3;32;1572979610707;1572979618182;7475;17896219078;42668356810;237976530;87871447;7389764558;142418736;326189599;789;50;1402000;-4;7476;1072198
3;33;1572979618183;1572979627960;9777;17882402952;42671736480;236766381;86324606;7390772714;142434615;326214116;962;0;1978816;-2;9777;1401222
3;34;1572979627960;1572979646271;18311;17889130778;42665552724;236473162;87109932;7389295140;142541429;326279481;1744;1;3543328;-1;18312;2510335
3;35;1572979646271;1572979653653;7382;17874094822;42674793471;235365435;85552613;7391675077;142539530;326147324;815;51;1401648;23;7382;1066015
3;36;1572979653654;1572979661727;8073;17896486988;42667916929;237238259;88063148;7389792108;142486822;326380490;751;2;1537104;-15;8074;1161754
3;37;1572979661728;1572979669899;8171;17893530342;42666229870;237000359;88030922;7389539607;142573235;326179773;789;1;1614144;11;8172;1172947
3;38;1572979669899;1572979688427;18528;17917283228;42670732961;237305756;88073955;7390096988;142510669;325884123;1919;54;3684008;-45;18528;2419191
3;39;1572979688427;1572979695987;7560;17918310192;42670449841;236609345;87741148;7390306332;142448601;325784058;699;1;1419144;37;7560;1066627
3;40;1572979695987;1572979704332;8345;17926522546;42673378414;239011413;88422025;7391069792;142527218;326047823;816;2;1657920;16;8345;1196472
3;41;1572979704332;1572979712565;8233;17925866860;42666774962;238929063;88304736;7389392454;142571351;325903229;900;48;1588448;-21;8233;1185984
3;42;1572979712565;1572979732549;19984;17914586024;42668677159;237013305;86915389;7389904941;142561152;326097778;1945;4;3903352;-36;19984;2781316
3;43;1572979732549;1572979740579;8030;17920088180;42675347937;237675853;88093628;7391456159;142491825;326031148;921;66;1557768;47;8030;1142042
3;44;1572979740579;1572979748334;7755;17920437558;42676122872;237299213;87908450;7391833634;142468227;325935666;768;3;1552184;0;7755;1113889
3;45;1572979748334;1572979756436;8102;17924267722;42672581305;237478740;88528294;7390926194;142500698;325953603;786;0;1562888;-18;8101;1164058
3;46;1572979756436;1572979766805;10369;17920523990;42671680506;237222214;87759717;7390596279;142595497;325889232;1016;3;2027520;8;10370;1484855
3;47;1572979766806;1572979788822;22016;17912729050;42667533016;236997691;87568113;7389472970;142459636;325792193;2247;43;4243528;11;22017;2807381
3;48;1572979788823;1572979796726;7903;17927662514;42674503133;237719650;88311501;7391529218;142485333;325936667;797;2;1584192;3;7903;1134297
3;49;1572979796726;1572979804667;7941;17916680832;42665950230;237606006;87788678;7389221466;142523054;325817751;892;52;1533664;-9;7942;1153888
3;50;1572979804667;1572979813287;8620;17924572424;42672072840;239033246;88202027;7390777340;142447108;326050874;858;2;1706608;6;8620;1238033
3;51;1572979813288;1572979830192;16904;17919463884;42670182609;237122311;87754913;7390030810;142528431;325857302;1682;5;3310320;-8;16905;2348915
3;52;1572979830192;1572979837985;7793;17916760110;42655673641;234982922;88008781;7385512541;142442853;325745172;886;58;1524464;0;7792;1121584
3;53;1572979837985;1572979847509;9524;17931152352;42662558789;236880050;88433219;7387216965;142780856;325550893;917;2;1799320;13;9525;1369537
3;54;1572979847509;1572979859086;11577;17906355274;42656089086;238108565;86241616;7385399988;142737345;325419987;1454;52;1840616;-10;11577;1670464
3;55;1572979859086;1572979880339;21253;17903698074;42654311562;234837691;86456147;7384555653;142513383;325200460;2114;8;4108040;9;21253;2849518
3;56;1572979880339;1572979888536;8197;17909776054;42660001201;234777400;86939827;7386266168;142583656;325197156;968;58;1577080;2;8197;1196887
3;57;1572979888536;1572979896143;7607;17903814436;42653193628;234864160;86935186;7384443328;142419167;325085772;798;2;1394592;6;7606;1102967
3;58;1572979896143;1572979906268;10125;17904294338;42660532339;234459485;86492518;7386389191;142503974;325186194;1028;4;1991872;-4;10126;1454632
3;59;1572979906269;1572979928687;22418;17905790984;42651803533;234957933;87317494;7384010896;142478528;325168311;2379;77;4321320;-24;22419;3187443
3;60;1572979928687;1572979936509;7822;17901334188;42653022873;233385312;86707507;7384605547;142492250;324832478;797;4;1525880;3;7821;1121585
3;61;1572979936509;1572979944602;8093;17909667722;42656362653;234509998;86920150;7385282828;142523111;325061913;838;7;1622744;-6;8093;1166805
3;62;1572979944602;1572979953510;8908;17900053622;42652249048;234231751;86345796;7384186326;142573240;325179629;1012;58;1726504;14;8908;1279634
3;63;1572979953510;1572979972805;19295;17909627864;42657233981;234935707;87070556;7385512137;142556767;325138812;1961;16;3778264;-1;19296;2477870
4;15;1572980303445;1572980311397;7952;17886196324;42806506218;224926213;88267333;7412540390;142757439;324578509;743;0;1553904;-7;7953;1138757
4;16;1572980311397;1572980320510;9113;17871108246;42797823417;225021577;87400508;7410126890;142566667;324630317;855;0;1805744;9;9112;1310448
4;17;1572980320510;1572980340641;20131;17887378340;42803142149;225068449;88482257;7411767893;142686909;324714524;1996;48;3944888;6;20132;2549053
4;18;1572980340641;1572980348177;7536;17885007738;42802147251;225348676;88004587;7411433855;142619599;324651208;700;0;1469376;4;7536;1082838
4;19;1572980348177;1572980355878;7701;17884354680;42809983068;225351112;87623936;7413472407;142644438;324440876;732;0;1533768;4;7701;1102332
4;20;1572980355878;1572980364338;8460;17887699978;42800831074;227151836;87689227;7411144736;142564138;324212390;866;52;1632792;-5;8459;1218270
4;21;1572980364338;1572980383846;19508;17908817710;42802052984;227404680;86713404;7411606013;142676532;323811401;1833;0;3809768;1;19508;2656112
4;22;1572980383846;1572980392317;8471;17892988974;42801474709;226310918;88208593;7411291830;142564334;324578499;909;62;1675160;4;8471;1237814
4;23;1572980392317;1572980399958;7641;17874093070;42793445623;225653855;87507714;7409079455;142474258;324595571;692;1;1437888;-19;7642;1095626
4;24;1572980399958;1572980407998;8040;17894668412;42799793668;227163950;87874407;7410716898;142629553;324484355;833;45;1554480;21;8040;1155944
4;25;1572980407998;1572980427794;19796;17877337044;42801983094;228308247;86854313;7411299252;142615271;324654128;1883;1;3889560;-49;19796;2667245
4;26;1572980427794;1572980439321;11527;17903116410;42804278394;227078673;88638830;7412015045;142790236;324633851;1188;76;2196592;43;11527;1629441
4;27;1572980439322;1572980447063;7741;17880052498;42797320543;226469733;87539516;7410315936;142458580;324397595;718;0;1482616;-14;7742;1108043
4;28;1572980447064;1572980454451;7387;17873529948;42799634073;226560471;87145218;7411135604;142508660;324406711;722;2;1487432;14;7388;1059594
4;29;1572980454451;1572980472808;18357;17876674204;42801325510;225480835;87042465;7411286247;142442318;324449461;1847;64;3611760;-32;18357;2558637
4;30;1572980472809;1572980480634;7825;17887288258;42803470305;225121279;87771237;7411968363;142661118;324393528;730;1;1499792;34;7825;1110275
4;31;1572980480634;1572980488525;7891;17889995828;42801725393;225783579;88031384;7411409579;142593212;324370514;761;2;1560392;7;7892;1129637
4;32;1572980488525;1572980496502;7977;17892889110;42802330739;226244610;87742316;7411556474;142541159;324453409;847;39;1531456;-11;7976;1151279
4;33;1572980496502;1572980506676;10174;17880836080;42805558459;226008844;86589923;7412523553;142622268;324517595;990;4;2032448;2;10174;1459933
4;34;1572980506676;1572980525815;19139;17890968918;42799617804;225989259;88086337;7411121025;142625122;324445777;1820;5;3687080;8;19024;2433936
4;35;1572980525815;1572980533655;7840;17897588412;42808692276;225852656;87886229;7413455625;142711542;324685270;851;65;1549328;-16;7839;1129592
4;36;1572980533655;1572980541429;7774;17879350530;42801840197;225809130;87316687;7411574342;142517480;324610607;726;1;1467848;10;7776;1116651
4;37;1572980541431;1572980551107;9676;17874611662;42800080263;226021645;86529500;7411298157;142601673;324457300;939;4;1913728;-11;9676;1388344
4;38;1572980551107;1572980568567;17460;17872791334;42801529440;225499490;86586291;7411407041;142577695;324329755;1782;50;3424408;18;17460;2451811
4;39;1572980568567;1572980576551;7984;17895844150;42803742125;226903120;87827316;7412062194;142683440;324378592;763;4;1532960;-27;7984;1144301
4;40;1572980576551;1572980584709;8158;17898399004;42806608845;226250488;87679051;7412798377;142631429;324402926;794;1;1607680;6;8158;1168209
4;41;1572980584709;1572980593781;9072;17886815802;42800260833;225612624;87797696;7411194766;142636959;324486292;990;46;1772040;16;9072;1309831
4;42;1572980593781;1572980613183;19402;17882620930;42801869979;226463854;86659408;7411631823;142631234;324727266;1892;6;3800032;-13;19403;2661030
4;43;1572980613186;1572980621323;8137;17898204532;42808609150;226103521;87708096;7413219141;142666382;324497389;901;64;1580080;13;8139;1172657
4;44;1572980621323;1572980629797;8474;17905567750;42809604049;226252037;88691638;7413616562;142681352;324588095;817;3;1633464;-17;8474;1215843
4;45;1572980629797;1572980637641;7844;17883372100;42805809066;225327529;87194654;7412663466;142622624;324500776;765;6;1536136;3;7845;1126662
4;46;1572980637641;1572980658563;20922;17891213176;42804807936;226441197;87514263;7412308173;142643128;324734267;2192;51;4147840;-73;20872;2691559
4;47;1572980658563;1572980666723;8160;17890890516;42800934011;226240664;88162663;7411269616;142594082;324667073;776;7;1531208;86;8159;1084445
4;48;1572980666723;1572980675048;8325;17894827844;42807328705;226347221;88026734;7413154133;142675801;324599991;820;4;1645824;-20;8325;1199867
4;49;1572980675048;1572980683256;8208;17890403898;42799204624;225365853;87732899;7410958208;142694675;324570126;911;53;1592808;27;8209;1217352
4;50;1572980683256;1572980702884;19628;17878736600;42805469126;225739574;86876178;7412569450;142586620;324586484;1946;13;3859168;-127;19628;2745460
4;51;1572980702884;1572980710770;7886;17895442650;42803426452;226953680;87707509;7411771542;142729593;324653405;1026;67;1246896;99;7886;960429
4;52;1572980710771;1572980720091;9320;17897692656;42788689532;226138100;88312731;7407177611;142698637;324252534;994;17;1636208;11;9320;1338403
4;53;1572980720091;1572980727902;7811;17885985792;42794365867;224623464;87278672;7408731344;142751305;324152998;804;7;1574808;-4;7811;1127913
4;54;1572980727902;1572980737974;10072;17875491020;42790000985;224397885;86377280;7407443498;142737349;324457786;1103;43;1962960;-6;10072;1477906
4;55;1572980737974;1572980756531;18557;17873942690;42787445641;222451257;86892441;7406247064;142636737;325292097;1917;10;3580744;22;18557;2487762
4;56;1572980756531;1572980764120;7589;17871049992;42793217156;222334593;86382068;7407956445;142789051;325290044;772;3;1505848;-4;7590;1083381
4;57;1572980764120;1572980772034;7914;17875419918;42785742013;222542006;86824173;7406005694;142593795;325116230;919;59;1535552;-19;7914;1135513
4;58;1572980772034;1572980783013;10979;17862331456;42793319197;221635537;85082195;7407988083;142656197;325073415;1090;8;2121920;30;10978;1573489
4;59;1572980783013;1572980799843;16830;17840536868;42784581411;220496023;84337987;7405609760;142467356;324993011;1795;74;3273584;-1;16830;2239231
4;60;1572980799843;1572980807423;7580;17867173692;42785783292;223037613;86516168;7406196897;142565886;325125513;763;4;1463184;-26;7580;1086253
4;61;1572980807423;1572980815592;8169;17879178980;42789169715;222966725;87522085;7406890312;142669640;325275335;817;4;1574080;15;8169;1175155
4;62;1572980815592;1572980824604;9012;17865743330;42785115473;221866311;86051061;7405812581;142596721;325127955;926;6;1787208;2;9013;1286164
4;63;1572980824604;1572980844268;19664;17871946724;42789378175;223010813;86497553;7406976218;142711372;325281377;2091;44;3847040;3;19663;2713556
4;64;1572980844268;1572980852057;7789;17874882054;42789338611;222574644;86609070;7406876832;142553276;325104633;779;3;1499384;-11;7789;1115013
