0;7;1572955469094;1572955485085;15991;18013180116;42277351256;232408227;102202563;7376662192;142526633;325234403;2281;1173;2796544;3;15992;2294929
0;8;1572955485085;1572955492132;7047;17997511980;42278430686;231640742;100791048;7376862272;142424325;325192930;662;913;1307528;10;7046;1008964
0;9;1572955492132;1572955499058;6926;17955190522;42278466175;229513186;98601446;7376908693;142377254;325216277;647;988;1322344;-7;6927;994415
0;10;1572955499058;1572955511194;12136;17962486580;42276443253;228548611;100236388;7376447077;142374526;325101799;1762;1004;2078984;14;12136;1781015
0;11;1572955511194;1572955532197;21003;17955723276;42286314183;227829250;99383913;7379012901;142539411;326060497;2537;2180;3707952;-3;21003;3004750
0;12;1572955532197;1572955539245;7048;17988842354;42284254661;225711132;101523087;7378860912;142582697;326934157;1008;838;1293240;-12;7047;1066125
0;13;1572955539245;1572955548046;8801;17970430148;42280496879;226168361;100401678;7377802117;142550730;326837748;1106;923;1507640;15;8801;1262926
0;14;1572955548046;1572955558782;10736;17972029286;42277035697;225513946;101036251;7376654106;142483932;326880464;1110;1223;2047216;-22;10737;1535073
0;15;1572955558783;1572955582755;23972;17977315216;42281716430;226580441;101110097;7377889062;142563846;326982095;3880;1354;3924680;15;23874;3222497
0;16;1572955582755;1572955590136;7381;17998205626;42273153893;227427345;102754362;7375503763;142441916;326987745;882;719;1235912;-18;7381;1058841
0;17;1572955590136;1572955597758;7622;17971810870;42278119792;226665892;100821779;7377069274;142519663;326883030;1053;1122;1363456;23;7621;1160245
0;18;1572955597758;1572955608669;10911;17991427576;42277494177;226720913;102005587;7376835490;142531118;326922794;1141;1390;2106776;0;10912;1568222
0;19;1572955608670;1572955628903;20233;17961113742;42286667498;229726687;100123486;7378930831;142513484;325079145;2306;2668;3728976;-2;20234;2523955
0;20;1572955628904;1572955636394;7490;17999568536;42276911601;229203810;100204324;7376497242;142445090;324474258;784;1054;1439960;-16;7491;1075023
0;21;1572955636394;1572955644159;7765;17976080056;42278148927;229495543;101043477;7376932625;142473664;325130813;1234;567;1356928;-4;7765;1163389
0;22;1572955644159;1572955657082;12923;17979392212;42277527187;228905021;101874095;7376618831;142331534;325017337;1692;1220;2240536;4;12923;1854434
0;23;1572955657082;1572955674663;17581;17957163858;42269610386;229253713;99919944;7374436300;142371721;325018077;1982;2314;3301944;8;17580;2471682
0;24;1572955674663;1572955681087;6424;17927892172;42275891691;227765448;97333225;7376051915;142315867;324951681;878;1278;1069288;-10;6425;921775
0;25;1572955681087;1572955688580;7493;17990935994;42278065633;229555622;102132783;7376663923;142442667;325059059;787;967;1412400;14;7492;1075612
0;26;1572955688580;1572955699906;11326;17966352514;42280191130;228919011;101098145;7377272571;142472278;324988873;1690;419;1949936;6;11326;1623766
0;27;1572955699906;1572955721778;21872;17972660590;42273766413;229830117;101109679;7375669893;142369424;325046714;3499;1120;3534088;-7;21873;3112435
0;28;1572955721778;1572955729127;7349;17967207928;42276011404;229438948;100880912;7376473617;142431146;324873139;865;847;1319400;-1;7349;1053750
0;29;1572955729127;1572955737681;8554;17974131832;42277748410;229259246;101243569;7376634062;142406167;325017120;1128;1303;1587944;-1;8554;1283823
0;30;1572955737682;1572955749318;11636;17979536022;42280004632;229898634;101283218;7377339830;142553172;325126401;1431;1129;2128944;10;11636;1674214
0;31;1572955749318;1572955768453;19135;17963576908;42278204314;227931557;100544814;7376763424;142394368;325064312;2338;2327;3480920;-26;19032;2522321
0;32;1572955768453;1572955775621;7168;17984560320;42278678249;228623338;101707530;7376880861;142451360;325002528;873;757;1217056;23;7168;1032970
0;33;1572955775622;1572955784930;9308;17975909090;42282119187;228330659;101664915;7377915778;142465235;325021230;958;1409;1797336;2;9309;1335173
0;34;1572955784930;1572955837729;52799;17962295174;42276094903;228323016;99937635;7376482033;142509387;325028227;3488;1006;3601200;-10;52799;7955223
0;35;1572955837729;1572955844695;6966;17987656104;42285152679;229544394;101293890;7378803268;142531945;325072548;1010;517;1172960;-11;6965;1000156
0;36;1572955844695;1572955853475;8780;17967247202;42278100720;227658958;100343633;7376862867;142423184;324971713;913;1042;1651936;15;8780;1260408
0;37;1572955853475;1572955864459;10984;17971099850;42276640593;228541123;100718203;7376700932;142474030;324899778;1520;1526;2039000;0;10985;1630435
0;38;1572955864459;1572955886106;21647;17869265434;42277980952;227448393;93191180;7376767041;142443387;324858799;2660;2403;3928232;10;21647;3081353
0;39;1572955886107;1572955893409;7302;17984641204;42280685456;229749356;101726120;7377501000;142454839;325082802;1221;603;1207568;-16;7303;1080361
0;40;1572955893410;1572955900666;7256;17978657102;42283930188;228855124;100689319;7378363168;142394673;325045521;973;646;1224824;-13;7257;1041594
0;41;1572955900666;1572955911453;10787;17974371418;42276336634;228864402;100662180;7376535403;142525508;325077298;1164;1575;2094376;20;10787;1548591
0;42;1572955911453;1572955935308;23855;17943204506;42278060869;229157940;99373209;7376985528;142559562;325013422;3706;1425;4098480;-7;23855;3404752
0;43;1572955935308;1572955942200;6892;17956739144;42284754592;228493905;98674394;7378567104;142415595;325022706;951;640;1114824;9;6891;986370
0;44;1572955942200;1572955949753;7553;17977998350;42285749485;230488876;100666908;7378972065;142437483;325109135;1028;1240;1396064;-4;7554;1119998
0;45;1572955949753;1572955963108;13355;17952599168;42281801959;229770764;99816383;7377963428;142533919;325011595;1650;1398;2140464;-20;13355;1923780
0;46;1572955963108;1572955983475;20367;17955380906;42280969487;228905186;99478586;7377659023;142411438;325110072;2745;2122;3661416;5;20280;2762948
0;47;1572955983475;1572955990909;7434;17961673214;42277017741;229170136;100234515;7376596984;142381814;325020408;902;905;1306224;-6;7434;1063257
0;48;1572955990909;1572955998127;7218;17989227356;42283656422;229813090;102163708;7378565376;142447864;324988486;798;1035;1399992;2;7218;1036533
0;49;1572955998127;1572956010379;12252;17947292798;42275343825;229200782;99667807;7376306247;142464885;325081341;1834;633;2113168;23;12252;1762578
0;50;1572956010379;1572956032201;21822;17986372034;42281647501;229883596;101745273;7377923323;142447210;325033196;3749;1447;3498416;5;21822;3093116
0;51;1572956032201;1572956039897;7696;17988439686;42279533318;229566489;101413786;7377110545;142525693;325088041;873;1016;1458648;-9;7695;1110219
0;52;1572956039897;1572956048416;8519;17945373774;42264932376;227092386;99324028;7372553781;142466972;324454509;1205;1314;1591080;-13;8519;1270119
0;53;1572956048416;1572956060313;11897;17940149018;42270980817;227543446;99341509;7374163908;142583748;324667816;1543;901;2155424;-5;11898;1710748
0;54;1572956060313;1572956077392;17079;17943492272;42265333678;225532154;99782670;7372695774;142544358;325756842;2291;2213;3123104;7;17079;2488632
0;55;1572956077393;1572956084720;7327;17952708084;42262720512;219241625;101076021;7371678813;142412121;325997522;1091;566;1253024;-3;7328;1052379
0;56;1572956084720;1572956094635;9915;17915979302;42268937005;218963235;98115337;7373501477;142556614;326044921;1100;1512;1873736;20;9915;1425640
1;9;1572956342331;1572956351137;8806;18314559010;42850915174;229075526;102666400;7376395242;142412552;327459490;893;965;1652656;4;8806;1266015
1;10;1572956351137;1572956364057;12920;18280663650;42848955893;228417393;100608267;7375938934;142279700;327219177;2207;458;2007392;6;12920;1871084
1;11;1572956364057;1572956384685;20628;18306300958;42858550629;228809360;101082797;7378499707;142457857;327352634;2539;1831;3621288;-4;20627;2831848
1;12;1572956384685;1572956392104;7419;18309861168;42856592621;229314894;101560539;7378349609;142563887;327380815;980;936;1361248;-14;7420;1111610
1;13;1572956392105;1572956401078;8973;18290956942;42852701461;229415022;100257106;7377244809;142454611;327405253;1080;770;1553608;9;8974;1297381
1;14;1572956401078;1572956412017;10939;18293179500;42849376931;228509236;101241015;7376134643;142328813;327422168;1108;1382;2134936;13;10939;1567233
1;15;1572956412017;1572956431806;19789;18286910990;42853944912;228793138;99777944;7377355683;142393866;327341966;3113;1058;3355592;-4;19789;2673344
1;16;1572956431806;1572956439277;7471;18313089082;42845475380;228387973;102370928;7375003737;142267532;327259694;752;841;1357104;-16;7470;1072858
1;17;1572956439277;1572956448236;8959;18306518936;42850473590;228572012;101454826;7376563799;142422880;327330329;1066;1270;1674384;28;8959;1316019
1;18;1572956448236;1572956469574;21338;18298890144;42849786664;228107632;101242507;7376306295;142459423;327324264;2437;2271;3918296;-29;21339;3057497
1;19;1572956469574;1572956476854;7280;18308947354;42858938571;228341357;101295200;7378503793;142496580;327317294;729;1026;1416664;7;7280;1045516
1;20;1572956476854;1572956484740;7886;18338692518;42849311260;228041655;101256691;7376121193;142397615;326545816;1025;628;1424368;-2;7886;1158219
1;21;1572956484740;1572956496709;11969;18286530806;42850923559;228829371;99992375;7376613414;142420695;327302853;1672;1150;2018040;21;11969;1740353
1;22;1572956496709;1572956516703;19994;18283263326;42849744766;229534077;99665034;7376196463;142327544;327412673;2031;2496;3815736;-83;19851;2652875
1;23;1572956516703;1572956523359;6656;18268603320;42842045380;228322798;98165426;7374082228;142229022;327402629;1001;717;1223984;74;6656;947192
1;24;1572956523359;1572956530231;6872;18305213258;42848276718;227518748;101309041;7375684292;142323871;327429392;896;528;1191216;2;6872;982497
1;25;1572956530231;1572956541436;11205;18307312592;42850442689;229243305;101492919;7376287093;142339023;327433303;1238;1473;2038112;-21;11205;1603232
1;26;1572956541437;1572956564433;22996;18300732518;42852692364;228539347;100815265;7376962888;142393434;327531226;3391;1575;3906312;18;22997;3275986
1;27;1572956564433;1572956571888;7455;18316984070;42845850445;228833011;101709075;7375292583;142305615;327351277;1019;566;1253992;5;7455;1067441
1;28;1572956571888;1572956579576;7688;18312260386;42848207664;228671323;101173522;7376122781;142311869;327422191;797;1007;1489000;3;7688;1102834
1;29;1572956579576;1572956590774;11198;18304533920;42849976330;228239652;100597345;7376298927;142308147;327429464;1348;1480;2090440;-23;11198;1644953
1;30;1572956590774;1572956611551;20777;18301960816;42852043044;229212523;100525949;7376952528;142462372;327281931;2451;2302;3829952;15;20688;2710696
1;31;1572956611551;1572956619157;7606;18325367536;42850304014;229585304;102474750;7376395928;142396497;327501283;1057;887;1377688;-14;7607;1115459
1;32;1572956619157;1572956627580;8423;18301271696;42850584783;229007440;100411660;7376435597;142356939;327575917;1113;531;1441520;12;8423;1204685
1;33;1572956627580;1572956638138;10558;18315374420;42854267558;228801533;101118671;7377551888;142457449;327310628;1096;1492;2026688;-8;10558;1511230
1;34;1572956638138;1572956658000;19862;18285659332;42848092822;228447055;99578121;7376062271;142378069;327335247;2869;1412;3467360;22;19862;2885309
1;35;1572956658000;1572956665111;7111;18309161244;42857106007;228619179;100679534;7378379724;142456202;327535245;1006;592;1199680;-14;7110;1021070
1;36;1572956665111;1572956673472;8361;18310641830;42850158943;229424907;101261420;7376464000;142432748;327433883;896;958;1617728;0;8362;1200451
1;37;1572956673472;1572956685899;12427;18200637692;42848714926;226473055;91293510;7376302221;142348727;327125193;1469;1880;2334760;12;12427;1807099
1;38;1572956685899;1572956705502;19603;18310431298;42849853806;228250871;101333961;7376302315;142400869;327300983;2365;1962;3603912;-14;19603;2647689
1;39;1572956705502;1572956712660;7158;18306281394;42852179515;227826963;100869206;7376988917;142411726;327401095;988;865;1303776;13;7157;1045124
1;40;1572956712660;1572956720536;7876;18321372100;42854869373;228187318;102012647;7377681201;142358631;327477413;1116;583;1367152;4;7877;1129739
1;41;1572956720536;1572956731663;11127;18302136892;42848804619;228357794;101024938;7376177369;142479749;327367728;1196;1488;2108152;-12;11127;1593306
1;42;1572956731663;1572956751429;19766;18307937618;42850492324;228570872;100688309;7376620544;142454434;327485126;2959;1364;3447616;-10;19766;2878572
1;43;1572956751429;1572956758933;7504;18313862882;42857241561;228640126;101333211;7378209155;142465224;327582969;982;602;1268816;10;7504;1076469
1;44;1572956758933;1572956768850;9917;18308688496;42858168646;227972729;101008662;7378598496;142366988;327674868;1085;1323;1895784;6;9917;1425398
1;45;1572956768850;1572956780037;11187;18301263812;42854349360;228005325;100139112;7377619811;142400560;327402945;1410;1520;2111040;1;11187;1671544
1;46;1572956780037;1572956801853;21816;18309034370;42853486109;229180625;100520926;7377309235;142390399;327489287;3026;2001;3490616;-2;21816;3144891
1;47;1572956801853;1572956809069;7216;18315903670;42849511852;228782309;101468580;7376242201;142323028;327436561;776;971;1377568;-8;7216;1037757
1;48;1572956809069;1572956816771;7702;18303379790;42856346046;228017797;100712591;7378249746;142413089;327348657;959;1063;1506080;131;7702;1117035
1;49;1572956816771;1572956840976;24205;18288261636;42847876772;227532272;100706217;7375969281;142406105;326901382;3695;1421;4040288;-127;24205;3494314
1;50;1572956840976;1572956848299;7323;18291817612;42854018795;228662975;100301242;7377543663;142334849;326934218;1039;934;1368952;-9;7323;1093490
1;51;1572956848299;1572956855589;7290;18333265552;42851987129;229013987;102177107;7376745483;142419974;327112324;841;980;1412440;-9;7290;1048340
1;52;1572956855589;1572956865513;9924;18186695422;42837475137;226546072;92036777;7372210353;142362512;326806854;1326;883;1721584;20;9924;1416828
1;53;1572956865513;1572956887142;21629;18264015708;42843015078;227119057;97785830;7373733842;142448094;326782757;3174;2093;3884584;8;21629;3123701
1;54;1572956887142;1572956894966;7824;18283659132;42838445552;227404936;99471179;7372447848;142446324;326722412;1126;489;1339448;-5;7824;1118829
1;55;1572956894966;1572956902695;7729;18288408658;42837636651;227968363;99683454;7371709861;142436980;326795013;902;1109;1475848;-6;7729;1110232
1;56;1572956902695;1572956913924;11229;18290094812;42841102631;228588470;99852759;7373037238;142520780;326831498;1397;1585;2099544;-12;11229;1625500
1;57;1572956913924;1572956935203;21279;18276933350;42836885959;227142842;99177594;7371674220;142370235;326905331;2751;2073;3909832;-6;21226;2740183
1;58;1572956935203;1572956942313;7110;18289577534;42841515158;225680959;99885262;7373142202;142444335;326784517;970;1024;1315576;8;7110;1049439
2;9;1572957177117;1572957185316;8199;17956673298;42319981185;223771129;100939562;7452952352;142407454;327990707;786;1065;1572176;14;8199;1174632
2;10;1572957185316;1572957197441;12125;17959955670;42317951656;224283849;101857987;7452487590;142329488;327885619;1773;879;2082520;-2;12126;1748594
2;11;1572957197442;1572957219158;21716;17955634216;42327609904;223935163;101062633;7455066349;142467161;327900308;2710;2063;3820952;-8;21716;2973873
2;12;1572957219158;1572957226504;7346;17970704190;42325584788;224045015;101076999;7454884623;142559152;327684349;974;935;1378584;-11;7347;1078309
2;13;1572957226505;1572957235015;8510;17964295666;42321940834;223403156;101125253;7453861974;142420535;327882602;1011;856;1442600;13;8510;1223120
2;14;1572957235015;1572957245746;10731;17948066598;42318523491;223794458;100845637;7452733195;142364341;327820851;1101;1318;2088408;-13;10731;1538581
2;15;1572957245746;1572957268641;22895;17951284730;42323091042;223602746;100852679;7453937483;142426116;327824006;3645;1172;3666800;12;22896;3130430
2;16;1572957268642;1572957275757;7115;17951467814;42314703127;224475070;100875880;7451613788;142294960;327791760;698;883;1285904;6;7115;1017649
2;17;1572957275757;1572957284584;8827;17949082320;42319447237;223736069;100773670;7453094226;142391032;327785365;1186;1348;1622592;-13;8827;1325127
2;18;1572957284584;1572957305333;20749;17943684262;42318730995;223599773;100396978;7452833103;142393713;327745702;2392;2424;3833904;0;20750;2980975
2;19;1572957305334;1572957312760;7426;17963647718;42328456599;223788536;101548122;7455060404;142412734;327436088;747;1000;1445816;-11;7426;1064426
2;20;1572957312760;1572957320729;7969;17979074078;42318302278;225016144;102882142;7452512896;142345749;327286036;1321;674;1330400;6;7969;1180871
2;21;1572957320729;1572957332226;11497;17959827482;42319855120;223425523;98830071;7453070429;142412487;326840700;1551;1130;1970464;15;11497;1679093
2;22;1572957332226;1572957354105;21879;17948660380;42318987508;223145454;100862997;7452689492;142357541;327320412;2359;2579;4052160;-92;21798;2913140
2;23;1572957354105;1572957360988;6883;17923953676;42310910811;223210462;98372306;7450448883;142251500;327385518;1081;820;1202608;81;6883;973211
2;24;1572957360988;1572957368868;7880;17972224196;42317292565;223480217;101916865;7452110659;142382366;327158312;1268;461;1323520;13;7880;1134159
2;25;1572957368868;1572957379621;10753;17936219136;42319417801;222897948;99614322;7452698124;142242110;327198907;1278;1307;1886328;5;10753;1550014
2;26;1572957379621;1572957400171;20550;17959615344;42324908659;224057355;100737615;7453936704;142412963;327364138;2299;2419;3937888;-13;20551;2971902
2;27;1572957400172;1572957407229;7057;17940401452;42314292362;223497175;100053691;7451697970;142264792;327243559;973;676;1182096;-13;7057;1012106
2;28;1572957407229;1572957414199;6970;17932599796;42316518267;222593523;101283721;7452494934;142201065;327755116;700;944;1331056;4;6970;998645
2;29;1572957414199;1572957425647;11448;17925101674;42318315447;223721000;100464291;7452668649;142345270;327933300;1500;1095;2093296;12;11449;1662029
2;30;1572957425648;1572957447425;21777;17909441714;42320354924;222940408;99681101;7453307177;142443205;327793115;3278;1299;3672664;-14;21777;3125739
2;31;1572957447425;1572957455309;7884;17938463448;42318621235;223067207;101148101;7452763590;142356744;327875512;1036;1140;1450928;-1;7884;1167962
2;32;1572957455309;1572957463240;7931;17931341714;42319103416;223101512;100834216;7452881591;142252452;327804011;907;1037;1508200;23;7931;1132819
2;33;1572957463240;1572957475395;12155;17919047784;42322630798;223664854;100281063;7453939850;142318352;327832866;1432;1435;2149216;-24;12155;1747158
2;34;1572957475395;1572957495033;19638;17913752072;42316486242;222952298;100006613;7452477056;142337765;327837065;3062;1528;3458600;29;19639;2848611
2;35;1572957495034;1572957502327;7293;17951046020;42325640035;223250457;101434785;7454823905;142456252;327956024;902;675;1278984;-6;7293;1050240
2;36;1572957502327;1572957510776;8449;17911987370;42318740207;222571544;99447206;7452932926;142325436;327830864;885;973;1614648;-21;8449;1209969
2;37;1572957510776;1572957521429;10653;17806918616;42317195517;220418457;90329687;7452733129;142288268;327696582;1263;1629;2035056;25;10653;1562664
2;38;1572957521429;1572957541640;20211;17921278518;42321167093;223754215;100373997;7453151226;142396302;326943477;2583;2069;3619784;-21;20211;2803395
2;39;1572957541640;1572957548919;7279;17932298452;42321291103;223720336;100344109;7453423191;142314023;326915787;1111;1000;1309992;11;7279;1110616
2;40;1572957548919;1572957558036;9117;17936764738;42324267152;223482758;101410640;7454200968;142276485;326929924;1302;742;1637632;10;9117;1305776
2;41;1572957558036;1572957569766;11730;17918584234;42317763719;224503898;100186577;7452560038;142322771;326972927;1430;1413;2082056;-22;11730;1687889
2;42;1572957569766;1572957592975;23209;17934287264;42319350956;223140236;101530051;7452965481;142383789;326916568;3148;2786;4174336;12;23209;3381910
2;43;1572957592975;1572957600121;7146;17942973826;42326167490;223705026;101544150;7454567467;142315678;327060379;826;1279;1362656;6;7147;1024597
2;44;1572957600122;1572957611829;11707;17919244300;42326905987;222763413;99792700;7454925118;142346241;327057256;2118;602;1859200;-10;11707;1789909
2;45;1572957611829;1572957633696;21867;17908778582;42323468828;223463545;98883620;7454054898;142387132;326831805;3530;889;3571360;17;21867;3119284
2;46;1572957633696;1572957641355;7659;17942312008;42322441448;223623137;101404930;7453688676;142388552;326905956;1352;958;1214576;27;7659;1514966
2;47;1572957641355;1572957652039;10684;17918820462;42318536425;223709178;100271346;7452642783;142330702;326833570;1430;1293;1706200;-46;10685;1552152
2;48;1572957652040;1572957674407;22367;17886618264;42325205459;223078610;98243159;7454609573;142226807;326788951;3284;2067;3957968;7;22367;3291592
2;49;1572957674407;1572957681141;6734;17893269586;42316820391;222154699;98872466;7452338070;142231171;326752150;916;475;1194976;6;6734;965307
2;50;1572957681141;1572957687435;6294;17928545376;42323098598;222847061;100053930;7453956584;142178433;326748805;811;1249;1086632;-9;6294;905434
2;51;1572957687435;1572957694471;7036;17918377790;42321092785;223709090;99265582;7453164338;142394316;326834594;797;1197;1353216;6;7036;1007760
2;52;1572957694471;1572957706611;12140;17840804048;42306485144;220634715;93820640;7448617706;142214313;326528072;2043;825;2038336;-21;12141;1807490
2;53;1572957706612;1572957728580;21968;17938038296;42313117132;222129710;100936141;7450283487;142393124;326709257;3418;1505;3643800;-1;21968;3059686
2;54;1572957728580;1572957735757;7177;17892187288;42307222717;221696929;98315764;7448562540;142300584;326770829;1130;1080;1278344;9;7177;1114410
2;55;1572957735757;1572957744045;8288;17924107122;42305387554;223079169;100398728;7447694059;142332958;326904283;953;1136;1607824;9;8288;1191063
2;56;1572957744045;1572957767055;23010;17894145002;42311117360;222166626;98485325;7449420506;142383427;326824785;3101;2392;4126968;101;23010;3252384
2;57;1572957767055;1572957774346;7291;17900697482;42304057184;222343109;98703911;7447550255;142302201;326849401;1164;525;1225288;-104;7291;1065226
2;58;1572957774346;1572957781550;7204;17896018328;42311740326;222181392;97464479;7449576285;142433014;327004296;911;885;1273632;-15;7204;1035072
3;10;1572958035060;1572958045733;10673;17952946794;42801443034;225285331;100698250;7441668372;142453191;324006097;1160;1386;1986496;-10;10674;1546351
3;11;1572958045733;1572958067126;21393;17945871050;42811177313;225790521;100095392;7444252908;142565901;324116229;2402;2200;3911656;-20;21323;2772675
3;12;1572958067127;1572958074090;6963;17964876016;42809394616;224586289;100597778;7444156639;142600637;324036894;834;947;1283416;30;6964;1027850
3;13;1572958074090;1572958081582;7492;17959764848;42805572615;225498792;100571667;7443072129;142510725;324025596;995;436;1311192;-3;7492;1072602
3;14;1572958081582;1572958091815;10233;17946483958;42802112652;225131035;100387012;7441921174;142466992;324162002;984;1416;1926192;8;10233;1463589
3;15;1572958091815;1572958112932;21117;17952357684;42806693181;225799096;99960194;7443145810;142538239;324170098;3043;1339;3644520;-8;21116;3046884
3;16;1572958112932;1572958120060;7128;17939043944;42798228671;224645448;99377077;7440793950;142438924;324042720;954;547;1185488;6;7128;1019662
3;17;1572958120060;1572958128859;8799;17950407562;42803363527;225928579;100039417;7442376769;142487543;323973464;852;1084;1670840;-20;8799;1263391
3;18;1572958128859;1572958139837;10978;17961925356;42802568241;226239991;100864571;7442113071;142551590;324122846;1358;1619;2094448;20;10978;1635365
3;19;1572958139837;1572958159947;20110;17955236512;42812087338;225714588;99612660;7444247308;142576387;323944887;2321;2175;3691616;2;20110;2752008
3;20;1572958159947;1572958167188;7241;17941003556;42801607035;224869280;100063353;7441765020;142400707;323961946;924;767;1335072;-10;7241;1069339
3;21;1572958167188;1572958175904;8716;17961606930;42802664912;223747400;97969467;7442156241;142489123;323289346;1350;647;1480864;-3;8717;1286765
3;22;1572958175905;1572958187066;11161;17923230830;42802203261;225725679;98655661;7441906679;142447071;323995069;1162;1587;2076440;-6;11162;1597641
3;23;1572958187066;1572958205813;18747;17927833918;42794214647;225115699;99260684;7439702803;142360984;324006224;2101;2259;3545016;-7;18747;2635324
3;24;1572958205813;1572958213188;7375;17964068052;42800467251;224530234;100917421;7441321377;142417677;323935338;1137;591;1259608;0;7375;1083445
3;25;1572958213189;1572958221773;8584;17943348316;42802705734;225556736;99681163;7441937732;142383553;324037407;1307;558;1478080;6;8585;1237341
3;26;1572958221773;1572958233482;11709;17956258220;42804873154;226237163;100826202;7442605051;142566745;323978966;1295;1479;2147472;17;11709;1681572
3;27;1572958233482;1572958251697;18215;17915082424;42798211479;224448154;98468526;7440936246;142302685;323922071;2205;2138;3381600;0;18214;2590608
3;28;1572958251697;1572958258879;7182;17966646266;42800475251;225777410;100851545;7441745396;142384476;324050839;813;545;1274296;-13;7182;1034418
3;29;1572958258879;1572958266720;7841;17940953770;42802320632;224534179;99658507;7441944700;142433480;324037461;826;994;1529496;6;7841;1127399
3;30;1572958266720;1572958278860;12140;17950737522;42804168518;224605724;99948245;7442527873;142526424;323978035;1758;1040;2086824;-2;12141;1786795
3;31;1572958278860;1572958300359;21499;17935173484;42802700809;225070096;98846841;7442042246;142445107;324020964;2901;1515;3749488;-16;21499;2821478
3;32;1572958300360;1572958308069;7709;17947738536;42803039880;225229276;99946995;7442164319;142405742;323995583;995;1030;1416728;12;7709;1155835
3;33;1572958308069;1572958315698;7629;17952210954;42806235853;225406827;99464144;7443121248;142458299;324152919;1065;673;1334928;-8;7630;1095821
3;34;1572958315698;1572958326517;10819;17948158432;42802240503;225286215;99819508;7442003231;142584004;324195218;1107;1496;2082112;13;10819;1554386
3;35;1572958326517;1572958346078;19561;17933983584;42809983836;224121639;98232488;7444145930;142523547;324064014;3044;1358;3390296;9;19561;2803696
3;36;1572958346079;1572958353363;7284;17966746860;42802955154;224972856;101344989;7442198510;142450403;324071976;880;764;1297368;-16;7285;1044883
3;37;1572958353363;1572958361770;8407;17923170240;42801374300;224771022;98114130;7441987995;142477829;324116728;885;1170;1617992;13;8406;1205481
3;38;1572958361770;1572958372820;11050;17857406876;42802512378;224191876;91537074;7441993089;142505444;323947213;1381;1746;2081840;-13;11051;1649458
3;39;1572958372820;1572958388074;15254;17936086568;42804803181;224452156;98639282;7442671200;142499808;323961439;2055;1230;2646520;15;15253;2175918
3;40;1572958388074;1572958395273;7199;17955427188;42807558607;224569005;100334023;7443374407;142410558;323936660;746;894;1369248;-9;7200;1035859
3;41;1572958395273;1572958403408;8135;17944237164;42802705154;225418606;99045524;7442161249;142555783;324027491;1112;1001;1486632;-6;8135;1207974
3;42;1572958403408;1572958416436;13028;17927752158;42803167569;224522145;98733917;7442400524;142482694;324007748;1724;1207;2346752;5;13028;1870655
3;43;1572958416437;1572958434530;18093;17914355636;42809884983;224778670;97089671;7443979816;142436381;324008308;2229;2208;3414096;5;18093;2653687
3;44;1572958434530;1572958440689;6159;17889984878;42810779521;224618703;93721302;7444342429;142361717;323822296;922;613;1036072;6;6160;889238
3;45;1572958440689;1572958447986;7297;17941823054;42807054063;225552340;99020057;7443411652;142478813;323906747;765;1568;1344936;3;7296;1043353
3;46;1572958447986;1572958456732;8746;17970126030;42806113498;226195245;100356734;7443076216;142564179;323987280;1173;660;1593704;-21;8747;1259875
3;47;1572958456732;1572958482704;25972;17934794322;42801989196;225301875;98865889;7441956173;142427313;323943612;4489;1274;3919832;0;25972;3865612
3;48;1572958482704;1572958489933;7229;17955344990;42808782598;226080158;99339098;7443972820;142488353;323933732;1018;656;1054464;-9;7228;1042974
3;49;1572958489933;1572958497942;8009;17961023514;42800359419;225223099;100460573;7441679702;142463463;323872835;892;1034;1563960;4;8010;1148091
3;50;1572958497943;1572958509661;11718;17944132920;42806762700;225584800;99419433;7443336122;142418981;323984935;1324;1483;2264592;20;11718;1685859
3;51;1572958509661;1572958530656;20995;17953145646;42804717857;225001813;99770957;7442533335;142541679;323734684;3431;1341;3498056;3;20996;3060885
3;52;1572958530656;1572958538410;7754;17944561722;42793682736;225218694;99680754;7439175635;142534320;323675804;972;1005;1407808;-8;7753;1113622
3;53;1572958538410;1572958547827;9417;17955329952;42796587525;224876200;99925251;7439617391;142588458;323674293;1221;1260;1796560;8;9418;1378307
3;54;1572958547827;1572958558657;10830;17903725668;42791054723;224229265;98116168;7437966339;142433466;324036974;1443;1101;2038656;-3;10829;1553571
3;55;1572958558657;1572958577746;19089;17912726276;42790159821;223802405;98043582;7437244607;142438114;322857371;2410;2226;3489096;1;18975;2497885
3;56;1572958577746;1572958584805;7059;17933981832;42795120962;224792536;99529998;7438795364;142583811;322840370;1012;470;1155520;-20;7059;1011509
3;57;1572958584805;1572958594165;9360;17905931728;42787940105;224152002;97854804;7436904656;142535488;322725156;1067;1161;1798480;21;9361;1347113
3;58;1572958594165;1572958605694;11529;17908308170;42795345813;223608326;98161042;7438868113;142521352;322708881;1715;1099;2071088;0;11528;1699730
3;59;1572958605694;1572958628543;22849;17901802994;42786677099;224095165;97726310;7436503095;142397341;322602584;3663;1891;3770760;-15;22850;3279192
4;9;1572958864827;1572958873478;8651;18142667078;42786314960;221583193;99645935;7452843113;142191732;324778021;883;1113;1656544;14;8651;1241369
4;10;1572958873478;1572958886902;13424;18153979742;42783938449;221534594;99505515;7452346481;142199531;324747065;2366;461;2170280;-22;13423;1955897
4;11;1572958886902;1572958907982;21080;18170465770;42793571563;222026582;99933593;7454915963;142339184;324788143;2843;2393;3572024;15;20941;2746945
4;12;1572958907982;1572958915424;7442;18157705224;42791542496;220713096;99249696;7454744950;142387759;324491409;932;678;1367368;-4;7442;1069441
4;13;1572958915424;1572958923701;8277;18158434056;42787970454;220407359;99298250;7453726100;142311872;324514882;845;1036;1497408;-13;8277;1188759
4;14;1572958923701;1572958935570;11869;18168796698;42784139050;221064440;100114179;7452467613;142205778;324700323;1457;934;2178304;16;11868;1704891
4;15;1572958935570;1572958956154;20584;18164665044;42789076273;221243267;99279444;7453791414;142311380;324876596;3428;1133;3320024;-13;20585;2937512
4;16;1572958956154;1572958963432;7278;18176595872;42780544205;220490053;100815119;7451415949;142121935;324811700;718;1126;1367616;18;7278;1043542
4;17;1572958963432;1572958972746;9314;18156755494;42785397467;221420694;98915617;7452948592;142373751;324814819;1137;1434;1739584;-13;9314;1366436
4;18;1572958972746;1572958994867;22121;18162162750;42784788963;220650018;99815233;7452699414;142268243;324570205;2487;2408;4052176;-58;22046;2898679
4;19;1572958994867;1572959002346;7479;18149615802;42795126579;220232679;98349294;7454981832;142272696;324690499;1042;853;1319728;58;7479;1087781
4;20;1572959002346;1572959010082;7736;18166082996;42784208874;221344896;100348996;7452382805;142256513;324911497;1123;561;1326512;-2;7737;1107194
4;21;1572959010082;1572959020813;10731;18162094714;42785538883;220916999;99693822;7452819467;142225437;324875061;1205;1667;1932688;0;10730;1551383
4;22;1572959020813;1572959041102;20289;18149668362;42784859414;220287884;96619458;7452538450;142187056;324411456;2314;2009;3782160;3;20290;2894145
4;23;1572959041102;1572959048091;6989;18102817108;42777055700;219568063;95748829;7450384153;142055359;324806313;928;856;1268760;-12;6989;1011561
4;24;1572959048091;1572959056668;8577;18170489860;42783053587;220464483;100303182;7451937874;142223474;324790618;1326;556;1446832;18;8576;1229392
4;25;1572959056668;1572959067980;11312;18143071352;42785306107;221140277;98528117;7452573338;142185077;324914657;1265;1395;2034224;-17;11313;1625558
4;26;1572959067981;1572959088717;20736;18151866392;42787615049;220708298;99201971;7453247783;142239545;324756379;2585;2264;3863752;22;20737;3011379
4;27;1572959088717;1572959095185;6468;18153353840;42780791382;220104506;98885164;7451550776;142028645;324668465;876;1061;1086032;-12;6467;926066
4;28;1572959095185;1572959102770;7585;18149782680;42783180313;219727023;98952485;7452394022;142179380;324729506;779;1040;1432592;-11;7586;1083983
4;29;1572959102771;1572959112083;9312;18164274348;42784839019;219916955;100116875;7452531935;142185201;324670065;1271;1085;1701160;15;9312;1370774
4;30;1572959112083;1572959134514;22431;18136180444;42787063540;220272752;97804851;7453234675;142285746;324771559;3199;1477;3817072;1;22432;3217570
4;31;1572959134515;1572959141464;6949;18156109590;42785228861;220384957;99267302;7452648885;142174453;324608222;884;996;1292568;-8;6950;1027785
4;32;1572959141465;1572959149584;8119;18155708090;42785655066;219756559;98816738;7452747774;142145675;324642964;947;935;1552488;13;8120;1169811
4;33;1572959149584;1572959160489;10905;18130809250;42789247958;219313580;98045029;7453825329;142196789;324572867;1304;1372;1932072;8;10905;1567676
4;34;1572959160489;1572959181113;20624;18146170056;42782991976;219980048;98791307;7452321834;142303469;324545117;2943;1563;3737264;-20;20624;2948086
4;35;1572959181113;1572959188664;7551;18170348970;42792322933;221384310;99766001;7454726540;142361818;324723743;984;788;1285456;8;7551;1088192
4;36;1572959188665;1572959196058;7393;18143369046;42785310606;220088156;98871676;7452803395;142189090;324498787;799;983;1432872;1;7394;1058700
4;37;1572959196059;1572959207960;11901;18052352792;42783774131;219238906;90735816;7452617358;142172383;324438804;1399;1783;2227696;2;11902;1764120
4;38;1572959207960;1572959227929;19969;18120662980;42785118461;220137900;96530130;7452680368;142206271;324472082;2664;1646;3510024;8;19968;2860984
4;39;1572959227929;1572959235422;7493;18170260640;42787168258;219504879;100330167;7453282498;142252407;324656241;950;1081;1411984;-26;7494;1088706
4;40;1572959235422;1572959244207;8785;18155719916;42790057380;220066884;99467055;7454029764;142155988;324771157;1125;894;1638400;27;8785;1259197
4;41;1572959244207;1572959255903;11696;18120209650;42783662193;218840339;97303000;7452425024;142153827;324419735;1401;1391;2093704;-25;11695;1673806
4;42;1572959255903;1572959274960;19057;18152682386;42785367107;219433766;98654960;7452875031;142252361;324537981;2701;1666;3389872;-1;19057;2740892
4;43;1572959274960;1572959282423;7463;18160017718;42792163787;220425218;98847076;7454478553;142206391;324777673;931;790;1285792;-3;7463;1070955
4;44;1572959282423;1572959292953;10530;18162061572;42793120541;220263246;99680925;7454854325;142161394;324668336;1149;1461;2032544;3;10531;1510845
4;45;1572959292953;1572959304833;11880;18184254886;42789410723;221060645;100725820;7453935327;142339693;324658754;1656;1206;2169064;17;11879;1756254
4;46;1572959304833;1572959322577;17744;18145438596;42788368556;220754564;98237021;7453562068;142239538;324638017;2585;1894;2965880;5;17744;2611861
4;47;1572959322577;1572959330511;7934;18177735840;42784452627;222017051;100766486;7452510566;142171528;324554841;1094;688;1165376;-18;7935;1141074
4;48;1572959330511;1572959342196;11685;18137120100;42791150153;220493108;98049335;7454494876;142192900;324571200;1475;1468;2136696;-3;11685;1674217
4;49;1572959342197;1572959364336;22139;18129827692;42782590273;220358634;98156675;7452158986;142209434;324524351;3334;1543;3879120;14;22140;3153334
4;50;1572959364337;1572959371530;7193;18155831314;42788941399;220330248;99369306;7453808154;142190399;324614536;1119;535;1208744;-2;7193;1031852
4;51;1572959371530;1572959379149;7619;18173798658;42786943629;220743285;99850385;7453012323;142278153;324588147;826;1078;1411704;8;7620;1092949
4;52;1572959379149;1572959389545;10396;18104410406;42772435205;218582915;94263989;7448507470;142167466;324192895;1366;1509;1968776;-12;10395;1545251
4;53;1572959389545;1572959408923;19378;18105097920;42777872856;218637525;94726230;7449980811;142237177;323991504;2411;2315;3524880;-11;19379;2780802
4;54;1572959408923;1572959416139;7216;18160430606;42773348855;219264012;98950626;7448751452;142242652;324103598;1069;953;1320248;21;7216;1068706
4;55;1572959416139;1572959423823;7684;18125343156;42769520173;218848213;97238928;7447616394;142254264;324143641;1302;469;1364184;-22;7683;1106664
4;56;1572959423823;1572959435380;11557;18139556256;42775282005;219140380;98063233;7449347452;142345019;324146638;1475;1332;2013224;29;11558;1658115
4;57;1572959435380;1572959457235;21855;18146010332;42767703730;220621709;98824577;7447371775;142186769;323974349;3081;2478;4003472;-20;21854;3111358
4;58;1572959457235;1572959464230;6995;18102636798;42775300777;218527071;94522450;7449365723;142209996;323845802;975;667;1187416;17;6995;1007904
