0;5;1573015358268;1573015370100;11832;32403580034;4063821274;1123059869;701565038;889907542;130413208;409420473;2385;13412;1478072;-93;11832;1519121
0;6;1573015370100;1573015382468;12368;32629980482;4063878640;1126743140;707293393;889919984;130592346;410653106;3572;13550;1487512;-47;12235;355329
0;7;1573015382468;1573015395771;13303;32796601522;4063839643;1124925184;713721162;889913640;130732121;410003050;3273;14411;1459792;118;13303;1630057
0;8;1573015395771;1573015410256;14485;32956019944;4063828492;1125344096;718923392;889913258;130917392;408993621;2504;17632;1907672;-133;14278;1190560
0;9;1573015410256;1573015422697;12441;32646046030;4063842265;1123807507;706802470;889911973;130523843;409127539;4595;11717;1291336;141;11183;954591
0;10;1573015422697;1573015435168;12471;32441502074;4063825335;1121308409;705379819;889909557;130515244;409100351;2166;15573;1579336;-46;12471;1695594
0;11;1573015435168;1573015448578;13410;32740461164;4063821825;1126310011;714558841;889910299;130841235;408733643;3816;14839;1669256;55;13102;696130
0;12;1573015448578;1573015461465;12887;32650164398;4063859051;1123167887;710325952;889916986;130583541;409915165;3089;13842;1413096;-31;12887;1845815
0;13;1573015461465;1573015474285;12820;32452811380;4063852214;1123501599;704423478;889915408;130541261;409565608;2197;16057;1641192;-83;12820;707063
0;14;1573015474285;1573015487488;13203;32914575654;4063827227;1127682125;716990381;889912354;130801344;409940567;4543;11922;1450040;94;12052;1055232
0;15;1573015487488;1573015500425;12937;32341391480;4063836664;1124943428;704795589;889911687;130642171;408818947;2239;17092;1605104;3;12937;1817987
0;16;1573015500425;1573015512614;12189;32609102482;4063823023;1124445435;707696907;889909101;130537829;410098288;3319;14437;1555960;10;12150;878305
0;17;1573015512614;1573015524682;12068;32610914634;4063822426;1123566336;705338271;889908445;130438715;409503720;2802;11189;1290640;-125;12068;1822837
0;18;1573015524682;1573015537245;12563;32714794656;4063846377;1125787960;713121915;889914709;130748576;409432627;3710;12290;1469008;-14;12091;326962
0;19;1573015537245;1573015549562;12317;32697904938;4063840483;1123351960;712803559;889912693;130592220;409618081;4367;13595;1503064;26;12055;263462
0;20;1573015549562;1573015562082;12520;32381876550;4063831809;1122975461;704221507;889909590;130568318;409534161;3426;13366;1421944;101;12303;1345302
0;21;1573015562082;1573015574600;12518;32567307792;4063836133;1124045720;706915318;889911175;130568715;409523752;2112;16862;1609400;9;12518;1781017
0;22;1573015574600;1573015586856;12256;32491139446;4063854826;1123793007;705524054;889915809;130490954;409230758;2620;14807;1601784;-33;12186;915388
0;23;1573015586856;1573015599200;12344;32415871774;4063833235;1122605776;703108006;889910743;130507583;409211864;2726;13952;1376960;42;12344;1750540
0;24;1573015599201;1573015612614;13413;32524793906;4063821727;1124405398;708013960;889908908;130906836;409249745;2568;16344;1789752;-132;13274;1009642
0;25;1573015612614;1573015625732;13118;32634274050;4063839880;1125811882;708372478;889913616;130668425;409321274;3833;13243;1414496;112;12315;1421815
0;26;1573015625732;1573015639061;13329;32818093306;4063827393;1126587802;716185918;889912159;130793537;410058229;2204;17462;1752704;-82;13329;1734923
0;27;1573015639061;1573015652076;13015;32644905770;4063836952;1123422712;708452353;889912304;130631929;409838861;3446;13786;1552272;89;12787;823791
0;28;1573015652076;1573015664817;12741;32672687526;4063824866;1123474534;710459777;889909760;130519777;409499820;2433;15882;1490544;0;12741;1827292
0;29;1573015664818;1573015677825;13007;32708811576;4063835720;1125744458;712841228;889913041;130849036;409854219;2427;16246;1752832;-128;12900;1126165
0;30;1573015677825;1573015691584;13759;32587198394;4063857514;1123511972;706060014;889917438;130685892;409488656;3550;15228;1524584;134;13529;1749619
0;31;1573015691584;1573015703659;12075;32318706000;4063852930;1119717241;699235178;889914069;130388092;407798101;2030;15377;1574568;-94;12075;994585
0;32;1573015703659;1573015716955;13296;32626895648;4063847346;1124374050;709072872;889914743;130691300;409897931;3620;13292;1497680;90;13073;1033969
0;33;1573015716955;1573015729859;12904;32315481736;4063839164;1123604269;703763922;889912502;130543733;409587628;2511;16726;1588000;19;12904;1840949
0;34;1573015729859;1573015742155;12296;32546858886;4063858284;1125640662;708465301;889918121;130655944;409757016;2880;14258;1645840;-135;11624;1088024
0;35;1573015742155;1573015754636;12481;32004744826;4063819592;1122351382;692003559;889906711;130368184;409479747;3321;13472;1265488;122;12400;1684610
0;36;1573015754636;1573015767440;12804;32779843058;4063839826;1125812339;712043927;889913207;130632461;409371299;1975;17238;1714992;2;12804;1830242
0;37;1573015767440;1573015781186;13746;32903023258;4063843734;1125993573;715978685;889916348;130892131;410088943;2835;15225;1669688;-14;13746;2032302
0;38;1573015781186;1573015793552;12366;32586010976;4063837988;1126224099;704559948;889912178;130542959;410079151;2363;15445;1495224;6;12366;1763305
0;39;1573015793552;1573015807024;13472;32757351612;4063856832;1123932106;714330348;889917117;130726317;410217969;2234;18768;1828736;155;13472;1970313
0;40;1573015807024;1573015820717;13693;32797227716;4063842533;1128028921;716341697;889914995;131024342;409798534;3279;12190;1354664;-139;13693;2162102
0;41;1573015820717;1573015837455;16738;32673925168;4063853938;1126036084;710839472;889916429;130803053;409097907;3003;17851;1932928;-135;16738;1953179
0;42;1573015837455;1573015849987;12532;32515337924;4063837951;1126347682;707039820;889912790;130714726;409736096;3813;13312;1480824;120;11508;430055
0;43;1573015849987;1573015863293;13306;32764322382;4063855971;1125786223;715118427;889917169;130953494;409066431;2934;14955;1456536;15;13307;1906973
0;44;1573015863294;1573015876249;12955;32456763746;4063839003;1122955464;704744695;889912777;130581187;408974858;2032;17230;1758800;-49;12955;1747200
0;45;1573015876249;1573015888586;12337;32423469760;4063836698;1125008609;705673554;889911575;130568173;409486768;2932;13420;1410904;46;12338;1451798
0;46;1573015888587;1573015901933;13346;32764638326;4063837893;1126457629;714890374;889912916;130637593;409718346;2312;17865;1728616;-11;13346;1883980
0;47;1573015901933;1573015914221;12288;32575419114;4063840618;1123117309;707480339;889913251;130582504;409367896;2477;14613;1607800;-3;12288;950911
0;48;1573015914221;1573015926680;12459;32515590796;4063822844;1124098692;709785059;889909127;130661355;409854597;2655;14578;1393032;1;12459;1777724
0;49;1573015926680;1573015940559;13879;32887983506;4063856792;1126620312;717922542;889917912;130865430;409671249;2316;17433;1832296;-86;13879;1487771
0;50;1573015940559;1573015952920;12361;32524826318;4063854429;1123575013;706744666;889916140;130583489;410383517;3036;13479;1381064;84;12034;1373431
0;51;1573015952920;1573015965552;12632;32797603374;4063824721;1127448411;716853630;889909599;130845862;410672178;2131;16479;1624680;-20;12632;1787264
0;52;1573015965552;1573015978068;12516;32590470108;4063854505;1123207413;707891382;889916114;130504448;409194624;2480;15171;1641560;39;12516;1088596
0;53;1573015978068;1573015991241;13173;32663812478;4063843530;1125575756;712648731;889913760;130824159;409040401;2741;15345;1473992;-25;13173;1857983
0;54;1573015991241;1573016004040;12799;32573066908;4063828794;1123963419;710728480;889909972;130656017;410111175;2823;14641;1674872;-98;12619;940628
1;5;1573016193910;1573016206383;12473;32370347660;4007806206;1125299826;702128157;889877951;130412916;409038400;2299;15877;1530008;8;12474;1777929
1;6;1573016206384;1573016219810;13426;32602772068;4007817983;1125982226;706870507;889878663;130439045;409095317;2069;17898;1897592;-121;13427;1598997
1;7;1573016219810;1573016233061;13251;32247364998;4007776873;1124602863;698468593;889870865;130271160;408869989;3339;15279;1440336;114;13250;1924196
1;8;1573016233061;1573016245686;12625;32177544002;4007792250;1125018792;695097008;889874133;130367973;409425309;1924;16780;1733584;-28;12625;1722286
1;9;1573016245686;1573016258805;13119;32293518372;4007797439;1126053744;699302825;889874197;130284778;410280151;2944;14590;1508512;10;13119;1404516
1;10;1573016258805;1573016271685;12880;32031174914;4007802942;1127390414;693318779;889876485;130514612;408703946;3110;13865;1566672;-64;12799;1323478
1;11;1573016271685;1573016285304;13619;32590009624;4007777270;1128303477;709438606;889872384;130571678;409598921;4223;14675;1623840;64;12985;497298
1;12;1573016285304;1573016298788;13484;32432649802;4007777270;1126196049;701347224;889871201;130427649;408837296;2822;15458;1504792;5;13484;1919200
1;13;1573016298788;1573016311143;12355;32339936298;4007778945;1127827592;700401389;889872024;130456462;410533291;1804;15345;1646248;-99;12356;1465471
1;14;1573016311143;1573016323647;12504;32535043982;4007795663;1126428959;705162731;889875474;130311433;409025331;3479;12988;1304408;109;12121;1294273
1;15;1573016323648;1573016335849;12201;32383750460;4007793453;1124102777;701291106;889874233;130206189;408974602;1983;14682;1577384;-90;12201;1426243
1;16;1573016335849;1573016349309;13460;32663332138;4007794126;1127697832;709710664;889876584;130630419;409385359;4106;15239;1585624;89;13119;630517
1;17;1573016349309;1573016361644;12335;32236698968;4007794565;1125591732;697377503;889874753;130314156;408902023;2578;11864;1380368;-110;12335;1513247
1;18;1573016361644;1573016375329;13685;32774602680;4007798135;1127686941;713867154;889878107;130681956;409842691;3905;15027;1641272;-23;13191;437201
1;19;1573016375329;1573016388884;13555;32576327964;4007794583;1126283620;708209039;889876128;130617898;408654629;4287;12124;1338264;129;13451;1817142
1;20;1573016388884;1573016401803;12919;32332686230;4007803111;1124082307;699060608;889876753;130328001;408973098;2161;17397;1639376;-1;12919;1838896
1;21;1573016401803;1573016414471;12668;32421068498;4007808748;1124223515;702027817;889878013;130375331;408367458;3004;14218;1660432;-123;12345;663672
1;22;1573016414471;1573016427487;13016;32474609180;4007795521;1125373950;703792444;889877085;130438811;409627810;5012;11895;1350616;116;11352;1093656
1;23;1573016427487;1573016439911;12424;32552388782;4007794308;1130859032;707171500;889875750;130587988;409791808;2251;15244;1544096;1;12425;1770681
1;24;1573016439911;1573016453496;13585;32786675858;4007797004;1129325691;711947286;889877398;130603381;409851981;3712;16412;1724608;43;13584;911191
1;25;1573016453496;1573016465837;12341;32412325434;4007808276;1128296525;702277483;889877963;130502240;408836365;2708;13120;1367272;-43;12341;1761998
1;26;1573016465837;1573016478623;12786;32320072998;4007780275;1127624983;704044349;889872761;130542369;408876883;2292;15659;1734192;-107;12768;1175297
1;27;1573016478623;1573016491642;13019;32620922642;4007791912;1127390866;707887190;889875172;130436840;409773732;3873;13680;1413568;113;12191;1165107
1;28;1573016491642;1573016504064;12422;32230822760;4007792082;1125068442;697517489;889873988;130397113;408772715;2086;16042;1613304;-35;12422;1702578
1;29;1573016504064;1573016516922;12858;32427422856;4007801836;1124658087;701682402;889876250;130360019;408872811;2747;16143;1616808;45;12858;883904
1;30;1573016516922;1573016530253;13331;32648526862;4007785756;1127882659;708980532;889875081;130616674;410286291;2750;14656;1529936;-10;13332;1900522
1;31;1573016530253;1573016543370;13117;32560456450;4007792759;1125492679;704884628;889875001;130374867;408492903;2232;16642;1782960;-129;13041;1306267
1;32;1573016543370;1573016556417;13047;32509383898;4007786750;1127249271;706198060;889873799;130365365;408993912;3634;14176;1368152;147;12406;1399696
1;33;1573016556417;1573016568948;12531;32496173672;4007792445;1126017369;703778819;889875260;130537367;408717566;1908;16380;1637312;-21;12530;1795884
1;34;1573016568948;1573016581505;12557;32250349968;4007808177;1125495853;697034823;889877826;130372206;408847184;2615;15279;1598992;21;12557;1132996
1;35;1573016581505;1573016594262;12757;32480718842;4007810006;1124531414;702246350;889879271;130433021;409028072;2645;14373;1473968;-21;12758;1820044
1;36;1573016594262;1573016607708;13446;32714308622;4007794282;1127397097;710773485;889876968;130587852;409833784;2922;15757;1760792;-107;12761;1098480
1;37;1573016607708;1573016620585;12877;32556007538;4007795579;1128734041;704943872;889876664;130530939;410394709;4269;12732;1352816;112;12053;1498850
1;38;1573016620585;1573016633044;12459;32416750548;4007798724;1128239551;702719949;889875910;130367346;408914201;1942;16835;1648880;-5;12458;1769118
1;39;1573016633044;1573016645301;12257;32381034568;4007793164;1127829326;703961995;889874055;130407076;409901348;2552;14605;1531656;20;12258;1210959
1;40;1573016645301;1573016657938;12637;32692219552;4007795462;1126575184;707838493;889875733;130350692;408374343;2490;14427;1457160;-23;12636;1807913
1;41;1573016657938;1573016670685;12747;32420265498;4007776914;1125578763;703193596;889870826;130370081;409284955;2019;16788;1707528;-86;12747;1375349
1;42;1573016670685;1573016685629;14944;32389016242;4007776499;1124228684;699458428;889870510;130203842;408079030;4537;14265;1592784;151;14088;1976755
1;43;1573016685629;1573016698806;13177;32624349992;4007794035;1127223649;709101667;889876192;130537718;409024622;2349;13992;1338784;-53;13178;1908150
1;44;1573016698806;1573016710761;11955;32798738962;4007790954;1125279549;711548296;889873640;130269818;408958901;1583;17229;1652800;11;11954;1707759
1;45;1573016710761;1573016723801;13040;32630274672;4007793377;1126697581;709719038;889876044;130660955;408708792;2538;14751;1645248;-25;13041;2011742
1;46;1573016723801;1573016736496;12695;32384955982;4007778882;1124235694;703347129;889871520;130321619;409155915;2340;15625;1468592;1;12694;1808923
1;47;1573016736496;1573016748898;12402;32550451216;4007792509;1127334956;707207827;889874903;130446695;408589878;2323;16880;1671736;86;12402;1893840
1;48;1573016748898;1573016762218;13320;32236193516;4007776997;1125437428;695985934;889870757;130315182;408799407;2825;14444;1511952;-70;13321;1910275
1;49;1573016762219;1573016774980;12761;32470241298;4007779040;1127556113;703559675;889872119;130388891;409518898;2002;17449;1686880;0;12762;1821843
1;50;1573016774980;1573016787243;12263;32306982784;4007792279;1124709611;699058881;889874033;130299618;409345222;3705;11660;1405832;-13;12092;1384176
1;51;1573016787243;1573016800115;12872;32566924104;4007793631;1126081073;705264954;889874291;130308484;409708214;2262;17173;1654528;-5;12872;1832197
1;52;1573016800115;1573016812538;12423;32413304510;4007778357;1125064747;702574895;889871011;130437952;408718497;2556;15027;1625744;1;12402;1045454
1;53;1573016812538;1573016825279;12741;32479558288;4007778828;1126137592;703410426;889871736;130355530;409428491;2732;14199;1398352;-4;12740;1798708
1;54;1573016825279;1573016837850;12571;32167219466;4007776401;1124616404;697416889;889870412;130235570;408689365;2490;15054;1673392;-81;12571;1115248
2;5;1573017030741;1573017043695;12954;32590598150;4006561247;1124887066;704035184;888560224;131356668;409695273;2483;15454;1561960;-7;12955;1847967
2;6;1573017043695;1573017056434;12739;32731384198;4006590600;1128173811;709489454;888565634;131520495;409906669;2755;15111;1596648;-9;12739;1433955
2;7;1573017056434;1573017069173;12739;32714401186;4006561674;1125262010;707645811;888560636;131364733;409471210;2588;14176;1410648;6;12739;1827080
2;8;1573017069173;1573017083295;14122;32988664814;4006564329;1127721110;717393528;888563561;131620400;410746043;2082;19110;1904640;-63;14121;1933422
2;9;1573017083295;1573017096349;13054;32777233892;4006591863;1127633041;709102116;888567392;131439738;410539316;3914;13221;1439016;68;12419;1557991
2;10;1573017096349;1573017108165;11816;32530530392;4006557014;1126502772;705562338;888558178;131325067;410134249;1877;15995;1548336;14;11815;1683504
2;11;1573017108165;1573017120253;12088;32527860198;4006559541;1123137293;702385868;888559606;131264739;409589528;2540;14479;1565688;-5;12088;1233741
2;12;1573017120253;1573017132955;12702;32526556856;4006561818;1126690232;704023623;888560879;131369514;410808118;2737;14445;1452296;-17;12702;1815367
2;13;1573017132955;1573017146191;13236;32753428592;4006576842;1125267350;709241367;888562967;131436292;409976670;2227;17131;1757016;-108;13237;1315652
2;14;1573017146192;1573017159793;13601;32712636922;4006581654;1129536598;709152027;888567779;131612670;411025030;4224;13038;1478120;122;13088;1556135
2;15;1573017159793;1573017172600;12807;32591440424;4006566804;1126620242;701782818;888561172;131469335;410858927;2148;16860;1618456;-31;12807;1788199
2;16;1573017172600;1573017184894;12294;32612335360;4006561083;1126837414;707730485;888560106;131381552;409847016;2808;13688;1506552;30;12294;829393
2;17;1573017184895;1573017197352;12457;32687594564;4006562391;1126147886;705582997;888561178;131381006;409773174;2512;14683;1468528;-41;12457;1725657
2;18;1573017197352;1573017211622;14270;33044491856;4006596644;1130426875;717194990;888569744;131682249;410588929;3377;17115;1863736;-92;13951;739324
2;19;1573017211622;1573017224355;12733;32638889402;4006563927;1128644237;704901204;888559804;131297962;410381698;3267;12932;1344192;118;12349;1802610
2;20;1573017224356;1573017236974;12618;32621366628;4006593688;1126223027;706450588;888566722;131335853;410180909;1953;17736;1663664;-1;12619;1796233
2;21;1573017236974;1573017250115;13141;32663273008;4006574419;1126684553;708540930;888563428;131512842;409598961;2289;17650;1799720;24;13141;1396976
2;22;1573017250115;1573017262776;12661;32692607328;4006591589;1125401515;707913640;888566959;131343551;409452249;2665;13204;1400952;-23;12661;1793805
2;23;1573017262777;1573017275580;12803;32623081398;4006585811;1126242624;708246084;888565419;131487197;408935236;2068;17248;1733464;-83;12804;1568161
2;24;1573017275580;1573017288639;13059;32623327846;4006562117;1125463734;704403911;888561094;131437339;409919164;3680;13529;1472024;99;13005;1281651
2;25;1573017288640;1573017300561;11921;32486133252;4006575832;1125006331;702569573;888562765;131210948;409424729;2169;15396;1512944;-27;11921;1653009
2;26;1573017300561;1573017313062;12501;32590569242;4006577143;1126002898;705113794;888563458;131362506;410468108;3266;14050;1633760;51;11954;718730
2;27;1573017313063;1573017326316;13253;32789226770;4006565369;1125473492;705641542;888561109;131413772;409931650;3007;15011;1431136;-35;13253;1893265
2;28;1573017326316;1573017339426;13110;32512335726;4006560602;1125671480;703301968;888560728;131484533;409120804;3271;14256;1673912;-97;12960;1159186
2;29;1573017339427;1573017351856;12429;32526541526;4006586257;1127750613;703743819;888565351;131503000;410382246;3254;13678;1357328;115;11973;1141839
2;30;1573017351856;1573017365238;13382;32977328790;4006568264;1132031289;715202081;888563465;131710661;410863012;2296;16430;1716896;-100;13383;1560862
2;31;1573017365239;1573017378628;13389;32473468920;4006577886;1125739489;703746663;888565285;131454790;410272072;3284;15176;1639040;86;13041;696997
2;32;1573017378628;1573017391230;12602;32460096050;4006570197;1124010310;701940196;888560940;131218132;409158400;2591;15052;1437632;-2;12602;1797931
2;33;1573017391230;1573017403930;12700;32554061504;4006574878;1124889967;704770394;888562640;131320141;409075206;2486;15185;1703048;-104;12697;1289885
2;34;1573017403930;1573017416632;12702;32593255204;4006563715;1126539318;707652902;888562757;131367271;410100907;3367;13871;1330448;95;12702;1457612
2;35;1573017416632;1573017428705;12073;32697736162;4006556169;1124973434;702583111;888557588;131148755;409940781;1896;15994;1611760;24;12074;1720543
2;36;1573017428705;1573017442205;13500;32911026102;4006593623;1128109308;713128990;888568803;131506902;410019669;2727;16488;1744824;-14;13501;1420716
2;37;1573017442206;1573017454446;12240;32592192324;4006592616;1125888734;703998700;888566845;131379609;410452946;2471;15007;1424288;4;12239;1752610
2;38;1573017454446;1573017467941;13495;32842679268;4006577472;1126451195;711430100;888564983;131460951;409903581;2743;15923;1791960;-117;13434;1142112
2;39;1573017467941;1573017480175;12234;32491071410;4006577087;1126901993;703119192;888563634;131343500;410055706;3025;13046;1259880;116;12217;1486168
2;40;1573017480175;1573017493250;13075;32693808908;4006561364;1127595323;707548082;888561159;131603880;410408867;2050;17398;1741800;-5;13074;1832951
2;41;1573017493250;1573017506040;12790;32823235280;4006559995;1126692248;711074957;888561395;131418616;409717478;2940;14510;1571816;-2;12612;986352
2;42;1573017506040;1573017518747;12707;32311785892;4006575828;1123194460;697219736;888562111;131146440;408842910;2530;14613;1466544;-2;12706;1814573
2;43;1573017518747;1573017532254;13507;33080611088;4006584339;1129224190;716820030;888567350;131628096;410380484;2810;11420;1249824;11;13507;2172251
2;44;1573017532254;1573017546627;14373;32983931640;4006578485;1128142386;716851311;888565732;131633917;410727599;2582;15260;1664488;3;14374;2080342
2;45;1573017546627;1573017559258;12631;32660609092;4006560883;1126382302;708665219;888561218;131348916;410037656;2118;17510;1750000;12;12630;1907818
2;46;1573017559258;1573017570533;11275;31981084504;4006573121;1125465695;691184398;888562260;131243457;409954533;2397;11534;1187840;-23;11276;1619702
2;47;1573017570533;1573017583667;13134;32718093964;4006562462;1127293897;710214420;888561253;131556647;410485398;1927;18248;1763064;-7;13133;1869889
2;48;1573017583667;1573017599915;16248;32763843794;4006560829;1128401295;709752267;888561432;131634590;410509105;3567;17492;1850952;13;16248;2431225
2;49;1573017599915;1573017613270;13355;32600700182;4006574058;1125413332;705672243;888563238;131295695;409461483;2366;17096;1790080;-91;13356;1591406
2;50;1573017613270;1573017627138;13868;32848273258;4006561148;1129043861;713950636;888562335;131671405;410776690;3768;14151;1518416;97;13580;1507679
2;51;1573017627138;1573017639733;12595;32626504076;4006558830;1126260995;707772456;888559998;131439385;409361603;2187;16042;1522576;1;12596;1800514
2;52;1573017639733;1573017653083;13350;32920846792;4006561880;1127001705;712981136;888560690;131303402;410168284;2780;15879;1756064;-3;13299;1469564
2;53;1573017653083;1573017665940;12857;32826291060;4006559677;1127728478;711472449;888559993;131503614;409914503;2606;15243;1485288;-13;12857;1841234
2;54;1573017665940;1573017679002;13062;32718629638;4006576207;1125866612;708397805;888565387;131461826;409611235;2225;16816;1733008;-88;13062;1283067
3;5;1573017871373;1573017884794;13421;32740231798;4077362299;1131372555;712791142;889852284;130355548;409916567;2746;14236;1520744;14;13421;1911991
3;6;1573017884795;1573017897021;12226;32275681406;4077380053;1127878428;696795048;889853428;129853362;408844295;1902;17181;1619040;10;12227;1750298
3;7;1573017897021;1573017913679;16658;32233715750;4077345927;1124904962;697341120;889847756;130142437;407627146;3502;17148;1888736;-8;16658;2503329
3;8;1573017913679;1573017926622;12943;32508256632;4077334754;1127262734;706778280;889844184;130180698;408690516;2085;17498;1670104;4;12943;1850530
3;9;1573017926622;1573017939078;12456;32438090638;4077354188;1128465145;703600554;889849152;130004001;408689253;2717;14885;1596632;-3;12456;1925872
3;10;1573017939078;1573017950962;11884;32031996456;4077383417;1128052235;695932975;889855428;130096745;408611911;2764;11586;1346512;-117;11846;959400
3;11;1573017950962;1573017963890;12928;32388475750;4077330043;1129882641;703452460;889844527;130103346;407871802;3184;15737;1548504;186;12928;551637
3;12;1573017963890;1573017976325;12435;32512628164;4077329816;1129327385;701618359;889844033;129947999;409712253;2917;10975;1286056;-184;12435;1534613
3;13;1573017976325;1573017989130;12805;32394011340;4077343887;1129264130;704029539;889845906;129901747;409649524;2502;16127;1633336;5;12805;572467
3;14;1573017989130;1573018002940;13810;32914961970;4077350256;1132557595;717186638;889851799;130565275;410350314;3867;14565;1552328;94;13578;1294631
3;15;1573018002940;1573018016729;13789;32606781082;4077337444;1129972579;706538510;889845619;130087013;408569814;2456;17789;1777000;-37;13789;1855534
3;16;1573018016729;1573018029250;12521;32525133940;4077329081;1129629375;704297782;889843546;129843414;409768789;2876;15353;1617072;55;12514;790853
3;17;1573018029250;1573018041128;11878;32158189804;4077329753;1128355591;696251677;889843134;130018186;410043880;2545;13388;1317272;-17;11878;1706330
3;18;1573018041128;1573018053788;12660;32732272316;4077348663;1131973904;711109690;889849541;130283813;409544749;1934;17201;1713592;-58;12660;1724371
3;19;1573018053788;1573018066206;12418;32629891422;4077330223;1130043572;707584683;889843998;129949974;409788217;3623;11460;1360472;-10;11849;1083904
3;20;1573018066206;1573018078481;12275;32617045028;4077353501;1127858545;705068950;889847751;129964475;408810212;2721;13891;1498496;-20;12275;710027
3;21;1573018078481;1573018090827;12346;32430361982;4077344708;1127286472;701191771;889846708;129927315;409197403;4156;13115;1480000;141;11531;294701
3;22;1573018090827;1573018104293;13466;32776781292;4077346053;1129215229;712817583;889847863;130026736;409995270;2933;14780;1488968;-38;13466;1888534
3;23;1573018104293;1573018116889;12596;32437010822;4077345507;1128281511;705103892;889847236;130062303;410288383;2161;15006;1637424;-146;12479;1008844
3;24;1573018116889;1573018130523;13634;32874679840;4077348273;1131987441;714508208;889850371;130338018;411233805;4046;14467;1467312;148;13359;1418241
3;25;1573018130523;1573018143610;13087;32769856366;4077359852;1128465670;711667023;889851286;129984268;409069394;2168;17240;1767672;-85;13087;1638730
3;26;1573018143610;1573018156015;12405;32405023244;4077332095;1129033342;701061687;889844412;130000505;409215679;3864;13635;1471096;78;12261;780787
3;27;1573018156015;1573018168797;12782;32690504782;4077344093;1132861218;710909834;889847508;130229079;409502355;2566;14058;1450760;-6;12782;1826872
3;28;1573018168797;1573018181102;12305;32740106530;4077365886;1130316654;712072475;889850583;130169465;409093854;1951;16051;1656200;-89;12305;1543820
3;29;1573018181102;1573018193896;12794;32741598504;4077332896;1131997567;712607417;889846025;130305675;409514198;4482;12452;1370296;97;11693;1365231
3;30;1573018193896;1573018205802;11906;32468185910;4077362327;1129838525;701599296;889851537;130012401;409570545;2105;14059;1528960;-112;11906;1307824
3;31;1573018205802;1573018218311;12509;32531252070;4077345405;1132043607;706718594;889848241;130216767;410068879;4579;13331;1458264;96;12389;504972
3;32;1573018218311;1573018231993;13682;32894616140;4077333085;1130706356;715107584;889847550;130403628;409745199;2801;14895;1538560;26;13682;1963271
3;33;1573018231993;1573018245436;13443;32722756036;4077340735;1129643267;711859278;889846682;130143149;409372861;2047;18154;1800384;-71;13443;1814865
3;34;1573018245436;1573018258200;12764;32615399170;4077346868;1129848259;708554702;889847746;130060104;409802581;3109;13607;1467008;65;12764;1471941
3;35;1573018258200;1573018270619;12419;32705831862;4077347391;1128685420;709200026;889848269;130081478;408748198;2060;16389;1552840;-8;12419;1780316
3;36;1573018270619;1573018282911;12292;32388275730;4077349637;1127624294;698275586;889846602;129806461;410056125;2403;14782;1580488;10;12292;1262123
3;37;1573018282912;1573018296061;13149;32631150818;4077364197;1130812510;710708899;889853678;130245985;410255480;2858;14956;1539000;-32;13150;1845362
3;38;1573018296061;1573018308695;12634;32563711082;4077331751;1128100511;704356136;889844442;130088635;409315808;3446;14194;1612544;-74;11869;862267
3;39;1573018308695;1573018321518;12823;32701481208;4077346405;1129912448;709658791;889847438;130009266;410247273;3114;14361;1472064;87;12823;1438790
3;40;1573018321519;1573018334473;12954;32774343092;4077330454;1131709656;712600927;889844690;130156413;410163938;2392;16363;1689512;-103;12955;1332809
3;41;1573018334473;1573018348181;13708;32607922364;4077331719;1131736095;709463618;889845494;130294354;409486230;4249;13727;1573832;123;13240;824741
3;42;1573018348181;1573018361856;13675;32643509280;4077334419;1132118126;707436108;889847610;130279385;410556514;2581;16918;1636800;-21;13675;1954350
3;43;1573018361856;1573018375253;13397;32933906346;4077349087;1130766318;716534855;889849892;130129458;409705926;3677;15552;1768056;-112;12465;975174
3;44;1573018375253;1573018388498;13245;32654921078;4077347891;1130935181;708403568;889848788;130173856;409943775;3164;14702;1487224;119;13163;1825866
3;45;1573018388498;1573018401842;13344;32808072450;4077348247;1134025514;714042485;889850038;130357340;410105278;2789;10533;1223176;0;13344;2202951
3;46;1573018401842;1573018412281;10439;30733021900;4077324442;1122092453;655265374;889839839;129715387;407261086;1904;13888;1221432;19;10439;1499449
3;47;1573018412281;1573018424985;12704;32628743424;4077331301;1132178994;709628243;889845053;130112869;409789045;1997;17213;1706080;-17;12704;1896627
3;48;1573018424985;1573018437176;12191;32697238448;4077330510;1129015615;706933339;889844120;129876795;410377257;2573;11857;1380800;-38;12191;1656241
3;49;1573018437176;1573018449703;12527;32381353578;4077328660;1128354993;701052561;889843125;130049301;409309512;2220;15068;1591400;-68;12527;844466
3;50;1573018449703;1573018461859;12156;32475048348;4077361211;1128301154;699989719;889850844;129936149;408980478;3501;12535;1286120;120;12141;1215860
3;51;1573018461860;1573018474673;12813;32779554416;4077345959;1130987351;713704923;889848424;130243489;409097999;2095;16172;1625992;-51;12814;1755469
3;52;1573018474673;1573018487230;12557;32516202828;4077346685;1130195572;701895255;889848379;130102884;409896343;3932;14484;1522536;22;11569;669976
3;53;1573018487230;1573018500135;12905;32501714226;4077330689;1131158800;704307751;889845151;130101872;409166466;2656;14119;1486968;23;12905;1845639
3;54;1573018500135;1573018512756;12621;32676154442;4077341837;1128848481;709045017;889845657;129895118;409938221;1987;16431;1674768;-61;12621;1693392
4;5;1573018707163;1573018720054;12891;32610205512;3987972642;1124234849;704899089;890614576;130532507;408287906;2635;15162;1452632;-5;12892;1830810
4;6;1573018720054;1573018733043;12989;32477607436;3987960776;1125636326;704632235;890610967;130579100;409019989;2764;15012;1720320;-83;12846;1228078
4;7;1573018733043;1573018746095;13052;32924160700;3987958379;1130835918;716271911;890614313;130985242;410181377;3952;13042;1360528;101;12829;1525247
4;8;1573018746095;1573018759435;13340;32580506338;3987942345;1126568995;706373455;890608628;130640259;408509676;2159;16707;1739032;-109;13340;1431220
4;9;1573018759435;1573018772336;12901;32517503542;3987977708;1127351724;706473906;890615110;130595756;409672146;4167;13713;1480024;110;11852;940553
4;10;1573018772338;1573018785089;12751;32451427008;3987970471;1127379352;705051635;890614606;130724028;409329069;2422;14232;1538696;-102;12754;1347426
4;11;1573018785089;1573018798333;13244;32813665126;3987957720;1128279991;714606759;890613172;130809985;409329681;3191;14800;1625712;-47;13010;380064
4;12;1573018798334;1573018810966;12632;32541759544;3987958867;1127038649;704726786;890612691;130767508;409609187;3120;13641;1327760;129;12625;1674635
4;13;1573018810966;1573018823541;12575;32437516274;3987942170;1124216027;702964125;890608727;130545029;408379113;1957;15968;1693072;-99;12575;1497063
4;14;1573018823541;1573018836359;12818;32453473782;3987975386;1128213348;704559771;890616008;130726392;409368999;4117;13303;1405712;129;11932;904309
4;15;1573018836359;1573018849795;13436;32566157020;3987973011;1126456944;703646988;890614519;130664667;408938004;2347;16721;1682056;-20;13436;1885935
4;16;1573018849795;1573018863057;13262;32674587424;3987957602;1127285012;710068397;890611854;130653035;409133217;3258;16077;1682480;2;12965;879626
4;17;1573018863058;1573018875541;12483;32404805558;3987958080;1125373730;701289053;890610974;130480992;409287977;2584;13747;1408872;-3;12484;1765077
4;18;1573018875541;1573018889311;13770;32632748642;3987958455;1127151104;707695703;890612266;130769639;408294544;2140;17858;1860432;-98;13770;1685624
4;19;1573018889311;1573018902701;13390;32904015620;3987960258;1129002126;716428594;890614320;130859464;409029765;3795;13633;1440192;98;12984;1434677
4;20;1573018902701;1573018915656;12955;32629832876;3987983544;1126832574;706810343;890618111;130732926;408908345;1998;16813;1633768;-10;12956;1851362
4;21;1573018915656;1573018928754;13098;32747370176;3987949449;1128750543;713656500;890610891;130714897;410463041;2231;16789;1778696;-96;13098;1188219
4;22;1573018928754;1573018942267;13513;32734350334;3987943566;1126883389;711939674;890610275;130740568;409179891;4505;13932;1490576;99;12559;993890
4;23;1573018942267;1573018953957;11690;32213913478;3987954916;1123932029;696148853;890608787;130456734;408842537;2025;14900;1464400;23;11691;1668339
4;24;1573018953958;1573018966332;12374;32668249272;3987958177;1125381314;709527636;890611058;130540231;407896758;2354;14876;1623632;-148;12375;869332
4;25;1573018966332;1573018979080;12748;32263458286;3987942566;1125876392;700629555;890607921;130586455;408648662;3210;13727;1352360;130;12748;1690717
4;26;1573018979080;1573018991738;12658;32484495132;3987940524;1127878937;703544813;890608545;130677174;409588620;1965;16414;1645064;-45;12658;1699763
4;27;1573018991739;1573019005359;13620;32823612836;3987941160;1128604640;712339141;890608930;130687163;409980845;3343;14643;1627240;58;13620;1218163
4;28;1573019005359;1573019019839;14480;32623995504;3987941431;1125735088;706871544;890608140;130651366;408504622;2519;18755;1821816;-18;14481;2061490
4;29;1573019019839;1573019031985;12146;31892510392;3987950729;1122490512;684714378;890608203;130381635;407925279;2419;17002;1615816;-1;12146;1416970
4;30;1573019031985;1573019045123;13138;32387094298;3987957741;1125959296;701940428;890610987;130514510;408899319;2659;14253;1509176;10;13138;1884950
4;31;1573019045123;1573019058346;13223;32503763044;3987957346;1125839948;705052814;890611134;130621580;409175121;2008;18209;1854648;-46;13222;1796550
4;32;1573019058346;1573019071240;12894;32464567446;3987964736;1126383375;702683408;890613198;130768363;408483272;3276;13573;1414328;43;12586;1446348
4;33;1573019071241;1573019084206;12965;32734396616;3987947700;1127376771;708791490;890609103;130769595;409772191;2127;17070;1686464;-5;12966;1842747
4;34;1573019084206;1573019096418;12212;32535845522;3987941173;1124835859;705101886;890606798;130512423;409210415;2619;15109;1550088;14;12212;1002859
4;35;1573019096418;1573019108762;12344;32327036614;3987957132;1121627653;697522885;890610053;130334351;407268421;2620;13926;1400792;11;12344;1768903
4;36;1573019108763;1573019121863;13100;32694176244;3987940040;1125616340;709882157;890608042;130558965;409317816;1998;17318;1823288;-122;13101;1662604
4;37;1573019121863;1573019134737;12874;32299784108;3987938651;1123043847;697910962;890606653;130459452;408462212;3194;14350;1431536;98;12748;1436995
4;38;1573019134737;1573019148183;13446;32880163600;3987943670;1127722329;713641905;890610151;130926966;408700970;2229;17538;1752704;-25;13445;1876037
4;39;1573019148183;1573019160857;12674;32577207760;3987957232;1126261264;707429194;890611233;130597054;409466470;3089;14714;1569064;22;12570;978289
4;40;1573019160857;1573019174004;13147;32685112564;3987959564;1128127068;708814832;890614183;130870149;409356457;2709;14819;1486024;11;13148;1869734
4;41;1573019174004;1573019187409;13405;32575771412;3987956326;1127258819;708112319;890611700;130708087;408794528;2073;17187;1814944;-123;13404;1490552
4;42;1573019187409;1573019200545;13136;32718070458;3987960028;1126787077;709978742;890613177;130684200;408547345;3750;13392;1358400;126;12865;1645405
4;43;1573019200545;1573019214067;13522;32674846574;3987957934;1126075707;709050485;890612015;130632534;409338578;2202;18063;1807984;-23;13523;1822498
4;44;1573019214067;1573019226995;12928;32536754810;3987958899;1125052131;702451147;890611797;130586658;408731337;3586;13668;1469512;19;12922;1322945
4;45;1573019226995;1573019240313;13318;32487688152;3987945815;1128360008;705605769;890609220;130959782;410448748;2931;11980;1224944;10;13317;2271029
4;46;1573019240313;1573019251889;11576;31656700536;3987937740;1121820742;682748451;890605590;130363724;407612576;1591;17012;1566376;3;11577;1654877
4;47;1573019251889;1573019264124;12235;32560895472;3987941138;1126401652;706232701;890607598;130649352;408908628;1633;17153;1758088;139;12235;1766762
4;48;1573019264124;1573019279116;14992;32321720024;3987938058;1123778095;698047195;890605908;130328108;409220550;3678;14364;1683432;-256;14992;1898983
4;49;1573019279116;1573019292165;13049;32550535312;3987956178;1126141303;704935669;890610758;130616241;408915597;3280;15381;1606584;-33;12788;506735
4;50;1573019292165;1573019304650;12485;32430443596;3987956699;1126918260;703548633;890610877;130536369;409051356;3387;12228;1288024;141;12484;1421966
4;51;1573019304650;1573019318010;13360;32963050720;3987973211;1129387545;718787948;890617968;130931345;409354339;2271;17532;1648608;2;13360;1902689
4;52;1573019318010;1573019330675;12665;32414409584;3987947330;1125505564;701020040;890609608;130684754;408583157;2337;15714;1701584;-18;12666;1537159
4;53;1573019330675;1573019343573;12898;32760036552;3987941988;1127063176;712828509;890608906;130759362;409204042;2716;15004;1480880;4;12897;1851335
4;54;1573019343573;1573019355764;12191;32486422040;3987942112;1127147871;705750945;890607657;130596255;408988940;2000;15674;1616360;-76;12191;1359056
