0;15;1574213840601;1574213852398;11797;32922043116;4007826828;1133201706;712091454;889900795;130523519;411311905;12;19;968;0;4;10
0;16;1574213852398;1574213863942;11544;32895076332;4007797542;1130697229;709197243;889890370;130471644;410342419;11;18;952;0;3;10
0;17;1574213863942;1574213874900;10958;32446307372;4007800619;1129490943;705255374;889881007;130322894;409893618;45;14;5648;0;127;474
0;18;1574213874900;1574213886055;11155;32913038858;4007794487;1128498523;707017984;889878505;130310679;410567428;13;21;1136;0;5;15
0;19;1574213886055;1574213897083;11028;32935731054;4007806850;1131425564;707594377;889888756;130399181;409975305;52;28;6440;0;125;391
0;20;1574213897083;1574213908369;11286;32634068336;4007803478;1129395513;707153967;889885342;130379849;410322376;9;26;1144;0;13;23
0;21;1574213908369;1574213919558;11189;32579055828;4007784730;1127285558;703781204;889877809;130341645;409243958;0;0;0;0;0;0
0;22;1574213919558;1574213930820;11262;32405729008;4007781005;1127849941;703595742;889874103;130300333;409309268;40;34;6360;0;83;266
0;23;1574213930821;1574213941572;10751;32553839146;4007795989;1132762766;707181430;889880955;130337218;411013901;12;22;1136;0;13;30
0;24;1574213941572;1574213952472;10900;32592411032;4007802946;1130856174;707903143;889884510;130327069;410333797;0;0;0;0;0;0
0;25;1574213952472;1574213963226;10754;32591071336;4007800109;1129655242;706654155;889882757;130317548;411264944;9;21;960;0;11;13
0;26;1574213963226;1574213974444;11218;32717892630;4007810530;1130215223;710537157;889890512;130387541;411327052;29;41;6152;0;123;247
0;27;1574213974444;1574213985077;10633;32609924024;4007825991;1129800064;707327337;889888702;130350174;411065967;10;21;968;0;70;97
0;28;1574213985077;1574213995730;10653;32425588366;4007784722;1128006304;703017637;889877296;130338315;410880361;0;0;0;0;0;0
0;29;1574213995730;1574214006239;10509;32554491474;4007783229;1126785439;705970676;889876289;130317893;410021653;38;39;6288;0;70;273
0;30;1574214006239;1574214016635;10396;32423299816;4007779318;1125979877;704755962;889872165;130290836;410245073;10;20;960;0;3;5
0;31;1574214016635;1574214027174;10539;32454619006;4007807418;1128860918;705221674;889883179;130384455;411045828;0;0;0;0;0;0
0;32;1574214027174;1574214038140;10966;32851996404;4007785099;1129199223;707089649;889878159;130341708;409745141;39;36;6480;0;86;247
0;33;1574214038140;1574214049668;11528;32991903970;4007809670;1133377290;710124377;889895131;130486337;411148982;18;11;952;0;6;42
0;34;1574214049668;1574214060744;11076;32993216656;4007792620;1132026745;709583046;889885448;130417725;410313959;0;0;0;0;0;0
0;35;1574214060744;1574214071438;10694;32905550664;4007799650;1128389003;707112045;889880449;130333393;409427084;42;35;6480;0;77;299
0;36;1574214071438;1574214082036;10598;32886428314;4007799807;1128056844;706904300;889880014;130293309;410564211;9;26;1144;0;56;84
0;37;1574214082036;1574214092957;10921;32988384932;4007810131;1131756094;708235083;889890322;130415342;410639741;9;15;768;0;11;16
0;38;1574214092957;1574214103639;10682;32996859794;4007818913;1131276159;707246114;889888433;130346544;410441224;0;0;0;0;0;0
0;39;1574214103639;1574214114275;10636;32720878622;4007813853;1128067559;705999127;889883730;130327411;409610882;41;44;7016;0;95;347
0;40;1574214114276;1574214125656;11380;32631641086;4007803686;1131178005;705822838;889886946;130374187;410599400;7;17;768;0;12;37
0;41;1574214125656;1574214136526;10870;33070148728;4007819333;1131961608;711446558;889889210;130334527;410009843;0;0;0;0;0;0
0;42;1574214136526;1574214147313;10787;32782632534;4007799575;1127243284;703436710;889881523;130315815;409721204;45;30;6368;0;124;446
0;43;1574214147313;1574214158644;11331;32686684546;4007791109;1131698358;706289769;889884188;130401055;410262764;11;23;1136;0;12;19
0;44;1574214158644;1574214169824;11180;32483098788;4007808509;1129571825;702907269;889888951;130416218;411150873;11;19;960;0;4;6
0;45;1574214169825;1574214180468;10643;32617618662;4007786977;1125675636;699181575;889875722;130302480;409548172;36;24;7632;0;114;295
0;46;1574214180468;1574214191743;11275;32587356658;4007795789;1133742181;710056524;889888691;130434752;410984708;7;22;952;0;13;33
0;47;1574214191743;1574214202383;10640;32522488128;4007783730;1125413752;703060475;889876304;130338255;409910230;9;21;960;0;13;34
0;48;1574214202383;1574214213028;10645;32482234614;4007789676;1121802272;697801811;889871673;130204692;408212976;57;20;8592;0;114;659
0;49;1574214213029;1574214224467;11438;32767871350;4007805156;1131007339;708561075;889888435;130429770;410859110;464;32;44592;0;1460;2104
0;50;1574214224467;1574214234900;10433;32561574956;4007778590;1122404100;700416633;889871650;130255740;409358751;11;19;960;0;4;9
0;51;1574214234900;1574214245502;10602;32598104886;4007811152;1124493533;701759311;889880691;130298729;409687521;12;17;952;0;5;12
0;52;1574214245502;1574214256660;11158;32639177460;4007800144;1125950564;704596384;889880924;130351763;408849313;53;28;9136;0;104;653
0;53;1574214256661;1574214268289;11628;32828908256;4007811788;1132333863;711459599;889892230;130451349;410368166;102;5;1768;0;227;2964
0;54;1574214268289;1574214279344;11055;32757996348;4007793195;1129884769;706891398;889886078;130413424;409018324;18;10;944;0;5;62
0;55;1574214279344;1574214289890;10546;32204460708;4007783499;1126375090;698116511;889877240;130339870;410423030;75;44;12496;0;170;991
0;56;1574214289890;1574214300821;10931;32429635340;4007810684;1129593728;702966788;889891771;130451766;410080631;9;22;968;0;13;47
0;57;1574214300821;1574214312379;11558;33039544500;4007805735;1132795957;712469922;889894637;130423676;410403562;10;19;952;0;13;41
0;58;1574214312380;1574214323154;10774;32709128542;4007786996;1126225209;703267702;889879589;130326255;409618244;59;47;10600;0;116;518
0;59;1574214323154;1574214333802;10648;32623815486;4007784053;1124430146;703096432;889873598;130300356;408843505;0;0;0;0;0;0
0;60;1574214333802;1574214345124;11322;32599147764;4007789780;1127858832;703473626;889883981;130384166;410194984;14;11;776;0;4;21
0;61;1574214345124;1574214355524;10400;32378978012;4007780361;1123351771;694866928;889872999;130282252;409589754;74;51;10056;0;110;718
0;62;1574214355524;1574214365992;10468;32505550376;4007781410;1123978238;697207561;889874254;130269734;409228802;0;0;0;0;0;0
0;63;1574214365993;1574214376620;10627;32693407846;4007784502;1126440362;702414426;889877391;130262118;409248185;15;10;776;0;5;35
0;64;1574214376620;1574214387148;10528;32769875200;4007793080;1127148022;703155830;889875256;130247004;409610472;14;20;1136;0;4;8
1;16;1574214679766;1574214690242;10476;32600016464;4077380852;1133516215;703709239;889893907;130014901;409697887;9;17;784;0;4;13
1;17;1574214690242;1574214700914;10672;32842470634;4077383659;1131461702;705770825;889896947;130052628;409953221;49;36;6336;0;94;487
1;18;1574214700914;1574214711530;10616;32494883616;4077395636;1129568318;702009108;889896411;130046883;409011782;0;0;0;0;0;0
1;19;1574214711531;1574214722918;11387;32666900378;4077406354;1129518093;702581418;889901068;130036911;408784139;10;21;968;0;13;38
1;20;1574214722918;1574214735156;12238;32863967236;4077397536;1132924040;708856998;889911507;130106426;410347553;45;30;6160;0;91;354
1;21;1574214735156;1574214746470;11314;32729441668;4077392845;1131425028;701200685;889907003;130118616;410754667;14;22;1152;0;13;32
1;22;1574214746471;1574214756955;10484;32953430050;4077375641;1127294970;704475279;889888696;129919960;408779001;0;0;0;0;0;0
1;23;1574214756955;1574214767497;10542;32669029642;4077398597;1129988596;698458440;889899391;129999160;408864373;54;31;6416;0;115;422
1;24;1574214767498;1574214778117;10619;33009725022;4077397021;1130606656;705953886;889897140;130024322;409147570;8;22;960;0;13;25
1;25;1574214778117;1574214789578;11461;32741297306;4077404568;1131340196;703489534;889906611;130056574;410242450;0;0;0;0;0;0
1;26;1574214789578;1574214800108;10530;32505003606;4077395031;1129276204;703802524;889895806;130041885;409211105;31;38;5968;0;112;194
1;27;1574214800108;1574214810574;10466;32422582810;4077381039;1129469849;702073752;889894346;130069256;409939939;9;16;776;0;4;17
1;28;1574214810574;1574214821045;10471;32588516920;4077404869;1132390919;704251747;889899389;130035819;411139383;0;0;0;0;0;0
1;29;1574214821045;1574214831548;10503;32680202000;4077378995;1131163765;706725815;889892302;130038862;409546185;12;23;1144;0;3;9
1;30;1574214831548;1574214842234;10686;32522094950;4077381123;1132626634;704829052;889894411;130001108;409322447;38;30;5976;0;90;296
1;31;1574214842234;1574214852689;10455;32574561510;4077379428;1130710292;704834946;889892697;130019489;409785073;0;0;0;0;0;0
1;32;1574214852689;1574214863813;11124;32643245750;4077409975;1136264513;706642018;889906838;130108989;410397681;15;20;1144;0;5;12
1;33;1574214863813;1574214874633;10820;32768231970;4077392187;1136774361;708625462;889905242;130250280;410470875;30;36;6040;0;65;156
1;34;1574214874633;1574214885139;10506;32578341012;4077399260;1133066377;705331574;889900219;130077763;409259083;8;16;768;0;3;6
1;35;1574214885139;1574214895730;10591;32652905694;4077417446;1134344810;707893583;889907698;130122876;409745168;0;0;0;0;0;0
1;36;1574214895730;1574214906246;10516;32632107848;4077381670;1133105959;705653946;889894977;130001798;410510121;43;44;6672;0;105;343
1;37;1574214906246;1574214916917;10671;32773578490;4077403317;1137472592;710098017;889905917;130210012;410974977;7;15;752;0;3;5
1;38;1574214916917;1574214927390;10473;32566338206;4077393333;1131978116;705697825;889895933;130018892;409455017;0;0;0;0;0;0
1;39;1574214927390;1574214938012;10622;32697071862;4077427440;1135491173;708048657;889909612;130074600;409845780;40;49;7008;0;101;218
1;40;1574214938012;1574214948499;10487;32617903362;4077393772;1132667343;706811637;889896372;130054032;409264528;5;17;752;0;11;11
1;41;1574214948499;1574214958906;10407;32548235082;4077409244;1131106501;703467357;889899496;130014129;409021301;0;0;0;0;0;0
1;42;1574214958907;1574214969446;10539;32604383762;4077396442;1132536308;705111366;889899042;130070335;409587620;50;30;6312;0;74;404
1;43;1574214969446;1574214979871;10425;32521466420;4077408666;1130834756;703558805;889898918;129979998;409014234;5;23;944;0;41;41
1;44;1574214979871;1574214990382;10511;32523043512;4077396258;1133104768;703982179;889898858;130072317;409550577;0;0;0;0;0;0
1;45;1574214990382;1574215001450;11068;32668071444;4077418772;1132602875;701930517;889909937;130157109;410075221;11;20;968;0;13;22
1;46;1574215001450;1574215012192;10742;32626505682;4077399572;1132901195;706423824;889902153;130076785;410204525;31;36;6096;0;86;193
1;47;1574215012192;1574215022631;10439;32555267026;4077394574;1133019483;705121576;889897174;130001900;409859981;8;15;760;0;3;6
1;48;1574215022632;1574215033192;10560;32726788556;4077400312;1134441155;709068915;889902912;130080072;410163309;0;0;0;0;0;0
1;49;1574215033192;1574215043636;10444;32598905258;4077408459;1131683765;706808593;889898711;129998823;408626607;57;40;8656;0;83;471
1;50;1574215043636;1574215054436;10800;32903513234;4077398512;1132514146;707941586;889900916;130016624;409125011;7;18;800;0;12;25
1;51;1574215054436;1574215064914;10478;32909229134;4077389879;1126887186;704175133;889892479;129998546;408178437;0;0;0;0;0;0
1;52;1574215064914;1574215075539;10625;33039660570;4077411384;1129937896;707311620;889901636;130029168;409123664;13;22;1144;0;13;44
1;53;1574215075539;1574215086454;10915;32617335860;4077398504;1131224364;701664122;889900895;130088474;409492570;513;57;53448;0;1614;2475
1;54;1574215086454;1574215096795;10341;32424401240;4077406081;1130097585;701634346;889896333;129986366;408251556;0;0;0;0;0;0
1;55;1574215096795;1574215107254;10459;32600491840;4077410444;1132132990;705039370;889900696;130013120;408914492;8;16;768;0;3;7
1;56;1574215107254;1574215118419;11165;32738958240;4077387746;1130654328;706777785;889898216;130006131;410308185;136;40;10240;0;202;3400
1;57;1574215118420;1574215129726;11306;32514632452;4077403549;1134294946;704282555;889905592;130076286;411088343;16;9;776;0;13;122
1;58;1574215129726;1574215140509;10783;32543512274;4077380439;1128082175;702518239;889893727;130017419;409497283;47;32;10800;0;102;594
1;59;1574215140509;1574215151002;10493;32539334046;4077416961;1132613937;703954890;889904868;130018156;410461636;9;15;768;0;3;8
1;60;1574215151002;1574215161483;10481;32604085630;4077383586;1132483112;704187591;889896893;130024785;410317392;14;20;1136;0;4;18
1;61;1574215161483;1574215171933;10450;32632020248;4077411998;1130266053;705900380;889900444;130013416;408954025;36;20;7440;0;101;367
1;62;1574215171933;1574215182411;10478;32626055126;4077381762;1131561356;707202655;889895069;130035098;410661665;16;11;816;0;18;123
1;63;1574215182411;1574215192806;10395;32506489448;4077377749;1129837833;704007477;889890807;130003778;409701140;16;17;1128;0;13;36
1;64;1574215192806;1574215203421;10615;32570773394;4077393105;1129365371;704231002;889895456;130032550;409072718;0;0;0;0;0;0
1;65;1574215203421;1574215214230;10809;32641613762;4077393886;1132649436;706218101;889896215;130017809;409571819;69;32;9632;0;118;770
2;17;1574215514817;1574215525444;10627;33104215054;4077365178;1129983767;706688860;889855430;130349403;408541105;59;12;5264;0;107;744
2;18;1574215525444;1574215536131;10687;33051233114;4077352096;1130052877;706187111;889854696;130359788;409159116;8;20;944;0;13;46
2;19;1574215536131;1574215546806;10675;32962668200;4077354839;1130642904;703849691;889857439;130389214;408875331;13;17;960;0;4;16
2;20;1574215546806;1574215557562;10756;32945930614;4077359290;1131787147;702358923;889861890;130421254;409472267;45;8;5264;0;101;498
2;21;1574215557562;1574215568212;10650;32972013806;4077352778;1130192762;701770981;889855378;130407221;409252904;7;18;776;0;4;10
2;22;1574215568212;1574215578857;10645;33077523626;4077366829;1129353574;705996447;889857081;130431953;408616550;13;22;1144;0;13;23
2;23;1574215578857;1574215589470;10613;32869511294;4077353571;1130204205;701010819;889856171;130383172;409144931;68;29;6352;0;145;857
2;24;1574215589470;1574215600089;10619;32908714922;4077369214;1130102026;701347935;889859466;130340242;408421171;8;0;144;0;37;67
2;25;1574215600089;1574215610722;10633;32950193376;4077354337;1131523354;701140800;889855055;130392498;410010034;6;18;768;0;12;23
2;26;1574215610722;1574215621287;10565;32951491316;4077351087;1130664378;702200661;889852047;130346652;409895586;8;27;1144;0;33;48
2;27;1574215621287;1574215631880;10593;32915882208;4077351407;1129608848;701896864;889854007;130354160;408564857;51;10;5328;0;90;559
2;28;1574215631880;1574215642572;10692;32951183548;4077369629;1130856577;702378260;889859881;130362058;408870568;7;18;776;0;4;11
2;29;1574215642572;1574215653177;10605;32906326654;4077348370;1129168613;700884966;889853714;130364720;409115533;12;18;960;0;3;10
2;30;1574215653177;1574215663933;10756;33081219908;4077340034;1132483197;704239167;889853341;130409091;409600696;51;2;5008;0;91;560
2;31;1574215663933;1574215674567;10634;32991015560;4077354075;1130082238;704056671;889855034;130399500;408631070;10;20;960;0;3;6
2;32;1574215674567;1574215685267;10700;33055730498;4077341899;1133215276;705542104;889855206;130385408;410240952;11;18;952;0;4;7
2;33;1574215685268;1574215696113;10845;33112381710;4077346849;1133098663;707155439;889859904;130424116;410699756;63;27;5912;0;100;633
2;34;1574215696113;1574215706851;10738;32712255862;4077357773;1126887418;699362857;889858523;130417619;408574299;0;0;0;0;0;0
2;35;1574215706851;1574215717446;10595;32720469968;4077362032;1128043809;700080138;889854852;130350406;408944308;9;21;960;0;5;21
2;36;1574215717446;1574215727913;10467;32638201158;4077364147;1124428164;696590890;889854234;130335947;408342030;50;35;6608;0;86;438
2;37;1574215727913;1574215738488;10575;32846861000;4077368105;1128531491;700874776;889858357;130379571;408562696;0;0;0;0;0;0
2;38;1574215738488;1574215748886;10398;32688268208;4077344728;1124908024;697873636;889847328;130310075;408387667;11;17;944;0;3;10
2;39;1574215748887;1574215759333;10446;32692529656;4077345828;1126232832;697561652;889848428;130321913;408906739;11;20;968;0;4;12
2;40;1574215759333;1574215769753;10420;32692793770;4077371131;1124890794;696261764;889852942;130317209;407521106;63;8;6288;0;121;775
2;41;1574215769753;1574215780186;10433;32710824770;4077360660;1126805823;697724343;889850912;130323177;408563874;6;18;768;0;32;34
2;42;1574215780186;1574215790906;10720;32883780020;4077338559;1128488923;702019586;889851847;130415166;409508328;13;17;960;0;4;12
2;43;1574215790907;1574215801550;10643;32799280622;4077363305;1126523260;700929778;889853392;130325555;408396571;39;12;5520;0;91;421
2;44;1574215801550;1574215812285;10735;32863191100;4077368253;1131271227;701644481;889864197;130442694;409805898;8;22;960;0;13;17
2;45;1574215812285;1574215822853;10568;32781716238;4077352293;1128575084;700009691;889853252;130370499;408418380;13;12;776;0;4;17
2;46;1574215822853;1574215833608;10755;32895206126;4077344149;1131570912;702588962;889857456;130444841;410310747;37;12;5328;0;78;379
2;47;1574215833608;1574215844466;10858;33073315176;4077349972;1132473459;708756646;889863260;130435678;410318938;11;18;952;0;11;14
2;48;1574215844466;1574215855883;11417;32702439406;4077369344;1127061524;700894590;889861637;130398118;408980354;11;14;800;0;11;29
2;49;1574215855883;1574215866948;11065;32766499388;4077368841;1129640500;700697653;889861280;130371158;410375190;63;33;8584;0;107;590
2;50;1574215866948;1574215877552;10604;32756140104;4077343193;1130378904;700117628;889856500;130422746;409089616;0;0;0;0;0;0
2;51;1574215877553;1574215888068;10515;32764242228;4077365760;1126277311;699218819;889856012;130362977;408009471;8;22;960;0;13;25
2;52;1574215888068;1574215898978;10910;32846294374;4077339370;1127702416;702099071;889852658;130428318;409191958;523;60;54016;0;1575;2543
2;53;1574215898978;1574215909366;10388;32605979250;4077361795;1123438250;697293245;889851863;130296731;407979579;0;0;0;0;0;0
2;54;1574215909366;1574215919906;10540;32727395916;4077367046;1127262663;698265886;889857298;130357917;408345106;11;19;960;0;3;7
2;55;1574215919907;1574215930412;10505;32782524056;4077364667;1127644300;699623671;889854919;130361150;408927068;92;11;1568;0;76;2033
2;56;1574215930412;1574215941104;10692;32930974812;4077348650;1128070795;701593388;889851250;130344362;408855000;67;32;10672;0;144;961
2;57;1574215941104;1574215951802;10698;33112282868;4077369381;1131413616;706789829;889859633;130387263;408570205;15;14;952;0;5;27
2;58;1574215951802;1574215962558;10756;32736442952;4077359508;1132911931;700936529;889860486;130470821;410275153;18;12;960;0;13;53
2;59;1574215962558;1574215973467;10909;32642527430;4077356507;1132062583;702382961;889854574;130384085;410290523;65;28;8536;0;112;675
2;60;1574215973467;1574215984054;10587;32702802800;4077355530;1134403459;704715327;889857629;130383481;410365260;0;0;0;0;0;0
2;61;1574215984054;1574215994541;10487;32645466264;4077337089;1132104521;705037046;889849895;130359748;409844122;18;10;944;0;5;40
2;62;1574215994541;1574216004985;10444;32608768434;4077334326;1129711209;705571915;889847384;130355430;409232091;67;35;8672;0;128;643
2;63;1574216004986;1574216015457;10471;32509057588;4077351906;1131133107;701151832;889854506;130382909;410351238;0;0;0;0;0;0
2;64;1574216015458;1574216025971;10513;32584014572;4077339246;1132318465;703646170;889852303;130380924;409995746;15;13;944;0;4;23
2;65;1574216025971;1574216036391;10420;32620902640;4077378515;1130960581;705452854;889856254;130366028;409506687;12;13;776;0;4;18
2;66;1574216036391;1574216046806;10415;32539209362;4077349671;1130259201;702391035;889850630;130364612;409316224;69;8;8912;0;123;930
3;16;1574216341742;1574216352395;10653;33049408260;4077419075;1126792008;705168469;889921675;130541498;409322426;11;19;960;0;13;29
3;17;1574216352395;1574216364119;11724;32887771806;4077421416;1132155928;706924810;889935788;130736050;411177479;75;21;6024;0;140;1029
3;18;1574216364119;1574216374575;10456;32676403956;4077434007;1126428602;705390608;889923676;130555638;410127853;0;0;0;0;0;0
3;19;1574216374575;1574216385034;10459;32693879864;4077433224;1126418121;706512550;889923476;130573677;408990955;12;15;792;0;12;52
3;20;1574216385035;1574216395490;10455;32675892664;4077417645;1125060560;705617567;889920245;130566404;408430424;65;31;6392;0;100;592
3;21;1574216395490;1574216406099;10609;32618975878;4077433105;1130390391;705473512;889929638;130642895;411017129;0;0;0;0;0;0
3;22;1574216406099;1574216416609;10510;32637752062;4077423709;1127703887;705043978;889924668;130634479;409664734;12;15;792;0;4;28
3;23;1574216416609;1574216427121;10512;32652822474;4077422375;1127285152;705854808;889924779;130624939;409321441;97;26;6608;0;170;1378
3;24;1574216427121;1574216437649;10528;32594406268;4077428207;1129649415;705063829;889926129;130609271;410067461;0;0;0;0;0;0
3;25;1574216437649;1574216448062;10413;32523446326;4077413561;1126257181;702549979;889918868;130574188;409275997;11;19;960;0;3;9
3;26;1574216448062;1574216458513;10451;32616328752;4077404020;1126414839;702394873;889917327;130629273;409283021;72;26;6232;0;115;801
3;27;1574216458514;1574216468950;10436;32649184154;4077403737;1127139287;704360907;889917044;130551733;409879587;9;20;952;0;4;12
3;28;1574216468950;1574216480453;11503;32823171478;4077421344;1133093468;709759386;889934380;130721703;410289029;0;0;0;0;0;0
3;29;1574216480453;1574216491039;10586;32629687168;4077412162;1129283014;705505447;889925195;130638206;410094777;13;18;968;0;12;31
3;30;1574216491039;1574216501453;10414;32625839046;4077402988;1126054427;704094848;889916295;130546661;408710437;77;20;5840;0;127;968
3;31;1574216501453;1574216511889;10436;32671853428;4077403882;1126046673;705860058;889917189;130557209;408345343;0;0;0;0;0;0
3;32;1574216511889;1574216522488;10599;32814616462;4077423342;1128941863;708800526;889925942;130633575;409872528;13;18;968;0;4;10
3;33;1574216522488;1574216533577;11089;33004316160;4077447160;1130309490;709285186;889935335;130641493;410265752;73;24;5776;0;118;857
3;34;1574216533577;1574216544179;10602;33042894762;4077436231;1125847791;705481925;889926318;130592967;410131317;0;0;0;0;0;0
3;35;1574216544179;1574216554720;10541;32902563942;4077432897;1123532266;702361834;889921307;130546788;408686745;13;17;960;0;4;11
3;36;1574216554721;1574216565236;10515;32899811258;4077425103;1125149649;700813246;889921633;130552887;409998987;63;34;6480;0;141;707
3;37;1574216565236;1574216575881;10645;33045567584;4077413605;1127141617;705136312;889922234;130590065;409287964;0;0;0;0;0;0
3;38;1574216575881;1574216586465;10584;32903844362;4077407900;1124899155;703429937;889921207;130570014;408718278;7;15;752;0;3;6
3;39;1574216586466;1574216597078;10612;32911412710;4077419336;1127391646;702648848;889924173;130583001;409240110;63;33;6184;0;104;562
3;40;1574216597078;1574216607608;10530;32894873976;4077420644;1125336866;700005783;889921438;130557709;409291806;7;20;936;0;3;3
3;41;1574216607608;1574216618292;10684;33069438000;4077439365;1129022969;703942654;889929200;130586405;410606912;0;0;0;0;0;0
3;42;1574216618292;1574216628950;10658;33078429848;4077423297;1127483562;705666643;889925897;130577885;409426081;80;22;6336;0;102;961
3;43;1574216628951;1574216639733;10782;33071845978;4077436566;1130701762;706036026;889932844;130614258;411471982;8;16;768;0;12;25
3;44;1574216639733;1574216650340;10607;33043988740;4077422654;1127298954;705485975;889923613;130566922;409675455;0;0;0;0;0;0
3;45;1574216650340;1574216661039;10699;33124116022;4077425086;1129309775;706384861;889927686;130603920;409783280;71;24;6160;0;88;697
3;46;1574216661039;1574216671706;10667;33084389276;4077437080;1126526829;706178810;889927083;130597909;408599136;7;23;960;0;5;11
3;47;1574216671706;1574216682387;10681;33196277252;4077439678;1128848823;708914328;889928124;130589111;410097725;0;0;0;0;0;0
3;48;1574216682387;1574216692980;10593;33085385580;4077435993;1125581721;706718169;889926080;130565893;409616105;11;14;776;0;3;13
3;49;1574216692980;1574216703526;10546;32896415736;4077433970;1123551646;703142665;889924013;130562333;408545660;62;34;8128;0;103;540
3;50;1574216703526;1574216714020;10494;32735304298;4077415946;1121155350;700162357;889918565;130553634;408274879;0;0;0;0;0;0
3;51;1574216714020;1574216724504;10484;32784766178;4077417256;1121919928;700993789;889919856;130556978;407956362;84;34;9112;0;114;955
3;52;1574216724504;1574216734990;10486;32722083122;4077434046;1123196705;700738591;889924298;130564639;408993335;7;16;760;0;12;34
3;53;1574216734990;1574216745530;10540;32712077012;4077421677;1123989362;700619496;889924277;130575460;408658835;10;17;792;0;4;19
3;54;1574216745531;1574216756086;10555;32833951680;4077419341;1124479106;701233959;889921941;130561280;408679560;0;0;0;0;0;0
3;55;1574216756086;1574216766860;10774;32963547266;4077431441;1127460352;705282781;889922815;130571719;409714389;528;47;52248;1;1647;2462
3;56;1574216766860;1574216777933;11073;32949243354;4077415708;1124192592;703177812;889918308;130570969;408240691;516;50;206424;-1;1678;5292
3;57;1574216777933;1574216788459;10526;32971000420;4077416160;1124686649;704151637;889918760;130507665;408836271;0;0;0;0;0;0
3;58;1574216788459;1574216799004;10545;33004748174;4077404220;1125021483;704237742;889916691;130522440;409651699;82;49;10608;0;108;1115
3;59;1574216799004;1574216809590;10586;33050324556;4077421334;1126574440;704468367;889922041;130541012;410297911;86;24;1800;0;140;1533
3;60;1574216809590;1574216820119;10529;33044360310;4077402220;1123722773;705409403;889915527;130509506;409526382;0;0;0;0;0;0
3;61;1574216820119;1574216831729;11610;32880676352;4077448011;1132386616;710733106;889937560;130709361;410213230;93;42;11792;0;243;1158
3;62;1574216831730;1574216842791;11061;33178733308;4077411181;1127839312;710008742;889924217;130605776;409977511;7;17;768;0;12;26
3;63;1574216842791;1574216853543;10752;33003456366;4077411941;1128310231;705771797;889924980;130637734;409032608;17;18;1144;0;15;148
3;64;1574216853543;1574216864732;11189;33032217782;4077437410;1123919786;706695744;889926959;130649801;409088197;45;30;7248;0;96;533
3;65;1574216864732;1574216875557;10825;32725800866;4077405540;1124491715;702415465;889919735;130598354;409059605;11;14;776;0;13;50
4;17;1574217183917;1574217194385;10468;32613692722;3987806399;1131691071;707623142;888212018;130018903;409454253;13;15;944;0;4;18
4;18;1574217194385;1574217204759;10374;32405516578;3987818992;1129603894;702600286;888211974;129990425;408889727;65;10;5392;0;130;928
4;19;1574217204759;1574217215170;10411;32500739092;3987821688;1132542780;702710156;888214670;130009451;409987090;14;11;776;0;4;30
4;20;1574217215170;1574217225636;10466;32623147244;3987845870;1132818568;706987863;888219819;130043460;410676556;12;18;960;0;3;7
4;21;1574217225636;1574217236013;10377;32404108700;3987834348;1131803054;702714154;888216746;130023501;409166783;55;8;5648;0;129;675
4;22;1574217236013;1574217246505;10492;32465404318;3987822422;1132617694;701163664;888217119;130028018;409841631;11;19;960;0;4;16
4;23;1574217246505;1574217256906;10401;32515754462;3987834100;1132202663;702435731;888216498;130012481;409412888;17;15;912;0;57;104
4;24;1574217256906;1574217267445;10539;32473643536;3987823891;1133628748;702767830;888218588;130063545;410341620;77;6;5392;0;126;1164
4;25;1574217267446;1574217277838;10392;32545296540;3987832431;1131687866;704966451;888214829;129981738;409644305;9;17;784;0;12;22
4;26;1574217277838;1574217288240;10402;32520540926;3987818706;1130192809;704216548;888213403;129996155;409474169;9;20;952;0;3;4
4;27;1574217288240;1574217298714;10474;32589329994;3987834734;1131063615;705992866;888217151;130006900;408454932;63;28;5696;0;119;914
4;28;1574217298714;1574217309334;10620;32730762822;3987822957;1133208855;710173130;888220106;130029282;410282905;0;0;0;0;0;0
4;29;1574217309334;1574217319756;10422;32425964900;3987807205;1131123577;703103004;888212573;130046619;409891005;8;24;976;0;40;41
4;30;1574217319756;1574217330139;10383;32414657200;3987803940;1129564862;701583314;888209363;130015677;408593427;39;27;6024;0;90;328
4;31;1574217330139;1574217340722;10583;32613953770;3987814184;1135668356;706407971;888219803;130094897;409956119;0;0;0;0;0;0
4;32;1574217340722;1574217351109;10387;32343062012;3987803789;1130009666;699294271;888209408;130020739;409163916;14;18;976;0;4;12
4;33;1574217351109;1574217361555;10446;32400980650;3987808623;1133644320;699521583;888214242;130069090;410197101;8;20;944;0;4;10
4;34;1574217361555;1574217372052;10497;32487816632;3987839651;1132462628;701409219;888221711;130046657;409441321;47;10;5456;0;85;494
4;35;1574217372052;1574217382503;10451;32446501406;3987845526;1132598237;702158377;888219454;130032492;410116589;12;14;784;0;4;12
4;36;1574217382503;1574217393131;10628;32616865302;3987844585;1135438840;707140846;888226983;130059605;410483247;11;18;952;0;12;14
4;37;1574217393131;1574217403585;10454;32514158828;3987821861;1131823314;703967455;888216558;130041696;409853682;65;10;5456;0;117;897
4;38;1574217403585;1574217414226;10641;32584461040;3987845722;1130330593;702932878;888220220;130024045;409237645;7;22;952;0;39;48
4;39;1574217414226;1574217424910;10684;33017371626;3987839209;1129584694;706881897;888221607;130077641;409523264;49;38;6288;0;83;408
4;40;1574217424910;1574217435298;10388;32410420134;3987825912;1126926629;701093951;888212749;130014363;408991846;0;0;0;0;0;0
4;41;1574217435298;1574217445852;10554;32504794388;3987812134;1132020626;703652684;888217753;130079687;410566918;8;16;768;0;12;35
4;42;1574217445852;1574217456443;10591;32748197704;3987837133;1129494096;704794198;888219531;130051094;409628103;9;21;960;0;13;35
4;43;1574217456444;1574217467070;10626;32937882218;3987821939;1128593811;705039382;888216636;130043941;408898987;60;10;5552;0;109;739
4;44;1574217467070;1574217477580;10510;32778538694;3987818723;1126537546;700150744;888213420;130014305;408444617;6;24;960;0;5;9
4;45;1574217477581;1574217488096;10515;32838693906;3987818725;1127892142;700884491;888213422;129993700;409527208;12;18;960;0;4;14
4;46;1574217488096;1574217498581;10485;32895111372;3987817319;1125956463;702230924;888212016;129971601;408521338;51;32;6160;0;83;461
4;47;1574217498581;1574217509204;10623;32991908642;3987838676;1129447433;706517808;888221074;130026788;408592595;0;0;0;0;0;0
4;48;1574217509204;1574217519741;10537;32893967608;3987819627;1126724328;703451477;888214324;130005903;408257968;15;16;992;0;4;15
4;49;1574217519741;1574217530356;10615;32968680626;3987822058;1129688459;704909781;888216755;130048161;410012490;16;15;1016;0;13;40
4;50;1574217530356;1574217540956;10600;32977710726;3987837345;1129177651;705379076;888219743;130036090;409827832;82;18;9488;0;162;1289
4;51;1574217540956;1574217551534;10578;32956304644;3987821128;1127886158;705514931;888215825;130051919;408763919;7;22;952;0;13;24
4;52;1574217551535;1574217562316;10781;33040955590;3987831461;1132627908;707464389;888226158;130130119;410357690;9;17;784;0;12;27
4;53;1574217562317;1574217573065;10748;32896728906;3987807969;1127779319;704073099;888213569;130034050;409740918;533;29;63008;0;1658;2872
4;54;1574217573065;1574217583669;10604;32880679710;3987839000;1129608030;702596469;888221041;130059615;410275827;9;15;768;0;3;8
4;55;1574217583669;1574217594209;10540;32934926594;3987835099;1128575542;703540989;888217497;129989821;409210135;19;19;1216;0;9;31
4;56;1574217594209;1574217604714;10505;32829668478;3987834164;1126644400;701914376;888216562;129981438;409139246;71;26;8976;0;153;1027
4;57;1574217604714;1574217615261;10547;32866431278;3987821389;1128408587;702661815;888216086;130042199;409523775;97;4;1568;0;89;2754
4;58;1574217615261;1574217625787;10526;32768621644;3987828500;1127921674;698121787;888216582;129989264;410099535;15;15;960;0;4;16
4;59;1574217625787;1574217636272;10485;32876966784;3987833273;1126824025;701521340;888215333;130006767;409171113;0;0;0;0;0;0
4;60;1574217636272;1574217646922;10650;32931955494;3987849080;1130674109;704403791;888225386;130023714;410080854;84;40;10992;0;177;1232
4;61;1574217646922;1574217657476;10554;32911393876;3987822140;1128234063;704294409;888214871;130093246;409538729;9;15;768;0;3;8
4;62;1574217657476;1574217667907;10431;32815116658;3987801386;1125208675;700988549;888206754;129956627;408884286;56;37;8016;0;111;575
4;63;1574217667907;1574217678404;10497;32887145028;3987800092;1124800770;702683802;888205711;129968713;408334734;0;0;0;0;0;0
4;64;1574217678404;1574217688903;10499;32989559648;3987802768;1126340006;706587141;888207882;129960322;408959673;13;12;800;0;12;22
4;65;1574217688903;1574217699383;10480;32632667904;3987802923;1127172280;701937482;888208288;129995290;408885552;12;13;800;0;4;18
4;66;1574217699383;1574217709764;10381;32414553978;3987818969;1130344700;702153331;888213415;129986775;409346695;64;14;8016;0;121;846
