0;12;1572989804005;1572989815721;11716;31378724420;4077387855;1118640855;614356547;889888869;129851344;407169981;1676;3028;77616;0;539;4268
0;13;1572989815721;1572989826978;11257;31574807238;4077387929;1120809039;618463444;889888943;129821031;408270172;3221;2211;153544;0;2670;301311
0;14;1572989826978;1572989838059;11081;31356908224;4077377326;1117395177;611361774;889886101;129793246;407601864;650;3449;67648;0;333;624
0;15;1572989838059;1572989849573;11514;31472587674;4077397304;1118861652;616658138;889890654;129826282;406945334;2394;2044;73176;0;668;7121
0;16;1572989849573;1572989860846;11273;31542649132;4077384619;1119330757;616664025;889888072;129806642;407976174;2323;2848;148488;0;2154;222785
0;17;1572989860846;1572989872236;11390;31528973896;4077409315;1120576439;618760411;889893292;129798909;408041596;684;3640;71352;0;330;664
0;18;1572989872236;1572989883696;11460;31563743358;4077370727;1119775035;618963678;889885192;129819257;407676595;2994;1833;104248;217;1162;69233
0;19;1572989883696;1572989895024;11328;31565978764;4077372472;1118781934;617699538;889885582;129792097;407660157;1795;3486;165328;-217;2091;228078
0;20;1572989895024;1572989906285;11261;31380052582;4077376015;1119266991;614440149;889885915;129827361;407328698;890;3337;69760;0;373;1407
0;21;1572989906285;1572989917385;11100;31406552750;4077385924;1118864854;614864005;889888470;129793317;407785336;3234;1028;70272;0;909;10611
0;22;1572989917385;1572989928868;11483;31456796460;4077390970;1120627277;618116788;889889166;129836743;407828251;3686;1518;139088;0;2046;201381
0;23;1572989928868;1572989940054;11186;31467009890;4077392978;1118688430;614927465;889888699;129861088;408348328;628;3660;70752;0;354;635
0;24;1572989940054;1572989951555;11501;31493291642;4077388576;1121087597;618544024;889889031;129813548;407721375;1988;2499;74024;0;620;5764
0;25;1572989951555;1572989962682;11127;31623072794;4077386027;1120194198;618130278;889888763;129791685;408135821;2844;2299;147184;0;2320;291323
0;26;1572989962682;1572989973774;11092;31535015230;4077400511;1119022278;616573029;889891712;129755681;407668253;673;3385;66992;0;310;551
0;27;1572989973775;1572989985239;11464;31556095148;4077396297;1120010245;618734521;889890215;129804907;407890553;2450;1982;73128;0;682;7546
0;28;1572989985240;1572989997175;11935;31522133358;4077389537;1121182423;619949240;889889353;129918983;408118606;2380;3206;151216;0;1727;206122
0;29;1572989997175;1572990008827;11652;31496057320;4077370626;1120733298;619895576;889885091;129867943;407622670;885;3811;77392;13;305;817
0;30;1572990008827;1572990020149;11322;31527733188;4077372916;1120301425;618544523;889886049;129791643;407753207;4140;1135;140552;143;2458;404046
0;31;1572990020149;1572990031887;11738;31687080508;4077372301;1119160773;620838585;889885663;129856353;406790955;1217;3473;77672;-156;1080;56653
0;32;1572990031887;1572990043193;11306;31555765480;4077376907;1120584840;617992950;889886051;129859706;408141411;939;3212;68456;0;399;1756
0;33;1572990043193;1572990054436;11243;31548672800;4077398301;1119671455;619672632;889890660;129805405;407699521;3747;1487;145448;0;2575;282385
0;34;1572990054436;1572990065942;11506;31553502480;4077388351;1119242070;619981741;889889058;129847486;407148328;654;3752;72656;0;329;651
0;35;1572990065942;1572990076895;10953;31435106700;4077370456;1118483048;616298109;889884921;129783610;406896508;1685;2411;67584;0;532;4445
0;36;1572990076895;1572990088524;11629;31525634584;4077382199;1122257995;619731671;889887129;129891798;408650609;3383;2199;147632;0;2976;435221
0;37;1572990088524;1572990099886;11362;31488689576;4077394296;1119902061;619086897;889889906;129823980;408045977;725;3621;71672;0;399;946
0;38;1572990099886;1572990111203;11317;31465158902;4077404397;1120099621;617945843;889892679;129821237;408174418;2688;1751;73272;0;819;9138
0;39;1572990111203;1572990122940;11737;31599732212;4077387038;1120541334;621738481;889889038;129868967;407648844;2474;3174;156040;0;2195;282929
0;40;1572990122940;1572990134723;11783;31590798180;4077370530;1118985807;619990977;889884995;129786997;406817027;814;3864;77160;0;407;908
0;41;1572990134723;1572990146092;11369;31565953214;4077388048;1118591198;619046077;889888872;129834963;407152957;3860;1379;145512;0;2217;226571
0;42;1572990146092;1572990157183;11091;31413395478;4077388223;1120557238;617922516;889889066;129817600;408728741;799;3350;68424;0;418;1179
0;43;1572990157183;1572990168667;11484;31721013390;4077388199;1119705716;622239951;889888965;129823892;408023491;1287;3209;74184;0;475;2918
0;44;1572990168667;1572990180021;11354;31577489550;4077386986;1120848684;620074753;889888894;129837113;407567400;3657;1613;149464;0;2576;283117
0;45;1572990180021;1572990191452;11431;31557330892;4077392956;1119616318;618338383;889889650;129784219;407972102;708;3683;72416;0;355;800
0;46;1572990191452;1572990202869;11417;31470206706;4077376071;1119381110;619304027;889885893;129802986;408038748;1980;2393;72152;0;590;5778
0;47;1572990202869;1572990214136;11267;31582210606;4077386675;1120072119;619809236;889888811;129813879;408595629;2670;2667;147936;0;2381;263629
0;48;1572990214136;1572990225728;11592;31505421906;4077400435;1120143373;619865510;889891771;129830350;407248555;1736;3835;170200;0;3575;101886
0;49;1572990225728;1572990236881;11153;31476683850;4077372605;1119643717;617759763;889885608;129806378;407954208;1718;2447;68720;0;536;5129
0;50;1572990236881;1572990248194;11313;31459316274;4077372771;1120034673;618677775;889885520;129800747;407492289;3538;734;70488;0;1022;12887
0;51;1572990248194;1572990259480;11286;31477446992;4077386740;1121058463;620192899;889888721;129825047;408221908;3041;2174;149528;0;2281;283044
0;52;1572990259480;1572990271450;11970;31519233944;4077389274;1119887021;619747184;889889287;129840997;408637238;800;4066;79768;0;438;2104
0;53;1572990271450;1572990282812;11362;31519455864;4077393117;1119706549;618107694;889889664;129806434;408671198;2588;1721;71056;0;748;8009
0;54;1572990282812;1572990294394;11582;31484656034;4077384698;1119633513;619509404;889888170;129832477;407622281;2135;3413;156688;0;2343;287723
0;55;1572990294394;1572990305885;11491;31578489504;4077386062;1118135363;618411488;889888508;129801946;407652114;734;3672;72688;0;365;912
0;56;1572990305885;1572990317345;11460;31470740482;4077386993;1118874138;618011843;889888784;129860205;407813400;4056;1396;154968;0;2217;241431
0;57;1572990317345;1572990329009;11664;31547787310;4077387199;1119301453;620806133;889888776;129824377;407831562;984;3502;74008;0;482;1367
0;58;1572990329009;1572990340612;11603;31620347850;4077386702;1120898905;619459895;889888610;129802293;407717264;1307;3093;72600;0;427;3098
0;59;1572990340613;1572990351946;11333;31605465048;4077386821;1120563972;619012831;889888802;129836630;408312503;3413;1931;150344;0;2645;269367
0;60;1572990351946;1572990363244;11298;31448322328;4077386755;1118933266;618079858;889888720;129821950;407409151;720;3671;72456;0;345;757
0;61;1572990363244;1572990374966;11722;31642207554;4077372607;1119743008;621374520;889885717;130282522;408148763;2551;2142;77392;0;808;8518
1;12;1572990633027;1572990644645;11618;31275256994;4074782813;1117580586;609975955;888002195;130289918;407094160;2748;1944;77408;0;857;8857
1;13;1572990644645;1572990655966;11321;31457166424;4074783577;1118827237;616290317;888002446;130272711;407640180;3110;2276;148808;0;2559;295125
1;14;1572990655966;1572990667284;11318;31743190936;4074786271;1127318705;617703954;888002581;130243449;411046091;679;3696;72192;0;333;850
1;15;1572990667284;1572990679132;11848;31473990004;4074782405;1119439466;618099899;888001954;130268386;407548990;3698;1095;79152;0;1093;13244
1;16;1572990679133;1572990690674;11541;31640772082;4074767489;1119820549;617524126;887998638;130285150;408139516;2154;3405;150264;0;1857;242213
1;17;1572990690675;1572990701435;10760;31092602672;4074800527;1117953600;604327434;888005793;130181000;407026158;1181;2916;67616;0;470;2722
1;18;1572990701435;1572990712909;11474;31291082226;4074769153;1117804984;610198942;887998990;130263018;406569044;4145;1327;152632;127;2340;273954
1;19;1572990712909;1572990724722;11813;31580002940;4074788466;1119820960;617892794;888002944;130301409;407684445;1068;3816;82016;-127;766;20627
1;20;1572990724722;1572990736117;11395;31426258224;4074783096;1117881014;614959570;888002130;130217027;407533605;2457;2119;75504;0;713;7562
1;21;1572990736118;1572990747608;11490;31672976616;4074782757;1119919148;620399871;888002329;130250686;406803863;3473;1980;153120;0;2224;250309
1;22;1572990747608;1572990759297;11689;31631048628;4074785346;1120186463;620203855;888002757;130258707;406971047;1328;3850;118296;0;994;44925
1;23;1572990759297;1572990771089;11792;31534640886;4074775738;1119127843;619016691;887999937;130250235;406716374;2827;1800;76328;0;818;9442
1;24;1572990771089;1572990782307;11218;31576749476;4074769236;1119776214;617591107;887999055;130238057;407248576;3570;703;70520;0;990;12021
1;25;1572990782307;1572990793830;11523;31557909198;4074783764;1119762384;619090901;888002583;130252978;407006721;2363;3179;152224;0;1995;233030
1;26;1572990793830;1572990805489;11659;31542101048;4074798700;1118081692;619413782;888004759;130237977;407737283;1468;3226;77456;0;549;3558
1;27;1572990805489;1572990816985;11496;31648238522;4074766693;1120971411;618801601;887998525;130233161;408051369;3944;1411;152888;5;2379;264741
1;28;1572990816986;1572990828174;11188;31615862584;4074769000;1119747697;618833010;887999108;130236332;407358457;884;3362;70280;-5;519;1697
1;29;1572990828175;1572990839554;11379;31540279844;4074769216;1118349674;618950115;887999072;130261992;406235087;2202;2473;77112;12;666;6363
1;30;1572990839554;1572990850833;11279;31486439716;4074790320;1117706001;617276490;888003236;130207484;406877174;3515;1787;144128;-12;1864;168233
1;31;1572990850833;1572990862066;11233;31482805484;4074798302;1120346578;617657957;888005526;130222428;406982753;848;3604;73424;0;419;1139
1;32;1572990862066;1572990873564;11498;31431805056;4074791590;1118975161;618159698;888003579;130273186;406821708;2868;1753;76064;4;847;8996
1;33;1572990873564;1572990884954;11390;31635405414;4074790328;1118912000;619328598;888003360;130231161;406947149;3122;2456;154928;-4;2102;229788
1;34;1572990884954;1572990896626;11672;31625351270;4074783662;1118849036;618529585;888002127;130244509;407205382;927;3780;77640;0;425;1307
1;35;1572990896626;1572990908414;11788;31454507618;4074767958;1119734460;620532562;887998901;130281046;407322714;4083;853;81440;0;1133;14644
1;36;1572990908414;1572990919710;11296;31630696768;4074782455;1118607724;618826278;888002027;130205187;407044960;1960;3334;148976;0;1779;216410
1;37;1572990919711;1572990931218;11507;31525333824;4074767634;1118596864;618921276;887998655;130218105;406941464;1688;2924;76064;0;521;4248
1;38;1572990931218;1572990942880;11662;31603155036;4074768936;1121904080;620670327;887998963;130251138;408461675;4111;1437;147280;0;2329;225925
1;39;1572990942880;1572990954364;11484;31413076760;4074782960;1118568265;616051588;888001994;130259658;407475269;784;3830;76080;0;398;894
1;40;1572990954364;1572990965684;11320;31526826820;4074785650;1118858314;618357528;888002803;130240431;407465631;2521;1943;73656;0;710;7770
1;41;1572990965684;1572990976910;11226;31616213276;4074798859;1118155522;618968596;888005666;130222751;406738377;3160;2050;141520;0;1937;191111
1;42;1572990976910;1572990988465;11555;31568450836;4074782502;1118754963;618763376;888002074;130244338;407220974;821;3953;78720;0;370;839
1;43;1572990988465;1572990999971;11506;31616126552;4074772916;1118903231;619244886;887999490;130222680;407047613;3310;1257;75336;0;957;11295
1;44;1572990999971;1572991011564;11593;31508003624;4074768108;1119928050;618538399;887999129;130246818;407368784;2748;2921;159216;0;2072;232458
1;45;1572991011565;1572991023631;12066;31498948996;4074768783;1120305959;620299924;887999043;130258565;408427816;1770;3387;85048;0;639;4170
1;46;1572991023631;1572991034918;11287;31538426812;4074784805;1119569629;618403744;888002540;130277993;408175337;3905;1139;140688;135;1740;172726
1;47;1572991034918;1572991045934;11016;31418755430;4074784714;1119511940;617111537;888002664;130209893;406918463;1228;3283;77264;-135;1008;54166
1;48;1572991045934;1572991057512;11578;31627726544;4074784083;1119856553;619264297;888002512;130231093;407780470;2091;2597;77352;0;687;6136
1;49;1572991057512;1572991069306;11794;31584731004;4074783882;1120733160;620027057;888002580;130285959;407562269;3781;2026;162208;0;2247;240242
1;50;1572991069306;1572991080447;11141;31572321004;4074768847;1119322554;620916680;887999126;130253746;407042489;1469;3891;160904;0;2645;69506
1;51;1572991080447;1572991091797;11350;31538335270;4074784562;1120246612;617859677;888002493;130233684;407683274;2772;1698;73744;0;803;9000
1;52;1572991091797;1572991103221;11424;31596148496;4074781785;1119692168;618681106;888001751;130257949;407006180;3598;867;73688;0;1072;12651
1;53;1572991103221;1572991114656;11435;31548149974;4074795445;1120059242;619490466;888004875;130266000;407416671;3105;2523;156256;0;2843;281572
1;54;1572991114656;1572991125974;11318;31587698162;4074771045;1120921685;618766159;887999057;130282291;407944484;695;3567;70320;0;339;834
1;55;1572991125974;1572991137650;11676;31614522012;4074783564;1120292756;619847226;888002224;130271083;407988484;3466;1115;75544;0;1016;11818
1;56;1572991137650;1572991149080;11430;31540176622;4074773643;1118779490;618724241;887999909;130279025;407177967;2029;3401;157840;0;2157;267511
1;57;1572991149080;1572991160625;11545;31481147946;4074767586;1119759571;618573832;887998697;130258567;407562309;1698;2932;76384;0;580;4539
1;58;1572991160625;1572991172003;11378;31383724774;4074781077;1118212681;617077424;888001752;130234934;406759358;4257;1215;151040;0;2412;269203
1;59;1572991172003;1572991183577;11574;31715002132;4074773505;1120785337;618618546;887999646;130342491;407950933;851;3703;75168;0;501;1286
1;60;1572991183578;1572991194987;11409;31553329324;4074779406;1118401627;617692780;888001184;130245757;406924909;2369;2159;74712;0;731;7379
1;61;1572991194988;1572991206103;11115;31629948518;4074769659;1118704019;618626321;887999434;130243515;407164621;3458;2013;155880;1;2313;278180
2;12;1572991465984;1572991476921;10937;31318423792;3986314526;1118549914;614803006;888084312;130712397;407568426;2719;1402;68040;0;827;9164
2;13;1572991476921;1572991488110;11189;31326311296;3986314078;1121154007;612261896;888084716;130810537;408748740;2582;2578;146360;1;2089;274143
2;14;1572991488110;1572991499217;11107;31363284482;3986315359;1118831050;616921111;888084662;130729214;407334325;607;3545;68680;-1;323;664
2;15;1572991499217;1572991511015;11798;31560084744;3986331461;1122003978;621027715;888088368;130921022;408611177;3650;1076;77952;0;1024;12280
2;16;1572991511015;1572991522188;11173;31215259024;3986313627;1121083346;612543282;888084516;130752584;407869729;1853;3334;151200;0;1938;254092
2;17;1572991522188;1572991533707;11519;31275028066;3986318049;1118968861;614616179;888084689;130775121;407646581;1439;2979;72928;0;465;3468
2;18;1572991533708;1572991545178;11470;31300125758;3986327379;1120797513;616838929;888087360;130776177;407632408;3784;1287;144040;0;2152;224987
2;19;1572991545178;1572991556552;11374;31320399464;3986314611;1119479682;616452634;888084416;130731332;407021448;745;3487;69832;0;355;736
2;20;1572991556552;1572991567593;11041;31374349384;3986331744;1121156995;617351893;888088166;130708614;407300499;1919;2129;66792;0;601;5740
2;21;1572991567594;1572991578841;11247;31484325344;3986331163;1120748273;618507032;888088321;130748070;407566780;3272;1874;146848;0;2238;237093
2;22;1572991578841;1572991590295;11454;31442507586;3986332858;1120658403;619251783;888088449;130750179;407557032;1110;3806;113552;0;941;47620
2;23;1572991590295;1572991601847;11552;31385581018;3986347308;1120198112;618137134;888090885;130782358;407912157;2792;1643;73152;0;817;8839
2;24;1572991601847;1572991612994;11147;31490829936;3986316216;1120820335;619064782;888084937;130700609;407858321;3569;655;69696;0;971;12461
2;25;1572991612994;1572991624370;11376;31308009758;3986332921;1118419079;617081775;888088767;130806461;407084457;2358;2973;157688;0;2085;270135
2;26;1572991624370;1572991636187;11817;31461540584;3986328793;1121287343;621050544;888087633;130796525;407300852;1352;3484;79760;0;501;2894
2;27;1572991636188;1572991647730;11542;31620057602;3986343131;1121084661;621246082;888090562;130772358;407979164;3973;1273;149592;53;2114;226353
2;28;1572991647730;1572991658959;11229;31455311640;3986332026;1119653030;618978864;888088429;130766015;408671616;915;3333;71160;-53;553;4522
2;29;1572991658959;1572991670337;11378;31417702332;3986316582;1120308237;619912680;888084904;130790608;407856476;1830;2495;71344;0;590;4998
2;30;1572991670337;1572991681469;11132;31532520966;3986315705;1120752642;619681844;888085004;130774504;407651683;3632;1597;149704;0;2201;252238
2;31;1572991681469;1572991692722;11253;31446153352;3986314554;1121172455;618469772;888084359;130682431;406993891;743;3468;69456;0;367;830
2;32;1572991692722;1572991704352;11630;31715532988;3986316693;1121638166;623695626;888085144;130766280;408452085;2394;2038;73128;0;767;7683
2;33;1572991704352;1572991716311;11959;31612961126;3986331601;1121634783;624187741;888088666;130813073;407693542;3070;2521;158576;0;2531;265641
2;34;1572991716311;1572991727448;11137;31477920324;3986330745;1120267062;618854015;888088061;130871536;407431049;664;3533;69232;0;293;654
2;35;1572991727448;1572991738566;11118;31274667154;3986321776;1119411907;615073940;888085780;130765524;408223138;3156;1074;69792;0;903;10570
2;36;1572991738566;1572991749895;11329;31369713592;3986332109;1119771641;618579307;888088512;130779696;407005294;2095;3024;143160;0;1787;203150
2;37;1572991749895;1572991761252;11357;31464365976;3986341268;1120921010;619479934;888089933;130774910;408393224;1066;3261;71384;0;424;2479
2;38;1572991761252;1572991772725;11473;31545457588;3986321151;1120542546;620829778;888085772;130731286;408460208;4252;1218;147280;146;2190;289947
2;39;1572991772725;1572991784200;11475;31472380208;3986327319;1121003987;619606383;888087262;130726928;407520010;1175;3489;78064;-146;915;46160
2;40;1572991784200;1572991795482;11282;31657811596;3986337711;1120445830;620864765;888089227;130789414;407599761;1749;2427;68904;0;535;4829
2;41;1572991795482;1572991807071;11589;31651449938;3986314745;1120537013;621063417;888084550;130751348;408189890;3707;1868;158152;0;2226;229136
2;42;1572991807072;1572991818364;11292;31451110490;3986319697;1120114128;619033551;888085177;130753940;407872295;791;3646;73168;0;368;857
2;43;1572991818364;1572991829820;11456;31442467144;3986315417;1122669980;618468183;888084606;130779656;408049722;2677;1745;72952;0;790;8466
2;44;1572991829820;1572991841111;11291;31496033668;3986331290;1120107685;619862862;888088220;130708789;407317613;2922;2436;156088;0;2107;249944
2;45;1572991841111;1572991852756;11645;31524090342;3986332110;1120517564;620126457;888088304;130778880;407659100;863;3781;76592;0;359;749
2;46;1572991852756;1572991864378;11622;31502468764;3986330422;1121092058;620364273;888087928;130779047;408506203;3653;821;73776;0;1024;12454
2;47;1572991864378;1572991875743;11365;31387892344;3986316398;1120122266;619616078;888084849;130722974;408127104;1894;3440;147464;0;1586;152703
2;48;1572991875744;1572991887187;11443;31524508632;3986335068;1121148391;620178358;888088645;130757647;408134708;1341;2947;70752;0;460;3337
2;49;1572991887187;1572991898609;11422;31714996876;3986335898;1121386480;623206647;888088988;130746292;408305064;2512;2862;171048;1;4783;366385
2;50;1572991898609;1572991909874;11265;31471169722;3986330758;1119541950;619268379;888088134;130734775;407443375;1847;2479;71592;-1;568;5472
2;51;1572991909874;1572991921077;11203;31573023556;3986330823;1121147049;619807398;888088055;130774920;407724802;3640;632;70488;0;983;12870
2;52;1572991921077;1572991932454;11377;31620747452;3986315309;1120632564;620836138;888084924;130719882;407332927;2192;3375;154880;0;2138;271447
2;53;1572991932454;1572991943811;11357;31563500268;3986316682;1120686763;620483605;888084943;130780533;407960125;1382;2983;71992;0;476;3438
2;54;1572991943811;1572991955906;12095;31551860856;3986314623;1120761496;622385884;888084734;130829545;407647377;4458;1375;155288;0;2544;252664
2;55;1572991955907;1572991966961;11054;31534456196;3986362545;1121527387;619599771;888095066;130743402;407833186;653;3396;66824;0;383;748
2;56;1572991966962;1572991978596;11634;31516194662;3986316999;1119609206;620273742;888085009;130752155;407427432;2368;2264;76336;13;783;6990
2;57;1572991978596;1572991990270;11674;31553580590;3986345795;1121181675;621779070;888091737;130817794;407843365;3399;2036;146376;-13;2526;312874
2;58;1572991990270;1572992002045;11775;31406445002;3986313809;1120767177;620280106;888084466;130822133;407933450;777;3883;76856;0;404;897
2;59;1572992002045;1572992013247;11202;31347205794;3986332179;1121143549;618420557;888088411;130776529;407831867;3080;1193;70520;0;883;10126
2;60;1572992013247;1572992024907;11660;31542067468;3986332132;1120444580;621499717;888088535;130743826;408043694;2640;2949;158056;0;2207;298901
2;61;1572992024907;1572992035985;11078;31514915848;3986332561;1119693967;618683574;888088561;130750902;407671215;903;3326;69736;0;395;1515
3;12;1572992299520;1572992311127;11607;31347303614;4007771455;1121874879;613438023;889865618;130579005;408018892;3316;911;69720;0;923;11537
3;13;1572992311127;1572992323068;11941;31435841956;4007787148;1121135684;615216788;889869109;130545089;408069973;1869;3467;148888;0;1900;216742
3;14;1572992323068;1572992334827;11759;31461535036;4007785700;1121440635;615800573;889868686;130554511;407388202;1452;2794;69992;14;462;3633
3;15;1572992334827;1572992346287;11460;31433263450;4007773862;1123049809;615975885;889866310;130556948;408830440;3648;1352;142752;-14;1943;171592
3;16;1572992346287;1572992357906;11619;31542965368;4007788745;1122277614;617678254;889869506;130601666;408444077;705;3477;68992;0;462;1020
3;17;1572992357906;1572992369380;11474;31291781128;4007787141;1121804412;616063328;889869043;130566510;407605815;2020;2096;67880;0;642;6570
3;18;1572992369380;1572992380488;11108;31248308022;4007785613;1120310727;613633680;889868580;130500501;407471577;2704;2249;146376;0;1988;201882
3;19;1572992380488;1572992392560;12072;31307980120;4007789239;1122096246;616351346;889869594;130592913;407877119;835;3843;77176;0;424;960
3;20;1572992392560;1572992403675;11115;31294595862;4007787441;1120932273;613014365;889868967;130539686;407584065;3035;872;64440;0;827;10424
3;21;1572992403675;1572992415065;11390;31398922498;4007789050;1121561207;614921397;889869492;130565242;408033830;2104;3048;147200;0;1729;202544
3;22;1572992415065;1572992426453;11388;31295780652;4007783465;1122004506;615251677;889867903;130587386;408306253;1233;3477;111784;0;855;31896
3;23;1572992426453;1572992437977;11524;31372688196;4007788872;1121552105;615656416;889869462;130597903;408234484;3329;818;68400;0;942;11352
3;24;1572992437978;1572992449869;11891;31417606702;4007788082;1122525492;617424821;889869711;130588295;407223446;4122;1398;154008;0;2225;250782
3;25;1572992449869;1572992461221;11352;31261502042;4007792188;1121531630;613932195;889869736;130548156;408848180;706;3546;70272;0;405;857
3;26;1572992461221;1572992472841;11620;31312417936;4007796456;1122061710;614458397;889870625;130709499;407840563;2305;2111;72864;0;675;6994
3;27;1572992472841;1572992483765;10924;31207716226;4007788878;1119778700;610157234;889869462;130543429;407063065;2665;1983;135792;0;1817;201215
3;28;1572992483765;1572992495205;11440;31245413280;4007773296;1121089686;614512624;889865934;130531787;408603045;684;3495;68928;0;299;652
3;29;1572992495205;1572992507290;12085;31503332938;4007786302;1121673753;619746123;889868931;130556645;408075776;3148;1451;75864;0;885;10394
3;30;1572992507290;1572992518695;11405;31508176780;4007773332;1122428663;617356870;889866221;130579441;408340434;2260;2776;143800;0;2043;287403
3;31;1572992518695;1572992530130;11435;31404122142;4007771882;1122674103;617098263;889865832;130581613;408030945;679;3437;67888;0;382;1125
3;32;1572992530130;1572992541954;11824;31490593708;4007807694;1124126832;619394016;889873248;130591063;408571135;3929;1311;145712;1;2117;210163
3;33;1572992541954;1572992553149;11195;31572542632;4007793807;1122506881;616356011;889870253;130540528;408195806;747;3174;64704;-1;364;1162
3;34;1572992553149;1572992564965;11816;31446118896;4007803003;1120866803;617345937;889872542;130581711;408180896;1703;2556;70248;0;574;5213
3;35;1572992564965;1572992575987;11022;31282484140;4007787003;1122393078;614186374;889868964;130587509;408996130;3189;1595;141496;0;1843;181292
3;36;1572992575987;1572992587243;11256;31309520566;4007780498;1121092411;615581534;889867027;130561331;407808670;628;3456;67376;0;507;975
3;37;1572992587243;1572992598865;11622;31445117920;4007786679;1122175303;617579588;889868867;130560857;408683286;2317;2051;72072;0;702;7096
3;38;1572992598865;1572992610117;11252;31443117428;4007789292;1121666451;616611853;889869563;130573803;407948308;2590;2380;140824;0;1797;208586
3;39;1572992610117;1572992621676;11559;31484101672;4007771312;1121472182;617717367;889865513;130551393;407987017;813;3494;71040;0;383;945
3;40;1572992621676;1572992633120;11444;31468584792;4007788732;1123860809;619480880;889869531;130591165;408425378;3100;922;66360;0;836;10422
3;41;1572992633120;1572992644100;10980;31222847374;4007788834;1121507402;615386904;889869614;130551547;409079011;1836;2968;138664;0;1849;229145
3;42;1572992644101;1572992655790;11689;31296445390;4007787364;1121290623;616233549;889869057;130578935;407877796;974;3287;70264;0;391;1739
3;43;1572992655790;1572992667309;11519;31459191006;4007789273;1121982184;618808760;889869612;130573238;408557079;3946;1370;150968;0;2145;232105
3;44;1572992667309;1572992678715;11406;31259635286;4007791556;1122113326;614435987;889869743;130575714;408278493;844;3369;69480;0;419;1082
3;45;1572992678716;1572992690169;11453;31351273646;4007771727;1121668950;615191504;889865655;130550931;408249815;1790;2343;68272;0;654;5535
3;46;1572992690169;1572992701559;11390;31541396160;4007773153;1121506424;619027416;889866023;130567005;408464661;3369;1746;144248;0;2189;274319
3;47;1572992701559;1572992713183;11624;31439378806;4007787163;1121394259;616888015;889869111;130591756;408233987;745;3581;71328;0;320;884
3;48;1572992713183;1572992724708;11525;31441509238;4007771687;1121365161;616713708;889865698;130585454;407754503;2562;1635;69248;0;751;8369
3;49;1572992724709;1572992735861;11152;31357350896;4007773347;1121743783;615011521;889866175;130527520;408005920;2960;2313;143800;0;2629;402750
3;50;1572992735861;1572992747490;11629;31567115666;4007789220;1123706772;621702563;889870019;130574550;409003576;1696;3652;167552;0;3231;91194
3;51;1572992747490;1572992759143;11653;31362077500;4007787267;1121716281;616014986;889868935;130599584;408382618;3101;1210;71096;14;888;10450
3;52;1572992759143;1572992770660;11517;31374580210;4007772072;1121661279;617018619;889866003;130572227;408424179;3998;830;109016;292;1712;204008
3;53;1572992770660;1572992782203;11543;31319382136;4007787647;1121402371;615430072;889869511;130577916;408946440;1669;3289;104064;-306;1695;206635
3;54;1572992782203;1572992793077;10874;31298424712;4007786696;1121838843;613597455;889868872;130530215;408595291;1232;2549;61864;0;625;4516
3;55;1572992793077;1572992804499;11422;31394816540;4007788838;1122681728;615623682;889869447;130500151;408271897;3843;1358;146208;0;2547;280186
3;56;1572992804500;1572992815751;11251;31398691526;4007785538;1121858462;615535223;889868566;130546794;408396746;686;3369;66912;0;438;922
3;57;1572992815751;1572992827358;11607;31356006966;4007789930;1122153921;616624524;889869757;130577807;407811305;2167;2121;70752;0;695;6741
3;58;1572992827358;1572992838662;11304;31382122716;4007788080;1122037312;615203880;889869374;130529671;408419016;2923;1973;138160;0;1892;216966
3;59;1572992838663;1572992850071;11408;31321619002;4007777950;1121830576;615058822;889866703;130554371;408433464;741;3394;68256;0;334;868
3;60;1572992850071;1572992861606;11535;31260903588;4007789502;1121789364;614858899;889869602;130534051;407908973;2761;1549;71072;0;787;8701
3;61;1572992861606;1572992873137;11531;31371967686;4007788114;1121971465;616586247;889869214;130580201;408930817;2328;2849;150688;0;1864;226149
4;12;1572993130864;1572993142258;11394;31663590568;4077373869;1122667760;617760863;889886696;130387047;407909820;2932;1508;73240;0;910;10399
4;13;1572993142258;1572993153622;11364;31561018414;4077373708;1122030000;617824823;889886996;130407037;406999639;2587;2861;157712;0;2010;232466
4;14;1572993153622;1572993165092;11470;31505215462;4077383872;1122832137;616092505;889888357;130431467;407647435;995;3472;73720;0;396;1609
4;15;1572993165092;1572993176761;11669;31803835832;4077371795;1123482015;619540659;889886205;130581168;406842052;4000;1216;125760;286;1479;106144
4;16;1572993176761;1572993188282;11521;31544606846;4077401872;1122836398;618306148;889893018;130403201;407628941;1434;3395;105984;-286;1407;135471
4;17;1572993188282;1572993199974;11692;31965597262;4077372197;1124095392;620797992;889886336;130553566;407954763;1972;2572;74976;0;595;5517
4;18;1572993199974;1572993211291;11317;31631355812;4077387659;1121912970;617336050;889889683;130381744;407039269;3570;1601;151072;0;2061;229072
4;19;1572993211291;1572993222445;11154;31550951276;4077387992;1122988056;617500921;889889786;130405132;407647594;685;3528;69520;0;333;811
4;20;1572993222445;1572993233500;11055;31428812056;4077389480;1122138363;616502193;889890034;130338725;407442813;2166;1963;68144;0;724;7243
4;21;1572993233500;1572993244599;11099;31229091064;4077388153;1122729384;611049083;889890012;130423272;407963199;3075;2145;151424;0;1995;222258
4;22;1572993244599;1572993255634;11035;31570222838;4077389966;1121531040;615513817;889890302;130361383;407547591;1091;3398;108136;0;922;46054
4;23;1572993255634;1572993267199;11565;31649595884;4077381768;1122795196;619404981;889888058;130417020;406928878;2607;1800;72664;0;747;8670
4;24;1572993267199;1572993278655;11456;31750995220;4077389469;1122671642;621909666;889890213;130392376;408078974;3797;749;75040;0;1089;13407
4;25;1572993278655;1572993290094;11439;31642917260;4077410120;1124591434;619094554;889894428;130420138;409787720;2197;3101;150576;0;2049;257876
4;26;1572993290094;1572993301548;11454;31580280048;4077380480;1123116115;619611933;889887684;130404152;407359975;1167;3382;75016;0;420;2462
4;27;1572993301549;1572993313140;11591;31712955358;4077411308;1123038151;619999113;889894893;130369225;408486328;4207;1285;154056;30;2566;318786
4;28;1572993313140;1572993324403;11263;31448160414;4077377738;1124218422;617373826;889887086;130341400;407932253;833;3485;71904;-30;501;3850
4;29;1572993324403;1572993335797;11394;31615215512;4077377324;1122971154;619272360;889887189;130407842;408185145;2227;2370;75808;0;692;6915
4;30;1572993335797;1572993347543;11746;31804177326;4077373827;1124460592;621913319;889886925;130376140;408311733;3916;1965;163488;0;2380;285008
4;31;1572993347543;1572993359228;11685;31571644440;4077387714;1122711607;619614426;889889757;130418316;406828326;757;3905;76872;0;387;814
4;32;1572993359228;1572993370339;11111;31516842756;4077393515;1123506971;618772832;889890198;130400915;408097515;2776;1464;69960;0;876;10234
4;33;1572993370339;1572993381562;11223;31591030320;4077372112;1124229694;619820244;889886484;130372510;407410991;2772;2434;149952;0;2307;288477
4;34;1572993381562;1572993392660;11098;31572966762;4077388982;1121637328;617294234;889889922;130349104;406781349;641;3670;71064;0;344;752
4;35;1572993392660;1572993404173;11513;31580470724;4077389742;1121699820;619097311;889890243;130385267;406348805;3458;1009;73720;0;926;11456
4;36;1572993404173;1572993415630;11457;31745581394;4077389174;1123095664;620348925;889890114;130383505;409107938;1919;3288;144184;0;1645;204870
4;37;1572993415630;1572993427301;11671;31662920720;4077389573;1121547575;619264855;889890133;130378259;406862625;1557;3041;75816;0;514;3620
4;38;1572993427301;1572993438909;11608;31713282982;4077386401;1123639419;621771915;889889547;130446814;407315117;4127;1425;155296;0;2516;264418
4;39;1572993438909;1572993450004;11095;31471064748;4077387580;1122184954;617903829;889889623;130350879;406900064;669;3556;69704;0;328;730
4;40;1572993450004;1572993461794;11790;31675796460;4077387979;1123270942;621549783;889889811;130435796;408399601;2406;2298;77616;0;706;7587
4;41;1572993461794;1572993473573;11779;31647210974;4077389471;1122330516;621412650;889890221;130425616;407827069;3331;2379;157728;0;2218;243267
4;42;1572993473574;1572993484711;11137;31578633460;4077393064;1122573622;617412295;889890503;130404078;407592558;682;3548;69744;0;368;844
4;43;1572993484711;1572993496039;11328;31803832766;4077372199;1124314072;620651498;889886381;130583901;408154460;2986;1387;72152;0;855;9997
4;44;1572993496040;1572993507626;11586;31649302862;4077372828;1121948642;618818569;889886587;130406447;407059496;2500;3043;159808;0;2064;225604
4;45;1572993507627;1572993519395;11768;31604809362;4077386608;1122607259;619610317;889889437;130394718;407832176;1177;3469;76608;0;549;2946
4;46;1572993519396;1572993530614;11218;31541622606;4077371779;1122280062;617301410;889886189;130366337;406846382;3709;1124;115240;269;1514;129972
4;47;1572993530614;1572993542142;11528;31647203382;4077388176;1122995820;619828209;889889858;130355901;407503078;1542;3384;110112;-269;1435;141991
4;48;1572993542142;1572993553224;11082;31501758912;4077391514;1120653238;616020450;889890129;130372852;408075974;1607;2617;69696;0;503;4423
4;49;1572993553224;1572993564413;11189;31500856340;4077372170;1122886500;617410417;889886309;130384035;407227696;3697;1522;142240;0;2012;190764
4;50;1572993564413;1572993576166;11753;31567118002;4077372070;1123509068;620352413;889886271;130431565;408110575;797;3868;76968;0;511;1118
4;51;1572993576166;1572993587757;11591;31659888300;4077385877;1122668407;620972567;889889365;130417276;407307260;2787;1874;76912;0;806;8894
4;52;1572993587757;1572993599355;11598;31729439050;4077378200;1124451391;622476087;889887512;130418884;408087163;3508;2261;195368;0;5024;326200
4;53;1572993599355;1572993610891;11536;31418157414;4077400801;1121802061;617500521;889892556;130428557;407274323;867;3749;76392;0;433;994
4;54;1572993610891;1572993622530;11639;31739284560;4077392365;1127231308;620336853;889890328;130379751;409256343;3439;1270;77704;0;974;11903
4;55;1572993622530;1572993633714;11184;31536463112;4077373535;1122626541;617581583;889886590;130357613;407769614;1969;3338;151728;0;2058;255388
4;56;1572993633715;1572993644812;11097;31650345594;4077385864;1121558550;617498556;889889296;130339132;408067193;1332;2941;70520;0;457;2743
4;57;1572993644813;1572993656076;11263;31618514382;4077388766;1122076248;618369137;889890183;130444888;407363669;4026;1196;146680;8;2367;251269
4;58;1572993656076;1572993667426;11350;31603672752;4077387341;1122669688;618025279;889889732;130388758;408759955;841;3478;71344;-8;399;1246
4;59;1572993667426;1572993678501;11075;31438748378;4077389754;1122538607;616867080;889890106;130359625;407912985;1807;2418;69728;0;601;5414
4;60;1572993678501;1572993689810;11309;31592476450;4077387502;1122409369;619126403;889889893;130397645;407614383;3684;1775;156672;1;2214;256225
4;61;1572993689810;1572993701243;11433;31615042210;4077372357;1120769560;617851795;889886344;130373177;406490036;785;3691;73976;-1;385;1042
