0;42;1573048087167;1573048093779;6612;23023272170;67507850937;2639890497;17825779;2813895762;305104;1407016809;1253;7296;666552;2;6612;947769
0;43;1573048093779;1573048100504;6725;23086692818;67507851349;2639717396;21992954;2813896174;313880;1406977460;1031;9027;863816;-7;6725;963298
0;44;1573048100505;1573048112183;11678;23139344944;67507866896;2690274724;39090273;2813903233;317102;1407178329;2248;14496;1570304;-22;11679;1819111
0;45;1573048112183;1573048118950;6767;22861453654;67507851504;2660843316;9681088;2813896329;315692;1406920298;1556;5099;546304;12;6767;974425
0;46;1573048118950;1573048125594;6644;23184096280;67507850777;2638565939;29659919;2813895602;303361;1406781225;1231;7536;715080;19;6644;952135
0;47;1573048125595;1573048133155;7560;23159834584;67507851645;2702555879;26404183;2813896470;313003;1407008369;1115;9705;941856;-27;7561;1082468
0;48;1573048133155;1573048140977;7822;22960880384;67507852679;2686148835;17181720;2813897504;317191;1407061397;1645;11875;1116120;16;7822;1239843
0;49;1573048140977;1573048147730;6753;23100095618;67507851593;2718826922;22594461;2813896418;310717;1407006235;1476;4398;642176;2;6752;958038
0;50;1573048147730;1573048156114;8384;23117479254;67507861728;2728243528;24239041;2813898065;311664;1406869538;1578;8228;883560;-10;8385;1198881
0;51;1573048156114;1573048163988;7874;22893042798;67507852260;2700807834;13003228;2813897085;309927;1406929394;1406;10664;1007104;3;7874;1124169
0;52;1573048163988;1573048172010;8022;23022420406;67507853058;2709564549;23703705;2813897883;309764;1407136087;1887;8487;977088;-2;8022;1311979
0;53;1573048172010;1573048179296;7286;23009360268;67507852808;2689179009;18605811;2813897633;306302;1406930774;1698;6065;584960;-2;7286;1038555
0;54;1573048179297;1573048186107;6810;23091388616;67507851402;2630584341;21411442;2813896227;311107;1407081103;1247;7170;706144;1;6811;970338
0;55;1573048186108;1573048194103;7995;22959125902;67507853756;2670988631;20913886;2813898581;306326;1406987537;1163;11139;1051968;-11;7996;1137275
0;56;1573048194103;1573048201035;6932;22908421124;67507851909;2672099301;12472635;2813896734;306334;1407055326;1449;10868;1038296;19;6931;1124437
0;57;1573048201035;1573048208606;7571;23086291172;67507852366;2668457070;26388571;2813897191;319128;1406970093;1541;7717;931040;-6;7572;1084967
0;58;1573048208606;1573048215378;6772;23126741786;67507851251;2658450804;21792847;2813896076;311423;1406890912;1370;5683;625664;6;6772;972884
0;59;1573048215378;1573048224415;9037;23095565384;67507867106;2661571152;25537422;2813903443;315778;1407013615;1458;11510;1116480;-18;9037;1287140
0;60;1573048224415;1573048231393;6978;22936570070;67507851728;2720722485;16563107;2813896553;311890;1407154019;1056;9908;952848;13;6977;995575
0;61;1573048231393;1573048239251;7858;22907362916;67507852483;2666392739;14862138;2813897308;306681;1406946055;1779;9586;1023280;6;7859;1212707
0;62;1573048239251;1573048246132;6881;22910724420;67507851267;2637828944;12639025;2813896092;318664;1407086887;1552;5115;574648;-11;6880;992259
0;63;1573048246132;1573048252845;6713;23018078074;67507850849;2670913495;17696427;2813895674;298118;1406994923;1205;7329;703048;-6;6714;963838
0;64;1573048252845;1573048259962;7117;23092475002;67507850761;2743592197;20881090;2813895586;304800;1406656027;1061;9736;945536;-4;7116;1013010
0;65;1573048259962;1573048268231;8269;23342051198;67507852847;2715454609;39173042;2813897672;304158;1407041749;1656;12313;1206512;18;8270;1306868
0;66;1573048268231;1573048275459;7228;23253561912;67507851604;2672306984;29765612;2813896429;309041;1406725146;1660;5279;665544;4;7227;1032412
0;67;1573048275459;1573048282204;6745;23318793836;67507850940;2698332506;31087249;2813895765;309025;1406985763;1329;6872;685720;-17;6745;960909
0;68;1573048282204;1573048289242;7038;23213755158;67507850892;2763889756;26700156;2813895717;302707;1406939577;978;9496;941256;14;7039;1004112
0;69;1573048289242;1573048297500;8258;23110439572;67507854121;2690601691;26908802;2813898946;310528;1406995802;2083;7269;918688;5;8257;652619
0;70;1573048297500;1573048304286;6786;23071742564;67507851342;2651119768;20740181;2813896167;301500;1407017537;1516;4006;433448;-3;6787;976704
0;71;1573048304286;1573048311720;7434;23129246562;67507851728;2675513535;26178947;2813896553;310433;1407034170;1468;7792;763272;6;7434;1064523
0;72;1573048311721;1573048319311;7590;23064193780;67507852539;2654562896;21731480;2813897364;309575;1407046520;1155;10741;982736;-3;7591;1076677
0;73;1573048319311;1573048325994;6683;23011866942;67507851600;2662803985;17249305;2813896425;306559;1407054504;977;10847;1081352;139;6682;975766
0;74;1573048325994;1573048333851;7857;23039449262;67507853445;2630858959;21339585;2813898270;313595;1407026442;1938;8664;996864;-156;7857;1229278
0;75;1573048333851;1573048340701;6850;23029529292;67507851272;2664318469;20234567;2813896097;318439;1407017559;1467;5908;608888;6;6851;987094
0;76;1573048340702;1573048348392;7690;23001634824;67507852991;2684718780;19049991;2813897816;311827;1407128627;1324;8167;902304;-111;7690;1040164
0;77;1573048348392;1573048356348;7956;23038552968;67507853459;2708235694;23410244;2813898284;304449;1407006880;1538;9981;1004784;19;7957;416297
0;78;1573048356348;1573048364367;8019;23148228314;67507853046;2689015576;26276833;2813897871;311849;1407079910;2208;7163;756008;98;8019;1024499
0;79;1573048364367;1573048371080;6713;23184291774;67507851391;2655557984;25377748;2813896216;299492;1407019898;1428;6019;634712;-19;6713;962358
0;80;1573048371080;1573048379020;7940;23167234156;67507853608;2665164132;30124648;2813898433;310637;1407036652;1226;10646;979312;23;7940;1132640
0;81;1573048379020;1573048386357;7337;23012183032;67507852927;2687074493;17464779;2813897752;309716;1407094794;1065;11705;1155920;-9;7336;1048511
0;82;1573048386357;1573048393466;7109;23008043640;67507851233;2712317267;18436034;2813896058;300805;1406994632;1527;9292;1023096;9;7110;1083220
0;83;1573048393466;1573048400848;7382;23045735730;67507852255;2704827530;19762151;2813897080;303970;1406996618;1676;5870;624504;-11;7381;1060922
0;84;1573048400848;1573048407571;6723;22979708836;67507851787;2705704588;15745508;2813896612;304829;1407079024;1291;7665;744320;-11;6724;955395
0;85;1573048407571;1573048414864;7293;23023383860;67507851475;2742586418;18595509;2813896300;300341;1406970488;1085;10103;961440;6;7293;1041541
0;86;1573048414864;1573048422996;8132;23130783796;67507853867;2669776588;27508067;2813898692;309756;1407070101;1519;11226;1086328;10;8132;1259261
0;87;1573048422996;1573048430456;7460;23045938524;67507852708;2708377290;18477979;2813897533;309082;1407069169;1465;7626;864208;7;7460;1062856
0;88;1573048430457;1573048437224;6767;23026765220;67507851190;2683082075;17108786;2813896015;306996;1406923860;1319;6035;656760;-7;6768;967320
0;89;1573048437224;1573048443815;6591;23000329876;67507850914;2735772153;16262227;2813895739;323259;1407090470;1141;8085;754432;11;6591;942573
0;90;1573048443815;1573048451281;7466;23047401882;67507851623;2730195459;21052438;2813896448;299321;1406962627;1119;10356;989160;1;7466;1060144
0;91;1573048451281;1573048459446;8165;23338390540;67507851928;2714956173;33970434;2813896753;308204;1407051765;1782;9785;1115688;-6;8164;1323361
1;40;1573048927751;1573048934579;6828;23021812316;67507851980;2650601510;18153962;2813896805;300550;1406797922;1238;7736;752328;11;6828;974161
1;41;1573048934579;1573048942517;7938;23246780942;67507853265;2680718303;35794073;2813898090;304850;1406760986;1141;10476;1034224;-21;7939;1128823
1;42;1573048942517;1573048950412;7895;23200209278;67507853107;2673160014;28915237;2813897932;303064;1406866211;1566;10583;1148256;-7;7894;1244730
1;43;1573048950412;1573048957499;7087;23099531912;67507851229;2691383860;24338781;2813896054;300045;1406695560;1651;5708;572032;14;7088;1012199
1;44;1573048957499;1573048964454;6955;23071897324;67507850962;2697694699;18409281;2813895787;301401;1406795544;1284;7955;757168;-4;6954;993690
1;45;1573048964454;1573048971223;6769;22970528648;67507851146;2726668899;15617140;2813895971;306771;1406767188;959;8946;880976;1;6769;962220
1;46;1573048971223;1573048977820;6597;22914317918;67507850960;2736988712;11875330;2813895785;298493;1406736823;1102;9098;937240;156;6597;980404
1;47;1573048977820;1573048992096;14276;22982838638;67507867027;2691452915;29873028;2813903375;316925;1406815834;3022;14523;1562136;-167;14276;2083634
1;48;1573048992096;1573048998726;6630;22903362954;67507851527;2685676177;12144796;2813896352;301885;1406814429;1171;8230;750280;14;6630;947946
1;49;1573048998726;1573049005552;6826;22915114056;67507850993;2642220840;13969759;2813895818;315550;1406691942;1037;9264;898384;-13;6827;974574
1;50;1573049005552;1573049015568;10016;23001220476;67507867418;2658885194;22450651;2813903755;313397;1406906125;1911;13153;1427064;10;10015;1527408
1;51;1573049015568;1573049022400;6832;23078398996;67507851071;2629419270;21165917;2813895896;304858;1406588305;1565;4697;540536;7;6832;976026
1;52;1573049022400;1573049029036;6636;23140539954;67507850776;2625247842;24466244;2813895601;324223;1406803160;1267;7055;707464;-19;6636;945225
1;53;1573049029036;1573049043833;14797;23133337482;67507867517;2693545489;36101516;2813903854;309913;1406824257;2718;19912;1910456;26;14797;2263475
1;54;1573049043833;1573049050527;6694;22982897768;67507851411;2638926919;16881236;2813896236;307098;1406649896;1366;6314;757384;-15;6695;957030
1;55;1573049050528;1573049057173;6645;23228287414;67507850760;2628422085;28306754;2813895585;320435;1406708685;1538;6454;594440;-2;6645;955535
1;56;1573049057173;1573049064318;7145;23056369348;67507851542;2656364936;19666034;2813896367;309512;1406591869;1119;8528;858584;1;7146;1017011
1;57;1573049064319;1573049071703;7384;22928903318;67507852435;2724251268;14817070;2813897260;304211;1406698092;1120;10168;981368;0;7385;1051026
1;58;1573049071703;1573049078442;6739;22991596594;67507851538;2677090333;17758711;2813896363;297560;1406628199;1560;8451;926616;2;6739;1089638
1;59;1573049078443;1573049085327;6884;23018489356;67507851442;2653820350;18844345;2813896267;297653;1406665242;1551;4772;570264;17;6884;986919
1;60;1573049085327;1573049092649;7322;22952309746;67507853242;2657118812;16351592;2813898067;305097;1406826849;1445;7484;735160;-5;7322;1046216
1;61;1573049092649;1573049099304;6655;23063964852;67507850887;2742813936;20400608;2813895712;301367;1406712534;1046;8620;848224;-22;6656;948151
1;62;1573049099304;1573049106034;6730;23228096446;67507861322;2736281700;27522290;2813897659;304729;1406642225;1479;8923;844848;22;6729;1133969
1;63;1573049106034;1573049114375;8341;22954838904;67507853027;2694584923;20141361;2813897852;306713;1406756359;1646;9094;1040080;-14;8341;1189236
1;64;1573049114375;1573049121701;7326;22997486380;67507852129;2691311605;16930289;2813896954;301785;1406840829;1587;6381;676088;13;7326;1047721
1;65;1573049121701;1573049128880;7179;23135455504;67507850940;2731932729;23761168;2813895765;299525;1406641497;1168;8534;870936;-16;7180;1020209
1;66;1573049128881;1573049136108;7227;22968335582;67507851704;2726956330;18614309;2813896529;319622;1406808290;1498;9276;979712;45;7228;840367
1;67;1573049136109;1573049143442;7333;23046470840;67507852646;2675180330;20387198;2813897471;304397;1406714519;1816;5988;634112;-31;7333;1040286
1;68;1573049143442;1573049150967;7525;23384658086;67507852570;2666254840;40968952;2813897395;301248;1406812404;1557;7328;757920;-26;7525;872153
1;69;1573049150967;1573049158760;7793;23167518856;67507853158;2702005903;26499455;2813897983;305144;1406813116;1639;8070;857400;9;7793;1192973
1;70;1573049158760;1573049166004;7244;23142836972;67507851711;2654590709;26790614;2813896536;312224;1406770892;1543;4115;526720;9;7245;896826
1;71;1573049166004;1573049173957;7953;23029646968;67507853709;2706690526;20584803;2813898534;306389;1406787967;1679;7630;763896;-13;7953;1129126
1;72;1573049173958;1573049180732;6774;23022393980;67507851601;2650653084;18402478;2813896426;300168;1406802701;1087;10237;943968;11;6774;968319
1;73;1573049180732;1573049188561;7829;23066266250;67507853081;2684203098;26066033;2813897906;304644;1406758202;1549;11452;1153792;-6;7829;1237418
1;74;1573049188561;1573049195438;6877;22989467184;67507851503;2644655247;16680494;2813896328;299835;1406824090;1645;5448;694960;22;6877;984072
1;75;1573049195438;1573049202050;6612;22993041118;67507851130;2647171041;15879716;2813895955;300382;1406710710;1257;6076;642400;-9;6613;949101
1;76;1573049202051;1573049209787;7736;23022254404;67507852678;2684192756;21756868;2813897503;301676;1406802683;1174;10379;951656;10;7737;1101276
1;77;1573049209787;1573049217229;7442;23089151312;67507853099;2701899231;22057582;2813897924;303960;1406838819;1109;10786;1040504;-18;7441;1064889
1;78;1573049217229;1573049223998;6769;23207898660;67507851831;2699377839;26080360;2813896656;298492;1406747400;1330;9013;968560;12;6769;1063402
1;79;1573049223998;1573049231517;7519;23368747736;67507853301;2711572095;38752680;2813898126;305475;1406815949;1781;5710;614800;-21;7519;1074923
1;80;1573049231517;1573049238225;6708;23250650088;67507851093;2722174839;27537916;2813895918;300993;1406776715;1167;7318;737616;17;6708;960122
1;81;1573049238225;1573049245058;6833;23192742108;67507851090;2640159166;24902001;2813895915;298335;1406750084;986;8857;883504;6;6833;968960
1;82;1573049245058;1573049253170;8112;23034033976;67507853897;2665900618;24677227;2813898722;303046;1406831905;1620;11980;1114968;-5;8112;1291274
1;83;1573049253170;1573049260558;7388;23018002884;67507852103;2666785209;18848637;2813896928;301219;1406745292;1509;6634;806192;-5;7389;1057100
1;84;1573049260558;1573049267187;6629;23071797898;67507851169;2709510749;20389040;2813895994;312778;1406766227;1362;6186;619992;14;6629;942953
1;85;1573049267188;1573049273905;6717;23092050142;67507851015;2735990421;21732823;2813895840;312613;1406608253;1017;7921;829456;-59;6718;926783
1;86;1573049273906;1573049282388;8482;23059971022;67507853521;2654412878;23841872;2813898346;304250;1406759450;2020;10150;1047048;35;8482;527467
1;87;1573049282388;1573049290705;8317;23091543668;67507853237;2677750043;25770486;2813898062;305297;1406834040;1869;6641;746496;19;8318;1189857
1;88;1573049290705;1573049297723;7018;23187975500;67507852182;2712201981;27047745;2813897007;301484;1406783341;1320;7529;756880;-6;7018;1004991
1;89;1573049297723;1573049304571;6848;23227552450;67507851702;2660991540;27949759;2813896527;299625;1406772549;973;9990;932328;5;6848;979986
2;36;1573049737980;1573049745889;7909;23032555726;67507852090;2705038324;23635863;2813896915;310895;1406918219;1354;9893;988840;7;7910;505361
2;37;1573049745890;1573049754193;8303;23137217870;67507852907;2664568161;26255147;2813897732;315340;1406944976;2196;7548;867808;51;8304;968348
2;38;1573049754193;1573049762285;8092;23065807372;67507853882;2706275251;27971184;2813898707;315325;1406915446;1606;7846;779120;-6;8092;1155424
2;39;1573049762285;1573049769352;7067;22939380278;67507851509;2675524925;13371135;2813896334;317886;1406875416;1171;8578;820312;-19;7066;1005535
2;40;1573049769352;1573049781731;12379;23046364114;67507868791;2701770779;40240114;2813905100;330600;1407071922;2276;19858;1855144;17;12380;1912157
2;41;1573049781731;1573049789609;7878;23076906292;67507853082;2690696556;21801654;2813897907;323129;1406873108;1662;7162;901184;4;7878;1133368
2;42;1573049789609;1573049796420;6811;22982673366;67507851251;2674905384;16680844;2813896076;316165;1406936889;1329;6487;654912;-18;6811;970801
2;43;1573049796420;1573049804701;8281;23010776760;67507853544;2670784908;23420799;2813898369;311836;1406910350;1279;10347;1023568;0;8281;1187771
2;44;1573049804701;1573049812081;7380;23079390774;67507852549;2695382623;21597991;2813897374;314252;1406937386;1156;11089;1031960;3;7380;1048089
2;45;1573049812082;1573049819075;6993;22963325008;67507851762;2690274428;16934609;2813896587;304054;1406896675;1680;8171;915528;2;6994;1111102
2;46;1573049819075;1573049830586;11511;23053831722;67507867912;2680327323;30710787;2813904232;313642;1406873325;2368;10055;1053408;0;11511;1642484
2;47;1573049830586;1573049837737;7151;23302202250;67507851395;2669785952;31770329;2813896220;305100;1406778195;1065;9109;868744;-9;7151;1020833
2;48;1573049837737;1573049844971;7234;23194495860;67507851110;2638934178;27359869;2813895935;322585;1406835899;1333;9011;1000016;35;7233;1017041
2;49;1573049844971;1573049852618;7647;23192665604;67507852636;2668588945;29170585;2813897461;316049;1406805069;1977;5654;623640;-33;7575;937726
2;50;1573049852618;1573049863460;10842;23259915540;67507869922;2720783182;45411726;2813906640;333847;1407090795;1944;12063;1190152;24;10842;1556979
2;51;1573049863460;1573049879426;15966;23037025662;67507865607;2674179365;39328943;2813902260;321992;1406858481;3214;20199;2149448;-23;15898;1890845
2;52;1573049879426;1573049887740;8314;23129588202;67507855342;2672895290;27556004;2813900167;317362;1406950803;1748;7720;757088;12;8314;1186036
2;53;1573049887740;1573049894744;7004;23266825136;67507851768;2644269669;31081703;2813896593;319053;1406863533;1147;8962;831272;7;7004;999733
2;54;1573049894745;1573049903429;8684;23096975452;67507852651;2662252796;27479639;2813897476;321106;1406913315;1237;12606;1224976;-21;8685;1232329
2;55;1573049903429;1573049910331;6902;23014878484;67507851753;2693945365;17705403;2813896578;310816;1406816997;1374;9862;1020744;15;6901;1107848
2;56;1573049910331;1573049917850;7519;23052310402;67507852445;2713188352;21344999;2813897270;310625;1407014150;1722;6087;667328;7;7520;1078189
2;57;1573049917850;1573049924664;6814;23006333542;67507851194;2638336823;15511807;2813896019;324433;1406781095;1254;7419;704624;-6;6814;975701
2;58;1573049924664;1573049931679;7015;22945851582;67507851331;2658392364;14689626;2813896156;312638;1406878077;981;9178;896792;12;7014;1001514
2;59;1573049931679;1573049939153;7474;23074008484;67507851968;2716889927;24860370;2813896793;312223;1406866331;1208;11455;1054552;131;7475;1089971
2;60;1573049939153;1573049947146;7993;23066462474;67507854386;2678721974;23764267;2813899211;316902;1406956644;1794;7764;962808;-141;7992;1224327
2;61;1573049947146;1573049954102;6956;23102366648;67507851338;2733258009;20806928;2813896163;311752;1406877228;1444;5646;613520;-1;6957;992418
2;62;1573049954102;1573049966426;12324;23104886754;67507872205;2661147412;41077946;2813908542;334415;1406952460;1987;15929;1508608;-3;12324;1757744
2;63;1573049966426;1573049973483;7057;22983183490;67507851755;2697791083;16044188;2813896580;314851;1406610533;1485;9772;930104;-9;7057;1119750
2;64;1573049973483;1573049980100;6617;23067261532;67507850896;2641850542;20907526;2813895721;296692;1406670624;1316;6385;802304;-4;6617;945867
2;65;1573049980101;1573049987888;7787;23332218682;67507851444;2648126707;36702297;2813896269;304878;1406799012;1636;7198;734056;29;7788;1117008
2;66;1573049987888;1573049996394;8506;22938266736;67507853788;2676659559;19983108;2813898613;319355;1406857696;1351;10637;1042744;-7;8505;1210930
2;67;1573049996394;1573050003139;6745;23022350618;67507851033;2691303795;18482763;2813895858;323236;1406895442;1356;9007;870688;143;6746;1075371
2;68;1573050003139;1573050009850;6711;23164593454;67507850972;2642600769;24666652;2813895797;312821;1406893134;1317;7545;778528;-142;6711;1007105
2;69;1573050009850;1573050016430;6580;23001750748;67507850697;2640731589;16965100;2813895522;309082;1406716393;1367;4352;578064;-9;6580;948360
2;70;1573050016430;1573050024081;7651;23026063982;67507853107;2670545700;24129890;2813897932;322927;1406925499;1506;6784;742304;-7;7651;983760
2;71;1573050024081;1573050031519;7438;22959963504;67507852795;2707315608;16255402;2813897620;321309;1406901763;1167;9601;877200;17;7437;1059477
2;72;1573050031519;1573050039771;8252;23116601064;67507852447;2675764440;28999183;2813897272;314642;1407004832;1598;11133;1160120;149;8253;1254609
2;73;1573050039771;1573050047169;7398;23291372700;67507852698;2676004086;32823291;2813897523;316003;1406871487;1863;5808;633544;-174;7397;1138823
2;74;1573050047169;1573050054598;7429;23201938210;67507852891;2673603706;33390155;2813897716;309585;1406953699;1511;6981;722552;25;7430;1057857
2;75;1573050054598;1573050061641;7043;23228039360;67507852322;2649714413;28154074;2813897147;317333;1406914511;1112;8412;845728;-24;7043;999151
2;76;1573050061641;1573050068441;6800;23342882084;67507851043;2704715471;32420817;2813895868;308698;1406908955;996;11571;1023952;-1;6800;967500
2;77;1573050068441;1573050075705;7264;23085474156;67507851773;2654254726;23838909;2813896598;303534;1406919142;1478;10785;1115992;7;7264;1197069
2;78;1573050075705;1573050083870;8165;23086740560;67507853991;2704134637;25956773;2813898816;314572;1406906203;1827;6122;712096;5;8165;1165875
2;79;1573050083870;1573050090625;6755;23327885986;67507851111;2737438138;32551563;2813895936;320411;1406859165;1232;7323;734648;18;6755;961137
2;80;1573050090625;1573050097487;6862;23261709880;67507850903;2694462064;30978222;2813895728;299005;1406954563;1021;9013;873320;-29;6862;974085
2;81;1573050097487;1573050105249;7762;23210474684;67507852433;2730280621;29625815;2813897258;311159;1406788626;1406;10710;1051056;1;7762;1239494
2;82;1573050105249;1573050112287;7038;23003464350;67507851582;2715352336;18700674;2813896407;321402;1406935786;1569;5776;724704;15;7038;830584
2;83;1573050112287;1573050119951;7664;22980091064;67507853232;2708051084;17439575;2813898057;315657;1406931994;1574;6821;743064;-62;7664;1085070
2;84;1573050119951;1573050128181;8230;23047798126;67507853833;2699887098;27298766;2813898658;314442;1406891032;1550;9033;973280;-37;8230;705740
2;85;1573050128181;1573050136134;7953;23083080632;67507852960;2673373992;25416011;2813897785;307597;1406981290;2293;9233;981304;93;7914;410695
3;39;1573050594743;1573050605830;11087;22962801160;67507863599;2676515047;25246670;2813900222;306201;1406837938;1793;13745;1299264;14;11088;1589279
3;40;1573050605830;1573050612614;6784;23094203204;67507851054;2701721027;22217094;2813895879;308751;1406903278;949;10460;1018600;-21;6784;965560
3;41;1573050612615;1573050619442;6827;23126544394;67507851908;2662842473;23362363;2813896733;307512;1406913169;1303;10609;1061176;9;6828;1062760
3;42;1573050619442;1573050627510;8068;23198653210;67507853520;2654850542;32987692;2813898345;302319;1406892525;1704;6661;812248;-7;8068;1153821
3;43;1573050627510;1573050634700;7190;22978294534;67507852430;2694746918;14374563;2813897255;307215;1406895970;1453;8617;765976;19;7190;1025878
3;44;1573050634701;1573050641397;6696;22858681114;67507851195;2664230473;9601510;2813896020;312016;1406945986;960;8632;853000;-20;6697;955880
3;45;1573050641397;1573050650700;9303;22926510378;67507863944;2683689927;21787385;2813900281;306998;1406844341;1661;13384;1307416;3;9302;1403391
3;46;1573050650700;1573050657445;6745;22859782392;67507851141;2677676638;10251952;2813895966;314458;1406947389;1509;6083;714256;-5;6745;963911
3;47;1573050657445;1573050664036;6591;22866685856;67507850883;2642967946;10309113;2813895708;318483;1406806631;1392;6582;643832;15;6591;950145
3;48;1573050664036;1573050671231;7195;22858002944;67507851003;2651018457;12416904;2813895828;308531;1406745393;1071;8436;860144;-15;7196;1024376
3;49;1573050671232;1573050679294;8062;22951561350;67507853400;2663146415;18171171;2813898225;303027;1406896730;1216;11956;1103392;9;8063;1149055
3;50;1573050679295;1573050690305;11010;23273417036;67507871503;2677299039;33987692;2813907842;320241;1406643697;2576;11490;1324480;-2;11011;1689524
3;51;1573050690305;1573050697471;7166;23246077076;67507852040;2671549858;31697213;2813896865;300296;1406814005;1491;7134;691984;13;7166;1028614
3;52;1573050697471;1573050707108;9637;23068655394;67507866162;2698713891;21306004;2813903240;324554;1406896250;1481;12350;1224520;-9;9636;1376412
3;53;1573050707108;1573050713710;6602;22912729876;67507851002;2642554721;13392199;2813895827;306992;1406802361;1403;9564;893504;4;6603;1037572
3;54;1573050713711;1573050721696;7985;23038776640;67507852739;2688365279;23139237;2813897564;314786;1406970136;1669;8601;984448;-5;7985;1139900
3;55;1573050721696;1573050728670;6974;23101571970;67507851932;2755446213;21096166;2813896757;302293;1406758684;1360;6275;658704;16;6974;1001914
3;56;1573050728670;1573050735436;6766;23141766354;67507851254;2636652091;23174862;2813896079;308816;1406887373;1108;7663;790104;-21;6767;961487
3;57;1573050735436;1573050742967;7531;23266471524;67507851684;2650872642;32820012;2813896509;304123;1406854986;1359;10807;996384;154;7531;1143125
3;58;1573050742967;1573050749814;6847;23160834976;67507851670;2689472052;23685609;2813896495;311648;1406876508;1330;8413;975584;-144;6847;1019090
3;59;1573050749814;1573050756488;6674;23134601112;67507851126;2745203794;22725341;2813895951;310221;1406826289;1629;5260;499480;3;6674;958715
3;60;1573050756488;1573050763312;6824;23296184276;67507851210;2669330661;30731409;2813896035;301845;1406915021;1212;7428;757232;4;6824;975056
3;61;1573050763313;1573050775237;11924;23163707526;67507867281;2695001126;36446191;2813904094;313027;1406868274;2186;15315;1509656;5;11925;1765955
3;62;1573050775237;1573050782170;6933;23245662290;67507852239;2660223156;29248268;2813897064;306454;1406952113;1309;7847;918800;-29;6933;991630
3;63;1573050782170;1573050789233;7063;23313355482;67507851577;2682327856;31476498;2813896402;309906;1406705930;1470;5820;604264;2;7063;1009962
3;64;1573050789233;1573050796390;7157;23165341120;67507852153;2717571591;25609376;2813896978;324304;1406766029;1278;8471;849328;8;7157;1028906
3;65;1573050796390;1573050804711;8321;23141756280;67507854414;2699555932;30548132;2813899239;310392;1406931703;1316;11859;1092768;4;8320;1184785
3;66;1573050804711;1573050811492;6781;23222331198;67507851027;2631897565;27280575;2813895852;315852;1406871057;1584;8287;964560;-11;6782;1083151
3;67;1573050811492;1573050818569;7077;23123705278;67507851655;2617486301;25865166;2813896480;323067;1406850527;1620;5508;582392;12;7077;1016179
3;68;1573050818569;1573050825734;7165;23008984610;67507852320;2684466779;18216256;2813897145;315182;1406926918;1352;7321;718648;-6;7164;1020821
3;69;1573050825734;1573050832460;6726;22963535102;67507850981;2655890222;14761424;2813895806;308399;1406778951;1063;8728;860440;-7;6727;959920
3;70;1573050832461;1573050839168;6707;23014077236;67507852070;2737564946;17967542;2813896895;322043;1406745346;1401;7062;763840;1;6708;1235572
3;71;1573050839168;1573050846517;7349;23020716586;67507851917;2680692737;20372910;2813896742;314669;1406833311;1329;7791;880720;19;7349;1055459
3;72;1573050846518;1573050853284;6766;23018822382;67507851823;2724869236;16799009;2813896648;302719;1406878385;1489;5704;570936;-15;6767;965987
3;73;1573050853284;1573050860612;7328;23069624104;67507852818;2709971815;22485530;2813897643;318417;1406928472;1478;7462;763512;-30;7327;810835
3;74;1573050860612;1573050868844;8232;23118695580;67507853563;2678049280;26742309;2813898388;306932;1406878356;2068;9061;990504;50;8232;638958
3;75;1573050868844;1573050877468;8624;23279459392;67507855171;2699507239;43351958;2813899996;311600;1406934811;1935;6390;688584;-15;8624;1244262
3;76;1573050877468;1573050884709;7241;23176588960;67507852185;2656435966;26221507;2813897010;308086;1406902716;1301;7705;785752;6;7242;1042829
3;77;1573050884709;1573050891407;6698;23025374716;67507851705;2645728635;18151836;2813896530;302927;1406847531;964;10946;981328;-4;6698;952757
3;78;1573050891407;1573050898060;6653;23064579658;67507850899;2629305350;19703249;2813895724;297721;1406923719;885;11163;1139840;-46;6653;940418
3;79;1573050898060;1573050905407;7347;23067872250;67507852780;2670724851;21387790;2813897605;312141;1406822765;2094;5498;703656;37;7347;994657
3;80;1573050905407;1573050913065;7658;23025031762;67507852077;2708442930;21316717;2813896902;309467;1406900994;1604;7165;715704;-3;7658;1092291
3;81;1573050913065;1573050920520;7455;23012209166;67507853075;2679953986;18017232;2813897900;311470;1406965941;1172;10286;953352;16;7455;1068635
3;82;1573050920520;1573050927492;6972;23068711312;67507851963;2744163865;21301990;2813896788;314274;1406855428;1025;10213;963384;8;6972;996138
3;83;1573050927492;1573050934806;7314;23021307156;67507852892;2691361716;18035358;2813897717;308797;1406927694;1889;6365;854656;0;7313;914926
3;84;1573050934806;1573050942805;7999;23038858838;67507854150;2690937057;25123250;2813898975;307834;1406929007;1680;6734;724712;-16;7999;1147131
3;85;1573050942805;1573050949720;6915;23013478782;67507851468;2672942736;17569111;2813896293;308213;1406865121;1182;7232;807928;-100;6916;796700
3;86;1573050949720;1573050958103;8383;23125399608;67507855085;2711012154;29443674;2813899910;309957;1406952126;1971;9834;1063032;-20;8043;416662
3;87;1573050958103;1573050966015;7912;23224046990;67507852609;2702219405;31282217;2813897434;304963;1406870094;3241;7448;863168;118;7125;616061
3;88;1573050966016;1573050973461;7445;23172129682;67507852998;2658862693;26179420;2813897823;311433;1406866998;1691;6434;630776;6;7446;1062133
4;38;1573051437547;1573051445695;8148;22885677536;67507854667;2715891811;15206243;2813899492;316051;1407180667;1581;7696;819144;-13;8148;1158412
4;39;1573051445695;1573051452391;6696;23084447192;67507851229;2720242170;21142398;2813896054;319038;1407014869;1010;9443;865896;14;6697;952216
4;40;1573051452392;1573051460280;7888;23145475192;67507852082;2676018084;26826792;2813896907;307347;1407121088;1109;11957;1120296;-18;7888;1119958
4;41;1573051460280;1573051467575;7295;23248183126;67507862620;2655035599;30439206;2813898957;306862;1407054862;1499;8413;1008616;19;7297;1195442
4;42;1573051467576;1573051474702;7126;23047773160;67507852740;2678415889;20908358;2813897565;306235;1407089994;1669;5996;571024;-3;7126;1027912
4;43;1573051474703;1573051482422;7719;23045039164;67507853497;2675472608;21664070;2813898322;310496;1407089874;1416;8707;830752;-8;7719;1099770
4;44;1573051482422;1573051489058;6636;23028602484;67507850935;2638118282;17952344;2813895760;297687;1407046245;931;9239;877496;-3;6636;949943
4;45;1573051489058;1573051495814;6756;23202899620;67507851506;2721590547;28099523;2813896331;305220;1407028615;1497;8637;893368;-5;6757;1093300
4;46;1573051495814;1573051503933;8119;23252843300;67507853667;2666124415;31308287;2813898492;307936;1407182069;1555;8875;975416;13;8118;1162109
4;47;1573051503933;1573051510710;6777;23022597066;67507860619;2643021281;18010244;2813897317;320027;1406717814;1318;6034;650480;-6;6777;974247
4;48;1573051510710;1573051519187;8477;23092856938;67507852545;2696422680;28086129;2813897370;318921;1407065843;1766;8926;987048;-58;8477;823772
4;49;1573051519187;1573051527173;7986;23106000004;67507852976;2711276792;30048535;2813897801;311974;1407026395;1908;9727;986768;55;7986;684317
4;50;1573051527173;1573051536993;9820;22900981548;67507868581;2675700819;17603602;2813904918;318156;1407155455;2190;7794;846104;18;9820;1401102
4;51;1573051536993;1573051543896;6903;23028748338;67507852140;2670587219;19296084;2813896965;309620;1407037461;1185;8550;771520;-1;6903;986719
4;52;1573051543896;1573051557787;13891;23074090828;67507867520;2693194661;30795634;2813903868;320010;1407099272;2327;21068;2047568;15;13892;2090814
4;53;1573051557788;1573051565761;7973;22940941748;67507853885;2704169421;21905090;2813898710;319863;1407037968;1678;8623;963800;-40;7974;1148704
4;54;1573051565762;1573051572369;6607;22894588792;67507851886;2742381731;10837026;2813896711;320036;1407021100;1243;5588;660040;-73;6608;926323
4;55;1573051572369;1573051580102;7733;22908758968;67507853598;2715929827;17387565;2813898423;312380;1406884866;1491;8933;898104;42;7732;810705
4;56;1573051580102;1573051588224;8122;22924231902;67507853275;2697718933;19432827;2813898100;310585;1407154896;1449;10884;1087368;-35;8122;597962
4;57;1573051588224;1573051595881;7657;23086737348;67507852882;2690137010;23157647;2813897707;307309;1407015110;2028;6126;699184;64;7657;1138492
4;58;1573051595881;1573051602679;6798;22985352320;67507851931;2702289812;15949246;2813896756;313747;1406889558;1406;6586;645416;2;6798;970429
4;59;1573051602679;1573051610452;7773;22891188014;67507852983;2675763585;16378236;2813897808;308400;1407043090;1145;10455;940496;15;7773;1107629
4;60;1573051610452;1573051617319;6867;23095038762;67507851733;2660790741;22909287;2813896558;313897;1406748925;957;11711;1104664;3;6867;980992
4;61;1573051617319;1573051624670;7351;23198726648;67507851907;2663273336;29056008;2813896732;313599;1407014427;1450;9660;1147816;-1;7352;1109661
4;62;1573051624670;1573051635928;11258;23057778102;67507869273;2661625522;26035836;2813905610;320213;1407185431;2401;10181;1040480;-1;11257;1613922
4;63;1573051635928;1573051642620;6692;22876635610;67507851221;2734635813;10734330;2813896046;303960;1406955117;1068;8361;783776;-12;6693;953938
4;64;1573051642620;1573051649299;6679;22992239870;67507851603;2726285605;15569617;2813896428;299694;1407111017;989;9731;917680;3;6679;948476
4;65;1573051649299;1573051656096;6797;23071331720;67507851482;2649594595;19788270;2813896307;301551;1407014099;1354;9846;955632;-3;6797;1064000
4;66;1573051656096;1573051662756;6660;23137143848;67507851244;2702228623;23282469;2813896069;309033;1407086105;1444;4823;646736;-4;6659;954892
4;67;1573051662756;1573051669873;7117;23175273354;67507851432;2713788483;27378069;2813896257;299831;1407056546;1372;6783;719800;4;7117;1022183
4;68;1573051669873;1573051677399;7526;23021349934;67507852802;2671080370;18798143;2813897627;310318;1407062133;1185;9821;940992;0;7526;1071655
4;69;1573051677399;1573051684091;6692;22979191266;67507851188;2734512341;15132678;2813896013;301078;1407037577;1303;9533;859744;78;6693;1055620
4;70;1573051684091;1573051690866;6775;22937039606;67507851447;2656520121;14140952;2813896272;300915;1407133873;1502;7195;858328;-51;6774;1189610
4;71;1573051690866;1573051697593;6727;23147686070;67507850821;2632597920;25116873;2813895646;324120;1406899039;1439;2996;464096;-30;6727;976452
4;72;1573051697593;1573051704663;7070;23208862990;67507850902;2677672536;26463981;2813895727;316810;1407057097;1472;7977;716912;11;7070;1009907
4;73;1573051704663;1573051711443;6780;23160253312;67507851004;2664659556;25370480;2813895829;302750;1406864316;934;9063;881888;-6;6780;969801
4;74;1573051711443;1573051719284;7841;23190978282;67507852121;2661001779;32385888;2813896946;304481;1407067107;1185;11032;1063984;-1;7841;1115978
4;75;1573051719284;1573051726742;7458;23190989816;67507853097;2666868879;29667554;2813897922;307868;1407110101;1990;6859;784720;-2;7458;1169344
4;76;1573051726742;1573051733898;7156;23178823636;67507851074;2629656167;28370082;2813895899;299452;1407035534;1450;6379;674920;22;7156;1023091
4;77;1573051733898;1573051740989;7091;23187221410;67507851153;2644014268;25279193;2813895978;297911;1407017899;1170;8069;811336;-18;7091;1011806
4;78;1573051740989;1573051747830;6841;23162087364;67507851762;2688638033;23933383;2813896587;302936;1407042389;1038;9897;918776;-5;6842;975616
4;79;1573051747830;1573051754497;6667;23187829792;67507850824;2654033544;26745626;2813895649;315345;1406931572;1458;9984;983640;16;6666;1122750
4;80;1573051754497;1573051762824;8327;23237812746;67507853154;2692111302;35861455;2813897979;303606;1407098312;1912;6441;848712;-6;8327;1003557
4;81;1573051762824;1573051770100;7276;23219100364;67507852182;2646985910;28996058;2813897007;317504;1406998951;1500;6901;711656;-95;7276;1003825
4;82;1573051770100;1573051778487;8387;23123626146;67507853587;2662633056;27851243;2813898412;312135;1407083690;1446;9952;1026272;-7;8387;612215
4;83;1573051778487;1573051786118;7631;23065707800;67507852316;2647800034;23527097;2813897141;305746;1407107561;2116;8280;887424;108;7632;654346
4;84;1573051786119;1573051793867;7748;23231768784;67507853850;2685676885;31601217;2813898675;310190;1407049918;1752;6191;627992;8;7748;1112916
4;85;1573051793867;1573051800752;6885;23178408850;67507851327;2674459015;24851953;2813896152;319764;1407038267;1115;7604;798328;-27;6885;986134
4;86;1573051800752;1573051808785;8033;23135688666;67507853671;2746724138;28951588;2813898496;307853;1407136719;1930;8690;1059264;-124;7528;539333
4;87;1573051808785;1573051817148;8363;23045701566;67507854419;2705926040;27145429;2813899244;316340;1407092471;3282;8490;974512;124;7275;442902
