0;45;1573073879010;1573073885844;6834;22844816516;67507850671;2630961527;9445745;2813895496;305546;1406776776;1100;3949;935664;-12;6834;977464
0;46;1573073885844;1573073892711;6867;22951174012;67507850697;2628286869;15692647;2813895522;323806;1406802004;1259;4511;957144;5;6868;1111405
0;47;1573073892712;1573073899788;7076;22978815462;67507850704;2640757620;16608854;2813895529;315091;1406626900;885;5676;1160216;-20;7076;1004115
0;48;1573073899788;1573073907051;7263;22969865662;67507851651;2662990708;19118951;2813896476;320962;1406746696;1280;5901;932472;1;7263;1043847
0;49;1573073907051;1573073918590;11539;22946748168;67507865566;2660036857;17726335;2813901886;319646;1406834613;2023;7012;1355280;8;11539;1656201
0;50;1573073918590;1573073925257;6667;22851887588;67507850778;2645300851;9440774;2813895603;322362;1406652215;1538;4551;863984;8;6667;1087520
0;51;1573073925257;1573073931929;6672;22884018100;67507851240;2700300494;10565734;2813896065;300943;1406771128;783;5087;1078336;-13;6672;949963
0;52;1573073931929;1573073939210;7281;22839071708;67507861124;2634457217;9752866;2813897463;312331;1406864410;1219;4333;1030520;-3;7281;1044283
0;53;1573073939210;1573073951798;12588;22974223762;67507862691;2694135311;20351473;2813899028;313223;1406610989;2143;7932;1608000;1;12588;1801556
0;54;1573073951798;1573073958578;6780;23071963900;67507850772;2642603422;17687405;2813895597;299220;1406938296;1397;7124;777080;16;6780;1083848
0;55;1573073958578;1573073965500;6922;23011306886;67507850918;2662937392;17092247;2813895743;320673;1406745095;823;917;1283728;-2;6922;994717
0;56;1573073965500;1573073977034;11534;23013607554;67507862839;2701939220;21447071;2813899523;314803;1406826175;2036;5851;1409136;12;11534;1652071
0;57;1573073977034;1573073984272;7238;23379328064;67507851590;2728168450;34146818;2813896415;310063;1406765191;1224;5079;1022696;-30;7238;1044368
0;58;1573073984272;1573073991115;6843;23071707670;67507850733;2689527780;16228420;2813895558;312697;1406629361;1248;4669;1038600;5;6843;1114809
0;59;1573073991115;1573073998099;6984;22893301072;67507850876;2744269057;11429900;2813895701;307943;1406708824;965;6458;1074104;-5;6984;987695
0;60;1573073998099;1573074005149;7050;23190071476;67507850822;2709698731;27751412;2813895647;319913;1406707597;1421;4706;598392;21;7050;1011763
0;61;1573074005149;1573074011773;6624;23156988898;67507850735;2740329390;22335093;2813895560;323853;1406559595;1134;3101;893104;-14;6624;947860
0;62;1573074011774;1573074018420;6646;22860701900;67507850717;2670631400;10090249;2813895542;319800;1406614069;1383;4358;888072;17;6647;1096161
0;63;1573074018420;1573074025411;6991;22957776424;67507851252;2705074296;14984098;2813896077;312659;1406806848;940;5302;1065832;-3;6991;996742
0;64;1573074025411;1573074032200;6789;22940997228;67507851287;2736885235;12779344;2813896112;322790;1406926451;968;4247;1091040;-7;6789;973247
0;65;1573074032200;1573074044605;12405;23022155124;67507862731;2672867297;22880657;2813899070;318095;1406778456;2182;7290;1475696;-6;12405;1774957
0;66;1573074044605;1573074051446;6841;23063568170;67507850737;2629631666;19947661;2813895562;308476;1406689135;1457;7167;775176;-2;6841;1043325
0;67;1573074051446;1573074058979;7533;23017978502;67507851690;2715655741;21883735;2813896515;320127;1406828281;1207;7669;1013384;10;7534;1069252
0;68;1573074058980;1573074065552;6572;22963250694;67507850693;2729997081;12925312;2813895518;326030;1406837273;1127;3417;823264;-7;6572;944037
0;69;1573074065552;1573074072577;7025;22940191892;67507850680;2735274557;13693791;2813895505;323336;1406638251;1370;3462;826016;7;7025;1208733
0;70;1573074072577;1573074079453;6876;22948700334;67507850914;2733176485;13875470;2813895739;326248;1406393566;1022;432;1028632;-10;6876;986211
0;71;1573074079453;1573074086079;6626;23001573358;67507851623;2733378160;16007898;2813896448;312471;1406832561;1121;6597;846112;1;6626;955316
0;72;1573074086079;1573074092719;6640;23031164930;67507850822;2645450374;16489640;2813895647;322374;1406789841;780;4923;1055760;20;6640;950523
0;73;1573074092719;1573074099587;6868;22961774050;67507850701;2635433070;14981450;2813895526;323611;1406714229;814;6560;1141616;-13;6868;986313
0;74;1573074099587;1573074106577;6990;22951996138;67507851309;2647765731;15434594;2813896134;321861;1406825103;1247;567;1229424;-11;6990;1109829
0;75;1573074106577;1573074113187;6610;22964778730;67507851092;2738225892;13659133;2813895917;308047;1406802000;1196;4321;779648;20;6611;942653
0;76;1573074113188;1573074119831;6643;23021106844;67507851005;2707673480;16463419;2813895830;298230;1406578653;1042;3172;852920;-18;6643;948324
0;77;1573074119831;1573074126572;6741;23044478232;67507851593;2694002306;17038436;2813896418;313194;1406825824;1042;4218;902256;15;6741;967730
0;78;1573074126572;1573074133178;6606;22995667950;67507851640;2745345201;16137400;2813896465;318794;1406948728;1190;4487;912968;129;6606;1004081
0;79;1573074133178;1573074139926;6748;23343496744;67507851587;2733931680;33384278;2813896412;310418;1406858017;1140;8053;950760;-144;6748;1030846
0;80;1573074139926;1573074146675;6749;23221388914;67507850840;2746408922;26756480;2813895665;318317;1406809881;1025;2920;976560;0;6749;964668
0;81;1573074146675;1573074153433;6758;23269296186;67507850776;2678467456;29301411;2813895601;308098;1406927439;1089;3610;854160;-1;6758;958988
0;82;1573074153433;1573074160573;7140;23070564052;67507851059;2666459897;20416103;2813895884;321011;1406821306;1282;4664;918712;-2;7140;1021111
0;83;1573074160573;1573074167397;6824;23049443692;67507851727;2741482677;17780952;2813896552;311806;1406896320;1441;3667;903560;20;6824;1085978
0;84;1573074167397;1573074174039;6642;23114161842;67507851550;2747663361;22618509;2813896375;325789;1406758904;884;5885;952808;-20;6642;946685
0;85;1573074174039;1573074180738;6699;23043181460;67507851521;2737597663;19148813;2813896346;321995;1406754235;968;3611;1138096;24;6699;963406
0;86;1573074180738;1573074187430;6692;23014771466;67507850722;2631535302;16656327;2813895547;318740;1406815132;1480;5691;559864;-8;6692;955676
0;87;1573074187430;1573074194040;6610;23011146286;67507851402;2733042307;17354416;2813896227;297611;1406862707;986;3392;913808;7;6610;952295
0;88;1573074194040;1573074201160;7120;23025283320;67507851066;2724841539;16432065;2813895891;315401;1406697595;1393;4940;985992;-21;7120;1136005
0;89;1573074201160;1573074208146;6986;23122652618;67507851714;2673269592;21467302;2813896539;312603;1406967024;853;5687;1128944;11;6986;994557
0;90;1573074208146;1573074214769;6623;23020280046;67507851694;2705571421;16733105;2813896519;310518;1406830718;1166;3141;880816;-14;6623;946740
0;91;1573074214769;1573074221381;6612;23023713674;67507851845;2739814414;17798770;2813896670;308638;1406794937;1167;4030;749480;17;6612;947299
0;92;1573074221381;1573074227985;6604;22978056116;67507851523;2737378890;17096295;2813896348;317892;1406874100;985;3448;1032808;13;6604;947473
0;93;1573074227985;1573074234813;6828;23129493448;67507851887;2692632640;23673840;2813896712;310301;1406865245;1608;7191;772912;-29;6828;1096374
0;94;1573074234813;1573074241608;6795;23414651450;67507851935;2747209089;37158624;2813896760;323145;1406891174;1000;3906;934088;28;6795;966610
1;48;1573074742227;1573074749196;6969;23121633100;67507850796;2701047495;23203725;2813895621;303640;1406875860;1189;6096;959232;20;6969;1059516
1;49;1573074749196;1573074756508;7312;23016639682;67507852204;2664694794;16781468;2813897029;311127;1406792654;1007;5009;1323968;-15;7313;1046244
1;50;1573074756508;1573074763152;6644;22854694292;67507850675;2632479832;10064581;2813895500;315432;1406663061;1239;3874;664952;9;6643;955150
1;51;1573074763152;1573074770192;7040;22867242846;67507850674;2654238961;10587911;2813895499;319760;1406668876;1132;3672;962904;-12;7041;1005667
1;52;1573074770193;1573074777173;6980;22888707182;67507851049;2709076282;11185162;2813895874;314222;1406883165;1494;5808;863880;18;6981;1081093
1;53;1573074777174;1573074783732;6558;22890507654;67507850879;2647690265;11103915;2813895704;319045;1406784125;910;5942;1007776;-8;6559;941744
1;54;1573074783732;1573074793936;10204;22963024102;67507862787;2702492245;18515933;2813899126;316167;1406811463;1741;5363;1256376;-12;10204;1457707
1;55;1573074793936;1573074806096;12160;22898614888;67507863275;2654045903;15051740;2813899623;312975;1406326805;1940;6886;1751928;12;12160;1737703
1;56;1573074806097;1573074812761;6664;22934839094;67507850702;2633196350;15161441;2813895527;310487;1406650105;1249;5522;920824;10;6664;1048864
1;57;1573074812761;1573074819453;6692;23008259428;67507850731;2639373906;18212669;2813895556;302523;1406726084;1135;5648;956048;-14;6692;956245
1;58;1573074819453;1573074826293;6840;23121217876;67507850814;2645905606;22632157;2813895639;323521;1406820075;1302;4637;738512;9;6841;978037
1;59;1573074826293;1573074833052;6759;22981744222;67507851072;2698957089;14492237;2813895897;303360;1406838971;1025;3759;933952;-1;6759;973659
1;60;1573074833052;1573074839720;6668;22959324024;67507850683;2735560122;13824516;2813895508;298273;1406860293;1370;5060;820808;3;6668;1035218
1;61;1573074839721;1573074846418;6697;23060986160;67507850707;2714866137;18114227;2813895532;315079;1406537464;829;4584;1160128;-27;6698;957500
1;62;1573074846419;1573074853225;6806;23088878146;67507850721;2711511617;20034991;2813895546;319229;1406590238;999;4955;1004920;26;6806;970504
1;63;1573074853225;1573074865351;12126;23049043652;67507861707;2683080400;21558901;2813898491;317111;1406652107;2030;5951;1508184;-14;12126;1736487
1;64;1573074865351;1573074872026;6675;22996866464;67507851351;2669843424;15796393;2813896176;316768;1406618111;1485;6518;722704;16;6675;1027807
1;65;1573074872026;1573074878967;6941;23080611188;67507851363;2654425775;20786901;2813896188;304376;1406818531;1106;7661;895880;-17;6942;994594
1;66;1573074878967;1573074885830;6863;23028726000;67507850786;2623852866;18441933;2813895611;324126;1406627616;1262;3908;717968;18;6863;984126
1;67;1573074885831;1573074892416;6585;23021030048;67507850708;2625075405;17872974;2813895533;323766;1406775702;1113;3667;869016;-25;6585;943058
1;68;1573074892416;1573074899194;6778;22997837072;67507850703;2640371840;16502700;2813895528;325880;1406569637;984;5179;999040;10;6779;970392
1;69;1573074899194;1573074906192;6998;23065552018;67507850736;2646964821;20737157;2813895561;317748;1406682080;1347;4926;1084944;3;6998;1118930
1;70;1573074906193;1573074913509;7316;23205056186;67507851586;2647529838;29104493;2813896411;321027;1406866145;1117;7744;1046648;13;7316;1045087
1;71;1573074913509;1573074920571;7062;23034090916;67507852428;2738783679;17865359;2813897253;308080;1406879855;1299;3603;773888;-19;7063;1012491
1;72;1573074920571;1573074927191;6620;23022912426;67507851722;2738954535;17194286;2813896547;322229;1406982312;1085;3806;905464;3;6620;945636
1;73;1573074927192;1573074933829;6637;23044502468;67507851322;2665553193;18837141;2813896147;323517;1406686964;1558;4361;789696;-15;6638;1130723
1;74;1573074933829;1573074940939;7110;23101658986;67507850746;2641916069;22855932;2813895571;322378;1406724101;910;5015;1170272;18;7109;1017106
1;75;1573074940939;1573074947756;6817;23132349646;67507850743;2634718025;23162566;2813895568;311544;1406711620;923;4980;1019080;7;6818;972963
1;76;1573074947756;1573074954383;6627;23169857192;67507850749;2633659976;25424040;2813895574;311451;1406596239;1127;2615;851480;-7;6627;949437
1;77;1573074954383;1573074961393;7010;23217974704;67507851871;2644029700;28284651;2813896696;309585;1406927148;1388;6101;730096;-12;7009;1005690
1;78;1573074961393;1573074968258;6865;23220440352;67507852066;2704110627;27357322;2813896891;313984;1406868205;1499;4299;781056;4;6866;1252099
1;79;1573074968258;1573074974916;6658;23189895400;67507851245;2684087435;26782339;2813896070;322908;1406749061;947;4156;876624;16;6657;962752
1;80;1573074974916;1573074981707;6791;23091048144;67507850736;2613105788;19425851;2813895561;304703;1406687053;832;5328;1150392;0;6792;976593
1;81;1573074981707;1573074988294;6587;23026772374;67507850715;2635397180;17727040;2813895540;314762;1406845973;1090;1176;886648;-14;6587;945954
1;82;1573074988295;1573074995099;6804;23214168630;67507850952;2726406772;25701498;2813895777;313245;1406919166;1104;3440;1096552;18;6805;970878
1;83;1573074995100;1573075001944;6844;23155760162;67507851607;2732934136;22401269;2813896432;323985;1406906960;1563;6197;692464;-6;6844;1097078
1;84;1573075001944;1573075008637;6693;23040360886;67507850710;2734957596;17528372;2813895535;305241;1406777727;986;4869;961320;-17;6694;956394
1;85;1573075008637;1573075015438;6801;23018110048;67507851186;2717248255;17422737;2813896011;305805;1406937760;1088;2587;927336;0;6801;972869
1;86;1573075015438;1573075022049;6611;23016202996;67507851688;2720502479;17619621;2813896513;323981;1406869133;1209;4354;749336;7;6611;948377
1;87;1573075022050;1573075028684;6634;23065296956;67507851429;2723618492;18668483;2813896254;321437;1406876523;932;4170;1126032;2;6634;954501
1;88;1573075028684;1573075035651;6967;23075668066;67507851478;2715577944;20028188;2813896303;320776;1406934875;1229;6408;1033032;-1;6968;1079404
1;89;1573075035651;1573075044115;8464;23036077538;67507861535;2640863683;18938358;2813897874;314239;1406652312;1190;5076;1323896;-5;8464;1210554
1;90;1573075044115;1573075050970;6855;23067976202;67507851094;2695629943;18368987;2813895919;311168;1406763343;1385;5394;676496;-9;6854;983149
1;91;1573075050970;1573075057723;6753;23076631812;67507851506;2706473063;20779448;2813896331;304508;1406669806;1155;5674;777560;29;6754;968524
1;92;1573075057723;1573075064439;6716;23163761546;67507851706;2744336380;24305334;2813896531;323321;1406877691;1208;3672;1004328;-14;6716;1096095
1;93;1573075064439;1573075071337;6898;23253211950;67507851890;2737164650;29554123;2813896715;310610;1406965421;874;6098;1067480;-10;6898;986608
1;94;1573075071338;1573075078081;6743;23180900048;67507851355;2685647782;24820219;2813896180;312963;1406643787;1054;3186;934336;2;6744;957881
1;95;1573075078082;1573075084766;6684;23019325498;67507850713;2633590573;17799577;2813895538;319812;1406632314;1213;3839;759624;3;6684;965397
1;96;1573075084766;1573075091442;6676;22990688620;67507850703;2656734740;16700594;2813895528;309951;1406560158;1072;3818;983232;16;6677;954432
1;97;1573075091442;1573075098155;6713;23027117956;67507850944;2647491129;18422654;2813895769;305356;1406799552;1357;6318;876968;-3;6712;1089625
2;46;1573075592331;1573075599425;7094;23213345628;67507851501;2729979493;26487027;2813896326;312288;1407121715;836;5595;1233280;-27;7094;1013452
2;47;1573075599425;1573075606010;6585;22922911040;67507851842;2733335161;11001391;2813896667;301957;1406688492;1192;3159;843960;26;6585;947156
2;48;1573075606010;1573075612982;6972;22890834110;67507852321;2712336325;13242367;2813897146;301462;1407118029;1322;4293;795432;-10;6971;992743
2;49;1573075612982;1573075620104;7122;22907863404;67507852315;2669911144;12327746;2813897140;304485;1407028670;1692;6739;695640;8;7123;1105811
2;50;1573075620104;1573075630033;9929;23108951978;67507862659;2639791167;26430194;2813898979;319310;1406990465;1202;6960;1596376;-14;9929;1418145
2;51;1573075630033;1573075636782;6749;23311785398;67507851311;2659380726;30348898;2813896136;319034;1406956744;1172;3718;930488;14;6748;964322
2;52;1573075636782;1573075643640;6858;23171488450;67507851783;2728979027;25520771;2813896608;319999;1406770392;1092;3306;825216;-4;6859;983717
2;53;1573075643640;1573075654884;11244;22962470908;67507864434;2701483449;17820393;2813900782;319272;1406870161;2360;6861;1448624;-2;11244;1762496
2;54;1573075654885;1573075661474;6589;22859131524;67507850753;2692089377;9778901;2813895578;298213;1406818710;923;8381;1042864;5;6589;944493
2;55;1573075661474;1573075668162;6688;22874839956;67507852206;2730841576;9803349;2813897031;300865;1406897549;1246;2903;781320;2;6688;959532
2;56;1573075668162;1573075679397;11235;22891229186;67507862924;2672996006;14286721;2813899608;317994;1406962698;1961;6997;1385512;-6;11236;1608640
2;57;1573075679397;1573075686093;6696;22988665644;67507850726;2637935406;16661233;2813895551;299760;1406929987;1300;3560;977080;-13;6695;1128021
2;58;1573075686093;1573075692692;6599;22954527778;67507850842;2636838066;13589667;2813895667;309328;1407070064;870;5535;1019088;-6;6600;939008
2;59;1573075692692;1573075699281;6589;22940270148;67507851495;2720287327;12832171;2813896320;309476;1406943351;1091;3654;1017408;-3;6588;944981
2;60;1573075699281;1573075705842;6561;22852026726;67507851423;2691008740;9919181;2813896248;313377;1407064480;1301;4498;602584;12;6562;936065
2;61;1573075705843;1573075712403;6560;22899110120;67507850700;2648961141;11632728;2813895525;320452;1406786761;1127;5235;695680;-7;6561;945657
2;62;1573075712403;1573075718990;6587;23019459380;67507850714;2635187071;17723608;2813895539;323910;1407098219;1394;3384;881744;-3;6586;1085568
2;63;1573075718990;1573075725565;6575;22930057010;67507850753;2631915968;11908458;2813895578;326440;1406978993;856;6888;1096840;8;6575;941510
2;64;1573075725565;1573075732110;6545;22870945990;67507850672;2635309879;9821247;2813895497;325052;1406829958;1157;2662;943512;-2;6545;944449
2;65;1573075732110;1573075738780;6670;23068445154;67507850748;2751352744;19872034;2813895573;298908;1407036429;1179;3624;806784;5;6670;952228
2;66;1573075738780;1573075745691;6911;23087648680;67507850748;2717671993;20051556;2813895573;302602;1406776236;1171;4364;943808;-9;6911;993492
2;67;1573075745691;1573075758283;12592;23149782922;67507866803;2679341578;29285764;2813903490;322122;1406976831;2494;11011;1558728;6;12593;1909113
2;68;1573075758283;1573075764844;6561;22874290704;67507850754;2643811811;10073133;2813895579;305170;1406991526;1157;2380;787368;3;6560;939155
2;69;1573075764844;1573075771658;6814;23203240968;67507851040;2641980964;27473529;2813895865;299935;1407015902;1146;3764;873200;6;6814;978563
2;70;1573075771658;1573075778265;6607;23093610882;67507850731;2630473643;19887412;2813895556;327868;1407144184;1430;3773;827680;121;6607;1083858
2;71;1573075778265;1573075784799;6534;22842515994;67507850661;2635736945;9561349;2813895486;321229;1407005241;1091;4879;1070208;-117;6535;1009017
2;72;1573075784799;1573075791359;6560;22930628016;67507850680;2633574248;14395109;2813895505;314455;1407107516;842;4846;1090880;-75;6560;918617
2;73;1573075791359;1573075799262;7903;23063238210;67507852707;2653703198;24504993;2813897532;315458;1407082211;1490;3771;943192;67;7903;1077406
2;74;1573075799263;1573075805942;6679;23166819662;67507850982;2682108022;26198625;2813895807;322925;1407067898;1204;4049;788240;12;6680;955606
2;75;1573075805942;1573075812618;6676;23122422522;67507850729;2731785782;20068936;2813895554;321349;1406930036;1517;3506;832056;-21;6676;1098558
2;76;1573075812618;1573075819283;6665;22921546378;67507850726;2750823957;11845207;2813895551;297785;1407024403;820;4706;999280;12;6664;953243
2;77;1573075819283;1573075825897;6614;23059295626;67507850726;2710682684;20789436;2813895551;319139;1407029086;1298;3969;803224;3;6614;1237042
2;78;1573075825897;1573075832505;6608;23096305750;67507850749;2629770007;21345051;2813895574;318968;1407133086;1280;2260;657248;-15;6609;949066
2;79;1573075832506;1573075839082;6576;22980812158;67507850710;2612013248;15327995;2813895535;314197;1407011398;1032;3852;831728;25;6577;939275
2;80;1573075839082;1573075845698;6616;23117257626;67507850742;2636057099;24767205;2813895567;321734;1407064842;1183;3923;833064;-31;6616;946905
2;81;1573075845699;1573075852389;6690;23376901106;67507850820;2629514657;35045040;2813895645;296753;1407066693;1147;7531;721040;13;6690;958874
2;82;1573075852389;1573075859035;6646;22987448880;67507851188;2661068386;17339764;2813896013;323184;1406898268;1203;3134;1008720;13;6646;1121589
2;83;1573075859035;1573075865713;6678;22990425236;67507850706;2624521680;16167412;2813895531;321052;1407015679;910;7314;1110184;-13;6678;952396
2;84;1573075865713;1573075872338;6625;23076472818;67507850737;2648097101;18604377;2813895562;297390;1407000531;1025;2642;1055552;0;6626;951551
2;85;1573075872339;1573075878953;6614;23026639222;67507850784;2634393763;16672289;2813895609;324353;1407039567;1181;3892;766944;3;6614;951478
2;86;1573075878953;1573075885530;6577;22993352390;67507850702;2638530515;16410097;2813895527;297245;1407104066;1046;3337;775672;-13;6578;940161
2;87;1573075885531;1573075892151;6620;23130902348;67507850746;2633312838;25290248;2813895571;301708;1406823610;1354;3186;932696;19;6620;1030371
2;88;1573075892151;1573075898765;6614;23109732932;67507850734;2645797666;21973942;2813895559;299374;1406864138;1018;5991;933624;-20;6614;948720
2;89;1573075898765;1573075905348;6583;23009030746;67507850719;2631763992;17361109;2813895544;325580;1407104603;1233;3854;896304;16;6583;946276
2;90;1573075905348;1573075911927;6579;22990272666;67507850704;2639894363;16040609;2813895529;311692;1406767808;1330;5423;620464;-18;6580;942104
2;91;1573075911927;1573075918536;6609;23035582744;67507850777;2633975092;17169357;2813895602;324878;1406888103;868;1687;1091936;1;6608;948314
2;92;1573075918536;1573075926985;8449;23029793698;67507862137;2637601739;19609312;2813898821;314741;1406988397;1550;5054;1347168;18;8449;1304554
2;93;1573075926985;1573075933596;6611;23094940358;67507850739;2643390178;22322501;2813895564;324751;1406886847;1162;3576;881488;-10;6612;945445
2;94;1573075933597;1573075940240;6643;23213108670;67507850767;2631485226;26914122;2813895592;327397;1407061068;1084;3608;824976;5;6644;951488
2;95;1573075940240;1573075946822;6582;23009521598;67507850705;2625879282;17374903;2813895530;326889;1407054474;1081;4490;888264;8;6582;947041
3;47;1573076445950;1573076452590;6640;23202985176;67507850768;2642026505;26863487;2813895593;297274;1406959560;1188;2840;822296;-3;6640;941358
3;48;1573076452590;1573076459217;6627;23070676034;67507850755;2620075557;17600584;2813895580;296808;1406791223;1055;3490;880944;4;6627;950203
3;49;1573076459218;1573076467115;7897;22905369870;67507860883;2643948018;13437515;2813897610;323344;1406872199;1848;5330;877784;-11;7897;1293565
3;50;1573076467115;1573076474137;7022;23303734812;67507850798;2633938596;32035081;2813895623;310307;1406495211;1038;9074;917368;19;7023;1001528
3;51;1573076474138;1573076480872;6734;23318824496;67507851075;2706490506;31078278;2813895900;319604;1406868471;1447;4778;612640;-6;6735;964469
3;52;1573076480872;1573076487939;7067;23297029032;67507850789;2731919194;30269477;2813895614;311772;1407009831;1215;3731;911376;8;7067;1022765
3;53;1573076487939;1573076497528;9589;23359996788;67507863252;2689124362;44141423;2813900328;312218;1406819521;1584;6116;1341504;150;9589;1422288
3;54;1573076497528;1573076504124;6596;22923895956;67507851439;2735422486;12559499;2813896264;322516;1407007316;1160;5050;1036216;-160;6596;1014507
3;55;1573076504125;1573076510955;6830;22931571614;67507851472;2721700598;13104199;2813896297;307775;1406864441;1086;6204;1031816;4;6831;979509
3;56;1573076510955;1573076517840;6885;22969588992;67507850756;2684000093;14757489;2813895581;302514;1406934367;1392;4115;624048;-15;6885;985452
3;57;1573076517840;1573076528516;10676;22996265236;67507863253;2663995704;19213295;2813899592;313180;1406759415;1690;5581;1463216;172;10676;1527835
3;58;1573076528516;1573076535420;6904;23162929784;67507851843;2762712911;25639422;2813896668;321480;1406935727;1496;4301;838928;-178;6904;1175676
3;59;1573076535420;1573076543054;7634;23257411640;67507851459;2710002984;28665002;2813896284;317112;1406728301;1050;6139;1265472;6;7633;1090130
3;60;1573076543054;1573076549744;6690;23022887168;67507850734;2734295291;16502599;2813895559;321467;1407051993;1254;3089;729448;-4;6691;954221
3;61;1573076549744;1573076556846;7102;23061771056;67507850783;2738310583;19834238;2813895608;309513;1406718090;1124;4427;916984;28;7102;1021276
3;62;1573076556846;1573076563803;6957;23062055172;67507850990;2687891111;18704814;2813895815;320737;1406894526;1814;5847;668520;-8;6957;1153166
3;63;1573076563804;1573076573071;9267;22992478726;67507862691;2671103360;18792844;2813899399;320642;1406851506;1168;7172;1634624;-16;9267;1322340
3;64;1573076573071;1573076579851;6780;22952524074;67507851317;2677667020;15281084;2813896142;322711;1406797668;1328;3330;732056;16;6781;975933
3;65;1573076579851;1573076586440;6589;23022858844;67507850739;2642686784;18200760;2813895564;297754;1406911815;974;2707;1000224;-14;6589;936989
3;66;1573076586440;1573076593056;6616;23109669130;67507850777;2644962564;22275203;2813895602;296398;1407041861;1296;5286;741344;152;6616;1025562
3;67;1573076593056;1573076599629;6573;22973191104;67507850694;2639764487;15700832;2813895519;297087;1406882490;1275;2852;1004912;-151;6573;1015594
3;68;1573076599629;1573076606305;6676;23005692018;67507851057;2665057947;16837529;2813895882;323735;1407033867;1045;7727;891608;10;6676;954110
3;69;1573076606305;1573076612945;6640;23202323942;67507850769;2641406383;26267462;2813895594;326793;1406968396;1255;3254;801520;-7;6639;954394
3;70;1573076612945;1573076619555;6610;23100054446;67507850733;2639185147;20470161;2813895558;296892;1406979259;1144;3154;836960;8;6610;948575
3;71;1573076619555;1573076626130;6575;22971823522;67507850695;2638278424;15647397;2813895520;316486;1406649711;1453;4535;761072;10;6576;1073349
3;72;1573076626130;1573076632784;6654;23190164332;67507850894;2635250783;27015162;2813895719;326453;1406964375;907;4608;1124344;-11;6654;960618
3;73;1573076632784;1573076639440;6656;23206767160;67507850895;2644204538;26623881;2813895720;321545;1406964748;857;5090;1086256;7;6656;950802
3;74;1573076639440;1573076646019;6579;22972964366;67507850758;2642252395;16001598;2813895583;320076;1407020667;1328;3249;775488;-16;6578;939246
3;75;1573076646019;1573076652863;6844;23137584476;67507851140;2690196165;24215481;2813895965;304398;1406918583;1325;6189;704064;19;6845;982612
3;76;1573076652864;1573076659530;6666;23298671386;67507850776;2750427289;30572742;2813895601;305282;1406891766;1474;3305;894552;1;6667;1049540
3;77;1573076659531;1573076666119;6588;23021672448;67507850709;2714495347;16585383;2813895534;316500;1406975103;952;4507;955240;-15;6589;972397
3;78;1573076666120;1573076672712;6592;23034951002;67507850731;2740678595;16702406;2813895556;298253;1406966447;1151;4132;728640;6;6592;941543
3;79;1573076672712;1573076679294;6582;23010833700;67507850691;2727503412;16494196;2813895516;316516;1406884137;1091;2051;947752;-3;6583;941919
3;80;1573076679294;1573076686175;6881;23004389552;67507850689;2729575665;16319089;2813895514;326215;1406890682;1294;4934;730640;-15;6881;991951
3;81;1573076686175;1573076693062;6887;23030563118;67507850695;2727480824;17530894;2813895520;324817;1406653488;1146;3091;994176;7;6886;992074
3;82;1573076693062;1573076699956;6894;23196897122;67507851406;2723987673;25080792;2813896231;314763;1406900959;1429;7887;777504;-6;6894;1101133
3;83;1573076699956;1573076706831;6875;23205457394;67507851499;2684978518;27853943;2813896324;313876;1406944461;894;4359;1192960;3;6876;982043
3;84;1573076706831;1573076713716;6885;23270004140;67507851195;2631410976;28830931;2813896020;305814;1406991189;1373;4585;867192;10;6885;985029
3;85;1573076713716;1573076720326;6610;23097415204;67507850742;2627625615;23817267;2813895567;297762;1406989474;1011;2691;847680;13;6610;943515
3;86;1573076720326;1573076726947;6621;23068129502;67507850819;2637969264;19783696;2813895644;326759;1406971552;1111;4130;931144;-23;6621;953920
3;87;1573076726947;1573076733526;6579;22989055318;67507850696;2648941164;16541722;2813895521;326430;1407028400;1475;4799;808288;3;6579;1087885
3;88;1573076733526;1573076740107;6581;23000484782;67507850710;2646014395;16527170;2813895535;325182;1406925466;840;5100;1083856;-8;6581;938065
3;89;1573076740108;1573076746692;6584;23005676688;67507850711;2634642973;16463280;2813895536;325180;1407006124;1428;5126;622480;12;6585;940788
3;90;1573076746692;1573076753283;6591;23016792690;67507850810;2649327760;17457792;2813895635;324728;1407001309;1070;2664;872560;-14;6591;946208
3;91;1573076753284;1573076759877;6593;23016376590;67507850774;2634653962;16827480;2813895599;323593;1406962207;1111;4372;898552;13;6594;946971
3;92;1573076759877;1573076766462;6585;23010644630;67507850717;2643793805;17686393;2813895542;322979;1406727470;1169;4379;920744;10;6585;1035766
3;93;1573076766462;1573076773083;6621;23133803660;67507850749;2638737563;24474682;2813895574;325856;1407023823;976;5814;1164768;-16;6620;943557
3;94;1573076773083;1573076779705;6622;23139837986;67507850742;2639208936;24248315;2813895567;324242;1406583872;1281;2796;721440;-1;6623;942719
3;95;1573076779705;1573076786289;6584;23011722402;67507850707;2639741232;17479615;2813895532;326090;1407059295;1151;3970;837184;1;6583;943263
3;96;1573076786289;1573076792880;6591;23030239728;67507850735;2625535823;17186827;2813895560;317765;1406613937;1591;5530;624024;-6;6592;1035406
4;48;1573077288558;1573077301779;13221;22930186366;67507863393;2648694026;17505398;2813900131;316806;1406923544;1933;9114;2023632;-13;13221;1896925
4;49;1573077301779;1573077308373;6594;23016876786;67507850728;2638203276;16492068;2813895553;323784;1407005367;1121;3033;807808;-1;6593;946153
4;50;1573077308373;1573077315246;6873;22885464814;67507850985;2735498433;10216885;2813895810;315334;1406961185;1293;5274;791080;-10;6873;985540
4;51;1573077315246;1573077321925;6679;22942228446;67507851218;2720849532;13797199;2813896043;307918;1406950302;1512;5984;784360;-4;6679;1050115
4;52;1573077321925;1573077328670;6745;23038736636;67507851225;2692812909;17569483;2813896050;313614;1406990283;887;4571;1165624;13;6745;968127
4;53;1573077328670;1573077335322;6652;22899487238;67507850685;2634661441;10604908;2813895510;323282;1406907501;1296;3454;730544;-12;6652;953507
4;54;1573077335322;1573077341859;6537;22854615890;67507850659;2634101063;9637093;2813895484;320660;1407152349;1069;3327;864080;19;6538;931628
4;55;1573077341859;1573077354121;12262;23074283694;67507864840;2707105499;28949473;2813901468;311588;1406805257;2180;8239;1741952;-4;12262;1865839
4;56;1573077354122;1573077360922;6800;23244517066;67507851842;2730839434;26990861;2813896667;307687;1407008516;1023;6471;1021088;4;6800;967783
4;57;1573077360922;1573077367488;6566;22931935738;67507850713;2659441327;12093382;2813895538;308156;1406989436;1329;3565;648728;-15;6566;944129
4;58;1573077367488;1573077379114;11626;22902939554;67507863419;2667471617;16101344;2813900157;315135;1406950020;1858;6761;1517888;-2;11626;1661648
4;59;1573077379114;1573077386108;6994;22949000364;67507851885;2728869230;16929830;2813896710;316133;1406873468;1454;4576;954536;2;6995;1081394
4;60;1573077386108;1573077392988;6880;22930124170;67507851067;2658136675;12987672;2813895892;314059;1406951930;830;5377;1111872;4;6880;986339
4;61;1573077392989;1573077399554;6565;22953536146;67507850685;2726926771;14356939;2813895510;326239;1407004910;1207;3129;849752;9;6565;935105
4;62;1573077399554;1573077406592;7038;23014133592;67507851191;2718839243;16338844;2813896016;317509;1407149891;1419;5017;766984;-11;7038;1007846
4;63;1573077406592;1573077413354;6762;23152347704;67507851081;2656085517;24762855;2813895906;303986;1406770788;1549;5507;747992;16;6762;1057613
4;64;1573077413354;1573077420081;6727;23091386864;67507850931;2651833043;19976241;2813895756;318429;1406901949;791;4064;1189376;-23;6728;961202
4;65;1573077420081;1573077429927;9846;23075006394;67507864057;2669225365;28696510;2813900385;311534;1407021362;1684;6856;1354504;17;9845;1400510
4;66;1573077429927;1573077436838;6911;22868489540;67507850961;2676802276;10304820;2813895786;323244;1406656685;1088;2990;915072;0;6912;995344
4;67;1573077436839;1573077443403;6564;22946566836;67507850687;2610312495;14395641;2813895512;321924;1406933804;1249;4640;709880;167;6565;991134
4;68;1573077443403;1573077449993;6590;23035418056;67507850713;2631603317;18262028;2813895538;322004;1407038644;1297;2794;1056008;-160;6589;1027284
4;69;1573077449993;1573077456567;6574;22863627448;67507850797;2689742480;10155945;2813895622;318140;1406952681;1069;8037;828384;-13;6574;934984
4;70;1573077456567;1573077463118;6551;22903625024;67507850666;2735180761;11392342;2813895491;326147;1406887082;1093;1645;900248;-3;6551;945385
4;71;1573077463118;1573077469860;6742;23048788590;67507850861;2719403990;17036706;2813895686;320868;1406861759;1145;3809;806264;7;6742;966181
4;72;1573077469860;1573077476623;6763;22917609926;67507850696;2730323788;11786519;2813895521;302176;1406771862;1573;4232;699960;3;6764;1066544
4;73;1573077476623;1573077483272;6649;22896753680;67507850660;2731080403;10975605;2813895485;314534;1406942720;858;4782;1200288;8;6648;948293
4;74;1573077483272;1573077490215;6943;22866031484;67507850655;2730446517;10711770;2813895480;307619;1406912030;963;5340;1064632;-23;6943;994629
4;75;1573077490215;1573077496897;6682;23000770796;67507850784;2727323482;17172074;2813895609;316099;1406980085;1374;3605;772544;2;6682;958085
4;76;1573077496897;1573077503672;6775;23277419626;67507850859;2669009898;28762747;2813895684;311723;1407012145;1640;5477;592840;46;6776;1178597
4;77;1573077503672;1573077510247;6575;22977293120;67507850700;2632899879;13452295;2813895525;325961;1407043420;1059;1573;743952;-53;6574;955958
4;78;1573077510247;1573077516856;6609;22924033342;67507850750;2639148612;12272252;2813895575;322182;1407120602;1010;5423;1004696;21;6609;941795
4;79;1573077516856;1573077523489;6633;23178063852;67507850768;2627511842;24823206;2813895593;325111;1407020363;1112;3470;871224;8;6634;949814
4;80;1573077523489;1573077530071;6582;23003699994;67507850701;2637776707;16137923;2813895526;322230;1406874516;1057;2853;902520;0;6581;945553
4;81;1573077530071;1573077536606;6535;22851006332;67507850662;2636298169;9820445;2813895487;320793;1407086361;1638;5562;655544;-19;6536;1079441
4;82;1573077536606;1573077543252;6646;23214958490;67507850809;2636580648;30068230;2813895634;297455;1407028966;890;4672;1160312;20;6646;960187
4;83;1573077543252;1573077549991;6739;23282875208;67507851474;2659263839;28713834;2813896299;315497;1407080392;1460;5130;665840;-20;6739;964096
4;84;1573077549991;1573077556587;6596;22968031464;67507850800;2647482535;13644160;2813895625;297965;1406998438;1068;3453;860024;9;6596;948233
4;85;1573077556587;1573077563174;6587;23024014288;67507850714;2641332974;19294009;2813895539;319362;1407062459;1012;4514;937152;-9;6587;945973
4;86;1573077563174;1573077569804;6630;23174556640;67507850760;2635529248;25034339;2813895585;319471;1407112390;1282;4427;933840;9;6630;1058416
4;87;1573077569804;1573077576416;6612;23001183538;67507850904;2718200843;17602739;2813895729;316329;1407046868;874;5494;1114176;-10;6611;944636
4;88;1573077576416;1573077582996;6580;23006405228;67507850692;2726846125;15896444;2813895517;319034;1407073413;1217;2796;803856;1;6581;946783
4;89;1573077582996;1573077589717;6721;22952570210;67507850726;2704172562;14179356;2813895551;298563;1406867096;1181;4120;863824;3;6721;962140
4;90;1573077589718;1573077597415;7697;23018490670;67507853242;2709459956;20329286;2813898067;306220;1407029885;1734;5751;808736;-1;7697;1189740
4;91;1573077597415;1573077603997;6582;22977915956;67507850750;2638062164;14693739;2813895575;323370;1407107478;965;4606;1001456;-5;6582;937439
4;92;1573077603997;1573077610690;6693;23373034442;67507850851;2652836228;34864530;2813895676;301545;1406894441;1020;4353;1050936;6;6694;959505
4;93;1573077610690;1573077617341;6651;23244093228;67507850773;2644832516;27506794;2813895598;309609;1407071396;1316;3699;780184;-4;6650;947301
4;94;1573077617341;1573077623965;6624;23149210894;67507850745;2634238598;23581925;2813895570;319757;1407009285;1092;3088;862216;-3;6625;950256
4;95;1573077623965;1573077630615;6650;23234832594;67507850768;2641229192;30559360;2813895593;324206;1406734140;1534;4575;844696;-5;6649;1087998
4;96;1573077630615;1573077637929;7314;23240222330;67507851916;2647133317;29708181;2813896741;316074;1407037744;996;7474;1076656;-2;7314;1042968
4;97;1573077637929;1573077645281;7352;23035548288;67507852369;2724733177;18557747;2813897194;316467;1407025642;1456;4265;860432;16;7353;1051292
