0;33;1574283416377;1574283424068;7691;22770808970;67507851293;2676542117;8571751;2813896118;300522;1407080642;863;3;1715432;33;7691;293358
0;34;1574283424069;1574283431549;7480;22739205810;67507851347;2702279748;6838238;2813896172;305026;1407057227;905;59;1436440;66;7481;573071
0;35;1574283431550;1574283439233;7683;22752250180;67507851146;2703630813;7106043;2813895971;302194;1407086782;828;4;1632008;-2;7684;1083032
0;36;1574283439234;1574283447192;7958;22769657906;67507851113;2665317321;9739548;2813895938;302697;1407035074;846;8;1685792;18;7959;1140542
0;37;1574283447193;1574283454540;7347;22716715094;67507850865;2714268383;4258999;2813895690;309186;1406945176;837;8;1648312;-148;7323;974890
0;38;1574283454540;1574283462250;7710;22772266926;67507851324;2680956311;8938928;2813896149;302643;1407135375;892;78;1468952;129;7539;512856
0;39;1574283462250;1574283476685;14435;22818747632;67507861179;2702364624;26981530;2813897923;310189;1407034170;1572;14;3103096;-1;14435;2007401
0;40;1574283476685;1574283484365;7680;22767331104;67507851160;2673608012;7787515;2813895985;307281;1407105485;854;10;1685104;-17;7680;1077758
0;41;1574283484365;1574283492308;7943;22793887336;67507851073;2661537953;11117066;2813895898;306469;1407056823;976;71;1588592;26;7942;1079054
0;42;1574283492308;1574283499881;7573;22734990206;67507851084;2672860783;5645649;2813895909;304288;1406988479;796;7;1555696;1;7573;1085555
0;43;1574283499881;1574283507409;7528;22760811474;67507850912;2647566237;10725968;2813895737;308785;1407030469;841;4;1642696;-82;7363;284230
0;44;1574283507410;1574283515026;7616;22788158150;67507851290;2673726434;9738451;2813896115;304511;1407050850;821;10;1610680;78;7616;769379
0;45;1574283515026;1574283522858;7832;22789781524;67507850951;2725351452;9447594;2813895776;304590;1407018072;1020;68;1641056;-4;7833;1143074
0;46;1574283522858;1574283536862;14004;22837880056;67507861285;2671300159;26061202;2813897913;307393;1407170035;1511;18;2929880;25;14003;2008653
0;47;1574283536862;1574283544625;7763;22763460206;67507851078;2666202154;7919939;2813895903;303435;1406976433;898;6;1742672;-2;7764;1114612
0;48;1574283544625;1574283551576;6951;22694535650;67507851149;2740707615;4828001;2813895948;297521;1406842063;877;77;1388392;-107;6875;658313
0;49;1574283551576;1574283567157;15581;22840091956;67507861781;2701694873;29608721;2813898109;306553;1407040402;1694;21;3286472;111;15581;2022562
0;50;1574283567157;1574283575281;8124;22789648956;67507851056;2655276805;11063701;2813895881;306330;1407078905;907;10;1759440;-11;8123;1165326
0;51;1574283575281;1574283586038;10757;22795149652;67507861625;2672942521;17443917;2813897973;302726;1407028604;1413;72;2302744;1;10758;1578127
0;52;1574283586038;1574283593491;7453;22703658898;67507851142;2719968138;3451384;2813895967;305067;1406979131;766;14;1459776;2;7453;1067764
0;53;1574283593491;1574283600695;7204;22752366542;67507851002;2642261879;8107722;2813895827;306685;1406975815;830;12;1594904;-103;7203;378178
0;54;1574283600695;1574283608621;7926;22784949216;67507851121;2684679370;10522874;2813895946;307527;1407137818;895;17;1713344;75;7926;568186
0;55;1574283608621;1574283616383;7762;22771364938;67507851056;2687365427;9507923;2813895881;308226;1406928779;1032;71;1597816;16;7763;1101977
0;56;1574283616383;1574283623940;7557;22771983686;67507851135;2665286279;8267136;2813895960;299721;1407104898;792;12;1507160;8;7556;1084196
0;57;1574283623940;1574283632131;8191;22791016684;67507851291;2710907622;11185858;2813896116;301082;1407001195;933;18;1780520;-5;8192;1176340
0;58;1574283632131;1574283639592;7461;22694604124;67507850879;2655171429;3474489;2813895704;300849;1406917266;1077;61;1361712;15;7460;1121172
0;59;1574283639592;1574283646962;7370;22737795158;67507850890;2648295237;7942657;2813895715;310041;1406889252;889;16;1222296;-5;7370;772556
0;60;1574283646962;1574283657795;10833;22808320458;67507861458;2671013703;19103047;2813897806;305620;1406911930;1205;20;2278392;-21;10834;1553362
0;61;1574283657795;1574283665953;8158;22787050448;67507851111;2709110032;10710017;2813895936;305025;1407001761;910;14;1708056;18;8158;1175627
0;62;1574283665953;1574283673941;7988;22795814682;67507851199;2699332653;11061516;2813896024;304984;1406918147;1148;50;1628264;-19;7987;1221041
0;63;1574283673941;1574283681394;7453;22794677926;67507851088;2676963123;9256397;2813895913;300697;1406976393;788;6;1478912;12;7454;1071420
0;64;1574283681394;1574283688316;6922;22687598752;67507850731;2692166298;1866763;2813895556;302679;1407012244;813;6;1510136;18;6921;990163
0;65;1574283688316;1574283695940;7624;22753724196;67507851026;2706498923;9206277;2813895851;303560;1407031402;873;9;1629912;-64;7625;423998
0;66;1574283695940;1574283704252;8312;22786081738;67507851146;2675965972;11088217;2813895971;306097;1407072102;1197;51;1675544;65;8312;1142266
0;67;1574283704252;1574283711897;7645;22776621230;67507851166;2667421609;9243261;2813895991;314227;1407069422;828;12;1550600;-28;7645;1100486
0;68;1574283711898;1574283719650;7752;22775822756;67507851067;2650554434;9687902;2813895892;305231;1407035895;901;9;1698712;27;7752;1114167
0;69;1574283719650;1574283727145;7495;22763506634;67507851084;2671539871;7912343;2813895909;302764;1407024581;846;10;1596208;-14;7496;1077192
0;70;1574283727145;1574283734040;6895;22699452492;67507851121;2737664769;2105588;2813895946;306280;1407156598;996;48;1458864;-39;6894;1013830
0;71;1574283734040;1574283741807;7767;22765745690;67507851169;2661133529;9506026;2813895994;305211;1406990523;809;16;1519080;51;7768;852713
0;72;1574283741808;1574283749703;7895;22764919330;67507850916;2669158751;8903240;2813895741;306410;1407097241;924;10;1708848;-24;7896;1131591
0;73;1574283749704;1574283757546;7842;22782332896;67507851151;2657744730;9816614;2813895976;307291;1407058707;913;14;1717408;15;7843;1127449
0;74;1574283757546;1574283764935;7389;22779020886;67507850934;2675908320;9132688;2813895759;307682;1407053349;1075;49;1558000;0;7389;1107585
0;75;1574283764935;1574283772730;7795;22766204860;67507851033;2690800719;8625727;2813895858;304067;1407079983;799;10;1496464;1;7794;1119393
0;76;1574283772730;1574283779800;7070;22701826598;67507850893;2716907675;2969689;2813895718;307727;1406897521;817;17;1527248;-17;7071;1016255
0;77;1574283779800;1574283787107;7307;22737964810;67507850935;2696074311;7486831;2813895760;313475;1407053152;852;13;1587688;-53;7306;452664
0;78;1574283787107;1574283794704;7597;22773521942;67507851155;2650243855;8950364;2813895980;308798;1407123538;1018;95;1547040;35;7597;876653
0;79;1574283794704;1574283802470;7766;22795459464;67507851310;2702083389;10772724;2813896135;304009;1407030572;805;20;1516424;40;7767;1059271
0;80;1574283802471;1574283810173;7702;22766731044;67507851159;2656970282;8747206;2813895984;309380;1407075476;919;19;1692008;-23;7703;1104608
0;81;1574283810173;1574283818049;7876;22768024166;67507850917;2669035887;9160395;2813895742;305601;1407085874;913;23;1696288;15;7876;1125478
0;82;1574283818050;1574283825453;7403;22719156506;67507851054;2721465272;3481757;2813895879;301292;1407035367;987;86;1593272;-33;7404;1070167
1;36;1574284290080;1574284298217;8137;22764767928;67507851051;2678398377;9452574;2813895876;310662;1406906241;909;8;1813816;19;8138;1167830
1;37;1574284298217;1574284309996;11779;22772953856;67507861376;2702285995;17847058;2813897688;309781;1406736651;1389;76;2380584;-48;11779;1105155
1;38;1574284309996;1574284318165;8169;22777809378;67507851100;2670167348;9191067;2813895925;303368;1406864423;888;9;1746736;36;8169;1128430
1;39;1574284318165;1574284325906;7741;22770220006;67507851177;2707701431;8588434;2813896002;303675;1406889397;863;7;1707320;1;7740;1105600
1;40;1574284325906;1574284334022;8116;22780935384;67507851081;2664311618;10857029;2813895906;313929;1406844206;971;75;1790280;90;8117;1170687
1;41;1574284334022;1574284341293;7271;22765380106;67507851109;2673681471;7725302;2813895934;308254;1406854901;826;8;1439488;-86;7270;1056600
1;42;1574284341293;1574284348458;7165;22737901008;67507851007;2723155286;5459712;2813895832;299976;1406882512;751;5;1475016;-15;7165;1028780
1;43;1574284348458;1574284361364;12906;22816154526;67507861580;2682043631;25830877;2813897917;302957;1406798543;1452;11;2843304;-96;12906;531998
1;44;1574284361364;1574284369477;8113;22797456452;67507851127;2691242145;11526586;2813895952;306891;1406919530;1029;59;1610136;99;8114;787609
1;45;1574284369477;1574284377283;7806;22775941162;67507851198;2712970134;9377811;2813896023;305270;1406778092;801;9;1573016;-1;7805;1116451
1;46;1574284377283;1574284385330;8047;22768894618;67507850955;2683193634;9330456;2813895780;310117;1406885484;904;12;1767120;24;8047;1155331
1;47;1574284385330;1574284392674;7344;22781714586;67507850986;2665915034;8551713;2813895811;312110;1406867399;808;14;1588984;-8;7345;1055835
1;48;1574284392674;1574284400075;7401;22748200870;67507850774;2646975388;8214086;2813895599;299691;1406825540;980;72;1566384;-22;7401;1094857
1;49;1574284400075;1574284415087;15012;22843277676;67507861678;2702156632;27961267;2813898026;307726;1406840658;1608;25;3115392;24;15012;2154708
1;50;1574284415087;1574284425171;10084;22813847580;67507861491;2679628399;17301646;2813897839;308410;1406914363;1150;22;2242408;2;10084;1449368
1;51;1574284425171;1574284432851;7680;22773510554;67507851237;2721120449;8389135;2813896062;307896;1406765731;990;59;1595880;-20;7679;1106355
1;52;1574284432851;1574284440667;7816;22744799216;67507850964;2701107647;6297096;2813895789;305100;1406773417;810;7;1556472;22;7816;1119866
1;53;1574284440667;1574284447624;6957;22714938858;67507850815;2736094019;5268706;2813895640;297109;1406724994;780;8;1528080;-120;6957;664464
1;54;1574284447624;1574284455289;7665;22791165896;67507850973;2685982592;9416144;2813895798;306524;1406586053;887;11;1719312;44;7666;410838
1;55;1574284455289;1574284463077;7788;22769344298;67507851231;2729643088;8236700;2813896056;314036;1406844710;942;78;1517816;66;7787;960745
1;56;1574284463077;1574284470999;7922;22781073792;67507851093;2688655268;9093944;2813895918;313608;1406822313;846;14;1627088;-14;7922;1138557
1;57;1574284470999;1574284478673;7674;22774806012;67507851189;2676294257;8821151;2813896014;307243;1406802985;871;14;1685904;25;7674;1100430
1;58;1574284478673;1574284489375;10702;22775232186;67507861679;2711109902;12772394;2813898016;308372;1406867296;1407;81;2292072;-46;10703;1396100
1;59;1574284489375;1574284496851;7476;22768121840;67507851125;2682399665;8041026;2813895950;313306;1406765043;748;12;1444488;28;7476;1024015
1;60;1574284496851;1574284504808;7957;22794073048;67507851178;2703586632;10533249;2813896004;301087;1406933093;897;12;1717728;-1;7957;1141909
1;61;1574284504808;1574284512440;7632;22777426566;67507851138;2703557500;8586161;2813895963;300052;1406745560;875;11;1685496;-11;7632;1093650
1;62;1574284512440;1574284520264;7824;22798634526;67507851169;2713241684;10492345;2813895994;305972;1406873604;1026;68;1707584;11;7824;1167063
1;63;1574284520264;1574284528380;8116;22782297564;67507851115;2712792148;10066523;2813895940;303874;1406861089;875;10;1655456;-11;8115;1164197
1;64;1574284528380;1574284535276;6896;22686631502;67507851107;2734929303;1818533;2813895932;308970;1406787992;750;10;1417152;18;6896;991160
1;65;1574284535276;1574284543242;7966;22758100108;67507851217;2678268520;10281711;2813896042;310925;1406822668;1114;73;1497152;-1;7967;926233
1;66;1574284543242;1574284550900;7658;22779655402;67507851360;2711372498;8919318;2813896185;306277;1406903324;897;7;1211192;9;7657;1100536
1;67;1574284550900;1574284559073;8173;22781236144;67507851033;2687661538;10194075;2813895858;308492;1406794815;929;15;1762256;-1;8173;1172488
1;68;1574284559073;1574284566428;7355;22765863074;67507850960;2662121987;8309509;2813895785;299746;1406907329;869;12;1642232;-5;7355;1060790
1;69;1574284566428;1574284574300;7872;22773585890;67507851043;2692374518;8892065;2813895868;309008;1406773924;1035;66;1722480;-5;7872;1137232
1;70;1574284574300;1574284581296;6996;22682496490;67507850872;2660452722;2208222;2813895697;305601;1406803129;822;13;1410816;13;6996;1009876
1;71;1574284581296;1574284588738;7442;22705673844;67507850834;2644952366;6267792;2813895659;316728;1406905201;815;10;1510592;-123;7442;590490
1;72;1574284588738;1574284596839;8101;22781658960;67507851086;2687813425;10522377;2813895911;309551;1406844569;948;11;1766376;57;8102;638523
1;73;1574284596839;1574284604839;8000;22787626710;67507851182;2708042165;10121416;2813896007;304910;1406864827;1064;96;1690256;54;8000;1017848
1;74;1574284604840;1574284612555;7715;22784147530;67507851222;2699707294;8991581;2813896047;307931;1406870043;803;17;1500008;-3;7716;1107370
1;75;1574284612555;1574284620788;8233;22790014832;67507851182;2660639377;10245395;2813896007;307550;1406820771;960;14;1805992;0;8232;1183379
1;76;1574284620788;1574284628029;7241;22698959596;67507850896;2661417061;3484974;2813895721;303268;1406902840;857;14;1596792;-24;7241;1035119
1;77;1574284628029;1574284635933;7904;22763563428;67507851276;2700862302;9952365;2813896101;310751;1406823006;1046;84;1658576;28;7904;673964
1;78;1574284635933;1574284643685;7752;22775714862;67507851244;2687216475;8903559;2813896069;305032;1406864077;825;12;1538272;7;7752;1115001
1;79;1574284643685;1574284651930;8245;22796225818;67507851066;2660076978;11491597;2813895891;303916;1406915758;968;17;1809816;-8;8246;1184636
1;80;1574284651930;1574284659989;8059;22789999064;67507851143;2729472777;10678585;2813895968;303554;1406821609;976;19;1821432;-16;8058;1154620
1;81;1574284659989;1574284667917;7928;22789990888;67507851136;2691713334;10459364;2813895961;307861;1406879006;1061;66;1701368;16;7928;1191317
1;82;1574284667917;1574284674919;7002;22679640876;67507850885;2649223142;2006247;2813895710;313206;1406710687;731;13;1351704;5;7002;1004914
1;83;1574284674919;1574284682805;7886;22761007698;67507851058;2659055932;10228485;2813895883;312200;1406856821;925;15;1709368;-14;7886;887335
1;84;1574284682805;1574284690659;7854;22773041602;67507850970;2661055399;9661328;2813895795;314334;1406888153;942;18;1727616;1;7854;1061791
1;85;1574284690659;1574284697986;7327;22771529334;67507850909;2681181348;7760466;2813895734;305488;1406815470;976;76;1508336;-3;7327;1053427
2;35;1574285139550;1574285147264;7714;22772758800;67507850970;2718065875;9166774;2813895795;310530;1407065963;855;6;1709968;9;7715;1104515
2;36;1574285147264;1574285154579;7315;22720961212;67507850850;2707347010;6385545;2813895675;311575;1407021845;837;79;1400920;-23;7315;564037
2;37;1574285154579;1574285162290;7711;22765409014;67507851105;2697591028;8366976;2813895930;310325;1407042414;805;4;1594424;-1;7711;1101901
2;38;1574285162290;1574285175631;13341;22813346070;67507861449;2707805618;23112980;2813897797;306569;1407165128;1462;9;2896376;10;13341;1910508
2;39;1574285175631;1574285183408;7777;22779169076;67507851150;2658087210;9852435;2813895975;302683;1407002360;996;68;1694312;15;7777;1121925
2;40;1574285183408;1574285191420;8012;22795097968;67507851402;2729191127;10146802;2813896227;311327;1407116338;788;5;1573400;-20;8012;1148199
2;41;1574285191421;1574285198225;6804;22690540506;67507851036;2704058242;1622376;2813895861;320741;1406783285;758;6;1502872;-113;6805;913392
2;42;1574285198225;1574285205944;7719;22780766608;67507851057;2670321664;9073921;2813895882;315068;1407073918;863;8;1695480;21;7719;231983
2;43;1574285205944;1574285213677;7733;22795397414;67507851251;2676640616;10303336;2813896076;307940;1407047431;990;73;1613936;84;7733;553086
2;44;1574285213678;1574285223804;10126;22810112754;67507860418;2674826617;17124013;2813897494;314601;1407047852;1061;11;2103552;11;10127;1443918
2;45;1574285223804;1574285231702;7898;22789280014;67507851241;2688563850;9706251;2813896066;320007;1407020204;891;12;1746048;5;7898;1134571
2;46;1574285231702;1574285239538;7836;22772512644;67507851122;2685865079;8844519;2813895947;313786;1407130456;870;15;1711120;-6;7835;1122912
2;47;1574285239538;1574285246698;7160;22716004074;67507850881;2660480687;6532938;2813895706;298654;1406757752;897;74;1432536;-73;7121;607510
2;48;1574285246698;1574285254401;7703;22765690064;67507861385;2661225369;8731130;2813897733;306240;1407110210;820;11;1604584;62;7703;913675
2;49;1574285254401;1574285261744;7343;22774468314;67507851018;2639189582;8099675;2813895843;303487;1407016008;840;12;1650584;24;7343;1059881
2;50;1574285261744;1574285274103;12359;22813248250;67507861516;2670587169;21147132;2813897853;307280;1406917931;1543;69;2673624;3;12359;1779260
2;51;1574285274103;1574285281839;7736;22786625296;67507851178;2723319154;9670068;2813896003;314091;1407013676;774;8;1497856;-6;7736;1115114
2;52;1574285281839;1574285289121;7282;22685643958;67507850812;2634770259;2646523;2813895637;310666;1406539628;818;7;1569496;-92;7282;1016781
2;53;1574285289121;1574285296890;7769;22774972452;67507851073;2698510950;8578881;2813895898;314402;1406973388;873;10;1687176;21;7769;511089
2;54;1574285296890;1574285304907;8017;22774800902;67507851111;2697258342;9643888;2813895936;303317;1407122225;1023;83;1674896;67;8017;876093
2;55;1574285304907;1574285312799;7892;22779642554;67507851109;2686870452;10164174;2813895934;310620;1406945972;797;13;1542784;4;7892;1130465
2;56;1574285312799;1574285320490;7691;22779276970;67507851081;2661134457;8828298;2813895906;310364;1407112561;860;14;1673784;4;7691;1104956
2;57;1574285320490;1574285328557;8067;22787096730;67507851198;2669767081;10424316;2813896023;313361;1407018866;891;23;1728776;5;8067;1156257
2;58;1574285328558;1574285339580;11022;22752956236;67507861139;2718278587;12707227;2813897755;309932;1407002747;1325;83;2273880;-90;10963;1055150
2;59;1574285339580;1574285347664;8084;22785056380;67507851137;2700974024;10324199;2813895962;315140;1407021270;865;20;1672056;71;8084;1034230
2;60;1574285347664;1574285355445;7781;22776535528;67507851139;2683604267;9219756;2813895964;314370;1407071254;883;18;1718976;13;7781;1117604
2;61;1574285355445;1574285363133;7688;22747190696;67507850871;2659449373;7275838;2813895696;307310;1406990792;888;17;1697528;-24;7688;1102618
2;62;1574285363134;1574285371126;7992;22770224678;67507851336;2686098440;9648493;2813896161;312403;1407159437;1017;67;1655256;11;7993;1158921
2;63;1574285371127;1574285378677;7550;22738798762;67507851023;2677064705;6415303;2813895848;308214;1406929396;805;16;1539768;-5;7550;1082625
2;64;1574285378677;1574285386011;7334;22710710990;67507850831;2654092325;6385436;2813895656;301336;1407087974;840;12;1610160;-96;7335;511339
2;65;1574285386011;1574285393759;7748;22762037290;67507851266;2661118465;8689658;2813896091;303365;1407019740;1108;75;1232064;90;7748;908986
2;66;1574285393760;1574285401906;8146;22780192098;67507851183;2702584217;9720010;2813896008;304456;1407064588;895;14;1516792;13;8147;1172035
2;67;1574285401906;1574285409800;7894;22783032090;67507851074;2703102627;10641281;2813895899;313117;1407048170;926;21;1769024;2;7893;1132917
2;68;1574285409800;1574285417597;7797;22769105004;67507850934;2647361955;9386063;2813895759;315231;1407036955;878;19;1672856;-14;7798;1115730
2;69;1574285417597;1574285424913;7316;22743543032;67507850972;2675201196;5674467;2813895797;306649;1407002119;1036;74;1598488;0;7316;1139175
2;70;1574285424913;1574285431839;6926;22687091256;67507850687;2733189066;4392570;2813895512;299813;1407052315;770;14;1363424;-2;6925;853110
2;71;1574285431839;1574285439732;7893;22764075012;67507851212;2661664250;8823090;2813896037;311327;1406988835;856;19;1623032;24;7894;1117379
2;72;1574285439732;1574285447795;8063;22786062904;67507851037;2701224469;9905009;2813895862;311811;1407106954;944;19;1780792;-16;8063;1158560
2;73;1574285447795;1574285455070;7275;22766501386;67507851034;2690592794;7505325;2813895859;308599;1407070646;983;91;1541384;14;7275;1063286
2;74;1574285455070;1574285462833;7763;22788812084;67507851337;2717547247;9704154;2813896162;310728;1407066326;825;19;1553496;7;7763;1112019
2;75;1574285462834;1574285470920;8086;22793518248;67507851020;2645431567;10451693;2813895845;308369;1407079026;916;27;1738664;-20;8087;1163217
2;76;1574285470921;1574285477929;7008;22705261832;67507850773;2724210677;5376873;2813895598;320511;1406811020;793;19;1498104;-32;7009;785276
2;77;1574285477929;1574285486249;8320;22787691096;67507851202;2677049532;11113309;2813896027;309653;1407057632;1077;70;1766680;41;8320;1024137
2;78;1574285486250;1574285493997;7747;22780011350;67507851194;2671454749;8760868;2813896019;302058;1407128822;819;18;1542936;13;7748;1110731
2;79;1574285493997;1574285501671;7674;22770750862;67507851030;2681307732;9281201;2813895855;307460;1406997256;900;21;1675672;-4;7674;1105102
2;80;1574285501671;1574285509457;7786;22778866856;67507851185;2696997872;9511112;2813896010;309731;1407085431;930;17;1741800;-2;7786;1118302
2;81;1574285509457;1574285516939;7482;22763353042;67507851141;2694266949;7688802;2813895966;305638;1407069269;995;65;1562640;-12;7482;1094253
2;82;1574285516939;1574285524107;7168;22710530826;67507850805;2721142380;6091168;2813895630;317459;1406996722;757;12;1404120;-40;7168;695744
2;83;1574285524107;1574285531642;7535;22774457948;67507851108;2681545110;8495984;2813895933;311402;1407104305;856;20;1590848;47;7534;999345
2;84;1574285531642;1574285539528;7886;22777043462;67507851013;2663731468;9872240;2813895838;309365;1407030800;932;18;1727040;-12;7887;1129407
3;36;1574286017430;1574286025011;7581;22729737126;67507851139;2701135463;5610482;2813895964;312048;1406889736;848;3;1696912;-16;7581;1085241
3;37;1574286025012;1574286038888;13876;22802092390;67507861707;2698686458;26421248;2813898046;306650;1406815485;1580;70;2789000;24;13853;1429658
3;38;1574286038888;1574286046840;7952;22768044752;67507850951;2691995360;9483481;2813895776;310496;1406863912;881;14;1760184;-17;7952;1142688
3;39;1574286046840;1574286054534;7694;22766000460;67507851205;2696477247;7619730;2813896030;306186;1406890390;831;7;1658408;1;7693;1104267
3;40;1574286054534;1574286062040;7506;22776906514;67507851153;2698399752;8937939;2813895978;303075;1406838238;981;71;1597984;-2;7507;1089347
3;41;1574286062040;1574286069692;7652;22801108642;67507851204;2717219400;10324901;2813896029;307793;1406864064;758;7;1491168;11;7652;1098822
3;42;1574286069692;1574286076719;7027;22710345552;67507850683;2699919918;6165239;2813895508;300111;1406872891;780;7;1538664;-102;7027;623217
3;43;1574286076720;1574286085077;8357;22789236214;67507860508;2703312063;11293073;2813897584;304953;1406806693;931;9;1831928;28;8357;476688
3;44;1574286085077;1574286093154;8077;22787123156;67507851024;2684437554;10655192;2813895849;309645;1406928511;1031;67;1654360;71;8077;929315
3;45;1574286093154;1574286101133;7979;22789459156;67507851284;2703620303;10824027;2813896109;312856;1406786450;835;9;1630632;-3;7979;1144635
3;46;1574286101133;1574286109220;8087;22807146910;67507851099;2679070731;12250769;2813895924;304379;1406887045;916;10;1794384;12;8087;1157807
3;47;1574286109220;1574286116891;7671;22748550248;67507851012;2674266715;7098454;2813895837;311944;1406871683;837;5;1633816;-5;7671;1100980
3;48;1574286116891;1574286129742;12851;22798949740;67507861491;2632762946;25506627;2813897800;313734;1406836476;1488;86;2562552;10;12851;1860512
3;49;1574286129742;1574286137794;8052;22788671924;67507851029;2693739217;10288676;2813895854;308771;1406807517;901;5;1752976;-5;8053;1158314
3;50;1574286137795;1574286148061;10266;22809088710;67507860800;2662717097;18001074;2813897704;312599;1406936179;1166;10;2265272;-14;10267;1471120
3;51;1574286148061;1574286155593;7532;22773769120;67507851014;2688089329;7783431;2813895839;308416;1406767959;996;57;1642456;-5;7531;1094334
3;52;1574286155593;1574286163071;7478;22726263202;67507851020;2716082991;4704467;2813895845;310622;1406774650;762;8;1476976;6;7478;1070825
3;53;1574286163071;1574286169810;6739;22686735600;67507850682;2738598047;3473388;2813895507;323528;1406685772;752;5;1461616;-88;6740;752949
3;54;1574286169810;1574286178191;8381;22792903880;67507851251;2675341129;11159090;2813896076;313678;1406602427;953;12;1830672;80;8380;851939
3;55;1574286178191;1574286185580;7389;22765815040;67507851103;2721572134;7073106;2813895928;308864;1406830183;941;71;1519816;12;7390;1005744
3;56;1574286185580;1574286193323;7743;22790372240;67507851179;2707633251;10725777;2813896004;306745;1406809869;811;11;1559096;-10;7742;1111086
3;57;1574286193323;1574286204637;11314;22797215698;67507861509;2711014293;19244851;2813897857;312618;1406821293;1277;18;2449640;3;11315;1623318
3;58;1574286204637;1574286212169;7532;22724026920;67507850906;2723398614;5189710;2813895731;315400;1406919764;947;66;1688832;3;7532;885483
3;59;1574286212170;1574286219996;7826;22774994060;67507851113;2722274989;8661529;2813895938;308153;1406746018;880;13;1485144;2;7826;918029
3;60;1574286219996;1574286227762;7766;22775752822;67507851015;2669862636;9296248;2813895840;312135;1406936288;887;10;1684440;9;7767;1112100
3;61;1574286227762;1574286236166;8404;22788585638;67507851217;2694217552;11087690;2813896042;312721;1406761856;965;17;1843448;-5;8403;1206865
3;62;1574286236166;1574286243840;7674;22787740444;67507851104;2668324475;9696867;2813895929;310957;1406882300;987;65;1627232;-8;7674;1107459
3;63;1574286243840;1574286252106;8266;22790397644;67507851063;2695055641;10115528;2813895888;306060;1406864736;887;10;1693696;9;8266;1186877
3;64;1574286252106;1574286259421;7315;22692539246;67507850826;2734022288;2988256;2813895651;313746;1406679856;817;12;1539256;-75;7315;948882
3;65;1574286259421;1574286267775;8354;22785754844;67507851115;2694847235;10901291;2813895940;311679;1406825111;959;12;1829456;52;8354;787539
3;66;1574286267775;1574286275794;8019;22781597494;67507851379;2673015480;10348395;2813896204;313052;1406901341;1167;56;1338952;28;8019;1155376
3;67;1574286275794;1574286283500;7706;22765887310;67507851202;2713287579;7354953;2813896027;306505;1406730867;887;11;1352736;-12;7706;1108814
3;68;1574286283500;1574286291023;7523;22764250650;67507851194;2675469710;8106489;2813896019;301107;1406913817;866;12;1637984;-2;7524;1077698
3;69;1574286291023;1574286298905;7882;22779995582;67507851014;2695089196;9811459;2813895839;305032;1406765673;900;11;1693592;-4;7881;1133556
3;70;1574286298905;1574286305602;6697;22679857686;67507851073;2743919561;1096734;2813895898;303721;1406697819;970;77;1430920;7;6698;977089
3;71;1574286305603;1574286313212;7609;22745184802;67507851053;2652399765;8479871;2813895878;313672;1406894732;796;13;1496472;-1;7561;666276
3;72;1574286313212;1574286320604;7392;22774902810;67507851175;2701963065;7861581;2813896000;309449;1406834442;839;13;1556088;-7;7392;1056092
3;73;1574286320604;1574286328222;7618;22774408600;67507851167;2705210766;8717675;2813895992;309333;1406861772;897;13;1678736;-1;7618;1092606
3;74;1574286328222;1574286336172;7950;22790918426;67507851092;2681399065;10920163;2813895917;308243;1406887919;944;23;1765504;17;7950;1139895
3;75;1574286336172;1574286343979;7807;22774607890;67507851037;2671568512;8878699;2813895862;310236;1406816184;997;65;1588312;-9;7807;1127395
3;76;1574286343979;1574286350923;6944;22687279158;67507850782;2709039785;2027824;2813895607;301386;1406896458;760;15;1403544;8;6945;996008
3;77;1574286350923;1574286358012;7089;22730291926;67507850780;2709224717;5850709;2813895605;312981;1406778676;840;8;1552096;-112;7037;285217
3;78;1574286358012;1574286365871;7859;22779536120;67507851158;2674563329;9651878;2813895983;309258;1406864153;904;19;1698304;75;7859;643023
3;79;1574286365871;1574286373956;8085;22790981060;67507850919;2687284760;10553436;2813895744;312026;1406925041;1013;84;1590944;31;8085;1126992
3;80;1574286373956;1574286381796;7840;22774498974;67507851280;2680117918;8791545;2813896105;306882;1406820059;899;17;1666568;-3;7840;1127307
3;81;1574286381796;1574286389470;7674;22768917248;67507851252;2721100452;8614005;2813896077;311078;1406888178;891;16;1654024;5;7674;1102484
3;82;1574286389470;1574286396683;7213;22693194786;67507850925;2726569078;2377813;2813895750;308331;1406846639;859;8;1584376;-101;7213;996963
3;83;1574286396683;1574286404891;8208;22775718366;67507851071;2689950905;10736168;2813895896;305524;1406831777;1019;94;1616768;92;8208;771381
3;84;1574286404891;1574286412648;7757;22774423054;67507851302;2693389657;8671647;2813896127;306283;1406877433;900;18;1656800;-4;7757;1110418
3;85;1574286412648;1574286420627;7979;22779360774;67507851061;2670591429;10154922;2813895886;307113;1406828211;948;17;1766728;12;7979;1145219
4;39;1574286903569;1574286911240;7671;22744654384;67507851151;2676291879;7384684;2813895976;311286;1407007177;830;10;1647448;2;7671;1101799
4;40;1574286911240;1574286919307;8067;22769641992;67507851120;2690498544;9334480;2813895945;306512;1407112180;885;8;1756216;11;8066;1161189
4;41;1574286919307;1574286926861;7554;22713579598;67507851008;2671988728;4729060;2813895833;312712;1406964912;965;63;1622976;-11;7554;1096437
4;42;1574286926861;1574286938030;11169;22780414894;67507861515;2671510904;19764611;2813897843;312375;1407079649;1139;15;2258152;17;11132;1064695
4;43;1574286938030;1574286945957;7927;22787289888;67507851133;2674610048;10144663;2813895958;310268;1406839185;881;9;1737216;-17;7927;1140917
4;44;1574286945957;1574286954066;8109;22787069136;67507851055;2657571631;9980193;2813895880;313030;1407068271;927;9;1825352;1;8109;1165760
4;45;1574286954066;1574286961537;7471;22757786646;67507851000;2656876353;7807932;2813895825;313486;1406998800;965;57;1585104;-4;7472;1091581
4;46;1574286961537;1574286969343;7806;22778167224;67507851220;2679903185;9678416;2813896045;308633;1407153780;762;12;1512736;6;7806;1120823
4;47;1574286969343;1574286976105;6762;22678369946;67507850680;2636490725;2657372;2813895505;316419;1406767371;749;5;1463912;-125;6748;811024
4;48;1574286976105;1574286985075;8970;22824332716;67507861274;2658304057;16776079;2813897891;314537;1407123121;1031;3;2019112;85;8971;436758
4;49;1574286985076;1574286992728;7652;22765927752;67507851131;2712325844;8605511;2813895956;303560;1407026429;916;89;1484896;35;7653;676918
4;50;1574286992729;1574287000100;7371;22769433942;67507851199;2698708018;8572609;2813896024;309761;1407097640;774;5;1515464;21;7371;1050952
4;51;1574287000100;1574287007539;7439;22767637558;67507851304;2704453295;7812885;2813896129;304068;1407033601;812;10;1582768;-12;7440;1068079
4;52;1574287007539;1574287015533;7994;22787954626;67507851083;2619971332;10550301;2813895908;310610;1407060941;868;5;1695280;-4;7993;1147293
4;53;1574287015533;1574287022442;6909;22709274204;67507850704;2721134802;3764215;2813895529;299687;1406983243;896;63;1446744;-105;6620;717353
4;54;1574287022442;1574287030213;7771;22784564652;67507851078;2714235331;9380290;2813895903;318254;1407156477;775;9;1525872;114;7770;882177
4;55;1574287030213;1574287037689;7476;22763796298;67507851111;2673015643;8414077;2813895936;305931;1406933673;853;8;1658784;11;7476;1073142
4;56;1574287037689;1574287049355;11666;22820794114;67507861561;2691797965;21295180;2813897898;309249;1407135972;1344;19;2603208;-26;11666;1675767
4;57;1574287049355;1574287057258;7903;22769870336;67507851266;2702949336;8778456;2813896091;310565;1407008256;936;58;1555504;8;7903;1138071
4;58;1574287057258;1574287064580;7322;22734132748;67507850842;2701211907;5090127;2813895667;310412;1407081894;780;11;1511008;21;7323;1048587
4;59;1574287064580;1574287071916;7336;22733243608;67507850759;2723364686;7847461;2813895584;316901;1407030327;837;9;1616384;-88;7336;618603
4;60;1574287071917;1574287079819;7902;22784844826;67507850890;2696862042;10014064;2813895715;303312;1406904907;863;12;1673488;64;7902;953028
4;61;1574287079819;1574287087858;8039;22771596640;67507851169;2679252360;9684704;2813895994;305385;1407006579;985;65;1576232;24;8039;1163761
4;62;1574287087858;1574287095495;7637;22768571082;67507851138;2673681778;8734062;2813895963;310828;1406917581;841;10;1618664;-9;7637;1094909
4;63;1574287095495;1574287103080;7585;22762626254;67507851073;2678604130;8160004;2813895898;305173;1406981975;878;8;1682144;-14;7586;1085789
4;64;1574287103080;1574287110801;7721;22724334542;67507851050;2680863172;6152104;2813895875;305388;1407105393;839;13;1620240;-6;7721;1106240
4;65;1574287110801;1574287118008;7207;22713368044;67507850944;2675937095;6238314;2813895769;302714;1406852779;912;72;1470600;-46;7206;599030
4;66;1574287118008;1574287125545;7537;22770605154;67507851300;2699040034;7663791;2813896125;303092;1407070806;802;13;1537944;56;7537;972866
4;67;1574287125545;1574287133516;7971;22784054966;67507851099;2690093345;10554768;2813895924;309034;1407058535;930;19;1773896;8;7971;1139452
4;68;1574287133516;1574287141197;7681;22769963630;67507851145;2710218559;8790732;2813895970;307653;1407062407;864;16;1647896;0;7681;1100082
4;69;1574287141197;1574287148763;7566;22760564150;67507850901;2673318209;8717400;2813895726;308085;1407009540;940;61;1508416;-10;7567;1117804
4;70;1574287148763;1574287156657;7894;22740134224;67507851064;2653659523;6503782;2813895889;304741;1407146458;850;9;1608536;14;7894;1130225
4;71;1574287156657;1574287164042;7385;22723080256;67507851020;2640073413;7569688;2813895845;311145;1406991373;1027;61;1354240;5;7385;933575
4;72;1574287164042;1574287172045;8003;22767889992;67507851150;2678200591;9286250;2813895975;305247;1407102134;933;7;1278616;-28;8003;1151756
4;73;1574287172045;1574287179568;7523;22758537378;67507851183;2687500550;7140362;2813896008;306834;1407064176;872;8;1648032;24;7522;1082054
4;74;1574287179568;1574287186872;7304;22753480376;67507851115;2688797967;6933819;2813895940;306441;1407056426;853;7;1610320;-21;7305;1049728
4;75;1574287186872;1574287194412;7540;22750739226;67507851178;2700663945;7295919;2813896003;307601;1407081700;999;53;1628960;19;7540;1095335
4;76;1574287194412;1574287202082;7670;22739308740;67507851038;2669598518;7391049;2813895863;310707;1407053938;864;10;1637552;0;7670;1100351
4;77;1574287202082;1574287208737;6655;22656092244;67507850628;2625700644;2207250;2813895453;313467;1407032516;766;5;1287032;-40;6655;908452
4;78;1574287208737;1574287216185;7448;22786813636;67507851168;2708285994;9181074;2813895993;306172;1407136217;861;14;1623904;41;7448;961684
4;79;1574287216185;1574287223195;7010;22753585350;67507851160;2684766124;6207167;2813895985;306529;1407019611;839;10;1578104;-7;7010;1007982
4;80;1574287223195;1574287230622;7427;22771796222;67507851115;2695663971;8407509;2813895940;305446;1407088471;924;86;1472776;-2;7427;1078727
4;81;1574287230623;1574287238167;7544;22787248278;67507851227;2664191169;8472280;2813896052;311220;1407097225;834;13;1551848;-2;7545;1081859
4;82;1574287238167;1574287245634;7467;22779768990;67507851196;2682838518;8865499;2813896021;310213;1407051176;865;10;1627656;-1;7467;1072990
4;83;1574287245634;1574287252541;6907;22697882846;67507850791;2710802354;2410232;2813895616;317126;1407035051;825;14;1543280;-90;6906;937188
4;84;1574287252541;1574287260254;7713;22754313306;67507850946;2667498388;7777640;2813895771;310878;1407004530;1040;71;1557792;84;7714;761141
4;85;1574287260254;1574287268113;7859;22773577568;67507851220;2663512866;9844258;2813896045;304903;1407081937;862;16;1609352;2;7859;1127441
4;86;1574287268114;1574287275084;6970;22758518106;67507850801;2648114682;6208434;2813895626;301857;1407115614;802;14;1507616;-2;6971;1000739
4;87;1574287275084;1574287282789;7705;22762123868;67507850847;2652001638;8178643;2813895672;302036;1407035558;934;18;1734256;-6;7705;1105244
4;88;1574287282789;1574287290792;8003;22783543674;67507851148;2678050314;10328799;2813895973;312661;1407061864;1069;77;1695392;2;8003;1216960
