0;38;1573065476452;1573065484057;7605;22829291314;67507877321;2660218615;9970558;2813922146;309556;1407097956;1698;420;855032;2;5305;35104
0;39;1573065484057;1573065491145;7088;22803370182;67507864103;2680318441;7983895;2813908928;306441;1406888519;1555;1185;896048;-1;5447;360276
0;40;1573065491145;1573065498674;7529;22818767780;67507888818;2722735573;9176857;2813933643;305289;1407293472;897;1337;837608;-2;2983;8695
0;41;1573065498674;1573065506126;7452;22824799478;67507873328;2698515381;9207380;2813918153;305826;1407011500;1111;980;844696;11;3614;18147
0;42;1573065506126;1573065513349;7223;22806368146;67507859642;2689703489;7955433;2813904467;311526;1406934700;1056;1010;830704;-11;3113;13195
0;43;1573065513349;1573065525255;11906;22890968138;67507869421;2644878796;26166849;2813905769;309353;1406927424;2110;2236;1505976;0;7136;437527
0;44;1573065525255;1573065533162;7907;22831229756;67507897423;2645244495;10145814;2813942248;307404;1407306528;983;1318;907856;0;2955;9047
0;45;1573065533163;1573065541299;8136;22860879436;67507926030;2653472884;10658541;2813970855;304236;1407630603;1725;735;852376;3;4559;28277
0;46;1573065541299;1573065549062;7763;22825246238;67507900944;2656267404;9151937;2813945769;306998;1407396343;2217;519;810456;135;5763;170303
0;47;1573065549062;1573065556898;7836;22839068642;67507877578;2745583753;11032498;2813922403;306967;1407037135;1130;1338;989000;-138;4454;133610
0;48;1573065556898;1573065564722;7824;22824375056;67507885223;2664021245;8963740;2813930048;311593;1407250289;965;1291;866416;0;2928;9610
0;49;1573065564722;1573065578804;14082;22896525774;67507868368;2698522613;29240795;2813904696;309919;1406811172;2127;2010;1651088;5;6924;36305
0;50;1573065578804;1573065586196;7392;22817587370;67507884289;2637698290;8679780;2813929114;308009;1407064739;1716;1429;873968;-5;4784;389910
0;51;1573065586197;1573065593783;7586;22830078838;67507892767;2718065803;8826219;2813937592;309793;1407240191;958;1318;843192;4;2802;8987
0;52;1573065593783;1573065601541;7758;22822645832;67507869065;2699757921;10527954;2813913890;304078;1406713212;1441;858;930248;0;4679;40847
0;53;1573065601541;1573065608813;7272;22812277934;67507863611;2699486273;8222544;2813908436;308101;1406870949;1646;409;810664;4;4847;35918
0;54;1573065608813;1573065616847;8034;22867343002;67507914108;2681776697;11353150;2813958933;306881;1407527475;1814;1313;968216;-8;5970;313015
0;55;1573065616847;1573065624646;7799;22864851658;67507901759;2698805897;10895114;2813946584;304857;1407295609;1004;1304;895968;0;3343;11507
0;56;1573065624646;1573065631967;7321;22808575666;67507870229;2659769293;8075725;2813915054;304408;1407202777;1301;847;844800;16;3949;24328
0;57;1573065631967;1573065639523;7556;22824573908;67507887321;2699345497;8714232;2813932146;307955;1407158356;1034;1225;861976;-16;2882;9592
0;58;1573065639524;1573065653423;13899;22931187050;67507919882;2675234172;30630950;2813956230;313455;1407548777;2392;2633;1744800;2;7992;326172
0;59;1573065653423;1573065660621;7198;22829550172;67507859749;2660786276;8329440;2813904574;304341;1406880741;849;1148;891816;1;3083;9783
0;60;1573065660621;1573065668018;7397;22814622402;67507873352;2686804725;8417946;2813918177;308348;1407060524;1553;601;875416;3;4676;32557
0;61;1573065668019;1573065675528;7509;22826899688;67507882634;2704483213;9038724;2813927459;316136;1407113357;2470;671;803584;67;7190;447212
0;62;1573065675528;1573065683012;7484;22814482680;67507869417;2698364626;9268501;2813914242;302387;1407032230;1032;1228;972752;-73;4182;79161
0;63;1573065683012;1573065690354;7342;22790586860;67507859327;2717715714;8146257;2813904152;311911;1406827976;857;1299;759264;1;2759;8732
0;64;1573065690354;1573065698110;7756;22798529990;67507879317;2688292338;8080346;2813924142;303951;1407175304;1469;839;878280;-1;4496;28851
0;65;1573065698110;1573065705787;7677;22812076308;67507855785;2702442588;10257396;2813900610;313811;1406763735;1599;1285;817088;155;3933;286619
0;66;1573065705788;1573065713699;7911;22853502640;67507907805;2643760516;11317685;2813952630;312400;1407455269;1204;1336;1040520;-155;4845;196533
0;67;1573065713700;1573065721081;7381;22818571848;67507872913;2657476181;9531130;2813917738;305567;1407060214;944;1195;816984;0;2716;8873
0;68;1573065721081;1573065729017;7936;22843719472;67507909895;2665341108;10055957;2813954720;312115;1407463882;1731;845;882752;236;5083;171308
0;69;1573065729017;1573065737225;8208;22867619964;67507925064;2650878601;11233671;2813969889;308022;1407582292;1855;1684;927616;-160;8209;1174171
0;70;1573065737225;1573065744944;7719;22830741240;67507884995;2669830123;9178620;2813929820;310140;1407240436;1032;1330;947944;-76;3831;73224
0;71;1573065744945;1573065752329;7384;22801980262;67507857605;2653884906;8997526;2813902430;302161;1406826007;998;1081;814096;1;2903;12077
0;72;1573065752329;1573065759589;7260;22805129190;67507873046;2709172861;7448859;2813917871;310830;1407106094;1952;353;781744;26;5603;55608
0;73;1573065759589;1573065767347;7758;22810563310;67507860514;2724553252;9309705;2813905339;305177;1406850741;1582;1544;1003384;-22;5181;291302
0;74;1573065767347;1573065775011;7664;22847024036;67507889791;2667106823;9784665;2813934616;311262;1407252207;1047;1241;909112;-5;2853;9886
0;75;1573065775011;1573065782328;7317;22813837068;67507869379;2665790180;8248899;2813914204;300436;1407040723;1398;771;839944;14;4249;32417
0;76;1573065782328;1573065789913;7585;22834554030;67507891932;2649549838;9886935;2813936757;307809;1407240985;1113;1233;837808;-14;2864;10530
0;77;1573065789913;1573065797493;7580;22847439698;67507889755;2716693441;9651139;2813934580;311731;1407242061;1890;1184;944272;0;5553;378539
0;78;1573065797493;1573065805099;7606;22841735624;67507878097;2679764270;11238908;2813922922;306901;1407127425;1089;1239;894536;0;3138;11697
0;79;1573065805099;1573065812706;7607;22815650972;67507880752;2677771467;8676404;2813925577;301955;1407141876;1457;859;883224;0;4226;26803
0;80;1573065812706;1573065820228;7522;22813236132;67507881187;2653220238;8615884;2813926012;300146;1407176302;1709;574;826040;5;4640;32364
0;81;1573065820228;1573065827605;7377;22812204058;67507870306;2706603141;8395342;2813915131;301231;1406969373;1772;1128;900528;-5;5919;193004
0;82;1573065827605;1573065835287;7682;22838552386;67507891845;2679671683;9995598;2813936670;305797;1407240995;1103;1280;907056;0;3083;10560
0;83;1573065835288;1573065842653;7365;22820615264;67507880084;2700395582;8194490;2813924909;311099;1407193367;1245;987;833744;12;3759;24836
0;84;1573065842653;1573065850682;8029;22875587038;67507931648;2753210902;10306653;2813976473;307919;1407737338;1356;1209;869472;-11;3399;14942
0;85;1573065850682;1573065858504;7822;22831364514;67507878691;2681021690;10566256;2813923516;303052;1407139933;2060;1179;969384;-1;5826;377086
0;86;1573065858504;1573065866696;8192;22872889104;67507916077;2681304310;12425548;2813960902;304156;1407531137;1276;1369;957800;0;3218;12714
0;87;1573065866696;1573065873887;7191;22784690942;67507857804;2664202314;7305425;2813902629;303033;1406874406;1430;787;817512;0;4279;29250
1;39;1573066330843;1573066338098;7255;22792162930;67507861666;2661887776;8241059;2813906491;310842;1407116900;1207;850;808616;14;4069;22309
1;40;1573066338098;1573066345373;7275;22799123334;67507866880;2651472396;8514566;2813911705;311089;1407134386;1469;562;801632;-10;4300;23822
1;41;1573066345373;1573066352778;7405;22805161894;67507871209;2742796785;8299354;2813916034;311504;1407194192;1666;999;814488;-3;5450;178759
1;42;1573066352778;1573066360121;7343;22813493384;67507862826;2718933718;7732400;2813907651;314559;1407255445;833;1167;835024;3;2874;8226
1;43;1573066360121;1573066367958;7837;22859386732;67507906843;2715604860;9723769;2813951668;316062;1407545684;1190;1092;882712;6;3753;21463
1;44;1573066367958;1573066377084;9126;22852983902;67507876928;2693047673;15906666;2813913267;311549;1407225002;1364;1259;1071480;-10;4210;17911
1;45;1573066377084;1573066384388;7304;22803493990;67507862722;2722325453;7837293;2813907547;306520;1407090413;1509;1362;856760;1;4432;278498
1;46;1573066384388;1573066391934;7546;22807850046;67507872949;2691692940;8267382;2813917774;307714;1407238653;896;1192;888040;-1;2726;7645
1;47;1573066391934;1573066399394;7460;22827563550;67507867938;2711885784;9281817;2813912763;304451;1407159989;1019;1085;852272;11;3529;20819
1;48;1573066399394;1573066406874;7480;22832603178;67507882003;2649115619;10214740;2813926828;314359;1407315525;1516;521;897232;-7;4762;29199
1;49;1573066406874;1573066415441;8567;22833255360;67507869747;2677162869;14438301;2813906084;309520;1407025361;2109;1052;999272;-4;6842;301075
1;50;1573066415441;1573066422845;7404;22810691644;67507862292;2677067953;8320013;2813907117;306992;1407207350;852;1172;867912;0;2954;8845
1;51;1573066422845;1573066430242;7397;22804617898;67507881974;2657683048;7564306;2813926799;316397;1407224628;1100;1126;806008;14;3352;14287
1;52;1573066430242;1573066440123;9881;22862808680;67507873118;2718494713;21088262;2813909438;314912;1407186043;1500;1309;1155168;-14;4527;22334
1;53;1573066440123;1573066447646;7523;22832304608;67507864622;2691541696;9967287;2813909447;315707;1407073376;1822;1194;974704;0;5799;429819
1;54;1573066447646;1573066455925;8279;22850595050;67507911277;2655099660;11358304;2813956102;319160;1407674581;1177;1360;963360;0;3227;10323
1;55;1573066455925;1573066463384;7459;22823794998;67507868727;2681361563;9446845;2813913552;314765;1407135214;1412;762;856792;1;4419;25974
1;56;1573066463385;1573066470889;7504;22832848750;67507856600;2667542250;10203743;2813901425;310044;1407046832;1473;550;863912;14;4950;36799
1;57;1573066470890;1573066478219;7329;22802525864;67507869897;2649961546;8481265;2813914722;310281;1407116867;1863;1060;907384;-11;5927;390073
1;58;1573066478219;1573066486372;8153;22839267202;67507877198;2636610553;13116587;2813913546;306853;1407254394;1066;1284;936736;1;3138;9951
1;59;1573066486372;1573066493674;7302;22832681288;67507883667;2699718465;8583226;2813928492;314560;1407254014;1177;906;793256;-1;3389;16337
1;60;1573066493674;1573066500909;7235;22801898794;67507869019;2667910574;7952036;2813913844;310496;1407250207;1062;1026;862928;1;3485;18054
1;61;1573066500910;1573066508427;7517;22821069908;67507886223;2699448568;8435039;2813931048;310652;1407407036;1551;1322;903904;-5;4923;235464
1;62;1573066508427;1573066516045;7618;22848204592;67507885879;2663214025;11230705;2813930704;311818;1407392765;1080;1271;895704;3;3164;10797
1;63;1573066516045;1573066523519;7474;22812161134;67507874845;2692407792;8405937;2813919670;315422;1407276292;1144;961;845776;13;3801;24459
1;64;1573066523519;1573066531031;7512;22828308442;67507880216;2703657364;9106705;2813925041;313147;1407284608;1588;632;876368;-11;4628;33372
1;65;1573066531031;1573066538293;7262;22826308826;67507870279;2684169838;8700768;2813915104;308876;1407161118;2027;848;848392;39;6455;321963
1;66;1573066538293;1573066545657;7364;22807215238;67507871182;2693690097;8157153;2813916007;315850;1407019647;1043;1281;873192;-44;3280;25504
1;67;1573066545657;1573066553131;7474;22804905810;67507870772;2725050373;8161306;2813915597;312344;1407130796;1020;1174;829584;9;3062;11357
1;68;1573066553131;1573066560270;7139;22796396638;67507857939;2701982447;7748075;2813902764;311001;1406976774;1273;691;807960;-4;3705;21168
1;69;1573066560270;1573066567512;7242;22802065088;67507868596;2716405444;8271580;2813913421;310343;1407170529;1549;1561;885440;27;7243;404645
1;70;1573066567512;1573066574945;7433;22813382132;67507864596;2705354113;9069043;2813909421;309411;1407151115;1032;1205;921192;-32;3308;22406
1;71;1573066574946;1573066582666;7720;22866832148;67507906760;2710610410;12141405;2813951585;314775;1407669788;1456;927;861280;5;3875;20229
1;72;1573066582666;1573066590343;7677;22844123454;67507901682;2707293628;9362698;2813946507;314328;1407535229;1908;287;863896;0;6236;54925
1;73;1573066590343;1573066598130;7787;22852706794;67507902213;2719204425;11023569;2813947038;316500;1407579958;1614;1604;921632;-4;4758;177653
1;74;1573066598131;1573066605454;7323;22805508060;67507864342;2655228228;8016489;2813909167;318227;1407219282;950;1113;835024;-1;2829;9350
1;75;1573066605454;1573066613136;7682;22845422708;67507880877;2658926635;11433197;2813925702;308072;1407266563;1416;835;876384;5;4338;27449
1;76;1573066613136;1573066620776;7640;22843078386;67507887278;2742791014;9980450;2813932103;314030;1407456305;1101;1141;858560;-5;2977;11248
1;77;1573066620776;1573066628199;7423;22826829024;67507871207;2683078780;8473931;2813916032;310152;1407218787;1797;1016;843400;6;5156;282736
1;78;1573066628199;1573066635489;7290;22796563662;67507866722;2686770137;7167594;2813911547;305740;1407223861;975;1161;770216;-2;2578;8713
1;79;1573066635489;1573066642644;7155;22798720228;67507861107;2636830982;7742866;2813905932;316345;1407133609;1262;922;799336;2;4113;29930
1;80;1573066642644;1573066649672;7028;22818627620;67507861258;2695743594;6839277;2813906083;320255;1407055429;1213;771;786256;-2;3657;20802
1;81;1573066649672;1573066657980;8308;22908808608;67507946847;2719425029;12064102;2813991672;314922;1408078155;2172;1072;932280;0;6071;192730
1;82;1573066657980;1573066665349;7369;22817886232;67507871859;2726467201;9309764;2813916684;310361;1407308742;1027;1241;760456;-4;2583;8943
1;83;1573066665349;1573066672851;7502;22815342036;67507875580;2648161947;8973987;2813920405;309255;1407215058;1242;966;800272;20;3836;37315
1;84;1573066672852;1573066680304;7452;22806534732;67507866650;2720468876;8644579;2813911475;308368;1407173237;1195;994;890400;-19;3743;35673
1;85;1573066680304;1573066688174;7870;22829770924;67507871449;2630453835;9438393;2813916274;312600;1407248552;1943;1039;914304;43;5080;168397
1;86;1573066688174;1573066695930;7756;22871046292;67507909822;2696494897;12202714;2813954647;312745;1407633371;1189;1326;920896;-44;3780;28715
1;87;1573066695930;1573066704419;8489;22901153974;67507956502;2763401974;12892527;2814001327;314116;1408236322;1677;1027;918040;5;4735;45354
1;88;1573066704419;1573066711685;7266;22798516704;67507868926;2694753257;8303065;2813913751;310411;1407216530;1215;875;838336;-5;3176;16489
2;34;1573067143619;1573067151716;8097;22834800186;67507895747;2661826053;10528244;2813940572;315401;1407386053;1212;1316;894688;185;3399;48276
2;35;1573067151716;1573067159109;7393;22805954528;67507870261;2670967843;8542400;2813915086;312820;1407018914;1232;1290;851072;-186;4002;194821
2;36;1573067159109;1573067166373;7264;22801801412;67507864904;2701074706;7708632;2813909729;311403;1407065558;822;1164;810064;0;2543;6646
2;37;1573067166373;1573067173602;7229;22807952100;67507862445;2672931048;8480623;2813907270;306212;1406908694;1281;729;851192;4;4270;24484
2;38;1573067173602;1573067181316;7714;22857659260;67507892136;2693385737;10835549;2813936961;311707;1407320049;1518;616;910808;-4;4629;26151
2;39;1573067181316;1573067189051;7735;22812036450;67507879451;2647610937;9279907;2813924276;306293;1407177293;1538;1219;895016;0;4457;219032
2;40;1573067189051;1573067197306;8255;22816107806;67507868638;2675088838;12170260;2813904923;307810;1406779365;940;1335;930512;0;3073;8745
2;41;1573067197306;1573067204496;7190;22787071764;67507868639;2639642444;6850697;2813913464;319847;1407030478;1314;777;771288;4;4015;22361
2;42;1573067204496;1573067211995;7499;22827254030;67507874635;2645384125;9448134;2813919460;312791;1406939563;882;1180;878032;-3;2677;7619
2;43;1573067211995;1573067219257;7262;22800108396;67507867869;2685395095;7086158;2813912694;310670;1406972668;1649;1120;873688;0;5220;338852
2;44;1573067219257;1573067226936;7679;22840093124;67507888391;2697632094;10713434;2813933216;316688;1407337929;932;1251;884944;-1;3036;8303
2;45;1573067226936;1573067235107;8171;22865601660;67507928299;2747351239;9836131;2813973124;310455;1407625201;1490;903;926576;4;4185;21154
2;46;1573067235107;1573067243308;8201;22859073854;67507934855;2721943935;9291368;2813979680;310805;1407870549;1484;734;917728;-4;4178;22195
2;47;1573067243309;1573067259311;16002;22926108878;67507874310;2662979622;32732924;2813910870;314896;1407002251;2808;2469;1841712;0;8095;190050
2;48;1573067259311;1573067267051;7740;22839127188;67507904759;2720093266;8894151;2813949584;315048;1407469031;1471;839;861272;0;4179;22960
2;49;1573067267051;1573067278915;11864;22851407832;67507868458;2690802017;23023241;2813904715;304965;1406856423;2433;1822;1345608;86;6661;362880
2;50;1573067278915;1573067286894;7979;22863477360;67507902111;2695341969;11241625;2813946936;314617;1407484421;1143;1305;991632;-86;4139;55318
2;51;1573067286894;1573067294436;7542;22801522552;67507860161;2723133897;9354406;2813904986;309803;1406850211;961;1175;840864;10;3021;12741
2;52;1573067294436;1573067302455;8019;22835731958;67507921190;2670663561;8837642;2813966015;311588;1407730473;1413;971;885216;-10;4158;21005
2;53;1573067302455;1573067309858;7403;22830082780;67507882694;2721333001;8658059;2813927519;304394;1407080268;2365;493;760744;128;6146;292800
2;54;1573067309858;1573067317734;7876;22836662854;67507906621;2711949649;8689121;2813951446;306646;1407501631;1180;1414;996888;-127;4291;128464
2;55;1573067317735;1573067325588;7853;22829086330;67507917297;2655117617;7830135;2813962122;311137;1407619159;1176;1099;862136;16;3451;17521
2;56;1573067325588;1573067332878;7290;22797108388;67507870045;2691757432;7169972;2813914870;314184;1407061042;1174;941;839920;-17;4316;27366
2;57;1573067332878;1573067340675;7797;22854133506;67507881611;2701185806;11604717;2813926436;308918;1407128333;1805;1023;914616;227;5195;182874
2;58;1573067340675;1573067348278;7603;22824337388;67507881445;2690724052;8456845;2813926270;315995;1407314082;1203;1195;966528;-227;4200;148940
2;59;1573067348278;1573067356119;7841;22833030228;67507899343;2746122041;7820162;2813944168;313087;1407351340;1024;1303;866928;0;2925;10373
2;60;1573067356120;1573067363757;7637;22805063782;67507876790;2671186002;8829706;2813921615;303504;1407203089;1439;798;853488;0;4399;34372
2;61;1573067363757;1573067379171;15414;22908594572;67507882584;2685094181;29945577;2813918869;312981;1407035604;3349;1974;1855896;0;10553;490401
2;62;1573067379171;1573067387024;7853;22877208368;67507921989;2651845003;11837640;2813966814;313136;1407646296;1065;1241;883736;0;2991;9798
2;63;1573067387024;1573067394797;7773;22833130238;67507884596;2682397835;10483783;2813929421;305133;1407221943;1511;867;896120;0;4524;33302
2;64;1573067394798;1573067402096;7298;22814078990;67507877291;2681531355;7595394;2813922116;306267;1407121693;1419;757;831440;2;3923;23486
2;65;1573067402097;1573067409803;7706;22836949744;67507890234;2709625506;9604990;2813935059;310490;1407288408;1671;1392;971304;5;5080;314139
2;66;1573067409803;1573067417549;7746;22825831552;67507886510;2699518919;9680586;2813931335;307059;1407291803;1220;1364;876120;82;3620;87163
2;67;1573067417549;1573067425157;7608;22811471430;67507864184;2726690887;9677775;2813909009;308535;1406961143;1479;1183;917992;-32;7608;631994
2;68;1573067425157;1573067433105;7948;22844817976;67507911073;2756700782;9364054;2813955898;307263;1407581133;1321;1144;925424;-56;4181;99705
2;69;1573067433105;1573067441095;7990;22838617502;67507901019;2665947851;9606013;2813945844;308457;1407341922;1925;482;909848;10;5680;53706
2;70;1573067441095;1573067448698;7603;22832425350;67507893515;2724912296;9383853;2813938340;317191;1407344635;1497;722;881912;-6;4398;26686
2;71;1573067448698;1573067456029;7331;22834362916;67507869881;2676005697;9560810;2813914706;313335;1407099908;1360;1367;878048;-5;4192;179472
2;72;1573067456030;1573067463453;7423;22817253614;67507877562;2682754136;7581477;2813922387;307880;1407186191;1098;1244;842944;0;3192;18036
2;73;1573067463453;1573067470704;7251;22796744118;67507864176;2691946055;8193242;2813909001;315141;1407007264;1427;732;825704;2;4163;28658
2;74;1573067470704;1573067478212;7508;22810511626;67507865876;2731855782;9792252;2813910701;306219;1407024424;1010;1199;861248;2;2787;10301
2;75;1573067478212;1573067485599;7387;22808725024;67507870189;2677714103;8905936;2813915014;308010;1407068469;1575;1041;875640;0;4759;179182
2;76;1573067485599;1573067493232;7633;22821240728;67507883597;2697145433;8462162;2813928422;315663;1407266927;1017;1132;903424;4;2886;9939
2;77;1573067493232;1573067500860;7628;22828458676;67507889219;2633948649;9338205;2813934044;309291;1407231827;1494;781;870816;-8;4688;36341
2;78;1573067500860;1573067508189;7329;22815557678;67507864377;2658058276;9244522;2813909202;307447;1406988510;1531;664;858080;5;4751;36333
2;79;1573067508189;1573067516286;8097;22858555116;67507915288;2721661972;11057010;2813960113;308962;1407402419;2362;1285;968480;-5;6690;459723
2;80;1573067516286;1573067523438;7152;22784461284;67507858903;2684196269;7209837;2813903728;302567;1406884715;930;1174;781304;0;2587;8981
2;81;1573067523438;1573067531012;7574;22832687128;67507884926;2697957027;8812291;2813929751;303917;1407247588;1508;774;864952;0;4605;48361
2;82;1573067531012;1573067538529;7517;22803355436;67507865793;2725923353;8655647;2813910618;309663;1407021609;1007;1245;856968;1;2799;10607
2;83;1573067538529;1573067545956;7427;22824302640;67507867340;2693517395;9175767;2813912165;308744;1407021728;1883;1141;903184;32;5057;331021
3;36;1573067979000;1573067986209;7209;22816588292;67507861502;2698866149;9378078;2813906324;311849;1407143574;852;1047;831968;3;2613;7267
3;37;1573067986210;1573067993970;7760;22829817498;67507900881;2660887785;10921459;2813945706;313018;1407546722;1664;1315;879336;2;4704;311395
3;38;1573067993971;1573068006094;12123;22920932448;67507906814;2684107271;26885257;2813943498;320882;1407588591;1589;1821;1425440;5;5053;17580
3;39;1573068006094;1573068013251;7157;22790527730;67507867964;2671061480;6788211;2813912789;320433;1407191616;1295;633;818968;10;4074;26957
3;40;1573068013251;1573068020409;7158;22790362896;67507859158;2700380527;7271666;2813903983;314733;1407055435;1938;725;833208;-1;6487;248269
3;41;1573068020409;1573068027551;7142;22796756236;67507862394;2712576110;7261716;2813907219;309309;1407090174;801;1156;812456;-15;2963;10980
3;42;1573068027551;1573068034840;7289;22791606378;67507862716;2664228276;7941079;2813907541;317307;1407207025;826;1193;833520;-4;2610;7421
3;43;1573068034840;1573068042272;7432;22820732648;67507890482;2680097747;8346888;2813935307;316850;1407339949;1402;845;847416;1;4342;55045
3;44;1573068042272;1573068057092;14820;22894772606;67507869493;2638147152;29591549;2813905802;314936;1407156587;2550;2253;1720328;-1;7666;304493
3;45;1573068057092;1573068064423;7331;22805459734;67507871985;2683829532;8061229;2813916810;313149;1407188085;935;1226;795112;0;2621;8054
3;46;1573068064423;1573068072229;7806;22827688088;67507895261;2730645936;9015147;2813940086;310781;1407497117;1409;843;877824;0;4435;24978
3;47;1573068072229;1573068079907;7678;22838454566;67507889277;2682354888;9871657;2813934102;308631;1407399504;1644;550;865240;14;5605;61339
3;48;1573068079907;1573068092002;12095;22863067538;67507880137;2717745833;24172949;2813916485;318466;1407208773;2092;2103;1301936;-14;6050;237208
3;49;1573068092002;1573068099558;7556;22838631080;67507880913;2712596970;10178479;2813925738;308820;1407256677;1231;896;855376;2;4089;27511
3;50;1573068099558;1573068109211;9653;22914076434;67507915985;2683667947;21783047;2813952333;318367;1407688962;1495;1299;1091856;2;3998;14808
3;51;1573068109212;1573068116442;7230;22800876794;67507856329;2650920429;8252599;2813901154;308190;1406927286;1740;1037;880312;-3;5400;295872
3;52;1573068116442;1573068124206;7764;22838008682;67507895938;2631632291;11225681;2813940763;317120;1407541039;1029;1202;861384;-1;2774;8703
3;53;1573068124206;1573068131830;7624;22841460560;67507892095;2708704348;9842600;2813936920;318935;1407390493;1299;834;864008;5;4062;23564
3;54;1573068131830;1573068139047;7217;22805606610;67507861938;2693121525;8138372;2813906763;315609;1407130156;1088;954;844984;0;3177;12366
3;55;1573068139047;1573068146488;7441;22820111418;67507887711;2741058250;7998782;2813932536;317903;1407326737;2229;892;876000;20;6906;482537
3;56;1573068146488;1573068155033;8545;22868955280;67507921696;2649140260;12621325;2813966521;313882;1407801633;1170;1327;985520;-24;3404;16845
3;57;1573068155033;1573068162705;7672;22824010640;67507890556;2723437640;8843682;2813935381;315518;1407356359;1377;892;850328;-1;4049;24248
3;58;1573068162705;1573068170465;7760;22834599728;67507905380;2694246483;8833073;2813950205;316261;1407404440;1174;1090;906264;0;3046;11317
3;59;1573068170466;1573068181017;10551;22882773304;67507891678;2718305534;21389679;2813928375;314892;1407249173;2468;1590;1297048;4;7423;372902
3;60;1573068181017;1573068188531;7514;22805270664;67507866226;2676129225;8371002;2813911051;305585;1406979161;1078;1294;878824;2;3147;12236
3;61;1573068188531;1573068196219;7688;22836989310;67507887444;2652018164;10956570;2813932269;311026;1407345831;1501;702;915224;-5;4695;32154
3;62;1573068196219;1573068204059;7840;22812405976;67507901958;2658689441;7671251;2813946783;316714;1407624813;1336;985;873936;-1;3883;21349
3;63;1573068204059;1573068211410;7351;22795257108;67507857073;2707528229;8288630;2813901898;306030;1407048480;1894;988;914456;0;5887;352063
3;64;1573068211410;1573068218665;7255;22789474340;67507861978;2722347327;7446252;2813906803;311989;1407089959;919;1078;832200;0;2802;8653
3;65;1573068218665;1573068226167;7502;22823964358;67507876565;2670034340;9271272;2813921390;316729;1407232311;1197;909;845600;5;3535;19439
3;66;1573068226167;1573068233871;7704;22806729350;67507875665;2701545108;8503348;2813920490;311639;1407418584;1715;1176;893088;50;5324;372772
3;67;1573068233871;1573068241902;8031;22831346264;67507914361;2672383658;9119328;2813959186;316428;1407610691;1241;1479;985600;-49;6200;136784
3;68;1573068241902;1573068249555;7653;22810220356;67507869600;2685934660;9267838;2813914425;317520;1407249682;1006;1308;904016;0;3032;11108
3;69;1573068249555;1573068256984;7429;22835841020;67507884327;2667891792;11051660;2813929152;316520;1407350596;1769;340;874640;-5;5319;47963
3;70;1573068256984;1573068264538;7554;22823249396;67507884172;2706868688;8202780;2813928997;315911;1407429972;1774;1066;840760;67;5153;152654
3;71;1573068264538;1573068271790;7252;22795973676;67507859982;2659573419;7579657;2813904807;307607;1407075403;1075;1073;863328;-66;3621;39691
3;72;1573068271790;1573068279092;7302;22813383592;67507877192;2659008698;8552424;2813922017;312214;1407258045;962;1160;813128;3;2824;9287
3;73;1573068279092;1573068287008;7916;22846622244;67507919833;2657046021;9436974;2813964658;325015;1407754578;1538;863;873440;-5;4615;39487
3;74;1573068287008;1573068294701;7693;22804118870;67507869469;2693711150;9924166;2813914294;315160;1407264866;1268;915;880960;0;3266;14248
3;75;1573068294701;1573068301675;6974;22789908836;67507856845;2693495696;6317757;2813901670;320475;1406993205;1369;1147;822272;2;3850;228357
3;76;1573068301675;1573068309332;7657;22856851296;67507891035;2669099431;12227604;2813935860;316865;1407474548;1073;1157;912080;-2;3112;11690
3;77;1573068309332;1573068316916;7584;22792129642;67507889924;2687082656;6810749;2813934749;312443;1407439468;1482;812;865384;0;4148;27153
3;78;1573068316916;1573068324605;7689;22832138898;67507902051;2717786897;8956730;2813946876;311670;1407539094;1869;463;831384;6;5134;38007
3;79;1573068324605;1573068332375;7770;22853636230;67507911862;2666762602;11210479;2813956687;317778;1407763515;1658;1285;914824;2;4446;196188
3;80;1573068332375;1573068339861;7486;22806908054;67507884086;2736340789;7880387;2813928911;312436;1407327293;977;1187;840176;-3;2800;9771
3;81;1573068339861;1573068348135;8274;22878992050;67507923374;2714635511;12490459;2813968199;320268;1407810554;1562;834;925000;-5;4425;33443
3;82;1573068348135;1573068356206;8071;22848962916;67507900128;2711646617;11120627;2813944953;318642;1407669734;1287;1162;925440;0;3380;15534
3;83;1573068356206;1573068363536;7330;22798481664;67507869377;2693765425;7678862;2813914202;316908;1407154573;1475;1241;821736;0;4348;198013
3;84;1573068363536;1573068371247;7711;22800732546;67507863863;2672902399;9418524;2813908688;309435;1407137036;1058;1243;876680;0;2920;10902
3;85;1573068371247;1573068379030;7783;22821955398;67507881364;2688039631;9988974;2813926189;314393;1407376397;1569;894;867968;0;4587;43658
4;37;1573068816578;1573068823996;7418;22806497356;67507880433;2682140312;7799020;2813925258;301507;1407295722;1352;1337;902192;-150;4278;211916
4;38;1573068823996;1573068838305;14309;22887475964;67507876414;2678891427;27910292;2813912751;306479;1407263717;2129;1997;1651920;-5;7104;42648
4;39;1573068838305;1573068845917;7612;22833649560;67507888230;2697094873;10272365;2813933055;312393;1407447943;1955;383;763624;4;5098;33041
4;40;1573068845917;1573068852997;7080;22770019402;67507858607;2666870382;6405535;2813903432;307362;1407120251;1464;1090;801056;-4;4624;184331
4;41;1573068852997;1573068860450;7453;22791409862;67507867445;2700785762;8673522;2813912270;301532;1407227978;812;1216;787400;0;2648;6947
4;42;1573068860450;1573068868041;7591;22822562612;67507884289;2706503926;8770519;2813929114;302928;1407384407;1289;899;842360;3;4105;24899
4;43;1573068868041;1573068875553;7512;22826258456;67507883973;2648127902;9835016;2813928798;302086;1407355966;935;1063;844720;-3;2718;8026
4;44;1573068875553;1573068890513;14960;22890075494;67507878546;2682119841;29170896;2813914883;304592;1407328009;2364;2500;1715408;3;6997;204126
4;45;1573068890513;1573068897519;7006;22778127512;67507852944;2670038770;7310858;2813897769;303458;1406967593;797;992;781480;1;2773;9781
4;46;1573068897519;1573068905272;7753;22857877822;67507903537;2720742271;11005789;2813948362;308911;1407662581;1593;535;860064;0;4701;30848
4;47;1573068905272;1573068912752;7480;22809637086;67507887407;2744813719;7866705;2813932232;300231;1407482673;2154;776;835856;-4;6418;262249
4;48;1573068912752;1573068920370;7618;22826431320;67507883576;2731588214;9333972;2813928401;300427;1407412884;984;1178;887616;0;3148;9764
4;49;1573068920371;1573068929649;9278;22837632878;67507872767;2721141699;17321273;2813909104;310246;1407156195;1373;1172;1051984;8;4352;22680
4;50;1573068929649;1573068937925;8276;22790088270;67507878142;2708755166;10716236;2813914479;305829;1407204246;1107;1209;885904;-6;3109;12341
4;51;1573068937925;1573068945421;7496;22793153540;67507863734;2676748340;7860887;2813908559;299848;1407078869;1401;1380;852664;-2;4107;210392
4;52;1573068945421;1573068952525;7104;22777631842;67507860571;2690452906;6557120;2813905396;304933;1406929655;847;1052;854072;0;2702;8331
4;53;1573068952525;1573068960125;7600;22814926666;67507886591;2710713763;8657757;2813931416;300603;1407307794;1167;1024;870464;9;3703;22712
4;54;1573068960125;1573068968251;8126;22827632316;67507911855;2681580055;9882801;2813956680;303487;1407606233;1761;589;884848;-9;5250;39715
4;55;1573068968251;1573068975671;7420;22788535560;67507869363;2651076352;7580115;2813914188;311805;1407158530;2053;834;900216;9;6318;301024
4;56;1573068975671;1573068982956;7285;22788895012;67507858200;2652401830;7230961;2813903025;305027;1407111993;859;1195;792704;-5;2727;9503
4;57;1573068982956;1573068990492;7536;22821563826;67507877179;2676917806;9808981;2813922004;305813;1407285748;959;1063;827224;20;3356;16346
4;58;1573068990492;1573068997755;7263;22794832832;67507872156;2666151329;7798871;2813916981;301534;1407309174;1239;751;814872;-24;3439;17084
4;59;1573068997755;1573069008936;11181;22862486020;67507873882;2682742515;24506220;2813910230;308719;1407106734;1857;1989;1362032;0;5855;208619
4;60;1573069008936;1573069017144;8208;22845613530;67507909382;2660895489;10319218;2813954207;299461;1407762695;1088;1278;902016;0;3004;10015
4;61;1573069017144;1573069025067;7923;22846054158;67507910318;2663047839;10803625;2813955143;307375;1407684188;1487;813;912776;0;4603;36314
4;62;1573069025067;1573069032211;7144;22798685480;67507860602;2654462096;7791603;2813905427;307210;1407187735;1649;228;836040;11;5014;39086
4;63;1573069032211;1573069039994;7783;22830046134;67507897414;2666360687;9523232;2813942239;302227;1407500385;1882;1129;944912;-11;5889;317901
4;64;1573069039994;1573069047701;7707;22834564980;67507889776;2720447318;9797590;2813934601;300774;1407476403;993;1125;880168;0;2968;10570
4;65;1573069047701;1573069055928;8227;22860408878;67507916787;2651870419;11677950;2813961612;309133;1407786300;1520;861;937024;0;4628;25453
4;66;1573069055928;1573069063282;7354;22804593808;67507871627;2732869889;7677489;2813916452;298397;1407238679;901;1146;815400;0;2662;9675
4;67;1573069063282;1573069070357;7075;22790428742;67507857724;2723070219;7782941;2813902549;301661;1407066338;1605;1467;818352;11;6686;443858
4;68;1573069070357;1573069077911;7554;22809682492;67507872788;2683710008;9072919;2813917613;302264;1407354850;952;1230;838736;-11;3487;27558
4;69;1573069077911;1573069085186;7275;22785384880;67507856842;2640374683;7950766;2813901667;300865;1407013307;1294;661;773672;0;3776;22513
4;70;1573069085186;1573069092712;7526;22822350036;67507874536;2657495224;10476786;2813919361;314635;1407343714;1893;258;855736;18;5932;49106
4;71;1573069092713;1573069100053;7340;22802352854;67507875356;2657968316;8173729;2813920181;302569;1407280225;1782;1032;867544;-17;5389;157250
4;72;1573069100053;1573069107586;7533;22837500018;67507884753;2677996504;10216070;2813929578;310785;1407408657;1029;1186;897728;1;3082;10243
4;73;1573069107586;1573069114876;7290;22805384690;67507858522;2670628360;9185310;2813903347;307095;1407157925;1076;948;857160;2;3360;16418
4;74;1573069114877;1573069122658;7781;22822620136;67507899604;2651922781;9402150;2813944429;303518;1407545457;1324;956;888336;-4;3682;22803
4;75;1573069122658;1573069129751;7093;22786358116;67507855689;2656536635;7360947;2813900514;309525;1407050344;1574;1121;793120;90;3857;259306
4;76;1573069129751;1573069137410;7659;22820576136;67507901754;2732206664;7591824;2813946579;299666;1407666559;1135;1215;907848;-90;4222;53843
4;77;1573069137410;1573069144838;7428;22780134866;67507859988;2695409127;7467214;2813904813;304179;1407080635;1162;1011;736128;5;3093;16306
4;78;1573069144838;1573069152110;7272;22789019696;67507876338;2671704137;7038117;2813921163;310912;1407333248;1589;584;805552;1;4570;30149
4;79;1573069152110;1573069159503;7393;22801684612;67507861728;2689310302;8353669;2813906553;305944;1407171531;1689;509;820944;-2;4875;32956
4;80;1573069159503;1573069167218;7715;22834979620;67507884703;2706810731;9934715;2813929528;299515;1407395598;1557;1505;902992;5;4418;210591
4;81;1573069167218;1573069175084;7866;22847926024;67507907229;2755967503;9897807;2813952054;303219;1407756351;1145;1191;906904;-3;3176;12346
4;82;1573069175084;1573069182726;7642;22830977322;67507894131;2704488511;9479998;2813938956;303830;1407468535;1454;710;834048;0;3883;23335
4;83;1573069182726;1573069190440;7714;22811810296;67507878353;2678805188;10047660;2813923178;312949;1407338219;1392;914;894344;-1;3704;19960
4;84;1573069190440;1573069198311;7871;22834569652;67507892236;2695482973;10944760;2813937061;303238;1407601828;1597;1350;984560;-5;5487;342141
4;85;1573069198311;1573069205697;7386;22810095526;67507876310;2689790691;8232163;2813921135;301646;1407277559;1025;1142;833896;1;2968;10277
4;86;1573069205697;1573069213720;8023;22846005978;67507905777;2657671653;11421662;2813950602;300175;1407659350;1538;731;899608;-1;4326;34458
