0;1;1574343361569;1574343375754;14185;43685717040;6764445850;1895395712;1676612150;492715538;17155513;2245693881;81;55;14632;0;155;934
0;2;1574343375754;1574343389918;14164;42370444650;6764442463;1863172161;1615485808;492714986;17152676;2248422049;479;6;149696;0;1227;145399
0;3;1574343389919;1574343403417;13498;41195096178;6764465105;2149939826;1538670289;492718334;17150141;2249725200;6;0;2304;0;5;5
0;4;1574343403417;1574343417670;14253;43657866956;6764419580;1825608846;1677797513;492712248;17144057;2244031350;58;41;11432;0;173;1066
0;5;1574343417670;1574343432105;14435;43872532362;6764516891;1759580654;1690574573;492727113;17151797;2244189459;11;0;2368;0;7;10
0;6;1574343432105;1574343446675;14570;44126584918;6764433564;1745302179;1688634324;492714052;17149558;2246430660;39;19;7656;0;73;268
0;7;1574343446675;1574343460695;14020;43207311394;6764460051;1763721361;1643072571;492717207;17150055;2246945301;7;0;1408;0;4;4
0;8;1574343460695;1574343475178;14483;44262256294;6764410516;1830272380;1679584269;492710120;17149065;2244079842;53;16;8456;0;135;459
0;9;1574343475178;1574343489249;14071;43539330432;6764455091;1780002281;1650842051;492716541;17151178;2246195186;7;0;1416;0;5;5
0;10;1574343489249;1574343503535;14286;43068932740;6764399107;1951039352;1631214209;492708171;17148764;2249665419;50;20;8600;0;104;434
0;11;1574343503535;1574343517949;14414;43892479466;6764428089;1795887742;1672092081;492712180;17148331;2246499760;6;0;1400;0;3;3
0;12;1574343517949;1574343532399;14450;44418895898;6764425983;1812431069;1683076387;492712371;17145391;2246426946;51;16;8208;0;95;443
0;13;1574343532399;1574343546343;13944;43504762888;6764442011;2016778536;1628611548;492714553;17149338;2247144289;8;0;1872;0;6;6
0;14;1574343546343;1574343560566;14223;44111840670;6764414478;2352711037;1649691425;492710229;17150646;2244940099;47;22;7320;0;95;424
0;15;1574343560566;1574343574830;14264;44256882472;6764434632;1955090690;1677703805;492714266;17151452;2244734834;49;22;8968;0;192;525
0;16;1574343574830;1574343589249;14419;44058836392;6764462126;1894733423;1670677233;492717924;17148632;2247461641;8;0;1424;0;4;7
0;17;1574343589249;1574343603335;14086;43963832440;6764409808;1732509071;1665797864;492709824;17153311;2243996295;12;0;2808;0;7;8
0;18;1574343603341;1574343617530;14189;43597953520;6764522323;1798907280;1667422780;492728513;17153449;2245753787;41;22;7288;0;97;427
0;19;1574343617530;1574343630836;13306;41759500350;6764481948;1969347717;1546965837;492720648;17149544;2249816328;6;1;1408;0;4;4
0;20;1574343630836;1574343645336;14500;44622608822;6764451755;1807977668;1678946208;492717444;17152999;2244817673;32;24;8856;0;77;131
0;21;1574343645336;1574343659804;14468;44137467320;6764419452;1941953810;1685908325;492711662;17148345;2244683664;7;0;1408;0;5;5
0;22;1574343659804;1574343674092;14288;44026021870;6764452713;1943303343;1660334724;492717693;17150235;2245851420;33;22;8776;0;96;167
0;23;1574343674092;1574343688693;14601;44307216702;6764468322;1957254498;1686908374;492719302;17153004;2246108398;8;0;1424;0;4;6
0;24;1574343688694;1574343702924;14230;44167073638;6764560478;1802777939;1664747045;492736632;17155539;2247781645;33;24;8712;0;76;181
0;25;1574343702924;1574343717251;14327;44026347742;6764449530;2116397514;1673534631;492716608;17145503;2246676424;8;0;1424;0;12;13
0;26;1574343717251;1574343731758;14507;44083402206;6764491800;1966214242;1668774455;492723127;17151234;2245972106;54;22;8488;0;106;532
0;27;1574343731758;1574343745438;13680;43742785520;6764449755;1927375424;1663820921;492716690;17150179;2245938380;11;0;1912;0;14;17
0;28;1574343745438;1574343759398;13960;43109487452;6764502759;1802080071;1638693253;492726402;17155336;2246400869;6;0;1400;0;4;4
0;29;1574343759399;1574343773361;13962;43238421512;6764511851;1823771320;1630039757;492726477;17147673;2249483489;41;20;8848;0;104;307
0;30;1574343773361;1574343787482;14121;43284360996;6764476690;1788587002;1652235078;492721182;17155202;2245026481;4;0;1384;0;5;5
0;31;1574343787482;1574343801429;13947;43498485326;6764442776;2011078541;1640624558;492715309;17148990;2244727665;31;24;8944;0;105;170
0;32;1574343801430;1574343815453;14023;43936923034;6764523457;1874067555;1675943202;492728427;17145495;2247355869;9;0;1432;0;13;23
0;33;1574343815453;1574343829342;13889;43414010748;6764454990;2017795395;1638433841;492716742;17150577;2245057925;42;20;8832;0;98;472
0;34;1574343829342;1574343843386;14044;43441761260;6764479066;1969417724;1654406857;492720991;17152101;2247152975;8;0;1416;0;12;13
0;35;1574343843386;1574343857432;14046;43785365690;6764423137;1949229111;1663274663;492712394;17153341;2245175561;42;20;8392;0;82;315
0;36;1574343857432;1574343871613;14181;43300984848;6764477002;2102871136;1633764296;492720982;17148019;2246359761;9;0;1872;0;14;15
0;37;1574343871614;1574343885473;13859;43050049392;6764410580;1854493347;1627908817;492710231;17147523;2247069340;474;31;50480;0;1464;2147
0;38;1574343885473;1574343899300;13827;43055002734;6764452733;2022382366;1628647790;492717012;17149306;2246333175;13;0;2816;0;8;12
0;39;1574343899301;1574343912920;13619;42162691176;6764448159;1833862259;1605710247;492715604;17148067;2248393688;127;33;9352;0;135;1608
0;40;1574343912921;1574343926559;13638;42315661946;6764427905;1788444595;1595710953;492712421;17145270;2246303035;12;2;2832;0;9;10
0;41;1574343926559;1574343940522;13963;42762621674;6764445108;1965088948;1624241257;492715961;17146255;2245915860;71;20;8568;0;110;901
0;42;1574343940523;1574343954379;13856;42599016410;6764464432;1833770718;1608505286;492718578;17151622;2246733920;9;0;2328;0;4;4
0;43;1574343954379;1574343968060;13681;42026996732;6764466559;1783303722;1596034932;492719194;17154629;2248647640;11;0;1904;0;6;9
0;44;1574343968060;1574343981917;13857;43090514898;6764454646;1929992068;1629327836;492717702;17148610;2248473066;47;18;7432;0;93;466
0;45;1574343981917;1574343996290;14373;42514110110;6764521537;1852006986;1593016756;492727471;17148782;2246780947;13;0;2808;0;9;11
0;46;1574343996290;1574344010319;14029;43007775822;6764444933;1993310639;1632122593;492715626;17154503;2247224971;46;18;7320;0;97;431
0;47;1574344010319;1574344023925;13606;42796819546;6764461458;2102780773;1606868599;492718757;17150596;2246511832;12;0;2800;0;10;11
0;48;1574344023925;1574344037769;13844;42363756536;6764438726;2016775432;1606685462;492714637;17154460;2247068623;59;14;7400;0;124;642
0;49;1574344037769;1574344051546;13777;42331763848;6764474918;1832411438;1605786836;492720455;17150975;2247619117;10;0;2336;0;7;7
0;50;1574344051546;1574344065049;13503;41878707890;6764438546;1980950189;1570733147;492714293;17151378;2247147970;61;18;8336;0;134;673
1;1;1574344194186;1574344208568;14382;44581293450;6764462777;1747953931;1701089255;492718596;17153547;2245150679;25;17;5856;0;34;46
1;2;1574344208568;1574344223046;14478;43957775046;6764430595;1825590562;1653404701;492713402;17152659;2248272190;87;45;22248;41;214;2864
1;3;1574344223046;1574344237665;14619;44432364982;6764433991;1962070836;1688452154;492714130;17152607;2246261675;112;5;135088;-41;806;25374
1;4;1574344237665;1574344251807;14142;44241247040;6764419178;1926630941;1686526979;492711259;17147898;2247416729;283;42;14696;0;323;7880
1;5;1574344251807;1574344265881;14074;43445337238;6764477864;1762125029;1638568118;492720972;17148819;2247671925;10;0;2792;0;7;7
1;6;1574344265881;1574344280107;14226;43532564500;6764466104;1925667543;1638139120;492719395;17146321;2246198789;44;22;6640;0;98;403
1;7;1574344280107;1574344294480;14373;44471568756;6764415635;1883712468;1675296448;492710660;17149721;2244839244;10;0;2800;0;5;5
1;8;1574344294480;1574344308058;13578;40918993388;6764429908;1964674997;1518121103;492712139;17151400;2249100581;60;14;7008;0;99;577
1;9;1574344308058;1574344322414;14356;42958981162;6764443955;2056200983;1598580440;492714447;17145102;2246805454;10;0;2800;0;6;6
1;10;1574344322414;1574344336137;13723;42033693022;6764410005;2035582832;1574997269;492709799;17152262;2249351889;48;21;7152;0;103;442
1;11;1574344336137;1574344350082;13945;43161189118;6764461074;2013425917;1625584509;492717523;17147076;2247468809;6;0;1416;0;4;4
1;12;1574344350083;1574344363999;13916;42916285506;6764425172;2127941156;1603874594;492711991;17152983;2251312717;55;14;8472;0;107;483
1;13;1574344363999;1574344378052;14053;43066824354;6764458533;1970329536;1632510952;492716717;17141939;2247459416;6;0;1408;0;3;3
1;14;1574344378052;1574344392788;14736;44228358014;6764465511;1746446606;1660966851;492719001;17147960;2253749767;63;16;8728;0;97;535
1;15;1574344392788;1574344406884;14096;43049761772;6764410101;2082327795;1611469464;492709376;17150444;2258747235;4;0;1384;0;3;3
1;16;1574344406884;1574344420960;14076;43445559450;6764391295;2005248415;1622434623;492706390;17148891;2247261082;49;20;8752;0;165;511
1;17;1574344420961;1574344434871;13910;43018874158;6764451553;1920856085;1627296129;492716051;17149677;2248127373;9;0;1424;0;5;9
1;18;1574344434871;1574344448761;13890;41872491502;6764422615;2001803700;1566509551;492711440;17151626;2250048356;45;26;8840;0;95;358
1;19;1574344448761;1574344462203;13442;42464371122;6764443269;2002861349;1607077429;492713997;17143826;2248239266;9;0;1424;0;4;8
1;20;1574344462203;1574344475873;13670;42647402270;6764384725;2270239154;1598744100;492705075;17146520;2247090944;50;22;7912;0;110;497
1;21;1574344475873;1574344490123;14250;42569821374;6764423515;1788340265;1605051691;492712065;17156673;2247928812;11;0;2344;0;6;10
1;22;1574344490123;1574344503887;13764;42680623256;6764470591;2181106364;1601602265;492719119;17147541;2246544260;45;20;7832;0;83;407
1;23;1574344503887;1574344517485;13598;43029890734;6764455869;1758200011;1620769499;492716873;17149326;2246170271;12;0;2360;0;7;12
1;24;1574344517485;1574344531454;13969;43048776418;6764465174;1965266407;1619952387;492718602;17149808;2247710339;43;20;7456;0;84;447
1;25;1574344531454;1574344545530;14076;43033097770;6764457458;1824060904;1609332712;492717316;17148566;2247740547;15;0;2840;0;8;14
1;26;1574344545530;1574344559071;13541;42341900482;6764456541;1795573338;1606448673;492716801;17149445;2247669950;4;0;1384;0;3;3
1;27;1574344559071;1574344572555;13484;42224823082;6764439079;2014908567;1571837229;492714157;17150141;2246350693;48;20;8944;0;99;468
1;28;1574344572556;1574344586387;13831;42563330506;6764419340;1994080552;1602028718;492710586;17148900;2248914304;10;0;1440;0;4;9
1;29;1574344586387;1574344600741;14354;44524736408;6764395172;1975736229;1694715775;492707314;17151767;2246968441;49;16;8896;0;93;455
1;30;1574344600741;1574344614586;13845;42267390550;6764444570;1808829224;1596678953;492714202;17151905;2247640683;10;0;1440;0;5;10
1;31;1574344614586;1574344628231;13645;42273332166;6764417571;1900259299;1577569844;492710969;17149788;2247536333;57;10;8800;0;87;541
1;32;1574344628231;1574344641999;13768;42092255228;6764391138;1925357338;1583514603;492706406;17145764;2250036864;11;0;1456;0;14;34
1;33;1574344642000;1574344655746;13746;43665130310;6764425364;2025642053;1640761738;492712018;17147733;2246431691;8;0;2328;0;7;7
1;34;1574344655746;1574344669466;13720;42281112798;6764402076;1969308105;1596733240;492707733;17151158;2249113562;44;18;7920;0;105;378
1;35;1574344669466;1574344683401;13935;42250036552;6764455740;1989525487;1592530407;492716096;17149064;2247632981;6;0;1848;0;4;4
1;36;1574344683401;1574344697477;14076;42219997344;6764427290;1863387422;1590266786;492711620;17156261;2249038491;49;18;8296;0;88;451
1;37;1574344697477;1574344711423;13946;42577151158;6764415796;2092661680;1593413713;492710096;17155567;2252308059;12;0;1896;0;6;11
1;38;1574344711424;1574344725059;13635;41318001752;6764410723;1954034524;1529160677;492708493;17151203;2247453051;55;22;8872;0;116;574
1;39;1574344725059;1574344738784;13725;41798361170;6764399119;1820836469;1583721237;492708083;17148910;2247891390;486;29;50728;0;1426;1970
1;40;1574344738784;1574344752468;13684;42181844186;6764392015;1952805168;1590680496;492706032;17152704;2247371063;8;0;2768;0;6;6
1;41;1574344752468;1574344765905;13437;41413724608;6764402858;1969159342;1555648412;492707755;17154395;2250742442;12;0;1464;0;6;13
1;42;1574344765905;1574344779281;13376;41346320204;6764425490;1981173297;1544361815;492711616;17149568;2250093272;138;20;10816;0;160;1812
1;43;1574344779281;1574344793116;13835;42448239290;6764461575;1942848781;1588817720;492717033;17153121;2249303033;10;2;1448;0;4;9
1;44;1574344793116;1574344806876;13760;42402100370;6764409693;1974354971;1580649892;492709180;17151269;2248268600;59;28;8840;0;101;655
1;45;1574344806876;1574344820847;13971;42267349086;6764397720;1857249789;1592895058;492707014;17151646;2248834132;6;0;2304;0;6;6
1;46;1574344820847;1574344834283;13436;42055518270;6764406951;1952649145;1582839085;492708766;17145064;2248206766;44;18;7880;0;89;297
1;47;1574344834283;1574344847865;13582;41144193424;6764502564;2004321453;1529467056;492725700;17151350;2248980355;7;0;2320;0;5;5
1;48;1574344847865;1574344861202;13337;41336010414;6764466903;1878785878;1555084601;492717998;17153490;2250918671;10;0;1432;0;4;9
1;49;1574344861203;1574344874828;13625;42301080926;6764427480;1891236127;1583965912;492712975;17151513;2247089471;54;22;8752;0;102;525
1;50;1574344874828;1574344888764;13936;42050195402;6764463582;1766967656;1594086087;492718492;17146498;2249059764;12;0;1464;0;6;13
2;1;1574345017398;1574345031816;14418;44000589984;6764471000;1776615468;1686700511;492719600;17148776;2245697950;216;13;7088;0;102;6926
2;2;1574345031816;1574345045072;13256;40800282394;6764477066;2001612935;1515772759;492719359;17152808;2247494867;77;41;11848;0;149;1195
2;3;1574345045072;1574345059426;14354;42398227720;6764467911;1873514892;1612823456;492718952;17149560;2247215200;131;5;146256;0;954;34482
2;4;1574345059426;1574345072598;13172;40299148782;6764454735;2087048910;1507724685;492716192;17151785;2248422649;57;42;11656;0;148;707
2;5;1574345072598;1574345086170;13572;42238285596;6764415604;1795641586;1580798529;492710989;17148017;2250447309;11;0;2800;0;9;11
2;6;1574345086171;1574345100400;14229;43198181576;6764481079;2252001824;1609496150;492721449;17146627;2250952278;42;24;7072;0;88;329
2;7;1574345100400;1574345114290;13890;42568433790;6764411786;1795992822;1595284947;492710039;17151937;2258966857;10;0;2784;0;6;6
2;8;1574345114290;1574345128254;13964;43115015888;6764455115;1986671953;1614517339;492716784;17151411;2248597212;54;22;7312;0;100;517
2;9;1574345128254;1574345142614;14360;43170535308;6764400939;1780400953;1613714116;492708053;17150326;2247996264;9;0;2784;0;7;7
2;10;1574345142614;1574345157375;14761;43742481840;6764438483;1929025660;1650041883;492714543;17147778;2250166329;11;0;1456;0;5;11
2;11;1574345157375;1574345171887;14512;43634569736;6764392755;1878206526;1629478577;492706972;17151298;2248245290;46;20;8424;0;94;394
2;12;1574345171887;1574345186104;14217;42767652396;6764418921;2041091998;1595726867;492711117;17150700;2250741460;10;0;1440;0;5;10
2;13;1574345186104;1574345199664;13560;42048095192;6764469772;1927807589;1568113433;492719042;17148479;2253087248;44;20;8496;0;138;335
2;14;1574345199664;1574345213291;13627;41397249384;6764413954;1955071852;1552823123;492709722;17147443;2251360148;4;0;1384;0;3;3
2;15;1574345213291;1574345228230;14939;44767688146;6764433932;1957589579;1683294229;492713916;17155760;2248331359;52;22;8952;0;108;395
2;16;1574345228230;1574345242025;13795;42192861492;6764386143;1847231735;1576394278;492705061;17147606;2249755324;7;0;1864;0;5;5
2;17;1574345242025;1574345255299;13274;39946322262;6764423687;2089241772;1480169097;492711243;17153831;2254206304;45;19;8144;0;74;326
2;18;1574345255299;1574345269278;13979;42736264440;6764423412;1879892002;1597501225;492711504;17151517;2247361227;41;16;7384;0;87;331
2;19;1574345269279;1574345283370;14091;42602604944;6764417087;1878821789;1601362013;492710277;17148707;2248554370;12;0;2352;0;7;12
2;20;1574345283370;1574345297289;13919;42735996238;6764514544;2243170143;1599401262;492727546;17149803;2248140509;41;20;7912;0;107;385
2;21;1574345297289;1574345311176;13887;41660843186;6764464790;2063365720;1553852880;492718929;17153129;2252304114;11;0;2344;0;7;11
2;22;1574345311176;1574345324947;13771;42690075150;6764492966;2019191406;1599440395;492723394;17151053;2247978607;35;20;7712;0;85;211
2;23;1574345324947;1574345339000;14053;42328989994;6764470912;1818559477;1596751775;492719598;17151632;2248529530;12;0;2360;0;6;11
2;24;1574345339001;1574345352262;13261;40828755752;6764501196;1908279876;1527078816;492725212;17154518;2251252452;8;0;2768;0;7;7
2;25;1574345352262;1574345366098;13836;41741358098;6764466891;2103247776;1539201799;492719600;17150118;2248207061;43;16;7240;0;91;423
2;26;1574345366098;1574345380272;14174;42429853656;6764483596;1968088140;1590174777;492721610;17152335;2246655698;13;0;2808;0;8;12
2;27;1574345380273;1574345393943;13670;42375585748;6764452455;1857723250;1591855293;492716554;17149525;2248256159;46;22;7264;0;78;417
2;28;1574345393943;1574345407228;13285;41241654702;6764460981;2155455418;1542310831;492718659;17152577;2253058772;13;0;2808;0;7;11
2;29;1574345407228;1574345421497;14269;42336486802;6764435171;1825192008;1608562396;492713818;17156890;2247233448;39;18;7240;0;129;339
2;30;1574345421497;1574345435681;14184;43195543648;6764436222;2223993822;1605523937;492714422;17152305;2247692160;14;0;2824;0;8;13
2;31;1574345435681;1574345449609;13928;42598536362;6764441327;2075890049;1608591777;492714926;17152986;2248257391;48;21;7088;0;113;559
2;32;1574345449609;1574345463514;13905;42458363660;6764483575;1973230473;1591270967;492723549;17153089;2247278109;13;0;2808;0;9;13
2;33;1574345463514;1574345477643;14129;42573144772;6764467736;1918277740;1606000198;492719115;17148757;2249641726;50;24;7264;0;89;475
2;34;1574345477643;1574345491918;14275;42625942168;6764471915;2071290211;1593792430;492719322;17151730;2247724024;9;4;2808;0;7;7
2;35;1574345491918;1574345506132;14214;42003098868;6764443740;1821610882;1580790725;492715482;17153441;2246588448;8;0;2768;0;7;7
2;36;1574345506133;1574345520073;13940;42385691138;6764526048;2173747133;1592648693;492728589;17147535;2248711103;59;16;7560;0;93;607
2;37;1574345520074;1574345533809;13735;42259255284;6764443605;1791804483;1582641174;492715178;17152471;2248153270;14;0;2824;0;7;12
2;38;1574345533809;1574345547129;13320;40225871382;6764454090;2077957564;1498942173;492716713;17147992;2255520652;56;24;7552;0;87;570
2;39;1574345547129;1574345561758;14629;42134741958;6764439350;1800747633;1581931319;492714875;17150678;2247774125;13;2;2840;0;16;19
2;40;1574345561758;1574345574875;13117;40872939294;6764436745;2078443149;1516941765;492713344;17149345;2249502360;488;29;50952;0;1480;2110
2;41;1574345574875;1574345588675;13800;41356933236;6764475548;2166999321;1550966205;492720732;17151607;2251376855;13;0;2368;0;7;13
2;42;1574345588675;1574345602433;13758;42243437790;6764452269;1783094598;1593278483;492716944;17151903;2248756903;128;33;9912;0;157;1955
2;43;1574345602433;1574345616237;13804;42053249576;6764462720;1978322862;1576037938;492719378;17154186;2248928591;13;0;2368;0;7;13
2;44;1574345616237;1574345629486;13249;41591233306;6764442489;2291392885;1547769131;492714919;17149343;2250075598;43;28;8776;0;101;441
2;45;1574345629486;1574345643138;13652;43163387148;6764441140;1754939947;1643569614;492715138;17146582;2250262315;6;0;2304;0;5;5
2;46;1574345643138;1574345656810;13672;41921558014;6764474373;1845390638;1579262943;492720119;17152707;2248844205;16;0;2848;0;8;15
2;47;1574345656810;1574345670375;13565;41820785748;6764517339;1819279753;1580811080;492727733;17154647;2249344346;35;26;7480;0;77;285
2;48;1574345670375;1574345683584;13209;42077129628;6764442189;1782340549;1583560385;492715215;17150556;2248765382;14;0;2376;0;7;13
2;49;1574345683584;1574345697642;14058;42082469578;6764495055;1915539212;1586949996;492723050;17153174;2251747687;37;24;8080;0;79;305
2;50;1574345697642;1574345711545;13903;42553548360;6764444658;2031676244;1584398034;492715727;17150737;2249377165;15;0;2824;0;7;13
3;2;1574345851189;1574345865359;14170;43889853802;6764434794;1812423640;1685720149;492713875;17152184;2243888742;21;6;3648;0;13;27
3;3;1574345865359;1574345879864;14505;44270178546;6764417908;2040671150;1683557483;492711372;17144961;2244335988;312;44;158464;0;1108;46800
3;4;1574345879864;1574345894089;14225;44058314880;6764450111;1734554406;1685137264;492716360;17151283;2245285497;9;0;1464;0;5;9
3;5;1574345894089;1574345907964;13875;43377392926;6764462883;1974688064;1632320905;492718721;17151760;2246482339;10;0;2784;0;7;7
3;6;1574345907964;1574345922470;14506;44352287778;6764472481;1820961507;1692496953;492720541;17152033;2245178807;47;16;7216;0;99;454
3;7;1574345922470;1574345937336;14866;44582222448;6764416448;2004009660;1684676703;492710937;17148833;2244140439;10;0;2784;0;8;8
3;8;1574345937336;1574345951885;14549;44500540558;6764413640;2042234718;1689242027;492710822;17150386;2245198299;45;18;7088;0;102;454
3;9;1574345951885;1574345966092;14207;44638956734;6764403647;1932727191;1687611071;492709216;17153125;2245217265;10;0;2792;0;7;8
3;10;1574345966092;1574345980365;14273;44241222658;6764437012;1860179075;1669285749;492714279;17147593;2245818461;47;16;7024;0;96;410
3;11;1574345980366;1574345995109;14743;44184653936;6764443751;1782998620;1672055273;492714953;17153737;2243955362;9;0;2776;0;8;8
3;12;1574345995109;1574346009925;14816;44072073482;6764471747;1801741808;1672121705;492719459;17150869;2246967889;51;18;7216;0;156;521
3;13;1574346009925;1574346023926;14001;43269701282;6764439465;1792797943;1611013452;492714174;17149912;2247242404;8;0;1872;0;5;5
3;14;1574346023926;1574346038104;14178;42942244890;6764415574;2110549898;1590609399;492709916;17151302;2246733726;45;16;8128;0;101;383
3;15;1574346038104;1574346051917;13813;43292588242;6764417210;1823141197;1619468685;492710665;17149196;2247973467;4;0;1384;0;4;4
3;16;1574346051917;1574346065791;13874;42872394402;6764448178;1859641626;1592803863;492715484;17149489;2248033726;41;18;8688;0;78;296
3;17;1574346065791;1574346079689;13898;43697922932;6764398732;2026761439;1641012352;492708260;17150232;2247082541;9;0;1424;0;4;8
3;18;1574346079689;1574346093675;13986;43906723080;6764431748;1911694275;1632846768;492712842;17151892;2246107743;43;22;8128;0;107;580
3;19;1574346093675;1574346107741;14066;42913637942;6764401239;1990338629;1606324838;492707582;17153833;2250766915;11;0;2344;0;7;11
3;20;1574346107741;1574346121626;13885;42600213464;6764458737;2040072015;1587352326;492716613;17148786;2246177648;51;26;7560;0;102;545
3;21;1574346121626;1574346135298;13672;42309231522;6764439931;2179145201;1540355451;492714035;17152666;2248921533;13;1;2824;0;7;11
3;22;1574346135298;1574346148997;13699;41603467668;6764476579;1836000436;1557585204;492719835;17150930;2250539316;49;20;7504;0;88;472
3;23;1574346148997;1574346162561;13564;42600440932;6764436915;2112839464;1576904523;492713868;17144680;2246545444;12;0;1896;0;5;10
3;24;1574346162561;1574346176139;13578;41730059742;6764418779;2047576836;1542521575;492711012;17152715;2249464292;6;0;2304;0;6;6
3;25;1574346176139;1574346189596;13457;42669771514;6764415285;1979057719;1592086621;492710403;17151362;2248825100;45;22;7352;0;90;455
3;26;1574346189596;1574346203581;13985;42875824380;6764438117;1957127932;1588705063;492714172;17149266;2248965467;16;0;2840;0;10;17
3;27;1574346203581;1574346217010;13429;42422179750;6764419433;1817638983;1583767600;492710725;17148215;2248022798;47;18;7288;0;83;457
3;28;1574346217011;1574346230332;13321;41208849670;6764402624;1828014520;1536971566;492707972;17149421;2250536188;12;1;1912;0;5;10
3;29;1574346230332;1574346244069;13737;42382669522;6764408878;1789484531;1585223012;492709165;17149213;2249165718;42;22;8224;0;86;367
3;30;1574346244069;1574346257529;13460;41329489178;6764417713;1841155740;1544439427;492710160;17150961;2252562422;10;1;1456;0;5;10
3;31;1574346257530;1574346270740;13210;41799323894;6764381833;1952434927;1559932294;492704383;17147273;2248970685;46;18;8216;0;88;425
3;32;1574346270740;1574346284339;13599;42000400934;6764440357;2186183277;1561516218;492714414;17154538;2251003845;12;0;1912;0;5;11
3;33;1574346284339;1574346297968;13629;42234764076;6764433734;1945900016;1577707594;492712819;17148114;2247629388;39;20;7416;0;80;354
3;34;1574346297969;1574346311332;13363;42171063838;6764435278;1859578039;1577121697;492713418;17150916;2247237239;9;0;2784;0;6;6
3;35;1574346311332;1574346324605;13273;41871507170;6764387923;1879793470;1574973158;492705340;17149458;2248182972;10;0;1432;0;5;10
3;36;1574346324606;1574346337681;13075;40888995644;6764425540;1866355365;1527207389;492711552;17150989;2248999039;42;18;8312;0;175;549
3;37;1574346337681;1574346351174;13493;41705392896;6764458884;1850491144;1557455863;492716603;17150630;2249640185;11;0;1888;0;7;13
3;38;1574346351174;1574346364831;13657;42605111910;6764496145;1904768180;1609663382;492722627;17150896;2249781908;42;18;7616;0;114;370
3;39;1574346364831;1574346378856;14025;42261981834;6764436052;1856676324;1577482974;492712877;17149720;2246516823;14;0;2824;0;8;13
3;40;1574346378856;1574346392355;13499;41169621952;6764377316;1929553676;1538434921;492703181;17152577;2251645408;466;37;50640;0;1431;1904
3;41;1574346392355;1574346405927;13572;42216932804;6764424831;1949701704;1574925411;492711966;17149545;2247616627;8;0;2768;0;8;8
3;42;1574346405927;1574346419737;13810;41340466334;6764397434;1914513307;1556566971;492706685;17153951;2249810638;59;24;8816;0;128;618
3;43;1574346419737;1574346433409;13672;42201845748;6764385655;1806845573;1595320418;492705202;17148819;2247908896;85;0;2616;0;49;1187
3;44;1574346433409;1574346446986;13577;41404232710;6764429946;2048023126;1529832508;492712313;17150286;2248005501;12;0;2360;0;7;12
3;45;1574346446986;1574346460360;13374;40661184106;6764430262;2076846769;1519511159;492712244;17147887;2251693616;41;30;8584;0;99;410
3;46;1574346460361;1574346473999;13638;43026297090;6764439800;2099468136;1614728475;492714561;17152393;2247795111;12;0;2352;0;8;12
3;47;1574346473999;1574346488473;14474;44042402048;6764400611;1944156018;1667972687;492707985;17151743;2247368745;48;22;8152;0;101;467
3;48;1574346488473;1574346501834;13361;42179918154;6764392108;1991432328;1592719079;492706129;17146290;2246822933;10;0;1440;0;4;9
3;49;1574346501834;1574346515304;13470;42462443922;6764404071;1901567371;1590027296;492708309;17148799;2248373469;33;24;9016;0;131;298
3;50;1574346515304;1574346528629;13325;40562778646;6764396970;1834847186;1516499341;492706492;17147438;2254396055;4;0;1384;0;4;4
3;51;1574346528629;1574346542460;13831;42509360146;6764458851;1862506609;1590000308;492716647;17150987;2248799226;43;22;8976;0;90;300
4;1;1574346674352;1574346688556;14204;44192674008;6764446136;1819083706;1690808003;492715769;17154088;2244439064;12;9;4056;0;18;18
4;2;1574346688556;1574346702650;14094;44495499178;6764389627;1981594300;1690888853;492706687;17147967;2246392479;459;40;16640;0;446;28538
4;3;1574346702651;1574346716810;14159;44131752150;6764469437;1755593844;1679159225;492719526;17148967;2246897615;130;6;145816;0;896;43695
4;4;1574346716810;1574346731605;14795;44605870652;6764456938;1722524321;1681685926;492716754;17151139;2245442512;70;40;13440;0;185;685
4;5;1574346731605;1574346746533;14928;44267718446;6764450774;1951932509;1684061297;492717426;17146876;2245097599;7;0;1408;0;4;4
4;6;1574346746534;1574346760631;14097;44081216878;6764518152;2134486517;1657673976;492727657;17148514;2244225670;46;14;7536;0;80;352
4;7;1574346760631;1574346775217;14586;44420060686;6764483973;1973311071;1677592240;492723424;17153701;2245233096;7;0;2312;0;6;6
4;8;1574346775217;1574346789772;14555;43701421092;6764402523;1851786997;1649720951;492708752;17152845;2246800248;63;14;7200;0;96;629
4;9;1574346789772;1574346804637;14865;44359365274;6764460410;1920597589;1663469625;492718927;17152200;2246072921;7;0;2320;0;6;6
4;10;1574346804637;1574346818968;14331;43472376584;6764452782;1858241304;1634385925;492717533;17152269;2247903860;54;16;7640;0;150;495
4;11;1574346818973;1574346833218;14245;43849308872;6764437365;1974374359;1651207130;492714614;17150991;2245478698;4;0;1384;0;4;4
4;12;1574346833218;1574346847414;14196;42793120052;6764446666;1951575017;1581283125;492716193;17162629;2245982973;57;13;7504;0;84;496
4;13;1574346847414;1574346861740;14326;44210803120;6764451498;1993934527;1664933737;492717120;17151637;2245531700;7;0;2320;0;5;5
4;14;1574346861740;1574346876445;14705;44482728996;6764459166;1999019908;1675438968;492718193;17152024;2246936155;11;0;1448;0;4;10
4;15;1574346876445;1574346890753;14308;43870153584;6764475676;1799660416;1639981303;492720528;17153668;2250224152;52;20;8616;0;104;505
4;16;1574346890754;1574346904950;14196;43793980128;6764480482;2323420569;1641358230;492721519;17151641;2248247787;10;0;1440;0;4;9
4;17;1574346904950;1574346919041;14091;43599158312;6764454244;1767994681;1646542591;492717943;17153373;2246155434;37;18;7224;0;84;347
4;18;1574346919041;1574346933500;14459;43791134442;6764509140;1773348353;1648907225;492726067;17152054;2245789506;46;20;8840;0;98;367
4;19;1574346933500;1574346947779;14279;42901684046;6764422169;1909467220;1614694307;492712093;17153530;2249288795;9;0;1424;0;4;8
4;20;1574346947779;1574346961867;14088;43368417868;6764456746;1959487331;1632207235;492717971;17154716;2247547063;54;14;7368;0;103;574
4;21;1574346961867;1574346975853;13986;43632026562;6764457254;1759040874;1644678545;492717957;17156098;2246564159;15;0;2840;0;8;14
4;22;1574346975853;1574346990260;14407;43971356112;6764460114;1958267091;1654494969;492718591;17149286;2248410032;42;14;7360;0;103;436
4;23;1574346990260;1574347004586;14326;43426933354;6764514615;2068437473;1645586929;492726442;17147949;2245987463;11;0;1448;0;4;10
4;24;1574347004586;1574347018740;14154;43819234770;6764485054;1874436270;1649132035;492723406;17152338;2245078689;58;16;8280;0;110;609
4;25;1574347018740;1574347033149;14409;43471320274;6764498706;1947340850;1652232208;492724545;17149973;2245375552;13;0;1920;0;7;14
4;26;1574347033149;1574347047319;14170;43277331096;6764446580;1837670571;1642897198;492716116;17152524;2245447426;4;0;1384;0;3;3
4;27;1574347047319;1574347061804;14485;43934184512;6764437876;1735459576;1682094935;492714918;17154021;2247293117;83;13;8792;0;113;1003
4;28;1574347061804;1574347075640;13836;41586726578;6764446969;1855885832;1575782541;492715600;17151656;2247833288;5;0;1400;0;3;3
4;29;1574347075640;1574347088926;13286;42506869970;6764489773;1973154434;1605897822;492722299;17147407;2248085555;55;16;7336;0;112;510
4;30;1574347088927;1574347102890;13963;42572721518;6764442515;1873345002;1606333708;492715254;17150509;2245448513;6;0;1848;0;4;4
4;31;1574347102890;1574347116126;13236;41864012114;6764456560;1832234951;1576206305;492717317;17149190;2247359315;58;16;8544;0;115;601
4;32;1574347116126;1574347129828;13702;41832837756;6764448576;1896127302;1568249236;492716778;17151178;2248517128;11;0;1456;0;5;11
4;33;1574347129828;1574347142943;13115;40963334172;6764481271;2074914778;1524982611;492721353;17151101;2249458084;5;0;1392;0;4;4
4;34;1574347142943;1574347156707;13764;42207841384;6764453497;1864374461;1582327036;492717071;17150395;2245333424;47;18;7936;0;94;334
4;35;1574347156707;1574347170863;14156;42351545096;6764429697;2084454182;1588988232;492713050;17152375;2247153216;7;0;2320;0;5;5
4;36;1574347170863;1574347185033;14170;42991041010;6764446800;2162349195;1614248202;492716072;17144062;2245730271;58;19;7968;0;136;625
4;37;1574347185033;1574347199365;14332;43120641998;6764479480;1951051242;1613585297;492721577;17154883;2245037858;9;0;2784;0;7;7
4;38;1574347199365;1574347213660;14295;42865784982;6764457910;1820531423;1616829610;492718079;17148501;2247332979;51;18;7464;0;106;480
4;39;1574347213660;1574347227901;14241;43244412476;6764469338;2141849126;1612357059;492719567;17149791;2245809243;467;29;50568;0;1477;1959
4;40;1574347227901;1574347242289;14388;43458606302;6764461727;2067711100;1619049901;492718390;17148406;2248448432;15;0;2832;0;8;14
4;41;1574347242289;1574347255642;13353;41528402060;6764429592;2237832399;1547256100;492712973;17148596;2245850665;37;26;8568;0;104;314
4;42;1574347255642;1574347269214;13572;41533634554;6764409649;1891304815;1565022982;492709591;17149443;2249809194;81;0;2144;0;42;1398
4;43;1574347269214;1574347283557;14343;42885824942;6764427158;1881728606;1611357865;492713136;17146576;2246193063;13;0;1912;0;5;11
4;44;1574347283558;1574347297084;13526;42227907332;6764428677;1842906876;1583560604;492713198;17150634;2249030183;42;26;9440;0;100;408
4;45;1574347297084;1574347310924;13840;42905335652;6764399318;2079511490;1618556020;492708334;17150586;2247541475;10;0;1432;0;4;9
4;46;1574347310924;1574347324701;13777;42691264466;6764465509;1981979750;1612924570;492718778;17153006;2245621625;46;16;7624;0;110;506
4;47;1574347324701;1574347338630;13929;42501669304;6764439891;2167537669;1589945651;492715216;17152722;2246116796;15;0;2840;0;8;14
4;48;1574347338631;1574347352864;14233;42395754626;6764430451;1752169112;1616300885;492713290;17154046;2249301495;48;20;7488;0;93;487
4;49;1574347352864;1574347366447;13583;41990523012;6764478982;2096863984;1567599950;492720402;17151818;2248203849;10;0;1432;0;4;9
4;50;1574347366447;1574347380119;13672;41620373154;6764440136;1805123156;1575979807;492714934;17151836;2247804018;49;20;8008;0;78;491
