0;0;1573262866400;1573262878427;12027;38163778186;6764609470;1744578184;1688146651;492746476;17151242;2240471195;0;0;0;0;0;0
0;1;1573262878428;1573262888949;10521;34648747010;6764433206;2215671193;1423881557;492712079;17152853;2245299192;1788;7306;1179224;-1;10522;1501124
0;2;1573262888949;1573262907528;18579;36381311636;6764406473;1816962573;1594657194;492707670;17144467;2243071558;2717;14684;2562952;17;18580;2773473
0;3;1573262907529;1573262933172;25643;38514558370;6764544183;1705393514;1683877533;492731763;17155159;2239984628;5019;16404;3040312;-16;25642;3772568
0;4;1573262933172;1573262945015;11843;38523907042;6764457801;1829865485;1644092498;492718481;17152274;2240553173;2125;8518;1511936;20;11843;1691692
0;5;1573262945015;1573262962910;17895;36262150232;6764425834;2213059266;1524736625;492709759;17149695;2242645684;3266;10633;2375872;-50;17896;2649217
0;6;1573262962910;1573262974865;11955;39152209866;6764497015;1712054842;1675052412;492723573;17151864;2240150798;2098;5789;1478736;43;11954;1693388
0;7;1573262974865;1573262993885;19020;36240423388;6764518041;1884012039;1522662050;492728179;17150766;2244113298;3364;12077;2656456;4;19020;2823923
0;8;1573262993885;1573263005346;11461;37897326726;6764539718;1857687184;1589369929;492731961;17155443;2241450704;2090;6509;1408864;-10;11462;1636780
0;9;1573263005348;1573263024415;19067;34894899360;6764454674;1923596261;1474430012;492714954;17151851;2246782905;3710;10995;2465744;12;19069;2889867
0;10;1573263024415;1573263057631;33216;37084481216;6764445411;1893245044;1561803335;492715042;17151797;2244190559;6545;17256;3670152;-4;33216;4942047
0;11;1573263057631;1573263069326;11695;38773791444;6764441342;1718485866;1663696289;492715613;17157463;2241511334;2633;3146;1222088;2;11695;1630797
0;12;1573263069327;1573263086365;17038;36038504950;6764467914;1892622370;1551505751;492718640;17153660;2243517745;3075;11519;2318600;-10;17039;2554458
0;13;1573263086365;1573263097461;11096;37226944950;6764560763;1993496592;1530045717;492734829;17152292;2243809675;2104;3895;1345048;17;11096;1707602
0;14;1573263097462;1573263120156;22694;36986254314;6764492778;2016721144;1584322855;492722130;17153599;2241029005;3813;11125;2699504;-48;22695;3256531
0;15;1573263120156;1573263131810;11654;37615759740;6764497920;2137858361;1555241139;492724916;17154725;2243417174;2534;6936;1437464;36;11654;1781556
0;16;1573263131810;1573263151953;20143;35659390692;6764478377;2349491006;1474576956;492719304;17150653;2247482661;3273;10468;2560696;-9;20142;2893904
0;17;1573263151953;1573263179121;27168;38028693438;6764500235;1945549185;1604614589;492727271;17154476;2244695728;5300;15388;3328528;16;27168;4008171
0;18;1573263179121;1573263205667;26546;36954715540;6764467406;2214164942;1506609508;492720189;17157880;2246238365;5800;14442;2905712;-3;26547;3937699
0;19;1573263205668;1573263217440;11772;39032131874;6764553509;1958540272;1651585384;492733778;17155280;2242335088;2185;4433;1359400;-8;11772;1654598
0;20;1573263217440;1573263239728;22288;36384535170;6764510900;2092355238;1513651260;492724625;17147943;2243271793;4138;10890;2531392;-5;22288;3327297
0;21;1573263239728;1573263251034;11306;38112623436;6764417377;1854581387;1601217466;492709383;17146274;2240748683;1922;4794;1352736;11;11306;1514396
0;22;1573263251034;1573263270908;19874;38051566528;6764436349;1694892523;1660965545;492713095;17154828;2239402883;3920;10865;2474600;11;19875;2967935
0;23;1573263270909;1573263299763;28854;36582051416;6764450738;2012199929;1518985826;492715188;17149767;2245730318;5933;14095;3126720;-114;28855;4218665
0;24;1573263299763;1573263311576;11813;38956880262;6764544673;2125189603;1633649289;492732407;17148159;2243678021;2250;4997;1224824;110;11813;1658562
0;25;1573263311576;1573263331666;20090;34848563486;6764488565;1912298668;1471629377;492720790;17150906;2251265961;3966;10482;2441976;1;20090;3001239
0;26;1573263331666;1573263362469;30803;39343446944;6764417140;1775173069;1677311265;492710374;17145981;2239755460;6220;16963;3342376;-8;30802;4494211
0;27;1573263362469;1573263374203;11734;38850297634;6764456300;1801872239;1643293502;492719139;17150697;2240136578;2205;5822;1399360;7;11735;1681761
0;28;1573263374203;1573263396119;21916;37344059726;6764439428;1738847230;1619181636;492712404;17151870;2241977770;4653;10451;2412840;9;21915;3508920
0;29;1573263396119;1573263428714;32595;37213970076;6764464755;1807956626;1567224453;492719102;17149300;2244285523;6450;15305;3377848;-12;32595;4792465
0;30;1573263428714;1573263458700;29986;37858223108;6764483690;2329607784;1572827587;492721722;17153035;2242287498;5988;15738;3643880;-5;29987;4442132
0;31;1573263458700;1573263492715;34015;36980818296;6764500898;1887525930;1559128628;492724231;17157610;2247062699;6367;18033;3809128;-11;34015;4983434
0;32;1573263492715;1573263524136;31421;37030852058;6764480750;2295972223;1512951917;492720582;17152114;2240237749;7295;11680;2910744;-1;31420;4650370
0;33;1573263524136;1573263557284;33148;38394452054;6764531055;2037677033;1612391868;492730635;17149465;2240381926;7532;14132;3290448;16;33149;4889009
0;34;1573263557285;1573263592116;34831;38634940334;6764490603;1726502978;1658363309;492723493;17155174;2242400630;7787;14177;3408208;-15;34832;5117040
1;0;1573263727595;1573263738560;10965;35373611022;6764590322;2027018038;1496558243;492744917;17151126;2242726440;0;0;0;0;0;0
1;1;1573263738560;1573263749682;11122;36098060248;6764426812;2272127679;1474032800;492712045;17148013;2246740156;1990;7183;1289424;137;11122;1495338
1;2;1573263749682;1573263760209;10527;36289610788;6764410936;2057360092;1524703548;492707604;17151944;2240899282;1724;6878;1425008;-1;10528;1581884
1;3;1573263760210;1573263771118;10908;37914481142;6764506220;1859484554;1652697117;492723005;17151076;2238945986;1427;6402;1572640;2;10908;1566604
1;4;1573263771118;1573263782786;11668;38499986110;6764481487;2237008253;1597863448;492720921;17154713;2242475965;2070;6611;1403800;-12;11668;1664896
1;5;1573263782786;1573263799532;16746;35033820988;6764435854;2028435859;1464008098;492712176;17153080;2241360008;2719;12111;2617032;2;16746;2495122
1;6;1573263799532;1573263826376;26844;37924617192;6764484549;2121119420;1576366260;492721658;17155945;2241832321;4910;18276;3285112;1;26845;3946740
1;7;1573263826377;1573263837475;11098;37350761126;6764415721;2173709049;1521132850;492709486;17150560;2242473769;2045;6399;1304512;8;11098;1587542
1;8;1573263837475;1573263855040;17565;36926683248;6764434104;1942580253;1564916131;492711332;17145425;2244793637;3258;10892;2395296;-13;17565;2636829
1;9;1573263855040;1573263886275;31235;38158562044;6764490581;1843906293;1596801799;492723244;17153378;2243496078;5730;18001;3762976;23;31235;4566601
1;10;1573263886275;1573263898030;11755;38798796426;6764492462;1888240423;1631894419;492723773;17151222;2240359236;2493;4605;1262728;3;11755;1616448
1;11;1573263898030;1573263915022;16992;35675671298;6764488960;1990757729;1503255256;492720733;17159753;2248189288;2932;11777;2485320;-23;16992;2606994
1;12;1573263915022;1573263926706;11684;38595366012;6764494530;1888733090;1613037890;492723046;17152115;2244261103;2043;5241;1397528;18;11684;1643859
1;13;1573263926706;1573263946790;20084;36719857312;6764434705;1864617633;1568355034;492712131;17144063;2242041015;3431;11306;2599048;-81;20084;2996970
1;14;1573263946790;1573263958422;11632;38259655948;6764494385;1838230907;1596434612;492723637;17154982;2245570228;2195;5300;1330840;72;11632;1614854
1;15;1573263958422;1573263973880;15458;35201599808;6764430325;1888775708;1487186154;492710231;17150592;2248784129;2442;10901;2234160;-3;15458;2213157
1;16;1573263973880;1573264004968;31088;38694086686;6764436861;1760969879;1648172181;492714237;17155180;2240071941;6278;18009;3650488;2;31088;4779610
1;17;1573264004968;1573264031180;26212;37987916368;6764458928;1892616653;1595008661;492717341;17151814;2239785800;5014;18625;3437328;-74;26212;3859917
1;18;1573264031180;1573264042964;11784;37209419694;6764412516;1886601742;1554215291;492711109;17150574;2246850614;2099;6491;1438096;93;11784;1655586
1;19;1573264042964;1573264061276;18312;35488833784;6764476042;2032300358;1499546967;492718997;17149087;2244537810;3125;10958;2424592;-56;18312;2740553
1;20;1573264061276;1573264073083;11807;39481626162;6764484402;1911978668;1679669598;492722492;17151690;2241916748;2031;5198;1450448;29;11807;1672594
1;21;1573264073083;1573264091145;18062;37635151314;6764453044;1811753589;1633191571;492714985;17154254;2240898188;3289;12360;2559640;26;18062;2756829
1;22;1573264091145;1573264117280;26135;38483160048;6764426001;2441837871;1593230375;492711690;17152362;2240655908;4777;18111;3261992;-20;26135;3866658
1;23;1573264117280;1573264128322;11042;36608561804;6764410474;2095530454;1515611679;492709008;17153879;2249583850;1928;5378;1391064;10;11042;1581486
1;24;1573264128322;1573264145604;17282;35781306386;6764495483;2013801207;1527191946;492723038;17147556;2246306374;2847;12403;2598296;-17;17282;2586911
1;25;1573264145604;1573264157468;11864;39288439108;6764534956;1738858649;1680250650;492730814;17158288;2240374278;2357;5177;1418624;6;11864;1442904
1;26;1573264157468;1573264178477;21009;38251577768;6764463212;1960495545;1635598135;492717300;17156118;2239255324;3544;12634;2849200;-52;21010;3114412
1;27;1573264178478;1573264190491;12013;39603685082;6764417797;2140691599;1675064155;492712041;17154355;2240286767;1974;5901;1432136;57;12013;1691605
1;28;1573264190491;1573264208477;17986;36573864028;6764462164;1977696232;1543813181;492716548;17146567;2243416911;3057;12101;2596960;1;17986;2747776
1;29;1573264208477;1573264219870;11393;37798002488;6764477060;1908247849;1566444465;492721354;17153038;2244122509;2032;7223;1377248;-15;11393;1623112
1;30;1573264219870;1573264239785;19915;35417984656;6764448297;2125733508;1468521203;492713394;17149413;2251817822;3340;11248;2569936;8;19915;2988743
1;31;1573264239785;1573264250887;11102;36444977272;6764446770;2314946764;1481968010;492715297;17158136;2248448997;1950;5678;1336752;3;11102;1591170
1;32;1573264250888;1573264268372;17484;35521374410;6764426804;1968704502;1496732912;492710195;17147204;2244098607;3069;10402;2327048;-1;17485;2502719
1;33;1573264268372;1573264279888;11516;37828801626;6764446076;1770997928;1580671227;492715398;17152174;2242989561;2425;5523;1476152;12;11516;1707328
1;34;1573264279888;1573264303301;23413;35443033438;6764494400;1867397167;1493971813;492720823;17145043;2247034776;4290;11386;2785312;-85;23413;3755685
1;35;1573264303301;1573264315090;11789;38632948602;6764421847;2293963011;1611843794;492712046;17153317;2242787464;2322;5009;1152936;87;11789;1573970
1;36;1573264315090;1573264331849;16759;38440468334;6764513639;1757264695;1675138806;492724594;17151191;2239063508;2631;11416;2421288;3;16759;2406200
1;37;1573264331849;1573264342546;10697;36126334170;6764418362;1850629404;1499300167;492709941;17149271;2248085314;2297;10487;1576584;-21;10697;1740350
1;38;1573264342546;1573264360902;18356;37852920680;6764481830;1699559841;1648662330;492720399;17148678;2239174471;2881;10079;2363616;-71;18357;2602145
1;39;1573264360903;1573264372302;11399;36587330776;6764434360;1926502873;1509762665;492713264;17154819;2248197148;2377;5760;1467368;83;11398;1727838
1;40;1573264372302;1573264391486;19184;35313000144;6764458682;1800875200;1470438218;492715977;17151481;2249184841;3260;11100;2469104;4;19185;2752788
1;41;1573264391486;1573264403486;12000;39340269984;6764436654;2222263140;1628522976;492714462;17153909;2241587860;2297;10520;1791328;-12;12000;1850409
1;42;1573264403486;1573264420407;16921;37845706674;6764449188;1994290041;1636553769;492713676;17154515;2239085928;2680;9919;2334192;5;16921;2430784
1;43;1573264420407;1573264432192;11785;36699577474;6764410248;2041003681;1522653244;492710350;17156846;2248242340;2418;6718;1607760;4;11785;1781366
1;44;1573264432192;1573264453645;21453;36301284218;6764492544;2057007076;1527918882;492720613;17153594;2245299575;3692;11717;2827152;-34;21453;3063435
2;0;1573264594704;1573264605718;11014;35360419192;6764583489;1789731538;1505270952;492742364;17152556;2242670585;0;0;0;0;0;0
2;1;1573264605718;1573264616460;10742;36631225676;6764500135;2302217055;1531794999;492721849;17151755;2240625993;1745;6588;1335976;-11;10742;1544942
2;2;1573264616461;1573264638238;21777;36474149532;6764485703;1808164467;1577172279;492720125;17153510;2243425258;3362;14487;3002760;28;21778;3201783
2;3;1573264638238;1573264649920;11682;35745720930;6764418643;1801895417;1496995412;492710783;17153256;2243243462;1987;7035;1328784;-5;11681;1671603
2;4;1573264649920;1573264668796;18876;36183146858;6764453506;1892414285;1552390773;492715571;17144336;2243561601;3205;12874;2652024;-8;18876;2857525
2;5;1573264668796;1573264695349;26553;37426055954;6764491401;2032228845;1560202643;492725122;17154212;2243937025;4846;16959;3304840;3;26553;3949311
2;6;1573264695349;1573264706512;11163;36709043968;6764427957;1799850482;1537265443;492712000;17149286;2243045309;2174;5521;1196608;5;11164;1589873
2;7;1573264706512;1573264724320;17808;37442305900;6764515797;1962814079;1604503776;492725705;17152257;2239577573;3185;11143;2341800;-22;17808;2638036
2;8;1573264724320;1573264736367;12047;39482488584;6764518216;1731926553;1683429934;492728066;17151932;2241770143;2173;3662;1488472;4;12047;1724773
2;9;1573264736368;1573264755879;19511;37911550192;6764507107;1792854922;1647633651;492726300;17148163;2238974602;3460;11695;2546720;-1;19512;2896952
2;10;1573264755879;1573264767716;11837;39232470008;6764471540;1833378458;1658141950;492720234;17151783;2240386543;2231;6087;1334848;9;11837;1689854
2;11;1573264767717;1573264786579;18862;37217836740;6764455780;1797407649;1604712537;492715567;17149040;2242862730;3436;10793;2389216;8;18863;2831102
2;12;1573264786579;1573264817557;30978;38872882520;6764427291;2129791157;1623195600;492713530;17153115;2241367591;6093;15833;3585400;-1;30980;4551422
2;13;1573264817560;1573264829402;11842;39602126970;6764458277;1721727036;1689037902;492717488;17159030;2241630593;2370;4660;1320024;-11;11843;1684948
2;14;1573264829402;1573264848078;18676;35881982000;6764473332;2049520897;1477832828;492718184;17151400;2243795828;3490;11701;2489048;17;18676;2750152
2;15;1573264848078;1573264878861;30783;37394041804;6764474132;1782761706;1550461316;492721404;17149947;2249466040;5360;18868;3619696;-15;30783;4400120
2;16;1573264878862;1573264912701;33839;36980904728;6764471285;2188003546;1527328817;492718807;17151824;2242660381;7791;14659;3359128;-44;33840;5081660
2;17;1573264912701;1573264923893;11192;36669346422;6764475716;1963007576;1519891975;492720846;17149903;2245278330;3088;3313;1000432;35;11192;1589214
2;18;1573264923894;1573264942726;18832;34933140264;6764460491;1845352980;1452165415;492716260;17155623;2246528433;3480;10041;2445728;8;18833;2703052
2;19;1573264942726;1573264954026;11300;37180403508;6764425790;1838553879;1544021872;492712580;17152251;2245258814;2603;7873;1263832;2;11301;1715043
2;20;1573264954027;1573264978459;24432;38375331456;6764502956;2391992037;1651468911;492723914;17149009;2239776648;4734;10953;2725896;13;24432;3621572
2;21;1573264978459;1573265007943;29484;37120783240;6764402173;1831321225;1561167964;492707505;17151053;2245807553;6451;13236;2982944;-102;29483;4325356
2;22;1573265007943;1573265019172;11229;36686593256;6764477549;2052121726;1517634932;492721109;17154234;2248935397;2689;3605;1161944;104;11230;1594336
2;23;1573265019172;1573265040107;20935;35816630210;6764439388;2019983379;1481056610;492712479;17148920;2243911963;3690;11421;2614728;-26;20934;3125269
2;24;1573265040107;1573265051614;11507;37524647272;6764566554;1804520916;1567008859;492737431;17155929;2246112538;2120;6977;1340744;27;11508;1643821
2;25;1573265051614;1573265072882;21268;35184732574;6764443092;1909170333;1496151051;492714065;17145968;2249133329;4080;10800;2449432;-11;21267;3149178
2;26;1573265072882;1573265084651;11769;38838331474;6764444670;1766747242;1643610783;492715391;17156626;2241567734;2086;3868;1410752;-8;11770;1682435
2;27;1573265084651;1573265103132;18481;36957021902;6764471424;1737361080;1598518204;492717408;17150871;2241704402;3478;11591;2465480;1;18481;2747007
2;28;1573265103132;1573265135148;32016;38217177686;6764441698;1865982974;1592250820;492715852;17159681;2241729398;5755;16538;3777960;11;32016;4657237
2;29;1573265135149;1573265168149;33000;38210926258;6764495635;1933462350;1612492320;492723648;17153618;2243973874;7138;16107;3638544;-55;33000;4831572
2;30;1573265168149;1573265201571;33422;37290852508;6764462898;2037338601;1532481300;492719039;17157780;2247295161;6778;14882;3541776;61;33422;5126296
2;31;1573265201571;1573265235489;33918;36414101338;6764527721;1972014495;1508889968;492728622;17149423;2249093309;7020;15824;3510424;-110;33919;4961489
2;32;1573265235490;1573265247179;11689;37079225216;6764456346;1977388331;1538018110;492718125;17155669;2245396442;2663;4433;1156960;95;11690;1645120
2;33;1573265247179;1573265266094;18915;36581461138;6764532617;2048064764;1562978954;492729092;17150292;2241283047;3632;10401;2427872;-6;18914;2861876
2;34;1573265266094;1573265297669;31575;37099052162;6764477917;1845805244;1565148545;492720839;17153361;2246585017;6409;16009;3239144;13;31576;4652607
2;35;1573265297670;1573265328172;30502;38023652204;6764451655;1747952744;1611636985;492716613;17148825;2245746381;6466;15908;3467448;-13;30503;4478255
3;0;1573265473589;1573265485147;11558;38438275998;6764542907;1725158845;1680683018;492737179;17155616;2240596519;0;0;0;0;0;0
3;1;1573265485147;1573265495914;10767;35611963906;6764494952;1967707530;1492129352;492723914;17154080;2244197752;1796;6757;1281720;-9;10767;1531412
3;2;1573265495914;1573265507042;11128;38165041962;6764503251;1692200168;1671141209;492723708;17151300;2239594060;2055;7533;1477792;13;11128;1718545
3;3;1573265507042;1573265518056;11014;38258017098;6764475670;1951320736;1672181545;492718977;17149755;2239667668;1732;5179;1499600;-9;11014;1584193
3;4;1573265518056;1573265529386;11330;37354841096;6764484084;2034101296;1547070077;492722304;17154896;2241109254;1857;6536;1401904;-16;11330;1611463
3;5;1573265529386;1573265551055;21669;35153545660;6764476720;2011408643;1482587275;492721442;17152593;2244777616;4537;11775;2673728;13;21669;3216687
3;6;1573265551055;1573265581498;30443;37438404342;6764506021;1777724825;1596939876;492726221;17152926;2244007494;6268;15976;3402192;-7;30443;4495105
3;7;1573265581498;1573265592241;10743;35546508456;6764444953;1822083919;1486614249;492714754;17152892;2244223535;2193;4786;1289976;16;10745;1539207
3;8;1573265592243;1573265610904;18661;34922953698;6764479513;1967071966;1477517025;492718022;17151888;2247624790;3773;11490;2362920;-10;18661;2787704
3;9;1573265610904;1573265641753;30849;36547091132;6764494136;2030763988;1501398928;492724245;17155008;2244949560;5978;15221;3332024;-2;30850;4523860
3;10;1573265641754;1573265672737;30983;36985680680;6764498637;1956892280;1525903602;492724639;17152912;2243284785;6502;16292;3494920;-16;30983;4561846
3;11;1573265672737;1573265683644;10907;35707230804;6764438896;2143733360;1458671464;492713691;17149926;2248875089;2604;3416;962920;30;10907;1569837
3;12;1573265683644;1573265704067;20423;36921368410;6764483405;1852671641;1600499252;492719399;17153694;2240364322;3642;10677;2496864;-20;20424;3041128
3;13;1573265704068;1573265734837;30769;39057286798;6764466957;1779772426;1688110928;492720818;17153845;2240014151;6225;15059;3479760;24;30770;4606697
3;14;1573265734837;1573265768267;33430;37342932606;6764441721;1939039816;1566308586;492714496;17156346;2243563829;6561;16514;3597304;-10;33429;4919314
3;15;1573265768267;1573265801802;33535;36643512890;6764439770;1879744738;1545547471;492713907;17151379;2245181893;7665;14824;3278984;-4;33537;4994854
3;16;1573265801803;1573265812619;10816;35752158070;6764485947;2062333159;1478722853;492721558;17152035;2245671533;2798;4440;1021376;-14;10815;1542937
3;17;1573265812619;1573265832356;19737;37960274918;6764500523;1699231029;1661023348;492724705;17148531;2239126066;3849;10816;2429864;5;19738;2943096
3;18;1573265832356;1573265865761;33405;37995238852;6764484608;1804419926;1611043094;492721626;17154711;2241490060;6769;14739;3531176;18;33405;4928010
3;19;1573265865761;1573265877956;12195;39460182266;6764484151;1911447037;1690734515;492723115;17153756;2240509973;2681;4579;1291560;-7;12195;1707135
3;20;1573265877957;1573265897795;19838;37720031188;6764429919;1732400707;1675322486;492712402;17148407;2239301441;3937;10703;2414800;3;19838;2952731
3;21;1573265897795;1573265931142;33347;37818537096;6764476543;1817199267;1599834027;492720535;17150286;2243089144;6731;17137;3536400;-71;33347;4945268
3;22;1573265931142;1573265960571;29429;38978422416;6764560592;1751676224;1671296874;492736895;17157184;2239933209;5979;15304;3677248;-35;29429;4328661
3;23;1573265960571;1573265972124;11553;37715291006;6764417222;2169568703;1548521979;492710749;17153305;2240468774;2068;5180;1269056;108;11554;1627944
3;24;1573265972125;1573265994175;22050;36070225640;6764514637;1873363696;1539281691;492725894;17150358;2245527203;3971;11003;2491152;-7;22051;3307727
3;25;1573265994175;1573266005693;11518;38162802614;6764479606;2353761295;1583870796;492722407;17153867;2242341443;2106;6255;1415480;9;11518;1646179
3;26;1573266005694;1573266025935;20241;35581507430;6764441507;2234903431;1497479390;492712755;17148657;2244305812;3921;10715;2576776;2;20242;3109330
3;27;1573266025935;1573266037517;11582;38605480600;6764439150;2141371685;1605793881;492714253;17149795;2241929649;2087;4586;1143816;-5;11582;1665159
3;28;1573266037517;1573266059536;22019;37883556882;6764429657;1736914570;1662398800;492711368;17152366;2239075575;4146;10128;2401848;-13;22018;3290294
3;29;1573266059536;1573266070363;10827;36287042794;6764455828;2076747671;1507414501;492715291;17154937;2243805244;2307;4191;1137024;11;10827;1521877
3;30;1573266070363;1573266086207;15844;36515096400;6764435596;1872620174;1570445469;492713271;17150636;2246829986;2707;11273;2200176;-14;15846;2276100
3;31;1573266086209;1573266097499;11290;37092143880;6764521228;2040018352;1522419084;492727808;17155106;2242749129;2426;11096;1573664;17;11290;1733523
3;32;1573266097499;1573266117248;19749;36228138656;6764420667;1844150933;1549807526;492709566;17153280;2245366892;3142;10356;2557880;-6;19750;2828809
3;33;1573266117249;1573266127923;10674;36026140940;6764461018;1896760112;1506829300;492717839;17154090;2248448537;2457;8332;1092760;5;10675;1668689
3;34;1573266127924;1573266151753;23829;37738561946;6764475768;1702789110;1663487225;492718860;17151025;2240257350;5143;7781;2418544;-98;23829;3402481
3;35;1573266151753;1573266182688;30935;38355516774;6764506030;2000083444;1614178361;492725585;17152233;2242337966;7359;12524;3232664;101;30935;4556013
4;0;1573266322889;1573266334103;11214;35047917142;6764595912;1794912728;1492194454;492743454;17150194;2242637502;0;0;0;0;0;0
4;1;1573266334103;1573266345928;11825;37633605612;6764430370;1946875183;1582718932;492712540;17149070;2241475930;1892;6949;1421632;-9;11826;1693720
4;2;1573266345928;1573266364533;18605;36242075962;6764428934;2127255443;1529301461;492710354;17148295;2240847364;2675;13432;2704160;-1;18605;2779508
4;3;1573266364533;1573266375903;11370;38122594506;6764481274;2143598670;1580174905;492720531;17151982;2240573543;1931;6267;1435920;0;11370;1619526
4;4;1573266375903;1573266394646;18743;37973707064;6764419395;1734273086;1669233435;492710518;17143914;2239273605;3366;11531;2521696;12;18742;2817286
4;5;1573266394646;1573266425119;30473;38429307072;6764429710;1952453421;1637813391;492712688;17148456;2244670321;5910;18048;3475504;-23;30474;4473265
4;6;1573266425120;1573266436181;11061;35898555628;6764409945;1914358676;1503377728;492709318;17148357;2246321927;2250;4402;1225760;-6;11061;1594668
4;7;1573266436181;1573266453798;17617;35081603722;6764406996;1924538371;1488564552;492706318;17145879;2242250969;3234;11564;2333848;14;17618;2665258
4;8;1573266453799;1573266487359;33560;37591677624;6764484535;1849000951;1591303370;492722646;17151596;2246025131;6343;16965;3877528;-43;33560;4912945
4;9;1573266487359;1573266498870;11511;37710436944;6764526639;1890906995;1596740979;492729107;17152238;2243540273;2752;4219;1113360;47;11512;1614735
4;10;1573266498871;1573266515750;16879;34458456158;6764422678;1918062849;1468553341;492710259;17147142;2247295730;2902;11245;2442240;-37;16880;2493036
4;11;1573266515751;1573266527124;11373;38220531598;6764483428;1784006000;1613937865;492720417;17152493;2244907238;1928;4779;1379504;23;11373;1630219
4;12;1573266527124;1573266550108;22984;38640758726;6764480030;2166307033;1684925605;492720675;17153296;2239792221;4109;11153;2626208;2;22985;3415195
4;13;1573266550108;1573266581740;31632;38033629552;6764443834;2151299804;1602148934;492714972;17147596;2242196424;6665;18586;3486040;-7;31631;4655369
4;14;1573266581740;1573266592594;10854;36267310456;6764402429;2086121548;1497067269;492707346;17149754;2247358891;2425;4345;1141144;22;10854;1552769
4;15;1573266592594;1573266611806;19212;35892234558;6764516265;2149551016;1507155782;492724351;17146467;2243599175;3435;11703;2504304;-2;19213;2880284
4;16;1573266611806;1573266645286;33480;37390953320;6764464088;2004789016;1543248189;492717822;17151708;2241376796;6369;18179;3727664;1;33480;4936926
4;17;1573266645286;1573266656558;11272;35896123852;6764428287;2317585466;1483109711;492712887;17157316;2249597168;2528;4441;1112808;0;11271;1611847
4;18;1573266656558;1573266675758;19200;37799086100;6764494329;2007035720;1648001503;492722406;17150351;2240535988;3946;10449;2342616;-19;19200;2897544
4;19;1573266675758;1573266687506;11748;38538337536;6764542994;2089839199;1614936164;492733347;17154109;2240622882;2286;3692;1368672;19;11748;1615701
4;20;1573266687506;1573266712208;24702;37578561714;6764479640;2220290240;1589576542;492719513;17147270;2239599618;4902;10767;2621080;9;24702;3649507
4;21;1573266712208;1573266745237;33029;38785841846;6764427802;1987273687;1639189157;492713317;17153389;2241389070;7135;15899;3445928;-2;33029;4896923
4;22;1573266745237;1573266776566;31329;37747399326;6764406886;1880155765;1584351610;492709078;17152035;2243725252;6679;15359;3389376;-21;31329;4629303
4;23;1573266776566;1573266810007;33441;38268621516;6764432819;2013795059;1619382969;492712353;17157728;2241692255;6549;15591;3356472;-6;33442;4884446
4;24;1573266810007;1573266838089;28082;38079547282;6764415509;1851062530;1598176301;492710977;17153959;2241568001;5476;15117;3419536;5;28081;4150686
4;25;1573266838089;1573266849338;11249;36236274652;6764439757;2190454819;1455707371;492714510;17151843;2241078510;2124;5500;1283272;19;11249;1604016
4;26;1573266849338;1573266874585;25247;36426815602;6764402200;2056433859;1549433701;492705803;17145089;2244485489;4510;11122;2644256;-8;25247;3773111
4;27;1573266874585;1573266885879;11294;37316888834;6764453965;1818816668;1576344646;492717680;17152152;2246007005;1995;5179;1199336;-5;11294;1615256
4;28;1573266885879;1573266907250;21371;35618999938;6764467185;2035088883;1498994680;492716286;17152732;2243306527;4240;11459;2790680;-6;21371;3173884
4;29;1573266907250;1573266939513;32263;38202992326;6764461709;1773512111;1636501217;492718144;17151902;2241928736;6134;18103;3642808;16;32264;4731836
4;30;1573266939514;1573266971645;32131;37236812506;6764439866;1988911711;1563355396;492713466;17154213;2243784297;7019;12653;3060224;-43;32132;4752362
4;31;1573266971645;1573266983320;11675;37309553648;6764451164;2035315700;1558218354;492716562;17156513;2244212671;2889;3873;1099488;42;11675;1673773
4;32;1573266983320;1573267003798;20478;38070078014;6764443840;1716421582;1688524552;492715909;17156177;2239422488;4180;10073;2444008;-18;20477;3054823
4;33;1573267003798;1573267015163;11365;38013935174;6764430733;1929463464;1588591727;492712902;17152973;2243329797;2193;8025;1346256;16;11366;1627362
4;34;1573267015163;1573267038153;22990;36755832734;6764438707;1901328041;1562300675;492712513;17160010;2240911303;4263;10281;2554552;-12;22989;3431039
