0;1;1573249808542;1573249822038;13496;40217382796;6764426869;1998656722;1682303550;492711795;17153797;2241676738;75;40;12816;0;137;813
0;2;1573249822039;1573249836045;14006;41070589130;6764441446;2026244675;1689189599;492713950;17152131;2241741186;481;4;8296;0;461;46866
0;3;1573249836045;1573249849118;13073;38177419696;6764446224;2089588329;1503366508;492714335;17148812;2244233793;41;1;44472;0;271;3062
0;4;1573249849119;1573249863954;14835;41181699072;6764485417;1935850311;1689632825;492723572;17150564;2242335189;81;34;12856;0;186;1025
0;5;1573249863954;1573249877329;13375;41302481660;6764547035;1852256258;1692226090;492732160;17153813;2241808102;6;0;1400;0;12;12
0;6;1573249877329;1573249891273;13944;40902100312;6764452096;1750408684;1664717453;492716372;17151866;2243526626;52;16;7120;0;122;569
0;7;1573249891273;1573249905174;13901;41623254756;6764495534;1725402243;1696861253;492723000;17157491;2241850825;6;0;1400;0;4;4
0;8;1573249905174;1573249918675;13501;41053273530;6764521033;1925935407;1672001529;492727383;17155889;2241921110;67;2;6552;0;103;734
0;9;1573249918676;1573249932813;14137;40430148596;6764451896;1784150818;1692258693;492716554;17153462;2242298301;4;0;1384;0;2;2
0;10;1573249932814;1573249947330;14516;41190790200;6764436145;1790707277;1693061294;492713948;17152029;2242776509;51;12;7392;1;163;543
0;11;1573249947330;1573249960967;13637;41550897156;6764502303;2013981057;1675035857;492723924;17150184;2241574345;11;0;1896;-1;15;19
0;12;1573249960967;1573249975107;14140;41323369442;6764518510;1803028434;1695192012;492726622;17152742;2242149830;8;0;1872;0;5;5
0;13;1573249975107;1573249989069;13962;40920468864;6764454411;1976165791;1692363445;492717340;17154540;2242953452;70;8;6880;0;110;774
0;14;1573249989069;1573250003061;13992;41554394002;6764460883;1951329788;1691389954;492717557;17149827;2242064274;5;0;1392;0;3;3
0;15;1573250003061;1573250017479;14418;41653064890;6764447089;1878380109;1696936063;492715739;17151303;2242462004;70;13;7448;0;117;824
0;16;1573250017479;1573250031882;14403;41273989614;6764462394;2047269043;1674704471;492717971;17155169;2241912461;13;0;1536;0;44;76
0;17;1573250031883;1573250045616;13733;41307850226;6764492775;1779907962;1686749793;492723523;17154524;2242492723;10;0;1432;0;4;9
0;18;1573250045616;1573250060002;14386;41673775574;6764420371;1985340328;1687275738;492711624;17148171;2241333464;73;12;8216;0;121;872
0;19;1573250060002;1573250074186;14184;41444950066;6764463439;1774200949;1683029328;492717731;17152288;2241772778;10;0;2336;0;6;9
0;20;1573250074186;1573250088377;14191;41448319308;6764466887;1714238161;1687241636;492719370;17152079;2242717657;8;0;1424;0;5;8
0;21;1573250088377;1573250102834;14457;41433524690;6764449689;1904974972;1688774006;492715830;17157777;2241508991;67;10;7064;0;96;716
0;22;1573250102834;1573250116662;13828;41161913444;6764491652;1850281941;1689674282;492723476;17149938;2242288774;4;0;1384;0;4;4
0;23;1573250116662;1573250130138;13476;41015404926;6764449221;1759285083;1688708997;492716133;17150844;2242457971;64;10;6864;0;105;655
0;24;1573250130138;1573250144878;14740;41404103500;6764471532;1760288891;1681473307;492720468;17145975;2243555514;9;0;1424;0;4;8
0;25;1573250144878;1573250158675;13797;41655326138;6764479901;1777371239;1678422685;492720917;17151126;2241849811;5;0;1392;0;4;4
0;26;1573250158675;1573250172043;13368;41420140140;6764470750;1723234708;1686144797;492719420;17151298;2241619131;72;10;7160;0;110;765
0;27;1573250172043;1573250186266;14223;41252339274;6764453139;1736368912;1678460512;492717088;17150727;2243640186;8;0;2320;0;6;6
0;28;1573250186266;1573250200661;14395;41230781206;6764458805;1798017584;1663282856;492717868;17153183;2245124257;9;0;1872;0;5;8
0;29;1573250200661;1573250215232;14571;41194358586;6764431908;1787772631;1676269280;492713699;17154543;2242002052;53;12;6888;0;90;494
0;30;1573250215232;1573250229301;14069;41040946750;6764464933;1900776945;1665752671;492716800;17152246;2242038912;7;1;1416;0;5;5
0;31;1573250229301;1573250243572;14271;40672409316;6764467520;1761487660;1671596343;492718862;17153290;2242537615;49;12;6984;0;111;527
0;32;1573250243572;1573250257749;14177;41361694880;6764440758;2296800622;1668747654;492714964;17149335;2241961059;12;0;1904;0;5;10
0;33;1573250257749;1573250271951;14202;41447735892;6764451132;2011583516;1676169109;492716264;17151153;2242056399;58;16;7960;0;105;584
0;34;1573250271951;1573250285980;14029;41581906826;6764435007;2226110290;1672186349;492713703;17151271;2241945615;4;0;1384;0;3;3
0;35;1573250285981;1573250300156;14175;41172536988;6764508196;1800746262;1675214496;492724801;17146135;2242739512;9;1;1440;0;4;8
0;36;1573250300156;1573250314298;14142;41202051180;6764447154;1733905772;1677479819;492715617;17151015;2242874271;35;14;6600;0;87;283
0;37;1573250314298;1573250328667;14369;41099262362;6764448312;1829228374;1664302461;492716402;17156978;2242064156;9;0;1424;0;4;8
0;38;1573250328667;1573250343045;14378;41214434754;6764444857;1758302246;1668336626;492714752;17150969;2242108070;46;16;6808;0;88;415
0;39;1573250343045;1573250357002;13957;40840217190;6764420958;1793648424;1647319009;492711416;17157411;2241604522;393;0;41008;1;1178;1402
0;40;1573250357002;1573250371321;14319;41273176248;6764448387;1738183264;1671427661;492716252;17156069;2241691201;72;6;6384;-1;286;315
0;41;1573250371321;1573250384485;13164;39981634698;6764490163;1819991580;1587384306;492721905;17153195;2245771036;45;24;8296;0;104;437
0;42;1573250384485;1573250398120;13635;40976519724;6764440874;1826329981;1633634651;492714645;17150201;2242768698;82;2;2168;0;30;1125
0;43;1573250398120;1573250412170;14050;41087075742;6764438554;2110860260;1629319263;492714358;17149156;2241628177;77;26;9552;0;156;837
0;44;1573250412171;1573250425940;13769;40751838426;6764420481;1810840969;1628526979;492711335;17148830;2241740655;5;0;1392;0;3;3
0;45;1573250425940;1573250439606;13666;41343843022;6764430008;1948423972;1636132282;492712962;17152477;2241946667;4;0;1384;0;4;4
0;46;1573250439606;1573250453122;13516;41125112392;6764450018;2025730262;1635999399;492715638;17148164;2242060520;47;20;7080;0;72;358
0;47;1573250453122;1573250467269;14147;41036316652;6764450374;2160750231;1637103181;492716195;17152779;2241727318;6;0;1400;0;4;4
0;48;1573250467269;1573250481730;14461;40992395472;6764447758;1802271255;1631919273;492715342;17150318;2242257244;8;1;1424;0;4;7
0;49;1573250481730;1573250495660;13930;40328873798;6764440063;1885433016;1589125537;492714351;17147439;2242655483;67;12;7056;0;106;787
0;50;1573250495660;1573250509768;14108;41212470762;6764461971;2172436606;1639968353;492718053;17151525;2242363433;14;0;2824;0;8;13
1;1;1573250678485;1573250691380;12895;39273582440;6764449621;1712312195;1683462364;492714411;17152551;2243059115;23;6;4288;0;38;50
1;2;1573250691381;1573250704532;13151;38410380070;6764424899;1873254001;1599042470;492711070;17152694;2242929618;83;52;12976;0;129;1194
1;3;1573250704533;1573250718908;14375;40680101764;6764511490;1722013627;1695420282;492725266;17146789;2242438144;64;1;42808;0;247;4013
1;4;1573250718908;1573250732125;13217;40845115636;6764449444;1777963045;1683307920;492715236;17148767;2242611947;49;28;10072;0;106;410
1;5;1573250732125;1573250746877;14752;41397306908;6764505089;1941114651;1685593506;492725288;17150582;2242970935;10;0;2792;0;8;8
1;6;1573250746877;1573250760779;13902;40670605486;6764473470;1723857346;1656664657;492719811;17146269;2245204933;9;0;1432;0;5;8
1;7;1573250760779;1573250775090;14311;41184256116;6764424608;1880421898;1691188494;492711747;17152765;2242936176;35;12;6664;0;74;257
1;8;1573250775090;1573250788742;13652;40363119412;6764429609;1736214280;1650572081;492711650;17151456;2243079220;9;0;1424;0;5;9
1;9;1573250788742;1573250802897;14155;40594125576;6764434690;1828243422;1689646045;492712362;17150501;2242210607;30;16;7480;0;79;196
1;10;1573250802897;1573250816195;13298;40678622492;6764448122;1948163461;1697286439;492715095;17148881;2242310046;10;0;1432;0;5;10
1;11;1573250816195;1573250830013;13818;41106398550;6764447483;1714734045;1688668280;492715191;17148826;2242677363;34;14;6656;0;71;251
1;12;1573250830013;1573250844168;14155;40951210916;6764432176;1777262919;1683842008;492713066;17154394;2242718536;6;0;1848;0;5;5
1;13;1573250844168;1573250858104;13936;41202704238;6764463048;1772100564;1673859089;492717615;17151847;2241926485;13;0;2368;0;7;13
1;14;1573250858104;1573250871627;13523;41276521108;6764416946;2101200227;1672594300;492709416;17149626;2245098109;26;22;6720;0;80;193
1;15;1573250871627;1573250886133;14506;41158824668;6764449939;1746321406;1683805004;492715530;17155008;2242769137;10;0;1432;0;5;10
1;16;1573250886133;1573250899962;13829;41223296516;6764421981;1742795093;1683987622;492710944;17150342;2242430097;39;24;7960;0;78;290
1;17;1573250899962;1573250913675;13713;41335386264;6764427362;1773772468;1688305121;492712844;17148651;2242853342;11;0;2344;0;8;12
1;18;1573250913675;1573250928545;14870;41388674220;6764434449;1723675645;1698110434;492712575;17150314;2242677591;12;2;1552;0;32;51
1;19;1573250928545;1573250942871;14326;41045216666;6764420527;2066643421;1655366370;492710029;17147682;2243823363;42;14;6816;0;81;324
1;20;1573250942871;1573250956957;14086;41650192486;6764419088;2029843699;1684797663;492710836;17149086;2242188066;11;0;2808;0;9;9
1;21;1573250956957;1573250971636;14679;41353204834;6764412105;1755484247;1691313314;492709185;17151829;2242318576;45;16;6936;0;87;394
1;22;1573250971636;1573250986205;14569;41097896532;6764421293;1742628274;1691420747;492710497;17146271;2242198013;6;0;1400;0;4;4
1;23;1573250986205;1573251000239;14034;41370070024;6764409975;1895040468;1671084031;492709662;17153312;2242397901;45;12;8224;0;97;318
1;24;1573251000239;1573251014321;14082;41266596174;6764382659;1736921013;1679047630;492705504;17146991;2243163276;6;0;1400;0;4;4
1;25;1573251014321;1573251028796;14475;40991513778;6764474805;1811959511;1670745538;492719580;17153174;2242729220;4;0;1384;0;4;4
1;26;1573251028796;1573251042542;13746;41494536776;6764429072;1774875527;1687983196;492712340;17149982;2243309175;46;21;7368;0;137;476
1;27;1573251042542;1573251056072;13530;40885246948;6764440694;1962126860;1677404327;492713730;17146356;2243165062;10;0;2784;0;7;7
1;28;1573251056072;1573251069376;13304;40765820408;6764421988;2079924011;1676196484;492710845;17148540;2242940190;44;14;6944;0;101;380
1;29;1573251069376;1573251083948;14572;41140106884;6764399694;1835365901;1692834809;492707451;17153262;2243865578;6;0;1408;0;3;3
1;30;1573251083948;1573251098101;14153;41358831236;6764442126;1910889279;1674699083;492713734;17151435;2242022187;45;18;8336;0;84;302
1;31;1573251098101;1573251111667;13566;39607799508;6764383549;1819746295;1653112257;492704202;17146862;2243291544;6;0;1400;0;3;3
1;32;1573251111667;1573251125611;13944;40879096698;6764423213;2084863246;1655928744;492711324;17153586;2243447155;9;0;1424;0;4;8
1;33;1573251125611;1573251139531;13920;40781823030;6764457282;1899914600;1647594415;492715995;17157049;2242031452;36;16;7136;0;92;273
1;34;1573251139531;1573251153819;14288;40831203734;6764430705;1796238915;1646334887;492712541;17144316;2242852503;11;0;2344;0;6;10
1;35;1573251153819;1573251167761;13942;40829580944;6764446773;1956102578;1651648600;492714762;17154943;2243019982;36;16;6976;0;86;296
1;36;1573251167761;1573251181266;13505;40802389904;6764444180;1739891497;1647463997;492713607;17152262;2243038832;4;0;1384;0;4;4
1;37;1573251181266;1573251194723;13457;41166727648;6764404035;1772023732;1669794524;492708639;17152732;2242050372;44;16;8352;0;80;271
1;38;1573251194723;1573251209777;15054;41405292086;6764448581;1999777373;1668272474;492714728;17148025;2243870137;5;0;1392;0;2;2
1;39;1573251209777;1573251224977;15200;41271572000;6764447570;1831737249;1669646744;492714791;17152752;2242563014;492;27;51488;0;1563;1939
1;40;1573251224977;1573251239066;14089;41029535244;6764438803;1854508409;1636694798;492713909;17149520;2242456314;9;0;2776;0;7;7
1;41;1573251239066;1573251253342;14276;41058436382;6764421276;1819018139;1639220846;492710301;17152302;2243033354;9;0;1424;0;4;8
1;42;1573251253342;1573251267382;14040;40986342750;6764421048;1799614481;1635134349;492710531;17149282;2243476328;115;18;7480;0;160;2148
1;43;1573251267382;1573251281207;13825;41523339072;6764422252;1821879314;1666012170;492711177;17151239;2242815574;11;2;2808;0;8;8
1;44;1573251281207;1573251294803;13596;41152789174;6764404000;1749303641;1650558911;492708160;17152766;2243515766;51;28;8744;0;121;581
1;45;1573251294803;1573251309223;14420;41503461318;6764420543;2008788081;1654513978;492710928;17149372;2242734234;9;0;1424;0;5;9
1;46;1573251309223;1573251323301;14078;41097829226;6764437098;1912935455;1647802303;492712781;17149841;2244556991;34;14;6808;0;73;225
1;47;1573251323301;1573251337247;13946;41309035162;6764429706;1759634406;1650677261;492712490;17149270;2243950596;11;2;2808;0;7;7
1;48;1573251337247;1573251351047;13800;41447631210;6764427511;1838566772;1651342559;492711776;17153377;2244094265;4;0;1384;0;3;3
1;49;1573251351047;1573251365491;14444;41082568138;6764474987;1797570910;1644129808;492718791;17149524;2245547161;49;12;6792;0;96;487
1;50;1573251365491;1573251379405;13914;41264225864;6764396701;1766325993;1664087920;492707283;17153288;2242368172;11;0;1896;0;6;10
2;0;1573251550078;1573251562411;12333;37842640820;6764540088;2073581157;1595368933;492735566;17152102;2241456348;0;0;0;0;0;0
2;1;1573251562411;1573251576813;14402;40502261354;6764446727;1929291241;1694503932;492714037;17151864;2241851176;73;48;13976;0;167;651
2;2;1573251576813;1573251590584;13771;40177332222;6764423883;1782443017;1685470929;492711361;17149795;2242525930;52;5;46368;0;298;2669
2;3;1573251590584;1573251604287;13703;40019418330;6764436252;1724544505;1676427718;492713545;17147602;2242602878;4;0;1384;0;3;3
2;4;1573251604287;1573251618097;13810;40898704352;6764453364;2110043915;1680033411;492716175;17149414;2241827111;467;32;14680;0;441;31721
2;5;1573251618097;1573251631992;13895;40555297460;6764425352;1802774729;1678614269;492712784;17153402;2242764951;5;0;1400;0;4;4
2;6;1573251631992;1573251645397;13405;40579672306;6764497275;1886572898;1675328091;492723363;17150572;2241876492;49;20;7024;0;75;419
2;7;1573251645397;1573251660181;14784;41466297894;6764411256;2172316374;1682971996;492709259;17152203;2241760598;6;0;1400;0;3;3
2;8;1573251660181;1573251674907;14726;41195136912;6764426657;1762865259;1680506152;492711138;17152803;2241720835;13;0;2368;0;7;12
2;9;1573251674907;1573251687829;12922;39750668830;6764422881;1927722966;1603449231;492711083;17149968;2243211724;51;18;7304;0;90;479
2;10;1573251687829;1573251702210;14381;41192289766;6764470594;1736600878;1682860708;492718663;17149731;2242075230;9;0;1432;0;4;8
2;11;1573251702210;1573251715898;13688;39948176462;6764423163;1803019512;1682242956;492710309;17146723;2241186371;42;19;6360;0;101;427
2;12;1573251715899;1573251729631;13732;40562163694;6764413644;1710658276;1683246178;492709605;17150022;2241949083;9;0;1424;0;4;8
2;13;1573251729631;1573251744643;15012;40950649692;6764440537;1752830752;1685237582;492713858;17152083;2241304852;32;22;6928;0;99;261
2;14;1573251744643;1573251758678;14035;41212881606;6764430240;1787533632;1693283889;492712072;17147989;2242649126;4;0;1384;0;4;4
2;15;1573251758679;1573251772297;13618;40339410910;6764412623;1780128772;1675800172;492709061;17154242;2242713824;8;0;1416;0;4;7
2;16;1573251772297;1573251786851;14554;41420687056;6764423510;1779108750;1687813578;492710376;17148020;2242033905;35;16;7984;0;89;188
2;17;1573251786851;1573251801157;14306;41154416928;6764408026;1795045074;1683366616;492708893;17152959;2242423320;9;1;1440;0;5;7
2;18;1573251801157;1573251815470;14313;41163460606;6764438820;1824323785;1688912589;492712924;17147904;2242686819;40;22;7504;0;94;311
2;19;1573251815470;1573251829263;13793;41401881964;6764400302;2040989698;1674129442;492706804;17151064;2242450472;9;0;1424;0;3;7
2;20;1573251829263;1573251844220;14957;41405494004;6764427531;2028838515;1685732511;492711937;17148730;2241793858;36;16;6744;0;76;263
2;21;1573251844220;1573251857856;13636;39498740574;6764447609;1911300521;1579835055;492714323;17151025;2246060626;8;0;1416;0;5;8
2;22;1573251857856;1573251872497;14641;41360465268;6764400775;2185492654;1671433910;492708229;17154791;2242315455;7;1;1424;0;5;5
2;23;1573251872497;1573251886917;14420;41525268608;6764433131;2126817321;1686618107;492712837;17154725;2242206230;48;14;7672;0;81;382
2;24;1573251886917;1573251901701;14784;41403578484;6764427994;2061731298;1674917765;492712301;17150221;2243185660;8;0;1864;0;5;5
2;25;1573251901701;1573251915623;13922;40747367176;6764407414;2054212871;1680881704;492709009;17153213;2241900756;52;14;6760;0;76;429
2;26;1573251915623;1573251930275;14652;41228538500;6764467146;1840073729;1665997105;492717957;17148465;2242748871;6;0;1400;0;12;12
2;27;1573251930275;1573251944472;14197;41194153456;6764450519;1752426539;1680882884;492714901;17153325;2242523884;10;0;1432;0;5;10
2;28;1573251944472;1573251959532;15060;41254915590;6764418552;1714923637;1683283091;492710732;17154254;2243064793;38;16;6720;0;73;309
2;29;1573251959532;1573251973194;13662;40508265312;6764457531;1716472513;1683744273;492716124;17151018;2242533584;6;0;1848;0;3;3
2;30;1573251973195;1573251987106;13911;41207288054;6764433427;1705840763;1675018912;492712764;17151901;2241530759;9;2;2344;0;5;5
2;31;1573251987106;1573252000705;13599;40194084116;6764409061;1827168836;1645288174;492707906;17148845;2242485136;50;12;6872;0;90;481
2;32;1573252000705;1573252015070;14365;41213603138;6764410337;1753141230;1675311026;492709222;17150338;2243363158;9;0;1424;0;12;16
2;33;1573252015071;1573252029252;14181;40901746554;6764440584;1866894665;1648085261;492713545;17149008;2242675113;6;0;1400;0;4;4
2;34;1573252029252;1573252044208;14956;41151966756;6764434234;1821700282;1656863127;492712791;17151559;2242499708;78;12;7376;0;142;1021
2;35;1573252044208;1573252058610;14402;41162036668;6764404902;1807402745;1646911799;492708596;17153966;2242620855;5;0;1392;0;4;4
2;36;1573252058610;1573252072362;13752;40952504330;6764387865;1793234128;1653969976;492704933;17152093;2243196614;44;17;6784;0;87;379
2;37;1573252072363;1573252086721;14358;41278211496;6764390810;1802526967;1652077344;492706161;17149027;2242014871;7;0;2312;0;6;6
2;38;1573252086721;1573252101348;14627;41000347508;6764455550;1930601524;1646917882;492715917;17150995;2242505163;363;8;41864;1;1070;1876
2;39;1573252101348;1573252114447;13099;39406045612;6764393706;1894181644;1582707776;492705456;17152343;2247208204;160;6;10176;-1;498;550
2;40;1573252114448;1573252128640;14192;41157951442;6764366365;1761657524;1649160743;492701508;17154127;2244030751;62;17;7720;0;90;617
2;41;1573252128640;1573252143116;14476;40711262982;6764423756;1858774681;1635999735;492711411;17154931;2242378925;83;0;2176;0;41;1209
2;42;1573252143116;1573252156953;13837;40832397868;6764418121;2061344797;1628306818;492710259;17150301;2241982129;4;0;1384;0;3;3
2;43;1573252156953;1573252171457;14504;40852388772;6764428423;2098933870;1627023387;492711689;17148215;2242620324;88;16;9472;0;148;1270
2;44;1573252171457;1573252185761;14304;39536981186;6764413975;2043189497;1565451043;492709461;17148887;2243940706;8;0;2320;0;6;6
2;45;1573252185761;1573252200026;14265;40738378832;6764451218;1797924277;1640006583;492715129;17151139;2243160006;66;12;7008;0;99;679
2;46;1573252200026;1573252214664;14638;40891848046;6764418386;1949105694;1645144831;492710675;17150979;2242493787;7;0;1416;0;4;4
2;47;1573252214664;1573252228901;14237;40954921944;6764447938;1936662007;1637875454;492715494;17151331;2242986520;55;16;7128;0;99;526
2;48;1573252228901;1573252243889;14988;41041017560;6764427709;1854837219;1644303617;492710870;17149598;2242093932;6;0;1408;0;3;3
2;49;1573252243889;1573252258420;14531;41118780372;6764479322;1799889924;1657992574;492720239;17154214;2243361126;13;0;2360;0;8;13
3;0;1573252423892;1573252436980;13088;37609108272;6764527423;1817612505;1568532100;492733228;17154725;2243443991;0;0;0;0;0;0
3;1;1573252436980;1573252450300;13320;39093936156;6764459832;1732939911;1683491675;492717018;17149652;2242333682;150;36;14328;0;234;3682
3;2;1573252450301;1573252464124;13823;39089806108;6764449284;1883581712;1676384277;492714680;17147016;2241461405;53;4;46368;0;300;2909
3;3;1573252464124;1573252478177;14053;40144270814;6764477375;1752322863;1669904997;492719750;17151746;2241492313;4;0;1384;0;4;4
3;4;1573252478177;1573252491380;13203;41042044670;6764460842;1767344487;1671404515;492717098;17151291;2241993954;530;13;15104;0;554;39122
3;5;1573252491381;1573252505452;14071;40823940672;6764448810;1715196076;1687682360;492716258;17151642;2242025858;5;0;1400;0;4;4
3;6;1573252505453;1573252519442;13989;40682383452;6764511893;1835352285;1669778207;492725487;17151260;2242354521;83;14;7464;0;148;1123
3;7;1573252519443;1573252532854;13411;40765684190;6764412369;1836622965;1680955834;492708962;17153557;2242229640;6;0;1400;0;3;3
3;8;1573252532854;1573252546314;13460;40939501570;6764432734;1845906751;1671051247;492712264;17152111;2242722325;85;6;7152;0;147;1210
3;9;1573252546315;1573252559762;13447;39408484834;6764400319;1723311907;1664164876;492707065;17150848;2243973789;6;0;1400;0;4;4
3;10;1573252559763;1573252573139;13376;41135686296;6764438024;1943677119;1694546628;492713720;17155830;2242254041;10;0;1880;0;6;9
3;11;1573252573139;1573252587552;14413;40994581384;6764428630;1708586000;1681776107;492712396;17147243;2242029204;77;12;7992;0;158;1032
3;12;1573252587552;1573252601436;13884;39151587614;6764409926;1959184138;1579262939;492708404;17151010;2244989061;4;0;1392;0;4;4
3;13;1573252601436;1573252616301;14865;41182618288;6764495421;2091808568;1688444240;492722589;17152531;2242827407;8;0;1416;0;4;7
3;14;1573252616301;1573252631017;14716;41248141628;6764434547;2055905518;1680014299;492712274;17153805;2242080580;75;2;6920;0;129;1018
3;15;1573252631017;1573252645287;14270;41025384464;6764444808;1801762512;1679052538;492713769;17149925;2242294370;10;0;1440;0;4;9
3;16;1573252645287;1573252659600;14313;41569963880;6764417257;2174450370;1685647902;492710441;17146189;2241973967;82;12;7952;0;146;1167
3;17;1573252659601;1573252673466;13865;41382971606;6764464709;2016944351;1678085888;492717727;17151923;2241393684;11;0;1448;0;5;11
3;18;1573252673467;1573252688240;14773;41256529474;6764459759;1740517775;1680818044;492716876;17153986;2242447255;88;2;8040;0;214;1253
3;19;1573252688240;1573252702013;13773;40929397786;6764389624;1737441922;1667085460;492705071;17144827;2242584717;8;0;1416;0;5;8
3;20;1573252702013;1573252716609;14596;41247780862;6764461689;1884383707;1678948516;492716876;17149347;2242274693;8;0;1432;0;4;7
3;21;1573252716609;1573252731162;14553;41604697134;6764446709;2072925069;1684589746;492714815;17152444;2243034993;79;8;6872;0;140;1109
3;22;1573252731162;1573252745311;14149;40878307276;6764450934;1928941806;1673892751;492714688;17148898;2241814382;6;0;1408;0;13;13
3;23;1573252745311;1573252759863;14552;41428084876;6764425769;1906985770;1682289357;492711126;17150561;2242459686;13;0;2368;0;6;11
3;24;1573252759863;1573252773533;13670;41269160226;6764452387;1922626383;1681982733;492716277;17153564;2242638603;75;2;7304;0;129;1049
3;25;1573252773533;1573252788268;14735;41160656092;6764411624;1854778477;1675967269;492709855;17154146;2243024223;10;0;1440;0;4;9
3;26;1573252788268;1573252802244;13976;41176831724;6764434836;1897093744;1676430305;492712542;17148684;2242103656;6;0;1400;0;4;4
3;27;1573252802244;1573252816288;14044;40520384918;6764429626;1946554424;1681083975;492711440;17149610;2242613601;75;8;6840;0;141;1081
3;28;1573252816288;1573252830607;14319;40856182582;6764411226;1903676738;1667393338;492708733;17148430;2242859548;8;0;1416;0;4;7
3;29;1573252830607;1573252844131;13524;40777097594;6764418689;1883531306;1697248725;492710356;17152360;2243570378;72;0;6680;0;129;928
3;30;1573252844131;1573252858863;14732;41646524820;6764410751;1995967833;1686762137;492709321;17150854;2242505432;13;0;2808;0;8;12
3;31;1573252858863;1573252872959;14096;40906440746;6764386781;2080859001;1651364183;492704894;17145026;2242567172;7;0;1408;0;5;6
3;32;1573252872959;1573252886921;13962;40384041066;6764412596;2065947037;1657458831;492709685;17148144;2243101651;77;8;6872;0;166;1094
3;33;1573252886921;1573252901060;14139;41163186564;6764403471;2075659379;1662709645;492707960;17151572;2243089898;7;0;1408;0;4;6
3;34;1573252901060;1573252915420;14360;41275780304;6764395403;2051870302;1656326374;492706495;17155620;2242563149;78;0;6952;0;144;1049
3;35;1573252915421;1573252929662;14241;41001448202;6764421670;1815557524;1650819790;492710364;17150510;2244096369;7;0;1856;0;6;6
3;36;1573252929662;1573252944247;14585;41056534878;6764418334;1941205992;1656162414;492710609;17154074;2242544015;12;0;2360;0;7;12
3;37;1573252944247;1573252958997;14750;41164727448;6764461054;2021042660;1659950840;492716867;17153115;2242299312;79;8;6992;0;160;1155
3;38;1573252958997;1573252973561;14564;41091919584;6764444710;1905587222;1660945066;492713852;17154561;2243431512;9;0;1424;0;4;8
3;39;1573252973561;1573252988101;14540;41179576816;6764415546;2107516009;1670694624;492710057;17150199;2242193013;535;18;51640;0;1680;3053
3;40;1573252988102;1573253001869;13767;40892347220;6764413844;2197261362;1627820282;492709342;17151578;2242042092;8;0;1416;0;6;9
3;41;1573253001869;1573253015859;13990;40914273354;6764435999;1950092395;1639828407;492713281;17153750;2243019117;74;8;7768;0;196;1055
3;42;1573253015860;1573253029556;13696;40935193548;6764449514;1816841666;1643526421;492715101;17152830;2242567389;81;2;2616;0;36;1073
3;43;1573253029556;1573253042934;13378;40614198824;6764442847;1855759195;1627312597;492713854;17144310;2243482386;8;1;1432;0;4;7
3;44;1573253042934;1573253057083;14149;40688709194;6764438331;1764653875;1647387473;492713764;17157159;2243231176;79;16;8680;0;180;1235
3;45;1573253057083;1573253071341;14258;40762953260;6764454560;1824162571;1647408883;492715399;17147374;2242568102;9;0;1424;0;4;8
3;46;1573253071341;1573253086058;14717;41194932512;6764424430;1996189131;1647561456;492710977;17144774;2242761137;79;8;7056;0;143;1150
3;47;1573253086058;1573253101043;14985;41250154676;6764463687;1991726997;1649304861;492717544;17150868;2242390838;12;2;2816;0;8;9
3;48;1573253101044;1573253115410;14366;41125989122;6764433721;1922794348;1651702354;492712353;17152789;2242370318;5;0;1392;0;3;3
3;49;1573253115410;1573253129634;14224;40903601776;6764413182;2103521038;1640237913;492709256;17152539;2242943206;66;14;7080;0;104;703
4;1;1573253315383;1573253328204;12821;38192815396;6764398451;1745400621;1582028997;492706873;17148144;2244417491;16;6;4200;0;33;35
4;2;1573253328204;1573253342184;13980;41042034304;6764431696;1725802376;1696915641;492712491;17155077;2242428228;82;38;13000;0;135;835
4;3;1573253342184;1573253356399;14215;40945052490;6764432428;1820231052;1684456790;492712936;17146257;2242113967;142;1;47184;0;354;27094
4;4;1573253356399;1573253371042;14643;40964666860;6764411302;1775278484;1684125450;492709434;17153867;2241928342;9;0;1464;0;5;9
4;5;1573253371042;1573253385158;14116;40982484846;6764457138;1718684961;1692128079;492717239;17147746;2242400370;45;30;9624;0;114;360
4;6;1573253385158;1573253399417;14259;40947775390;6764451393;1710395634;1685653428;492716221;17154641;2241984955;11;0;1448;0;4;10
4;7;1573253399417;1573253413658;14241;41078560584;6764432472;1712516646;1684032710;492712570;17149668;2241855690;32;14;7248;0;74;178
4;8;1573253413658;1573253427319;13661;41063632084;6764416779;1718729507;1692192724;492710290;17155282;2241599442;9;2;1896;0;6;8
4;9;1573253427319;1573253440763;13444;40328043788;6764455965;1775976499;1682875785;492715898;17151156;2242195129;6;0;1848;0;4;4
4;10;1573253440763;1573253455078;14315;41723424626;6764478969;1930288334;1690726250;492719932;17150188;2242486043;41;12;6632;0;70;287
4;11;1573253455078;1573253469176;14098;41324784328;6764483270;1712959519;1687603625;492720394;17153767;2242335907;5;0;1400;0;3;3
4;12;1573253469176;1573253482946;13770;40813997050;6764416384;1708165888;1683833122;492709097;17153294;2242045819;30;18;6840;0;73;132
4;13;1573253482946;1573253497430;14484;40806172764;6764431784;1742785280;1682073094;492712256;17153863;2242851630;4;0;1384;0;4;4
4;14;1573253497430;1573253511670;14240;41152036836;6764436001;1741675544;1681518273;492713425;17153927;2242841423;7;0;2312;0;6;6
4;15;1573253511670;1573253525654;13984;41457070548;6764446037;1773154670;1682852060;492714474;17155294;2242190603;36;22;7864;0;89;194
4;16;1573253525655;1573253539651;13996;40381989912;6764472869;1861590179;1682628721;492718358;17147091;2242286364;6;0;1408;0;3;3
4;17;1573253539651;1573253553833;14182;41355393228;6764460952;1904101905;1686940462;492716827;17148251;2243032527;37;10;6784;0;70;221
4;18;1573253553833;1573253567609;13776;41250986438;6764442548;1773536881;1679263476;492714056;17153790;2242656790;11;2;1544;0;30;54
4;19;1573253567609;1573253581696;14087;40323125632;6764441844;1927183085;1627707588;492713465;17153258;2245068545;11;0;1448;1;4;10
4;20;1573253581696;1573253595162;13466;41457983778;6764460516;1780688447;1682195776;492716719;17155328;2242096677;42;18;7704;-1;94;389
4;21;1573253595163;1573253609263;14100;41284055000;6764469885;1926131554;1676743652;492718702;17149639;2242421162;11;0;1896;0;6;11
4;22;1573253609263;1573253623725;14462;41472110008;6764416932;2009302071;1684032241;492710490;17142095;2242171457;33;14;6664;0;77;237
4;23;1573253623725;1573253637499;13774;41367802498;6764434101;2105060620;1689275183;492712823;17151668;2242422033;10;0;1432;0;4;9
4;24;1573253637500;1573253652061;14561;41524574670;6764491523;2155398513;1676005618;492722214;17144315;2241560543;5;0;1392;0;3;3
4;25;1573253652061;1573253666230;14169;41369719332;6764412312;1713312760;1686648778;492709673;17149354;2242434520;33;18;6648;0;77;263
4;26;1573253666230;1573253679866;13636;41422096978;6764445045;1744908340;1678655107;492715111;17154510;2242388249;13;0;2360;0;7;12
4;27;1573253679866;1573253693931;14065;41866324024;6764440403;1854211131;1675546901;492713076;17147127;2242245540;6;0;1856;0;5;5
4;28;1573253693931;1573253708262;14331;41473989320;6764433407;1768473454;1680220628;492712398;17143798;2242493866;42;16;6832;0;96;358
4;29;1573253708263;1573253722060;13797;41268064350;6764434084;1814640299;1704009408;492712195;17152669;2242563186;4;0;1384;0;4;4
4;30;1573253722060;1573253736118;14058;41397592484;6764385829;1770740906;1691061252;492704837;17152306;2242266159;43;12;6568;0;70;304
4;31;1573253736118;1573253749943;13825;40482225774;6764444251;1734394500;1677435971;492713794;17154095;2241807495;6;0;1400;0;3;3
4;32;1573253749943;1573253764593;14650;41731196060;6764438434;2226455241;1677863781;492713989;17145625;2242715928;12;0;1904;0;7;12
4;33;1573253764593;1573253779011;14418;41283879654;6764442328;1738108170;1669071777;492714067;17149966;2242174753;34;18;7512;0;78;233
4;34;1573253779011;1573253792803;13792;41267627226;6764432229;1744505522;1667818472;492712569;17148148;2241953250;10;0;1432;0;5;10
4;35;1573253792803;1573253807014;14211;41397664900;6764444399;2017780220;1666715761;492714655;17149038;2242319397;5;0;1400;0;2;2
4;36;1573253807014;1573253821326;14312;41404046560;6764389169;2159424291;1666023735;492705889;17155157;2242852194;35;12;6440;0;80;232
4;37;1573253821326;1573253835811;14485;41061856432;6764446080;1804928515;1663593816;492714094;17148952;2242038095;4;0;1384;0;4;4
4;38;1573253835812;1573253850156;14344;41367536632;6764404353;1957378201;1669163050;492708048;17150055;2241996820;42;10;7128;0;76;329
4;39;1573253850156;1573253863924;13768;41128408926;6764467078;1949556571;1666415037;492719076;17150287;2242007199;11;0;1904;0;5;10
4;40;1573253863925;1573253878284;14359;41256969664;6764403872;2027195354;1669871412;492708232;17153457;2242525254;7;0;1856;0;4;4
4;41;1573253878285;1573253892808;14523;41141490234;6764433299;1822232183;1669163448;492713160;17146672;2242706152;494;20;50576;0;1536;2023
4;42;1573253892808;1573253906796;13988;40729341578;6764460740;2035144651;1630929762;492717021;17152587;2241660596;6;0;1400;0;4;4
4;43;1573253906796;1573253920493;13697;41040161124;6764393299;1807058081;1637043933;492705845;17153172;2243065680;46;18;7648;0;104;453
4;44;1573253920493;1573253934815;14322;41240293690;6764460576;2012487137;1645793403;492716335;17151588;2242938928;83;0;2184;0;47;1840
4;45;1573253934815;1573253949407;14592;41177560556;6764395127;1994678358;1644933089;492706426;17144067;2242646397;12;0;1896;0;5;10
4;46;1573253949407;1573253964158;14751;41238314076;6764463490;1943464350;1641282552;492717004;17150722;2242088182;54;26;9680;0;148;603
4;47;1573253964158;1573253978176;14018;41042936000;6764457045;1812094460;1646534727;492716079;17147990;2242107528;11;0;1448;0;5;11
4;48;1573253978176;1573253991907;13731;40909398998;6764417526;1803516842;1644107680;492710007;17149286;2244545913;5;0;1392;0;4;4
4;49;1573253991908;1573254006035;14127;41555743480;6764465012;2119568497;1645463810;492717392;17151775;2242120101;42;18;6960;0;89;332
4;50;1573254006035;1573254020759;14724;41369631002;6764435842;1820398025;1649482064;492712764;17153660;2243091206;5;0;1392;0;4;4
