0;3;1573245416537;1573245430075;13538;39184746112;6764421996;1869992265;1499051795;492710544;17141490;2252678476;1454;1765;52616;0;893;20284
0;4;1573245430075;1573245444900;14825;42952569718;6764444585;1781805652;1678494740;492715973;17150975;2243309652;1111;2401;96144;0;1043;63178
0;5;1573245444900;1573245458276;13376;39208663686;6764485004;1918941200;1506658847;492721274;17149549;2250185815;1938;833;45744;0;617;5952
0;6;1573245458276;1573245472126;13850;41430589068;6764410586;1790681897;1609269791;492708943;17145569;2247646456;838;2096;81120;0;795;36711
0;7;1573245472126;1573245485598;13472;40360597116;6764418438;2020088527;1540149384;492710053;17148756;2247391031;1515;1016;41760;0;439;4427
0;8;1573245485598;1573245500935;15337;41295094936;6764432604;2070065814;1587101085;492713070;17152367;2244622613;1196;2006;78216;0;849;23511
0;9;1573245500935;1573245514118;13183;38886804496;6764417953;1978271514;1499802322;492709546;17151177;2251905803;1342;1140;40960;0;458;3944
0;10;1573245514118;1573245527394;13276;39799918280;6764445656;1878310745;1547166313;492715815;17146685;2249548902;1239;1894;84032;0;897;32828
0;11;1573245527394;1573245540284;12890;38893819650;6764394193;2096785968;1481160176;492705711;17147724;2252668940;773;1643;39864;0;303;1845
0;12;1573245540284;1573245553305;13021;39353131854;6764444987;1998839960;1497241272;492713874;17153170;2253117299;1711;643;38848;0;481;4981
0;13;1573245553305;1573245567178;13873;41466033488;6764402545;1780722490;1639125338;492707670;17151652;2242492175;883;2073;74416;0;795;13645
0;14;1573245567178;1573245580316;13138;39572113020;6764412568;2030959465;1548845368;492709000;17150289;2247390549;1551;995;42016;0;545;5047
0;15;1573245580316;1573245593315;12999;39658472750;6764448787;2056907475;1519110585;492714452;17154744;2249038402;1111;2140;90384;0;1163;62933
0;16;1573245593315;1573245607237;13922;41501058304;6764403304;2000875543;1621799038;492707933;17150135;2244215951;1650;1430;76928;0;1000;39677
0;17;1573245607237;1573245620333;13096;39090545598;6764412316;1893421514;1492672043;492709253;17152132;2252011403;1053;1336;39376;0;321;2613
0;18;1573245620333;1573245633933;13600;39386241004;6764480473;2020434876;1494543221;492719646;17154769;2252074467;709;1659;39072;0;248;1275
0;19;1573245633933;1573245647231;13298;39556838938;6764478178;2276487732;1485078774;492718460;17148932;2252372945;915;2007;85472;0;883;52000
0;20;1573245647231;1573245660504;13273;39223305150;6764408372;2077395771;1492669950;492708101;17148970;2252664968;1430;1007;40168;0;409;4368
0;21;1573245660504;1573245674183;13679;39378563156;6764444850;2160114556;1491790917;492714209;17148537;2248530710;1260;1845;74968;0;750;27079
0;22;1573245674183;1573245688285;14102;41386877982;6764419170;1933375498;1593113629;492710876;17144684;2244253623;1451;1210;43864;0;472;4377
0;23;1573245688286;1573245701445;13159;40072387860;6764454062;2100235114;1523194415;492715162;17145811;2248795335;1006;1693;66216;0;666;13894
0;24;1573245701446;1573245715310;13864;39735934948;6764465149;2124903972;1502960785;492718071;17151882;2250874891;971;1658;43336;0;392;2712
0;25;1573245715310;1573245729162;13852;40749404314;6764398769;2088837870;1562937501;492707021;17154039;2245180232;1543;1163;44656;0;457;4171
0;26;1573245729162;1573245742004;12842;39085365372;6764452551;2104059622;1528926888;492714920;17150786;2252241749;930;2004;70120;0;665;18491
0;27;1573245742004;1573245757212;15208;41074554344;6764419961;1790625689;1572969205;492710192;17151924;2244951450;1792;919;44696;0;548;5534
0;28;1573245757212;1573245770629;13417;39198708092;6764439661;1876109985;1488222970;492712673;17147175;2251468211;1021;2003;82976;0;811;45413
0;29;1573245770629;1573245784107;13478;40605175294;6764445405;2168183232;1548862309;492713941;17145753;2247195630;1671;975;43608;0;484;4883
0;30;1573245784107;1573245797870;13763;39451218012;6764391820;1815940139;1506552506;492705485;17149752;2248218530;932;1950;81856;0;791;35942
0;31;1573245797870;1573245811174;13304;39598670858;6764418729;1963594231;1534910804;492709634;17146461;2247127815;1427;1267;44400;0;502;3940
0;32;1573245811174;1573245825384;14210;41022693246;6764473954;2002153418;1574718370;492718833;17149217;2249279765;1398;1827;86152;0;1001;54217
0;33;1573245825385;1573245837531;12146;38681833782;6764399358;2227099684;1455202988;492706359;17151057;2246374648;871;1570;40296;0;394;2442
0;34;1573245837531;1573245851010;13479;40030872614;6764451623;2260779968;1506058885;492714881;17148061;2244586236;1482;971;40480;0;429;4031
0;35;1573245851010;1573245864345;13335;39082208122;6764429594;2137692899;1482308309;492711501;17151134;2252155297;1186;1987;88008;4;945;73925
0;36;1573245864345;1573245878012;13667;40384436580;6764468964;2200418209;1515454597;492718270;17147816;2250779317;1645;877;41784;-4;460;4791
0;37;1573245878012;1573245891202;13190;39689831652;6764448730;1889081789;1504616951;492713950;17150154;2247856490;974;1897;71592;0;949;69214
0;38;1573245891202;1573245904268;13066;39284387170;6764455970;1897909590;1479960170;492715313;17148939;2252439124;1313;1172;40960;0;459;4296
0;39;1573245904268;1573245918677;14409;38915905070;6764436599;1817184067;1474457297;492712111;17151034;2252482868;2302;1761;134424;0;3439;184914
0;40;1573245918677;1573245932194;13517;39177603646;6764426336;1873380559;1482029791;492710731;17154235;2248344671;1136;1670;46248;0;537;3013
0;41;1573245932194;1573245944928;12734;38597376286;6764431770;2157714986;1477675889;492711979;17146553;2249162772;1169;2008;88352;0;1193;121671
0;42;1573245944928;1573245958264;13336;38848090406;6764447702;1953622883;1493872649;492713770;17152464;2252421985;1246;1464;44664;0;415;3654
0;43;1573245958264;1573245970883;12619;39159938376;6764411001;1984121869;1479873243;492707958;17149067;2248839057;1163;1141;38016;0;435;3141
0;44;1573245970884;1573245984858;13974;40599357048;6764464632;1970567654;1552843689;492717167;17148203;2245875804;1305;2005;83496;0;1173;89342
0;45;1573245984858;1573245998397;13539;39208745008;6764406967;1974266658;1481158471;492707896;17152086;2247924933;1726;649;39120;0;457;5048
0;46;1573245998398;1573246011707;13309;41084629220;6764443461;1755054005;1579572854;492713562;17148022;2244138139;969;1940;72600;0;779;37805
0;47;1573246011707;1573246025296;13589;38602091356;6764412529;1826628895;1460142132;492708567;17147430;2249568477;1613;985;42816;0;493;4992
0;48;1573246025296;1573246038059;12763;38579083070;6764400122;1904643084;1462173789;492706701;17146395;2253262183;1132;1722;69464;0;846;57149
0;49;1573246038059;1573246051198;13139;38547256530;6764438577;1898808726;1463220147;492712709;17151654;2248727878;1039;1431;40704;0;351;2909
0;50;1573246051199;1573246064325;13126;38533354994;6764454317;1851331891;1463288183;492715061;17154141;2247186288;1381;1067;40392;0;436;4109
0;51;1573246064325;1573246078110;13785;41026084972;6764441421;2005977047;1572844917;492713095;17149628;2244749674;984;2104;75616;15;812;41639
0;52;1573246078110;1573246091654;13544;38488872736;6764450231;1801353574;1463945163;492714525;17155150;2249987919;1692;809;41232;-15;480;4869
1;2;1573246244251;1573246258264;14013;39129212384;6764495803;2455537189;1494970391;492721683;17156193;2252420646;1798;1929;97632;0;1458;42944
1;3;1573246258267;1573246271114;12847;39436110370;6764444696;1928655186;1514905208;492714537;17149227;2249911211;702;1680;40160;0;539;1637
1;4;1573246271114;1573246284974;13860;40387439654;6764448615;2050445144;1527024814;492715340;17146591;2245587688;1449;1909;89488;0;1370;110789
1;5;1573246284974;1573246299635;14661;41999826424;6764496773;1868345733;1632956067;492725808;17146749;2243936521;1573;1054;43352;0;459;4856
1;6;1573246299635;1573246312709;13074;39397273494;6764532674;1884172590;1506239307;492729043;17153037;2248675337;1089;1682;73176;0;796;39747
1;7;1573246312709;1573246326976;14267;39638459070;6764464986;1961320587;1508155813;492718302;17151182;2249310110;1586;1260;47848;0;598;4787
1;8;1573246326976;1573246341378;14402;41800971942;6764448683;2062444805;1607636032;492716674;17148030;2243963425;1161;1937;80768;0;971;65684
1;9;1573246341378;1573246354808;13430;39045027470;6764446144;1955134947;1525100143;492714548;17148684;2248738409;1060;1568;43352;0;396;3126
1;10;1573246354808;1573246367589;12781;38390637074;6764482464;2068373797;1491079756;492721081;17150501;2250408429;1356;1161;41488;0;453;3345
1;11;1573246367589;1573246381585;13996;40987266346;6764435949;2142708339;1604804058;492713933;17158518;2243925469;1376;1989;82560;0;1006;47044
1;12;1573246381585;1573246394826;13241;39091068132;6764430196;2022256206;1522083545;492712389;17147846;2248015502;1553;1138;44400;0;515;4149
1;13;1573246394826;1573246408978;14152;41926608884;6764421950;2110644082;1620314616;492711643;17154520;2242760010;1126;2029;87800;0;907;80260
1;14;1573246408978;1573246423626;14648;42856245634;6764453082;1871605971;1663135912;492717017;17152249;2244841081;1537;1058;42816;0;546;4913
1;15;1573246423626;1573246437469;13843;39201646196;6764433964;1833921011;1502580012;492712809;17149165;2250790634;1045;1856;72904;0;839;37212
1;16;1573246437469;1573246451542;14073;40746220784;6764447263;1851410214;1587991947;492715655;17150061;2242650321;1629;1095;44936;0;544;5227
1;17;1573246451542;1573246465028;13486;39476595148;6764445577;2035992708;1532251611;492715278;17150675;2247117975;841;2156;76296;0;653;22877
1;18;1573246465028;1573246478780;13752;39187544494;6764431920;1998274152;1482190290;492712578;17149243;2249563859;1101;1836;68920;0;854;32180
1;19;1573246478780;1573246491729;12949;38788973400;6764423500;1961000015;1469293249;492710783;17150814;2253276499;1480;670;35472;0;453;4597
1;20;1573246491729;1573246505441;13712;40006535144;6764479412;1857528274;1530415717;492720079;17151027;2246755762;656;1876;41768;0;316;1256
1;21;1573246505441;1573246518531;13090;38792672602;6764440342;2031488295;1505403494;492713896;17154765;2249893810;964;2001;83664;0;873;61158
1;22;1573246518531;1573246532172;13641;39998230226;6764529549;1851379539;1545332882;492729178;17148374;2248033594;1883;697;42536;0;562;5629
1;23;1573246532172;1573246545794;13622;39752468572;6764475477;2034756342;1509775174;492719374;17153986;2248538356;855;2087;80016;0;913;32136
1;24;1573246545794;1573246560168;14374;42668767326;6764547439;1894234454;1655069090;492733118;17156633;2244010233;1460;977;40168;0;402;4332
1;25;1573246560168;1573246574129;13961;40874447766;6764446497;1927926049;1562818383;492715813;17152836;2244382298;1113;1913;85544;0;796;45410
1;26;1573246574129;1573246588457;14328;42073061922;6764495794;1988432550;1625291029;492723511;17154978;2244585488;1345;1207;42112;0;460;4061
1;27;1573246588457;1573246602452;13995;40524227930;6764463842;1749574924;1556478320;492718310;17148791;2246083689;1334;1749;83208;0;992;60359
1;28;1573246602452;1573246616430;13978;40367737246;6764443396;1770735326;1572472652;492714723;17154099;2246367957;1137;1428;42280;0;368;3016
1;29;1573246616430;1573246630391;13961;39875433422;6764478740;1949700803;1510944553;492719886;17159026;2244062416;1542;1446;62696;156;692;38111
1;30;1573246630391;1573246645015;14624;41998975390;6764464354;1838356661;1628348237;492718081;17155630;2244573988;1221;1813;70640;-156;745;40918
1;31;1573246645015;1573246658465;13450;39951343348;6764510406;2171167401;1542201954;492725183;17150604;2247487399;1568;1008;42504;0;484;4266
1;32;1573246658465;1573246671780;13315;38803742468;6764445714;1870209277;1512063057;492715205;17154133;2246208004;970;2090;74608;0;748;24675
1;33;1573246671780;1573246684838;13058;38824254884;6764464648;1926223315;1493959386;492717957;17152890;2252407140;1752;653;39640;0;493;5110
1;34;1573246684838;1573246699019;14181;41568750620;6764438250;2363826964;1602332761;492714037;17153122;2244405552;824;2054;70536;0;711;24463
1;35;1573246699019;1573246712204;13185;38994121942;6764417623;1852662414;1481000820;492709944;17149795;2246504804;1555;961;41480;0;466;4938
1;36;1573246712204;1573246725584;13380;39571190738;6764488798;1792573749;1514531279;492721355;17145369;2246733872;1008;1778;70280;0;751;32897
1;37;1573246725584;1573246740403;14819;41039120582;6764492010;1982099694;1573566949;492722133;17152747;2246734268;1164;1448;43064;0;372;3282
1;38;1573246740404;1573246754211;13807;40141154590;6764510310;1968450213;1539841926;492725945;17155401;2247374348;1551;1360;75192;0;910;35506
1;39;1573246754211;1573246768023;13812;40440715784;6764497043;1818552430;1555033189;492722959;17152743;2247254669;742;1694;40160;0;311;2068
1;40;1573246768023;1573246781203;13180;38857544344;6764461520;1944121822;1474750379;492716810;17147302;2251814621;1327;1025;38808;0;381;3567
1;41;1573246781203;1573246794329;13126;39464800100;6764470052;2111071102;1500077699;492718499;17148367;2247627833;928;1871;70880;0;831;28185
1;42;1573246794329;1573246808116;13787;38538077072;6764457126;2124336932;1453680677;492716657;17155994;2248574252;1803;857;43856;0;543;5447
1;43;1573246808116;1573246821806;13690;39649647196;6764448533;2061666479;1514056375;492715741;17151390;2247355744;1229;2064;113968;0;2750;32512
1;44;1573246821806;1573246835541;13735;38810416712;6764454168;1937782329;1475274809;492716034;17147561;2251596437;1475;945;39896;0;465;4582
1;45;1573246835541;1573246848717;13176;38482447130;6764438825;2190134946;1439225108;492713854;17147452;2247942753;1466;1624;87344;0;1113;95520
1;46;1573246848717;1573246861643;12926;38690256522;6764507324;2056846577;1466591854;492724167;17146685;2247760265;986;1432;39368;0;362;4300
1;47;1573246861643;1573246876100;14457;41484966038;6764481651;2051036534;1594912532;492720908;17150669;2244533795;1312;1253;42328;0;469;3693
1;48;1573246876100;1573246889427;13327;38794979256;6764454889;2182714178;1469177919;492716358;17148917;2251502548;807;1888;82224;0;831;48208
1;49;1573246889427;1573246902789;13362;38746324610;6764483861;1949555906;1470161155;492720353;17151975;2251201061;1786;646;40128;0;471;5150
1;50;1573246902790;1573246917304;14514;41660119026;6764442102;2091946774;1601340926;492714685;17148964;2245076233;863;2092;73664;0;808;26014
1;51;1573246917304;1573246930690;13386;38627402646;6764406637;1940298537;1461601226;492708362;17152251;2247810206;1481;844;38320;0;455;4461
2;3;1573247101787;1573247116210;14423;41240816370;6764420475;1789896414;1598707580;492711073;17148779;2246265112;1053;1795;47080;0;520;4446
2;4;1573247116210;1573247129481;13271;39084967668;6764482999;1921501421;1491186014;492720052;17145879;2251765914;1001;1875;81000;0;773;34655
2;5;1573247129481;1573247142575;13094;38877233466;6764456091;1975403109;1488149065;492716382;17150218;2254164008;1515;920;40184;0;446;4373
2;6;1573247142575;1573247156488;13913;39971994026;6764545026;2234356919;1513897025;492730369;17155131;2248775280;1210;1784;79360;0;855;43891
2;7;1573247156488;1573247170595;14107;42455765736;6764409144;2130728096;1638897910;492709097;17153959;2242812522;1446;1168;43896;0;496;4364
2;8;1573247170595;1573247183899;13304;38695162414;6764431885;2285603756;1453410943;492712216;17155297;2252562897;1161;1740;78056;0;837;51857
2;9;1573247183899;1573247197336;13437;40783963244;6764446732;1748927767;1613853941;492714452;17153101;2247087831;1044;1631;44136;0;425;3044
2;10;1573247197336;1573247211068;13732;39781494686;6764422606;1905640304;1523885447;492711393;17154785;2251792663;1485;1176;43864;0;473;4132
2;11;1573247211069;1573247225665;14596;42522973770;6764437068;2171506933;1636961265;492713021;17158322;2244533250;1147;2133;77264;0;776;31403
2;12;1573247225665;1573247238869;13204;39070760262;6764425682;1936789660;1489821799;492710557;17148977;2252225352;1673;807;40920;0;520;5242
2;13;1573247238870;1573247251701;12831;38845650162;6764398733;2079833813;1509380253;492706395;17147230;2251713046;956;2125;79016;0;807;35317
2;14;1573247251701;1573247264531;12830;40522788516;6764427697;2104470251;1572612836;492711259;17147705;2245661803;1753;858;43080;0;500;4171
2;15;1573247264531;1573247277595;13064;40706706760;6764435351;2047572031;1593229068;492712730;17148380;2247346249;980;2119;79192;0;818;34053
2;16;1573247277595;1573247290335;12740;39506694070;6764413571;2137131019;1523708069;492709155;17144161;2248542659;1212;1304;41504;0;403;3817
2;17;1573247290335;1573247303485;13150;39207557882;6764388795;2004751904;1485629928;492705253;17152786;2251775988;1207;1197;39632;0;412;3203
2;18;1573247303485;1573247316944;13459;40681944868;6764419862;1949856870;1556196662;492710359;17154391;2248777090;842;1981;76368;0;748;32458
2;19;1573247316944;1573247330819;13875;40721940400;6764414060;1882264512;1564756782;492709163;17150106;2247997891;1685;1110;65960;0;722;18445
2;20;1573247330820;1573247344214;13394;39376743850;6764474600;1863905217;1506947914;492718747;17145990;2251607271;937;1451;39368;0;420;2253
2;21;1573247344214;1573247357376;13162;39066225648;6764420392;1878038453;1493788420;492710053;17151437;2252538183;817;1986;73032;0;685;24435
2;22;1573247357376;1573247371162;13786;38993874180;6764469432;1841276587;1487472158;492718469;17153986;2254167226;1550;918;40688;0;482;4732
2;23;1573247371162;1573247385733;14571;42879183256;6764452210;1859665765;1657187323;492715530;17150798;2243413890;1235;1809;74784;0;733;15381
2;24;1573247385733;1573247399292;13559;39568237158;6764398760;1845667254;1509275430;492707514;17154649;2253481278;1384;1324;44648;0;456;4066
2;25;1573247399292;1573247413401;14109;40311358908;6764415960;1977320748;1527474218;492709937;17151577;2250175289;1128;1709;71240;0;697;19930
2;26;1573247413402;1573247426604;13202;38607936174;6764476330;2073826917;1471524022;492718527;17150177;2252384207;971;1641;43064;0;331;2364
2;27;1573247426605;1573247440415;13810;40468859036;6764418633;1891161649;1535265238;492709542;17150630;2244554542;1532;1065;42856;0;470;4414
2;28;1573247440415;1573247454589;14174;42320844070;6764454202;2098358389;1628465582;492715778;17146978;2245129675;996;2091;88704;0;812;53383
2;29;1573247454590;1573247468063;13473;40069602910;6764418535;1916187430;1514583551;492709980;17149607;2244335007;1655;910;42304;0;516;5021
2;30;1573247468063;1573247482253;14190;40625994310;6764400313;1908493261;1568460811;492707129;17151251;2247501554;1052;2251;92456;0;912;46612
2;31;1573247482253;1573247495014;12761;38447827610;6764395479;2045543592;1481276615;492705806;17145933;2251002441;1662;902;42272;0;501;4874
2;32;1573247495014;1573247507731;12717;38370735960;6764403764;1901823304;1473569864;492707488;17149042;2249954400;1238;1747;81280;0;1048;53310
2;33;1573247507731;1573247522153;14422;42230961944;6764413761;1899589842;1635609423;492709748;17154605;2245132624;1261;1385;43616;0;458;3790
2;34;1573247522153;1573247535917;13764;40453664232;6764418649;1818052037;1547958470;492710165;17147391;2246990387;1549;1442;83856;0;977;46585
2;35;1573247535917;1573247550279;14362;41869629318;6764452508;1985731664;1615299094;492715620;17151740;2244728914;1086;1672;45456;0;428;2880
2;36;1573247550279;1573247563998;13719;41404362504;6764429685;1833574458;1583196815;492711598;17147843;2244471189;1254;1247;41296;0;423;3101
2;37;1573247563998;1573247576954;12956;38427612888;6764446808;1840678796;1458955602;492713418;17146559;2248697346;887;1978;74960;0;723;38515
2;38;1573247576954;1573247590910;13956;40184245906;6764452458;1888219140;1532358266;492715036;17150876;2248118442;1761;677;40176;0;479;5308
2;39;1573247590910;1573247604416;13506;39621670822;6764446319;1776995582;1513023754;492714027;17146132;2248994550;881;1905;70968;0;683;20889
2;40;1573247604417;1573247619154;14737;42104549158;6764380073;1774890474;1631205433;492704043;17150241;2244532722;1513;1052;42280;0;425;4218
2;41;1573247619154;1573247632952;13798;39121079892;6764456427;1897466694;1494108471;492716540;17147755;2249348668;1512;2109;127480;0;2759;58001
2;42;1573247632952;1573247647146;14194;40174636478;6764423701;1884099680;1517944023;492710772;17153041;2245294273;963;1540;41288;0;359;2301
2;43;1573247647146;1573247660481;13335;39080911496;6764411299;2004862197;1478988029;492708525;17150945;2248374297;1026;2043;83808;0;815;42992
2;44;1573247660481;1573247673502;13021;39131528382;6764482578;1941518936;1486965487;492719454;17150307;2247332214;1470;983;40432;0;453;4647
2;45;1573247673502;1573247686860;13358;38722071236;6764430962;1854395792;1477741365;492711255;17152599;2250038674;1349;1688;85520;0;989;67775
2;46;1573247686860;1573247700598;13738;38692697788;6764465515;1917900136;1460257663;492717142;17147955;2250010486;1392;1376;45672;0;480;4063
2;47;1573247700598;1573247713689;13091;38675938010;6764406657;1811850724;1480026246;492707648;17146748;2248943273;953;1503;40528;0;423;2420
2;48;1573247713689;1573247726681;12992;38237398978;6764428119;2211426983;1455455196;492710565;17144920;2248305872;970;1994;74536;0;749;17766
2;49;1573247726682;1573247739934;13252;38573715380;6764439543;1895232949;1464601901;492712613;17153909;2248019104;1749;736;40960;0;530;5563
2;50;1573247739935;1573247752961;13026;39792940210;6764436271;1981703098;1511712972;492712249;17153374;2247862510;871;1820;76776;0;766;27720
2;51;1573247752961;1573247766198;13237;38474894112;6764453176;1830073480;1495881251;492714731;17152212;2248625949;1579;1018;42808;0;495;4863
2;52;1573247766199;1573247779334;13135;39107241574;6764440034;2042944209;1485449070;492712581;17153523;2248728962;1019;1826;73624;0;722;23902
3;2;1573247936995;1573247950978;13983;41752614844;6764442092;1729915797;1685077622;492714660;17153474;2242575614;1399;1787;84816;0;1182;75001
3;3;1573247950981;1573247964820;13839;41053814460;6764436223;1884393390;1578208198;492713394;17143078;2247808572;1016;1552;43864;0;549;2870
3;4;1573247964820;1573247978739;13919;40043727768;6764463365;1930104276;1521371901;492717073;17151285;2248139611;1286;1985;90456;0;1053;60149
3;5;1573247978739;1573247993084;14345;41884029298;6764447620;1882009846;1613125159;492716211;17151195;2244574034;1896;965;47352;0;600;5870
3;6;1573247993084;1573248007239;14155;42167092054;6764532940;1812051010;1636154616;492730988;17151839;2249218590;922;2063;86984;0;856;76543
3;7;1573248007239;1573248020563;13324;39648412036;6764487314;1924484637;1515027255;492721117;17151608;2251525769;1299;931;36792;0;392;3874
3;8;1573248020563;1573248033555;12992;39885855486;6764440270;1933105275;1511225199;492714548;17148228;2250613391;1085;1613;80528;0;822;35563
3;9;1573248033555;1573248047044;13489;40562507670;6764433454;1875419249;1585833748;492713394;17152983;2244420287;1210;1371;42576;0;482;3691
3;10;1573248047044;1573248061454;14410;42158739102;6764431705;1828256274;1659331492;492714166;17151906;2241648731;1315;1732;75760;0;727;20009
3;11;1573248061455;1573248076426;14971;42787920992;6764485939;1940681727;1662135524;492722064;17151426;2242293572;1119;1689;46384;0;395;3027
3;12;1573248076427;1573248090406;13979;41019337582;6764472692;1806880381;1590160332;492719928;17150322;2248368564;1496;1101;42808;0;491;4321
3;13;1573248090407;1573248104897;14490;41119467740;6764446610;1895768163;1595912971;492715648;17155438;2246758535;1289;2065;89176;0;957;46140
3;14;1573248104897;1573248119397;14500;42645163798;6764485345;1805112022;1684734833;492721735;17149052;2243553337;1579;1194;45760;0;575;4429
3;15;1573248119397;1573248132672;13275;41347573030;6764442144;1975816676;1592943219;492714630;17156225;2247884962;944;1898;80800;0;825;44433
3;16;1573248132672;1573248145986;13314;39305794420;6764471680;1818722669;1502718565;492719201;17157411;2252120268;1514;762;37544;0;434;4532
3;17;1573248145987;1573248159637;13650;40338044496;6764502910;1803650040;1546418987;492724521;17149415;2248956768;1162;1881;88840;0;1020;48735
3;18;1573248159637;1573248173147;13510;40675221130;6764450532;1886792096;1565988675;492715679;17151885;2246508928;1035;1649;67328;0;857;36524
3;19;1573248173147;1573248187707;14560;40880172572;6764465099;1947456439;1564241060;492718021;17149862;2245334578;1665;994;43848;0;518;4563
3;20;1573248187707;1573248202386;14679;42051472464;6764458946;2121109369;1612971072;492717771;17150296;2242512341;1017;2109;79312;0;856;35007
3;21;1573248202386;1573248215748;13362;39362961596;6764481618;1860731839;1499244638;492720458;17152554;2253341414;971;1416;39360;0;312;2810
3;22;1573248215748;1573248229945;14197;39920545086;6764450709;1998011560;1532408993;492716405;17153119;2247617631;1398;1103;41248;0;431;3935
3;23;1573248229945;1573248243248;13303;39673882904;6764485530;1865934449;1516657910;492720494;17153022;2248851333;975;1892;70936;1;828;41830
3;24;1573248243248;1573248257303;14055;40306739906;6764488383;1994657619;1549435003;492722511;17150971;2248357177;1609;1195;46280;-1;515;4534
3;25;1573248257304;1573248271285;13981;40548639860;6764432873;1951457283;1532402508;492713360;17149770;2242770563;937;1877;69800;0;786;36455
3;26;1573248271285;1573248285244;13959;41030812598;6764456749;1908907959;1566781978;492716793;17146588;2247030356;1684;865;42024;0;537;5224
3;27;1573248285244;1573248298857;13613;39335457532;6764498452;1877603792;1503756397;492723167;17153782;2249569727;848;1965;70744;0;643;26720
3;28;1573248298857;1573248312571;13714;41041461546;6764473638;1858285224;1605701693;492719603;17149160;2243890982;1551;1013;42272;0;507;4613
3;29;1573248312571;1573248325668;13097;38718144858;6764451674;1937044194;1490364317;492715778;17150090;2246968802;992;2013;84072;0;826;37923
3;30;1573248325668;1573248339321;13653;39048985822;6764454949;1939761175;1494713603;492716361;17149383;2252635293;1318;1293;43056;0;391;3518
3;31;1573248339321;1573248353016;13695;39519672740;6764496644;1823859303;1517382792;492722300;17152630;2250896677;1326;1397;57816;71;551;14176
3;32;1573248353016;1573248366758;13742;39337860400;6764483761;2114238951;1479116939;492721278;17153694;2244814936;902;1691;53808;-71;603;10526
3;33;1573248366758;1573248380803;14045;41166313154;6764482708;2093910262;1579189648;492721580;17149171;2246999283;1553;942;41176;0;513;4841
3;34;1573248380803;1573248393259;12456;39006036564;6764446993;2084916051;1505126777;492714695;17146302;2250238283;905;1756;69768;0;708;24584
3;35;1573248393259;1573248406653;13394;40683169224;6764448976;1803794119;1583885241;492715918;17146973;2244462338;1670;830;41216;0;543;5287
3;36;1573248406654;1573248419211;12557;38880093168;6764474603;2197688692;1484520803;492719150;17147362;2249066615;920;2071;82336;0;844;50744
3;37;1573248419211;1573248432715;13504;38731952224;6764468134;1973086791;1462973114;492718500;17152020;2253104754;1318;1150;40688;0;397;3788
3;38;1573248432715;1573248446652;13937;40541825748;6764453117;1957145880;1553876537;492716992;17147085;2247681007;1378;1375;75336;0;805;39264
3;39;1573248446652;1573248459914;13262;40020453178;6764443123;1855262118;1532048191;492714261;17150594;2246697474;860;1577;40168;0;333;2275
3;40;1573248459914;1573248474274;14360;40514350884;6764421146;1925524350;1550679250;492711122;17153897;2247446657;1321;1227;42032;0;466;3876
3;41;1573248474274;1573248487739;13465;39052458140;6764517889;1885099181;1487959562;492726331;17150236;2249920205;945;2080;76144;1;741;25849
3;42;1573248487739;1573248501052;13313;38679109714;6764435396;1868596249;1469412321;492713379;17156146;2248241941;2006;1044;105800;-1;3114;35412
3;43;1573248501052;1573248514863;13811;39878366416;6764433210;1811535255;1524303499;492712963;17152627;2248329111;1053;1479;41768;0;334;2375
3;44;1573248514863;1573248529312;14449;40670772510;6764488635;1814124233;1564473015;492721596;17149358;2244557829;937;2198;88528;0;963;44468
3;45;1573248529312;1573248543361;14049;40416426786;6764422177;1996784817;1535578820;492711327;17149808;2243555107;1715;938;43760;0;492;5061
3;46;1573248543361;1573248556608;13247;38678243204;6764474178;1861189597;1472614464;492719025;17153386;2249034485;1114;1751;76792;0;830;42360
3;47;1573248556608;1573248569871;13263;38332195756;6764485552;1861620402;1456340137;492720661;17149699;2247761241;1310;1255;42304;0;431;3881
3;48;1573248569871;1573248583798;13927;40580838700;6764517758;2056325337;1543192049;492726524;17154145;2244076579;1294;1707;77792;13;951;37496
3;49;1573248583798;1573248597078;13280;38720505678;6764494192;1993813439;1463320047;492722304;17152418;2248946195;787;1658;40560;-13;396;2442
3;50;1573248597078;1573248610647;13569;38720232220;6764448425;1943711444;1469439135;492715284;17153584;2247989153;1700;720;39920;0;489;4980
3;51;1573248610647;1573248624199;13552;38595850732;6764444990;2080328004;1458029580;492714082;17149545;2250147838;909;1762;72472;0;885;42629
4;2;1573248784634;1573248798647;14013;39732752440;6764459388;1937093033;1526631740;492716547;17150859;2252120973;1627;1666;88584;0;1413;70962
4;3;1573248798647;1573248813033;14386;42795942086;6764422154;2043573082;1665755540;492711662;17150512;2244032120;1020;1452;40408;0;479;6905
4;4;1573248813033;1573248827972;14939;43062400992;6764430048;1787649449;1690081743;492712863;17152692;2242824235;1359;1857;81880;0;1265;110729
4;5;1573248827972;1573248843125;15153;42075560274;6764501530;1926795917;1622586436;492726401;17149698;2243401658;1538;996;41848;0;501;4429
4;6;1573248843125;1573248856613;13488;40313772726;6764530643;1799386325;1564527574;492729746;17144808;2247652632;1385;1597;81384;0;1159;92688
4;7;1573248856613;1573248870833;14220;39430515650;6764467846;1960727595;1506476131;492718107;17151005;2252835296;1398;1028;40704;1;525;4034
4;8;1573248870833;1573248884875;14042;40188958202;6764498932;2152668790;1543900616;492723524;17155983;2247133058;1218;1833;83008;-1;1142;84507
4;9;1573248884875;1573248899226;14351;40564169150;6764452432;1804788544;1585976074;492716121;17154445;2247670132;1146;1307;40456;0;386;2401
4;10;1573248899226;1573248913257;14031;40769602100;6764500452;1884134254;1583169851;492723903;17149442;2245676947;1869;1257;80752;0;1289;97667
4;11;1573248913257;1573248927523;14266;41488670204;6764505756;1793736683;1617957322;492724733;17149215;2244354010;741;1616;38872;0;260;1733
4;12;1573248927523;1573248941976;14453;43095255080;6764462312;1901150901;1688180761;492718638;17151925;2243145967;1470;982;40424;0;453;4092
4;13;1573248941976;1573248955789;13813;39252037658;6764459863;2085196140;1526363184;492717044;17151339;2250691427;958;1909;78232;0;1015;42500
4;14;1573248955789;1573248969444;13655;39021715942;6764454901;2209684974;1493131175;492716437;17150132;2250711329;1706;683;39424;0;488;4828
4;15;1573248969444;1573248982825;13381;41315339880;6764466375;1958262448;1595834604;492717943;17150677;2247643520;1114;1755;79936;0;1029;86420
4;16;1573248982826;1573248996446;13620;39647229874;6764490776;1812137534;1527226649;492721372;17150222;2251013501;1457;916;39136;0;550;4442
4;17;1573248996446;1573249010261;13815;41059214708;6764492614;2299101000;1583653122;492723026;17155814;2248342286;923;1894;71880;0;682;22993
4;18;1573249010261;1573249024725;14464;42216851920;6764468246;2096303532;1635043741;492719314;17146801;2244037319;1495;1210;62296;0;737;17601
4;19;1573249024725;1573249038783;14058;41547852618;6764433055;1848658151;1614759109;492713016;17147566;2243277760;1143;1104;37088;0;351;2896
4;20;1573249038784;1573249052968;14184;41777776046;6764516877;1930118171;1622871384;492726660;17152758;2242469602;956;1890;75464;0;989;51350
4;21;1573249052968;1573249066773;13805;39701958412;6764492271;1908431336;1526064790;492722761;17158029;2250276503;829;1448;37528;0;356;2327
4;22;1573249066773;1573249080323;13550;39108040486;6764465289;2004382287;1498930695;492718548;17151344;2253570196;1518;726;37016;0;434;4381
4;23;1573249080323;1573249094115;13792;39946137426;6764465770;2108431068;1537893288;492718423;17148902;2242881062;913;2037;80480;0;827;45864
4;24;1573249094115;1573249108057;13942;40141039834;6764469493;2020883085;1534190616;492719833;17149981;2245481396;1399;893;37808;0;388;3597
4;25;1573249108057;1573249122889;14832;42426371994;6764468044;2002063173;1649426884;492719509;17143696;2244894865;1011;1872;73104;0;725;32759
4;26;1573249122889;1573249136971;14082;41055711000;6764482035;1980340525;1591101808;492720576;17152153;2247569541;1520;800;38280;0;462;4550
4;27;1573249136971;1573249150678;13707;40799231486;6764429610;1975847891;1569230515;492712518;17156088;2244350532;1043;1793;80208;0;924;47906
4;28;1573249150678;1573249164437;13759;40197199318;6764444379;1807367197;1561953145;492714914;17151509;2246193129;1392;996;39368;0;455;3973
4;29;1573249164437;1573249178277;13840;40184056836;6764466930;2080110760;1533444616;492718086;17153505;2245672207;864;1901;74112;0;821;42130
4;30;1573249178277;1573249190990;12713;38592230078;6764441835;2165127193;1486184436;492714062;17156093;2249028941;1067;1193;37264;0;320;3113
4;31;1573249190990;1573249204488;13498;39580107250;6764415547;1904542240;1519106751;492709850;17152330;2249006800;1352;1102;48992;86;408;8099
4;32;1573249204488;1573249217742;13254;40916706736;6764450269;2140812245;1564201492;492715947;17148353;2247306659;650;1524;52832;-86;699;14247
4;33;1573249217742;1573249230862;13120;38509159874;6764497757;1999007401;1463859670;492722139;17153645;2250407573;1405;807;36488;0;402;3967
4;34;1573249230862;1573249244400;13538;40328262350;6764423809;1909058337;1558798427;492711430;17151642;2246326097;846;1676;69328;0;662;30352
4;35;1573249244400;1573249256940;12540;38194275250;6764449340;1959068491;1494864962;492715012;17147510;2249383123;1299;882;35944;0;420;3255
4;36;1573249256940;1573249270490;13550;39757345848;6764429203;1891888634;1516202612;492712120;17152676;2247663140;990;1605;69712;0;875;24857
4;37;1573249270491;1573249284866;14375;39447278202;6764441385;1976875762;1508981155;492714171;17153137;2249226890;1216;1172;39368;0;367;3189
4;38;1573249284866;1573249298204;13338;39477250688;6764465293;2155736835;1505176867;492718036;17152955;2250077861;1420;1407;80784;0;1233;85850
4;39;1573249298204;1573249311351;13147;38708968904;6764435267;1842633680;1510956209;492712966;17155429;2250259704;713;1611;38312;0;231;1890
4;40;1573249311351;1573249325740;14389;41912294606;6764417286;1743639708;1634361633;492710817;17148456;2244439311;1941;1305;119040;0;2777;74178
4;41;1573249325740;1573249338756;13016;38913541768;6764458326;1866603099;1487261674;492716186;17158182;2247773864;975;1062;33616;0;360;2646
4;42;1573249338756;1573249352231;13475;38830040426;6764477446;1926735119;1480331571;492719735;17145589;2250514522;1131;1910;86368;0;1226;104355
4;43;1573249352231;1573249365592;13361;39115171856;6764473948;1952348601;1490922261;492719514;17149414;2247716949;1106;1239;38648;0;562;4558
4;44;1573249365592;1573249379244;13652;40104463330;6764449253;1864500447;1551013879;492715580;17152650;2248393488;1416;923;38568;0;470;3694
4;45;1573249379244;1573249392511;13267;38485380124;6764467129;2138651152;1451710012;492718129;17151473;2249781638;1060;1687;79624;0;838;59698
4;46;1573249392511;1573249406230;13719;38366342674;6764463022;1880944191;1464321707;492717057;17149171;2248057105;1433;764;36208;0;425;4444
4;47;1573249406230;1573249419871;13641;38535995404;6764479961;1904350010;1473015434;492720118;17151048;2250437383;1063;1711;77936;0;1041;72902
4;48;1573249419871;1573249433393;13522;38825037298;6764411196;1848250485;1487712055;492708952;17152382;2247739111;1439;949;39368;0;410;4106
4;49;1573249433393;1573249447161;13768;40659668480;6764498792;1794407485;1572788186;492723457;17148952;2243795067;1101;1859;79824;0;971;71006
4;50;1573249447161;1573249461138;13977;40529114404;6764496114;1904166631;1566412552;492722692;17147545;2243741569;1296;1076;39104;0;461;3936
4;51;1573249461138;1573249474730;13592;38542427580;6764477194;2126023486;1460616404;492719722;17152685;2248275145;1304;1343;68696;0;784;45846
