0;10;1574312849263;1574312859529;10266;35676523938;6764453970;2100973310;1476598772;492714886;17147120;2242611710;1076;1;2214808;-20;10266;1471622
0;11;1574312859530;1574312872575;13045;40530793112;6764418811;1921908575;1646909758;492710015;17153463;2241155802;1639;54;2947800;18;13046;1837766
0;12;1574312872575;1574312884388;11813;38174014976;6764432266;2095847543;1495980587;492710853;17157013;2243548006;1245;0;2543504;3;11813;1695160
0;13;1574312884388;1574312895828;11440;38941675822;6764403762;1898580342;1579993650;492706702;17148891;2243745657;1320;2;2712648;-8;11440;1646886
0;14;1574312895828;1574312905901;10073;34814777480;6764466139;2322940096;1447933445;492715949;17150444;2247224761;1315;32;2316384;-4;10072;1456166
0;15;1574312905901;1574312918919;13018;40215099064;6764451095;1780546209;1633514254;492714735;17151320;2241609231;1397;2;2849800;11;13019;1773476
0;16;1574312918919;1574312931849;12930;40068970730;6764450557;2117603195;1614490345;492715354;17147741;2241557873;1580;29;2896216;-14;12930;1858708
0;17;1574312931849;1574312942847;10998;36573052560;6764420146;2041934362;1474805842;492709730;17151931;2247222895;1332;17;2630392;-6;10998;1579249
0;18;1574312942847;1574312952985;10138;35216891702;6764433784;1872371205;1486381437;492710833;17149639;2243802317;1063;1;2166328;25;10138;1456032
0;19;1574312952985;1574312966178;13193;39944200298;6764395237;1775943287;1612910875;492705733;17151745;2241888792;1508;6;3051656;1;13193;1834285
0;20;1574312966178;1574312978316;12138;38581087212;6764459099;2161426960;1529956894;492715672;17149064;2245223323;1519;59;2795920;-1;12138;1754676
0;21;1574312978316;1574312989263;10947;37579664452;6764449099;2308618234;1469081468;492713775;17152450;2242135270;1186;4;2387448;-1;11105;1592376
0;22;1574312989421;1574313000146;10725;37171274858;6764412669;2051771571;1588943230;492708064;17146085;2239964422;1209;4;2448504;-25;10725;1538389
0;23;1574313000146;1574313013509;13363;40654324296;6764443415;1934424173;1625617010;492713992;17147728;2241861578;1610;98;2902576;17;13362;1832144
0;24;1574313013509;1574313025832;12323;38755473700;6764422916;1927106465;1553631082;492710904;17148127;2244442313;1446;7;2895192;-4;12324;1763638
0;25;1574313025832;1574313036931;11099;37938984614;6764495623;2129712813;1556986721;492721425;17146518;2244446296;1396;52;2576400;-1;11099;1602491
0;26;1574313036931;1574313047993;11062;37402423226;6764408829;1835880903;1572715636;492706656;17153629;2240935738;1252;6;2489568;2;11062;1574757
0;27;1574313047993;1574313060624;12631;38442876166;6764486696;1883100520;1515730892;492720256;17152629;2248036849;1397;7;2762536;11;12631;1812138
0;28;1574313060625;1574313072248;11623;37370813642;6764453117;1939049939;1497793840;492714500;17148332;2246253960;1486;52;2764248;-2;11624;1684849
0;29;1574313072248;1574313083191;10943;37603772848;6764455219;2035315158;1536197231;492714472;17154926;2243671423;1213;5;2404720;3;10943;1568192
0;30;1574313083192;1574313093900;10708;36858137854;6764419719;1943442835;1564220678;492708672;17153271;2241975544;1213;6;2402512;-25;10709;1435662
0;31;1574313093900;1574313107096;13196;38854357894;6764421344;1966284255;1535130700;492710649;17146204;2246844829;1585;102;2810848;3;13196;1899092
0;32;1574313107096;1574313118908;11812;37724504774;6764367413;1917443327;1525942383;492700811;17152162;2243940639;1437;11;2824312;3;11812;1695375
0;33;1574313118908;1574313129806;10898;36256277966;6764421802;1815879690;1474862793;492709222;17147554;2246808842;1394;49;2534528;3;10898;1564564
0;34;1574313129806;1574313140872;11066;37766206170;6764432732;1942175180;1615009253;492711236;17149616;2241752801;1261;8;2483120;-2;11066;1440446
0;35;1574313140872;1574313153678;12806;37623971656;6764426958;1867488279;1483038644;492710752;17149615;2249912691;1437;10;2808128;3;12806;1840229
0;36;1574313153678;1574313165555;11877;38330585668;6764412026;2146295183;1535112031;492708249;17153745;2243722181;1559;56;2779184;9;11876;1714220
0;37;1574313165555;1574313175978;10423;36074374376;6764388844;2131083300;1447261692;492703400;17146729;2244628012;1134;6;2210104;-13;10424;1493209
0;38;1574313175978;1574313187250;11272;37522146146;6764447868;1997817240;1582472510;492714068;17147999;2241920996;1404;80;2577008;109;11285;1482047
0;39;1574313187263;1574313199881;12618;37396810986;6764411279;1861794832;1470833612;492708425;17149473;2248517431;1519;8;2710024;-107;12618;1823471
0;40;1574313199881;1574313211037;11156;36446526770;6764384686;1918440583;1458014956;492703191;17153830;2246909876;1376;11;2650624;0;11156;1601502
0;41;1574313211037;1574313222159;11122;38018221150;6764395822;1971632777;1558807239;492705574;17154724;2242267860;1468;43;2524720;8;11121;1608306
0;42;1574313222159;1574313233079;10920;36974542924;6764434562;1797397812;1568794069;492711636;17153613;2241143170;1280;11;2463424;-16;10921;1557296
0;43;1574313233079;1574313245612;12533;36943206068;6764479678;2040723512;1445525167;492718716;17152528;2247953106;1752;87;2208640;30;12533;1926976
0;44;1574313245613;1574313256776;11163;38631087394;6764399772;1809723019;1595962275;492706108;17147285;2241876614;1595;77;2348288;-7;11164;1626061
0;45;1574313256776;1574313267736;10960;36785060328;6764414203;1968659104;1493910716;492708159;17150385;2248175779;1378;13;2604144;-2;10960;1572108
0;46;1574313267736;1574313278720;10984;37760478298;6764441443;1778027661;1616274533;492711987;17149351;2240803749;1525;62;2427544;-38;10984;1489292
0;47;1574313278720;1574313291819;13099;39242747240;6764471316;2243495783;1539245561;492718629;17144059;2246080311;1508;21;2715560;37;13099;1871907
0;48;1574313291819;1574313303991;12172;39178612798;6764415127;1942682606;1596213109;492708908;17150382;2242568542;1640;48;2813136;-8;12172;1759878
0;49;1574313303991;1574313314969;10978;37877408676;6764428223;2043018684;1558780168;492710583;17152839;2242233615;1349;15;2554504;-5;10978;1576019
0;50;1574313314969;1574313325493;10524;36576957622;6764469055;2064608776;1549010544;492716288;17150099;2241079023;1211;15;2301264;-89;10524;1473571
0;51;1574313325493;1574313338871;13378;38635040052;6764439031;2001970459;1524677430;492712626;17156764;2246337296;1803;66;3015632;87;13378;1849166
0;52;1574313338871;1574313350112;11241;36400866146;6764452585;1811697138;1465425438;492713500;17149521;2245901771;1296;12;2437584;16;11241;1613389
0;53;1574313350112;1574313360883;10771;36223820122;6764404613;1846245880;1478193790;492706558;17150038;2246389893;1338;10;2501736;6;10771;1543828
0;54;1574313360883;1574313371485;10602;36496415700;6764415229;2064528219;1531788163;492707926;17151397;2241167326;1453;59;2468512;-13;10602;1509378
0;55;1574313371486;1574313384317;12831;37677680968;6764383795;2174600265;1463309130;492703915;17150840;2248204792;1462;20;2750456;10;12832;1841997
0;56;1574313384317;1574313395684;11367;36924492810;6764436344;1999917292;1474100155;492711547;17150097;2245916823;1535;45;2695536;-23;11367;1640541
0;57;1574313395684;1574313406743;11059;37082617088;6764385772;1965018308;1499924481;492703387;17151742;2243344243;1370;17;2555320;6;11059;1587474
0;58;1574313406743;1574313416959;10216;35501296490;6764405291;1953029126;1495980871;492706187;17147632;2241531824;1181;21;2219208;6;10216;1466481
0;59;1574313416959;1574313429397;12438;37034577978;6764451427;1831823482;1458140818;492715255;17144039;2248481287;1662;69;2795872;4;12438;1804768
1;11;1574313704831;1574313715496;10665;36824023640;6764499006;2135040823;1451007438;492720932;17152538;2241648495;1164;2;2424784;20;10665;1529850
1;12;1574313715496;1574313728150;12654;40384317736;6764464023;1802339106;1639545518;492716798;17149433;2241186479;1517;64;2728264;-20;12653;1834726
1;13;1574313728150;1574313740032;11882;38857893138;6764439309;1859534987;1581968712;492712537;17152388;2243184142;1296;2;2665712;16;11883;1701654
1;14;1574313740032;1574313751274;11242;38519593034;6764446344;1831538635;1628882335;492713401;17148954;2239812656;1311;2;2684624;-12;11242;1617150
1;15;1574313751274;1574313762061;10787;36318775456;6764428621;1824742210;1460010075;492710407;17151113;2247658252;1327;68;2417936;19;10787;1559292
1;16;1574313762062;1574313774779;12717;39543539652;6764384505;1776463126;1602755841;492704026;17146835;2241759629;1350;1;2734392;-6;12718;1824223
1;17;1574313774780;1574313786403;11623;38148816982;6764458914;1848353933;1557430209;492716416;17149838;2244356029;1485;32;2735360;-22;11624;1671503
1;18;1574313786403;1574313797357;10954;37655611608;6764392813;1875573588;1587992407;492705030;17145947;2241155947;1209;3;2474160;7;10954;1572205
1;19;1574313797357;1574313808192;10835;37211414638;6764433730;1850042791;1530681918;492710765;17144401;2245111652;1195;3;2455104;21;10835;1556350
1;20;1574313808192;1574313821076;12884;40741736832;6764378701;2082610500;1634895401;492703593;17149355;2243981641;1548;65;2758224;-22;12884;1866972
1;21;1574313821076;1574313832126;11050;36989341484;6764463979;2075339369;1494884514;492715952;17150241;2246768008;1266;50;2360800;-7;11050;1589902
1;22;1574313832126;1574313842984;10858;37743045898;6764445749;1994876715;1568420030;492713066;17153085;2243137009;1194;2;2421216;22;10858;1559301
1;23;1574313842984;1574313854096;11112;37016771964;6764469428;2263142297;1496775276;492717079;17148003;2248309687;1253;3;2552256;-5;11112;1590371
1;24;1574313854096;1574313867284;13188;39850432674;6764509962;1944633861;1586765771;492726296;17149570;2243527314;1651;74;2992768;-13;13187;1900936
1;25;1574313867284;1574313878737;11453;38938219564;6764450866;1878716861;1582108416;492715388;17147880;2242995401;1248;6;2509296;0;11453;1643776
1;26;1574313878737;1574313889924;11187;37566392030;6764438405;2020323810;1560891584;492712586;17148598;2242627082;1384;58;2633072;74;11188;1607627
1;27;1574313889924;1574313900957;11033;38294972764;6764471555;1951426415;1577346461;492718884;17154670;2244189533;1308;6;2497128;-56;11034;1581229
1;28;1574313900958;1574313913919;12961;39121637612;6764431838;1897910401;1558088291;492712281;17153781;2245838939;1415;7;2798032;-7;12961;1856806
1;29;1574313913919;1574313925443;11524;38613799826;6764454595;1964122015;1570497525;492716002;17152083;2244009533;1483;41;2697824;16;11524;1654857
1;30;1574313925443;1574313936646;11203;38723699866;6764464925;1811475528;1595490207;492717232;17148724;2241023704;1260;6;2504704;-12;11203;1608141
1;31;1574313936647;1574313947257;10610;36649840676;6764488084;2087686588;1462473461;492720807;17151417;2244820616;1206;5;2398568;10;10610;1514229
1;32;1574313947257;1574313960388;13131;40490800646;6764417891;2051726873;1613683634;492710632;17147026;2243365192;1567;92;2779512;0;13132;1891052
1;33;1574313960388;1574313971783;11395;38491301884;6764504160;2126681012;1549513748;492723242;17153725;2242449476;1254;6;2473752;-6;11395;1638091
1;34;1574313971783;1574313982981;11198;37928381218;6764429482;2221090790;1568920468;492711755;17151692;2241921338;1442;45;2581096;-21;11198;1612785
1;35;1574313982981;1574313993927;10946;36503001760;6764477207;1925196549;1486648715;492718214;17152195;2245771965;1287;7;2518640;25;10946;1573362
1;36;1574313993928;1574314006820;12892;40145615474;6764436793;1948973318;1614530844;492713557;17153720;2243046842;1432;11;2788624;-24;12893;1849116
1;37;1574314006820;1574314018053;11233;36158511402;6764525454;1852374090;1460524084;492727195;17153234;2246789708;1470;53;2649952;-3;11233;1614766
1;38;1574314018053;1574314029091;11038;37097734366;6764481614;2122573052;1507925366;492719652;17150030;2242959735;1247;6;2453288;1;11038;1580759
1;39;1574314029091;1574314039945;10854;37500610124;6764439219;1930942547;1526289903;492712786;17151070;2244125025;1267;8;2456808;13;10854;1556337
1;40;1574314039945;1574314052569;12624;39703691432;6764452126;1807669202;1605172593;492715255;17143911;2242384344;1564;70;2712224;10;12624;1826742
1;41;1574314052569;1574314063378;10809;37020929168;6764434033;1974225142;1502082490;492711741;17150812;2243251078;1240;6;2376824;-24;10808;1550763
1;42;1574314063378;1574314073815;10437;35862403692;6764497393;1995931989;1476493254;492722430;17150026;2245465129;1262;10;2427832;18;10438;1497722
1;43;1574314073816;1574314084852;11036;37746947164;6764403695;1787922995;1557409706;492706407;17151358;2244597044;1434;61;2487416;0;11036;1580730
1;44;1574314084852;1574314097158;12306;37309717314;6764446000;1940309961;1470228211;492714541;17151540;2247025528;1363;12;2601120;13;12306;1764496
1;45;1574314097158;1574314109024;11866;39347675396;6764455125;1855687093;1624633122;492716140;17155816;2241917072;1579;54;2765720;-31;11867;1709719
1;46;1574314109025;1574314120284;11259;38698454860;6764457799;1814226616;1593391838;492715597;17149416;2241521332;1307;13;2504664;5;11260;1613358
1;47;1574314120284;1574314131570;11286;38562027496;6764470481;1748176097;1621633662;492717965;17152468;2242662212;1333;16;2557384;11;11285;1623449
1;48;1574314131570;1574314144223;12653;39457014212;6764409046;1987000806;1560207343;492708204;17143308;2243317897;1596;77;2738472;9;12653;1828188
1;49;1574314144223;1574314154942;10719;36224308784;6764468984;1983082376;1461144150;492717639;17147733;2245907473;1485;56;1944416;-16;10720;1552265
1;50;1574314154942;1574314165259;10317;35835903232;6764461590;1785186341;1472130528;492715865;17152938;2243744901;1233;20;2216200;1;10317;1482175
1;51;1574314165259;1574314176414;11155;38440783840;6764451551;1819910774;1599833759;492714070;17150308;2242242443;1326;14;2528896;18;11155;1598845
1;52;1574314176414;1574314189053;12639;39478418834;6764402343;1896258040;1590178310;492707430;17152536;2243728087;1741;99;2832272;-27;12639;1847641
1;53;1574314189053;1574314200021;10968;36466621480;6764438763;1882867183;1468880680;492712645;17153060;2247995903;1248;21;2367136;0;10968;1574094
1;54;1574314200021;1574314210120;10099;34815528066;6764450146;1838229392;1448188528;492715089;17154203;2245211587;1225;17;2312856;23;10099;1447637
1;55;1574314210120;1574314221248;11128;37498068994;6764452739;2005245603;1544181043;492714786;17151213;2243088642;1498;61;2543736;-17;11128;1615573
1;56;1574314221248;1574314233049;11801;38162321836;6764491649;1845510672;1534384451;492721361;17149280;2243669378;1340;29;2504984;4;11801;1693013
1;57;1574314233049;1574314244738;11689;36826021504;6764443114;1929027577;1460516910;492712531;17152798;2247277957;1535;54;2712040;19;11688;1697463
1;58;1574314244738;1574314254968;10230;35424236376;6764457897;1818816046;1464695601;492716302;17156233;2243849522;1287;21;2418312;-6;10231;1469099
1;59;1574314254968;1574314265756;10788;35824093292;6764472288;1980034748;1444824844;492718714;17151908;2245614825;1274;9;2391744;6;10788;1546443
1;60;1574314265756;1574314277156;11400;37076029276;6764444893;1867745914;1503370577;492713458;17151162;2243418397;1467;79;2470728;-5;11400;1650938
2;9;1574314532373;1574314544119;11746;40065621490;6764454512;1702112356;1663496475;492714629;17152616;2240578653;1279;0;2641744;1;11747;1683219
2;10;1574314544119;1574314554313;10194;35411286176;6764434050;2080987825;1473506554;492711709;17152384;2245472078;1115;0;2294984;-27;10193;1462767
2;11;1574314554313;1574314567844;13531;40997891496;6764499642;1789163858;1668782146;492724917;17154567;2240920944;1618;75;2937288;10;13531;1846745
2;12;1574314567844;1574314579236;11392;37306386032;6764417666;2319276641;1476558463;492709138;17146826;2247547079;1292;1;2646336;20;11393;1638970
2;13;1574314579236;1574314591370;12134;40145322306;6764412202;2054554091;1663341836;492708857;17152930;2240870637;1502;38;2824176;-27;12133;1751229
2;14;1574314591370;1574314602451;11081;38306539906;6764463847;1854529044;1685896991;492716651;17154077;2239015990;1259;1;2573544;-98;11082;1526143
2;15;1574314602452;1574314615787;13335;39245981286;6764411926;2196756193;1535443971;492708687;17154707;2247436954;1399;3;2860040;100;13336;1829098
2;16;1574314615787;1574314627903;12116;39100050782;6764458330;1773069490;1589241009;492716798;17152071;2245852165;1508;34;2831088;24;12116;1743252
2;17;1574314627903;1574314638634;10731;36753748000;6764440659;2008710511;1494082155;492713862;17149004;2245121168;1147;3;2340592;-27;10730;1539726
2;18;1574314638634;1574314649712;11078;37986896120;6764454040;1805582399;1631315000;492713659;17150642;2239437868;1216;2;2476168;21;11078;1523465
2;19;1574314649712;1574314662742;13030;39543132166;6764461427;2174858537;1543193404;492716917;17154008;2242352152;1553;73;2840072;-17;13031;1875201
2;20;1574314662743;1574314675088;12345;39279338198;6764470380;1929185302;1594799094;492718572;17148455;2245136736;1507;46;2860568;0;12346;1769932
2;21;1574314675088;1574314686801;11713;39532831282;6764471892;1700897305;1650503546;492718789;17150117;2239927518;1246;8;2527512;2;11713;1680205
2;22;1574314686801;1574314699038;12237;39186316780;6764457815;1730993451;1674993541;492716267;17155351;2239724801;1399;6;2826560;10;12237;1701410
2;23;1574314699038;1574314712092;13054;38014553776;6764476481;1944098038;1503517172;492718638;17146291;2250750484;1562;71;2820888;-12;13054;1883841
2;24;1574314712092;1574314723717;11625;39867253918;6764541093;2182055033;1614189474;492730513;17151334;2240558779;1332;10;2685320;13;11625;1669114
2;25;1574314723717;1574314734056;10339;35875378858;6764457831;2208500030;1436172825;492716224;17153427;2246860526;1291;60;2399440;2;10339;1496903
2;26;1574314734056;1574314746023;11967;38758132652;6764469656;1956538226;1620410926;492718167;17153029;2240244298;1308;8;2619256;9;11967;1676911
2;27;1574314746023;1574314758864;12841;39430505576;6764487624;2037380465;1558521392;492721176;17154762;2244589258;1443;15;2894512;-3;12841;1841270
2;28;1574314758864;1574314770354;11490;39252059850;6764482325;1806920148;1618704919;492719687;17153558;2240864226;1463;42;2717168;-5;11490;1653381
2;29;1574314770354;1574314781441;11087;37850518396;6764438221;1942713579;1576101684;492713434;17153931;2240219289;1213;7;2410584;4;11087;1587358
2;30;1574314781441;1574314793640;12199;38750131998;6764444721;1823406023;1584676617;492714355;17155420;2241126886;1543;70;2696600;-19;12198;1679584
2;31;1574314793640;1574314806304;12664;39158994778;6764445916;1818383855;1573250205;492713836;17151011;2243071363;1416;9;2785328;-8;12664;1818560
2;32;1574314806304;1574314818198;11894;39950267328;6764478132;1975695349;1643554563;492720736;17156236;2243180905;1404;7;2773952;4;11894;1709147
2;33;1574314818198;1574314829071;10873;37644894040;6764461978;2077573691;1568563606;492716971;17148912;2242879528;1410;56;2521640;9;10873;1577560
2;34;1574314829071;1574314841435;12364;39084367024;6764438836;1796290640;1589117243;492712167;17150757;2243647554;1374;9;2682832;3;12365;1679676
2;35;1574314841435;1574314853607;12172;37913847502;6764388880;2047055484;1512698510;492704493;17154549;2245786656;1430;14;2805120;12;12172;1746392
2;36;1574314853607;1574314864536;10929;36347912238;6764502361;1968387474;1458934608;492722414;17152728;2247472928;1421;44;2521312;0;10929;1574074
2;37;1574314864537;1574314875305;10768;36916864018;6764446552;1860617112;1554411609;492713870;17146951;2242746327;1211;3;2348240;-27;10769;1545102
2;38;1574314875305;1574314887761;12456;39819808152;6764452392;1906544854;1617059094;492716082;17155176;2243218469;1620;66;2755640;15;12455;1681097
2;39;1574314887761;1574314900400;12639;39495154084;6764437211;1822992007;1586845577;492713015;17146622;2242701343;1431;8;2774280;9;12639;1814545
2;40;1574314900400;1574314911864;11464;37391849614;6764447872;1896139823;1522716166;492714271;17147065;2243231777;1407;16;2729712;1;11465;1651586
2;41;1574314911865;1574314922221;10356;35814766812;6764522972;2080731706;1488913638;492726113;17156098;2242920422;1389;51;2377504;-12;10357;1497804
2;42;1574314922221;1574314935543;13322;39857145754;6764450260;2040897159;1613662075;492714662;17146687;2242586215;1514;19;2904080;-8;13322;1708725
2;43;1574314935543;1574314947601;12058;37491845306;6764419583;2049079280;1489239814;492710356;17156017;2247058041;1533;65;2706496;3;12058;1735785
2;44;1574314947601;1574314959392;11791;39749234234;6764479704;1961693221;1639903223;492719460;17147534;2242838359;1443;17;2780712;-3;11791;1693644
2;45;1574314959392;1574314969374;9982;34664147382;6764473248;2048625483;1431055945;492717272;17153368;2245155846;1139;10;2166456;13;9982;1434241
2;46;1574314969374;1574314982349;12975;39787985992;6764429376;1808184349;1613110769;492712061;17153112;2242779083;1814;125;2734760;4;12975;1752361
2;47;1574314982349;1574314994501;12152;39533206210;6764449757;1761939313;1631541701;492714915;17150213;2241889543;1477;21;2383064;3;12151;1748316
2;48;1574314994501;1574315005988;11487;38765571790;6764485890;1999225739;1596157855;492720655;17149052;2242505231;1389;14;2651744;-13;11488;1647619
2;49;1574315005989;1574315016727;10738;37324921754;6764469579;2000311824;1595441485;492716858;17148992;2240268317;1459;75;2484808;-92;10739;1519922
2;50;1574315016727;1574315029462;12735;40396825118;6764476063;2233868493;1604793929;492719763;17155040;2244071634;1489;27;2646664;105;12712;1658026
2;51;1574315029462;1574315042002;12540;39662536952;6764447144;2085965793;1604483941;492715270;17151322;2243055332;1571;20;2970632;-3;12540;1797395
2;52;1574315042002;1574315052932;10930;36352183176;6764464096;1828314505;1464955113;492716873;17147042;2245827299;1477;59;2522784;-16;10930;1576647
2;53;1574315052932;1574315063124;10192;35180480616;6764477530;2147153526;1446657059;492717509;17151676;2245439722;1200;13;2248712;16;10191;1459755
2;54;1574315063124;1574315076034;12910;38573162186;6764449533;1774751054;1553438388;492715082;17154113;2243536667;1666;76;2869880;5;12911;1769767
2;55;1574315076035;1574315087639;11604;37214581816;6764451332;2201333323;1469355321;492714687;17150612;2246212546;1378;12;2571232;-1;11605;1667179
2;56;1574315087640;1574315098723;11083;37727940446;6764475325;1804083768;1538494866;492717886;17148391;2242539227;1302;13;2463016;-22;11083;1590656
2;57;1574315098723;1574315108805;10082;35025086830;6764489422;2099261821;1449558595;492719696;17146910;2243549568;1388;68;2334904;16;10083;1448832
2;58;1574315108805;1574315121290;12485;37973733490;6764491882;2061255901;1505062377;492722093;17155377;2245262982;1428;26;2669904;-15;12485;1714041
3;10;1574315383155;1574315395077;11922;40165998680;6764434227;2154322501;1659696664;492713132;17146016;2240477728;1249;0;2593256;-1;11922;1710574
3;11;1574315395077;1574315405275;10198;35426265630;6764384653;2143196605;1490538004;492702601;17149858;2242406740;1102;0;2278904;18;10199;1465907
3;12;1574315405275;1574315418824;13549;40494412394;6764459232;1731232862;1648712299;492716395;17152414;2240770599;1600;76;2964744;-16;13549;1809982
3;13;1574315418824;1574315431778;12954;40031269880;6764432728;1781726674;1621328917;492711992;17149316;2243102116;1481;0;3047184;23;12953;1855522
3;14;1574315431778;1574315443121;11343;38004593072;6764397358;2085136155;1555645008;492705659;17148448;2247757080;1411;34;2641112;2;11344;1641007
3;15;1574315443121;1574315453806;10685;37143821748;6764425917;1773273636;1583654895;492709518;17152538;2238885181;1153;2;2377896;-66;10685;1521185
3;16;1574315453806;1574315467643;13837;40881739444;6764444656;2059757657;1626850845;492714107;17148646;2241897813;1512;3;3103736;41;13836;1930995
3;17;1574315467643;1574315479584;11941;38024085678;6764455665;2059045052;1512913545;492715496;17151734;2247340259;1506;45;2788312;19;11942;1723897
3;18;1574315479584;1574315490808;11224;38234874784;6764462309;1790841351;1580412971;492715713;17153695;2240139593;1183;4;2420336;1;11224;1608342
3;19;1574315490808;1574315501757;10949;37643313882;6764481035;1895666205;1612484713;492718359;17148793;2239708331;1345;80;2355584;-87;10949;1367109
3;20;1574315501757;1574315514512;12755;38953283260;6764418239;1869233511;1544784177;492709774;17145071;2245482557;1523;58;2772488;80;12755;1817651
3;21;1574315514512;1574315526536;12024;38117893452;6764470023;2124029393;1498870164;492717061;17150116;2243471172;1329;5;2698320;-16;12024;1719351
3;22;1574315526536;1574315537779;11243;38185751332;6764496695;1914579373;1582147137;492722050;17151004;2241067707;1229;4;2494688;19;11242;1613992
3;23;1574315537779;1574315549133;11354;37698080672;6764392804;1936608232;1583800422;492704529;17147310;2240380629;1384;79;2489320;-14;11316;1448775
3;24;1574315549133;1574315562275;13142;38187150450;6764481413;2158847263;1500061681;492719887;17149425;2247945137;1408;8;2866928;0;13142;1886173
3;25;1574315562276;1574315574287;12011;39036821248;6764417063;2163043274;1581075654;492709771;17149170;2242184435;1418;9;2860272;23;12012;1725192
3;26;1574315574287;1574315585085;10798;37395079572;6764403558;1946048466;1536772421;492706210;17149311;2243223003;1324;46;2456952;-20;10798;1554066
3;27;1574315585085;1574315596995;11910;38190537796;6764430743;1819135676;1600740230;492710945;17158280;2241844084;1320;6;2638472;9;11910;1641091
3;28;1574315596995;1574315610113;13118;39215609198;6764458722;2348563746;1524491569;492715750;17149204;2243951884;1638;44;2952056;-2;13118;1891627
3;29;1574315610113;1574315621647;11534;38208616538;6764442989;1883300342;1552171334;492713307;17150022;2242716651;1350;13;2707624;-6;11534;1659371
3;30;1574315621648;1574315632539;10891;37818781646;6764412509;1941660642;1575457018;492707831;17153864;2241515732;1180;13;2352688;4;10892;1562714
3;31;1574315632539;1574315644519;11980;38737540228;6764385104;1813354647;1609952845;492703837;17146632;2242350622;1468;82;2604536;14;11980;1614897
3;32;1574315644519;1574315657083;12564;37679916082;6764450105;1893262922;1485674953;492713962;17149021;2248973369;1436;14;2858176;-28;12564;1801018
3;33;1574315657084;1574315668199;11115;36710987812;6764373777;2243163311;1456892477;492701554;17147946;2244737135;1309;8;2592624;3;11116;1595487
3;34;1574315668199;1574315679274;11075;37251638660;6764400049;1951820851;1550841332;492706046;17152984;2241247123;1423;49;2597232;10;11075;1588433
3;35;1574315679275;1574315691602;12327;38868641804;6764398299;1847517748;1602274467;492706156;17147509;2242399673;1375;17;2693768;10;12328;1703465
3;36;1574315691603;1574315703784;12181;37522068328;6764445485;1881637124;1484486213;492713466;17145272;2249493451;1545;45;2754976;-23;12182;1759985
3;37;1574315703785;1574315715347;11562;39212117754;6764395803;2119097402;1607471875;492705741;17146504;2242102907;1371;8;2670976;5;11563;1652463
3;38;1574315715347;1574315726356;11009;37939039364;6764391272;1974755103;1615395865;492705080;17153135;2241149741;1240;15;2401472;8;11009;1579460
3;39;1574315726356;1574315739008;12652;39272524524;6764475307;1838378386;1615230088;492718634;17151661;2242378354;1612;91;2797432;-3;12652;1827440
3;40;1574315739008;1574315752001;12993;39148517088;6764460012;2071964546;1577187358;492716351;17146064;2242260758;1550;17;2980176;18;12993;1861653
3;41;1574315752002;1574315763635;11633;39160515514;6764401137;2002584380;1599951532;492706340;17146352;2241733580;1521;56;2717224;-25;11633;1676863
3;42;1574315763635;1574315773806;10171;35334231026;6764365983;2212074665;1470375490;492699560;17151005;2243562578;1218;13;2343608;-2;10172;1458112
3;43;1574315773806;1574315786161;12355;39597602284;6764444623;1982855099;1605756599;492714003;17153650;2242912923;1390;12;2659592;24;12355;1755677
3;44;1574315786161;1574315798870;12709;38674427786;6764414781;2011886774;1536830645;492709025;17154015;2243583871;1644;41;2886536;-22;12708;1837233
3;45;1574315798870;1574315809766;10896;37691970718;6764405181;1807212421;1549623602;492706685;17151682;2244770400;1266;13;2433136;14;10897;1564234
3;46;1574315809767;1574315820527;10760;37372325472;6764440289;1984878392;1568846024;492711716;17151129;2240449923;1242;10;2392984;6;10761;1541254
3;47;1574315820527;1574315833362;12835;39096937186;6764412643;1765354301;1583702167;492708767;17149840;2242383358;1838;79;2356504;-11;12835;1853285
3;48;1574315833362;1574315845113;11751;39244256442;6764432487;1965362898;1589044371;492711217;17147783;2242588816;1395;14;2652480;13;11751;1682773
3;49;1574315845113;1574315856647;11534;38777818562;6764412359;1945557794;1594105437;492708480;17148553;2242514051;1559;57;2718440;1;11534;1673282
3;50;1574315856647;1574315867334;10687;37097669104;6764433624;1975006709;1582641967;492710648;17150720;2240696828;1350;14;2443280;1;10686;1543958
3;51;1574315867334;1574315880733;13399;39690009188;6764429567;1945605813;1594494449;492711911;17148013;2243437201;1514;24;2855808;-7;13400;1828887
3;52;1574315880733;1574315891867;11134;36614267338;6764423126;2013829008;1448300218;492709777;17148873;2247739757;1469;72;2562992;-1;11134;1603150
3;53;1574315891867;1574315903122;11255;38205882688;6764415555;1864423133;1554228538;492708575;17151579;2242944137;1332;18;2545096;-20;11254;1613921
3;54;1574315903122;1574315913425;10303;35726787066;6764461628;1966678893;1483848918;492714836;17150897;2244475070;1228;12;2316288;20;10303;1479163
3;55;1574315913425;1574315926843;13418;38823691616;6764420596;2037694352;1562073773;492710378;17152439;2244056291;1693;89;2849224;10;13419;1747218
3;56;1574315926843;1574315938762;11919;37390649202;6764464443;1970080351;1495512053;492716456;17150555;2247879319;1506;19;2823000;-1;11919;1709333
3;57;1574315938762;1574315950229;11467;37561817558;6764407101;1831713146;1536784152;492707178;17150248;2243202969;1499;66;2659808;-13;11466;1652120
3;58;1574315950229;1574315960212;9983;34570361946;6764451187;1800907161;1445247748;492712883;17153105;2244960234;1241;9;2350904;7;9984;1430808
3;59;1574315960212;1574315972920;12708;38378730774;6764434995;1854813038;1535408069;492713073;17152769;2243501007;1457;19;2696520;5;12707;1703971
4;9;1574316231239;1574316243329;12090;40574367250;6764480328;2369266634;1680048344;492719537;17148828;2240933895;1359;0;2814128;17;12090;1734888
4;10;1574316243329;1574316254294;10965;38119669104;6764440483;1706845837;1669657787;492713301;17147180;2239299125;1164;0;2413712;-12;10966;1572547
4;11;1574316254294;1574316268134;13840;41359264564;6764427904;1767812013;1668605043;492711526;17149222;2241246057;1724;54;3057792;18;13840;1914047
4;12;1574316268135;1574316280340;12205;38717225934;6764479998;1960131782;1553139065;492719285;17153455;2243146879;1350;2;2785768;-6;12205;1749813
4;13;1574316280340;1574316291852;11512;39455631592;6764433275;1821256276;1624581131;492711655;17152899;2240314233;1459;30;2674312;-16;11513;1666343
4;14;1574316291853;1574316303138;11285;38134641696;6764417490;1845774975;1638081065;492709197;17149584;2239340385;1259;2;2593096;7;11286;1439436
4;15;1574316303138;1574316316504;13366;38772741704;6764386291;2114622459;1512690168;492704304;17156075;2247421643;1413;5;2880328;-8;13366;1918388
4;16;1574316316505;1574316328673;12168;39122628222;6764459992;1887785111;1603533049;492715675;17145127;2243906494;1577;23;2870136;9;12169;1768463
4;17;1574316328674;1574316340405;11731;39457975330;6764399883;2011213343;1659714083;492707141;17151100;2240443811;1252;4;2572752;-4;11731;1681295
4;18;1574316340405;1574316352249;11844;39273238318;6764475763;1765472050;1651472667;492718059;17147960;2239783630;1321;7;2677480;-5;11845;1610987
4;19;1574316352249;1574316365251;13002;38727175688;6764469169;1947402799;1524056744;492717075;17150383;2244752973;1683;103;2732456;15;13001;1916752
4;20;1574316365251;1574316376654;11403;38382016796;6764448856;1808922609;1575089966;492713691;17148669;2246522557;1302;4;2653256;10;11403;1634336
4;21;1574316376654;1574316387787;11133;38284148616;6764471726;1996019409;1600156644;492716946;17146657;2240679922;1166;5;2360552;-14;11134;1598908
4;22;1574316387788;1574316399503;11715;38589732018;6764451895;1819676395;1591665817;492715099;17147651;2241181338;1479;76;2695656;5;11715;1620798
4;23;1574316399503;1574316412471;12968;38871666194;6764408051;2107892852;1537823796;492707914;17146180;2246545040;1417;8;2866112;-9;12968;1852617
4;24;1574316412471;1574316423732;11261;38534307352;6764466084;2033220904;1536247445;492717375;17150566;2245755616;1277;11;2569568;4;11262;1612855
4;25;1574316423732;1574316435128;11396;37981061376;6764411077;1778018920;1586327763;492707975;17147242;2239555842;1410;48;2612680;-16;11396;1638107
4;26;1574316435129;1574316447497;12368;39192749248;6764393426;1780852582;1603545135;492705467;17151443;2240666793;1371;11;2718776;20;12369;1717014
4;27;1574316447497;1574316460329;12832;39387054224;6764407448;2025919258;1565300889;492708035;17150477;2244428624;1463;8;2913720;-15;12831;1841902
4;28;1574316460329;1574316471790;11461;39007930914;6764427008;1760680897;1591803318;492710098;17148952;2242975710;1456;51;2681200;4;11461;1642296
4;29;1574316471790;1574316482323;10533;35731204296;6764390255;2328174670;1465596622;492704174;17152015;2244436166;1134;5;2253216;18;10533;1512283
4;30;1574316482323;1574316494332;12009;39115966534;6764390354;2026851563;1588196869;492705056;17149536;2241569280;1499;73;2669536;-27;12009;1647858
4;31;1574316494332;1574316506702;12370;38112284278;6764362257;2488531255;1487436173;492700106;17153478;2249451940;1366;13;2690912;10;12371;1776152
4;32;1574316506702;1574316518608;11906;38532481914;6764451908;1791260086;1575641964;492714668;17148484;2242938519;1418;13;2803848;-10;11905;1709521
4;33;1574316518608;1574316529071;10463;35885244078;6764458641;1961595226;1497248454;492714313;17156751;2241571034;1340;47;2420256;25;10464;1508568
4;34;1574316529072;1574316541766;12694;39164032070;6764406551;1958284416;1572767663;492707586;17155138;2243452972;1424;13;2779848;-6;12694;1759926
4;35;1574316541766;1574316553447;11681;37125841118;6764400447;2018269181;1467993326;492706275;17150155;2247245451;1487;51;2661040;-13;11681;1683021
4;36;1574316553447;1574316564476;11029;36770826204;6764432930;1914653438;1474989800;492711146;17152140;2247794275;1334;15;2606856;12;11029;1584708
4;37;1574316564476;1574316575072;10596;36806137472;6764531243;1910002907;1549098367;492728035;17150646;2241566914;1165;14;2274904;-13;10596;1521103
4;38;1574316575072;1574316587528;12456;38872963404;6764419211;2058244684;1553840296;492710080;17150312;2242899897;1579;88;2763920;0;12457;1699329
4;39;1574316587528;1574316599753;12225;38797711500;6764453985;1903916963;1551728828;492715806;17148027;2243626825;1391;8;2656128;17;12225;1754369
4;40;1574316599754;1574316610930;11176;37744635838;6764496312;1837104297;1527040363;492721894;17148208;2245531213;1368;11;2633304;8;11177;1604037
4;41;1574316610930;1574316621488;10558;36135952066;6764414753;1860446867;1502952926;492708111;17153665;2244646829;1384;38;2399968;-26;10557;1517381
4;42;1574316621488;1574316634680;13192;39531091546;6764487264;1734539915;1613214544;492721429;17147396;2243061267;1521;14;2889192;20;13193;1850524
4;43;1574316634680;1574316646026;11346;37114869510;6764442544;1782854121;1479969928;492712519;17151649;2248402423;1474;45;2530136;0;11345;1638644
4;44;1574316646026;1574316657088;11062;37398839510;6764407390;1852067274;1520772447;492707133;17148426;2242608972;1378;13;2644128;-2;11062;1589231
4;45;1574316657088;1574316668153;11065;37699248088;6764430936;1774610652;1631048756;492712176;17151876;2240919014;1250;11;2385424;-2;11065;1587312
4;46;1574316668153;1574316681097;12944;39855300168;6764457233;1905686190;1620158471;492715516;17150307;2243016168;1720;82;2906392;-10;12944;1837974
4;47;1574316681097;1574316692950;11853;37584921912;6764471929;2128509306;1517180556;492717881;17154197;2244300578;1326;13;2533672;18;11853;1701735
4;48;1574316692950;1574316703961;11011;37635842186;6764421460;2198806038;1517667528;492710004;17153509;2246351760;1731;34;2165320;-26;11011;1626802
4;49;1574316703961;1574316714702;10741;37276218344;6764426030;1921981393;1568054269;492709967;17150009;2240487926;1277;14;2394384;22;10742;1544237
4;50;1574316714703;1574316727527;12824;38967999038;6764443134;2035243578;1557098474;492714125;17152443;2243812586;1492;16;2829480;-7;12824;1809893
4;51;1574316727527;1574316739110;11583;37126467312;6764463973;1837479023;1481858331;492717221;17147496;2245118518;1598;51;2528168;-14;11583;1680525
4;52;1574316739110;1574316750331;11221;38279102856;6764429728;1943117688;1535172819;492710970;17148759;2242858416;1306;16;2471320;6;11221;1609639
4;53;1574316750331;1574316760664;10333;35597141402;6764455420;1875222160;1501757088;492715626;17149857;2243823642;1416;81;2388560;-1;10334;1495286
4;54;1574316760664;1574316772909;12245;39133483030;6764468236;2029608233;1557702287;492717293;17155182;2243495203;1411;21;2638480;12;12245;1667290
4;55;1574316772909;1574316784923;12014;37777753456;6764479286;1823551647;1491719762;492719450;17148764;2246844514;1478;16;2767696;-5;12013;1725681
4;56;1574316784923;1574316795690;10767;36552208724;6764462418;1835034625;1470540052;492715945;17152341;2245987547;1472;55;2512872;11;10768;1568984
4;57;1574316795691;1574316805944;10253;35511786882;6764400931;1813762634;1477347546;492705470;17148145;2244303299;1188;23;2238904;-4;10254;1476251
4;58;1574316805945;1574316817937;11992;38168550926;6764422778;1871398927;1546868616;492710189;17142944;2242584119;1422;19;2648792;-2;11993;1597848
