0;10;1573254297870;1573254309405;11535;38746760566;6764434512;1882019037;1642826614;492720529;17151705;2244786045;72;28;8136;0;122;588
0;11;1573254309405;1573254321168;11763;39673813116;6764381585;1794013730;1692110686;492709481;17147467;2242522017;17;17;3696;0;11;18
0;12;1573254321168;1573254333282;12114;39419704058;6764452873;1739860217;1683400123;492723475;17151920;2243803033;20;17;2368;0;17;96
0;13;1573254333282;1573254344995;11713;39611429506;6764506309;1807167784;1675306337;492731306;17149922;2243559738;41;12;6968;0;103;419
0;14;1573254344995;1573254356835;11840;40127878226;6764450042;1736742238;1686286890;492723000;17149585;2245054116;16;18;3704;0;10;13
0;15;1573254356835;1573254369179;12344;39406950666;6764453790;1957321613;1694402452;492724707;17154995;2242549509;23;20;2560;0;8;29
0;16;1573254369179;1573254380890;11711;39782605162;6764455392;1769485339;1704575660;492721522;17146957;2242472295;65;37;10216;0;130;544
0;17;1573254380890;1573254393148;12258;39642932510;6764405261;1964794115;1688588887;492711522;17151973;2242811803;18;18;2360;0;7;16
0;18;1573254393148;1573254405035;11887;39198890154;6764428425;1992403260;1660866801;492722995;17153300;2243113923;45;16;7264;0;123;488
0;19;1573254405035;1573254416839;11804;39325972350;6764419179;1838240069;1679262796;492712670;17148923;2243604111;16;22;2968;0;8;9
0;20;1573254416839;1573254429041;12202;39566565020;6764403451;1755945413;1685727448;492712386;17151682;2243190186;29;13;3464;0;12;51
0;21;1573254429042;1573254440916;11874;39547712770;6764417577;1746974141;1686780747;492714764;17144120;2242653438;59;43;7648;0;130;625
0;22;1573254440917;1573254452806;11889;39829103388;6764448834;2059539682;1684308271;492720715;17148060;2242879618;18;17;2352;0;7;29
0;23;1573254452806;1573254465361;12555;39851274948;6764430615;2066925881;1672552637;492726207;17150142;2243456670;7;0;2312;0;4;4
0;24;1573254465361;1573254477143;11782;39736688162;6764456453;1800093707;1681734607;492723183;17147816;2243574380;52;38;8672;0;101;380
0;25;1573254477144;1573254488888;11744;39898723634;6764450254;2033199049;1682992916;492725106;17152788;2242849046;24;18;3000;0;11;66
0;26;1573254488888;1573254501121;12233;39579098828;6764407758;2072207383;1682540060;492719290;17149851;2242633205;19;19;3424;0;9;19
0;27;1573254501121;1573254513034;11913;39884559882;6764461716;1792867980;1703057816;492726997;17153057;2242985959;42;22;9080;0;117;428
0;28;1573254513034;1573254524663;11629;39062195172;6764477282;1745906183;1648961749;492728768;17149619;2244475039;20;14;3120;0;9;15
0;29;1573254524663;1573254536590;11927;38695145186;6764464492;2038544239;1626975030;492723337;17151084;2243786891;14;22;2952;0;7;12
0;30;1573254536591;1573254548605;12014;39914975478;6764471915;1877684206;1672574987;492728303;17152157;2244074374;56;53;9304;0;126;516
0;31;1573254548605;1573254560380;11775;40206583030;6764436671;2136556204;1666037519;492720266;17146727;2242780276;17;17;3696;0;18;22
0;32;1573254560380;1573254572160;11780;39962842016;6764396158;1754886894;1672375922;492715952;17143379;2244664374;4;0;1384;0;4;4
0;33;1573254572160;1573254583891;11731;39563400470;6764445446;1885864911;1642004619;492720763;17148174;2242995840;60;43;10576;0;98;455
0;34;1573254583891;1573254595471;11580;37978098452;6764486999;1937710708;1592677787;492731033;17152086;2247493529;13;14;2152;0;7;10
0;35;1573254595471;1573254607254;11783;39417715830;6764407717;2056256024;1664352730;492710616;17150153;2242922449;21;20;2544;0;7;24
0;36;1573254607254;1573254619385;12131;39206053060;6764415857;1805629125;1663196918;492716811;17153166;2244223034;54;22;8376;0;103;593
0;37;1573254619385;1573254631292;11907;38662027276;6764449662;1845567124;1627062866;492726842;17149994;2243914429;18;17;3712;0;11;14
0;38;1573254631292;1573254643304;12012;39249681072;6764474389;1790637461;1664233367;492729312;17149819;2243645291;18;22;2536;0;9;24
0;39;1573254643304;1573254654996;11692;39428480264;6764458974;1788660328;1669455974;492727477;17154885;2243087272;69;42;9592;0;113;668
0;40;1573254654996;1573254666603;11607;38684471564;6764442218;2212014040;1615539025;492720049;17151767;2246585353;6;0;2304;0;5;5
0;41;1573254666604;1573254677911;11307;37967953350;6764442656;1960589281;1579851648;492718407;17148244;2244274527;80;41;12840;0;164;755
0;42;1573254677911;1573254689684;11773;38674629412;6764409868;1913390572;1615082496;492718831;17150032;2246954772;17;20;2512;0;6;15
0;43;1573254689684;1573254702261;12577;39448976182;6764464411;2083993242;1665511220;492737740;17146574;2242982560;20;19;3296;0;10;17
0;44;1573254702261;1573254714087;11826;38641842922;6764415020;2259947310;1602818659;492718947;17154333;2243605054;66;47;11424;0;132;594
0;45;1573254714088;1573254726230;12142;38389320592;6764428058;1790224126;1629961191;492732965;17149357;2245039909;4;0;1384;0;4;4
0;46;1573254726231;1573254738024;11793;39546908894;6764413309;1939147826;1668116419;492715932;17145615;2244129423;25;15;2536;0;10;90
0;47;1573254738024;1573254749886;11862;39733802034;6764460505;1807528840;1687571573;492725177;17151276;2242763383;109;54;18472;0;219;1463
0;48;1573254749886;1573254761905;12019;39524733392;6764514240;1797875318;1676371701;492726932;17148086;2242470968;498;49;53920;0;1731;2338
0;49;1573254761905;1573254774261;12356;39560408492;6764407464;1972599431;1663633839;492718211;17151645;2242833766;6;0;1848;0;6;6
0;50;1573254774262;1573254786550;12288;39715595834;6764406127;2070979946;1648731614;492715524;17154728;2242487792;100;54;15752;0;214;1156
0;51;1573254786550;1573254798190;11640;39584808450;6764393864;1944491918;1667871466;492711841;17147978;2242993959;98;26;3384;0;274;2208
0;52;1573254798190;1573254810302;12112;39586299694;6764436208;2032216722;1674222853;492720166;17150320;2242689923;24;13;2960;0;10;63
0;53;1573254810303;1573254821975;11672;38747321060;6764414745;1876324461;1608610760;492711014;17149169;2243566310;88;71;15960;0;178;930
0;54;1573254821975;1573254833851;11876;39056249322;6764400140;1810272707;1645392902;492716967;17148150;2244245373;4;0;1384;0;3;3
0;55;1573254833851;1573254845981;12130;39401187900;6764423693;1776049496;1674521091;492722718;17154279;2243218595;65;45;12368;0;148;2753
0;56;1573254845982;1573254857958;11976;38988142366;6764477690;1945162290;1622220682;492721246;17154707;2244696708;31;15;3944;0;13;88
0;57;1573254857958;1573254870295;12337;39279968480;6764439061;1885116017;1665687193;492716991;17150125;2242792312;21;15;2504;0;10;46
0;58;1573254870295;1573254882148;11853;39784569738;6764432548;2056763485;1682364680;492720824;17151602;2242950018;58;40;11720;0;153;642
0;59;1573254882148;1573254894027;11879;39653728334;6764431890;1907587173;1667133286;492717717;17152938;2243842445;25;17;3456;0;10;66
1;10;1573255131483;1573255143069;11586;39214954242;6764441785;1749788704;1682812044;492720957;17149266;2243416879;4;0;1384;0;3;3
1;11;1573255143070;1573255155070;12000;38873994456;6764437078;1822332889;1652587397;492722838;17152651;2243135267;61;35;8928;0;114;462
1;12;1573255155070;1573255167174;12104;39613353640;6764391309;2064632775;1687543093;492708996;17151598;2241803925;18;18;2816;0;17;76
1;13;1573255167174;1573255179074;11900;39347458586;6764394927;1753860724;1689967973;492713744;17154622;2243055237;33;0;2784;0;12;139
1;14;1573255179074;1573255190895;11821;39627514180;6764447206;1946699311;1695480689;492718866;17150497;2243151360;44;18;7320;0;94;448
1;15;1573255190895;1573255202853;11958;39235119470;6764454452;1918974690;1683620023;492722992;17152577;2242784816;21;19;2536;0;5;18
1;16;1573255202853;1573255214759;11906;39455752626;6764412729;1767347147;1695359418;492716632;17149452;2242503999;54;33;8560;0;100;402
1;17;1573255214759;1573255226669;11910;39542083156;6764445088;1826821668;1688729719;492729598;17154810;2242169155;21;18;3736;0;17;23
1;18;1573255226669;1573255238380;11711;39323652264;6764406044;1721189720;1684451757;492713133;17153862;2242836769;20;17;2520;0;8;26
1;19;1573255238380;1573255250187;11807;39294625128;6764444585;1816128353;1683223306;492715760;17147285;2242751970;35;18;7160;0;99;291
1;20;1573255250187;1573255262303;12116;39372997344;6764430188;1867482382;1685590286;492725526;17153560;2243057128;17;17;2344;0;7;17
1;21;1573255262303;1573255273957;11654;38921995752;6764469366;1900682384;1644572766;492731169;17155151;2243515527;54;41;8264;0;105;402
1;22;1573255273957;1573255286006;12049;39635887572;6764510047;1914788556;1682067761;492744461;17148599;2243357058;21;14;2800;0;9;46
1;23;1573255286006;1573255297940;11934;39648041342;6764450551;1817505819;1683267450;492720645;17153759;2242610248;6;0;2304;0;5;5
1;24;1573255297940;1573255310005;12065;39336989218;6764469416;1827077764;1675819634;492729674;17151394;2242795878;62;31;8184;0;93;482
1;25;1573255310005;1573255321810;11805;39239320182;6764493748;1815687685;1685645498;492732138;17149854;2242552380;18;21;2536;0;8;21
1;26;1573255321810;1573255333595;11785;38909198852;6764454736;1875273049;1650998155;492722252;17152827;2242639269;65;36;10312;0;110;565
1;27;1573255333595;1573255345835;12240;39434274274;6764466832;1948326179;1680738781;492726198;17145202;2241957319;24;15;3744;0;11;19
1;28;1573255345835;1573255357679;11844;39099295378;6764460680;1956717431;1671964854;492723206;17153415;2243104465;4;0;1384;0;4;4
1;29;1573255357679;1573255369534;11855;38991910772;6764460114;1772829248;1657156971;492724752;17153159;2243720494;59;45;9400;0;127;533
1;30;1573255369534;1573255381631;12097;39303258984;6764433128;1898815421;1677990113;492714272;17149478;2242152216;14;22;2368;0;60;83
1;31;1573255381631;1573255393525;11894;39511436734;6764446584;1890031420;1676125109;492725693;17154258;2242784017;21;16;2512;0;8;13
1;32;1573255393526;1573255405194;11668;39678237208;6764431539;1800711930;1675624779;492721871;17154400;2243021681;56;14;9376;0;80;477
1;33;1573255405194;1573255416708;11514;39157173136;6764461249;1976198728;1640200925;492722774;17146707;2243469959;21;24;2728;0;10;33
1;34;1573255416708;1573255428542;11834;39466905712;6764400887;1898870318;1678195017;492712181;17150489;2242056537;16;16;2328;0;8;17
1;35;1573255428542;1573255440194;11652;39497314592;6764414507;1823824386;1687335298;492714869;17150642;2242224457;68;40;9384;0;107;598
1;36;1573255440194;1573255451926;11732;39208250068;6764422744;1869020876;1659451464;492719757;17150191;2243012498;6;0;1848;0;4;4
1;37;1573255451926;1573255463520;11594;39300498708;6764392451;1870626188;1669654082;492709495;17149588;2242182368;54;35;9792;0;104;427
1;38;1573255463520;1573255475453;11933;39204802424;6764433842;1775990666;1665022840;492717717;17147611;2241957519;15;26;2544;0;18;58
1;39;1573255475454;1573255487331;11877;39205356640;6764448116;1847917729;1665587294;492721632;17148857;2243735775;13;14;2152;0;16;47
1;40;1573255487331;1573255499023;11692;37976325428;6764437030;1828247106;1591414582;492721822;17147087;2246366916;77;37;11160;0;121;678
1;41;1573255499023;1573255510809;11786;39428124316;6764430294;1851646234;1692125943;492724571;17149839;2242950867;4;0;1384;0;2;2
1;42;1573255510809;1573255522876;12067;39402402912;6764424923;1798933436;1671947560;492717896;17151808;2242340240;21;19;2984;0;10;12
1;43;1573255522876;1573255534749;11873;39488355594;6764467435;1792044423;1672493586;492723801;17151101;2243036817;70;49;11912;0;142;601
1;44;1573255534749;1573255546289;11540;39632352474;6764454910;1898314577;1674509230;492719372;17154024;2242624346;27;15;2632;0;17;47
1;45;1573255546289;1573255558206;11917;39348604832;6764424896;1850165852;1666571961;492719657;17146792;2243284997;60;34;11896;0;135;644
1;46;1573255558206;1573255570117;11911;39509352292;6764429568;1906922810;1676848531;492724961;17150025;2243004639;15;20;2800;0;8;9
1;47;1573255570117;1573255582041;11924;39539807454;6764475408;1892041153;1686516001;492727429;17150624;2242222999;16;18;3248;0;9;13
1;48;1573255582042;1573255593650;11608;38028500572;6764437229;1871244056;1607171174;492718831;17146014;2247125846;50;55;10800;0;181;508
1;49;1573255593651;1573255605132;11481;38707269902;6764433302;1937595326;1625521092;492720318;17148406;2245574822;4;0;1384;0;4;4
1;50;1573255605132;1573255616837;11705;38461380060;6764402680;1940465577;1595773952;492712308;17148721;2245450419;29;12;2640;0;57;149
1;51;1573255616837;1573255628631;11794;39514746408;6764411819;1922456627;1683186716;492715608;17149733;2242182956;525;46;55976;0;1947;3244
1;52;1573255628631;1573255640444;11813;39258988864;6764403436;1980883880;1647489224;492715600;17149578;2242765375;30;13;2680;0;81;418
1;53;1573255640444;1573255652557;12113;39442280476;6764416645;1760959562;1663635372;492712573;17152443;2243205275;174;58;16072;0;275;4602
1;54;1573255652557;1573255664944;12387;39407701398;6764469205;1792924671;1663903689;492724155;17148990;2244009288;4;0;1384;0;3;3
1;55;1573255664945;1573255676829;11884;39087308632;6764429478;1848908751;1656137084;492713639;17150827;2242504543;26;8;2368;0;18;86
1;56;1573255676829;1573255688671;11842;39032531768;6764486372;1824050725;1644575732;492729733;17147830;2242762805;91;64;16088;0;208;921
1;57;1573255688671;1573255700697;12026;39215789800;6764400270;1977941527;1653171467;492711161;17147662;2242683448;23;16;2576;0;19;161
1;58;1573255700697;1573255712366;11669;38766668104;6764423299;1962533868;1614437640;492719299;17153446;2244581161;7;0;2312;0;7;7
1;59;1573255712367;1573255724402;12035;39555480408;6764427093;2094399888;1645622230;492722363;17147564;2243587904;109;43;12848;0;234;1514
2;10;1573255963693;1573255975438;11745;39547443254;6764480450;1766895888;1694611798;492729772;17149140;2245041396;75;32;9336;0;98;542
2;11;1573255975438;1573255987388;11950;39393326238;6764422937;1924152507;1695267113;492717745;17148575;2242836537;16;14;2312;0;7;15
2;12;1573255987388;1573255999202;11814;39415389758;6764430088;1784336139;1707649789;492722598;17147532;2243692903;17;25;2552;0;10;41
2;13;1573255999209;1573256011104;11895;39424514320;6764444872;1913317834;1688641972;492720881;17155632;2243366126;60;35;9480;0;102;498
2;14;1573256011104;1573256023225;12121;39241693996;6764443422;1740599336;1704280177;492721548;17149121;2244123852;4;0;1384;0;2;2
2;15;1573256023225;1573256034818;11593;39513363642;6764415961;1800233955;1693645534;492717392;17148350;2243989294;22;21;3008;0;9;26
2;16;1573256034818;1573256046722;11904;39614054586;6764485638;2137276365;1686864052;492727039;17155908;2243466256;64;37;9056;0;123;540
2;17;1573256046722;1573256058588;11866;39173677560;6764505454;1757534955;1695663835;492738676;17151292;2243695608;22;14;2360;0;9;47
2;18;1573256058588;1573256070622;12034;39049683264;6764429624;1802116482;1683384576;492715822;17150867;2243656660;49;12;8288;0;103;482
2;19;1573256070622;1573256082834;12212;39294279400;6764412569;1788940348;1691795171;492716398;17153714;2242951972;13;16;2304;0;7;9
2;20;1573256082834;1573256094618;11784;38743509876;6764455506;1841845843;1658020326;492729524;17146110;2244741891;25;19;2584;0;9;25
2;21;1573256094618;1573256106451;11833;39520188704;6764438421;1757203648;1693429971;492718146;17147742;2242691158;86;42;13672;0;193;700
2;22;1573256106451;1573256118151;11700;39283443426;6764448058;1803258235;1697942017;492717566;17158540;2242920340;21;16;2376;0;8;46
2;23;1573256118151;1573256130339;12188;39725073716;6764446747;1957887381;1706252506;492723887;17152364;2242425053;7;0;2312;0;6;6
2;24;1573256130339;1573256142167;11828;39543466652;6764426174;1990490303;1688753052;492717906;17153283;2244330840;78;33;10792;0;111;686
2;25;1573256142167;1573256153923;11756;39858022338;6764453826;1954251790;1681445519;492727515;17144424;2245074617;20;13;2640;0;10;28
2;26;1573256153923;1573256166208;12285;39507059800;6764422804;1854884987;1701479299;492713172;17154751;2242398523;18;20;3432;0;10;17
2;27;1573256166208;1573256178089;11881;39217913954;6764415483;1767049749;1696865741;492715072;17153584;2242656152;44;24;8856;0;115;446
2;28;1573256178089;1573256189993;11904;39520642618;6764482157;1769842935;1704404371;492725961;17144982;2243501705;22;17;2832;0;11;24
2;29;1573256189993;1573256201839;11846;39612363030;6764452503;1956074597;1690619456;492722357;17149190;2243881252;59;34;9920;0;117;510
2;30;1573256201840;1573256213799;11959;39723568018;6764419460;2052108882;1704314649;492724976;17147800;2243993008;20;21;2992;0;10;23
2;31;1573256213799;1573256225483;11684;39128540784;6764436274;1772885640;1672845919;492721031;17144816;2244701331;20;20;3440;0;9;23
2;32;1573256225483;1573256237400;11917;39872403338;6764483971;2156914735;1705056134;492725936;17150240;2243898610;55;22;8152;0;95;578
2;33;1573256237401;1573256248921;11520;38011190228;6764419682;1814053230;1607468150;492713872;17147656;2245394528;20;20;2544;0;7;11
2;34;1573256248921;1573256260553;11632;39760496528;6764459263;1983983328;1696578910;492719110;17149250;2242299823;23;13;3712;0;12;44
2;35;1573256260553;1573256272381;11828;39587330162;6764454774;1839351141;1692138933;492724240;17149551;2244204342;65;35;8784;0;105;537
2;36;1573256272381;1573256284513;12132;38297381326;6764418531;1959518696;1600539746;492724201;17150493;2243399807;7;0;2312;0;6;6
2;37;1573256284513;1573256296353;11840;39485371500;6764433773;2054071811;1691286718;492726854;17151622;2244273534;73;38;11800;0;122;675
2;38;1573256296353;1573256308153;11800;39387457184;6764439714;2030110441;1671514415;492717624;17149537;2243210482;16;21;2376;0;17;45
2;39;1573256308153;1573256320292;12139;39365197732;6764433592;1755880967;1660190465;492719272;17151785;2243346826;20;20;3896;0;10;17
2;40;1573256320292;1573256332125;11833;39688231200;6764421635;1941994510;1682831316;492716182;17153033;2244238699;51;26;10008;0;128;559
2;41;1573256332125;1573256344020;11895;38128369390;6764428995;1980090658;1595856020;492724720;17144802;2246006654;16;19;2352;0;7;14
2;42;1573256344020;1573256355818;11798;39333439374;6764478735;1816489472;1668179446;492723333;17151544;2242929939;21;21;3920;0;10;13
2;43;1573256355818;1573256367788;11970;38732045226;6764428496;2063829605;1617251843;492720211;17150210;2245340916;137;33;13688;0;229;2775
2;44;1573256367788;1573256379375;11587;38597469434;6764444059;1821439481;1623549214;492721434;17152832;2244784509;23;19;2696;0;76;222
2;45;1573256379375;1573256390875;11500;38209608316;6764422373;1771525145;1608397065;492712221;17149392;2246237239;8;0;2768;0;10;10
2;46;1573256390875;1573256402710;11835;39384771368;6764445418;1800005818;1670705774;492719225;17147442;2243719565;170;44;14000;0;273;6756
2;47;1573256402710;1573256414976;12266;39305106614;6764445529;1996171120;1669888775;492727857;17151676;2243245427;532;37;54456;0;1981;3621
2;48;1573256414976;1573256426730;11754;39022732686;6764397650;1971645046;1631875206;492709262;17145119;2243910518;29;8;2816;0;9;74
2;49;1573256426730;1573256438870;12140;38977292084;6764408827;2028861189;1642741650;492710258;17150318;2245390762;4;0;1384;0;4;4
2;50;1573256438870;1573256450501;11631;39188481522;6764396647;1823877799;1650557186;492707429;17152683;2243321510;264;49;16272;0;365;9942
2;51;1573256450501;1573256461217;10716;36761404240;6764451087;2093555424;1486089973;492716323;17156950;2247729586;34;20;4072;0;23;107
2;52;1573256461218;1573256473101;11883;39112530132;6764445136;1972630289;1662245938;492728393;17153610;2244322666;20;10;2312;0;9;42
2;53;1573256473101;1573256485245;12144;39280979968;6764423462;1855214509;1661840584;492717007;17153471;2243383383;162;20;15680;0;268;7942
2;54;1573256485245;1573256497247;12002;39545020384;6764472096;2192854954;1659491423;492733364;17149749;2244696175;29;8;2376;0;10;111
2;55;1573256497247;1573256508964;11717;38316868092;6764447026;2066760288;1603701136;492717714;17144379;2246542241;171;30;12192;0;276;7190
2;56;1573256508964;1573256520705;11741;39473591636;6764425081;2051221657;1664560861;492713663;17148695;2243867013;42;2;3920;0;58;1086
2;57;1573256520705;1573256532177;11472;38955909800;6764423335;2124561788;1600021204;492715183;17147566;2244781973;24;12;2512;0;8;58
2;58;1573256532177;1573256543863;11686;39749756476;6764419047;2150539855;1660291379;492717844;17152703;2245321424;116;24;12640;0;239;2737
2;59;1573256543863;1573256555865;12002;39515325152;6764480393;2069976895;1661660037;492728691;17156315;2244836992;17;24;2552;0;18;63
3;10;1573256796833;1573256809130;12297;39646303212;6764431252;1756350928;1693083268;492725016;17152629;2242250784;6;0;1848;0;6;6
3;11;1573256809130;1573256820956;11826;38873905980;6764439600;1786372422;1639379202;492719386;17152776;2243458158;21;12;3240;0;9;45
3;12;1573256820956;1573256833364;12408;39879392650;6764452955;1988132777;1689535651;492722345;17152687;2242801735;58;50;9064;0;119;498
3;13;1573256833364;1573256845281;11917;39588751180;6764420783;1742107826;1705187090;492721208;17153018;2242585773;21;16;2520;0;16;36
3;14;1573256845281;1573256857215;11934;38922562524;6764442207;1832843022;1649841079;492724705;17146983;2243409991;62;33;9760;0;110;456
3;15;1573256857215;1573256869468;12253;39773681058;6764457496;1782318787;1696235569;492729189;17152365;2243500518;4;0;1384;0;3;3
3;16;1573256869468;1573256881336;11868;38256976994;6764433529;1979204630;1601084716;492720418;17149994;2245787394;21;12;2784;0;9;36
3;17;1573256881336;1573256893077;11741;39751168442;6764457983;1878507216;1691791579;492723498;17150854;2243075629;58;37;9176;0;128;409
3;18;1573256893077;1573256904856;11779;39841107508;6764399960;2001007826;1695222553;492711599;17149982;2242844802;15;20;2496;0;9;27
3;19;1573256904857;1573256916752;11895;39688045780;6764396008;1807098004;1703812086;492718509;17151056;2242566126;7;0;2312;0;5;5
3;20;1573256916752;1573256928971;12219;40203666388;6764430975;2004399048;1701498639;492716699;17151480;2241923517;57;34;8584;0;112;460
3;21;1573256928971;1573256940582;11611;39668958762;6764428899;1856755256;1690363426;492717101;17151522;2242187378;39;38;7360;0;116;316
3;22;1573256940582;1573256952672;12090;39665227148;6764505745;1903671370;1681344678;492733363;17148967;2242286256;21;21;3456;0;10;22
3;23;1573256952672;1573256964742;12070;39757699314;6764455019;1952111269;1690793452;492721097;17145956;2242516603;19;20;2976;0;8;18
3;24;1573256964742;1573256976978;12236;40046421614;6764479936;2263774882;1684409798;492727901;17152509;2243213355;58;16;9272;0;129;679
3;25;1573256976990;1573256989110;12120;39339485964;6764455218;1951166317;1670977905;492725733;17149686;2244899590;18;17;2360;0;8;14
3;26;1573256989110;1573257001348;12238;39965922470;6764463753;2101026440;1683768417;492725912;17154007;2242445043;50;45;11240;0;142;364
3;27;1573257001348;1573257013502;12154;39911731650;6764402944;2124134084;1687909599;492715391;17149809;2242344869;19;22;2552;0;17;38
3;28;1573257013502;1573257025503;12001;39929575478;6764423920;2009891777;1675909186;492727203;17152375;2244292916;17;18;2496;0;8;25
3;29;1573257025503;1573257037568;12065;39982515078;6764411290;1919598613;1692609140;492714561;17148176;2241688802;51;18;9664;0;96;526
3;30;1573257037568;1573257049322;11754;39981596592;6764428763;1969102162;1707122038;492718345;17152740;2243114278;15;26;2552;0;66;94
3;31;1573257049322;1573257061317;11995;39900013106;6764384010;1937448589;1702482698;492709204;17147312;2242155026;21;18;2984;0;17;33
3;32;1573257061317;1573257073367;12050;39867432330;6764443795;1975065980;1679546821;492718677;17154819;2241598166;56;46;10680;0;112;424
3;33;1573257073367;1573257085706;12339;39735401464;6764442587;1881600636;1686100415;492723822;17149860;2242852625;4;0;1384;0;4;4
3;34;1573257085706;1573257098166;12460;39822027060;6764454912;1994751167;1689016805;492729094;17151151;2242829533;18;15;2792;0;7;37
3;35;1573257098166;1573257110511;12345;40055771746;6764429418;2100037140;1704491476;492720643;17151660;2242718643;66;42;10784;0;195;1644
3;36;1573257110511;1573257122238;11727;39398706046;6764414209;1852297343;1672297321;492713814;17151088;2242886813;19;16;2496;0;16;30
3;37;1573257122238;1573257134433;12195;39345039950;6764476513;1919203409;1668918919;492723112;17146813;2241554760;75;43;13560;0;176;667
3;38;1573257134433;1573257146526;12093;39344075036;6764471237;1836506122;1660796518;492731148;17151913;2242741820;4;0;1384;0;4;4
3;39;1573257146526;1573257158337;11811;39413449564;6764461049;1951776423;1651939564;492723893;17146185;2243266818;15;22;2512;0;16;30
3;40;1573257158337;1573257170105;11768;39270813696;6764451482;1866791838;1660477076;492723630;17153723;2242103985;70;42;11344;0;103;544
3;41;1573257170105;1573257181692;11587;38354594054;6764395377;2042813858;1608286694;492714190;17151266;2244400514;19;16;3256;0;8;17
3;42;1573257181692;1573257193487;11795;39515838488;6764466384;1929693546;1678171350;492720066;17154199;2242861559;4;0;1384;0;4;4
3;43;1573257193487;1573257205554;12067;39350332888;6764475186;1820528813;1650373665;492735053;17154728;2243347396;95;47;15032;0;200;1001
3;44;1573257205554;1573257217432;11878;39520111032;6764417499;1793243329;1675811896;492713716;17152311;2244331099;17;17;2352;0;7;25
3;45;1573257217432;1573257229176;11744;39714580550;6764470840;1836825034;1679573067;492730548;17150932;2242328474;36;10;3608;0;14;111
3;46;1573257229176;1573257241044;11868;39492473524;6764433901;2009755604;1669589545;492718262;17155194;2242180008;84;40;13280;0;153;920
3;47;1573257241045;1573257253166;12121;39499173610;6764400967;1917926842;1667917356;492713104;17148544;2242040540;484;29;52152;0;1485;2234
3;48;1573257253166;1573257265124;11958;39137038860;6764464371;1858060030;1658524444;492723314;17149793;2243174613;14;21;2360;0;15;42
3;49;1573257265124;1573257276896;11772;39035410304;6764410165;1840122048;1647323551;492717468;17149907;2242185709;30;14;3992;0;82;235
3;50;1573257276896;1573257288691;11795;39126887918;6764420524;2008024317;1630062126;492713463;17148260;2243042760;183;43;14520;0;257;3623
3;51;1573257288692;1573257300067;11375;39185801400;6764408383;1808948474;1649056988;492711023;17148721;2242637642;4;0;1384;0;2;2
3;52;1573257300067;1573257311905;11838;38770509364;6764392635;1828233888;1622754342;492713852;17152005;2241506784;27;10;2872;0;26;170
3;53;1573257311905;1573257323873;11968;38697936998;6764454941;1960323858;1618018038;492721060;17147323;2243935819;125;50;16720;0;171;1536
3;54;1573257323873;1573257335811;11938;39143774424;6764471202;1978354782;1650312463;492728047;17147120;2242505526;27;7;2376;0;18;97
3;55;1573257335811;1573257348006;12195;39396475166;6764443435;2031083453;1649110201;492724993;17156617;2242339914;31;10;3448;0;11;104
3;56;1573257348006;1573257360001;11995;38382414208;6764430504;2068705164;1596738615;492718989;17146530;2246073052;73;26;11616;0;141;905
3;57;1573257360001;1573257372075;12074;39529303776;6764470008;2079755154;1658205571;492726520;17150870;2243104646;15;25;2584;0;71;111
3;58;1573257372076;1573257383701;11625;39178194800;6764391888;1980683900;1644265919;492707972;17145868;2242052789;23;19;3008;0;20;140
3;59;1573257383702;1573257395319;11617;39423857612;6764427236;1829499890;1645118702;492722169;17146558;2245322900;89;39;11328;0;133;1057
4;10;1573257632218;1573257643916;11698;39500311242;6764422139;1814371463;1685403574;492718188;17146734;2242476908;50;16;8176;0;107;543
4;11;1573257643916;1573257655677;11761;39622596754;6764446939;1953245533;1694975190;492720068;17146846;2242722609;16;19;2496;0;6;12
4;12;1573257655677;1573257667908;12231;39606273954;6764462027;2040087348;1677111503;492724934;17149611;2243873273;21;14;2664;0;11;40
4;13;1573257667908;1573257679900;11992;39627221742;6764418144;1890763212;1688204545;492716691;17150763;2242160923;58;36;9192;0;95;436
4;14;1573257679900;1573257692021;12121;39404261346;6764437550;1725811185;1687369509;492717785;17151545;2242479300;4;0;1384;0;4;4
4;15;1573257692021;1573257704048;12027;39473575722;6764420449;1800372974;1682556718;492724453;17146779;2242820360;23;18;2544;0;7;46
4;16;1573257704048;1573257716364;12316;39897992320;6764451492;2098758104;1664454878;492724209;17149599;2242588412;58;36;9360;0;93;385
4;17;1573257716364;1573257728431;12067;39513521030;6764457412;1779953726;1683459469;492718705;17149440;2242509910;26;10;2360;0;9;74
4;18;1573257728431;1573257740307;11876;38113554332;6764420978;1939965445;1596400760;492717846;17151830;2245625710;16;13;2304;0;7;24
4;19;1573257740307;1573257752228;11921;39676897658;6764407492;1787041541;1664347335;492715801;17148743;2242884204;37;20;7816;0;100;207
4;20;1573257752228;1573257764134;11906;39597820992;6764402489;1762175489;1677109217;492710777;17151240;2241966753;24;20;3480;0;10;22
4;21;1573257764134;1573257776435;12301;39920407992;6764433338;2074002859;1688857723;492720295;17155856;2243651750;41;41;7904;0;107;316
4;22;1573257776435;1573257788580;12145;39442643870;6764463572;1790916084;1683628731;492724144;17155843;2243011768;21;19;2536;0;8;31
4;23;1573257788580;1573257800612;12032;39778536288;6764459025;2052186893;1687571646;492723581;17154644;2242028475;8;0;2768;0;7;7
4;24;1573257800612;1573257812477;11865;39679970520;6764443061;1799440016;1662730869;492717753;17154229;2242896424;46;32;8184;0;100;242
4;25;1573257812477;1573257824433;11956;39808064934;6764441880;2003747749;1684659203;492726637;17152820;2243494257;18;22;2536;0;7;18
4;26;1573257824433;1573257836110;11677;38946040492;6764428396;1777222806;1645705504;492719037;17150231;2244942320;20;21;3456;0;10;25
4;27;1573257836110;1573257848064;11954;39660572668;6764413636;1793164595;1681799104;492712370;17150251;2242819425;55;31;9920;0;96;408
4;28;1573257848064;1573257859881;11817;39791644898;6764441247;1754785610;1681393215;492717797;17147424;2243071534;4;0;1384;0;2;2
4;29;1573257859881;1573257871959;12078;38901630796;6764434585;2070992422;1632398673;492721663;17149104;2244712284;13;17;2312;0;7;10
4;30;1573257871960;1573257883809;11849;39743916914;6764395995;1909770777;1693557839;492709799;17149719;2242341051;47;45;9352;0;92;252
4;31;1573257883809;1573257895803;11994;39532334590;6764441299;1905461937;1679436605;492720573;17151442;2243482841;19;18;3416;0;10;18
4;32;1573257895803;1573257907670;11867;38932784422;6764478789;2213169283;1615501351;492725266;17148059;2244168816;34;24;7800;0;104;249
4;33;1573257907670;1573257919485;11815;39703340156;6764428359;1795373679;1683864256;492719204;17148216;2242752202;21;20;2544;0;9;27
4;34;1573257919485;1573257931453;11968;39913966326;6764428734;1996034355;1687802957;492719626;17148564;2242737184;15;22;2520;0;8;16
4;35;1573257931453;1573257943219;11766;38999669650;6764429362;1902650774;1642141349;492718881;17150178;2243891362;57;37;10416;0;90;346
4;36;1573257943219;1573257955464;12245;39687484118;6764413714;1898620992;1672694125;492717268;17152245;2244587822;15;16;2320;0;7;11
4;37;1573257955464;1573257967466;12002;39737164852;6764427755;1804080652;1668207661;492720613;17150703;2243386401;4;0;1384;0;3;3
4;38;1573257967466;1573257980328;12862;39869639412;6764478724;2141477743;1667133925;492736110;17150680;2243130855;56;46;11144;0;134;437
4;39;1573257980329;1573257992194;11865;39607294056;6764472039;1739028361;1674980953;492723860;17147334;2242490735;13;26;3432;0;10;23
4;40;1573257992194;1573258004150;11956;39975686074;6764509084;2024228822;1696310896;492734697;17155240;2243191953;86;41;11016;0;127;885
4;41;1573258004150;1573258016383;12233;39708309412;6764416300;1920340081;1675937066;492716165;17150901;2242300922;16;19;3256;0;17;19
4;42;1573258016383;1573258028203;11820;39935641778;6764507046;1782346743;1670003830;492729463;17149954;2242826785;5;0;1840;0;5;5
4;43;1573258028203;1573258040331;12128;39689580240;6764409859;1839815323;1693544429;492716527;17152069;2243064545;63;53;13488;0;145;672
4;44;1573258040339;1573258051924;11585;39347644590;6764420905;1958342089;1606761465;492716982;17152624;2245395509;22;16;3736;0;10;20
4;45;1573258051924;1573258063805;11881;39834401582;6764449019;1946126514;1670273071;492722929;17148541;2242765364;16;18;2344;0;8;20
4;46;1573258063805;1573258075956;12151;39575074192;6764417032;1799736030;1686175717;492724041;17149810;2242180116;48;28;10568;0;105;501
4;47;1573258075956;1573258088567;12611;39918463418;6764413645;1818471692;1683102195;492722551;17146529;2243450409;16;21;3416;0;10;17
4;48;1573258088567;1573258100491;11924;39067111868;6764430651;1762504307;1631891981;492727241;17156249;2244418884;999;101;259456;0;3010;7417
4;49;1573258100491;1573258112389;11898;39448766380;6764461642;1757497816;1664868205;492724127;17149458;2244646074;18;25;3664;0;38;58
4;50;1573258112389;1573258124269;11880;39310738418;6764441793;1758200273;1647099790;492721904;17150485;2242754331;34;8;3776;0;12;93
4;51;1573258124269;1573258136323;12054;39436664148;6764409054;1949201281;1649524779;492719506;17147766;2243920890;74;34;12024;0;181;1070
4;52;1573258136323;1573258148476;12153;39435585208;6764456255;1951699494;1664360936;492722763;17149970;2242811932;101;17;3360;0;100;3609
4;53;1573258148476;1573258160190;11714;39646614484;6764375327;1814410362;1668429818;492703785;17149887;2244279620;38;9;3952;0;15;159
4;54;1573258160190;1573258171776;11586;38793546850;6764427322;1784230994;1634911555;492715899;17149194;2244350858;91;54;15640;0;222;1392
4;55;1573258171776;1573258183747;11971;39332278674;6764442004;1940737148;1646613985;492719383;17146563;2242073327;4;0;1384;0;3;3
4;56;1573258183747;1573258195596;11849;39418271506;6764412662;1758445930;1658052848;492714639;17147653;2242733584;30;11;2544;0;11;108
4;57;1573258195596;1573258207751;12155;39630999784;6764483325;1811459798;1685682281;492728179;17152305;2243435578;67;54;13904;0;146;522
4;58;1573258207751;1573258219943;12192;39683578034;6764466143;1979658036;1678494689;492721851;17149061;2243589907;23;17;2536;0;9;61
4;59;1573258219943;1573258231523;11580;38236154474;6764506329;1908107762;1604553171;492729831;17146376;2244418607;20;12;2328;0;9;39
