0;20;1573319171823;1573319181518;9695;18330667190;33965378031;362923921;156184514;5897132102;210203068;394521178;2267;6645;1125176;-22;9696;1386833
0;21;1573319181518;1573319192247;10729;18261116878;33959296163;360928540;154778500;5895553720;210193320;394413434;2703;6205;1128888;23;10728;1393544
0;22;1573319192247;1573319202659;10412;18216015580;33972498287;361537006;154065137;5899236968;210108176;394723815;2850;5086;996416;-24;10412;1712928
0;23;1573319202659;1573319212715;10056;18251182016;33966532270;361716147;154490536;5897369335;210056055;394661904;2231;6022;1080960;11;10056;1439834
0;24;1573319212715;1573319223058;10343;18270748790;33971739280;362476393;155215835;5898982066;210119834;394565593;2484;7159;1307304;-118;10343;1063689
0;25;1573319223058;1573319233005;9947;18246860270;33964453226;364825229;155256005;5897080117;210222104;394776803;5857;3328;992320;103;8513;395732
0;26;1573319233005;1573319242636;9631;18194385242;33968984806;361012496;152945577;5898011633;210172046;394553660;2128;5079;992256;9;9631;1379085
0;27;1573319242636;1573319254579;11943;18242455742;33967428762;361706610;154432107;5897681563;210194936;394590891;2883;6400;1250216;-95;11943;1275686
0;28;1573319254579;1573319263984;9405;18257627478;33976685495;362882337;154446306;5900173664;210192932;394704669;2919;5292;1039344;170;9397;433772
0;29;1573319263984;1573319273804;9820;18312411934;33972615970;361230376;155986827;5899148754;210116376;394788808;2418;5173;927800;-81;9820;1467056
0;30;1573319273804;1573319283302;9498;18230232330;33970113662;360756838;153270846;5898528968;209957079;394627175;2265;4999;927936;9;9499;1358738
0;31;1573319283303;1573319293068;9765;18256186312;33966182805;361345477;154406693;5897543284;210127407;394368258;2647;6961;1342920;-134;9585;1114214
0;32;1573319293068;1573319303159;10091;18290364036;33977648489;360911224;155380163;5900647939;210029568;394877830;3539;4864;957088;128;9394;1129663
0;33;1573319303159;1573319313091;9932;18255229428;33967146358;362565102;154966031;5897871161;210164719;394696507;2368;5217;1012992;6;9932;1429347
0;34;1573319313091;1573319323419;10328;18319526514;34132989083;359642455;152437893;5896025497;210222741;394587231;2309;7172;1230408;-105;10328;1350341
0;35;1573319323419;1573319333266;9847;18383856450;34140089533;361112591;153571210;5897565921;210204623;394806644;2875;5577;984080;113;9848;1090181
0;36;1573319333267;1573319343407;10140;18429683514;34136820885;361571093;155019452;5896812894;210284775;394644527;2426;5235;1017248;8;10140;1457640
0;37;1573319343407;1573319353733;10326;18434017962;34149486360;361883872;155692476;5900532619;210102183;395118338;2611;6444;1230248;-124;10327;1254528
0;38;1573319353734;1573319363320;9586;18370670606;34153615091;362984246;153917484;5901497090;209983964;395061330;4559;3958;949016;125;8623;773797
0;39;1573319363322;1573319373282;9960;18359089886;34137963182;361010011;153759237;5897016795;210229833;394782957;2382;5109;989688;-12;9961;1429920
0;40;1573319373282;1573319383122;9840;18429838420;34137851788;361052675;155184697;5897173536;210209838;394779615;2236;6435;1105536;4;9840;1409277
0;41;1573319383122;1573319393729;10607;18449348400;34147175110;363766134;155479023;5899548629;210157606;395265539;3458;5526;1151848;-12;10607;1073338
0;42;1573319393729;1573319403898;10169;18439266078;34138656057;360821817;155308672;5897287465;210168219;395037912;2380;5417;976504;20;10169;1465744
0;43;1573319403898;1573319414556;10658;18438330364;34139457590;361611312;155138467;5897608272;210150574;394760193;2545;6384;1122504;-16;10658;1527498
0;44;1573319414556;1573319424645;10089;18378128140;34147878654;362826542;153444158;5900120243;210033267;395035270;4715;4659;1212952;15;8987;722464
0;45;1573319424645;1573319434101;9456;18359041998;34147201631;361106833;152835799;5899545964;210103812;394888026;2053;4890;894344;-5;9456;1364724
0;46;1573319434101;1573319444621;10520;18445070162;34143684349;362097297;155526962;5898622705;210119999;394981547;2500;5693;1082064;-2;10520;1509495
0;47;1573319444621;1573319455971;11350;18433246498;34143073984;362807350;154959627;5898392816;210144813;394913925;3629;6123;1213600;3;11339;846798
0;48;1573319455971;1573319465560;9589;18450719778;34138245061;362204402;154981986;5897056281;210183790;394777129;2164;5116;913464;2;9589;1376567
0;49;1573319465560;1573319475007;9447;18407735480;34135922835;363867352;154069840;5896676172;210193163;394692385;2228;5189;999776;-20;9447;1352890
0;50;1573319475007;1573319484719;9712;18451446566;34143432951;363120672;155572717;5898685525;210096566;394889093;3473;5507;1238392;-130;9482;841621
0;51;1573319484719;1573319496118;11399;18451954792;34129860798;361563581;155187814;5895060459;210184383;394576418;3241;6145;1095016;94;11347;1423385
0;52;1573319496118;1573319505677;9559;18447867960;34146710278;361770175;155050338;5899688249;210170462;394949065;2321;3452;724016;55;9559;1523785
0;53;1573319505677;1573319515236;9559;18424761562;34143517846;362462378;154537052;5898482172;210174081;395012456;2170;6664;1101696;-20;9559;1374786
0;54;1573319515236;1573319524857;9621;18332907998;34142384274;361029055;152820620;5898400620;210112991;394770238;1894;8348;1397544;-100;9621;1297876
0;55;1573319524857;1573319535366;10509;18448149740;34138971872;360199532;155403259;5897518498;210089974;394558152;3532;5489;1025488;114;10509;1219394
0;56;1573319535366;1573319547025;11659;18431356820;34139489871;361481605;155387898;5897499311;210185602;394535855;2847;5779;1119152;-2;11659;1450704
0;57;1573319547025;1573319556623;9598;18373200202;34143048000;362039031;153434471;5898517497;210099252;394877154;2556;5537;1119880;-109;9598;686153
0;58;1573319556623;1573319567000;10377;18426729934;34132572134;360596881;154421059;5895833787;210190877;394687240;3112;5408;950088;122;10377;1272727
0;59;1573319567000;1573319576892;9892;18429715342;34141833069;360631248;154591348;5898248183;210069168;394665241;2347;5206;969264;-11;9893;1417572
0;60;1573319576893;1573319587626;10733;18403349056;34140996032;361272189;154473336;5898129087;210059009;394627118;2557;7261;1382888;-114;10733;1364025
0;61;1573319587626;1573319597260;9634;18426373548;34141365973;362861562;154430653;5898036141;210185550;394894244;3882;4530;954408;119;8744;996065
0;62;1573319597261;1573319607147;9886;18434138996;34141614497;360926203;154492476;5898039751;210108391;394621581;2359;5106;1003880;-23;9886;1425854
0;63;1573319607147;1573319617098;9951;18446821140;34142201755;361317870;155388046;5898386721;210100907;394781274;2252;6979;1169264;20;9952;1427429
0;64;1573319617099;1573319627101;10002;18450383832;34143404329;360875045;155320367;5898603619;210102543;394758644;2706;6087;1113240;-15;10002;1199114
0;65;1573319627101;1573319637678;10577;18398706256;34150817644;361408068;153817712;5900781189;210008868;395125424;2474;5686;1081952;26;10577;1453654
0;66;1573319637678;1573319647884;10206;18409547632;34146330789;360642417;154360918;5899387490;210060963;394929905;2459;6121;1098176;-85;10206;1407031
0;67;1573319647884;1573319658028;10144;18435712146;34143493558;362334375;154867382;5898676413;210032938;395048218;4503;4497;1097800;78;9257;715293
0;68;1573319658028;1573319668330;10302;18442709196;34138803179;359984233;155783618;5897404953;210129058;394771469;2399;5305;1023792;1;10302;1478977
0;69;1573319668330;1573319679889;11559;18375215732;34142288505;360157396;153982597;5898417093;210104777;394983371;2727;6458;1214840;-93;11560;1587351
1;20;1573320003343;1573320013013;9670;18352039400;34100011324;362459104;154004540;5934136851;210456340;394599814;2158;6133;1072072;-18;9670;1381561
1;21;1573320013013;1573320022355;9342;18314540614;34094443302;363587524;153910082;5932770909;210583765;394583080;3605;4689;1086184;1;8713;573958
1;22;1573320022355;1573320031950;9595;18315378070;34107564554;361002267;154237298;5936393592;210408989;394758711;2174;5175;932280;2;9595;1381469
1;23;1573320031950;1573320042191;10241;18308053104;34101506146;360756520;153616946;5934517301;210312630;394630243;2389;5670;1086856;12;10241;1472531
1;24;1573320042191;1573320052424;10233;18323291416;34106693287;363003253;154028920;5936091049;210404102;394574284;3708;5836;1146328;-21;9988;932165
1;25;1573320052424;1573320062585;10161;18323039128;34099654960;359513136;153858037;5934301147;210300713;394658670;2448;5091;971952;29;10161;1575209
1;26;1573320062585;1573320072401;9816;18411457312;34104134493;361849702;155802605;5935224426;210440299;394769284;2426;5522;1002400;-23;9816;1420075
1;27;1573320072401;1573320082786;10385;18374681810;34102449873;362894935;155296478;5934841150;210502316;394738393;2417;6876;1277264;-89;10385;1062931
1;28;1573320082786;1573320092659;9873;18365086690;34111764147;364212152;154876913;5937365410;210449988;394960745;5034;3029;1064040;-29;9046;231863
1;29;1573320092659;1573320102558;9899;18403109324;34107698776;362311137;155884832;5936327588;210325613;394808289;2740;5594;955256;117;9809;1428029
1;30;1573320102558;1573320113194;10636;18389956038;34105319402;361484376;155614092;5935761348;210315803;394673902;2621;5767;1083648;8;10636;1525976
1;31;1573320113194;1573320122560;9366;18372664090;34101377907;362626427;155094889;5934782977;210404348;394482845;2141;6123;1153504;-102;9366;893349
1;32;1573320122560;1573320132571;10011;18303044136;34112734829;360123582;153841207;5937857011;210263951;394768431;2998;5210;950672;120;10011;1314962
1;33;1573320132571;1573320142928;10357;18344952122;34102077398;360858138;154643944;5934974111;210439952;394759792;2420;5513;1041288;-18;10357;1497282
1;34;1573320142928;1573320153264;10336;18515745696;34267894874;360351665;155069060;5933102058;210431484;394513173;2406;7144;1238784;-56;10337;1458337
1;35;1573320153265;1573320163603;10338;18534443770;34275368842;361402766;155435522;5934840655;210490266;394785991;3345;5283;1041920;44;10338;1178039
1;36;1573320163603;1573320173979;10376;18510573062;34271930035;361331328;154589867;5933997605;210404653;394551088;2458;5600;1063768;7;10376;1482595
1;37;1573320173979;1573320184276;10297;18554452778;34284287313;362112337;155635967;5937579459;210355495;395139933;2286;6537;1205592;-85;10297;1254213
1;38;1573320184276;1573320194621;10345;18551087478;34288826474;360898189;155691547;5938717326;210277645;395029076;3352;5365;964112;89;10346;1277204
1;39;1573320194622;1573320204663;10041;18586468972;34273034905;362659755;155810299;5934201177;210488228;394883162;2441;5037;986016;-9;10041;1434310
1;40;1573320204663;1573320214548;9885;18530490674;34273149249;360375773;154888443;5934451309;210374159;394706650;2200;6799;1122808;8;9886;1417663
1;41;1573320214548;1573320224652;10104;18531210308;34282289767;361303096;155471100;5936739005;210497041;395237371;3530;5174;1118512;12;9760;992520
1;42;1573320224653;1573320234871;10218;18495010776;34273722748;361279810;154038205;5934432676;210433705;395009560;2472;5498;1008016;-12;10218;1461049
1;43;1573320234871;1573320245475;10604;18523982432;34274443831;361268417;155182372;5934751992;210435666;394655241;2523;6279;1100448;-4;10604;1517446
1;44;1573320245475;1573320256208;10733;18502451958;34282743284;362394317;154399353;5937169438;210252009;394911240;3208;5484;1103440;6;10733;1010407
1;45;1573320256208;1573320266276;10068;18616283632;34282233527;363451872;156280840;5936699183;210336808;394918770;2286;5347;998600;18;10069;1442953
1;46;1573320266277;1573320276450;10173;18564054468;34278766263;361473857;155893435;5935800924;210393992;394960123;2390;5383;1028912;-17;10173;1458211
1;47;1573320276450;1573320287486;11036;18531250896;34278123413;362520979;154637232;5935559014;210410373;394906384;4307;5806;1205496;9;10781;923463
1;48;1573320287486;1573320297001;9515;18565693756;34273368815;361735881;154991858;5934262557;210459977;394763281;2101;5004;970992;-21;9516;1364064
1;49;1573320297002;1573320306925;9923;18522079906;34270818311;361959771;154426763;5933780207;210460644;394718833;2377;5341;995824;24;9924;1427465
1;50;1573320306926;1573320316732;9806;18490748744;34278457122;360670133;154627900;5935836090;210365259;394792025;2722;6650;1148088;104;9806;1039310
1;51;1573320316732;1573320327502;10770;18559476784;34264888276;361582609;155329635;5932213089;210462613;394493906;2636;5740;1065280;-109;10770;1591510
1;52;1573320327502;1573320338075;10573;18588674886;34281474391;361888728;156096229;5936719686;210400361;394965521;2470;5526;1045880;-5;10573;1518735
1;53;1573320338075;1573320348192;10117;18554923190;34278464725;362264705;155698151;5935612565;210464851;395035202;3554;5140;1154696;19;10061;653075
1;54;1573320348192;1573320358113;9921;18545011688;34277270795;362660744;155468023;5935495739;210388823;394814430;2729;5525;941352;-20;9921;1490472
1;55;1573320358113;1573320367948;9835;18527224362;34274080437;360721519;155123764;5934706201;210376237;394545508;2440;5317;995504;-8;9835;1413032
1;56;1573320367948;1573320379002;11054;18555998480;34274582054;363410565;155695144;5934683141;210400634;394599082;3387;5362;1218608;-86;11054;630763
1;57;1573320379002;1573320389349;10347;18555391558;34278478320;361080253;155180981;5935871880;210345333;394835723;2899;5736;984024;94;10348;1484967
1;58;1573320389350;1573320399416;10066;18537238210;34267878074;362072155;154810880;5933151450;210475093;394703924;2351;5149;1001944;-12;10066;1445371
1;59;1573320399416;1573320409895;10479;18561294776;34276902353;361244544;156212634;5935418401;210350070;394521101;2532;5998;1057424;28;10479;1900535
1;60;1573320409895;1573320423503;13608;18446864794;34275855440;360439514;151729138;5935215977;210329317;394657668;3084;6293;1227720;-5;13608;1925085
1;61;1573320423503;1573320433223;9720;18460192988;34276564815;361044563;153683332;5935270401;210482350;394765379;2384;6264;1146608;-119;9721;998519
1;62;1573320433223;1573320443600;10377;18571124080;34276358231;362743328;156191191;5935070177;210402737;394636094;4404;4324;1019504;100;9252;954401
1;63;1573320443600;1573320453391;9791;18563284026;34277212608;361677461;155268830;5935519097;210362111;394784127;2429;5190;985224;4;9791;1405848
1;64;1573320453391;1573320464334;10943;18539190960;34278250296;361124872;154974628;5935680265;210339131;394719709;2443;6772;1254664;-105;10944;1356531
1;65;1573320464335;1573320474413;10078;18576748146;34285843369;361956210;155959820;5937935779;210173869;395183388;3404;5276;1036152;114;10079;975447
1;66;1573320474414;1573320484648;10234;18602843748;34281285453;362406986;156567607;5936497786;210361826;394923693;2396;5542;1021032;4;10234;1466861
1;67;1573320484648;1573320494644;9996;18525726840;34278543136;362030179;154928301;5935811493;210334478;394976132;2353;5452;1035360;-17;9996;1442080
1;68;1573320494644;1573320504475;9831;18489516650;34273842593;361531688;153857510;5934570278;210353744;394789128;3412;6185;1230568;-5;9426;1056384
1;69;1573320504475;1573320516028;11553;18540825284;34277376619;360359173;155345186;5935635682;210428082;395010300;2711;5738;1054008;29;11554;1599910
2;20;1573320844020;1573320855548;11528;17942867100;33832714565;361829805;154635406;5777790827;206650760;390004742;2713;6640;1272872;-139;11528;1373905
2;21;1573320855548;1573320865199;9651;17886829672;33828733717;361285669;153104095;5777057301;206675463;390145524;3470;4861;956328;123;9207;880074
2;22;1573320865199;1573320875154;9955;17913889458;33838055571;360861058;153470854;5778925521;206588536;390380146;2277;5100;985872;-4;9955;1425688
2;23;1573320875154;1573320884950;9796;17935220496;33832817992;360392218;154814014;5777909659;206559357;390198584;2213;5593;1035024;-4;9796;1404284
2;24;1573320884950;1573320894692;9742;17917390538;33836867582;360593725;154379372;5778652922;206509283;390100690;2589;6951;1204208;-3;9742;1268523
2;25;1573320894692;1573320906409;11717;17944317610;33831770624;360642389;154873873;5777752782;206560625;390254874;2903;6028;1139520;24;11717;1341418
2;26;1573320906409;1573320916325;9916;17971664432;33835615638;360255378;154595481;5778465488;206637937;390316644;2263;6041;1096624;-73;9916;1312542
2;27;1573320916325;1573320926086;9761;18008386644;33834119347;362140850;155779323;5778253435;206667394;390314588;3334;4704;1090856;-49;9762;361167
2;28;1573320926087;1573320935684;9597;17935288678;33841465081;360916614;154444684;5779583841;206608213;390414873;3137;4858;896992;120;9597;1181104
2;29;1573320935684;1573320947808;12124;17892778296;33837637420;359283503;153260528;5778928190;206487122;390361101;2905;6200;1223544;-87;12124;1581917
2;30;1573320947808;1573320957164;9356;17930131082;33836369851;360854348;153812681;5778619737;206510879;390243156;2301;5520;1083984;-32;9356;473069
2;31;1573320957164;1573320967214;10050;18002353632;33833079381;360752628;155556031;5777928757;206561335;390020734;3166;5400;963432;123;10050;1174482
2;32;1573320967214;1573320977260;10046;18000214586;33841369014;361369031;155509602;5779619939;206546212;390449030;2345;5130;1004928;-9;10046;1444913
2;33;1573320977260;1573320987253;9993;17992123996;33834277025;361006354;155975593;5778195214;206632651;390329002;2305;6480;1208656;-115;9996;1225780
2;34;1573320987256;1573320996400;9144;18104081322;34001597578;362690508;154414080;5777065503;206673697;390101715;3854;4200;941536;118;8955;834371
2;35;1573320996400;1573321006462;10062;18126774102;34007631365;361401469;154829163;5778245665;206765555;390358114;2310;5235;1001632;-6;10062;1450987
2;36;1573321006463;1573321015953;9490;18134298504;34004568758;361921713;154965474;5777697859;206698660;390041109;2188;6201;1082784;-6;9492;1357856
2;37;1573321015954;1573321025668;9714;18097568992;34014068292;361575821;154479672;5779631539;206505093;390577354;3390;5277;1135744;-7;9646;792276
2;38;1573321025668;1573321035797;10129;18171393016;34016197668;361429255;155705368;5780012491;206432248;390553027;2403;5377;967216;-2;10129;1460567
2;39;1573321035797;1573321045320;9523;18168609818;34005355145;361522882;154919144;5777942684;206587580;390314483;2062;5661;1043216;19;9523;1367768
2;40;1573321045320;1573321055092;9772;18117373454;34005309084;363560978;154802560;5777849017;206619651;390240904;3759;4948;1200104;12;8969;668502
2;41;1573321055092;1573321064810;9718;18148797764;34011888539;361060463;155671202;5779166373;206605104;390675451;2696;5573;945712;-15;9718;1426870
2;42;1573321064810;1573321074769;9959;18121064772;34006109601;361583808;154587903;5778012512;206621960;390521546;2350;5259;1002424;-14;9959;1422790
2;43;1573321074769;1573321085101;10332;18109655164;34006294192;360161519;154334290;5777998100;206692166;390157394;2418;6519;1225624;-89;10332;1071308
2;44;1573321085101;1573321094752;9651;18099983248;34012069495;361034567;154028564;5779239089;206475789;390405940;2897;5179;940824;103;9651;1190303
2;45;1573321094752;1573321105026;10274;18173912684;34011835560;361038185;155636085;5779089200;206553938;390384147;2593;5450;1022672;0;10274;1474631
2;46;1573321105026;1573321114938;9912;18098545440;34009258347;360984017;154402764;5778678726;206540432;390415656;2371;6537;1248728;-145;9896;1095108
2;47;1573321114938;1573321124298;9360;18080697086;34008338971;361119041;153648344;5778475788;206633105;390328749;4034;4326;917408;138;8549;963268
2;48;1573321124298;1573321134191;9893;18088311862;34005367672;360308629;153698345;5777875560;206585140;390187997;2354;5182;1010744;15;9893;1408287
2;49;1573321134191;1573321144182;9991;18096916080;34003804743;360705465;154480133;5777556174;206624643;390164648;2176;6516;1135992;-37;9991;1417935
2;50;1573321144182;1573321153897;9715;18110130394;34008550314;361766710;154656590;5778548846;206573180;390351274;3061;5775;1076096;37;9715;966402
2;51;1573321153897;1573321164723;10826;18167731336;33999989509;361679984;155806006;5776706014;206666912;390041489;2488;5503;1067448;-21;10827;1561527
2;52;1573321164724;1573321175129;10405;18136650564;34011613934;360750724;154756668;5779140470;206506820;390384946;2351;6594;1141408;-52;10405;1471941
2;53;1573321175129;1573321185278;10149;18110263984;34008618056;361640876;154606776;5778534506;206570520;390488918;4271;4687;1113552;79;9863;736913
2;54;1573321185278;1573321195193;9915;18113138578;34008007626;361797407;154766196;5778434113;206621650;390302995;2184;5298;1001248;-8;9916;1430363
2;55;1573321195194;1573321205150;9956;18129081340;34005753346;361346555;154610659;5777991620;206592846;390061526;2482;5486;1000736;-15;9956;1425767
2;56;1573321205150;1573321215863;10713;18136695970;34006094339;361393043;154904270;5778030950;206554424;389990642;3555;5883;1220800;11;10713;798364
2;57;1573321215863;1573321225818;9955;18135049674;34009050377;361033201;154573632;5778525986;206552465;390342289;2330;5284;949256;6;9955;1422139
2;58;1573321225818;1573321235637;9819;18153184480;34001956287;360613347;155149128;5777251397;206672085;390132930;2441;3389;767808;5;9820;1628707
2;59;1573321235638;1573321245319;9681;18169356754;34008160454;362941253;155949828;5778397330;206613799;390093486;2138;6118;1022864;-9;9681;1382959
2;60;1573321245319;1573321257687;12368;18137166966;34007648935;361007955;155387094;5778319275;206552336;390159752;3648;8164;1585840;-138;12368;1277206
2;61;1573321257687;1573321267479;9792;18154995318;34007743574;361150750;155434816;5778431446;206602204;390349930;3763;4483;992912;126;9194;1040736
2;62;1573321267479;1573321277327;9848;18175723960;34007251916;362267162;155449756;5778310284;206595847;390148924;2468;5296;963376;0;9848;1411307
2;63;1573321277327;1573321287047;9720;18143541910;34008303548;361236847;154852033;5778539598;206512766;390202248;2103;6789;1168472;-19;9720;1380095
2;64;1573321287047;1573321296728;9681;18133555656;34009130601;360617267;154918029;5778674095;206528264;390143549;2828;5740;1057624;26;9681;1069985
2;65;1573321296728;1573321307901;11173;18133471268;34014428599;361391839;154890502;5779711812;206471496;390611970;2505;5788;1147320;4;11173;1503430
2;66;1573321307901;1573321318260;10359;18120844020;34010955233;360839510;154493533;5778978190;206481385;390320623;2372;6210;1151648;-102;10359;1230034
2;67;1573321318260;1573321327963;9703;18159206104;34009058614;362435811;155108064;5778666811;206544190;390465055;4165;4575;997280;83;9692;804460
2;68;1573321327963;1573321338203;10240;18158610862;34005380057;360919738;155787474;5777879331;206536376;390275642;2295;5496;1046184;14;10241;1470375
2;69;1573321338204;1573321348831;10627;18155730574;34008147119;363095490;154995967;5778500382;206629718;390552937;2661;5820;1172664;-136;10624;1200179
3;19;1573321671182;1573321681742;10560;18414618358;34094219648;360302819;156714998;5969575343;209984992;395138913;2516;5552;1070496;-19;10560;1520357
3;20;1573321681742;1573321693644;11902;18399004242;34090169016;360543672;155992952;5968215726;210139613;395168389;3550;5698;1262088;-102;11896;864758
3;21;1573321693644;1573321703668;10024;18368860352;34084461655;360616680;155213958;5966754915;210221908;395094427;3062;5602;962232;105;10024;1324959
3;22;1573321703668;1573321714208;10540;18341550906;34097589165;359454990;154784924;5970371439;210069035;395367482;2523;5536;1087032;6;10540;1513077
3;23;1573321714208;1573321724547;10339;18310535250;34091475810;359957672;153619333;5968501773;210074503;395262111;2526;6192;1224496;-137;10159;1218283
3;24;1573321724547;1573321735771;11224;18254816248;34096928051;358137441;152492724;5970267719;210020717;395140658;3908;5322;1039512;126;10613;1310871
3;25;1573321735771;1573321745858;10087;18409945628;34089652639;360055665;155984717;5968280976;210051056;395374576;2423;5358;1031584;11;10087;1457475
3;26;1573321745858;1573321755311;9453;18394232816;34094451330;360948088;155360709;5969350522;210196305;395319037;2014;6554;1153768;-88;9453;1189061
3;27;1573321755311;1573321765531;10220;18416564684;34092718077;362228246;155850737;5968937990;210162239;395332727;3018;5437;1056976;78;10220;1163835
3;28;1573321765531;1573321775271;9740;18382985706;34102080437;360975675;154963560;5971498271;210086687;395364741;2321;5446;1008400;15;9740;1401501
3;29;1573321775271;1573321786356;11085;18340310928;34097966805;361081250;154548554;5970425287;210105734;395480862;2916;5722;1216064;-117;11085;724782
3;30;1573321786356;1573321796101;9745;18338169546;34095355549;360704351;154661900;5969782370;210064808;395283250;4053;4574;977808;123;9322;1011175
3;31;1573321796101;1573321805901;9800;18370645786;34091629270;359691931;155584561;5968883744;210089114;395040336;2392;5004;964672;-24;9800;1401977
3;32;1573321805901;1573321816122;10221;18363998698;34102838951;359985921;155103166;5971856102;210075257;395475487;2249;6552;1131072;24;10221;1461584
3;33;1573321816122;1573321827216;11094;18401918694;34092279981;360196384;156000089;5969051498;210107953;395333034;3102;6411;1225048;-18;11095;1000991
3;34;1573321827219;1573321836617;9398;18444187592;34258039253;360055177;153066423;5967156871;210169801;395201671;2279;4890;929848;-7;9399;1345243
3;35;1573321836617;1573321847510;10893;18456265588;34265449252;357130296;153955936;5968838376;210216009;395337777;2475;6697;1214552;-62;10892;1488832
3;36;1573321847510;1573321857106;9596;18489023462;34262220448;360151390;154127714;5968118316;210252394;395236008;3954;4556;1038816;73;9577;743049
3;37;1573321857108;1573321867216;10108;18538621706;34274821051;361773529;154980315;5971745851;210093156;395815472;2276;5446;1009056;-4;10108;1451719
3;38;1573321867216;1573321878492;11276;18430442714;34278747254;360328780;152181755;5972683842;209941277;395662819;2591;6228;1194176;-86;11276;1008485
3;39;1573321878492;1573321888155;9663;18557614700;34263357636;362705215;155170542;5968301838;210137334;395514073;3256;5229;1055240;107;9663;763297
3;40;1573321888155;1573321898454;10299;18548446776;34263048535;360687153;155652670;5968372246;210121418;395419131;2350;5292;960528;-12;10299;1483336
3;41;1573321898454;1573321909177;10723;18520875552;34272454321;360372560;155319459;5970794222;210139526;395882898;2572;5986;1114800;-12;10723;1538262
3;42;1573321909177;1573321919470;10293;18549414026;34263952125;360916839;155384825;5968581252;210114286;395699554;3656;6279;1212488;18;10288;1043317
3;43;1573321919471;1573321929190;9719;18565980208;34264520027;361965012;155456668;5968763057;210166939;395320727;2086;5045;911424;-6;9720;1395010
3;44;1573321929190;1573321939051;9861;18556169300;34273070217;361514735;155230593;5971308211;209984145;395592504;2223;5276;1005680;-14;9861;1408488
3;45;1573321939051;1573321950469;11418;18546909250;34272456684;362146697;155140364;5970756841;210082244;395546515;3312;6976;1261176;-38;11417;1305360
3;46;1573321950469;1573321960386;9917;18495158528;34268882470;359623797;154101888;5969876877;210079871;395551983;2207;5232;967488;64;9917;1409319
3;47;1573321960386;1573321970962;10576;18532308958;34268453684;359116288;154599051;5969696042;210099228;395510060;2485;5796;1090640;-21;10576;1513815
3;48;1573321970962;1573321980646;9684;18474874748;34263724757;361111181;153773795;5968421452;210186765;395413304;3159;5522;1211744;-117;9176;841526
3;49;1573321980646;1573321990539;9893;18512565962;34260979404;361005723;154854146;5967813969;210185117;395361449;2751;5635;963920;128;9786;1368770
3;50;1573321990539;1573322000865;10326;18542829280;34268599711;363025505;154841653;5969843756;210103056;395520019;2425;5369;1055496;-18;10326;1468584
3;51;1573322000865;1573322010500;9635;18554741712;34254901460;360830978;155489847;5966206910;210228063;395226679;2271;6160;1158360;-96;9636;898565
3;52;1573322010500;1573322020844;10344;18557437018;34271672098;358708931;155568687;5970775008;210089290;395593578;2985;5513;980800;111;10344;1317566
3;53;1573322020844;1573322031863;11019;18563259206;34268792484;359035626;155711518;5969732159;210111602;395595223;2681;5674;1067008;7;11018;1581593
3;54;1573322031863;1573322042438;10575;18527334884;34267576913;359926904;154516719;5969599661;210060039;395467147;3227;5611;1242472;-147;10147;986663
3;55;1573322042438;1573322053232;10794;18536367466;34264257692;359886388;156357188;5968759390;210156508;395202932;3209;5055;900584;131;10405;1424060
3;56;1573322053232;1573322063091;9859;18585594724;34264475845;362605663;156072280;5968655931;210114577;395161340;2256;5088;990736;3;9860;1417066
3;57;1573322063091;1573322075781;12690;18521287272;34268196257;361253341;154482555;5969708867;210090628;395483652;2792;8606;1565072;69;12690;1768576
3;58;1573322075782;1573322084989;9207;18503465344;34257964432;358900499;153325273;5967061836;210153062;395266967;2551;4442;793680;-63;9207;1447210
3;59;1573322084989;1573322095329;10340;18538130416;34267026133;360091521;155149850;5969447756;210032958;395162702;2593;5246;1017480;0;10341;1480139
3;60;1573322095329;1573322104867;9538;18552402646;34266072565;360666402;155624031;5969284429;210063381;395254142;2271;6649;1098896;1;9537;1370914
3;61;1573322104867;1573322114673;9806;18566478068;34266850025;361291700;155950144;5969346296;210208458;395508779;2463;6236;1148216;-5;9806;1375946
3;62;1573322114673;1573322126482;11809;18523042776;34266751621;359465808;154854880;5969238946;210152871;395274463;2875;6230;1219776;15;11810;1500286
3;63;1573322126483;1573322136606;10123;18551864198;34267420359;361831884;155139948;5969604202;210032597;395422529;2782;5328;1135504;-112;10123;594874
3;64;1573322136606;1573322147444;10838;18557101656;34268562430;359671956;155754839;5969828430;210052309;395351767;3263;5424;1001248;102;10838;1372497
3;65;1573322147444;1573322157605;10161;18561271562;34276167845;359952792;155583676;5972034533;209991010;395760794;2485;5615;1019832;11;10161;1458539
3;66;1573322157605;1573322169514;11909;18558349956;34271705898;361699936;155595557;5970673262;210045362;395566397;4212;5000;1315272;-157;11829;916694
3;67;1573322169514;1573322179595;10081;18464156012;34268781456;359904160;153843799;5969879602;210095522;395614777;3163;5178;976624;140;9661;1224891
3;68;1573322179595;1573322189554;9959;18478807696;34263964365;359232236;153654197;5968566928;210095918;395381597;2456;5212;1004072;8;9958;1423241
4;20;1573322519390;1573322530299;10909;17886367436;33832855180;360343026;153390811;5777834788;206683092;389262693;2745;6441;1226592;-110;10909;1162798
4;21;1573322530299;1573322540000;9701;17989163408;33828883301;361365762;155369591;5777109579;206698047;389278858;2673;5750;961656;97;9701;1332001
4;22;1573322540001;1573322549498;9497;17882831024;33838019838;360364834;152735216;5778895341;206618114;389581640;2281;4975;989040;-9;9498;1364144
4;23;1573322549499;1573322559599;10100;17950565826;33833044183;359700595;154692393;5778009935;206573574;389420869;2335;6884;1158288;21;10101;1445241
4;24;1573322559600;1573322569466;9866;17905647612;33837014540;359063398;153821466;5778707017;206511275;389360930;2876;5688;1124032;-6;9867;1078704
4;25;1573322569466;1573322581278;11812;17907225288;33831688154;359598154;153564056;5777697769;206612500;389493527;3151;5681;1118360;1;11812;1468214
4;26;1573322581278;1573322591354;10076;17944853868;33835706612;360679024;154587594;5778452712;206665995;389494063;2216;6232;1153040;-105;10076;1087075
4;27;1573322591354;1573322601397;10043;17938998830;33833964754;362164229;154343357;5778153643;206638395;389521793;3938;4406;1115216;-15;10043;320393
4;28;1573322601398;1573322612062;10664;17964880834;33841316225;361491786;155089903;5779495927;206622524;389666706;4032;5224;1015736;123;10658;1184244
4;29;1573322612062;1573322623408;11346;17912853734;33837558267;361086727;153480506;5778869533;206580528;389554456;2619;5571;1114456;-56;11346;1288410
4;30;1573322623408;1573322632566;9158;17975012358;33836218072;363841814;154947908;5778534055;206615528;389510688;2187;5467;1066496;-61;9152;619618
4;31;1573322632566;1573322642622;10056;17934791256;33833173095;359715513;154550420;5777968160;206574285;389237801;3437;4762;905704;120;10056;1064322
4;32;1573322642623;1573322651543;8920;17918051188;33841294830;360520010;152888483;5779570252;206596106;389666711;2002;4739;893496;-17;8921;1284172
4;33;1573322651543;1573322661302;9759;17956850250;33833938276;361144440;154804275;5778062356;206619237;389521298;2304;5395;1007968;3;9759;1395879
4;34;1573322661302;1573322672308;11006;17945357130;33828936237;360519554;154780108;5777074842;206609184;389195565;3540;7473;1364912;6;10915;1290885
4;35;1573322672308;1573322682456;10148;17900239626;33834902467;359802802;153695456;5778204890;206722421;389369511;2279;5421;1014104;-7;10147;1459975
4;36;1573322682456;1573322691778;9322;17899906892;33871359555;360817322;152841972;5777709975;206720734;389260898;2088;5685;1011416;-8;9323;1335971
4;37;1573322691778;1573322701554;9776;18115073370;34013836907;359364097;154068207;5779474356;206512092;389836354;2696;7096;1203080;74;9776;1307889
4;38;1573322701554;1573322713126;11572;18132476424;34016183850;361318702;154728940;5779988745;206459727;389769325;2543;5817;1168344;-140;11572;1510723
4;39;1573322713126;1573322723289;10163;18139046862;34005087254;360935670;155329382;5777800443;206618541;389578751;2525;5819;1029744;47;10163;1182270
4;40;1573322723289;1573322732902;9613;18135763322;34005278599;361934933;155108407;5777786367;206683408;389525166;3676;4798;1093272;83;9613;579903
4;41;1573322732903;1573322743270;10367;18129513062;34011766917;360813083;154566937;5779093208;206594434;389964375;2621;5649;1020352;-59;10368;1511809
4;42;1573322743270;1573322753537;10267;18104893520;34006046931;359379432;153794507;5777968838;206598800;389728792;2383;5634;1026088;19;10267;1471162
4;43;1573322753537;1573322765178;11641;18129645046;34006599869;361698970;154843758;5778127753;206679809;389484831;3685;5818;1239960;61;11513;813518
4;44;1573322765178;1573322775559;10381;18138304744;34012245786;359872238;154964394;5779310012;206450138;389634946;2479;5666;998368;-79;10381;1492197
4;45;1573322775559;1573322785882;10323;18144650780;34011882638;360433418;154953810;5779116182;206529217;389665910;2376;5551;1043688;-5;10323;1482552
4;46;1573322785882;1573322796108;10226;18080897398;34009313147;358417723;153366804;5778684562;206612212;389621076;3296;5976;1275696;60;10214;964610
4;47;1573322796109;1573322806112;10003;18051013972;34008537254;359254723;152453855;5778549181;206607128;389495477;2664;5522;953688;-74;10004;1372337
4;48;1573322806112;1573322816338;10226;18107862430;34005489772;360363708;154338279;5777913737;206695275;389540610;2619;5412;1023888;11;10226;1330772
4;49;1573322816338;1573322826100;9762;18138049098;34003981076;361498812;155440898;5777652566;206692877;389452502;2341;5883;1130072;-96;9762;982968
4;50;1573322826100;1573322835860;9760;18130157506;34008455547;361186739;154996245;5778488057;206611427;389597708;3011;5079;927432;124;9760;1347459
4;51;1573322835861;1573322845682;9821;18132947566;33999960781;359438823;154604894;5776678755;206704515;389273649;2431;5224;967400;1;9822;1402543
4;52;1573322845682;1573322857422;11740;18102539854;34011706301;362158311;154287079;5779165443;206587221;389707871;3001;6230;1294352;-130;11740;935373
4;53;1573322857422;1573322867324;9902;18109235852;34008655918;360434184;154187985;5778534578;206628680;389793823;3475;5012;977184;118;9697;1186107
4;54;1573322867324;1573322877665;10341;18132026306;34008065916;361743272;154881015;5778449755;206594788;389572392;2477;5367;996648;-10;10341;1486733
4;55;1573322877665;1573322887675;10010;18120827668;34005848545;359907007;154134145;5778019023;206591998;389308297;2610;5904;1080496;127;10010;1740427
4;56;1573322887675;1573322902601;14926;18117306586;34005976562;360125631;154121652;5777955387;206616784;389278955;3441;6770;1269840;-118;14926;2126685
4;57;1573322902601;1573322912445;9844;18083851416;34009273930;361665265;153659513;5778627478;206553350;389616186;2446;4998;921624;-12;9844;1409797
4;58;1573322912445;1573322921948;9503;18031091396;34001936464;359387328;152290964;5777221819;206690542;389411849;2350;6389;1155432;22;9504;1179901
4;59;1573322921950;1573322931698;9748;18075723742;34008314898;360191016;153533719;5778455451;206597865;389239701;2306;5127;966416;-1;9749;1398601
4;60;1573322931698;1573322940986;9288;18120784890;34007658549;362438022;154653009;5778298615;206645286;389432468;2360;5063;931408;-24;9288;1335485
4;61;1573322940986;1573322951439;10453;18106287090;34007755479;363532769;154190855;5778416126;206688058;389606177;3727;6042;1306176;9;10268;990020
4;62;1573322951439;1573322961644;10205;18110911932;34007389304;360031172;153479043;5778345082;206634268;389401628;2367;5196;962208;1;10205;1463377
4;63;1573322961644;1573322971608;9964;18133127438;34008158141;360186927;154693413;5778437338;206563363;389498048;2350;5913;997200;19;9964;1434397
4;64;1573322971608;1573322980869;9261;18107306608;34008913184;362762304;154746719;5778546966;206647825;389460555;2359;6260;1243240;-130;9261;880029
4;65;1573322980869;1573322992079;11210;18126675844;34014528175;360120637;154843147;5779739255;206496413;389854982;3189;6211;1084816;114;11210;1658549
4;66;1573322992079;1573323001974;9895;18115862208;34011277359;360854754;154128845;5779112575;206562689;389599553;2386;5369;981176;2;9895;1426061
4;67;1573323001975;1573323011154;9179;18094878358;34008893943;360768897;153668536;5778565105;206596896;389654746;2257;5901;1162664;-133;9180;948393
4;68;1573323011154;1573323021324;10170;18131466396;34005570054;360189830;155058123;5777957595;206591020;389545998;3342;5319;965992;131;10152;1349243
4;69;1573323021324;1573323031112;9788;18088733218;34008131107;360319593;153567845;5778476118;206636124;389710760;2258;5004;1015920;16;9789;1405078
