0;5;1574404790110;1574404800394;10284;17047176518;33556376931;359351445;134291812;5741740937;206163665;390702559;1432;4676;1874896;-2;10285;1540186
0;6;1574404800394;1574404813348;12954;17144399962;33557424265;361357758;140244441;5741946203;206249191;390977392;1431;4935;2154040;12;12954;1855303
0;7;1574404813348;1574404833261;19913;17168482808;33551239831;359605963;141293063;5740680785;206321024;390761965;2494;8254;3341032;-20;19913;2818838
0;8;1574404833261;1574404840615;7354;17248063612;33555071744;362789907;145754561;5741429588;206354262;390723298;773;2724;1172040;-5;7354;1055346
0;9;1574404840615;1574404851579;10964;17050121484;33554871146;360095865;134331587;5741415003;206266084;390798894;1142;4877;1945960;10;10963;1571881
0;10;1574404851579;1574404862909;11330;17149045682;33554988952;360467553;140234103;5741438988;206313097;390564028;1458;4994;2080008;3;11331;1688816
0;11;1574404862909;1574404883798;20889;17189575720;33550942705;360800310;142958127;5740636744;206287527;390771678;2617;7494;3300320;-2;20889;2917979
0;12;1574404883798;1574404891588;7790;17190514500;33558041393;363710262;142844462;5742014292;206369048;390919093;1129;3225;1324688;9;7790;1179546
0;13;1574404891589;1574404903721;12132;17056592934;33555667311;359139839;134551380;5741607849;206301169;390710747;1324;4316;1956048;-9;12132;1739657
0;14;1574404903721;1574404924304;20583;17211789912;33561116552;363048926;143723947;5742689310;206270035;390866930;2716;8832;3510032;-7;20584;2901925
0;15;1574404924304;1574404932618;8314;17247984042;33556370074;360965882;146326083;5741696711;206340885;390522092;898;3089;1344080;-1;8314;1193112
0;16;1574404932618;1574404942239;9621;17060326738;33557378414;359511659;134763900;5741877558;206230526;390681815;1028;4050;1712432;-3;9620;1380029
0;17;1574404942239;1574404955102;12863;17146650260;33555238316;361127501;139896863;5741571816;206297469;390883016;1734;5711;2244184;-2;12863;2048113
0;18;1574404955102;1574404973596;18494;17218344728;33551567273;362301276;144019319;5740792493;206440319;390475572;2100;7619;3307072;22;18495;2564983
0;19;1574404973596;1574404981213;7617;17175686594;33553660288;362119772;141885456;5741166186;206240685;390724454;818;2934;1314912;-18;7617;1093210
0;20;1574404981213;1574404992615;11402;17050412024;33551296485;358791167;134175077;5740626144;206297983;390637371;1455;4941;1994928;-8;11401;1678449
0;21;1574404992615;1574405016387;23772;17180211134;33547367646;360427290;141729674;5739927169;206444819;390816306;3129;8820;3903392;29;23772;3320445
0;22;1574405016387;1574405024716;8329;17268320966;33556648534;362434655;147873505;5741769882;206300999;391021725;935;2872;1261032;-7;8330;1198963
0;23;1574405024716;1574405033611;8895;17053028344;33551464776;358418224;134749407;5740736650;206218398;390846827;969;3760;1643440;-8;8895;1275606
0;24;1574405033611;1574405045121;11510;17106471206;33555736344;359618207;137898537;5741605610;206203862;390871185;1435;5546;2157512;103;11510;1737178
0;25;1574405045121;1574405064222;19101;17227072024;33550488323;360954515;144864277;5740627774;206265748;390867658;2195;7903;3452840;-107;19101;2728718
0;26;1574405064222;1574405071711;7489;17167356710;33554293888;361616433;141430662;5741293653;206444697;390943279;832;2847;1285216;0;7489;1074340
0;27;1574405071711;1574405083182;11471;17047162648;33552544596;358334584;133946553;5740967331;206298946;390877785;1478;5035;1997344;10;11470;1688850
0;28;1574405083182;1574405106712;23530;17172031046;33560134597;361468005;141749336;5742460147;206395184;391121392;2626;9063;3899840;-20;23531;3318923
0;29;1574405106713;1574405114951;8238;17250443120;33556387453;362613849;147102677;5741800787;206273207;391007711;1303;2979;1309264;10;8238;1250885
0;30;1574405114951;1574405123448;8497;17076483536;33555043336;359636620;135878903;5741473773;206250458;390799216;908;3476;1461944;20;8497;1217512
0;31;1574405123448;1574405135104;11656;17046252922;33551854051;358327720;134418208;5740820984;206283725;390742972;1215;5255;2183224;1;11657;1674149
0;32;1574405135105;1574405153865;18760;17205607834;33560153007;360537804;143861572;5742482004;206267775;391098155;2497;8734;3438112;-19;18760;2747547
0;33;1574405153865;1574405162267;8402;17236455590;33552646421;361952799;145601822;5740961045;206346788;390872850;906;3092;1370624;-9;8402;1206014
0;34;1574405162267;1574405171556;9289;17047732194;33547727597;359031095;134162601;5740023391;206222400;390599185;1279;3831;1594624;-3;9289;1408368
0;35;1574405171556;1574405183986;12430;17108904150;33553475541;357272607;137730800;5741059129;206264518;391155864;1381;5313;2256120;27;12431;1782984
0;36;1574405183986;1574405205115;21129;17232149466;33589996250;361788811;144750198;5740589357;206395615;390657963;2648;8126;3434848;-21;21132;3045683
0;37;1574405205118;1574405212902;7784;17300214958;33732624861;360782301;138994911;5742386940;206262473;391196345;929;2546;1206912;1;7783;1121605
0;38;1574405212902;1574405224519;11617;17224340510;33734978342;358231506;134456134;5742921085;206101867;391191029;1199;5332;2048288;18;11618;1665995
0;39;1574405224519;1574405245472;20953;17363943520;33723685378;361550562;142625402;5740622282;206350939;391062974;2651;8837;3924592;3;20953;3051872
0;40;1574405245473;1574405254288;8815;17431261784;33723809932;363968175;147300989;5740604870;206448021;390863228;980;3225;1414088;-20;8815;1263798
0;41;1574405254288;1574405263427;9139;17228973382;33730290554;358841641;134432096;5741879803;206235391;391338701;996;3628;1609856;-4;9140;1310355
0;42;1574405263427;1574405276976;13549;17226116892;33724648403;357993568;134428464;5740831813;206254924;391246040;1919;5317;2057352;23;13549;2079914
0;43;1574405276976;1574405301435;24459;17365877728;33725092127;360176478;142855688;5740928383;206322212;390917443;3149;8152;3729792;-20;24458;3499992
0;44;1574405301435;1574405309666;8231;17345798786;33730959014;361444449;141742186;5742171903;206234830;391023567;1252;3300;1467008;-4;8232;1238302
0;45;1574405309666;1574405321584;11918;17220890676;33730669371;357868065;134028749;5742020875;206210626;391195545;1381;4418;1928120;0;11918;1710710
0;46;1574405321584;1574405343175;21591;17345106600;33727839622;362137575;141137513;5741475034;206357736;391221785;2833;8277;3455592;14;21591;3072308
0;47;1574405343175;1574405351178;8003;17387718890;33726984242;362082456;144289002;5741295389;206383179;390882742;870;2784;1328688;-6;8002;1148901
0;48;1574405351178;1574405361059;9881;17238556238;33723955360;359792501;135040052;5740693173;206272180;390844881;1087;4663;1808256;3;9882;1420056
0;49;1574405361059;1574405382754;21695;17353115138;33722452419;359160672;141817767;5740416853;206243168;391244875;2712;9632;4089696;-64;21694;3173985
0;50;1574405382754;1574405390907;8153;17403856708;33727438234;362095688;145750226;5741482431;206337387;390940957;868;3092;1298656;64;8154;1152895
0;51;1574405390907;1574405398176;7269;17289358252;33718628923;359152721;138140521;5739585509;206353542;390605472;819;2847;1261824;13;7268;1042150
0;52;1574405398176;1574405411057;12881;17200701796;33730353613;357887315;132976982;5742006260;206230166;391163120;1670;5601;2241728;-9;12882;1898135
0;53;1574405411058;1574405432964;21906;17325000940;33727336983;360407803;140151233;5741393528;206323664;391210430;2667;8488;3524512;4;21907;3073603
0;54;1574405432964;1574405441613;8649;17444377110;33726536482;362425656;148143675;5741203838;206333066;390896954;1038;2800;1323848;-14;8649;1236257
1;6;1574405640369;1574405661422;21053;17351648860;34166216300;364737781;147347713;5741865338;208455951;393775263;2305;8335;3463120;13;21052;2913882
1;7;1574405661422;1574405670112;8690;17369563206;34158640401;366485707;148508209;5740452927;208537836;393706280;1386;3476;1409504;6;8691;1349137
1;8;1574405670112;1574405679269;9157;17187789848;34163132978;360755286;136267844;5741275234;208474872;393499158;1043;2994;1511960;-18;9156;1315944
1;9;1574405679269;1574405690962;11693;17151087200;34163190793;360567170;134054162;5741301089;208487829;393821303;1313;4966;1969808;-1;11694;1676418
1;10;1574405690963;1574405710862;19899;17336636994;34162640618;364157991;146338802;5741300479;208498033;393408095;2639;8096;3351952;11;19900;2886950
1;11;1574405710862;1574405718685;7823;17268870510;34158461567;364584547;141720590;5740464648;208509945;393557964;848;2835;1346368;-16;7823;1119824
1;12;1574405718685;1574405730819;12134;17157646834;34165750126;360559880;134534023;5741948267;208505598;393843662;1424;5487;2154976;153;12134;1770879
1;13;1574405730819;1574405753127;22308;17294942752;34163415548;365297697;143283695;5741353546;208540257;393521066;2891;8702;3825376;-151;22307;3148667
1;14;1574405753127;1574405761820;8693;17362734348;34169084043;364142521;148392389;5742438592;208387919;393668448;953;3402;1491376;7;8693;1248311
1;15;1574405761820;1574405770100;8280;17176914016;34164013562;361216918;135590890;5741474115;208495631;393412862;1314;3188;1403184;-8;8281;1270329
1;16;1574405770100;1574405783475;13375;17233059046;34164735883;360423760;139275394;5741769797;208382816;394234990;1523;5177;2124000;13;13375;1913472
1;17;1574405783475;1574405803893;20418;17375615198;34163230866;365600618;148607898;5741373952;208451183;393641316;2748;7974;3353960;-10;20417;2926576
1;18;1574405803893;1574405811187;7294;17234351000;34160408540;362394743;139295994;5740625331;208623412;393276323;769;2600;1248104;-1;7295;1049390
1;19;1574405811187;1574405822570;11383;17159560164;34161347955;361216367;134549115;5741000351;208435074;393833821;1290;5092;2077320;23;11382;1630777
1;20;1574405822570;1574405843937;21367;17314954680;34158666317;364632538;144392450;5740476252;208563191;393361041;2904;9176;3772656;-12;21368;3152510
1;21;1574405843937;1574405852001;8064;17426685560;34155088991;366553360;151544981;5739678118;208610450;393318370;883;3166;1333976;13;8064;1156822
1;22;1574405852001;1574405860526;8525;17170868740;34164062817;360675030;135265469;5741562071;208463872;393502966;898;3554;1538008;-1;8524;1222502
1;23;1574405860526;1574405872644;12118;17201394566;34160059992;360827192;137546726;5740688769;208456600;393502032;1614;5218;2146792;-13;12118;1882443
1;24;1574405872644;1574405893668;21024;17298362656;34162823424;364113757;143445057;5741427599;208456715;393343919;2375;8407;3557112;4;21025;2946299
1;25;1574405893668;1574405901892;8224;17306601436;34158105711;363306154;144462584;5740409158;208486691;393379366;1193;3132;1413568;-10;8224;1226503
1;26;1574405901892;1574405912494;10602;17165718590;34162276895;359965803;134908092;5741054535;208555192;393559791;1212;3948;1759120;6;10601;1524272
1;27;1574405912494;1574405934890;22396;17297407232;34161097674;364162295;143236568;5740865749;208598275;393603453;2654;9590;3932792;-9;22397;3214128
1;28;1574405934890;1574405943444;8554;17366291784;34167721047;363225527;148081167;5742200260;208517500;393451064;1024;3073;1349864;0;8553;1227199
1;29;1574405943444;1574405951202;7758;17188141562;34164708863;362631988;136348674;5741590327;208449541;393535005;852;2984;1357032;12;7758;1114469
1;30;1574405951202;1574405963979;12777;17156112520;34162612766;360075717;134579186;5741249135;208437958;393566512;1675;5460;2245240;-17;12778;1913693
1;31;1574405963979;1574405983916;19937;17254358256;34159828942;362997427;141080558;5740723437;208491463;393160998;2268;8530;3568520;26;19937;2803369
1;32;1574405983916;1574405992045;8129;17347160236;34168306821;364737630;147399009;5742301010;208453235;393481459;912;3245;1403880;-15;8129;1167410
1;33;1574405992045;1574406001973;9928;17186325030;34159749022;359906752;136417863;5740776361;208482949;393413660;1335;3826;1758392;17;9928;1520018
1;34;1574406001973;1574406014702;12729;17135050268;34154802177;358769248;133422872;5739737880;208540058;393479550;1519;5914;1927400;-15;12729;1833111
1;35;1574406014703;1574406030138;15435;17330058672;34161764166;364507093;145525108;5740939781;208626956;393457555;2085;6792;2582040;-2;15436;2158763
1;36;1574406030138;1574406037467;7329;17277824398;34198129829;361336907;140631916;5740463141;208564887;393405550;799;2792;1228152;1;7329;1051665
1;37;1574406037467;1574406049928;12461;17320804024;34340438774;358777556;133678199;5742259707;208429679;393790777;1345;5410;2198432;-1;12460;1787930
1;38;1574406049928;1574406061331;11403;17446005156;34341873124;360890861;141753750;5742645662;208348309;393692765;1476;5430;2098072;-13;11403;1702109
1;39;1574406061331;1574406080056;18725;17453828128;34332130189;360667348;142205877;5740439867;208472061;393379197;2160;7317;3258120;9;18726;2615864
1;40;1574406080056;1574406087828;7772;17442014100;34331646642;361964901;141355023;5740536390;208528260;393287840;1142;3127;1308472;11;7772;1187411
1;41;1574406087829;1574406100077;12248;17315390928;34338770484;358434887;133263744;5741860853;208481792;393906029;1352;4836;2122680;-7;12248;1759101
1;42;1574406100077;1574406122883;22806;17463608960;34332173334;361905131;142663953;5740623014;208551121;393733870;2969;8668;3670024;-14;22801;3151812
1;43;1574406122883;1574406131464;8581;17516505782;34332864004;363345385;146500454;5740727367;208521913;393239284;1005;3203;1410896;21;8582;1232518
1;44;1574406131464;1574406143369;11905;17338922186;34338515819;359433021;134771178;5741849995;208400767;393727285;1639;3541;1623896;-14;11904;1842914
1;45;1574406143369;1574406167774;24405;17377951198;34338906219;359718756;137305234;5741812481;208477303;393533394;3177;9430;3891936;8;24405;3444551
1;46;1574406167774;1574406176208;8434;17544180374;34335850307;365085252;148114415;5741349790;208530810;393530700;978;3137;1385328;-14;8435;1210832
1;47;1574406176209;1574406184027;7818;17358847828;34335159238;359967245;136171658;5741101427;208493132;393394970;823;3286;1415232;10;7819;1122002
1;48;1574406184027;1574406195606;11579;17324422050;34332183326;356614232;133896229;5740670662;208389398;393462041;1314;5507;2173968;138;11579;1671199
1;49;1574406195606;1574406216158;20552;17529543582;34330283836;362109184;146887110;5740229590;208492220;393316109;2577;8538;3745608;-138;20551;2956189
1;50;1574406216158;1574406224006;7848;17444882270;34336079913;362683300;142162781;5741273886;208487532;393323050;889;2884;1354024;7;7849;1127009
1;51;1574406224006;1574406234694;10688;17333682392;34325850551;358312103;134750973;5739391109;208556580;393173808;1439;4586;1895960;10;10687;1575095
1;52;1574406234694;1574406259273;24579;17442341432;34338774728;361944896;141130925;5741996864;208481412;393630064;3108;9082;3990448;-118;24579;3433368
1;53;1574406259273;1574406268211;8938;17543721350;34335827146;364070026;148130149;5741231224;208552588;393690931;1168;3086;1348192;111;8939;1243116
1;54;1574406268211;1574406275172;6961;17360963222;34335192663;360382611;135941131;5741114450;208466979;393366198;763;2907;1323752;5;6961;999750
1;55;1574406275172;1574406287043;11871;17394753754;34332917264;359505779;138625773;5740788368;208487872;393309618;1263;5323;2215488;-2;11871;1703553
2;6;1574406484939;1574406506961;22022;17215593358;34087542478;364349347;142164145;5746213646;209320953;392279178;2410;8873;3812208;11;22022;3013921
2;7;1574406506962;1574406515673;8711;17326590004;34079824059;365638655;149163943;5744706325;209474974;392233840;1246;3543;1487744;9;8712;1337502
2;8;1574406515674;1574406523786;8112;17120827386;34084713672;361707314;136094361;5745750208;209274208;391984529;947;2920;1393704;-13;8113;1163196
2;9;1574406523786;1574406537036;13250;17202148656;34084343807;363668687;141278314;5745547859;209369756;392333346;1464;5559;2167568;8;13250;1902973
2;10;1574406537036;1574406555798;18762;17274997400;34083702653;365315764;145771265;5745514933;209379047;392098488;2409;7377;3189448;-15;18762;2720240
2;11;1574406555798;1574406563208;7410;17210089158;34079372101;363411454;142245357;5744601817;209325566;392045791;798;4044;1118040;4;7410;1065115
2;12;1574406563208;1574406572830;9622;17109268128;34086863709;361841196;135701981;5746221989;209315022;392345624;1006;4064;1712464;-13;9622;1378871
2;13;1574406572830;1574406595223;22393;17227155244;34084786352;363159029;143152676;5745700300;209323593;392034646;2861;9753;4045304;-63;22393;3193974
2;14;1574406595223;1574406603584;8361;17318268588;34090568952;365986549;148692176;5746971937;209268796;392193285;937;3456;1428664;67;8361;1166782
2;15;1574406603584;1574406611297;7713;17158325734;34085259335;362096844;138737751;5745799131;209395600;392002700;1109;3164;1324280;19;7713;1172273
2;16;1574406611297;1574406624440;13143;17057369654;34085749498;357857008;133063936;5746040095;209075211;392194163;1494;4968;2180416;-20;13143;1884406
2;17;1574406624440;1574406646038;21598;17264996254;34084297103;363829363;145233614;5745615668;209302564;392206491;2885;8414;3548072;20;21598;3020185
2;18;1574406646038;1574406654220;8182;17288734248;34081648221;365806047;147036091;5744848172;209502252;391896441;989;2926;1292392;3;8182;1173568
2;19;1574406654220;1574406663533;9313;17089171228;34082757478;360893127;134830837;5745394946;209214440;392221034;997;3968;1726112;-4;9313;1335059
2;20;1574406663533;1574406676301;12768;17192905396;34079587894;362066196;141142394;5744611674;209346684;391903652;1701;5748;2286264;-19;12768;1903243
2;21;1574406676301;1574406694486;18185;17268458206;34076070190;362289133;145386339;5743758863;209380204;391889035;2295;7217;3177928;4;18185;2545231
2;22;1574406694486;1574406701746;7260;17171040144;34085191310;361057231;139558195;5745882750;209305208;391943294;819;4173;1165352;14;7260;1040839
2;23;1574406701746;1574406711173;9427;17180049950;34081174988;360740848;140258076;5744855306;209216595;391860945;966;4299;1681304;-5;9427;1353543
2;24;1574406711173;1574406734901;23728;17172512554;34083986109;361895498;139543387;5745732429;209227192;391875770;2891;9382;4021040;-38;23728;3407384
2;25;1574406734901;1574406744145;9244;17304522542;34079108578;363985776;148138125;5744589441;209351060;391979002;1348;3606;1529296;34;9244;1373384
2;26;1574406744145;1574406751258;7113;17109077598;34083435091;361802507;135544136;5745293273;209334485;391848329;825;2622;1283352;8;7113;1022455
2;27;1574406751258;1574406764423;13165;17184984312;34082263355;362604311;140717726;5745075241;209389059;392050843;1486;5062;2108408;-12;13165;1886303
2;28;1574406764423;1574406784910;20487;17263521362;34088939834;363519792;145090512;5746579850;209400682;392087622;2667;8618;3537200;9;20487;2929489
2;29;1574406784911;1574406792485;7574;17176289282;34085945861;363513574;140234473;5745889758;209327435;392019959;812;2611;1255992;-10;7575;1088750
2;30;1574406792485;1574406803548;11063;17083600890;34083747875;359898407;134287069;5745516326;209226892;391880063;1185;4920;1992200;-1;11063;1585371
2;31;1574406803548;1574406827020;23472;17206238992;34080903028;362664602;141596338;5744900549;209321247;391773251;2990;9350;4022480;-22;23472;3349101
2;32;1574406827020;1574406835666;8646;17283712870;34089678048;363724795;147078170;5746699514;209367346;392170895;976;3376;1471480;27;8646;1233435
2;33;1574406835667;1574406842952;7285;17126810028;34080979700;360998647;136565295;5745098110;209324131;391904324;1123;2445;1278264;-8;7286;1124107
2;34;1574406842952;1574406856790;13838;17132659664;34075899757;360244769;137074526;5743944866;209343560;391768119;1636;5242;2171632;-4;13838;1982763
2;35;1574406856790;1574406877832;21042;17262000772;34082850211;363166690;145233276;5745139574;209461984;391912423;2913;8323;3596896;30;21042;3059128
2;36;1574406877833;1574406885774;7941;17249346076;34119169391;364361795;144010582;5744613730;209450763;391676385;862;2811;1351200;-30;7942;1140408
2;37;1574406885774;1574406897560;11786;17258552398;34261674539;360802535;134533328;5746636586;209228067;392339399;1217;5062;2034576;5;11786;1694758
2;38;1574406897560;1574406919985;22425;17392794872;34263346093;363566066;142688125;5747254184;209228224;392283947;3077;9065;3917800;0;22425;3222428
2;39;1574406919985;1574406928357;8372;17472602560;34253408338;363892403;148001588;5744671967;209334819;391953660;976;3531;1456056;16;8372;1202425
2;40;1574406928357;1574406936867;8510;17293420118;34252557931;361883699;136634653;5744662806;209295915;391839775;1394;3296;1420592;7;8510;1327534
2;41;1574406936868;1574406949682;12814;17286471978;34260059777;360911719;136003906;5746190181;209301549;392436653;1537;4851;2151448;-1;12815;1839956
2;42;1574406949682;1574406970953;21271;17480424510;34253341085;365389943;148208790;5744880810;209398271;392232110;2857;7933;3425592;-6;21271;2907479
2;43;1574406970953;1574406978570;7617;17373882908;34254069417;363856043;141655155;5744990488;209411709;391802332;924;3069;1319600;4;7617;1098314
2;44;1574406978570;1574406989194;10624;17262983790;34259899779;361630438;134927713;5746279148;209191029;392158918;1201;4595;1960144;-17;10624;1524488
2;45;1574406989194;1574407010021;20827;17392872252;34260018162;364100264;142668735;5746103220;209306198;392164619;2619;9453;3929072;8;20827;2967268
2;46;1574407010021;1574407018712;8691;17481961306;34257083721;365491936;148690091;5745639319;209363450;392007679;939;3133;1407904;-11;8691;1245991
2;47;1574407018712;1574407026354;7642;17288949452;34256546338;361876426;136518361;5745451421;209286100;391924123;859;3208;1368880;12;7643;1097144
2;48;1574407026355;1574407041186;14831;17270291528;34253063744;359142183;134793241;5744748883;209278825;392255653;2102;5301;2091056;13;14831;2223203
2;49;1574407041186;1574407063686;22500;17471742620;34251362105;366734169;147708553;5744398377;209487921;391945789;2882;8421;3710552;-20;22500;3196522
2;50;1574407063687;1574407071127;7440;17361244126;34257412636;364235017;140764307;5745596520;209315614;391940394;886;2529;1240992;10;7441;1064203
2;51;1574407071127;1574407083768;12641;17258662044;34246723520;361010331;134351264;5743419838;209415024;391880029;1493;5042;2026992;-13;12641;1813854
2;52;1574407083768;1574407104871;21103;17419023772;34259797964;364983806;144317478;5746228391;209372130;392096033;2574;9115;3919840;5;21103;3002804
2;53;1574407104871;1574407113643;8772;17483315748;34257162401;364806225;148681818;5745559109;209332646;392226514;975;3124;1355112;17;8772;1258620
2;54;1574407113644;1574407123200;9556;17268962782;34256349611;361180128;135090881;5745340349;209294822;391927944;1023;3656;1610192;2;9557;1373785
2;55;1574407123201;1574407135650;12449;17333340606;34253850224;362885380;139162248;5744861334;209311877;391783336;1610;5524;2150384;-3;12449;1865538
3;5;1574407333155;1574407340389;7234;17292460314;33829676127;361115096;137843993;5741911096;206567018;389131771;1141;2510;1099760;5;7234;1049960
3;6;1574407340389;1574407362742;22353;17267099238;33830682344;361114433;136367203;5742115247;206567583;389230291;2644;8886;3858024;3;22354;3263054
3;7;1574407362742;1574407379518;16776;17339439318;33824338864;361630549;140604675;5740695009;206607623;388988481;1842;5465;2921648;22;16775;2321851
3;8;1574407379518;1574407387214;7696;17446394830;33828512834;365259970;147114566;5741644995;206654270;389183904;859;2938;1329656;-27;7697;1103921
3;9;1574407387215;1574407396760;9545;17265260222;33828253689;361158781;136255119;5741595924;206591102;389144453;1357;4219;1647336;21;9546;1481726
3;10;1574407396760;1574407407067;10307;17383255670;33828479532;363716817;143476816;5741629834;206651332;388998549;1162;4785;1981800;-8;10306;1480239
3;11;1574407407067;1574407428765;21698;17386785220;33824380679;363861897;143816372;5740777770;206677863;389106830;2685;8475;3520232;-15;21699;3073031
3;12;1574407428765;1574407436467;7702;17368184820;33831349489;362599783;142187186;5742140912;206673943;389273038;875;2732;1174560;21;7702;1102643
3;13;1574407436467;1574407447235;10768;17248739008;33828770266;360760324;135381771;5741636686;206607729;389025741;1119;5018;1961984;1;10767;1541047
3;14;1574407447235;1574407457842;10607;17375876830;33834139875;362535175;143085641;5742700523;206472096;389242463;1368;4947;1980560;-3;10608;1569358
3;15;1574407457842;1574407476406;18564;17469734536;33829589265;365861559;148999430;5741754939;206771848;389072771;2049;7855;3429896;7;18563;2655445
3;16;1574407476406;1574407484349;7943;17280823238;33830672349;361606422;137117379;5741972503;206612779;389113803;859;2776;1324368;-19;7943;1143704
3;17;1574407484349;1574407496966;12617;17260078244;33828182316;360109116;135937607;5741535039;206555467;389137791;1594;5499;2186896;17;12617;1857778
3;18;1574407496966;1574407519417;22451;17370399786;33824883224;363473943;142255342;5740929887;206817283;389010307;2515;8676;3740528;-20;22451;3165416
3;19;1574407519417;1574407528242;8825;17440443140;33826979056;365814343;147443942;5741315895;206614930;389175938;1326;3109;1386432;25;8825;1313351
3;20;1574407528242;1574407538669;10427;17235255470;33824705968;359890133;134774868;5740783161;206627291;389034732;1390;3980;1690688;-25;10428;1618488
3;21;1574407538670;1574407551099;12429;17330677858;33820701062;362034834;140337997;5740028447;206727023;389277319;1352;5121;2121072;26;12429;1783477
3;22;1574407551099;1574407569006;17907;17466000148;33829884161;365744416;148914793;5741818433;206663336;389539556;2332;7401;3088008;-2;17907;2553879
3;23;1574407569006;1574407577357;8351;17309205054;33824857881;361431446;139024335;5740920230;206578464;389362765;894;3194;1389928;2;8351;1197150
3;24;1574407577357;1574407589200;11843;17216931448;33828864811;359266691;133945347;5741647523;206527018;389324050;1271;4986;2072128;-23;11843;1700564
3;25;1574407589200;1574407609872;20672;17435790704;33823634936;364238374;147087509;5740673739;206670798;389396950;2647;9144;3805992;11;20672;2960861
3;26;1574407609872;1574407617180;7308;17413590236;33827593244;363176871;145621837;5741411838;206695400;389412940;815;3011;1244144;-13;7309;1046492
3;27;1574407617180;1574407624013;6833;17265734722;33825987053;361362744;136366250;5741186709;206686322;389311220;743;4625;1008336;25;6833;979127
3;28;1574407624014;1574407635861;11847;17345493646;33833210690;362040388;141322707;5742442819;206645684;389515056;1601;5404;2080544;-7;11848;1809546
3;29;1574407635862;1574407657907;22045;17342816006;33829438139;361068173;140809252;5741829050;206560455;389597927;2855;8106;3623720;-23;22045;3152374
3;30;1574407657907;1574407665723;7816;17383989028;33828175313;362670683;143821338;5741519601;206607753;389339271;937;2689;1284360;23;7816;1120329
3;31;1574407665723;1574407675569;9846;17231755120;33825158903;358439142;134367557;5740976809;206562091;389081223;998;4126;1675104;-5;9847;1414807
3;32;1574407675569;1574407687318;11749;17363262868;33833321025;361577397;142362360;5742588911;206592803;389629734;1271;5604;2232512;9;11748;1684481
3;33;1574407687318;1574407706532;19214;17428937610;33826166071;363420309;146487370;5741135487;206582336;389413990;2423;8052;3447088;0;19214;2804200
3;34;1574407706532;1574407713251;6719;17413949688;33993715676;359658607;135278089;5740103289;206595031;389083742;758;4018;1036936;-22;6719;966999
3;35;1574407713251;1574407723466;10215;17459221076;33999513566;360472319;137279802;5741179056;206709478;389392523;1367;4487;1683648;7;10215;1562716
3;36;1574407723466;1574407735142;11676;17441982710;33996397347;357916333;136940786;5740608888;206607691;389209082;1296;4904;1999640;17;11676;1676710
3;37;1574407735142;1574407756248;21106;17631911336;34005876794;365140427;148568838;5742523926;206641482;389778657;2691;7916;3456312;-13;21107;3010905
3;38;1574407756248;1574407764198;7950;17420740440;34008023168;360403428;135453412;5742929826;206432801;389554006;899;2818;1248224;-2;7949;1144696
3;39;1574407764198;1574407775537;11339;17452079924;33996981822;360375323;137224249;5740759481;206648441;389378422;1191;5390;2083776;-5;11340;1628978
3;40;1574407775537;1574407795092;19555;17522208104;33997284440;361331954;141807261;5740793760;206652874;389300474;2551;8375;3667072;20;19554;2856855
3;41;1574407795092;1574407803549;8457;17650521664;34003737050;364629841;149452498;5742089748;206686024;389916036;905;3183;1326904;-10;8458;1214715
3;42;1574407803549;1574407813328;9779;17405880706;33998066450;359889274;134559909;5740986987;206633863;389587138;1136;4096;1706072;156;9779;1431164
3;43;1574407813328;1574407826174;12846;17459350578;33998197335;359449446;137879274;5740947341;206621099;389278339;1568;5255;2296736;-147;12846;1883436
3;44;1574407826174;1574407847319;21145;17602817040;34004049014;363714478;146580986;5742237148;206467510;389497513;2874;7225;3069904;0;21144;3150491
3;45;1574407847319;1574407856909;9590;17495160436;34004138816;361264928;140294633;5742251583;206612397;389483829;1139;3277;1515240;-25;9590;1383485
3;46;1574407856909;1574407868754;11845;17397839026;34001010411;359255698;134059871;5741537472;206572160;389465685;1272;5464;2200912;16;11846;1700753
3;47;1574407868754;1574407888362;19608;17567368532;34000383246;361626520;144246121;5741489440;206625191;389416020;2704;8506;3557088;9;19607;2852973
3;48;1574407888362;1574407896615;8253;17596102062;33997321840;365616792;146365141;5740849396;206756569;389430723;879;3039;1307672;-14;8253;1184256
3;49;1574407896615;1574407906786;10171;17406518142;33995661726;359426932;134691468;5740479799;206632823;389270692;1092;4416;1801184;0;10171;1458611
3;50;1574407906786;1574407919594;12808;17507252448;34000445836;360961563;140857701;5741485014;206596307;389466625;1768;5160;2187664;16;12809;1943013
3;51;1574407919595;1574407940748;21153;17555325138;33992158425;362292611;143985593;5739787320;206786386;389169622;2825;7943;3368848;-20;21153;3098523
3;52;1574407940748;1574407948215;7467;17488474366;34003529719;361734850;139766924;5742087201;206628392;389473150;901;2516;1235864;-5;7468;1073445
3;53;1574407948216;1574407960146;11930;17414949642;34000465501;359885593;135041612;5741438605;206621004;389608605;1269;5294;2035680;11;11931;1712166
3;54;1574407960146;1574407981452;21306;17576426956;33999974895;362657580;144950568;5741414718;206635071;389524586;2854;8872;3914632;-5;21305;3080405
4;5;1574408163802;1574408170806;7004;17331048114;33117735745;368233446;138160958;5662073293;210343082;399696961;1090;2859;1209304;-18;7003;1074506
4;6;1574408170806;1574408193406;22600;17371087738;33118997100;369582805;141709104;5662153523;210295543;399944367;2971;7920;3712808;12;22601;3163216
4;7;1574408193406;1574408201804;8398;17461360268;33111037183;370868638;147504468;5660694216;210580346;399735038;1203;3186;1429400;6;8398;1280221
4;8;1574408201804;1574408211921;10117;17291628114;33116202700;366202594;135893489;5661677235;210374238;399614465;1136;3632;1647400;-15;10117;1451809
4;9;1574408211921;1574408234973;23052;17414186354;33116138846;369642379;143797063;5661644924;210432596;399866311;2826;9653;3957440;-61;23051;3303250
4;10;1574408234973;1574408243320;8347;17501840374;33115256068;371332068;150478048;5661426810;210509361;399629991;974;3109;1287680;68;8348;1192478
4;11;1574408243321;1574408250734;7413;17338848164;33111473727;367270698;139427617;5660703643;210486026;399638738;804;2701;1287544;-4;7414;1065299
4;12;1574408250735;1574408263433;12698;17279531576;33118652235;366489399;135245528;5662144582;210466213;399904463;1646;5508;2181208;2;12698;1887030
4;13;1574408263433;1574408285050;21617;17448015284;33116068976;370969202;145751377;5661688337;210497134;399672848;2392;8655;3797368;-9;21618;3039040
4;14;1574408285050;1574408294743;9693;17496029136;33122587221;371842072;150023724;5662997673;210338708;399784145;1374;3655;1581520;11;9693;1452944
4;15;1574408294744;1574408304012;9268;17282694666;33117224836;364900878;135424113;5661858336;210375798;399486997;1046;3517;1665360;10;9268;1331892
4;16;1574408304012;1574408328298;24286;17305653166;33117617522;365721394;136957080;5662009030;210315670;399815848;3087;9380;3982288;-24;24282;3376098
4;17;1574408328299;1574408336297;7998;17464211356;33116032559;371086343;147063818;5661726592;210420169;399943838;909;3058;1244984;17;7999;1144208
4;18;1574408336297;1574408344560;8263;17397602944;33112261675;370150448;142667208;5660751075;210612701;399455299;1065;3005;1436000;-9;8262;1186172
4;19;1574408344560;1574408356650;12090;17275885810;33114164657;366947876;135161907;5661357605;210379213;399829020;1295;5616;2211912;170;12090;1764180
4;20;1574408356650;1574408377638;20988;17384881964;33111185960;368686787;142355539;5660612519;210589124;399744879;2927;8350;3653056;-177;20988;3202602
4;21;1574408377638;1574408385729;8091;17495280740;33106766676;370034540;148684314;5659702281;210603669;399605604;886;3172;1370328;12;8091;1163595
4;22;1574408385729;1574408396047;10318;17278245170;33116889965;365823865;135065896;5661806116;210396874;399832896;1082;4449;1881344;8;10318;1480222
4;23;1574408396047;1574408419926;23879;17334441154;33112412464;366549471;138786949;5660785494;210448789;399743955;3018;9384;4085216;-63;23880;3480892
4;24;1574408419926;1574408427577;7651;17432719448;33116275525;369638853;144691419;5661701117;210392035;399699174;898;3806;1331240;56;7651;1082486
4;25;1574408427578;1574408435513;7935;17386165012;33110708483;367608669;142297553;5660618581;210411457;399669414;1266;3462;1272184;-8;7936;1221725
4;26;1574408435514;1574408446890;11376;17280565256;33114644996;365265584;134989030;5661257889;210539807;399796955;1295;4249;1849424;18;11377;1633471
4;27;1574408446890;1574408468423;21533;17444365138;33113409501;370372791;146008628;5661038219;210613163;399829978;2828;8759;3684760;2;21533;3027050
4;28;1574408468423;1574408477210;8787;17502361302;33120773282;368509977;149869543;5662590783;210472707;399861556;954;3204;1409472;-26;8787;1258689
4;29;1574408477210;1574408485880;8670;17277107100;33117529619;365759924;135224123;5661916500;210355718;399827834;925;3414;1511408;6;8669;1247487
4;30;1574408485880;1574408498874;12994;17316154800;33115423892;367582461;137846422;5661553488;210354066;399755459;1683;5771;2314352;-3;12994;1924356
4;31;1574408498874;1574408518110;19236;17466745916;33112098488;369204997;147428541;5660817864;210407452;399481544;2175;7655;3323352;-2;19237;2685417
4;32;1574408518111;1574408526554;8443;17416329342;33121166294;369020417;144181452;5662702874;210411068;399935850;1292;3491;1436064;22;8444;1278369
4;33;1574408526554;1574408538172;11618;17273824436;33112613304;366013674;135097325;5661041231;210428147;399778776;1313;4281;1948592;2;11617;1666547
4;34;1574408538172;1574408560786;22614;17391625558;33106997590;367718369;142347873;5659861328;210489372;399512857;2977;8837;3736184;1;22615;3151446
4;35;1574408560786;1574408569901;9115;17499052796;33113460170;370835280;149044616;5660992713;210621020;399947966;1057;3233;1461216;3;9115;1305877
4;36;1574408569901;1574408578475;8574;17301936590;33150397351;367908283;136195456;5660620345;210491694;399483170;913;3474;1548736;-17;8573;1232875
4;37;1574408578475;1574408590011;11536;17532520814;33293092618;367482646;140300509;5662569790;210367823;400249244;1572;5347;2065944;-6;11536;1768400
4;38;1574408590011;1574408609672;19661;17645763232;33296141885;370732136;147822536;5663212504;210371370;400259861;2232;7900;3492368;-3;19661;2711632
4;39;1574408609672;1574408617499;7827;17586567240;33284425612;370316740;144357766;5660689730;210597772;399851700;838;2970;1304664;27;7828;1125251
4;40;1574408617500;1574408628586;11086;17437783604;33284025090;364842832;134349050;5660627746;210417354;399749906;1498;4847;1931400;-13;11087;1678855
4;41;1574408628587;1574408652605;24018;17501073436;33291458693;366415174;138018832;5662066406;210492179;400342923;3156;8433;3846848;-7;24019;3358041
4;42;1574408652605;1574408661484;8879;17676583686;33284830654;370975071;150373406;5660851959;210548838;400129909;1119;2902;1345528;1;8878;1271472
4;43;1574408661484;1574408673608;12124;17466869870;33285331953;365326939;135852094;5660966774;210490936;399832079;1676;3830;1692088;13;12125;1855652
4;44;1574408673609;1574408696506;22897;17463204394;33291895913;365333347;136006503;5662352677;210337888;400026780;2972;9080;3771264;120;22897;3230178
4;45;1574408696506;1574408704968;8462;17645537516;33291677061;369792821;148096482;5662135589;210445346;399921908;1193;2708;1281512;-126;8463;1230592
4;46;1574408704969;1574408713281;8312;17471839564;33288805049;365623472;136269278;5661613613;210401441;399944992;1098;2858;1379192;-10;8313;1190184
4;47;1574408713282;1574408725707;12425;17475501682;33288198170;363671866;136542943;5661393443;210365370;399886202;1311;5612;2256416;2;12426;1785415
4;48;1574408725707;1574408746950;21243;17637296546;33284299211;369117868;146492714;5660645203;210438065;399831913;2648;8909;3753936;19;21243;3003759
4;49;1574408746950;1574408755526;8576;17620995792;33282258589;367624063;145915161;5660289693;210488797;399728071;965;3126;1431208;-5;8575;1225285
4;50;1574408755526;1574408764394;8868;17462280214;33288705530;365158131;135485042;5661620910;210375292;399803568;1222;3652;1525312;-6;8868;1325455
4;51;1574408764394;1574408778133;13739;17572268000;33277499356;368115719;142591401;5659348670;210546916;399698615;1536;5122;2248472;0;13739;1970785
4;52;1574408778133;1574408797012;18879;17620219364;33291079564;368957903;145813683;5662094966;210428174;400112753;2532;7361;3133952;9;18879;2735466
4;53;1574408797012;1574408805209;8197;17574343682;33288566957;368405161;142788752;5661487463;210480693;400115188;926;3358;1405288;2;8197;1176477
4;54;1574408805209;1574408817478;12269;17446544626;33287529663;365177499;134837179;5661339892;210409446;399874971;1306;5582;2248656;-24;12270;1762164
