0;36;1573297217687;1573297226530;8843;17567393352;34294335823;363255335;138692102;5781691924;208684478;391618909;3001;20;504624;0;2709;7947
0;37;1573297226531;1573297235508;8977;17569182728;34303964682;363398822;139042248;5783903579;208557849;392260546;2999;1;504000;0;2485;6871
0;38;1573297235508;1573297243119;7611;17511451408;34305548801;378946839;136445859;5784443157;208654187;393555728;3006;359;536616;-5;3579;45001
0;39;1573297243119;1573297251222;8103;17508023182;34295397292;367003064;136741343;5781778819;208644201;392204053;3005;7;503904;3;2740;8329
0;40;1573297251223;1573297259790;8567;17529364586;34294699811;362954535;137772756;5781842042;208603402;391595102;2995;4;503832;1;2606;8099
0;41;1573297259790;1573297267462;7672;17581726902;34301960859;359751847;138657003;5783253754;208470240;392041613;2993;29;505264;-4;2744;8904
0;42;1573297267468;1573297275381;7913;17569524368;34295276967;362990832;138733019;5781962134;208461258;391840487;3004;340;534608;0;3056;35022
0;43;1573297275382;1573297283414;8032;17615239596;34296145098;361274140;139731763;5782138912;208364280;391416683;2981;30;503736;4;2773;8096
0;44;1573297283414;1573297291110;7696;17593078840;34302064819;364452543;139417545;5783469366;208286662;391652762;2995;8;504504;-3;2410;7825
0;45;1573297291110;1573297298949;7839;17534364210;34302411346;360938261;137916444;5783392651;208279974;391510415;3065;219;514608;63;2467;29223
0;46;1573297298949;1573297307607;8658;17520305432;34299170661;363043348;137438220;5782807267;208612191;392110106;2989;78;524360;-63;2992;15581
0;47;1573297307607;1573297315588;7981;17514473024;34298606939;364338160;137239506;5782587840;208711493;392182443;3001;20;504600;0;2800;9097
0;48;1573297315588;1573297323504;7916;17492666318;34295035348;367401114;136256753;5781841506;208687743;391798583;2971;29;504000;0;2562;8124
0;49;1573297323504;1573297330858;7354;17507885212;34293481867;374279059;136450598;5781582884;208792725;392404609;3068;285;535176;-1;3004;27548
0;50;1573297330858;1573297339091;8233;17499617670;34299380654;357888197;137450848;5782683317;208296260;391431031;2988;12;504000;0;2582;7415
0;51;1573297339092;1573297347820;8728;17548009954;34288940883;360454623;138310625;5780621150;208680265;391499341;3014;8;504608;0;2810;10444
0;52;1573297347820;1573297356565;8745;17571004078;34301910215;364451441;139122560;5783370002;208607461;391972122;2996;4;504000;0;2415;6860
0;53;1573297356565;1573297364725;8160;17536560050;34299254268;364786377;137724650;5782698379;208641853;392000121;3023;301;534040;1;3077;28952
0;54;1573297364725;1573297373698;8973;17514094592;34298553386;360240932;137693893;5782551498;208566943;391719096;2996;5;504168;-1;2705;7665
0;55;1573297373699;1573297381740;8041;17521819890;34296021642;370015912;136855882;5782055830;208709580;392155778;3020;2;504632;0;2719;9077
0;56;1573297381741;1573297389851;8110;17490183150;34295316688;369092634;136670813;5782055252;208650452;391936267;3013;6;504624;0;2545;8463
0;57;1573297389851;1573297397310;7459;17506203584;34298218082;373420888;136332482;5782670721;208712147;392654371;3096;254;533072;4;3106;34557
0;58;1573297397310;1573297405096;7786;17500226928;34291770414;370397664;136533656;5781098417;208787413;392223394;3013;8;504504;-2;2857;8745
0;59;1573297405096;1573297412756;7660;17516694122;34298348107;368780581;136971817;5782581304;208693491;391863457;2978;24;504704;-2;2585;7940
0;60;1573297412756;1573297421580;8824;17524616082;34297425553;361458532;137826639;5782417122;208583988;391588183;3013;17;508376;9;2511;7789
0;61;1573297421580;1573297429570;7990;17509434564;34298609356;365949131;136809479;5782501032;208696215;392017738;3063;266;530416;-9;3178;38781
0;62;1573297429570;1573297437097;7527;17507586058;34297505955;369725756;136347520;5782347593;208682341;391980784;2983;38;504624;0;2877;9473
0;63;1573297437097;1573297445146;8049;17517005540;34297834797;370886635;137055266;5782562260;208652577;392438496;2997;3;504000;0;2653;8089
0;64;1573297445146;1573297454683;9537;17539901552;34299124605;358153729;139039061;5782708599;208548619;391618888;2612;1140;573136;0;6092;89285
0;65;1573297454683;1573297463028;8345;17528169430;34304971389;365513611;137693742;5784041856;208556203;392242657;2991;9;504000;0;2646;7627
0;66;1573297463028;1573297470152;7124;17497399638;34300784845;372353692;136240962;5783143726;208639781;392251978;3004;16;504592;0;2605;9153
0;67;1573297470152;1573297477131;6979;17505170488;34299407951;374861182;136201697;5782719731;208721102;392563830;2981;20;504032;0;2451;8048
0;68;1573297477132;1573297485917;8785;17511777864;34295778293;360100461;137614080;5781895136;208543192;391557038;3152;284;534176;0;3284;46757
0;69;1573297485917;1573297495085;9168;17540725138;34299158762;362769617;138629273;5782663971;208567969;392172313;2997;2;503832;1;2684;7311
0;70;1573297495085;1573297504060;8975;17538326358;34295422594;361195721;138354306;5781805869;208646666;391494270;3007;11;504640;-1;2516;6926
0;71;1573297504060;1573297513249;9189;17535251598;34294816194;362555851;138212652;5781736495;208584622;391787684;3097;238;530432;0;2881;31052
0;72;1573297513251;1573297522002;8751;17617500114;34296066096;365298739;140244160;5782188776;208697034;391975294;2990;8;503664;2;2745;7981
0;73;1573297522002;1573297530938;8936;17596055634;34293709083;363080038;140142329;5781549211;208637635;391368958;3010;7;504584;-1;2562;7123
0;74;1573297530938;1573297538994;8056;17495827218;34298057642;369072160;136829159;5782519724;208712592;392253175;2994;4;503664;2;2360;6883
0;75;1573297538994;1573297547277;8283;17564757614;34297779781;373685581;138547784;5782429877;208786750;392863312;3050;296;536344;-3;3314;34890
0;76;1573297547277;1573297555626;8349;17558024970;34301084979;369020371;138424032;5783246559;208659759;392461467;2990;3;502824;7;2916;8941
0;77;1573297555626;1573297564423;8797;17532445624;34295560560;366407538;138020768;5782102385;208691473;392091991;3000;17;504448;0;2436;7245
0;78;1573297564423;1573297572551;8128;17529293484;34291822616;368503884;137574632;5781172349;208720738;392153941;3065;270;533536;-6;2969;35197
0;79;1573297572551;1573297580876;8325;17573080928;34293320491;365080914;138726458;5781564600;208667727;391743424;3010;9;504760;-1;2904;9193
0;80;1573297580876;1573297589499;8623;17538785382;34306418441;365126593;137854258;5784353954;208567230;392259102;3017;4;504600;0;2892;9592
0;81;1573297589499;1573297596639;7140;17485204988;34296904875;373293036;136133793;5782225459;208761332;392172891;2999;0;503832;1;2386;7863
0;82;1573297596639;1573297606012;9373;17545283404;34296717632;359021500;138717822;5782279302;208521193;391628081;3116;264;533800;0;2747;45874
0;83;1573297606012;1573297614389;8377;17572616064;34297452337;364796885;139106766;5782536515;208507253;391864370;2989;14;504232;-1;2793;8066
0;84;1573297614389;1573297623184;8795;17549356804;34294843174;361544672;138830791;5781954267;208617351;391657390;2998;20;504256;2;2688;7635
0;85;1573297623184;1573297632304;9120;17561807830;34298069728;361324014;139453852;5782596467;208582374;391870062;3078;279;536160;-2;3026;42843
1;36;1573298068526;1573298076500;7974;17505913190;34344827978;365415364;136774926;5774178856;208738510;391520759;2982;41;505120;-3;2892;9957
1;37;1573298076501;1573298085053;8552;17544870370;34354066261;364273453;138375642;5776222132;208561423;392186986;2996;4;504000;0;2570;7730
1;38;1573298085053;1573298093826;8773;17555154318;34355846196;363985878;138900226;5776856620;208483977;392081346;3039;313;529744;0;3333;51723
1;39;1573298093826;1573298102841;9015;17528019780;34345855108;360977651;137967511;5774298011;208583555;391637864;3012;6;504416;1;2706;7254
1;40;1573298102841;1573298111085;8244;17489289630;34345155375;362169651;137059676;5774340597;208523450;391713713;3000;1;504168;-1;2340;6343
1;41;1573298111085;1573298119278;8193;17494468250;34352251224;365760321;136920934;5775666477;208657894;392073791;3004;12;504640;-1;2434;7248
1;42;1573298119279;1573298127545;8266;17505594034;34345489705;350433710;137458541;5774321770;208228377;391439304;3024;361;534120;1;2985;50741
1;43;1573298127545;1573298135579;8034;17491180622;34346243629;360540140;137080044;5774454790;208529688;391455781;3010;11;504760;-1;2956;9711
1;44;1573298135579;1573298143752;8173;17501120302;34352407563;357318850;137345821;5775916569;208200939;391667596;2999;1;504000;0;2347;7071
1;45;1573298143752;1573298151825;8073;17494047770;34352521999;357009174;136999776;5775725836;208228729;391455980;3032;225;513464;77;2550;31429
1;46;1573298151825;1573298159520;7695;17484908608;34349178660;361341144;136509637;5775061663;208480424;391626978;2955;121;523104;-72;2975;15481
1;47;1573298159520;1573298167604;8084;17517838032;34348706780;351805046;137779785;5774914289;208175181;391235322;3015;10;505432;-5;2535;7895
1;48;1573298167604;1573298175306;7702;17507394506;34345247550;371846460;136903902;5774211525;208784213;392342138;2997;2;503832;1;2452;7738
1;49;1573298175306;1573298183154;7848;17492620328;34343611680;373695850;136725882;5773922312;208771553;392547019;3042;270;534240;0;2892;23993
1;50;1573298183154;1573298191162;8008;17561808706;34349705352;368923079;138794983;5775108868;208563108;392190675;3001;0;504168;-1;2833;8564
1;51;1573298191162;1573298200045;8883;17560106346;34338905774;362700211;139264143;5772885043;208670227;391693519;3017;4;504464;1;2830;8128
1;52;1573298200046;1573298208326;8280;17533246434;34352095267;369916199;137818992;5775747554;208639942;392221719;2999;2;504168;-1;2580;7784
1;53;1573298208326;1573298217324;8998;17506275416;34349422723;363239356;137785832;5775040077;208596688;392082996;3001;317;533416;0;2831;36321
1;54;1573298217324;1573298225961;8637;17494955160;34348728674;361546592;137575022;5774901030;208598468;391628214;2996;21;504248;2;2759;7719
1;55;1573298225961;1573298233480;7519;17481652662;34346232664;371902698;136321318;5774432282;208706132;391948039;2996;5;504168;-1;2733;8419
1;56;1573298233480;1573298241814;8334;17500648576;34345519502;366492207;137202502;5774403735;208662429;391558106;2986;38;504464;2;2460;7732
1;57;1573298241814;1573298249726;7912;17526980844;34348482591;371728808;137868831;5775061493;208687928;392656265;3047;270;533288;-3;3138;35225
1;58;1573298249726;1573298257907;8181;17620973892;34341942272;366051557;140332151;5773440557;208719535;391679726;3003;14;504112;3;2955;9843
1;59;1573298257907;1573298266481;8574;17518771264;34348455016;363302018;137931829;5774906471;208598976;391440624;3000;6;504600;-3;2694;8170
1;60;1573298266481;1573298273983;7502;17476715526;34347729160;371027487;136255538;5774806872;208666007;391995497;3008;7;504296;1;2588;9313
1;61;1573298273983;1573298283014;9031;17534105644;34348772347;363059104;138240524;5774858423;208655994;391726157;3056;293;535248;0;3208;41831
1;62;1573298283014;1573298291693;8679;17540096900;34347895181;368896898;138771932;5774797941;208687710;392003428;2998;23;504648;0;2870;8449
1;63;1573298291693;1573298299942;8249;17582827450;34348136740;369144546;139542817;5774964496;208633141;392084127;2993;8;504168;-1;2602;8008
1;64;1573298299942;1573298308762;8820;17517635968;34349293991;359751307;137881266;5775039318;208561054;391597871;2975;376;533616;0;3306;39605
1;65;1573298308762;1573298317931;9169;17507922880;34355069191;359137868;138141509;5776334076;208516668;392081696;3004;11;504296;1;2788;7721
1;66;1573298317931;1573298325842;7911;17499243326;34351058151;366016738;137023889;5775548981;208591245;391820992;2998;3;504168;-1;2703;8208
1;67;1573298325842;1573298335585;9743;17546228754;34349721343;362175617;138910225;5775122528;208560009;391947973;2684;1112;571768;2;6190;100077
1;68;1573298335585;1573298343033;7448;17488945070;34346161777;370625460;136586090;5774339616;208672255;392466048;2974;32;504328;-1;2653;8587
1;69;1573298343033;1573298350926;7893;17492627190;34349355490;367951335;136941532;5775012438;208641201;392156348;3002;19;504760;-1;2545;7965
1;70;1573298350926;1573298358493;7567;17492218390;34345634723;369816606;136672641;5774169889;208776305;392014267;3107;376;537936;0;3354;87430
1;71;1573298358493;1573298367213;8720;17505073544;34345034247;362110697;137820153;5774085115;208597720;391560765;3040;58;505280;0;2938;18798
1;72;1573298367214;1573298375031;7817;17506717358;34346239649;368376366;136586685;5774517250;208739827;391995146;2967;27;502992;6;2798;8380
1;73;1573298375031;1573298383334;8303;17540416494;34344048774;364014415;138458211;5773989709;208650988;391356173;2997;28;505432;-5;2639;8584
1;74;1573298383334;1573298392116;8782;17548679948;34348097003;363913134;138718477;5774808762;208633993;391749983;3180;260;535704;3;2941;56433
1;75;1573298392116;1573298400022;7906;17578276338;34348016375;371905026;138605746;5774814368;208738898;392431783;3012;10;505104;-3;2955;9340
1;76;1573298400023;1573298408254;8231;17504206158;34351386607;363357177;137482514;5775651834;208592547;392027713;2993;3;503328;4;2534;7065
1;77;1573298408255;1573298416959;8704;17510055648;34345744972;362628547;137772098;5774444392;208659257;391814413;3016;4;505248;-5;2459;7541
1;78;1573298416959;1573298425970;9011;17589941884;34341934256;364508680;139698183;5773482790;208692349;391950087;3202;297;536648;0;3348;76210
1;79;1573298425970;1573298433386;7416;17555490410;34343516260;377195772;138430765;5773911478;208790552;392634457;2991;10;504032;0;2889;9821
1;80;1573298433386;1573298440349;6963;17555844168;34356828442;379902015;138417809;5776826728;208735031;393050109;3005;14;504584;0;2764;10091
1;81;1573298440349;1573298448578;8229;17476354760;34347271837;365802571;136992241;5774690796;208661422;391978384;3086;86;511160;145;2465;27682
1;82;1573298448578;1573298456353;7775;17477063152;34346877073;370568319;136381945;5774614713;208651883;392205366;3048;237;526344;-145;3597;55154
1;83;1573298456353;1573298464434;8081;17495625008;34347528524;367509916;136802603;5774855912;208571184;392110325;2980;14;502856;7;2757;8380
1;84;1573298464434;1573298471974;7540;17508573456;34345225637;367962766;137575115;5774406920;208671885;391510902;3014;12;505760;-7;2661;10112
1;85;1573298471974;1573298480810;8836;17603654934;34348312247;363238807;140445549;5774970047;208537819;391433469;3136;279;533288;1;3096;56603
2;37;1573298926647;1573298935589;8942;17546535208;34821467994;363457708;138350008;6019382871;202384973;394945870;3006;12;504416;1;2751;7631
2;38;1573298935590;1573298943586;7996;17506739842;34824203150;372878106;137429518;6020262135;202459724;395504023;3128;253;534768;0;3072;40754
2;39;1573298943586;1573298952392;8806;17571223078;34809397526;363689348;139616540;6015788244;202449441;394689542;2986;10;503832;4;2574;6705
2;40;1573298952392;1573298960100;7708;17511495354;34809726711;361921957;136868668;6015980101;202341266;394399368;3014;6;505272;-5;2827;9288
2;41;1573298960100;1573298968132;8032;17495469372;34818399189;364900181;136769543;6018404455;202371252;395262565;2997;2;503832;1;2374;7027
2;42;1573298968132;1573298976348;8216;17504574662;34810278590;360888858;137015620;6016031969;202368270;394912121;2993;370;535808;0;2821;45991
2;43;1573298976348;1573298984116;7768;17585991562;34811081991;357836774;139805920;6016321160;202104250;394230047;2999;0;503832;1;2639;8490
2;44;1573298984116;1573298992009;7893;17595017866;34819162479;363598467;140271357;6018828985;202116491;394491135;3009;7;504576;-1;2803;9089
2;45;1573298992010;1573299000075;8065;17641553030;34818713082;359914141;141096329;6018445200;202134055;394618137;3001;0;504168;-1;2503;7752
2;46;1573299000075;1573299008776;8701;17505982686;34814664684;364798931;137238142;6017344202;202487539;394940792;3039;321;533752;1;2941;39582
2;47;1573299008776;1573299016662;7886;17480984420;34814009902;370645821;136290878;6017235650;202591537;395117609;2996;4;504000;0;2826;8961
2;48;1573299016662;1573299025919;9257;17540268158;34809725164;358487902;138598744;6015910553;202474271;394388421;3010;11;504760;-1;2853;7952
2;49;1573299025919;1573299033857;7938;17624798508;34807480582;366529309;139866324;6015285143;202544016;394411357;2997;2;503832;1;2466;7976
2;50;1573299033858;1573299042012;8154;17571398570;34814501226;365626733;139146404;6017376423;202281680;394712556;3112;254;533896;-1;3076;41350
2;51;1573299042012;1573299050065;8053;17555045694;34802343319;363287163;138766613;6013762831;202309233;394111078;2995;2;501224;19;2948;8989
2;52;1573299050065;1573299057658;7593;17480415604;34818053788;361600904;136516663;6018325018;202278622;394433299;3004;18;507152;-18;2685;9024
2;53;1573299057658;1573299064547;6889;17476167004;34814350205;378553131;135478189;6017278485;202738003;395921926;2986;14;504000;0;2711;9555
2;54;1573299064548;1573299073310;8762;17577607512;34813444930;367297196;139428030;6017053179;202475976;395053356;3043;321;536592;-1;3094;37601
2;55;1573299073310;1573299082016;8706;17557087650;34810424032;363205046;139030195;6016212245;202430852;394291669;3005;15;504432;1;2626;6948
2;56;1573299082016;1573299090232;8216;17539601668;34810597041;364315071;138149770;6016264334;202454175;394180345;2998;2;504000;0;2526;7170
2;57;1573299090232;1573299098284;8052;17519689604;34814557868;374928543;137120963;6017342466;202642560;395775450;3101;252;532600;6;2857;35761
2;58;1573299098284;1573299105500;7216;17464174126;34805049163;368851088;135887642;6014568185;202639078;394536518;2997;9;505008;-6;3049;9525
2;59;1573299105500;1573299113802;8302;17502219828;34813417606;368490766;137555753;6016984023;202492624;394725560;3009;8;504088;3;2765;8827
2;60;1573299113802;1573299120816;7014;17511545286;34812751549;373781152;137361441;6016835972;202603077;394735288;2986;17;504504;-3;2612;8673
2;61;1573299120816;1573299129697;8881;17580789144;34813100079;363643735;140170060;6016880584;202492820;394701961;3063;304;534480;-1;2876;40954
2;62;1573299129697;1573299137299;7602;17489085960;34812519934;363724480;136379658;6016790735;202522148;394533548;2987;12;503832;1;2929;9176
2;63;1573299137299;1573299145634;8335;17518613876;34813641353;363982944;137697405;6017189715;202422891;394481478;3014;2;504576;-1;2909;9477
2;64;1573299145634;1573299154160;8526;17540040836;34814589715;363291492;138553110;6017335861;202395258;394467117;2997;1;503664;2;2466;6990
2;65;1573299154160;1573299162252;8092;17510937780;34821905070;364825553;137228395;6019488184;202439886;395000397;3118;278;535608;-2;2877;40694
2;66;1573299162252;1573299171072;8820;17562370952;34817388693;367085994;138784883;6018205538;202478836;395052951;2995;5;504000;0;2873;8216
2;67;1573299171072;1573299179736;8664;17551164722;34814714320;364556629;138893213;6017374610;202401110;394833772;3037;283;527352;7;3174;39805
2;68;1573299179736;1573299188400;8664;17523051254;34810226674;361087073;137750489;6016131090;202430454;394568645;2320;1121;550752;-6;5637;48142
2;69;1573299188400;1573299195534;7134;17468362136;34813844826;371817398;135774936;6017181471;202645436;395101250;2996;5;504168;-1;2605;9124
2;70;1573299195534;1573299203421;7887;17462444026;34809091205;366274498;135945892;6015689689;202570449;394398584;2999;0;503832;1;2474;8374
2;71;1573299203421;1573299211003;7582;17533339582;34808783279;373554988;138081398;6015641351;202627281;395194490;3064;333;537416;-1;3142;53954
2;72;1573299211003;1573299219608;8605;17556582636;34811135199;364424853;139132914;6016254304;202480995;394454946;3080;19;505424;0;2950;17119
2;73;1573299219608;1573299228588;8980;17583418312;34807249523;361396648;139554980;6015236891;202433229;394111077;2997;3;504000;0;2779;7692
2;74;1573299228589;1573299237456;8867;17564995594;34813250322;362548578;139425873;6016852269;202448235;394579004;3004;7;503736;4;2544;7351
2;75;1573299237456;1573299245712;8256;17527029316;34813040712;365447791;137677374;6016905499;202527157;394738048;3038;311;534448;-4;3533;43775
2;76;1573299245712;1573299253849;8137;17505199104;34817756090;365690753;136914178;6018295836;202506412;394975708;3004;15;504600;0;2905;9367
2;77;1573299253850;1573299262073;8223;17494740686;34810703841;365249286;136865361;6016207221;202516497;394567249;3000;0;504000;0;2449;6880
2;78;1573299262073;1573299270680;8607;17493639554;34805690698;362836108;137206181;6014735586;202509384;394530460;3014;5;504424;13;2273;7653
2;79;1573299270680;1573299279121;8441;17569978136;34807445494;363308097;139086601;6015272157;202506370;394506084;2982;356;533912;-13;3347;39551
2;80;1573299279121;1573299288085;8964;17562461910;34824600692;361501282;139137128;6020158128;202340463;394693202;2961;58;504576;0;2694;7251
2;81;1573299288085;1573299296309;8224;17531947618;34811441675;365070797;138280413;6016347530;202534809;394418813;2983;37;504592;0;2663;8253
2;82;1573299296309;1573299305157;8848;17581615942;34811920960;363411513;139665343;6016644754;202347427;394588912;3107;314;533664;6;3208;67123
2;83;1573299305158;1573299313332;8174;17543495780;34813348513;369121455;138722922;6017157026;202445953;394965940;3002;17;505416;-6;2592;7523
2;84;1573299313332;1573299322274;8942;17512663500;34809876899;365297021;137954889;6015991190;202501038;394640424;2993;6;503832;1;2594;7159
2;85;1573299322274;1573299329046;6772;17455569908;34813434444;373492800;135106533;6017123259;202650983;394888137;3017;5;504768;-1;2492;9148
2;86;1573299329046;1573299338038;8992;17507723590;34817696612;359669663;137764351;6018234509;202400377;394456966;3060;320;534504;1;3083;54362
3;35;1573299779358;1573299787750;8392;17519683180;34807697321;363847968;136364416;6026283052;203406045;395051214;2970;29;503832;1;2766;8173
3;36;1573299787750;1573299795443;7693;17565400306;34803818524;373440775;137618101;6025337871;203538003;395698083;2978;44;504768;-1;2882;9437
3;37;1573299795443;1573299804116;8673;17644959940;34816413452;365945704;140397793;6029021866;203209488;395374469;2972;30;504064;0;2561;6871
3;38;1573299804116;1573299811709;7593;17510768128;34819555986;374034047;135830083;6030084420;203232763;396159539;3025;350;535336;6;3419;51966
3;39;1573299811709;1573299819833;8124;17509265496;34804875359;367266251;136095560;6025660572;203374265;395243552;2978;28;505008;-6;2925;8766
3;40;1573299819833;1573299827827;7994;17528371640;34805056432;366652113;136524292;6025784707;203306451;395083064;2991;30;504464;1;2626;7543
3;41;1573299827827;1573299835779;7952;17579833136;34813597486;363894326;137866633;6028145332;203002891;395460297;2989;8;503496;3;2549;7837
3;42;1573299835779;1573299843799;8020;17589372776;34805646123;364036072;138021009;6025861136;203282010;395221407;2816;569;536600;-3;3685;65470
3;43;1573299843800;1573299852432;8632;17547046062;34806576710;362814498;137201682;6026215863;203316017;394927477;2991;29;504592;0;2777;8246
3;44;1573299852432;1573299860687;8255;17525983226;34814618121;364349369;136916001;6028704979;203200520;395206530;2985;20;504160;0;2557;7687
3;45;1573299860687;1573299868915;8228;17539241632;34813831790;370684028;136929797;6028160460;203307700;395915276;3081;336;536008;-1;3258;52745
3;46;1573299868915;1573299877804;8889;17613234724;34810409334;363749652;139245101;6027352038;203260363;395491307;2990;10;504000;0;2556;6565
3;47;1573299877804;1573299886233;8429;17554571632;34809648623;361585840;137700805;6027230959;203042965;394982500;2986;16;502224;13;2980;9129
3;48;1573299886233;1573299895095;8862;17549422942;34805145955;362175349;137720944;6025801444;203274374;394991875;2996;17;506184;-13;2404;6139
3;49;1573299895095;1573299903599;8504;17525340242;34802885751;367304178;136926652;6025133681;203357185;395287629;3107;243;532640;0;2884;34532
3;50;1573299903599;1573299912639;9040;17515738260;34810012993;362013768;136992903;6027288404;203167491;395039085;2982;17;503832;1;2743;7432
3;51;1573299912639;1573299921270;8631;17512133666;34797649554;364401063;136687462;6023590353;203350470;394978087;3018;3;504600;0;2800;9756
3;52;1573299921271;1573299928222;6951;17574589254;34813449510;377737222;137186613;6028170888;203494469;395971784;2997;3;504000;0;2652;9580
3;53;1573299928222;1573299936237;8015;17553389324;34809611191;369527982;137413864;6027051063;203351606;395537342;2967;356;535352;2;3540;30075
3;54;1573299936238;1573299944839;8601;17523621238;34808938696;366383761;136765266;6026937480;203273471;395497660;2998;24;504928;-2;2687;7779
3;55;1573299944839;1573299953030;8191;17570285028;34806112627;372927572;137879058;6026188787;203386921;395625210;2994;6;504000;0;2578;7654
3;56;1573299953030;1573299961323;8293;17572719578;34806036713;368345472;137700451;6026127612;203353425;395014565;3092;239;533624;6;2785;17710
3;57;1573299961324;1573299968295;6971;17512756940;34810003612;374174838;135645076;6027199769;203439849;395727093;3002;4;505008;-6;2914;10182
3;58;1573299968295;1573299976855;8560;17529851642;34800453086;362740522;136893560;6024427621;203348861;394852470;3002;12;504240;1;2809;8755
3;59;1573299976855;1573299985624;8769;17516509578;34808898315;362744698;136825060;6026868390;203214357;394668535;2995;9;504400;-2;2521;6943
3;60;1573299985624;1573299994539;8915;17536455514;34808180067;369406873;137289931;6026672451;203297497;395787907;3062;265;533312;1;2895;32141
3;61;1573299994539;1573300003616;9077;17556822222;34808365235;361146444;138070540;6026670593;203257177;395015818;3001;0;504168;-1;2585;6319
3;62;1573300003616;1573300012194;8578;17585139506;34807814068;365176628;138676906;6026591319;203273693;394960080;3016;4;504592;0;2670;7261
3;63;1573300012195;1573300020264;8069;17533148906;34808814359;371644594;136650156;6026923855;203349489;395500567;2998;2;504000;0;2321;6761
3;64;1573300020264;1573300027670;7406;17529969902;34809987819;372916887;136463750;6027190248;203414655;395555016;3096;263;535272;5;3199;40384
3;65;1573300027670;1573300035931;8261;17606631436;34817515283;368981529;139081077;6029454328;203277049;395651194;3000;2;504336;-2;2842;8609
3;66;1573300035931;1573300043756;7825;17498690862;34812617353;370656134;136090656;6027970348;203321867;395644957;3016;3;504424;1;2540;8424
3;67;1573300043756;1573300051707;7951;17533338268;34810264661;369769689;136947491;6027309279;203332369;395539534;3003;0;504504;-3;2414;6857
3;68;1573300051707;1573300060691;8984;17664104336;34805519839;365452079;140928206;6025951574;203262588;395261714;2603;1420;597584;-1;5963;79265
3;69;1573300060691;1573300068701;8010;17584694352;34809245743;368448140;138431949;6027027245;203326092;395495051;3013;7;504592;0;2803;8862
3;70;1573300068701;1573300077213;8512;17570481106;34804359360;369378176;138430927;6025473773;203398152;395314037;2998;0;503664;2;2507;7125
3;71;1573300077214;1573300086009;8795;17564913980;34804206152;368647536;138469903;6025500995;203331450;395356428;3007;12;504760;-1;2297;6001
3;72;1573300086009;1573300095328;9319;17616562210;34806658133;365242422;139624525;6026158910;203320208;395450940;3113;288;535816;5;2903;47806
3;73;1573300095328;1573300103297;7969;17551259184;34802681026;367676184;137479150;6025090888;203423255;394880815;3050;58;506240;-5;3432;21726
3;74;1573300103297;1573300111939;8642;17527335332;34808638040;365589451;137040107;6026685608;203274608;395104519;2998;3;504168;-1;2543;7527
3;75;1573300111939;1573300120415;8476;17531527722;34808435377;365723288;137286905;6026746051;203318920;395251811;3131;264;535032;1;3000;43851
3;76;1573300120415;1573300128861;8446;17522583762;34813160071;369548600;136759634;6028136248;203332877;395654186;3016;5;504600;0;2770;7955
3;77;1573300128861;1573300138008;9147;17521838578;34806015644;362440652;137224935;6026024485;203270654;394983770;2998;3;503896;1;2651;7376
3;78;1573300138008;1573300146510;8502;17521170044;34801045348;370198934;137023244;6024561457;203400333;395644093;3005;9;504304;1;2380;7073
3;79;1573300146510;1573300155265;8755;17537876386;34802858619;365204149;137558013;6025121867;203352859;394991004;3127;262;531888;4;3202;56081
3;80;1573300155265;1573300163102;7837;17594506574;34819940328;372275326;138335462;6029994682;203325844;395832997;3018;1;504264;2;2924;9480
3;81;1573300163102;1573300171871;8769;17575067112;34807130594;370283338;138247520;6026343711;203374733;395694732;3008;0;505344;-8;2613;6983
3;82;1573300171871;1573300179823;7952;17515839876;34807110693;366652203;136809072;6026390573;203267142;395022411;3093;91;517432;139;2652;15808
3;83;1573300179823;1573300188744;8921;17586143256;34808802501;364539953;138967382;6027032728;203132773;395171640;3029;219;522792;-139;3234;47713
3;84;1573300188744;1573300196920;8176;17580237264;34805339333;371719169;138564646;6025859930;203395048;395496755;3018;3;504760;-1;2881;10012
4;35;1573300636560;1573300643962;7402;17746615652;33269074030;379230211;139207776;5661108700;211321491;395456903;3008;8;504440;0;3225;12328
4;36;1573300643962;1573300652585;8623;17673976418;33266088299;364638682;137706761;5660473778;211125269;394261643;3001;0;504168;-1;2546;7116
4;37;1573300652585;1573300660361;7776;17659708422;33276243736;365322486;136811314;5662811045;210958870;394869226;3038;331;533752;1;3342;43761
4;38;1573300660361;1573300668235;7874;17660139706;33278949142;362109428;136944784;5663242017;210866838;394512932;2996;0;503328;4;2792;8691
4;39;1573300668235;1573300675257;7022;17702978442;33267146218;372069709;137520843;5660672764;211158754;394634649;3016;8;505264;-4;2894;10033
4;40;1573300675257;1573300682715;7458;17727147866;33266925349;369106913;138655076;5660717250;211032287;394290756;2997;0;503496;3;2632;8957
4;41;1573300682715;1573300690234;7519;17733615666;33274528281;365513720;138611592;5662230309;210979610;394694837;3068;286;518584;8;2760;45831
4;42;1573300690234;1573300697993;7759;17703093052;33267626367;362668987;138063330;5660892334;211019541;394495560;2957;58;521024;-11;2748;10001
4;43;1573300697993;1573300706155;8162;17666350838;33268208519;364655426;137048813;5661014784;211122200;394139057;2996;26;504632;0;2830;8966
4;44;1573300706155;1573300714983;8828;17743645720;33274883165;364061837;139861526;5662473276;210940648;394338922;2998;3;504168;-1;2580;7502
4;45;1573300714983;1573300722963;7980;17742542398;33274562446;372401581;139573152;5662206849;211064984;394901949;3006;336;530352;2;3252;42056
4;46;1573300722963;1573300730022;7059;17764501674;33271709137;382628063;139163235;5661686176;211231784;395775791;2999;2;504168;-1;2905;10004
4;47;1573300730022;1573300739038;9016;17705700758;33271250519;371003447;138937314;5661541483;211155038;395291070;3011;5;503760;5;2817;7971
4;48;1573300739038;1573300746670;7632;17653254200;33267572537;367306389;136752919;5660892066;211068111;394299134;3001;2;504504;-3;2414;7184
4;49;1573300746671;1573300754906;8235;17665651206;33265294894;366377509;137177934;5660432363;211103463;394460280;3012;365;534992;-3;3499;47896
4;50;1573300754907;1573300762720;7813;17705166690;33271397220;367141009;138239266;5661590964;210987839;394661966;3000;0;504000;0;2830;9141
4;51;1573300762720;1573300770609;7889;17743924142;33260491154;374426644;138882044;5659503117;211233020;394921370;3009;7;504256;1;2849;11322
4;52;1573300770609;1573300779162;8553;17681778512;33274165310;363674995;137963007;5662258391;211082933;394521350;3000;0;504000;0;2550;7210
4;53;1573300779162;1573300788615;9453;17711460750;33271411022;367029835;139164214;5661532769;211133070;395165746;3110;246;532480;7;2803;39545
4;54;1573300788615;1573300797663;9048;17706858246;33270571436;365556211;138750772;5661498317;211101182;394645744;3023;4;505768;-7;2764;7932
4;55;1573300797663;1573300805394;7731;17676687346;33268180697;373856950;137020053;5661032988;211186096;394790876;3000;0;504000;0;2680;7955
4;56;1573300805394;1573300814088;8694;17665502432;33268047623;366464651;137884422;5660954539;211084282;394383743;3006;344;533696;2;2909;30112
4;57;1573300814088;1573300821144;7056;17663900666;33271025134;376645340;136363141;5661642031;211138809;395240638;3000;2;504336;-2;2847;9509
4;58;1573300821144;1573300828376;7232;17634714390;33263137103;372437281;135783510;5660129441;211197477;394532029;3013;5;504256;2;2976;10343
4;59;1573300828376;1573300837305;8929;17684788448;33270172909;364255398;138638174;5661368870;211088035;394217303;3002;0;504336;-2;2434;6858
4;60;1573300837305;1573300844936;7631;17661706140;33269352545;372478486;136960977;5661279847;211093562;394762953;3056;278;535608;0;3008;34720
4;61;1573300844936;1573300853528;8592;17708256342;33270250948;367601997;138987283;5661342294;211176563;394853530;2994;3;503496;3;2653;7179
4;62;1573300853528;1573300862472;8944;17750869508;33269710681;364122416;140267599;5661186007;211095258;394198071;3016;7;505096;-3;2731;8092
4;63;1573300862472;1573300871523;9051;17673070488;33270317216;363739821;138158127;5661424246;211043435;394416789;2999;2;504168;-1;2455;6864
4;64;1573300871523;1573300880118;8595;17745137694;33271323755;369752592;139773521;5661587968;211127789;394796487;3016;247;529864;0;2873;21780
4;65;1573300880118;1573300889031;8913;17731232362;33277338854;361790132;139693448;5662883355;210974287;394592148;2994;5;503832;1;2744;7664
4;66;1573300889031;1573300896833;7802;17673129034;33273715484;370257783;137340939;5662138698;211102794;394736225;3011;5;504576;-1;2659;8677
4;67;1573300896833;1573300906045;9212;17701009048;33271672402;361488135;138586984;5661692587;211056019;394459998;3024;353;535912;0;2991;37051
4;68;1573300906045;1573300913492;7447;17650748840;33267765875;372783598;136574218;5660876396;211125633;394772006;2991;8;503832;1;2828;9285
4;69;1573300913492;1573300922021;8529;17742457864;33270496047;372126114;139186451;5661436623;211171467;395120072;2896;569;548984;5;4429;44124
4;70;1573300922021;1573300930854;8833;17728233084;33266836206;365374898;139565794;5660562363;211176079;394362932;2653;620;528632;-6;4414;19776
4;71;1573300930854;1573300939713;8859;17692030194;33266368948;365481335;138850289;5660589111;211125559;394612642;3002;16;504600;0;2540;7396
4;72;1573300939713;1573300947867;8154;17692769246;33268311210;369257529;138124429;5661010052;211165758;394793826;2935;57;502656;8;2383;6374
4;73;1573300947867;1573300956915;9048;17712497058;33265241598;368797447;139177303;5660417572;211229383;394707696;2997;404;536712;-8;3456;66229
4;74;1573300956915;1573300964997;8082;17685882426;33270196759;370723303;137794451;5661307875;211178394;394819812;2975;26;503896;1;2721;8001
4;75;1573300964997;1573300973588;8591;17690574866;33270124926;364304232;138009030;5661386691;211101476;394417869;3006;12;503880;4;2841;10174
4;76;1573300973588;1573300983335;9747;17767000464;33273584559;359524204;141283413;5662092874;211024888;394390744;3024;346;535824;-5;3079;48203
4;77;1573300983336;1573300990467;7131;17694861572;33267333076;377100628;137977201;5660870263;211198115;394996383;2999;0;503832;1;2936;9764
4;78;1573300990468;1573300997364;6896;17658441726;33263626033;376377171;136925458;5660046175;211212571;394803380;3005;10;504608;-1;2986;10461
4;79;1573300997365;1573301005550;8185;17666034018;33265060385;366713185;137601250;5660360936;211142108;394281622;2996;1;503496;3;2231;6224
4;80;1573301005550;1573301014161;8611;17677557652;33279586811;369342296;137863809;5663211133;211014760;394893173;3068;315;536096;-3;3144;42370
4;81;1573301014161;1573301022088;7927;17699422174;33268396000;377700490;137666191;5661111828;211242648;395487366;2995;5;504000;0;2898;8805
4;82;1573301022088;1573301031016;8928;17696772858;33269018051;363607585;138644016;5661151112;211064873;394413630;3010;3;504408;0;2852;8231
4;83;1573301031016;1573301040113;9097;17683205808;33270187950;361895084;138483472;5661334902;210960856;394349888;3000;0;504000;0;2557;7517
4;84;1573301040113;1573301048861;8748;17681898962;33266941718;369782621;138244941;5660792036;211220847;394850967;3056;249;531552;0;3016;43119
