0;37;1573310012040;1573310019796;7756;17381464834;34291548553;372033664;146312359;5746859026;207923486;392890008;2986;22;505512;0;2535;7664
0;38;1573310019796;1573310028604;8808;17432157056;34293214300;361907533;148763868;5747422703;207685101;392263406;3072;325;535552;-1;2942;52644
0;39;1573310028604;1573310036742;8138;17421482266;34283199161;368132025;148534502;5744840285;207899794;392311325;2995;5;504288;1;2112;5077
0;40;1573310036742;1573310044819;8077;17357058014;34282433404;361224086;144441448;5744886258;207811846;392036804;2998;28;506096;0;2620;8114
0;41;1573310044819;1573310053567;8748;17402508836;34289879268;365601343;147465147;5746388899;207914422;392761342;3001;3;505384;0;2378;6545
0;42;1573310053567;1573310062666;9099;17434066736;34282865518;363515676;148651469;5744959853;207928968;392295261;3150;311;536904;-1;2633;55395
0;43;1573310062666;1573310071168;8502;17435516224;34283655877;367461910;148698466;5745093613;208019503;392107944;3009;16;506040;0;2713;8475
0;44;1573310071168;1573310079058;7890;17429263920;34289598782;367729111;148943523;5746447150;207807915;392183459;2989;9;503792;4;2778;9117
0;45;1573310079058;1573310087372;8314;17423760596;34289937766;366534081;148203001;5746361897;207858022;392210697;3143;105;514408;158;2815;33413
0;46;1573310087372;1573310095913;8541;17404024608;34286458048;363510664;147098332;5745668999;207850130;392234524;3100;203;530120;-161;2325;54657
0;47;1573310095913;1573310103760;7847;17385133814;34286319607;371615491;146297540;5745644137;207990282;392683735;2997;17;505112;4;2667;7880
0;48;1573310103760;1573310111858;8098;17416407452;34282808744;370144284;148208228;5744917319;208036582;392392436;2998;10;506056;-4;2379;7082
0;49;1573310111858;1573310120673;8815;17439300252;34280734169;365188536;148674869;5744439735;207964955;392011029;3182;286;539800;0;3676;58845
0;50;1573310120673;1573310128612;7939;17391732430;34287201025;364985648;146856692;5745755989;207795298;392022463;2991;9;504128;2;1957;5372
0;51;1573310128612;1573310136680;8068;17406710716;34276399626;365459572;147619446;5743557894;207947026;392059925;3011;15;506048;-3;2695;8815
0;52;1573310136681;1573310144664;7983;17370983202;34289449164;365398416;145458876;5746339339;207885440;392250138;2989;16;505280;1;2539;8013
0;53;1573310144664;1573310153386;8722;17396896158;34286849767;363536870;146955753;5745685224;207865569;392257668;3114;362;539240;0;2945;71781
0;54;1573310153386;1573310161681;8295;17399949748;34286355176;365987115;146649252;5745599050;207890245;392085593;3000;4;505384;0;2439;7025
0;55;1573310161681;1573310170009;8328;17430694720;34283808331;370159209;148664763;5745127495;207921177;392450262;3015;8;506128;-1;2634;8228
0;56;1573310170009;1573310178056;8047;17415613504;34282973544;370431043;148216338;5745057703;207866601;392445484;3016;6;504624;0;2524;8210
0;57;1573310178056;1573310185840;7784;17393313610;34286079620;365324850;146652333;5745766747;207813643;392227284;2922;486;536952;0;2692;68804
0;58;1573310185840;1573310194241;8401;17396604304;34279547793;363454383;146729549;5744165969;207934954;392057823;3010;12;505968;0;2610;8248
0;59;1573310194241;1573310202144;7903;17353591828;34285919731;365089512;144789111;5745560487;207865892;391903960;2972;41;505536;1;2533;7336
0;60;1573310202144;1573310210858;8714;17417428722;34285202000;365158824;147816274;5745446485;207878923;392036727;3144;222;516192;54;2914;39805
0;61;1573310210858;1573310219293;8435;17433285782;34286248962;367011485;148361289;5745514937;207900552;392425679;2920;141;525616;-55;2343;18756
0;62;1573310219294;1573310227081;7787;17402583296;34284996474;371049403;147255354;5745276267;207863537;392413005;3011;8;505488;0;2620;8069
0;63;1573310227081;1573310235480;8399;17392207660;34285645819;364327700;146704009;5745620196;207819015;392107097;2994;12;505448;0;2463;8017
0;64;1573310235480;1573310244126;8646;17401501728;34286797065;367418758;146886410;5745742337;207955589;392896598;2933;452;539160;0;3102;52243
0;65;1573310244126;1573310252864;8738;17401988346;34292493505;363293747;146906895;5746965036;207799643;392353265;2604;868;549520;5;3734;34443
0;66;1573310252864;1573310261838;8974;17452268118;34288564477;365912352;149228803;5746211769;207867234;392261968;2472;1332;736608;-5;5895;29317
0;67;1573310261838;1573310269346;7508;17386008354;34287456672;375336160;146641013;5745887678;207925338;393062148;2981;26;504088;1;2483;8003
0;68;1573310269346;1573310278031;8685;17452971108;34283589808;368914146;149756511;5744990754;207945230;392633324;3006;22;506056;0;2849;8890
0;69;1573310278031;1573310286499;8468;17388746876;34286944589;366343230;146228370;5745699912;207873337;392491829;2917;554;541840;3;2956;50919
0;70;1573310286499;1573310294047;7548;17360089266;34283153368;372051013;144610065;5744855659;208051975;392449070;2994;14;505920;-3;2643;8128
0;71;1573310294047;1573310301601;7554;17384653474;34282378388;371482757;146325823;5744700134;207995684;392301237;2998;24;505688;2;2621;9912
0;72;1573310301601;1573310309255;7654;17401984696;34283584139;371439179;147432418;5745132463;207938148;392619662;2975;29;504400;-3;2755;9934
0;73;1573310309255;1573310317809;8554;17405575274;34281335310;364760525;147153020;5744560584;207926245;391827067;2947;463;542592;0;2871;53432
0;74;1573310317809;1573310326592;8783;17405920418;34285792623;362403221;147273260;5745556839;207873010;392059472;3004;0;505384;0;2367;6294
0;75;1573310326592;1573310334262;7670;17353989386;34285347336;369042380;144789615;5745415374;207919456;392496493;3021;4;505856;1;2633;8654
0;76;1573310334262;1573310342383;8121;17405727260;34288727253;369396226;147049974;5746251871;207862146;392916294;3001;2;504928;0;2516;7492
0;77;1573310342383;1573310351299;8916;17465369136;34283451200;363886435;150519914;5745170958;207944064;392158391;3021;363;537744;-1;2446;45600
0;78;1573310351299;1573310359478;8179;17415516560;34279555915;364259815;148228643;5744220736;207906344;392228606;2987;7;503576;8;2524;7228
0;79;1573310359478;1573310367529;8051;17370001352;34281139189;365767079;145049347;5744601555;207927344;391943522;3032;4;507400;-8;2661;10788
0;80;1573310367529;1573310375998;8469;17385657370;34294089022;362521350;146610513;5747393434;207798575;392222918;2928;430;536784;1;3322;48996
0;81;1573310375998;1573310384296;8298;17373258904;34284559350;365375558;145686436;5745245421;207978652;392067900;2997;24;505952;0;2136;6035
0;82;1573310384296;1573310392085;7789;17398858690;34284554131;368104865;147660424;5745336622;207786156;392281378;2994;7;504240;1;2711;8006
0;83;1573310392085;1573310400248;8163;17384769106;34284852588;370270934;146838332;5745421044;207835319;392633035;3020;11;506056;-2;2613;9180
0;84;1573310400249;1573310408477;8228;17351944510;34282524109;364383262;144367500;5744964882;207852415;392302521;2991;403;537264;0;2772;44004
0;85;1573310408478;1573310417098;8620;17463216950;34285820681;365354424;150319687;5745622123;207867972;392134377;3001;2;505216;1;2415;6305
0;86;1573310417098;1573310424998;7900;17365543388;34288815114;375024779;145290834;5746302877;208020343;392997321;3009;15;506016;-1;2806;10054
1;37;1573310843755;1573310852244;8489;17554908162;34304439523;369399041;148556952;5784112065;208872636;391401099;2987;26;506488;-6;2480;7335
1;38;1573310852244;1573310860307;8063;17560576174;34305642807;369524270;149234867;5784532393;208817179;391527610;3014;9;505248;-1;2779;9128
1;39;1573310860307;1573310868843;8536;17548328818;34296010945;363579613;149168665;5782087634;208881960;390939377;3053;265;534336;1;2377;35602
1;40;1573310868843;1573310876176;7333;17459104568;34295254656;371087205;143657124;5782122313;208949779;391121301;2989;24;504000;12;2864;10666
1;41;1573310876176;1573310885106;8930;17565855972;34302547684;365604293;149562982;5783552630;208930809;391320040;3013;3;507400;-12;2532;6635
1;42;1573310885106;1573310893222;8116;17552552306;34295785328;374672386;148957017;5782233598;209014392;391998761;3007;14;505064;0;2726;8382
1;43;1573310893222;1573310901531;8309;17565162910;34296680855;369416407;149566669;5782413796;208981386;391074208;3061;282;534848;5;2378;34205
1;44;1573310901531;1573310909960;8429;17548729588;34302758276;364154153;148396431;5783806711;208781890;391018653;3013;17;506824;-5;2744;8522
1;45;1573310909960;1573310918607;8647;17549136344;34302708957;365532163;148124060;5783562941;208833887;390973147;2986;19;505416;0;2505;6742
1;46;1573310918607;1573310926793;8186;17541239642;34299871567;369085404;147903763;5783118991;208956677;391148606;3016;393;540752;0;3450;49025
1;47;1573310926793;1573310934704;7911;17575764116;34299162077;372201204;150268843;5782869924;208930328;391324905;2983;11;502992;6;2124;5830
1;48;1573310934704;1573310942514;7810;17467334442;34295560001;370500321;144325794;5782083425;208997223;391033704;2989;42;507152;-7;2691;9167
1;49;1573310942514;1573310950959;8445;17597125668;34293799334;366835324;151006915;5781732922;208922833;390897546;2986;29;505144;4;2716;8773
1;50;1573310950959;1573310959705;8746;17557354976;34299931148;368191216;149227013;5782965806;208924347;391155470;3034;313;535344;-3;2741;39367
1;51;1573310959705;1573310968688;8983;17566616632;34289457322;367182623;149687146;5780883762;209040638;390899830;3013;13;506152;-1;2400;6043
1;52;1573310968688;1573310976906;8218;17575177342;34302349477;369123222;150189051;5783601194;208868537;391109525;2979;20;503832;1;2414;6508
1;53;1573310976906;1573310985494;8588;17555277104;34299285463;368190792;148906234;5782792894;208915234;391212251;2991;33;505992;0;2745;7677
1;54;1573310985494;1573310993885;8391;17520754528;34299165837;365027729;147103791;5782850083;208853573;391006136;3066;316;538528;-1;2386;43043
1;55;1573310993885;1573311002374;8489;17568003632;34296622673;370139926;149844491;5782362848;208957261;391056053;3011;11;505960;0;2702;8256
1;56;1573311002374;1573311011158;8784;17572260554;34295863207;367815594;149812126;5782319240;208970360;390784202;2992;11;505216;1;2696;7505
1;57;1573311011158;1573311019182;8024;17526041480;34298765714;370636129;147787278;5782940983;208892939;391391474;3092;314;537960;0;3049;45130
1;58;1573311019182;1573311027037;7855;17531916666;34292332556;368926143;147765518;5781381073;209002759;390938943;3009;11;505496;0;2272;6812
1;59;1573311027037;1573311034978;7941;17499792286;34298717527;372992134;145931390;5782773069;208962975;391181357;2998;7;505416;0;2548;7894
1;60;1573311034978;1573311043096;8118;17535300508;34297760417;371217826;148066164;5782590555;208955266;390980805;3013;14;506184;-1;2770;9154
1;61;1573311043096;1573311051322;8226;17563946000;34299124220;367160709;149946335;5782759298;208910518;391323162;2966;382;534472;1;3124;40722
1;62;1573311051323;1573311058786;7463;17485151844;34298194662;371242880;145381475;5782671424;208971116;390878696;2997;28;506176;-1;2627;9991
1;63;1573311058786;1573311067077;8291;17555446756;34298404357;367657743;149053407;5782812290;208917372;390841077;2994;16;505576;0;2651;7733
1;64;1573311067077;1573311075002;7925;17539994992;34299858923;372612878;148435882;5783055006;208951585;391096380;2998;23;504472;7;2628;7945
1;65;1573311075002;1573311083029;8027;17516997364;34305396320;370824605;147273540;5784233595;208835508;391600878;3052;336;537512;-6;2595;35582
1;66;1573311083029;1573311091021;7992;17532524756;34301443655;369673703;147907367;5783463525;208922520;391104322;3010;12;505960;0;2684;7947
1;67;1573311091021;1573311099740;8719;17570824352;34300009233;363927094;149161280;5783010051;208884652;391041986;2421;1357;585664;-1;5220;70140
1;68;1573311099740;1573311107922;8182;17541366954;34296367148;367020147;148467338;5782206348;208884677;390978638;3006;23;505976;1;2637;9372
1;69;1573311107923;1573311116063;8140;17580752060;34299481529;368147565;151047022;5782830891;208916818;391238209;2972;35;504360;-1;2895;8709
1;70;1573311116063;1573311123851;7788;17492615510;34295982783;369750318;145542917;5782079709;208972741;390958463;2983;40;505832;1;2609;7998
1;71;1573311123851;1573311131414;7563;17527249922;34295224890;370512996;147499770;5781955705;208926010;390988108;3074;303;536864;-1;2681;45744
1;72;1573311131414;1573311140061;8647;17578420732;34296551996;369516641;150396831;5782425102;209007823;390956978;3054;30;506216;2;2938;10855
1;73;1573311140062;1573311148100;8038;17548281368;34293647822;370665848;148828359;5781591934;208977591;390650851;2995;8;504632;-1;2519;7773
1;74;1573311148100;1573311156138;8038;17554437312;34298567427;370427759;149011464;5782755076;208953930;391067480;3097;374;541032;0;3544;57188
1;75;1573311156138;1573311164588;8450;17512932578;34298222083;365780775;146901662;5782662767;208892677;391217362;2993;13;505584;-1;2038;5216
1;76;1573311164588;1573311172242;7654;17485446764;34301489663;368792207;145375494;5783454279;208919539;391160133;3016;7;505824;1;2606;7888
1;77;1573311172242;1573311179973;7731;17568468642;34295855308;373731216;149942968;5782255681;208991703;391083764;3000;0;504000;0;2570;7719
1;78;1573311179973;1573311187908;7935;17543865452;34292440391;369613140;148161214;5781481544;208968390;391325223;3037;412;539456;-1;3232;68498
1;79;1573311187908;1573311196545;8637;17573122100;34293466833;366728771;149609406;5781672304;208939212;390977693;3010;9;505160;5;2126;5415
1;80;1573311196545;1573311204621;8076;17546227586;34307005563;369404280;148594338;5784641248;208901265;391468435;2999;9;506056;-4;2454;7088
1;81;1573311204621;1573311212148;7527;17528959144;34297091471;375782254;148257974;5782354247;208992052;391326276;3012;1;503584;6;2749;9910
1;82;1573311212149;1573311221075;8926;17604885860;34297159464;365108438;151057208;5782515339;208838720;390772177;3008;422;538376;-2;3056;58999
1;83;1573311221075;1573311230007;8932;17603247594;34298128005;367149100;151518320;5782850667;208821976;391028760;3012;23;506976;-5;2657;6766
1;84;1573311230007;1573311238117;8110;17495571426;34295291523;368866721;145589113;5782183706;208968604;390989804;3001;0;504880;3;2442;7103
1;85;1573311238117;1573311246430;8313;17542025414;34298637890;371177356;148532833;5782860415;208942391;390908370;3011;14;506464;-3;2613;8330
1;86;1573311246431;1573311254604;8173;17541331914;34301343071;367532282;148363638;5783395359;208869842;391209523;3014;365;534456;5;2573;43908
2;34;1573311661550;1573311670448;8898;18081130268;34253904693;369322941;150682169;5896366308;209936492;394208870;3079;330;538048;-1;2562;49717
2;35;1573311670448;1573311678343;7895;18036961326;34261214942;370257038;148531926;5898034255;210105806;394440670;2981;49;506056;1;2833;8877
2;36;1573311678343;1573311687414;9071;18119056396;34257613959;368995296;153010878;5897143190;210052923;394244040;2992;13;505552;-1;2385;6146
2;37;1573311687414;1573311696208;8794;18041317674;34270284574;368410696;148612027;5900886492;209926007;394796372;2992;504;539008;0;3770;81136
2;38;1573311696208;1573311705153;8945;18092874800;34274651358;370504474;151008789;5901936682;209881147;394998567;2998;5;505216;1;2309;6171
2;39;1573311705153;1573311714216;9063;18073236194;34258953432;365175121;150448040;5897424665;209936794;394310638;3008;17;506168;-1;2622;7089
2;40;1573311714216;1573311722175;7959;18037789876;34258942368;374699750;149550734;5897617017;210002382;394970366;2985;15;504000;0;2601;8056
2;41;1573311722175;1573311730493;8318;18055341996;34268209544;371946762;149443630;5899969237;209983532;395038208;3102;332;537536;1;2991;53633
2;42;1573311730493;1573311738498;8005;18036639834;34259491881;375198203;148740751;5897609883;210099692;395075426;2983;21;505384;0;2646;7771
2;43;1573311738498;1573311747736;9238;18096571520;34260367140;370290390;151551070;5898018514;210072013;394547885;2997;27;506136;-1;2624;7484
2;44;1573311747736;1573311755971;8235;18044041012;34268662335;370595974;148703792;5900426031;209857152;394593950;3008;16;505848;1;2730;10043
2;45;1573311755971;1573311764960;8989;18077435738;34267959544;371903963;150475720;5899867109;209966916;395061910;3087;378;539448;0;2865;67470
2;46;1573311764960;1573311773690;8730;18031490560;34264685931;367019728;148150975;5898999213;209902469;394469817;3011;11;505800;1;2585;7401
2;47;1573311773690;1573311781836;8146;18027499066;34263936145;369907359;148201313;5898757894;209933242;394474000;2989;17;505720;-2;2707;8296
2;48;1573311781836;1573311789898;8062;18050355950;34259251050;376062584;149882459;5897498871;210009762;394871122;3034;392;535720;5;3288;56498
2;49;1573311789898;1573311798118;8220;18049857652;34256779299;372129572;148835306;5897008691;209965490;394586859;3008;1;506224;-5;2372;6326
2;50;1573311798118;1573311806144;8026;18036996074;34264417732;373293332;148677650;5899077730;210016318;394567325;3013;6;505640;1;2707;8842
2;51;1573311806144;1573311814878;8734;18004135562;34250703588;367839059;147229879;5895424072;210022656;394090208;2992;11;505216;1;2360;6126
2;52;1573311814878;1573311823834;8956;18084802752;34267514601;369010209;150951812;5899989435;209952205;394861594;3137;292;538016;-2;2843;57115
2;53;1573311823834;1573311833031;9197;18077444352;34264260889;365501694;150714325;5898767191;209904382;394529659;3012;12;505824;1;2683;7846
2;54;1573311833031;1573311841815;8784;18072801260;34263439210;369727961;151083047;5898819850;209930244;394352883;3000;4;505384;0;2574;7100
2;55;1573311841815;1573311850543;8728;18067802074;34260144422;372725349;150262333;5897998856;210002829;394436930;3139;299;537296;0;3130;58294
2;56;1573311850543;1573311858855;8312;18070820770;34260457747;376217024;150497851;5897884847;209953967;394795547;2998;3;504168;-1;2293;6152
2;57;1573311858855;1573311867582;8727;18076893932;34264217917;370183909;151189678;5899003932;209970526;394510516;3014;4;505632;1;2790;8007
2;58;1573311867582;1573311875856;8274;18018272012;34253753530;371043391;147561396;5896325731;209982553;394266660;2996;6;505048;2;2704;7992
2;59;1573311875856;1573311884738;8882;18091768266;34262895910;369239140;151420662;5898688068;209930273;394155424;3108;280;538512;-2;2928;44987
2;60;1573311884738;1573311893172;8434;18082731596;34262021791;368700394;150773299;5898533530;209880234;394277962;3002;21;505968;0;2668;8081
2;61;1573311893172;1573311902265;9093;18101738314;34262696810;368141299;151914060;5898561879;210023219;394412002;2997;6;505216;1;2655;7188
2;62;1573311902265;1573311910830;8565;18057591272;34262274964;370256392;149520828;5898308119;210067105;394191533;3110;212;515832;94;2786;35274
2;63;1573311910830;1573311919535;8705;18087390456;34263013289;369895041;151222062;5898714151;209908506;394367503;3009;94;528072;-95;2548;20903
2;64;1573311919535;1573311927919;8384;18052331476;34264130886;371435491;149595351;5898883015;209976500;394324312;3013;10;506128;-1;2632;7894
2;65;1573311927919;1573311936272;8353;18078738058;34271826757;374368114;150872377;5901176643;209867743;395475060;2993;6;503832;1;2808;8635
2;66;1573311936273;1573311944567;8294;18054358394;34267464147;370747966;149411307;5899853874;209967860;394791833;3114;286;538976;-1;3242;43681
2;67;1573311944567;1573311953053;8486;18047745616;34264072492;365107326;148320206;5898875991;209878550;394398240;2044;1584;565424;0;6011;42421
2;68;1573311953053;1573311962322;9269;18049397314;34259248910;368209810;149430482;5897566728;209918747;394338259;3017;5;505960;0;2613;6701
2;69;1573311962322;1573311970655;8333;18097400508;34263376682;372162357;151928467;5898876641;209995651;394689676;3023;2;505848;1;2521;7381
2;70;1573311970655;1573311979003;8348;18034283978;34258951914;375989056;148585998;5897344869;210184532;394712371;3078;355;539488;-1;3375;58865
2;71;1573311979003;1573311987888;8885;18053805930;34257965006;369501972;149503705;5897317388;209985177;394377353;3071;21;506600;1;2476;10399
2;72;1573311987888;1573311995969;8081;18069793368;34260781185;371924413;150413904;5898066369;210057614;394421357;2987;7;502992;6;2681;7831
2;73;1573311995969;1573312004815;8846;18090930810;34256403714;365602925;151847477;5896788198;209979094;393963926;3016;9;506656;-5;2585;8241
2;74;1573312004815;1573312013347;8532;18038187288;34262658466;369000646;148242843;5898414593;209966389;394411608;3038;377;539976;-2;2859;53385
2;75;1573312013347;1573312021783;8436;18054689668;34262676120;374123039;149267991;5898557516;210037411;395090604;3016;9;506016;0;2743;8589
2;76;1573312021783;1573312030698;8915;18098576684;34267474288;367521198;151547644;5899983859;209885204;394656148;3002;22;505856;1;2769;7541
2;77;1573312030698;1573312039239;8541;18032498836;34259683852;370347400;147858389;5897930569;210031929;394490523;3019;326;521864;21;3191;52242
2;78;1573312039239;1573312047789;8550;18025820504;34254507655;370113997;147774420;5896320989;210034314;394472784;2961;85;521272;-22;2364;8766
2;79;1573312047789;1573312056499;8710;18085486324;34256510281;369482864;151045435;5896900631;209881635;394287856;2991;10;504296;1;2768;7892
2;80;1573312056499;1573312065323;8824;18083684246;34275132329;371093575;151098133;5901794964;209866953;394621940;3012;14;505768;-1;2597;8434
2;81;1573312065323;1573312073559;8236;18059111424;34260184805;368648401;149803732;5898050982;210000721;394286769;3011;366;534864;1;3273;50411
2;82;1573312073559;1573312081787;8228;18033965552;34261521333;370111238;148929423;5898179249;209914582;394566903;3002;19;505480;3;2752;7908
2;83;1573312081787;1573312090738;8951;18077794898;34263594416;365387301;150511356;5898819775;209833349;394416199;3006;2;506056;-4;2730;7807
3;36;1573312507120;1573312515590;8470;17516411758;33872072760;365487264;149615174;5778071074;206605872;389952762;3008;18;506096;0;2614;7561
3;37;1573312515590;1573312523339;7749;17592221820;34014378031;371492160;144571495;5779770493;206416778;390400127;2985;18;505216;1;2497;7439
3;38;1573312523339;1573312532046;8707;17664470358;34016686977;365166070;148886288;5780244928;206358221;390270370;3021;342;536896;0;2906;34154
3;39;1573312532046;1573312540538;8492;17650379898;34005412835;364404721;147909208;5778013116;206480656;390101733;2998;26;506008;0;2720;7480
3;40;1573312540538;1573312549008;8470;17647954692;34005214428;369898688;148022380;5777867956;206567998;390457918;2999;5;505384;0;2512;7217
3;41;1573312549008;1573312558043;9035;17695395202;34012351970;365430413;149984404;5779411549;206471242;390532658;3123;219;525488;32;2681;41244
3;42;1573312558043;1573312565811;7768;17642050744;34006531890;373216037;147603002;5778229337;206582467;390461434;2912;129;517944;-33;2716;11260
3;43;1573312565811;1573312574342;8531;17669356832;34006939334;365689068;148561567;5778330264;206492850;389961108;3003;19;505080;0;2777;8619
3;44;1573312574342;1573312582752;8410;17634881560;34012555105;365655749;147693061;5779507295;206373767;390239606;2997;4;504752;1;2388;6380
3;45;1573312582752;1573312590864;8112;17680447722;34012523012;374315298;149284381;5779421737;206513089;391006372;2963;436;539920;-1;3420;52086
3;46;1573312590865;1573312599405;8540;17662769166;34009761853;368551137;148920966;5778930370;206559671;390272165;2998;5;505216;1;2314;5988
3;47;1573312599405;1573312607400;7995;17637681110;34008968403;373259159;147271203;5778774126;206579491;390626022;3018;6;506160;-1;2783;8767
3;48;1573312607401;1573312615684;8283;17661619270;34005844639;367401213;148388987;5778119175;206539335;390028131;3002;0;505048;2;2476;7995
3;49;1573312615684;1573312623851;8167;17627169840;34004478250;371709916;146662393;5777872345;206578080;390129476;3052;333;538264;-1;2699;39556
3;50;1573312623851;1573312632543;8692;17656415976;34009002705;364174107;148137031;5778785517;206438747;390079657;3006;17;505968;0;2543;6593
3;51;1573312632543;1573312640812;8269;17662752084;34000512180;369676055;149330384;5776966499;206610930;390009841;2996;6;504464;0;2593;7478
3;52;1573312640812;1573312649169;8357;17638335920;34012067279;367879252;147539989;5779375658;206467297;390217265;3019;4;505536;0;2862;10722
3;53;1573312649169;1573312657666;8497;17700195098;34009302108;374383047;150228074;5778859874;206579801;390873349;3046;311;537256;2;2860;40041
3;54;1573312657666;1573312665873;8207;17622369506;34008481244;365708044;146411767;5778682355;206470770;390228261;2988;32;506288;-3;2766;8754
3;55;1573312665873;1573312674011;8138;17642964266;34006031249;370924714;147651088;5778188664;206572114;389950206;2998;6;505384;0;2480;6850
3;56;1573312674011;1573312682376;8365;17682187166;34006615420;366771129;149683263;5778286750;206467109;390013116;3019;373;537000;1;3232;41132
3;57;1573312682377;1573312690996;8619;17665204154;34009575806;369423938;148589831;5778800534;206539257;390117150;3000;8;505648;-1;2232;5795
3;58;1573312690996;1573312699184;8188;17628330394;34002340242;370681233;146551026;5777444216;206653305;390147500;3007;15;505984;0;2815;8263
3;59;1573312699184;1573312706825;7641;17653210108;34008806817;370638510;148621711;5778686836;206496589;390011481;2986;15;504296;1;2634;8015
3;60;1573312706825;1573312715134;8309;17680308438;34007772519;372804110;149627898;5778429675;206535718;390512631;3077;322;537072;8;3170;43375
3;61;1573312715134;1573312724009;8875;17640191726;34008190147;366625876;147651176;5778648232;206509888;390191946;3016;14;507464;-9;2533;6594
3;62;1573312724009;1573312732300;8291;17666227468;34007632532;367403425;148770617;5778507137;206476490;389896082;2980;27;505480;0;2483;7174
3;63;1573312732300;1573312740097;7797;17588858564;34008628090;368240432;144654917;5778684556;206428826;390009470;3014;13;506024;0;2595;8441
3;64;1573312740097;1573312749006;8909;17729644904;34009733084;371257474;151815070;5778929625;206576376;390301590;3083;246;535432;6;2545;34105
3;65;1573312749006;1573312757072;8066;17661845570;34014860905;374778290;148423941;5779914726;206553430;390911133;3020;8;506832;-5;2695;8063
3;66;1573312757072;1573312765567;8495;17674587574;34011431165;371386042;148845478;5779209121;206540941;390641259;2999;4;505216;1;2500;7465
3;67;1573312765567;1573312773668;8101;17676832178;34009665171;371006378;148949104;5778949218;206480361;391005334;2305;1527;579992;-2;5519;89421
3;68;1573312773668;1573312781624;7956;17665978392;34005913523;371868274;149043773;5778156818;206513390;390239727;2977;28;505016;0;2775;8066
3;69;1573312781625;1573312790264;8639;17634320628;34008773531;366034108;147937160;5778803459;206509827;390315859;3000;24;506008;0;2840;8686
3;70;1573312790264;1573312798655;8391;17647014744;34005496433;365047886;147426561;5778082347;206528975;389955187;3070;218;513000;110;2879;39269
3;71;1573312798655;1573312806837;8182;17640072590;34005255956;371360373;147535065;5778049581;206574591;390433101;3036;164;533776;-110;2752;22638
3;72;1573312806837;1573312815016;8179;17628903590;34007454847;370620331;146529028;5778364512;206559696;390150737;2995;7;505056;2;2561;6855
3;73;1573312815016;1573312823433;8417;17667894788;34003981849;366070076;148971762;5777751489;206566673;389791057;2987;45;505624;4;2650;7925
3;74;1573312823433;1573312832271;8838;17656045136;34008937127;363801770;148334180;5778718535;206481341;389879262;3130;331;543816;-5;3309;49322
3;75;1573312832272;1573312840104;7832;17656209094;34008190339;371262020;148125620;5778573486;206534273;390456713;3002;0;504464;0;2431;7355
3;76;1573312840104;1573312847792;7688;17682583118;34011834583;378080791;150497209;5779274144;206546089;391227906;3008;12;505656;-1;2861;10099
3;77;1573312847792;1573312856119;8327;17623545974;34006608169;368924910;146332888;5778182982;206506024;390064888;2991;8;504544;5;2564;7211
3;78;1573312856119;1573312864178;8059;17667665422;34002995931;367429225;148834064;5777510901;206556125;390261178;3009;373;536784;-5;2605;40846
3;79;1573312864179;1573312871691;7512;17574549396;34004228711;369497263;143643795;5777742608;206562415;390286120;2983;25;505376;1;2867;8997
3;80;1573312871691;1573312880300;8609;17627570026;34016760742;363537249;146675201;5780144983;206356523;390241565;3006;15;505816;1;2455;6784
3;81;1573312880300;1573312888867;8567;17685770444;34007114195;365259789;149752278;5778300981;206502768;389954201;2991;14;505552;-1;2586;6867
3;82;1573312888867;1573312896701;7834;17642522470;34007262498;370205622;147467847;5778382478;206411026;390138536;2977;458;539072;0;3027;62551
3;83;1573312896701;1573312905426;8725;17663691740;34008376796;366947099;149038527;5778585242;206404394;390319874;2994;6;504712;4;2535;6450
3;84;1573312905426;1573312913973;8547;17645702642;34006234521;363950868;147748996;5778149378;206454503;389933869;3010;18;506816;-5;2306;6084
3;85;1573312913974;1573312922332;8358;17622405422;34008263106;370029123;146826138;5778592732;206545537;390173828;3071;304;521016;18;3045;48346
4;37;1573313341577;1573313349954;8377;17618397138;34734946550;370286221;149050751;6033723153;203200881;395172414;2992;10;504464;0;2443;6893
4;38;1573313349954;1573313357954;8000;17637471162;34738212316;368994919;149586041;6034908794;202997131;394919873;3010;11;505360;1;2911;9634
4;39;1573313357954;1573313366455;8501;17583896900;34722979809;368372707;147034375;6030131271;203240505;394912973;2981;330;536288;-1;2626;31860
4;40;1573313366455;1573313374661;8206;17607530212;34723717161;370091048;148199593;6030557199;203304793;394707501;2997;33;506064;1;2688;8161
4;41;1573313374661;1573313382736;8075;17627283428;34732148550;368831984;148935894;6032803280;203284450;395188389;2983;18;504880;3;2728;8320
4;42;1573313382736;1573313391138;8402;17600880496;34723963043;366823053;148023655;6030534056;203257788;395025149;3051;434;539160;-4;3353;68818
4;43;1573313391138;1573313399184;8046;17624349850;34724613708;366128078;149317942;6030736200;203145190;394576015;3000;0;504288;1;2081;5617
4;44;1573313399185;1573313406926;7741;17574024672;34732887840;373942004;146772599;6033298350;203249014;395371036;3003;20;505856;1;2975;9821
4;45;1573313406927;1573313415161;8234;17555224106;34732061161;364357339;145660550;6032764187;203025138;394749727;2984;21;505552;-1;2505;7241
4;46;1573313415161;1573313423514;8353;17591829226;34728318694;366077407;147391790;6031801616;203253560;394928178;3053;360;535920;0;3142;59109
4;47;1573313423514;1573313430846;7332;17593149358;34727666416;374506688;147897970;6031652602;203379738;395411793;2990;10;503728;2;2744;8634
4;48;1573313430846;1573313439338;8492;17604807750;34723345002;368520560;148134590;6030374546;203207677;394585711;2988;32;505352;4;2612;7877
4;49;1573313439338;1573313447468;8130;17596454506;34721352545;366141465;147604028;6029820291;203189886;394551594;3011;0;506560;-7;2685;8343
4;50;1573313447468;1573313456363;8895;17638240874;34728116355;365436914;149773133;6031768069;203108242;394678536;3173;403;541264;1;2977;90301
4;51;1573313456363;1573313464588;8225;17630364612;34716211671;369885746;149503781;6028333306;203382154;394628968;3017;8;505992;0;2739;8335
4;52;1573313464588;1573313473251;8663;17607767608;34731702356;367943890;148019044;6032738117;203232358;395154066;3002;3;505552;-1;2426;6181
4;53;1573313473251;1573313482032;8781;17604161700;34727543144;362850407;147978867;6031464992;203130759;394791344;3129;127;515440;144;2950;29387
4;54;1573313482032;1573313490132;8100;17636177456;34727325010;370378034;149535874;6031539795;203184872;394799344;2896;345;528304;-144;3024;61721
4;55;1573313490132;1573313498344;8212;17615681538;34724000923;368459249;148905171;6030610087;203214836;394715888;3003;16;504848;4;2658;8408
4;56;1573313498344;1573313506923;8579;17582273672;34724597543;365484677;146869759;6030888458;203129491;394534981;3002;4;505720;-2;2652;7763
4;57;1573313506923;1573313514359;7436;17566264626;34728444036;371991745;145574412;6031912016;203293296;394808951;3032;500;532416;5;3541;98971
4;58;1573313514359;1573313522713;8354;17608386794;34718730285;368613156;148657321;6029032630;203369685;394516368;2985;24;512272;-5;2251;5984
4;59;1573313522714;1573313531059;8345;17616490086;34727221103;364677575;148745933;6031447881;203215434;394388301;3022;3;506144;-1;2700;7910
4;60;1573313531059;1573313539712;8653;17649982340;34726616939;365134922;150880984;6031351211;203135008;394513072;2994;2;503456;6;2463;6801
4;61;1573313539712;1573313547569;7857;17590813942;34726602950;369181335;147532012;6031199213;203367131;394737590;3108;362;539616;-6;3337;61978
4;62;1573313547569;1573313556264;8695;17617154678;34726051006;367893143;149047150;6031155324;203276782;394596001;3003;7;503624;14;2209;6029
4;63;1573313556264;1573313564892;8628;17617148400;34727360700;365297019;148926659;6031634254;203153973;394567079;3013;2;507096;-10;2469;7615
4;64;1573313564892;1573313572953;8061;17600672446;34728309777;370363331;148286267;6031770092;203306043;394753185;3027;3;506848;-5;2436;7464
4;65;1573313572953;1573313581307;8354;17627545936;34735714975;369065563;149056498;6033936419;203091989;395249761;3013;404;539088;1;2855;54062
4;66;1573313581307;1573313589284;7977;17613479420;34731380894;370572913;148304173;6032789808;203266194;394814017;3016;7;505968;0;2746;9338
4;67;1573313589284;1573313597272;7988;17606666038;34728333727;368693244;148483779;6031779417;203140581;395059285;3001;2;504632;-1;2652;7961
4;68;1573313597272;1573313605429;8157;17641527918;34723986879;368136986;149199463;6030569846;203267316;394679613;2125;1682;580576;1;5976;111746
4;69;1573313605429;1573313614046;8617;17606879928;34727313603;364804182;147971812;6031460232;203138522;394882353;3006;2;505648;-1;2765;7829
4;70;1573313614046;1573313622239;8193;17581668794;34722844448;364699084;146898359;6030094367;203277539;394519579;3020;4;505984;0;2768;10850
4;71;1573313622239;1573313630543;8304;17619053408;34722607540;370360140;148876754;6030115167;203271471;394811647;2999;4;505216;1;2695;7789
4;72;1573313630543;1573313638641;8098;17592897946;34725264498;370083214;147032169;6030893880;203322812;394602102;3142;376;541136;-1;2833;48727
4;73;1573313638641;1573313647649;9008;17611261534;34721090958;366016099;148223460;6029691431;203166753;394418312;2976;24;504576;5;2487;6031
4;74;1573313647650;1573313655916;8266;17608864798;34726890560;364132830;148997963;6031285269;202983422;394711197;2991;44;505592;-5;2757;11163
4;75;1573313655917;1573313664845;8928;17635510674;34726672198;366014381;149688778;6031331574;203246353;394827901;3052;333;540984;0;3333;33231
4;76;1573313664845;1573313672831;7986;17566606558;34731567145;365935657;146135018;6032799651;203116161;394894574;3003;1;505384;0;2385;7159
4;77;1573313672831;1573313680292;7461;17546129036;34724383264;368098746;144687552;6030676025;203260460;394509272;3007;12;505136;5;2654;8791
4;78;1573313680293;1573313688883;8590;17607545104;34719532571;370450380;148378879;6029255126;203419179;394921963;3003;6;506224;-5;2687;7700
4;79;1573313688883;1573313696789;7906;17632961660;34721179669;373977486;150281641;6029742272;203378941;394811548;3027;335;536416;1;2699;31928
4;80;1573313696789;1573313704120;7331;17584625878;34737995749;375128741;147078166;6034527055;203359733;395218408;2997;5;504920;0;2727;8056
4;81;1573313704120;1573313711992;7872;17597546878;34725281201;373137258;147703229;6030851689;203386638;395063587;2998;26;505976;0;2494;7816
4;82;1573313711992;1573313720122;8130;17615964778;34725738874;368539069;148812351;6031125096;203195661;394831101;2978;22;504712;4;2624;7438
4;83;1573313720122;1573313729124;9002;17594908366;34727243104;362999641;147928173;6031715275;202974604;394661379;3060;298;538416;-5;2648;40947
4;84;1573313729124;1573313737205;8081;17605495264;34723715751;370963385;147796730;6030539694;203183667;395007325;2966;36;504464;0;2654;7267
4;85;1573313737205;1573313745761;8556;17643377008;34727029989;368458344;149988558;6031515495;203083999;394938199;2981;37;504688;5;2520;7728
4;86;1573313745761;1573313753783;8022;17577746212;34731555150;373620190;146708083;6032780550;203372063;395248976;3002;1;505216;1;2506;7001
