0;0;1574424930200;1574424939490;9290;10233516534;13973816847;148486851;14477950;2243137578;218535349;168827608;0;0;0;0;0;0
0;1;1574424939490;1574424954245;14755;10169895720;13857632384;129320116;14407602;2217364986;220394158;163826796;2293;19950;1751656;26;14755;2096611
0;2;1574424954245;1574424975887;21642;10075140406;13849300684;123167746;9614416;2215375868;219904068;163223918;5250;16221;1889632;-16;21642;3293893
0;3;1574424975887;1574424998474;22587;10153248946;13849322509;124836663;12840611;2215384413;221499362;163263214;3784;27803;2705664;3;22588;3362296
0;4;1574424998474;1574425008629;10155;10142975802;13849427254;125995029;12579145;2215416511;220999186;162770513;2043;9045;1062160;18;10154;1446012
0;5;1574425008629;1574425052829;44200;10110178654;13849377727;120760927;11641694;2215403496;220033451;162897228;11173;31860;3841784;-23;44201;6559496
0;6;1574425052829;1574425077284;24455;10129489928;13849289817;123824498;12383056;2215374175;220568471;162931501;6373;15705;1793968;-1;24454;3433818
0;7;1574425077284;1574425095215;17931;10123151484;13849294658;124076770;11792767;2215375600;220723364;163700828;3352;20381;2096624;22;17932;2693835
0;8;1574425095215;1574425121096;25881;10118557302;13849292405;121036882;11982173;2215374132;220062383;163521771;5843;21013;2338416;-26;25880;3848390
0;9;1574425121096;1574425147227;26131;10133406378;13849293431;124378676;11922165;2215374323;221087799;163460753;6075;20217;2297648;15;26131;3831969
0;10;1574425147227;1574425173309;26082;10149405058;13849288973;127736703;12515193;2215374565;221275313;163234379;5713;21381;2449840;-3;26083;3865797
0;11;1574425173310;1574425194254;20944;10051236702;13849331857;121855946;8975838;2215386828;219045539;162759758;5117;16914;1781448;-5;20944;3135865
0;12;1574425194254;1574425209424;15170;10067561692;13849386935;121332719;9313142;2215406050;219675561;162600402;2773;16136;1714184;14;15170;2178560
0;13;1574425209424;1574425235994;26570;10092719974;13848608991;122070848;11268118;2215275965;220068450;163219636;6497;19115;2229112;-12;26570;4027598
0;14;1574425235994;1574425245231;9237;10101435736;13847785100;120672806;11039734;2215156710;220553620;162667861;1506;11545;1143136;1;9237;1309845
0;15;1574425245232;1574425272408;27176;10101447270;13847789931;125335408;10458117;2215173912;220400427;163729672;6691;19689;2320976;-5;27178;3996268
0;16;1574425272408;1574425301375;28967;10100477684;13847666853;120233180;11467467;2215137674;220354383;162987195;6913;21943;2588264;2;28967;4267838
0;17;1574425301376;1574425311219;9843;10107814914;13847646364;123125544;11536123;2215131917;220473555;162588618;1854;10950;1068344;-3;9844;1393782
0;18;1574425311219;1574425334656;23437;10073144440;13847644014;123722711;9356671;2215130242;219822455;163279341;5786;16643;1977320;13;23437;3469226
0;19;1574425334657;1574425380009;45352;10108539074;13847693773;126456722;11524568;2215140785;220295430;163375166;12051;27043;3426056;-8;45353;6594665
0;20;1574425380009;1574425389481;9472;10118196390;13847628010;123501811;11618170;2215129399;220875065;163135992;2410;8274;843352;1;9471;1482003
0;21;1574425389481;1574425408270;18789;9991614244;13847625187;117237521;6317926;2215126934;217983217;162223601;4197;14267;1726264;-7;18789;2682565
0;22;1574425408270;1574425433492;25222;10092465934;13847759325;122046242;10721790;2215154879;220097921;163096799;5678;23737;2412184;2;25223;3929719
0;23;1574425433492;1574425456748;23256;10102907708;13847622120;120315289;11348255;2215127945;220429258;162504190;4246;22746;2374168;148;23255;3475288
0;24;1574425456748;1574425471591;14843;10005434750;13847709420;117332473;6267039;2215145829;218662830;162486754;3338;15778;1685312;-137;14844;2315025
0;25;1574425471591;1574425492148;20557;10104903674;13847009765;120538871;10837486;2215025097;220866519;162478197;2992;25794;2624560;-110;20559;2891647
0;26;1574425492151;1574425501660;9509;10088236898;13846794616;117246581;10587430;2214986093;220227963;162525203;2197;10058;786560;110;9509;1897780
0;27;1574425501660;1574425524077;22417;10062800048;13846875664;118749457;9927903;2215008450;219281203;162782409;5208;19261;2188096;-11;22418;3413934
0;28;1574425524077;1574425542682;18605;10112637732;13846788207;121393487;10905133;2214996004;221068768;162814656;2753;23856;2362576;6;18605;2646462
0;29;1574425542683;1574425561165;18482;10022705528;13846714387;115654173;8299479;2214971207;218737207;162105477;3965;19323;2047392;7;18482;2905348
0;30;1574425561165;1574425570574;9409;10096824180;13846731882;120773432;10603261;2214974055;220627818;163632604;1544;12004;1117008;-10;9409;1333877
0;31;1574425570574;1574425589676;19102;10004411874;13846708835;116816373;6720527;2214968890;218242837;162627092;5001;14488;1760872;8;19102;2908520
0;32;1574425589676;1574425615407;25731;10073572658;13846712006;116731187;10152935;2214971468;220007608;162105550;6156;22978;2601312;-9;25731;3831797
0;33;1574425615407;1574425624689;9282;10094891286;13846715645;118832514;10587582;2214971594;220473838;162662185;2276;7484;814840;4;9282;1319305
0;34;1574425624689;1574425649662;24973;10110088426;13846711490;120270658;11285078;2214970528;220808679;162482743;5654;23388;2465296;-3;24973;3709119
1;0;1574425793721;1574425803190;9469;10200579518;13973517441;135568154;15277088;2243084923;217560814;169577209;0;0;0;0;0;0
1;1;1574425803190;1574425824018;20828;10134738336;13859401617;120782485;13746192;2217690426;219428274;164992048;3529;25939;2550960;-6;20828;3062922
1;2;1574425824018;1574425833061;9043;10092785528;13849459882;110783964;12047201;2215419076;219336673;165334546;1743;9591;923432;7;9043;1287440
1;3;1574425833061;1574425847973;14912;9975270566;13849302917;105770203;6859952;2215382820;217328110;163648250;1840;19361;1817664;-14;14912;2126845
1;4;1574425847973;1574425866854;18881;10093146002;13849609907;108628481;12088927;2215497013;219753190;165156228;3475;25691;2573592;0;18881;2871677
1;5;1574425866854;1574425875932;9078;10092085166;13849401811;108276842;12361599;2215419125;219722238;164023476;1408;12048;1135752;-2;9078;1295999
1;6;1574425875932;1574425896182;20250;10113759158;13849295600;113064506;12654876;2215383853;220130579;165796450;3512;24789;2527824;16;20251;2926128
1;7;1574425896183;1574425916134;19951;10107521162;13849398913;112282042;12440877;2215418131;219998608;164627052;2996;28900;2710752;-11;19951;2963780
1;8;1574425916134;1574425929882;13748;10004421072;13849331395;106724977;8133505;2215394403;217822533;164109354;2326;17215;1675056;10;13748;1981625
1;9;1574425929882;1574425939061;9179;10103387902;13849299118;111568876;12229382;2215384634;220075469;164635121;1378;11284;1112512;-1;9179;1301888
1;10;1574425939061;1574425956884;17823;10015663364;13849303335;107595898;8953260;2215386000;217931231;164468265;3701;19079;2009232;-11;17823;2670034
1;11;1574425956884;1574425971246;14362;10038951240;13849299148;109434423;9787218;2215384563;218655298;163837907;2332;15964;1709080;26;14362;2050249
1;12;1574425971246;1574425994078;22832;10094580598;13849318760;111975241;11701525;2215391515;219963451;164863699;5165;21270;2241240;-31;22833;3492650
1;13;1574425994079;1574426017599;23520;10075968518;13848626050;109707563;11657544;2215289720;219561043;163653169;5108;23406;2451032;10;23520;3518720
1;14;1574426017599;1574426065790;48191;10066330182;13847785710;108674224;10602083;2215165344;219549243;164211096;13426;31158;3931200;11;48191;7300921
1;15;1574426065790;1574426084312;18522;9949128682;13847652372;103110023;6330245;2215140371;216786648;162596523;4962;12407;1417440;-19;18522;2812232
1;16;1574426084312;1574426124981;40669;10078577100;13847654670;112292757;10840776;2215141808;219600805;163877243;9803;28204;3400080;-2;40669;5981827
1;17;1574426124981;1574426151007;26026;10023608392;13847761486;106116965;9417561;2215173632;218408660;163936099;6663;19095;2144824;23;26026;3918904
1;18;1574426151007;1574426197605;46598;10068352282;13847702218;110031837;11536235;2215158152;219200358;163651504;11832;27156;3483840;-7;46599;6973611
1;19;1574426197605;1574426206670;9065;10059799456;13847680662;107996735;10741121;2215147139;219435736;163451401;1721;10152;987552;-5;9064;1293399
1;20;1574426206670;1574426236195;29525;10081373584;13847632642;109786793;11497771;2215138741;219976734;163401690;8726;14351;2073664;11;29525;4361020
1;21;1574426236195;1574426263582;27387;10071267756;13847632511;108665570;11589829;2215138505;219523252;163713251;6012;22759;2401344;-22;27387;4167212
1;22;1574426263582;1574426286325;22743;10068244534;13848034947;110919733;10827083;2215216018;219630158;163694851;5593;16166;2014352;4;22744;3384802
1;23;1574426286325;1574426311309;24984;10060342138;13847008949;107894327;10503354;2215034582;219482935;163726945;6251;18234;2053872;6;24984;3746842
1;24;1574426311310;1574426334641;23331;10090343532;13846802097;109983167;11757883;2214996679;219914612;163386865;5235;19448;2197816;-2;23332;3431416
1;25;1574426334641;1574426358711;24070;10075363056;13846803458;108252566;11031575;2214996906;219762690;163349489;5109;19883;2112072;2;24069;3394435
1;26;1574426358711;1574426383844;25133;10080230696;13846877542;110775131;11520249;2215021538;219770961;163842073;4598;27467;3004656;-84;25133;3874191
1;27;1574426383844;1574426393352;9508;10078764710;13846885422;107185159;11481962;2215021006;219883198;163553362;1632;13090;1082960;86;9508;1330024
1;28;1574426393352;1574426415451;22099;10079890078;13846714026;109195532;11579310;2214981153;219719843;163681778;3563;29465;2887712;-12;22100;3303034
1;29;1574426415452;1574426433598;18146;10055792048;13846721303;106379642;10090690;2214982332;219403060;163606789;3062;21967;2242976;0;18147;2590900
1;30;1574426433598;1574426455865;22267;10081082460;13846734691;108753294;11524751;2214987440;219905818;163356111;4409;22888;2409504;2;22267;3315073
1;31;1574426455865;1574426478479;22614;10066601888;13846842288;108786605;10705265;2215022730;219664938;163307705;4296;26099;2551640;13;22613;3429932
1;32;1574426478479;1574426487341;8862;10055424420;13846731669;107368750;10418394;2214983812;219326071;163249712;1659;10044;1067736;4;8863;1261413
1;33;1574426487341;1574426526826;39485;10064773822;13846722493;107450328;10603484;2214982433;219618409;163716385;8470;36355;3907992;-4;39484;5960439
2;0;1574426661035;1574426670464;9429;10225928330;13973519952;140823498;14772729;2243109204;218364944;168412640;0;0;0;0;0;0
2;1;1574426670464;1574426704687;34223;10156495548;13858208031;121803701;13772895;2217487965;220040631;164112469;8140;29333;3354544;-122;34224;4887295
2;2;1574426704687;1574426713715;9028;10119589522;13849392879;117240632;13091841;2215394002;219728187;164385441;1877;9391;791936;120;9027;1235217
2;3;1574426713715;1574426735310;21595;10135197360;13849386420;119532309;13001360;2215391950;220319318;164093986;4082;25043;2520920;-7;21595;3273679
2;4;1574426735310;1574426757088;21778;10116762816;13849390961;116564906;12457761;2215394421;220049086;163805251;3955;26836;2566888;-7;21778;3274237
2;5;1574426757088;1574426770005;12917;10007919670;13849378377;112634537;6603153;2215390604;218237035;163014809;2034;16449;1770080;-6;12917;1859873
2;6;1574426770005;1574426793216;23211;10118636288;13849389661;117976479;12831722;2215393771;219752004;163148331;4107;23440;2495240;22;23211;3490198
2;7;1574426793216;1574426802224;9008;10121536578;13849382179;115704264;12670684;2215392300;220148006;164480114;1830;10762;979416;-3;9009;1284462
2;8;1574426802224;1574426826363;24139;10125371706;13849388769;116856120;12957612;2215393939;220138909;163945875;5304;20791;2377160;0;24139;3589943
2;9;1574426826363;1574426849596;23233;10121054486;13849380663;119069518;12497537;2215391970;219965912;164477685;4774;24435;2427176;-3;23232;3446208
2;10;1574426849596;1574426870976;21380;10142047826;13849391146;119734285;12828381;2215395323;220535365;163867285;3840;22836;2300424;-4;21380;3053906
2;11;1574426870976;1574426885927;14951;10049524560;13849384892;116209355;9323945;2215392812;218763182;163301266;2726;19009;1953184;-3;14951;2311106
2;12;1574426885927;1574426895252;9325;10126369324;13849387981;118369422;12801386;2215393661;220127069;164073378;1406;11158;1123112;6;9325;1318815
2;13;1574426895252;1574426914349;19097;9995630850;13849381773;112693683;7437602;2215392004;217398010;163867716;4515;15187;1759928;2;19098;2813849
2;14;1574426914350;1574426938505;24155;10037460434;13847958102;115968027;8792152;2215180105;219182128;163445829;4613;25216;2657760;0;24155;3654665
2;15;1574426938505;1574426956950;18445;9990127672;13847882713;111652356;6732064;2215174622;217482153;162932410;4452;13318;1455280;2;18445;2755988
2;16;1574426956950;1574426965291;8341;10016300654;13847861327;110583765;8181823;2215188877;218461580;162947624;1518;10479;1066824;-11;8342;1196356
2;17;1574426965292;1574426992695;27403;10112160604;13847839593;116195029;12622182;2215173780;220225147;163620245;5718;24311;2677504;-1;27403;4055368
2;18;1574426992695;1574427002056;9361;10100386726;13847719379;115594482;12121691;2215147313;219890917;163525936;1762;9313;953320;-6;9362;1328557
2;19;1574427002056;1574427028244;26188;10116061578;13847718544;116098139;12217915;2215147294;220593260;163278830;5938;23352;2470544;11;26187;3817405
2;20;1574427028244;1574427054005;25761;10085653720;13847721266;113455640;11711366;2215147489;219533263;163309470;5700;22695;2495912;3;25761;3846514
2;21;1574427054005;1574427082737;28732;10112842424;13847743910;115302410;12329452;2215155262;220102719;162936732;6277;22587;2585216;-4;28732;4117687
2;22;1574427082737;1574427092056;9319;10112821984;13847932856;114827554;12171852;2215199979;220514365;164113118;1861;9026;910152;-9;9319;1324509
2;23;1574427092056;1574427119024;26968;10114648882;13847831294;117338876;12026767;2215185724;220549660;163566270;5954;24713;2626872;14;26957;3817892
2;24;1574427119024;1574427144867;25843;10122730128;13848220701;117538744;12477008;2215238379;220654902;163908939;5515;22430;2444208;19;25844;3795376
2;25;1574427144867;1574427168410;23543;10105373064;13847100204;114055897;11945863;2215043709;220028124;162972545;4358;24975;2694576;-31;23542;3368033
2;26;1574427168410;1574427193238;24828;10109496834;13846891730;114630753;12300103;2215005870;220238379;163617540;6151;19357;2212968;-6;24828;3748829
2;27;1574427193238;1574427202563;9325;10105457890;13846969876;116861579;11694344;2215029152;220516931;163404557;1575;12744;1144680;21;9325;1316389
2;28;1574427202563;1574427230110;27547;10090615822;13846884361;114809225;11263699;2215015710;219952213;163583148;6639;19843;2314976;-24;27547;4214622
2;29;1574427230110;1574427257426;27316;10073238464;13846805264;115120788;10336053;2214989685;219637513;162665321;6568;20471;2261568;9;27316;4053697
2;30;1574427257426;1574427294014;36588;10109281338;13846828343;117580238;12522565;2214996577;219816331;163798499;7188;34254;3860592;3;36588;5361305
2;31;1574427294014;1574427303116;9102;10087719036;13846925762;112208320;11476209;2215029925;219708734;162673423;1800;9376;825280;-11;9103;1290301
2;32;1574427303116;1574427325975;22859;10003597048;13846825633;111296208;7208241;2214992957;218069495;163263608;5974;14278;1819808;11;22858;3518666
2;33;1574427325975;1574427355730;29755;10088148860;13846804420;115481134;11305482;2214989390;219701108;163104993;6822;22258;2578120;5;29755;4379562
2;34;1574427355730;1574427376766;21036;10034426262;13846809126;113078841;8429965;2214990052;218691390;163444380;5195;14870;1718856;-20;21036;3183332
3;0;1574427512490;1574427522067;9577;10229610596;13972830657;149803479;15458685;2242948107;218235706;169434003;0;0;0;0;0;0
3;1;1574427522067;1574427542052;19985;10180464076;13874067544;133324172;14985346;2221573451;220028558;165388408;3246;24909;2370744;-44;19985;2931165
3;2;1574427542052;1574427562508;20456;10116651126;13849071326;132733423;11539170;2215363084;219901120;164320781;3200;23249;2356128;-23;20456;2927330
3;3;1574427562508;1574427572060;9552;10126735930;13849093815;127020500;12463768;2215370745;220321062;163256235;1762;14014;1157584;177;9552;1448347
3;4;1574427572060;1574427586074;14014;10033202490;13849176943;123097147;7361318;2215398744;218637622;162871669;2537;16541;1794328;-132;14015;2119814
3;5;1574427586074;1574427595077;9003;10123384208;13849061939;127221690;12242604;2215361779;220289344;163323744;1406;11851;1129512;-4;9003;1284005
3;6;1574427595077;1574427625516;30439;10117432080;13849064134;126468573;11458633;2215362848;220320926;163862233;4864;37456;3764904;-9;30438;4498273
3;7;1574427625516;1574427653774;28258;10131089066;13849067246;128267353;12467109;2215363081;220368857;163850511;6219;23291;2656624;1;28259;4083931
3;8;1574427653774;1574427663043;9269;10129021998;13849382714;126452759;12752955;2215476920;220162941;163752057;1665;11394;1078192;-1;9268;1315880
3;9;1574427663043;1574427688834;25791;10116844430;13849072379;126734720;11671368;2215364931;220379880;164212439;5894;19707;2277600;6;25791;3803221
3;10;1574427688834;1574427716038;27204;10131405448;13849110477;126124602;12281513;2215378224;220437983;164002971;5885;23555;2564456;5;27204;4061479
3;11;1574427716038;1574427731555;15517;10071558588;13849150576;126059160;9097088;2215390785;219790420;163695548;3033;16659;1721832;3;15518;2222720
3;12;1574427731556;1574427757006;25450;10129310932;13849059638;127453433;11694539;2215361120;220722345;163999384;5958;20605;2221832;-15;25450;3795425
3;13;1574427757006;1574427775622;18616;9977793008;13849069595;120127284;6086593;2215362284;217099283;162775059;4818;11561;1516704;-8;18617;2869571
3;14;1574427775622;1574427797927;22305;9994356270;13847925935;119419215;6680843;2215198579;218182577;163625636;5631;15197;1814808;6;22305;3344234
3;15;1574427797928;1574427826363;28435;10105499938;13847564853;124129266;11893346;2215145502;220075236;163717566;6447;22145;2436592;14;28435;4109337
3;16;1574427826363;1574427853640;27277;10120738980;13847415057;127813355;12173320;2215118764;220557201;163901022;6692;19683;2385520;-97;27277;3961043
3;17;1574427853640;1574427862266;8626;10074788108;13847450254;122536887;9453638;2215124769;219977442;163942054;2015;8817;866576;89;8627;1219181
3;18;1574427862267;1574427891239;28972;10098841608;13847414636;123801929;11279531;2215118301;220300337;163737160;7633;17060;2139624;-2;28972;4311338
3;19;1574427891239;1574427915052;23813;10046535502;13847451056;120806052;9556006;2215124963;218700550;163630005;6646;13498;1705592;17;23813;3656426
3;20;1574427915052;1574427939091;24039;10046256496;13847397360;121053555;8646657;2215115660;219473294;163182200;6373;14188;1791032;-10;24040;3531464
3;21;1574427939092;1574427971741;32649;10093944914;13847414364;124198120;11166144;2215122004;220310432;163546644;8664;18678;2371952;10;32649;4789284
3;22;1574427971741;1574427991049;19308;10003598508;13847662507;119459138;6705863;2215185126;218014758;162898976;5509;11478;1494104;0;19308;2912055
3;23;1574427991049;1574428026509;35460;10083242676;13847396143;123832166;10476846;2215116182;219932816;163250663;9596;19630;2487952;-18;35460;5194112
3;24;1574428026509;1574428070513;44004;10086435988;13847975779;124564937;10581213;2215217800;219784045;163478323;11076;25856;3321616;0;44004;6828127
3;25;1574428070513;1574428098831;28318;10088375160;13847399237;123118514;10491663;2215116527;220199733;163486608;7657;14652;1929928;1;28318;4147563
3;26;1574428098831;1574428127197;28366;10102400212;13846776059;123515128;10913297;2215011867;220500321;163834862;6963;17846;2118424;-4;28367;4183748
3;27;1574428127198;1574428151950;24752;10083870768;13846651465;124955860;10618997;2214998376;219811857;163874965;7004;13549;1801216;20;24752;3659886
3;28;1574428151950;1574428195813;43863;10097190202;13846558755;126780578;11019722;2214983292;220117461;163546293;10667;30716;3502176;-27;43864;6624969
3;29;1574428195813;1574428205251;9438;10095262856;13846487926;124043343;10794707;2214959489;220388824;163548725;2243;5903;778368;-1;9437;1355782
3;30;1574428205251;1574428222770;17519;9970502498;13846498313;118376447;5306502;2214962578;217199759;163325590;4064;12044;1362272;29;17519;2512436
4;0;1574428356391;1574428366883;10492;10226373776;13972955400;144903501;16541254;2243016569;217967852;168846835;0;0;0;0;0;0
4;1;1574428366883;1574428387316;20433;10132168444;13870064520;128991269;14891538;2220299338;219153450;165439268;3746;23733;2387488;20;20434;3065100
4;2;1574428387316;1574428407596;20280;10061424728;13849308261;118942308;12109421;2215393965;218659121;164735415;3073;24174;2346640;-41;20280;2888024
4;3;1574428407596;1574428416896;9300;10059765146;13849302112;117713308;12140285;2215392345;218839420;163833309;1955;13159;1108472;38;9300;1490116
4;4;1574428416896;1574428430037;13141;9963590420;13849299225;114298732;7145575;2215392695;217465393;163582929;2444;15528;1685368;0;13141;2020341
4;5;1574428430037;1574428438894;8857;10056423206;13849291948;117346739;11819635;2215391858;219041357;163925725;1325;11489;1082976;-12;8857;1259638
4;6;1574428438895;1574428451991;13096;9982986520;13849296225;118600705;6990253;2215392762;217631030;163129732;1693;17814;1757536;7;13097;1861579
4;7;1574428451991;1574428473325;21334;10058043806;13849288300;117035881;11720950;2215391813;218890198;163691345;3887;27361;2703920;7;21333;3126753
4;8;1574428473325;1574428491285;17960;10075197054;13849295993;118649359;12426972;2215393726;219107258;163002936;3043;22383;2230392;-12;17961;2538223
4;9;1574428491285;1574428511342;20057;10047208562;13849288060;116436601;11808476;2215391760;218408648;162448590;3608;21169;2182528;3;20057;2864989
4;10;1574428511342;1574428521008;9666;10074052414;13849290981;120015914;12327022;2215392814;219285674;163394367;1452;13822;1221696;5;9666;1390088
4;11;1574428521008;1574428540934;19926;10087771304;13849291598;120657346;12688156;2215393267;219571330;163362901;3910;24617;2587384;-12;19925;3025898
4;12;1574428540934;1574428561861;20927;10075054266;13849290112;120988373;12473939;2215392402;219185388;163453710;3369;27004;2624200;11;20928;2956655
4;13;1574428561862;1574428582123;20261;10079259358;13848239971;116440919;12046644;2215237369;219486275;162671682;3130;24221;2460200;3;20261;2701821
4;14;1574428582123;1574428594638;12515;10055718026;13847825675;116324419;11846929;2215175009;219056115;162952047;2312;19019;1775056;1;12516;1918119
4;15;1574428594638;1574428614558;19920;10038523314;13847788915;117756373;10906748;2215184109;218566915;162884403;3723;22067;2327816;-4;19920;3032782
4;16;1574428614558;1574428639210;24652;10058065852;13847714474;117463808;11578483;2215159452;219350801;162671817;5120;23356;2457432;-6;24651;3456526
4;17;1574428639210;1574428648569;9359;10058515094;13847796663;115761366;11592221;2215181382;219310124;162803814;1719;13517;1249088;23;9360;1450643
4;18;1574428648569;1574428670055;21486;10052326884;13847690901;116374713;11242797;2215151582;219195488;162559399;3305;25321;2618624;-14;21485;2968170
4;19;1574428670055;1574428688230;18175;10032819240;13847708553;115720292;10694969;2215154442;218568451;162554466;3132;23089;2287136;12;18176;2742223
4;20;1574428688230;1574428697437;9207;10047323902;13847699868;117199273;11500976;2215157349;218980302;163305155;1456;11073;1155464;-18;9207;1306081
4;21;1574428697438;1574428716870;19432;10058609848;13847769973;118234505;11659546;2215181984;219199632;163182569;3308;24762;2427176;-11;19433;2939401
4;22;1574428716870;1574428737410;20540;10048819088;13848035741;116782720;11241113;2215223645;218787482;162514683;3481;24219;2446936;12;20540;3043958
4;23;1574428737411;1574428746440;9029;10037248588;13847002881;111265789;11127524;2215042213;219006435;161883872;1786;8528;990184;6;9029;1274239
4;24;1574428746440;1574428761144;14704;9927917510;13846794646;105340904;6725940;2215003586;216821182;161546450;2672;18095;1620264;9;14705;2223312
4;25;1574428761144;1574428770151;9007;10028241994;13846793566;110430591;10986620;2215004488;218934448;161899374;1584;10025;1149504;-10;9007;1296234
4;26;1574428770151;1574428792648;22497;9999952742;13846806616;108217743;10267677;2215008316;217820578;162413307;5457;16723;1953784;-1;22496;3343799
4;27;1574428792648;1574428813687;21039;10049171240;13846813655;112297162;11601691;2215008215;219350850;162437640;4357;21362;2261536;1;21040;2978645
4;28;1574428813687;1574428831544;17857;9926140106;13846712841;103722500;6643759;2214988726;216926811;161431234;4383;12841;1461408;-5;17857;2686650
4;29;1574428831544;1574428855614;24070;10006252934;13846712903;109348269;9918569;2214989479;218438274;162331795;5692;19158;2186144;-7;24070;3491628
4;30;1574428855614;1574428864963;9349;10040240420;13846715219;109608368;11727667;2214990271;218896145;162645942;1665;9851;1003944;6;9349;1332783
4;31;1574428864963;1574428909419;44456;10032306926;13846712245;110795280;11362148;2214989582;218707490;162043965;11325;34601;4046720;-8;44456;6632172
4;32;1574428909419;1574428918542;9123;10041183726;13846732922;111907101;11233338;2214993606;219141034;162260635;1923;9502;892088;-3;9123;1299645
4;33;1574428918542;1574428962466;43924;10029986840;13846808846;113101306;11022101;2215022196;218650813;161947943;10669;29577;3581944;12;43924;6638373
4;34;1574428962466;1574428971852;9386;10046303946;13846753657;112947955;11646041;2215003005;219231800;162275975;2582;6537;725208;4;9386;1498314
4;35;1574428971852;1574428992250;20398;9992110352;13846780142;109276696;9438601;2215011279;217845774;162044184;4759;14843;1786048;10;20398;2926300
4;36;1574428992250;1574429018014;25764;10045418602;13846785042;111088302;11615860;2215013511;219270638;162458201;6115;19428;2158168;-3;25763;3817023
4;37;1574429018014;1574429070965;52951;10056783096;13846709266;114107980;11960747;2214989161;219375012;162446339;15978;27542;3713816;1;52952;8211865
