0;36;1574461945930;1574461954648;8718;10047733432;13846620554;106517674;12739237;2214952643;217743643;162112833;1420;10978;1005504;20;8719;1247588
0;37;1574461954649;1574461962085;7436;10015547148;13846623930;106354187;11343870;2214953240;217549338;161663479;1087;10612;1005840;2;7437;1055785
0;38;1574461962085;1574461970071;7986;10069748334;13846620616;107629963;14143396;2214952648;218733377;161969594;1672;10355;1042616;-22;7986;1288678
0;39;1574461970071;1574461977336;7265;9976429806;13846623609;105884676;8495922;2214953252;217730421;162043492;1387;7358;858672;21;7264;1037397
0;40;1574461977336;1574461986794;9458;9921804052;13846615563;105007236;5535671;2214951077;216577793;161575619;1693;10236;1044264;-27;9458;1361367
0;41;1574461986794;1574461994604;7810;10122613766;13846624832;110103856;17282799;2214953713;218651944;161875451;1226;11297;1033912;23;7810;1114656
0;42;1574461994604;1574462002250;7646;9961098346;13847305520;104703289;7756560;2215160734;217453244;162022142;1606;10155;989616;-23;7646;1208141
0;43;1574462002250;1574462009985;7735;10028957248;13846663130;103797330;12228109;2214967012;217403280;162292642;1559;7684;902232;9;7735;1099778
0;44;1574462009985;1574462018881;8896;10043817274;13846620941;105900900;12803128;2214952637;217924204;162157291;1533;10175;1012896;3;8897;1266484
0;45;1574462018881;1574462032680;13799;10033127884;13846622488;106653245;12038866;2214953048;217441171;162057404;2686;16729;1766368;13;13799;1827921
0;46;1574462032680;1574462040214;7534;10028742336;13846645722;106318458;12086017;2214961060;217821589;162184244;1622;6916;681616;-18;7534;1075860
0;47;1574462040215;1574462047445;7230;10059638126;13846731600;105732824;13610262;2214989176;217420917;162849367;1083;9271;857064;5;7231;1027813
0;48;1574462047445;1574462054771;7326;10035749898;13846615026;105727276;11820578;2214951477;218328335;162860075;1114;10759;1038792;6;7325;1044966
0;49;1574462054771;1574462062237;7466;10067981734;13846717808;107751623;14313649;2214984238;217725604;161931783;1632;10887;1094152;-2;7466;1231108
0;50;1574462062237;1574462069593;7356;10016868448;13846718969;104702997;11839814;2214985397;217619380;161601205;1647;7872;844904;-15;7356;1045522
0;51;1574462069593;1574462076143;6550;9950699788;13846742254;103121202;7260953;2214992587;216670054;161824499;1250;7213;748736;-2;6551;937111
0;52;1574462076144;1574462083463;7319;10093465742;13846738794;106072458;15965407;2214991945;218113514;161647056;1033;9770;908584;23;7319;1044614
0;53;1574462083463;1574462090881;7418;9950041474;13846743662;106311773;7318966;2214993163;216983507;161582275;1095;10810;1012400;-7;7419;1050055
0;54;1574462090881;1574462099385;8504;10046823122;13846739335;107093630;13219591;2214992277;217718336;161804120;1770;11121;1178712;2;8504;1320241
0;55;1574462099385;1574462113085;13700;10116186262;13846727368;107343724;16711097;2214987331;218231953;161987347;2779;12959;1443984;-2;13699;1852240
0;56;1574462113085;1574462120286;7201;10027517396;13846623707;107254720;11422856;2214953052;218191545;161760701;1181;9933;965080;4;7201;1024792
0;57;1574462120286;1574462128020;7734;10104932436;13846618760;109491062;17371553;2214952270;217785843;161884091;1830;8851;992744;7;7734;1181998
0;58;1574462128020;1574462134689;6669;10001156220;13846619397;107782994;10176707;2214952417;217531549;161983841;1491;6699;592456;-17;6669;953483
0;59;1574462134689;1574462142254;7565;10118495398;13846623682;108823147;17477763;2214953150;218247206;161795205;1185;9203;904800;-1;7565;1079227
0;60;1574462142254;1574462148654;6400;9959591772;13846620148;106657467;7511219;2214952523;217232978;161588639;962;9232;861736;-2;6401;910440
0;61;1574462148654;1574462156241;7587;10078755804;13846619074;110127941;14981615;2214952395;218020980;162195328;1212;12365;1170128;145;7587;1094020
0;62;1574462156242;1574462169253;13011;10071846500;13846630810;106787953;14097515;2214954900;218807372;161995787;2834;12552;1525944;-6;13012;1902329
0;63;1574462169253;1574462176874;7621;10109674516;13846652889;108062229;17023689;2214962848;217677686;162789816;1676;6696;622160;-138;7621;1249527
0;64;1574462176874;1574462190916;14042;10126718264;13846727412;108437366;17604556;2214987715;218650108;162054016;2719;12785;1687464;-103;14024;1070650
0;65;1574462190916;1574462198388;7472;10104659270;13846619739;109116670;15797841;2214952694;218690564;161813602;1901;9209;967536;4;7472;371041
0;66;1574462198388;1574462206115;7727;10079783206;13846623829;107956945;15188488;2214953378;218409458;161535456;2395;8698;913536;95;7728;593862
0;67;1574462206115;1574462213236;7121;10110162886;13846623450;109595388;16710251;2214953473;217647668;161859060;1514;7046;641888;25;7120;1027154
0;68;1574462213236;1574462219640;6404;9956702870;13846707684;105573353;7500423;2214981955;216971859;162042809;1012;8124;769208;-18;6404;910721
0;69;1574462219640;1574462226920;7280;10046276644;13846669499;107635141;12878290;2214968926;217692011;161769679;1036;9974;973392;-6;7280;1043625
0;70;1574462226920;1574462234240;7320;10054832536;13846674927;108708678;13028600;2214970763;218336905;161697193;1103;11351;1073296;-4;7321;1044210
0;71;1574462234240;1574462240729;6489;9980594894;13846704173;104355818;9182574;2214980466;217194947;161728159;1623;8644;983272;-1;6489;1086492
0;72;1574462240729;1574462248910;8181;10123230908;13846619560;108588846;17305266;2214952558;218474099;162450905;1799;7356;765736;25;8180;1164029
0;73;1574462248910;1574462257559;8649;9951308754;13846623728;104512102;7105679;2214953191;217238198;161557035;1305;10197;1017800;-25;8650;1231198
0;74;1574462257559;1574462265281;7722;9983231654;13846617933;104203399;9159526;2214951867;217052034;161812605;1179;11281;1033512;7;7721;1100558
0;75;1574462265281;1574462273471;8190;10065985330;13846625633;104785323;14180850;2214953720;217705084;161829860;1783;10234;1056968;5;8190;1341346
0;76;1574462273471;1574462282012;8541;9950607662;13846620659;103011386;7417415;2214952779;216844834;162148896;1770;7474;865320;-10;8542;1230331
0;77;1574462282012;1574462290506;8494;10072454152;13846708411;107052165;14821645;2214981418;217861852;161888470;1445;10111;996312;3;8493;1209017
0;78;1574462290506;1574462297911;7405;10022730202;13846674331;106886651;11363274;2214970294;218098504;161502378;1146;10610;995584;5;7405;1056065
0;79;1574462297911;1574462305381;7470;9898551216;13846674488;101517313;4386284;2214969870;216330842;161264469;1561;10348;1100024;-5;7471;1156080
0;80;1574462305382;1574462314575;9193;10080726220;13846737914;106592112;15050573;2214991924;217965391;161742319;2013;8194;871944;3;9193;1313683
0;81;1574462314575;1574462322992;8417;9958172798;13846722868;105082104;7857506;2214986138;217148151;161567667;1324;10304;1013560;-5;8417;1200101
0;82;1574462322992;1574462330881;7889;10019819108;13846621848;105797387;11788857;2214952883;217123771;161834704;1623;10047;1014016;8;7890;1206532
0;83;1574462330881;1574462338214;7333;10053462764;13846618160;106431637;13573904;2214952243;217793884;161721759;1335;9747;1004328;11;7332;1042172
0;84;1574462338214;1574462353788;15574;9966027306;13846621895;103040358;8468751;2214952798;217020164;161624902;2823;15794;1720984;-117;15574;2104699
0;85;1574462353788;1574462361218;7430;10104086074;13846621048;108965710;16222591;2214952724;218578865;161574516;1286;9831;966248;191;7430;549706
1;37;1574462778722;1574462787600;8878;10104279378;13846739910;132963022;13976465;2214988826;218066508;163575159;1802;8285;868080;21;8879;1269601
1;38;1574462787600;1574462795861;8261;10028993748;13846827035;131631995;9496938;2215019678;217411156;165043128;1264;10765;1015984;-16;8261;1174525
1;39;1574462795861;1574462803393;7532;10120959294;13846822958;131777627;15271578;2215017203;218401003;163133999;1360;10004;995344;151;7532;1181379
1;40;1574462803393;1574462810534;7141;9959286048;13846706224;128407732;5727237;2214979561;216530371;163960213;1346;9234;994320;-153;7140;1051756
1;41;1574462810534;1574462820261;9727;10059752006;13846707165;128333542;11353009;2214978168;217694402;163352287;2110;9054;936168;4;9727;1389748
1;42;1574462820261;1574462828501;8240;10109817012;13846795404;130717567;14432259;2215009675;218498396;164024356;1281;10421;1001512;-1;8240;1174965
1;43;1574462828501;1574462835668;7167;10048016526;13846828325;127151847;10662264;2215018247;218102880;163229217;1520;9059;920848;-8;7167;1114372
1;44;1574462835668;1574462843591;7923;10064799664;13846768125;130340789;11751272;2215000546;217719771;164641506;1444;11222;1163992;-4;7923;1128256
1;45;1574462843591;1574462852474;8883;10072007392;13846707839;128703453;12130703;2214978037;217812817;163422292;1845;8688;877312;12;8884;1268511
1;46;1574462852475;1574462860544;8069;9966398292;13846727664;128082501;5586261;2214986969;216699794;164624237;1264;9773;988144;-13;8070;1148837
1;47;1574462860544;1574462869896;9352;10104119362;13846815558;129540975;13921452;2215014563;218358835;163676559;1862;12839;1221000;8;9352;1433735
1;48;1574462869896;1574462876820;6924;10114844376;13846702843;133164056;14680654;2214979148;218112968;164860039;1349;7168;827384;-4;6924;985752
1;49;1574462876821;1574462885682;8861;9990142418;13846823887;127451465;7476343;2215016192;216952045;163659900;1703;9153;928816;-7;8862;1260483
1;50;1574462885682;1574462893747;8065;10111744358;13846761995;132672558;14666914;2214998397;218185456;164274800;1226;10558;994928;23;8065;1155606
1;51;1574462893747;1574462902038;8291;9992526598;13846795858;127207244;7507063;2215007062;217028681;163130556;1740;11316;1077480;-14;8291;1332271
1;52;1574462902038;1574462908716;6678;10048803758;13846826825;130904111;10960945;2215019613;217432406;164027773;1344;6858;835056;0;6677;956435
1;53;1574462908716;1574462918167;9451;10121175228;13846831443;133190883;14633279;2215019068;218704630;163384636;1779;10339;1028544;13;9452;1354159
1;54;1574462918168;1574462932590;14422;10042953246;13846826697;130891188;10145550;2215019589;217839656;164521849;2763;16839;1832968;-127;14422;2013952
1;55;1574462932590;1574462940684;8094;10157317236;13846812203;132907395;17180768;2215012268;218291478;163863632;1984;7677;757136;132;8095;1036333
1;56;1574462940684;1574462947217;6533;10017461354;13846706324;135385701;7946142;2214979503;217396520;165131641;1125;7903;707264;-6;6532;932990
1;57;1574462947217;1574462954725;7508;10155071610;13846705578;132361515;17197717;2214977643;218555168;163039250;1105;10245;983784;-12;7508;1073025
1;58;1574462954725;1574462961480;6755;10029695278;13846704984;131391510;9123136;2214979371;217731640;164515589;1041;10629;1029792;157;6755;976207
1;59;1574462961480;1574462969174;7694;10160216212;13846710404;130348060;17471115;2214978691;218370846;163849857;2038;8367;947096;-147;7695;1253089
1;60;1574462969174;1574462975677;6503;10006391780;13846704743;128550836;7921385;2214979251;217330440;164430113;1254;5899;656728;-6;6503;931645
1;61;1574462975677;1574462984520;8843;10063211622;13846707798;128342623;11797604;2214978140;217343011;163623568;1375;11238;1044672;4;8843;1260419
1;62;1574462984521;1574462991601;7080;10052143946;13846703817;128830866;11124434;2214978906;217504064;164834522;1049;9599;940832;6;7080;1011972
1;63;1574462991601;1574462999675;8074;9987085762;13846739082;126864658;7054884;2214988201;217048014;163365733;1630;11401;1097520;3;8075;1253673
1;64;1574462999675;1574463013992;14317;10096111846;13846823687;131365232;13344375;2215019256;218387596;164210105;2780;13532;1522616;-14;14316;2030059
1;65;1574463013992;1574463021581;7589;10147828258;13846823667;130715386;16588073;2215017672;218834824;163356406;1196;9635;946664;-8;7590;1082001
1;66;1574463021581;1574463029582;8001;10131184842;13846709795;131775430;15489916;2214980903;219064911;164096007;2049;8772;966400;5;8001;1304767
1;67;1574463029582;1574463036674;7092;10040538990;13846705756;126276052;10793878;2214977578;217338849;163306486;1546;6877;639848;-8;7091;1005825
1;68;1574463036674;1574463043811;7137;10056195154;13846704204;130409636;11088478;2214979256;217601569;164578421;1645;6307;690480;18;7138;1379359
1;69;1574463043811;1574463054860;11049;10080545910;13846778776;132171806;12177230;2215001842;218461927;164170752;1797;11149;1199760;-19;11049;1576017
1;70;1574463054860;1574463070186;15326;10083852518;13846770823;135391410;12360713;2215001546;218076694;164933352;2677;16126;1748872;-96;15326;2087201
1;71;1574463070186;1574463078392;8206;10156624612;13846705315;130935400;17490738;2214977597;218070416;163353219;2209;8272;835200;105;8206;1068507
1;72;1574463078392;1574463084936;6544;10017521798;13846703820;130313636;8400625;2214979248;217670281;164468126;1403;6457;632584;5;6544;928731
1;73;1574463084936;1574463092878;7942;10161189740;13846708862;131176503;17528527;2214978331;218291486;163204584;1226;10245;939192;1;7942;1139191
1;74;1574463092878;1574463099474;6596;10049946354;13846704612;131125418;10021490;2214979638;218202494;164427544;974;9621;906064;-14;6596;940928
1;75;1574463099474;1574463106050;6576;9944461354;13846708104;126420722;4159578;2214977990;216499575;164261280;1512;9022;920072;6;6575;1114709
1;76;1574463106050;1574463114284;8234;10175065580;13846704200;136254772;18113371;2214979238;218531664;164220997;1597;9557;1045312;5;8235;1183202
1;77;1574463114285;1574463128312;14027;10141329506;13846798290;132574347;15868017;2215007932;218394510;163664055;2490;14896;1624568;-78;14028;1468714
1;78;1574463128312;1574463136293;7981;10160649978;13846824300;137666344;17223556;2215019290;218667357;164485104;2000;9667;924496;236;7978;567489
1;79;1574463136293;1574463143855;7562;10122191096;13846831759;132903620;15360805;2215018945;218123867;163658838;1822;7114;747032;-144;7563;1106150
1;80;1574463143855;1574463150074;6219;9954166120;13846787255;126842274;5045414;2215006576;216572891;163822049;1165;6858;669240;-12;6218;889402
1;81;1574463150074;1574463157275;7201;10099578762;13846734542;131534367;13613315;2214986386;217553959;163981132;1062;9676;903344;-6;7201;1030208
1;82;1574463157275;1574463164348;7073;10063915780;13846816227;132191760;11306796;2215016508;218198970;164043179;1061;11071;1072824;-2;7074;1009126
1;83;1574463164348;1574463170815;6467;9986362916;13846702037;126249386;7247975;2214977065;216938099;163531192;1461;10420;990984;14;6467;1057398
1;84;1574463170815;1574463178266;7451;10168526970;13846704305;132557481;17824183;2214979235;218655308;164653599;1531;6876;858432;6;7451;1066326
1;85;1574463178266;1574463186559;8293;10024573890;13847674763;130068956;8795779;2215270982;217881946;163379905;1380;9666;960744;-4;8293;1184545
1;86;1574463186559;1574463194250;7691;9980154850;13846743291;126623313;6631026;2214991854;216946664;164566208;1178;10467;1001376;6;7690;1094857
2;37;1574463620883;1574463629203;8320;10080644460;13846727606;114935817;12696327;2214981701;217749078;163642489;1655;8118;837720;8;8320;1190283
2;38;1574463629203;1574463637605;8402;10015502326;13846723473;107625170;9680179;2214980444;216381030;164287919;1250;11244;1041568;0;8402;1199313
2;39;1574463637605;1574463644565;6960;9997628714;13846728865;109804335;8421912;2214982037;216793135;163641915;1395;8482;912464;-11;6961;1059773
2;40;1574463644565;1574463652591;8026;10070168668;13846836266;110811110;12471607;2215018911;217358857;163738647;1385;10590;1086360;-6;8025;1134827
2;41;1574463652591;1574463662090;9499;10021399412;13846736870;112033146;8793841;2214985014;217202367;163888761;1872;9136;928488;16;9500;1355101
2;42;1574463662090;1574463670123;8033;10080669572;13846722054;111923130;12920442;2214980411;217597906;163786859;1201;9609;967952;-14;8033;1144454
2;43;1574463670123;1574463678622;8499;10080114188;13846802340;113645319;13014370;2215006993;217528014;163082810;1754;12081;1104352;14;8498;1334791
2;44;1574463678622;1574463685536;6914;10069350922;13846781751;113395357;11878388;2215000238;217367130;163547469;1351;7030;871760;-6;6914;983867
2;45;1574463685536;1574463697071;11535;10038187514;13846722502;112858984;10513765;2214980401;216823546;163400342;2097;13459;1293952;-17;11536;1647077
2;46;1574463697071;1574463704259;7188;10097222614;13847618569;113212707;13894075;2215249712;217933106;163503138;1178;9921;951272;9;7188;1026782
2;47;1574463704259;1574463711532;7273;10079311334;13846843657;116016361;13015996;2215020774;217429232;163412511;1632;9103;940400;-3;7273;1137092
2;48;1574463711532;1574463719601;8069;10082767884;13846836930;115251439;13483116;2215019280;217224877;163257506;1623;6158;728136;10;8068;1153877
2;49;1574463719601;1574463728617;9016;10033383530;13846721236;114631596;10209938;2214980460;216799919;163428274;1492;10279;1038072;-20;9017;1285678
2;50;1574463728617;1574463736097;7480;10018466856;13846791959;112752148;8796154;2215003214;217294306;163139898;1203;10700;991824;13;7479;1066759
2;51;1574463736097;1574463744076;7979;10022378196;13846815688;112087543;9462477;2215010988;216755444;163255973;1665;11955;1187112;-8;7980;1230586
2;52;1574463744077;1574463752158;8081;10036299442;13846768293;111392689;10230631;2214995814;217595865;163737160;1691;6442;759856;6;8081;1149660
2;53;1574463752158;1574463761058;8900;10075629360;13846780852;113832245;12909626;2214999712;217263788;163465328;1518;10569;1019520;17;8901;1272970
2;54;1574463761058;1574463768779;7721;10071295350;13846801945;111981499;12738866;2215007039;217286257;163758446;1239;10524;1022760;-22;7720;1103106
2;55;1574463768779;1574463776845;8066;10077383258;13846730824;113067725;12547511;2214982466;217594619;163164682;1718;10608;1116104;7;8066;1237827
2;56;1574463776845;1574463785416;8571;9972483718;13846730666;106716078;6507268;2214982913;216778172;163171328;1830;7058;798360;-6;8572;1229703
2;57;1574463785416;1574463794040;8624;10094046238;13846840320;113888967;13709218;2215020202;217609050;163917152;1404;10629;1014616;4;8624;1231834
2;58;1574463794040;1574463801701;7661;9996186818;13846728076;109106100;7776592;2214982381;216914650;163614921;1192;10653;1017136;159;7660;1128905
2;59;1574463801701;1574463809588;7887;10104070452;13846724637;114152556;14886925;2214980979;217379944;163673146;1852;10350;1116688;-143;7887;1213404
2;60;1574463809588;1574463817897;8309;10073135388;13846722503;112250290;12408467;2214980650;217754754;163542382;1815;7497;802904;-23;8310;1184612
2;61;1574463817898;1574463826174;8276;9979162634;13846723338;110043451;7202800;2214980537;216290561;163695715;1273;10451;1011672;11;8277;1180150
2;62;1574463826174;1574463834198;8024;10005003320;13846728001;107653263;8994188;2214981189;216070713;163752436;1693;9630;1008112;19;8024;1256112
2;63;1574463834199;1574463842512;8313;10058046580;13846757259;112766138;12390760;2214991748;216988197;163358215;1508;10697;1077696;-30;8314;1185307
2;64;1574463842512;1574463851446;8934;9977161120;13846821191;106937411;7580597;2215013418;216202302;163968748;1843;8747;879248;14;8934;1275959
2;65;1574463851446;1574463865245;13799;10083556284;13846725174;113233905;13177561;2214981115;217469963;163146999;2504;16229;1771072;60;13799;1544371
2;66;1574463865245;1574463872220;6975;10089220062;13846714603;109873460;14550624;2214978668;217215475;163039201;1934;6727;648264;-52;6975;1067626
2;67;1574463872220;1574463878690;6470;9971428722;13846724046;108501803;7036908;2214980701;216369641;163289310;1268;6550;657632;-20;6470;925066
2;68;1574463878690;1574463885956;7266;9986945748;13846817180;107636276;7935217;2215011730;216552234;163382714;1043;9323;904368;0;7266;1036107
2;69;1574463885956;1574463896766;10810;10092391328;13846768521;112025673;14235908;2214995381;217418636;163105074;1731;16820;1698424;120;10810;1519639
2;70;1574463896766;1574463904119;7353;10110279394;13846720255;109800594;15582874;2214979838;217342506;163837815;1801;6715;729352;-121;7352;1078078
2;71;1574463904119;1574463911126;7007;10034034544;13846722348;112057850;9955894;2214980531;217269255;163286957;1371;8116;764632;3;7008;998107
2;72;1574463911126;1574463917724;6598;10014104084;13846748420;108512311;9656271;2214988984;216530008;163214235;992;8740;819072;16;6598;943455
2;73;1574463917725;1574463924745;7020;9983365536;13846832039;107954935;8290787;2215016331;216214034;163309420;996;9264;912776;-4;7021;996329
2;74;1574463924745;1574463932435;7690;10048154496;13846720833;111570721;10983426;2214980170;217676446;163391209;1518;11745;1110920;-4;7689;1233626
2;75;1574463932435;1574463941356;8921;10041838974;13846725328;111827120;10931424;2214981224;216872212;163636844;1904;5193;804496;-13;8921;1362088
2;76;1574463941356;1574463951717;10361;10074139430;13846823096;111891322;12616142;2215013979;217497811;163875357;1778;12158;1138672;1;10361;1474551
2;77;1574463951717;1574463959237;7520;10025291188;13846754333;111558005;9538445;2214990834;217277229;163904641;1107;10212;982040;13;7521;1072266
2;78;1574463959237;1574463967384;8147;10021241732;13846720263;109437446;10116490;2214979690;216583601;164256025;1722;11282;1076632;0;8146;1284299
2;79;1574463967384;1574463974071;6687;10043028728;13846725960;113849438;10640213;2214981291;216874122;163483252;1210;6996;801480;6;6688;949901
2;80;1574463974071;1574463984067;9996;10016933272;13846721846;110866306;9090844;2214980289;217059425;163754187;1953;10700;1080752;-1;9996;1432007
2;81;1574463984067;1574463991858;7791;10093352154;13846751595;114027882;14504338;2214989964;217610380;163449074;1211;10140;989328;-20;7790;1116042
2;82;1574463991858;1574464000580;8722;10094463214;13846827037;111523381;13919255;2215015703;217661669;163717932;1823;11533;1093176;1;8723;1411806
2;83;1574464000580;1574464007751;7171;10001262216;13846720777;110077919;8670580;2214980171;216522327;162961111;1436;6954;828656;11;7171;1029532
2;84;1574464007751;1574464017011;9260;9971495444;13846835351;108345199;6538410;2215017929;216588138;163481759;1562;10467;1040560;8;9260;1322210
2;85;1574464017011;1574464024872;7861;10085868048;13846844865;114249699;13379057;2215020883;217574441;163288054;1213;10592;1012240;3;7860;1115896
2;86;1574464024872;1574464032994;8122;10017203810;13846755275;108557220;9297166;2214991167;217144026;163275602;1872;11693;1076624;2;8122;1292503
3;37;1574464461740;1574464468359;6619;10073685078;13846835019;112787785;14134105;2215016741;217473069;161748904;1037;8624;801328;11;6619;947838
3;38;1574464468359;1574464475131;6772;10018590226;13846833330;112478480;9938277;2215018229;218138505;161962567;951;9399;918616;9;6772;961929
3;39;1574464475131;1574464487247;12116;10026208506;13846823708;112984544;11083733;2215013877;217608941;161215146;2514;15624;1679680;-2;12116;1698293
3;40;1574464487247;1574464494077;6830;10057896492;13846705019;115635054;12219148;2214976814;218539985;162056183;1356;7055;690672;-12;6831;973418
3;41;1574464494077;1574464501721;7644;10109164100;13846716074;116519273;15567062;2214977151;218648808;161104372;1152;9986;941888;1;7643;1088623
3;42;1574464501721;1574464508440;6719;10026237268;13846710476;114036320;10237337;2214977786;218576745;161946004;1007;9739;903264;17;6719;953066
3;43;1574464508440;1574464519791;11351;10092193936;13846714626;115982278;14147256;2214977194;218769371;161519891;2626;10902;1309032;-15;11334;1417623
3;44;1574464519791;1574464527192;7401;10111494552;13846712030;114269234;15790272;2214978058;218592419;162450647;1385;8210;776384;-9;7401;1053648
3;45;1574464527192;1574464533997;6805;10047855050;13846715705;115080139;11519921;2214977105;218737906;161063399;1021;9595;854840;19;6805;977816
3;46;1574464533998;1574464541231;7233;10088936238;13846711355;116952262;14191505;2214978109;218501037;162212003;1083;10934;1041168;6;7234;1035242
3;47;1574464541232;1574464548367;7135;10029196688;13846716639;112769134;11150024;2214977148;218005438;161546514;1419;9154;1083264;-13;7136;1074560
3;48;1574464548367;1574464555164;6797;10055148772;13846705606;113720286;12300837;2214976970;218448895;162455642;1403;5861;594792;4;6797;972414
3;49;1574464555164;1574464563713;8549;10040385252;13846825965;113814477;11448300;2215013918;218125845;161693261;1366;9980;971760;-14;8548;1216224
3;50;1574464563713;1574464571326;7613;10044737366;13846711799;112592226;11449269;2214978058;218264461;162015269;1143;10601;1013192;9;7614;1085883
3;51;1574464571326;1574464583953;12627;10100082170;13846809776;115245650;14938223;2215008334;218729527;161874478;2411;14947;1618768;-17;12627;1801015
3;52;1574464583954;1574464591470;7516;10081115602;13846751761;111708279;14375703;2214991837;217789159;162427100;1533;7804;759632;3;7516;1075075
3;53;1574464591470;1574464598002;6532;9968515146;13846715385;111115998;7099435;2214977083;217493524;161556163;1022;8834;786488;8;6532;929673
3;54;1574464598002;1574464609832;11830;10128301342;13846712743;113882490;16778498;2214978011;218682510;162059189;2196;14031;1615544;-111;11831;1730657
3;55;1574464609832;1574464617184;7352;10139379384;13846721862;113956145;17727431;2214978463;218244213;161716144;1746;6987;665680;115;7352;893306
3;56;1574464617184;1574464624378;7194;10042188644;13846713084;113020175;11409675;2214978393;218305835;162165848;1238;8777;794848;10;7194;1024275
3;57;1574464624378;1574464631435;7057;10120671382;13846710355;113764501;15736108;2214975954;218823306;161846626;1008;9653;914432;-16;7056;1004665
3;58;1574464631435;1574464638769;7334;10032246774;13846712523;112411262;10462468;2214978066;218339416;161631948;1441;10732;1054880;137;7334;1144314
3;59;1574464638769;1574464645565;6796;10048910776;13846813597;112719269;12333734;2215009649;218076336;161467905;1432;7729;889704;-131;6797;997085
3;60;1574464645565;1574464653098;7533;10089932980;13846747997;115165144;14204814;2214990037;218608143;162420698;1439;7077;757320;1;7533;1081068
3;61;1574464653098;1574464661352;8254;9974499394;13846713091;112274140;7793654;2214976525;217481309;161655782;1242;10890;1006792;6;8253;1180404
3;62;1574464661352;1574464674647;13295;10106809120;13846721033;115152498;15709208;2214980175;218382340;162322181;2436;16510;1765424;-23;13295;1854213
3;63;1574464674647;1574464682291;7644;10121594686;13846714749;115468486;16157282;2214976961;218875570;161670769;1686;7195;711224;13;7644;1094387
3;64;1574464682291;1574464688986;6695;9998887380;13846730679;112427589;8954423;2214984365;217454165;161821258;1075;8865;779376;14;6695;951554
3;65;1574464688986;1574464696019;7033;10091632858;13846832295;113897643;14624136;2215016190;218900447;161482312;994;9663;918992;-1;7033;1000601
3;66;1574464696019;1574464702997;6978;10011122618;13846706369;112502017;9365848;2214976948;218303074;162354879;1495;9560;937408;-3;6978;1123675
3;67;1574464702997;1574464710281;7284;10101215276;13846716651;111918698;15424141;2214977453;218316560;161670939;1356;8647;994136;-12;7285;1044634
3;68;1574464710281;1574464723948;13667;10101667730;13846805056;112633283;15272919;2215009345;218650895;161875730;2731;14184;1453784;2;13666;1898126
3;69;1574464723948;1574464731185;7237;10048262098;13846835859;111708063;12011110;2215016828;217914236;162053895;1454;4968;612896;-1;7238;1036341
3;70;1574464731185;1574464738742;7557;9937225740;13846771783;111715010;5729797;2214998054;216859505;162124584;1471;8916;815984;19;7556;1086352
3;71;1574464738742;1574464745989;7247;10067043100;13846714042;111718382;13287455;2214976849;217547665;162216093;1078;10880;1019432;-21;7248;1034728
3;72;1574464745989;1574464753245;7256;10078539870;13846713183;113682000;13906099;2214978352;218329826;161869146;1092;11349;1108480;-2;7255;1032799
3;73;1574464753245;1574464760191;6946;10010276402;13846734617;112840949;9676399;2214982935;217732544;161498272;1634;8931;1029720;-2;6946;1106254
3;74;1574464760191;1574464768001;7810;10084512876;13846830389;116204680;13975115;2215017894;218566809;162319318;1644;7074;730344;19;7811;1110870
3;75;1574464768001;1574464776801;8800;10007951060;13846712466;114743616;9132478;2214976801;218067879;161882495;1375;10945;1038760;2;8800;1252850
3;76;1574464776801;1574464784519;7718;10011220438;13846711283;114588062;9656179;2214977792;217554897;161799841;1149;10943;1013048;4;7718;1102755
3;77;1574464784519;1574464792305;7786;10077313470;13846716573;117029990;13522227;2214977322;218209947;161549322;1633;10436;1080680;-26;7786;1257377
3;78;1574464792305;1574464800865;8560;9977609486;13846826586;114762983;8135168;2215016995;217392674;161723299;1783;7076;826168;13;8560;1221657
3;79;1574464800865;1574464809595;8730;10043745442;13846778316;116881423;11727837;2214997929;218232473;161990054;1369;10862;1039632;7;8730;1249305
3;80;1574464809596;1574464817400;7804;10035467680;13847157475;115165012;11626742;2215140233;217859624;162123023;1289;11014;1045312;136;7804;1116865
3;81;1574464817400;1574464824683;7283;9986667034;13846740464;114520442;7859855;2214985260;217870658;161333588;1760;9533;1059648;-133;7283;1150845
3;82;1574464824683;1574464833383;8700;10015778266;13846723158;114276485;10005086;2214981902;217970266;161745273;1820;7498;814368;4;8701;1242913
3;83;1574464833384;1574464842130;8746;10024513300;13846828465;116419546;10509793;2215015767;218095298;161499021;1372;10335;1007448;-28;8747;1242445
3;84;1574464842130;1574464849526;7396;10072971868;13848278453;116327263;13212476;2215450666;218473394;162532646;1363;9567;937960;149;7395;1136438
3;85;1574464849526;1574464857364;7838;9969529116;13846747437;111093104;7498262;2214987795;217398087;161296372;1606;10506;1082456;-125;7839;1192142
3;86;1574464857364;1574464867176;9812;10044913588;13846710041;114834849;11703575;2214977859;218259415;161850565;2113;9028;943128;0;9812;1399370
4;37;1574465291677;1574465298827;7150;10037192086;13846554364;105758351;13047440;2214967884;217700083;162932201;1466;7198;744496;6;7149;1025548
4;38;1574465298827;1574465306907;8080;10019408702;13846646849;104346973;12359050;2214998523;217295327;162082243;1194;10288;984904;-5;8080;1150153
4;39;1574465306907;1574465314287;7380;9944331998;13846635132;99771708;7996176;2214995571;216069354;162597069;1082;10694;992880;17;7380;1054724
4;40;1574465314287;1574465322582;8295;9978275246;13846518301;102497070;9929282;2214956734;216728095;162103686;1850;11602;1139272;-10;8295;1340780
4;41;1574465322582;1574465330947;8365;9990210454;13846523569;104211023;10521349;2214957744;217361802;163171677;1722;6732;802400;6;8365;1206049
4;42;1574465330947;1574465339674;8727;10026970918;13846525882;104698977;12666870;2214958524;217351466;162384294;1446;10188;1017904;-6;8728;1240239
4;43;1574465339674;1574465347708;8034;10034644240;13846599829;104272120;13508592;2214983027;217358149;163256416;1434;10451;1038504;172;8034;1211120
4;44;1574465347709;1574465355192;7483;9993315290;13846583966;101037021;10521065;2214978210;216975509;162260417;1562;10230;1066856;-159;7483;1129771
4;45;1574465355192;1574465369979;14787;10071006562;13846528382;102207781;16017108;2214959562;216969529;162962579;2852;14857;1541040;-23;14787;2030156
4;46;1574465369979;1574465377046;7067;10024067708;13846553572;104901948;12656766;2214967431;217544011;162411138;1156;9733;920776;7;7067;1004212
4;47;1574465377046;1574465384725;7679;10088641610;13846641012;102276352;16843175;2214996956;217041802;162937229;1898;8006;916928;-8;7680;1251437
4;48;1574465384726;1574465395077;10351;9999876968;13846639037;100753410;11557907;2214996886;216984234;162349457;1952;10276;1054808;2;10352;1446316
4;49;1574465395077;1574465402551;7474;10081748804;13846526365;102653966;16854367;2214958805;217197438;163386005;1205;10093;927416;15;7473;1066591
4;50;1574465402551;1574465409006;6455;9930572958;13846521792;100587764;6721796;2214957393;216280654;162484011;1024;9675;913688;0;6455;919705
4;51;1574465409006;1574465416510;7504;10078575056;13846607812;106061168;15617551;2214986122;217276461;162592250;1829;8733;996744;2;7504;1145946
4;52;1574465416510;1574465423328;6818;9985529256;13846573155;104852709;10315099;2214974339;216950618;162541749;1321;5957;639464;-9;6819;974979
4;53;1574465423328;1574465431070;7742;9947760662;13846519016;102513075;7834017;2214956818;216511379;163041021;1269;9873;886760;15;7742;1105552
4;54;1574465431071;1574465444494;13423;10095437326;13846520874;104712995;16934419;2214957384;217411834;162242702;2471;15836;1766552;-27;13418;1429503
4;55;1574465444494;1574465451292;6798;10006474270;13846549815;100622145;12003011;2214966158;217268448;162843127;1619;6523;609832;13;6797;971510
4;56;1574465451292;1574465457956;6664;9945248732;13846639083;99225220;8139968;2214995916;216322104;162019989;1140;7928;734504;13;6665;946400
4;57;1574465457956;1574465469879;11923;10076307092;13846515434;104593604;14744402;2214956103;217403570;162449206;2328;14117;1660848;-144;11739;1426436
4;58;1574465469879;1574465477439;7560;10110273262;13846524981;106095316;17589455;2214958092;217329362;162260475;2977;8034;864560;123;7057;610272
4;59;1574465477439;1574465484223;6784;9999519414;13846521029;102555137;10690119;2214957242;217361429;162496197;1404;7011;667568;3;6784;970856
4;60;1574465484223;1574465491305;7082;10064427802;13846605312;103773192;15499257;2214984750;216894175;162533029;1079;9164;851544;9;7082;1003909
4;61;1574465491305;1574465497884;6579;9969072428;13846575664;101447658;9223930;2214975553;216886872;162427990;982;8842;868512;-14;6580;940592
4;62;1574465497885;1574465504779;6894;9985860238;13846524074;102027743;9961890;2214958057;216632051;162661994;969;10381;978752;154;6894;1017918
4;63;1574465504779;1574465512120;7341;10064473500;13846520621;103560068;15104980;2214957160;217609873;162780435;1609;9624;1059304;-134;7341;1151769
4;64;1574465512120;1574465519922;7802;10006074814;13846520404;104018802;11478222;2214957480;217355254;162328128;1639;7070;749480;-7;7802;1114618
4;65;1574465519922;1574465534173;14251;10056417512;13846514419;102088406;14816045;2214955858;216935310;162611688;2142;17207;1823344;-97;14252;1627251
4;66;1574465534174;1574465541737;7563;10035746978;13846527468;103716072;13226292;2214958917;217144390;162209869;1937;7767;781624;89;7563;1009432
4;67;1574465541737;1574465548178;6441;9946794434;13846520802;102358070;7705181;2214957234;216543048;162948281;1354;6485;627360;-10;6441;918432
4;68;1574465548178;1574465555915;7737;10090135628;13846520369;103124694;16941319;2214957009;216965884;162934451;1233;10539;964160;16;7737;1109169
4;69;1574465555915;1574465564832;8917;9978765368;13846524291;102700192;9620940;2214957895;217198946;163010481;1756;11731;1136440;10;8917;1517323
4;70;1574465564832;1574465572151;7319;10090876870;13846522597;104324880;16723259;2214957503;217022909;162645403;1344;5126;712152;4;7319;1044119
4;71;1574465572151;1574465581557;9406;9998687360;13846521716;103850871;10748922;2214957367;217361422;162962002;1728;10014;1005576;-30;9407;1347343
4;72;1574465581557;1574465589301;7744;9916180716;13846551335;98784853;6314355;2214966775;215990077;161860378;1152;10249;977160;1;7743;1096692
4;73;1574465589301;1574465597923;8622;10016663026;13846627647;102701980;12167336;2214992480;216592119;162837204;1779;12039;1122192;0;8622;1331229
4;74;1574465597923;1574465605320;7397;9990088252;13846533862;103561918;10679275;2214960145;217086392;162230522;1541;6965;823904;29;7397;1054392
4;75;1574465605320;1574465614392;9072;9942895212;13846678485;99684082;8221390;2215010473;216288498;162818001;1537;10180;1016352;-1;9072;1293338
4;76;1574465614392;1574465622137;7745;10080893974;13846544881;105147336;16092231;2214964467;217223277;162197584;1169;10757;1024368;-17;7746;1105477
4;77;1574465622138;1574465629768;7630;9984023266;13846521907;102344386;10235781;2214957349;217201887;162798152;1672;11111;1053616;4;7630;1246417
4;78;1574465629768;1574465637759;7991;9915168644;13846594680;100642372;5923069;2214981577;216155558;162032144;1583;6949;843520;-9;7992;1143592
4;79;1574465637759;1574465646939;9180;10023107174;13846642484;102305989;12972686;2214996972;216689337;162953234;1511;10582;1038232;-6;9180;1307135
4;80;1574465646939;1574465654415;7476;9998815256;13846604559;103675656;11364441;2214984736;217233750;162767642;1140;10227;993416;12;7475;1065621
4;81;1574465654415;1574465662622;8207;9944660936;13846546326;99043333;8184247;2214965558;216421881;162438358;1797;12197;1149664;-9;8207;1285579
4;82;1574465662622;1574465670500;7878;10107317638;13846628254;104412390;17824292;2214993253;217492844;162066861;1649;6328;781488;16;7878;1121610
4;83;1574465670500;1574465679574;9074;9958335880;13846514711;100146517;8771129;2214955809;216682825;162422452;1526;10240;1013168;10;9074;1292573
4;84;1574465679574;1574465687196;7622;9933516464;13846523291;99132920;7006529;2214957335;216035207;161823898;1222;10666;1017752;-5;7622;1090081
4;85;1574465687196;1574465694948;7752;10080466632;13846619324;102382271;16513341;2214989934;217181894;163028729;1611;10603;1089640;-22;7752;1225161
4;86;1574465694948;1574465703532;8584;9943439792;13846559461;98110032;7820431;2214969698;216611294;162168993;1780;7416;844808;13;8584;1234812
