0;3;1573352716452;1573352737680;21228;10067761566;13849208051;112025895;11343870;2215357929;219090261;162901686;3373;10830;3056744;21;21228;3013007
0;4;1573352737680;1573352745565;7885;10073493526;13849209354;112949464;11854988;2215360079;218920530;163062540;1059;6809;1212688;-4;7885;1126246
0;5;1573352745565;1573352753741;8176;10059318970;13849319219;111988922;10976726;2215396152;218690208;163182593;1412;5894;1207384;-3;8176;1281204
0;6;1573352753741;1573352770779;17038;10040617976;13849219666;106646803;10569984;2215363244;218893330;161844292;2679;9994;2367960;-21;17038;2434562
0;7;1573352770779;1573352782834;12055;9952588882;13849297150;102480683;6897130;2215387022;217125650;162484865;1857;8241;1800872;4;12056;1846150
0;8;1573352782835;1573352792860;10025;10025391636;13849249405;106790486;9698841;2215373139;218561569;162690100;1499;9980;1323472;4;10025;1433560
0;9;1573352792860;1573352808490;15630;10063916656;13849203350;107787404;11754099;2215357526;219013864;162450025;2443;9855;2135256;21;15630;2237426
0;10;1573352808490;1573352821908;13418;10032669006;13849208592;107734429;10339382;2215358929;218581135;162483670;1993;10077;2186072;-30;13418;2045552
0;11;1573352821908;1573352836767;14859;10015185360;13849205839;108478601;9571795;2215356862;218121394;161781892;2638;10196;1820672;20;14859;2129068
0;12;1573352836767;1573352849493;12726;10058890752;13849201539;109499113;11211196;2215358771;219231950;162402724;1988;9156;1864640;3;12726;1933885
0;13;1573352849493;1573352863067;13574;10038695156;13848148932;111194874;10969103;2215199468;219529218;162433951;2130;8128;1879304;-15;13575;1939604
0;14;1573352863068;1573352884436;21368;10034399836;13847741859;107357181;10851550;2215140868;219017984;162405758;3501;13510;2994512;-2;21368;3099013
0;15;1573352884436;1573352894248;9812;10038944378;13847605285;104972518;11364926;2215114770;218729166;162768473;1337;6958;1441256;8;9812;1406027
0;16;1573352894248;1573352908129;13881;10042462540;13847599981;107495955;11161329;2215115599;219053816;162112720;2029;10714;2235304;5;13881;2103436
0;17;1573352908129;1573352920793;12664;9969253322;13847622873;101297331;8380612;2215117590;217595022;162332960;1880;9188;2002072;-4;12664;1829149
0;18;1573352920793;1573352931762;10969;10039461802;13847593545;106217660;11085072;2215114184;218787972;162417573;1973;9526;1201112;11;10969;1564318
0;19;1573352931762;1573352946317;14555;10036939068;13847637812;106639585;10673139;2215121816;219172743;162232350;2082;10350;2143760;-17;14555;2154059
0;20;1573352946317;1573352959572;13255;10006712688;13847597173;104509526;9687825;2215118318;218339488;162097611;2042;9101;1925648;7;13255;1894355
0;21;1573352959572;1573352973807;14235;9984213066;13847693907;104953424;8709071;2215149580;217874181;162079275;2431;9903;1940008;-7;14235;2132570
0;22;1573352973807;1573352985346;11539;10006118760;13847712347;105635744;8885211;2215140062;218750142;162632046;1591;9502;1726728;9;11539;1639423
0;23;1573352985346;1573353000535;15189;10048632792;13847686577;105887874;11386784;2215146169;219264407;162185431;2408;9253;2046888;-7;15190;2176390
0;24;1573353000536;1573353025093;24557;10033506170;13847644819;106339110;10762585;2215137343;218781936;162409538;3816;14709;3695840;-6;24557;3632202
0;25;1573353025093;1573353033367;8274;10037615194;13846923016;115219884;11139949;2215007880;218191453;162387456;1254;4720;1240280;-6;8274;1180049
0;26;1573353033367;1573353047439;14072;10046233866;13846708905;116430287;10678158;2214970311;219128531;162358846;2136;10374;2128352;24;14072;2151219
0;27;1573353047439;1573353062797;15358;9944454492;13846724437;112142494;6074899;2214971213;217252297;161777567;2535;8839;2061752;-7;15358;2194701
0;28;1573353062797;1573353073551;10754;10032108512;13846648184;113287345;10712374;2214962991;218445274;162011549;1828;10369;1396176;7;10755;1606507
0;29;1573353073552;1573353087981;14429;10041303592;13846740104;112443819;10729798;2214991687;219106378;161959633;2297;8780;1934680;-24;14429;2066973
0;30;1573353087981;1573353102978;14997;9996217916;13846636332;112748388;8207179;2214957549;218395238;162063496;2449;10136;2200584;4;14997;2231305
0;31;1573353102978;1573353113435;10457;10024008140;13846628837;117908066;9706594;2214954306;218586393;162814531;1600;9895;1433464;7;10457;1490420
0;32;1573353113435;1573353128528;15093;10046323218;13846623916;118707180;10782825;2214955237;219017112;161619811;2336;9511;2045360;4;15094;2160217
0;33;1573353128528;1573353142095;13567;9984443308;13846706595;113611244;7789748;2214980363;218068447;162072194;2169;10191;2132568;-1;13566;2099525
0;34;1573353142095;1573353157150;15055;9980611830;13846695910;111489557;8331171;2214978996;217764587;161918942;2463;9077;1998664;3;15055;2161399
0;35;1573353157150;1573353169109;11959;10037605266;13846624355;113339589;10612628;2214953435;219009997;162021781;2042;9629;1669672;-2;11959;1839567
0;36;1573353169109;1573353183591;14482;10041623478;13846624564;116133649;10553330;2214955346;219167626;161869102;2159;9393;2068232;-15;14482;2066884
0;37;1573353183591;1573353199284;15693;9976058820;13846620204;114117721;7819207;2214952584;217868388;162069848;2673;10011;2194200;29;15693;2323804
0;38;1573353199284;1573353208439;9155;10009208704;13846620154;114568638;8677773;2214954483;218663691;161583771;1723;8658;1020552;-18;9156;1493315
0;39;1573353208440;1573353226386;17946;10036212718;13846625289;116067370;10232920;2214953808;218847222;162158860;2888;10260;2203832;12;17947;2573085
0;40;1573353226386;1573353240685;14299;9999093386;13846624379;113646098;8804988;2214955207;218271993;161980715;2186;10426;2203768;-1;14298;2172953
0;41;1573353240685;1573353250876;10191;10015997704;13846623898;115450004;9932845;2214953213;218192059;161738679;1745;9360;1391736;-10;10191;1459608
0;42;1573353250876;1573353265397;14521;10048967278;13846624319;117832821;10732065;2214955283;219152467;161724930;2209;9038;1904088;-1;14521;2077291
0;43;1573353265397;1573353279034;13637;10032941296;13846625868;113587042;10139998;2214953722;218994094;162553288;2086;10225;2103064;0;13638;2037091
0;44;1573353279035;1573353293884;14849;9952232934;13846625268;111081628;6567250;2214955510;217494716;161949015;2470;8615;1957832;-2;14849;2126094
0;45;1573353293884;1573353305366;11482;10036615386;13846622214;113109166;10766904;2214952849;218641123;162190116;2072;10496;1498528;-4;11482;1766579
0;46;1573353305366;1573353319993;14627;10049115176;13846628264;117302460;10960606;2214956756;219217390;162138032;2275;9057;2051416;-3;14627;2085605
0;47;1573353319993;1573353335204;15211;9994567532;13846742638;113184425;8681288;2214992919;218264582;161927178;2472;10147;2150208;14;15212;2309171
0;48;1573353335205;1573353354306;19101;10015643800;13846635905;115998383;9527656;2214958622;218468150;161787271;2830;11938;2856424;-6;19101;2727685
0;49;1573353354306;1573353364231;9925;10041630924;13846629078;114205614;10881795;2214954280;218763444;162901634;1881;6255;1284344;-9;9925;1530873
0;50;1573353364231;1573353377821;13590;10007724176;13846627346;113788942;9123239;2214955690;218437638;161886814;1779;9614;2172840;13;13590;1945356
0;51;1573353377821;1573353391460;13639;9994097120;13846625911;113789957;8419720;2214953815;218197408;161852604;2301;10841;1652432;3;13639;1955234
0;52;1573353391460;1573353404872;13412;10008770996;13846623319;115134890;9141001;2214954863;218240903;161789873;2112;10060;2065712;-9;13412;2004944
1;4;1573353579374;1573353586613;7239;10043164070;13849270639;106400428;10132427;2215375875;218188796;163383289;1602;4470;831432;-17;7239;1030628
1;5;1573353586613;1573353598434;11821;10024294154;13849268628;107160119;8726977;2215375945;218139253;163181888;1681;11591;1610512;13;11821;1694796
1;6;1573353598434;1573353609655;11221;10083265598;13849260953;107651012;11776447;2215373034;219022047;163099022;1708;8867;1810808;-17;11221;1702483
1;7;1573353609655;1573353628970;19315;10039462094;13849359931;109201250;9539166;2215405877;218472379;163670148;3073;12120;2578608;0;19315;2757375
1;8;1573353628970;1573353645000;16030;10085967912;13849382250;106587833;11956140;2215413353;218868892;163998827;2655;10734;2224352;5;16030;2227613
1;9;1573353645000;1573353652821;7821;10045070684;13849315770;110070166;9172205;2215391918;218838238;163572533;1273;5126;1087856;7;7822;1113856
1;10;1573353652821;1573353666564;13743;10072187556;13849255767;109459776;11030742;2215372376;218911505;163775270;2019;10404;2177744;-12;13743;2076888
1;11;1573353666564;1573353680050;13486;10058756724;13849295499;108453176;10672137;2215384280;218593164;163719929;1893;8774;2050536;2;13485;1932855
1;12;1573353680050;1573353694901;14851;10009843074;13849377778;106648760;8702389;2215412471;217770873;163268830;2498;10534;1884560;25;14851;2169186
1;13;1573353694901;1573353705466;10565;10060184896;13848247736;110848025;11246567;2215230220;219194731;164177810;1501;8642;1421768;4;10565;1504210
1;14;1573353705466;1573353720665;15199;10048958956;13847796125;107339589;10164405;2215155330;218888528;163222483;2479;9310;2024200;-15;15199;2176894
1;15;1573353720665;1573353741505;20840;10062773914;13847658759;107951473;11274562;2215131147;218704700;163666152;3303;14446;3175104;-11;20841;2989501
1;16;1573353741505;1573353750214;8709;10067085148;13847708487;107381631;11634691;2215147312;218653987;163412722;1368;5614;1142176;26;8708;1251018
1;17;1573353750214;1573353764556;14342;10070299338;13847753712;110977225;11141932;2215158867;219124466;164043806;2127;10360;2130264;-9;14342;2121564
1;18;1573353764556;1573353779648;15092;10017508658;13847713963;108520524;9116294;2215150841;218206017;163064290;2338;8925;2033168;5;15092;2159159
1;19;1573353779648;1573353791391;11743;10035577764;13847683718;107022290;10386826;2215136129;218311578;163637807;2111;11884;1543584;-23;11743;1748118
1;20;1573353791391;1573353804847;13456;10053065206;13847639015;106315110;10485928;2215128299;218938285;162992889;2297;7546;1877184;10;13456;2014185
1;21;1573353804847;1573353819341;14494;9990791680;13847633491;103432252;7901429;2215127294;217615972;162763941;2054;9951;2080280;6;14494;2074460
1;22;1573353819341;1573353830780;11439;10003451486;13847780870;102605627;8960790;2215157655;217938889;162513700;1808;10267;1675096;-3;11439;1747514
1;23;1573353830780;1573353847438;16658;10051503590;13847641821;106966773;10476151;2215128846;218756156;163112219;2281;9387;2669456;-7;16658;2378516
1;24;1573353847438;1573353860713;13275;10069047972;13847670700;107387761;11282956;2215142667;219029528;163760301;2279;8904;1689720;129;13275;1973015
1;25;1573353860713;1573353874429;13716;9988513496;13846978089;103733797;7135973;2215024627;218028563;162472197;1983;10760;2117632;-121;13716;1964440
1;26;1573353874429;1573353885016;10587;10025111024;13846825788;106692953;8908293;2215005528;218414165;162816588;1963;8807;1105488;-10;10587;1514853
1;27;1573353885016;1573353899180;14164;10048024848;13846864079;109247572;9663632;2215015203;218910720;163381331;2049;10574;2175952;-4;14164;2107547
1;28;1573353899180;1573353913904;14724;10023787826;13846709857;105761192;9216457;2214979652;218490450;162756378;2359;8967;2043512;9;14725;2098478
1;29;1573353913905;1573353927613;13708;10024578708;13846756835;105143542;9554393;2214995009;217932027;162809740;2229;11863;1908448;-10;13708;2059578
1;30;1573353927613;1573353940682;13069;10035670766;13846794503;104288865;9750338;2215008895;218576107;163301399;2111;7096;1760120;2;13070;1866981
1;31;1573353940683;1573353954958;14275;10047489612;13846697915;106588771;10105874;2214974907;218729410;163074769;2163;9520;2028000;146;14276;2141991
1;32;1573353954959;1573353967737;12778;9967261882;13846693677;104222935;6137726;2214972353;217522575;162461679;1918;11196;2001800;-134;12778;1855218
1;33;1573353967737;1573353979600;11863;10068939348;13846680326;109685495;11187619;2214970373;218958077;163526241;2169;8351;1366672;7;11863;1694761
1;34;1573353979600;1573353993822;14222;10055188338;13846749598;106751419;10129883;2214992783;219222979;162873686;2170;9821;2095760;-24;14222;2092604
1;35;1573353993822;1573354008638;14816;10027510534;13846756293;105500948;9507250;2214995161;218366430;163385880;2383;8910;1983848;18;14816;2111027
1;36;1573354008638;1573354021598;12960;10025382730;13846714015;104111478;9704498;2214980751;218057800;163255325;2304;12244;1728128;-8;12960;1916773
1;37;1573354021598;1573354045897;24299;10030692312;13846803772;104657454;9524785;2215010731;218223221;163438536;3671;12897;3579520;12;24299;3483138
1;38;1573354045897;1573354054051;8154;9981570466;13846793890;103389206;7651028;2215008607;217542034;162713846;1376;5169;1359448;0;8155;1267390
1;39;1573354054051;1573354076327;22276;10054124728;13846687734;105704832;10637163;2214972130;218797918;163343497;3352;13964;3020880;8;22275;3192924
1;40;1573354076327;1573354084339;8012;10050697670;13846682278;104633256;10529798;2214970476;218909983;163738674;1345;5143;1394240;-26;8012;1242176
1;41;1573354084339;1573354098389;14050;10034211204;13846686384;104220779;10250820;2214971449;218278100;163095760;2356;7544;1817824;21;14051;2187007
1;42;1573354098389;1573354113569;15180;10015940910;13846750374;103682115;9345483;2214993506;218118771;162698000;2573;11560;1788752;-4;15179;2177793
1;43;1573354113569;1573354125114;11545;10060762472;13846751543;106367058;10933023;2214993260;218931640;163760701;1558;9467;1660592;10;11545;1646356
1;44;1573354125114;1573354138078;12964;10062534036;13846681687;106357559;10541405;2214970429;219348253;163006002;1911;9886;2058784;0;12964;1925286
1;45;1573354138078;1573354154629;16551;9958594884;13846682846;104222015;6056922;2214970463;217230270;162703645;2830;9298;2174696;-3;16551;2368128
1;46;1573354154629;1573354164840;10211;10063834312;13846681415;106387026;11227145;2214970177;218884219;162732787;1839;9566;1272864;-19;10211;1542373
1;47;1573354164840;1573354179916;15076;10065639602;13846679161;109256310;10591129;2214970274;219321511;162797102;2428;8655;1930760;4;15077;2159344
1;48;1573354179917;1573354194258;14341;10002018934;13846682686;105884818;8283922;2214970394;217958205;162585867;2257;10582;2211456;10;14341;2120348
1;49;1573354194258;1573354205037;10779;10037560736;13846681113;107709876;9662879;2214970758;218605966;163057069;1876;10146;1400224;-18;10779;1543626
1;50;1573354205037;1573354216544;11507;10055924032;13846761577;108607291;10197263;2214997118;219019368;163175229;1814;10372;1427520;10;11507;1642134
1;51;1573354216544;1573354228971;12427;10022416740;13846741568;107206096;7923133;2214990295;218922888;163291701;1954;8782;1737712;-13;12427;1853546
1;52;1573354228971;1573354243423;14452;10000087792;13846681844;105467847;8290656;2214970487;217801087;162397942;2256;8766;2055944;16;14453;2071808
1;53;1573354243424;1573354254262;10838;10056987204;13846712901;105824451;10776199;2214980526;218639083;163309970;2013;10343;1303568;0;10838;1654907
2;3;1573354408274;1573354426504;18230;10069779870;13849174530;98259417;11547747;2215350634;218003526;164371422;2390;12535;2703880;-21;18231;2720828
2;4;1573354426504;1573354442081;15577;10089738654;13849171470;97992251;12427201;2215351910;218176753;163576192;2703;9840;1978904;12;15577;2198500
2;5;1573354442081;1573354450589;8508;10076817654;13849166798;95239854;12183461;2215349194;218010565;163704482;1507;5844;1236928;-8;8507;1334119
2;6;1573354450589;1573354473774;23185;10078671124;13849169234;97550450;12418952;2215351611;217747413;165358210;3264;15317;3366968;-26;23186;3319091
2;7;1573354473775;1573354484938;11163;10077383988;13849169642;95214465;12054180;2215349935;218163373;164203508;2167;7107;1490960;36;11164;1616036
2;8;1573354484938;1573354492914;7976;10069894188;13849254042;93857654;11763484;2215379140;217764733;164482590;1292;4761;1047016;-12;7975;1136890
2;9;1573354492914;1573354505353;12439;10028622616;13849224552;96349819;9061715;2215368582;217689229;164791839;1604;9473;1845856;-3;12439;1772839
2;10;1573354505353;1573354518408;13055;10066431944;13849169624;96075312;11336499;2215351710;218078849;163954159;1999;10422;2169208;9;13055;1986352
2;11;1573354518408;1573354533690;15282;10025329586;13849199743;95042234;9354483;2215360148;217324006;163699031;2508;8847;2063376;-12;15282;2188286
2;12;1573354533690;1573354545186;11496;10048700244;13849284073;94310024;10885102;2215390441;217675132;164373444;2129;10882;1431160;22;11496;1767937
2;13;1573354545186;1573354559292;14106;10060134088;13848153663;96691183;11784988;2215206249;218148220;164736955;2155;8111;1928032;-3;14107;2016950
2;14;1573354559292;1573354584939;25647;10055169796;13847703295;94674999;10428842;2215133540;218164637;163659367;4116;16988;3959272;4;25646;3569370
2;15;1573354584939;1573354592830;7891;10063848474;13847567710;96327577;11325195;2215107851;217976082;163814621;1415;4816;897896;-6;7892;1124940
2;16;1573354592830;1573354603761;10931;10067476720;13847654498;97283802;11419329;2215138686;218128177;164297114;1828;7618;1578456;130;10930;1657401
2;17;1573354603761;1573354617188;13427;10047573124;13847639627;94931321;10723951;2215128234;217574069;163978326;1918;9493;2063648;-145;13428;1937302
2;18;1573354617188;1573354632262;15074;10011939488;13847555844;91894439;9398814;2215107052;216919050;163503973;2445;10484;1944296;19;15074;2162751
2;19;1573354632262;1573354643028;10766;10070080046;13847590124;91883461;11947344;2215112312;218087266;163716666;1988;9490;1553712;149;10766;1653327
2;20;1573354643028;1573354658592;15564;10067137708;13847565737;95095393;11387282;2215113423;218300112;163657893;2712;9206;2049640;-139;15564;2372570
2;21;1573354658592;1573354672009;13417;9992499588;13847655305;91396501;8648975;2215141566;216745760;163614158;1769;9654;2046888;-8;13417;1913090
2;22;1573354672009;1573354682250;10241;10025201398;13847713347;92120598;9481807;2215140427;217760813;163476758;1816;10732;1342288;-7;10241;1598734
2;23;1573354682250;1573354696788;14538;10054230432;13847544741;94660644;10490720;2215104276;218197459;164110955;2237;7722;1990256;11;14538;2079629
2;24;1573354696789;1573354711847;15058;10035483886;13847582298;94334389;10134140;2215121946;217627509;163354032;2630;10118;2182024;-25;15058;2260586
2;25;1573354711847;1573354723324;11477;10009963378;13846964134;90482816;9221716;2215026679;217209818;163644337;1835;10961;1673472;21;11478;1644799
2;26;1573354723324;1573354736678;13354;10048562420;13846732694;92152605;11063909;2214983418;217890238;163303478;2105;8975;1697528;8;13354;1900844
2;27;1573354736678;1573354750046;13368;10057550326;13846693676;94923076;11081051;2214965671;218128930;163846959;1965;10262;2141248;-31;13368;2013093
2;28;1573354750046;1573354764436;14390;9976003924;13846601635;91884223;7385957;2214952599;216842991;163151036;2303;8183;1875624;1;14390;2067177
2;29;1573354764436;1573354776408;11972;10028517496;13846593550;91505957;9779203;2214947691;217607573;163820014;2023;11207;1509968;1;11972;1800287
2;30;1573354776408;1573354791024;14616;10049860068;13846585851;95301002;10343250;2214948054;218461913;163400184;2359;8642;1994144;9;14616;2100547
2;31;1573354791024;1573354805517;14493;10013639220;13846601262;90554775;9480742;2214949395;217271729;163765386;2395;10374;2237416;0;14493;2132949
2;32;1573354805518;1573354816571;11053;10016930060;13846602038;91842655;9760003;2214950580;217104976;163305287;1769;9258;1528616;-7;11054;1588325
2;33;1573354816571;1573354830688;14117;10049839336;13846590169;94836867;10474460;2214947075;218150035;164010064;2181;8801;1860048;-4;14116;2022923
2;34;1573354830688;1573354844261;13573;10000056694;13846585090;92863871;8189682;2214947769;217274695;163391700;2045;10085;2043424;5;13573;2072261
2;35;1573354844261;1573354859707;15446;9975056676;13846642395;91368215;7793808;2214963873;216670509;163167907;2488;8719;2060240;7;15446;2221392
2;36;1573354859707;1573354870892;11185;10044737366;13846675317;92906407;10455870;2214977491;218082030;163180601;1936;11002;1491368;12;11187;1651283
2;37;1573354870893;1573354885610;14717;10051278020;13846585452;94454757;10712624;2214946275;218153011;163527598;2359;8567;1981864;-23;14717;2101069
2;38;1573354885610;1573354900607;14997;9998342216;13846592370;90157421;8713734;2214949038;217128173;163358032;2452;10149;2154904;6;14997;2231600
2;39;1573354900607;1573354910531;9924;10019737348;13846705894;92800767;8722548;2214986214;217783608;163102137;1572;9949;1352248;-2;9924;1414548
2;40;1573354910531;1573354926359;15828;10027818010;13846604734;93149902;9848844;2214953697;217394996;163211116;2448;9883;2134296;17;15828;2270786
2;41;1573354926359;1573354939924;13565;10050003732;13846591817;95235782;10703443;2214947348;217883726;163642989;2169;10076;2123048;-9;13565;2031773
2;42;1573354939924;1573354958686;18762;10011230220;13846662349;92774284;9600557;2214972725;216994908;163378651;3283;8197;2000880;9;18762;2854542
2;43;1573354958686;1573354970965;12279;10059380874;13846710096;93496465;11415665;2214986853;218104314;163617669;2129;9842;1611600;7;12279;1762985
2;44;1573354970965;1573354984358;13393;10054591344;13846669502;93765547;10864658;2214975388;218153791;163476923;2028;10170;2091336;-15;13392;1987123
2;45;1573354984358;1573354999771;15413;9966616708;13846593189;90634904;6686521;2214947428;216721094;164141084;2575;8702;2101168;-5;15414;2218636
2;46;1573354999771;1573355014653;14882;10046535940;13846599620;93001298;10060730;2214951966;218293431;163346743;2430;11412;2157496;19;14882;2230537
2;47;1573355014653;1573355023950;9297;10053886456;13846705958;93120291;11018681;2214986069;217957153;163406140;1778;8077;1056016;-16;9297;1327669
2;48;1573355023951;1573355047368;23417;10047084170;13846596049;94883082;10611426;2214950902;217942498;164072642;3442;13299;3687568;-6;23417;3411154
2;49;1573355047368;1573355058680;11312;10047047232;13846688401;95055997;10258352;2214979691;218207239;163833695;1987;6952;1420360;-3;11312;1618714
2;50;1573355058680;1573355068701;10021;10019541416;13846708422;92306585;9303230;2214988218;217554703;163329720;1455;9076;1326616;17;10022;1428043
2;51;1573355068701;1573355081793;13092;10022750642;13846643022;91660888;9270953;2214964878;217802739;163204606;2004;10505;2175200;-20;13092;1982690
2;52;1573355081793;1573355097294;15501;10007874702;13846591717;91135527;9157332;2214949315;217231776;163147433;2590;8885;2073688;2;15500;2224320
3;4;1573355280637;1573355287207;6570;10012303174;13849406343;102509008;8421651;2215396869;217890699;162835328;1357;3817;740096;-10;6571;933851
3;5;1573355287208;1573355298356;11148;10065876852;13849462330;101384120;11980153;2215415441;218226061;163245533;1908;11265;1390832;132;11149;1654690
3;6;1573355298356;1573355309737;11381;10082173518;13849404186;106885081;11973479;2215396459;218689521;162975608;1646;8554;1801048;-138;11381;1661241
3;7;1573355309737;1573355328442;18705;9993528304;13849401297;103616293;6850753;2215395898;217673145;163005514;2908;11190;2530616;4;18705;2668632
3;8;1573355328443;1573355336658;8215;10005910418;13849402728;100811354;8839207;2215396099;217466182;163016354;1531;8208;1061384;4;8216;1286834
3;9;1573355336658;1573355347368;10710;10065040272;13849458724;104997604;11416222;2215414174;218323236;163459189;2032;8820;1170688;-16;10709;1528360
3;10;1573355347368;1573355361878;14510;10038612228;13849477082;103423165;9348759;2215421563;218516341;163503833;2241;10787;2256248;24;14511;2170410
3;11;1573355361878;1573355373918;12040;10063702182;13849406819;102486022;11156301;2215397317;218750477;163454766;1626;9485;1987016;-24;12040;1719436
3;12;1573355373918;1573355389664;15746;10007644022;13849401374;100983636;8915446;2215395897;217607224;163367435;2441;9466;2070168;23;15746;2251694
3;13;1573355389664;1573355399230;9566;10049044950;13848347483;103966613;10831211;2215239389;218859798;163387853;1750;9948;1186376;-18;9566;1486524
3;14;1573355399230;1573355414199;14969;10045160620;13847936839;101992946;10515160;2215178139;218471168;163087091;2492;8753;2028904;4;14969;2137162
3;15;1573355414199;1573355428604;14405;10003509010;13847801571;101537885;8267162;2215154307;217683928;163025920;2296;10283;2178672;16;14405;2138844
3;16;1573355428604;1573355440366;11762;10007902734;13847819663;100295806;8846274;2215156969;217514938;162096796;1946;9821;1610232;-26;11762;1682721
3;17;1573355440367;1573355453808;13441;10060347832;13847799572;104140559;10837477;2215154123;218924178;163553720;1898;8782;1856776;25;13442;1912425
3;18;1573355453808;1573355467705;13897;10060922634;13848309804;103536827;11103987;2215333825;218852930;162829656;2038;10517;2130752;-6;13897;2055758
3;19;1573355467705;1573355483857;16152;9993112642;13847899097;102377944;8509508;2215190595;217262603;162996180;2676;9029;2091904;-9;16152;2317081
3;20;1573355483857;1573355494073;10216;10057511490;13847895296;101848863;11246067;2215189891;218741578;162202792;1780;10103;1357000;8;10216;1546980
3;21;1573355494073;1573355509967;15894;10017957316;13847814004;100983302;8728848;2215163690;218361962;162514261;2756;8947;2106208;10;15894;2385365
3;22;1573355509967;1573355524482;14515;9989669524;13847953174;98743532;7938293;2215186282;217566139;162101024;1984;10458;2168984;-1;14515;2072188
3;23;1573355524483;1573355541040;16557;10028857968;13847828959;100513189;9801795;2215167940;218159235;162784854;2561;13075;2510192;-5;16558;2484909
3;24;1573355541040;1573355551060;10020;10063327692;13847891768;102730356;11775652;2215192212;218824530;162639415;1704;5939;1350464;-8;10020;1437427
3;25;1573355551061;1573355565595;14534;10018552266;13847184190;100156936;9166325;2215068841;217918033;162814057;2231;9967;2191744;-8;14535;2179957
3;26;1573355565596;1573355577445;11849;9999581464;13846992882;99710076;8371487;2215037543;217834499;162371403;1876;9748;1594040;14;11850;1694204
3;27;1573355577445;1573355589432;11987;10059435186;13846933981;101967165;11137872;2215014813;218637338;163453046;1886;8918;1569424;2;11987;1719348
3;28;1573355589433;1573355602547;13114;10045499194;13846934668;102977241;10399363;2215031751;218785966;162612190;1881;10621;2111664;-23;13115;1942923
3;29;1573355602547;1573355618202;15655;9979551286;13846846750;104519665;6807826;2215000565;217540091;162340180;2633;9120;2074248;23;15655;2240681
3;30;1573355618202;1573355629281;11079;10032952538;13846902294;101050385;9801416;2215019739;218392143;162130069;1870;10568;1448432;-5;11078;1645850
3;31;1573355629281;1573355643845;14564;10055540928;13846892800;105386417;10248486;2215015499;219047330;163193060;2350;8633;1904288;-11;14564;2079239
3;32;1573355643845;1573355658662;14817;10018151496;13846833273;100676529;8981698;2214995145;218176780;162802625;2456;10752;2253680;9;14818;2221879
3;33;1573355658662;1573355669635;10973;10025446532;13846856847;102931550;9592823;2215004021;217730288;162849144;1765;8915;1569472;-1;10973;1572118
3;34;1573355669635;1573355683875;14240;10065867654;13846941839;104168211;11121962;2215033289;218968538;162533717;2151;9210;1910576;-7;14240;2034041
3;35;1573355683875;1573355697771;13896;10002001122;13846940664;101440489;7717774;2215033043;217977253;162437411;2198;10425;2119472;12;13896;2079075
3;36;1573355697771;1573355719784;22013;10052932784;13846823044;101373712;10586497;2214993733;218826571;162277726;3902;13206;2936712;-9;22013;3216222
3;37;1573355719785;1573355727982;8197;10059200126;13846926357;105032609;10800931;2215027600;218783663;162878955;1341;4829;1194616;4;8198;1174320
3;38;1573355727982;1573355743353;15371;10060734002;13846852704;102091664;10890165;2215003395;219008030;162187724;2122;10275;2159184;-10;15371;2197504
3;39;1573355743353;1573355756484;13131;9981442132;13846897661;101756718;7475044;2215017665;217274878;162683030;1996;10379;2091240;11;13131;1963296
3;40;1573355756484;1573355766105;9621;10021413866;13846945254;101390898;8916805;2215033738;218282898;162467084;1727;8569;1120600;2;9621;1368160
3;41;1573355766105;1573355780671;14566;10046066404;13846909069;103438406;10197541;2215022006;218577920;163079353;1954;10189;2069472;-2;14566;2077939
3;42;1573355780671;1573355794596;13925;10029110840;13846843849;99775825;9847835;2215000574;218244207;162259237;2104;10044;2152832;-13;13925;2131499
3;43;1573355794596;1573355812744;18148;10022560550;13846940518;100220676;9975031;2215032412;217613221;162690429;3536;10920;1862648;2;18147;2804918
3;44;1573355812744;1573355826986;14242;10045824920;13846817436;102313828;10078831;2214992330;218694990;162545968;2176;9104;1988568;2;14243;2035551
3;45;1573355826986;1573355839529;12543;10056953478;13846829699;103121247;10664759;2214994902;218861430;162616646;1897;8801;1924672;5;12543;1876853
3;46;1573355839529;1573355853340;13811;9959306926;13846822292;97462448;5954091;2214992801;217198493;162072344;2129;9646;2018816;15;13811;1978837
3;47;1573355853341;1573355872065;18724;10057528572;13846825711;105243692;10627772;2214993762;218878001;163427456;3038;10442;2736392;-6;18725;2757417
3;48;1573355872065;1573355885344;13279;10054409282;13846885890;105822699;10822027;2215014604;218609835;162603361;1997;8840;1777432;-9;13279;1895248
3;49;1573355885344;1573355897898;12554;10000333802;13846896863;103838878;8124557;2215017625;217656102;162712705;1938;10922;1952048;9;12554;1868626
3;50;1573355897898;1573355907096;9198;10053758122;13846823645;103053102;10602867;2214993606;218819098;162673378;1320;8758;1364352;-8;9197;1306298
3;51;1573355907096;1573355922400;15304;10061774106;13846826561;105112648;10599604;2214994470;219165779;163199747;2395;9466;2038928;5;15304;2184985
3;52;1573355922400;1573355936234;13834;10025246512;13846815215;101501592;9460242;2214991777;218131555;162113857;2050;10095;2134696;-18;13835;2067204
3;53;1573355936234;1573355948753;12519;10020298134;13846947050;106252356;9021300;2215034054;217692991;162986892;2173;9469;1570096;3;12519;1796399
4;5;1573356161428;1573356172737;11309;10029505040;13849267768;113403791;9714606;2215371627;217939432;163516311;1633;12417;1552000;3;11309;1617017
4;6;1573356172737;1573356183107;10370;10076823202;13849274679;117619289;11445672;2215373269;219100229;163508632;1556;7561;1712056;3;10370;1548594
4;7;1573356183107;1573356202313;19206;10063979874;13849270019;119383686;10989232;2215372423;218848410;164018920;3092;12193;2526576;14;19206;2755640
4;8;1573356202313;1573356210452;8139;9978565348;13849274833;111824129;6993235;2215373265;217486325;163204647;1389;7823;1018472;-2;8139;1249570
4;9;1573356210452;1573356220968;10516;10060946870;13849266118;115402541;11105890;2215371652;218263602;164419986;1978;9103;1145480;7;10516;1500267
4;10;1573356220968;1573356234967;13999;10029121060;13849270944;115233966;8752687;2215372758;218426085;164389572;1883;10189;2158848;-24;13999;2000026
4;11;1573356234967;1573356247405;12438;10072525692;13849273333;115296819;11301448;2215373221;219154923;163183834;1891;10013;2074128;4;12437;1857684
4;12;1573356247405;1573356263230;15825;10026502258;13849271067;117767926;8925720;2215372854;218172440;164217581;2545;8820;2081392;18;15826;2264299
4;13;1573356263230;1573356273496;10266;10032797778;13848577162;112410405;10011274;2215271854;218624088;163799694;1800;10280;1305072;-19;10265;1533344
4;14;1573356273496;1573356288541;15045;10061736000;13847775434;115581299;10780187;2215157243;219140377;163789550;2372;8845;2000184;-3;15046;2149181
4;15;1573356288541;1573356303118;14577;10008467754;13847649119;111240981;8624696;2215133839;218098538;163434221;2284;10466;2236248;-1;14576;2182486
4;16;1573356303118;1573356313773;10655;10017597280;13847626413;114334651;8903934;2215130109;217858889;163422307;1714;9696;1506424;21;10656;1521234
4;17;1573356313774;1573356327585;13811;10069320408;13847625420;115337428;11033845;2215130049;219109571;163570838;2126;8505;1779544;-14;13812;1983218
4;18;1573356327585;1573356341392;13807;10062690694;13847676669;114013000;11011160;2215147122;218995046;163811237;2155;10310;2135216;-7;13807;2075314
4;19;1573356341392;1573356356725;15333;9988913536;13847729373;110405697;8295823;2215162184;217512038;162900343;2550;9196;2007992;10;15332;2192961
4;20;1573356356725;1573356366731;10006;10058418004;13847630614;114664403;10736552;2215134761;218913077;164416061;1868;9777;1324232;2;10007;1512004
4;21;1573356366731;1573356381889;15158;10026915000;13847678297;113044052;9462209;2215151341;218312019;162977604;2604;9001;2031768;15;15158;2232149
4;22;1573356381889;1573356396191;14302;9975846974;13847983041;112601602;7546057;2215199669;217311815;164115771;2026;9860;2091048;-10;14302;2046491
4;23;1573356396191;1573356407950;11759;10050399100;13847091362;118730684;10464977;2215057896;218488274;162814917;1882;11455;1717504;-17;11759;1789939
4;24;1573356407950;1573356421463;13513;10077184260;13846805140;124700337;11100892;2214994499;218976001;163766427;2148;8466;1880016;-2;13513;1934397
4;25;1573356421463;1573356435411;13948;10070736754;13846771564;121998749;10896530;2214983902;218930808;163019492;2171;9718;2006136;169;13947;2106180
4;26;1573356435411;1573356448955;13544;9999291508;13846837746;117114533;8164075;2215004722;217647390;162958040;2043;10829;2027128;-147;13545;1960672
4;27;1573356448955;1573356460603;11648;10046896706;13846875054;118726047;9714636;2215015036;218979591;162822894;2046;8707;1330352;4;11648;1667496
4;28;1573356460603;1573356470047;9444;10066293536;13846695994;120283967;11524167;2214970494;218503716;163228381;1805;9812;1231360;-4;9443;1471292
4;29;1573356470047;1573356483610;13563;10048428830;13846693557;119172090;10244651;2214970079;218613678;162210726;2092;8810;1975624;-13;13564;1938283
4;30;1573356483610;1573356498071;14461;9991320200;13846689987;117233247;7555670;2214969224;217458867;162745963;2261;11312;1957048;16;14460;2062538
4;31;1573356498071;1573356509278;11207;10053201862;13846699752;117735128;10628814;2214971462;218576841;163222600;1908;8240;1596472;-24;11207;1662866
4;32;1573356509278;1573356525802;16524;10061745636;13846707345;121190814;10588499;2214972722;218942644;163323919;2641;9629;2137048;18;16525;2361282
4;33;1573356525802;1573356539680;13878;9996518822;13846691709;117224731;7494681;2214969650;218142509;162942626;2316;10619;2129512;-8;13878;2084272
4;34;1573356539680;1573356550751;11071;10064497298;13846697238;122148744;10734850;2214971106;218973932;163096783;1995;7760;1240672;-8;11071;1583846
4;35;1573356550751;1573356566102;15351;10020947688;13846692034;119196006;8335008;2214969702;218523868;162914917;2486;10544;2191640;19;15350;2321218
4;36;1573356566102;1573356580443;14341;9997163412;13846725956;119990162;7604074;2214980322;217643178;163564218;2137;9162;2065688;9;14342;2052335
4;37;1573356580444;1573356601199;20755;10024713612;13846797885;117405642;9593015;2215004964;217833807;162606646;3461;13112;3048072;-11;20756;3077030
4;38;1573356601199;1573356611468;10269;10064135218;13846690266;121292734;11091040;2214969447;218697171;163457203;1808;6061;1301344;-16;10268;1468883
4;39;1573356611468;1573356625115;13647;10032712368;13846809600;120396916;9439572;2215008750;218332252;163432144;2167;9775;2029248;106;13648;2045890
4;40;1573356625115;1573356636508;11393;10019641864;13846815381;121229801;9036900;2215010382;217821135;163174298;1787;11763;1674008;-82;11392;1633650
4;41;1573356636508;1573356650124;13616;10032994294;13846810808;120286189;8850818;2215009476;218461154;163337696;2197;7905;1736288;-14;13617;1950975
4;42;1573356650125;1573356664199;14074;10068501494;13846749271;123934458;10460943;2214988484;219104802;163196422;2126;9950;2088040;3;14074;2118336
4;43;1573356664199;1573356682728;18529;10004510424;13846741903;117245504;8742308;2214986190;217658812;162549139;3100;9479;2187512;0;18530;2767586
4;44;1573356682728;1573356692022;9294;10061143824;13846813698;121830552;10471056;2215010067;218953847;163665204;1553;8905;1147480;-16;9294;1325803
4;45;1573356692022;1573356706368;14346;10058449394;13846794381;118568904;10472729;2215003711;218942774;162699776;2067;10718;2215072;5;14346;2153355
4;46;1573356706368;1573356726008;19640;10009611810;13846696025;118712038;7960585;2214970521;218148054;162770249;3048;12325;2867568;2;19640;2820243
4;47;1573356726008;1573356737503;11495;10049970736;13846807023;119676672;9621611;2215008817;219054002;162638801;1944;6513;1713024;20;11495;1722211
4;48;1573356737503;1573356747693;10190;10068414478;13846710525;121773886;10848808;2214975648;218938213;163105324;1521;10081;1336816;-16;10189;1460730
4;49;1573356747693;1573356762963;15270;10040868512;13846784617;119534861;9662011;2215000812;218510519;163186507;2448;9298;2012320;16;15271;2179965
4;50;1573356762963;1573356776702;13739;10029398168;13846819072;119400538;9117159;2215011220;218358723;162888736;2045;10214;2158256;-21;13738;2054047
4;51;1573356776702;1573356791349;14647;10052744736;13846746866;119198806;10105450;2214988868;219041128;163229580;2524;9785;1870504;5;14648;2105400
4;52;1573356791349;1573356803653;12304;10058220612;13846693841;119884447;10537912;2214970250;218851802;163908671;2038;9130;1681736;-11;12304;1835985
4;53;1573356803653;1573356817652;13999;10012333980;13846697192;119021536;8693934;2214970782;218034671;163352258;2141;8794;1978576;3;13999;1999935
4;54;1573356817652;1573356833068;15416;9985827826;13846697304;117564948;7015417;2214970775;217550079;162869254;2691;10691;2192832;6;15416;2317170
