{
  "block_num": 1000,
  "cpu_percentage": 80.0,
  "mem_percentage": 0.0,
  "disk_percentage": 0.0,
  "idle_percentage": 0.0,
  "cpu_calculations": 100000,
  "mem_used_bytes": 40000000,
  "bytes_per_diskBlock": 1000000,
  "idle_ms": 8,
  "distribution": "Mix",
  "seed": 0
}