0;53;1571510960116;1571510965711;5595;19349546732;42562464889;144065445;67674819;5525143186;129460638;131388174;642;2;1269416;14;5626;804815
0;54;1571510965742;1571510971313;5571;19364654812;42562151349;143406712;67751118;5525090073;129535261;132901283;646;2;1258536;-6;5602;800263
0;55;1571510971345;1571510976904;5559;19343075866;42562207041;141595654;66332463;5525110243;129411292;132375096;652;2;1281856;20;5591;799819
0;56;1571510976934;1571510982762;5828;19362244206;42562150187;143462037;66211707;5525099163;129549879;133621823;768;40;1360928;-21;5858;840768
0;57;1571510982792;1571510988456;5664;19332149372;42562122772;145503296;65963935;5525093996;129487685;132095393;684;2;1332944;22;5694;815093
0;58;1571510988487;1571510994064;5577;19318749200;42562310906;143460280;65815734;5525126983;129442962;134327765;657;3;1280320;-17;5608;804782
0;59;1571510994095;1571511007936;13841;19357330868;42562103844;141746714;66909891;5525091923;129513251;130799620;1636;8;3148688;17;13872;1943581
0;60;1571511007967;1571511013824;5857;19386587224;42562093511;144892141;68025815;5525094059;129625398;132421712;791;55;1335472;-10;5889;847978
0;61;1571511013859;1571511019593;5734;19379185608;42562140511;147136523;67890862;5525101632;129627941;134422473;704;3;1351680;0;5768;828140
0;62;1571511019625;1571511025444;5819;19358368636;42562193791;146859862;66236492;5525113721;129549587;135458181;701;6;1343488;3;5852;836409
0;63;1571511025479;1571511031090;5611;19360827714;42562432220;145204122;66226805;5525171253;129549783;131712896;661;4;1263312;-21;5645;810873
0;64;1571511031120;1571511036877;5757;19304347176;42562395162;142606869;65492695;5525147346;129501152;132279462;703;9;1338560;1;5787;830168
0;65;1571511036906;1571511042567;5661;19334347694;42561970042;144448003;65990070;5525071380;129530880;131884525;715;6;1368672;21;5690;816945
0;66;1571511042597;1571511056135;13538;19374962850;42561968435;146194520;68041675;5525072265;129614003;133022637;1738;56;3122416;-18;13568;1889568
0;67;1571511056167;1571511061788;5621;19380468364;42562009698;145940143;68225597;5525080817;129605544;132667500;671;3;1276240;1;5654;814416
0;68;1571511061819;1571511067498;5679;19393207010;42561993365;146501396;67982379;5525079077;129648293;133000579;676;3;1271296;-4;5709;818557
0;69;1571511067527;1571511073316;5789;19356061836;42561788682;143578839;66594828;5525042755;129632553;131643504;725;5;1366152;12;5818;834403
0;70;1571511073346;1571511079183;5837;19331206212;42561849329;142839878;65643317;5525053630;129527786;132522831;802;26;1355960;-11;5867;840216
0;71;1571511079228;1571511084853;5625;19368182902;42561839840;142622221;66508223;5525051999;129589018;131616320;682;3;1302776;22;5670;816102
0;72;1571511084885;1571511098510;13625;19321865424;42561836424;142511306;65670064;5525050884;129488660;133560974;1636;6;3085672;-35;13657;1912905
0;73;1571511098542;1571511104157;5615;19383626928;42561803175;143508581;68094739;5525045169;129576023;133736643;715;1;1339024;29;5647;803070
0;74;1571511104188;1571511109938;5750;19369774156;42561694885;143479760;67960531;5525025877;129563387;130485156;823;47;1346184;-13;5782;826562
0;75;1571511109972;1571511115655;5683;19336589962;42561756128;142304116;67262497;5525038009;129555084;131570121;688;4;1298872;16;5716;819747
0;76;1571511115688;1571511121249;5561;19338509424;42561827899;144322789;65465327;5525050224;129509044;133077698;674;2;1262976;-2;5595;801855
0;77;1571511121280;1571511127051;5771;19326366896;42561886938;143375888;65878409;5525059594;129483443;133284185;699;4;1316776;5;5801;832178
0;78;1571511127080;1571511132638;5558;19340892582;42561788482;142050186;65914679;5525042145;129442812;132435520;715;6;1327464;-11;5588;804665
0;79;1571511132671;1571511148743;16072;19362837404;42561987801;143312191;67226703;5525079208;129643194;131585090;2333;72;3276256;3;16104;2311553
0;80;1571511148774;1571511154404;5630;19393815392;42561598348;143530383;67924195;5525011698;129636973;132698742;701;5;1315832;3;5661;811410
0;81;1571511154434;1571511160018;5584;19409106264;42561571294;143520394;67825414;5525006742;129496092;130899120;689;3;1252208;-17;5614;804388
0;82;1571511160049;1571511165708;5659;19338850772;42561643190;143418312;66364184;5525018675;129458446;132634833;707;7;1329024;-3;5690;813710
0;83;1571511165743;1571511171456;5713;19383418294;42561673668;145712112;65610066;5525025965;129589832;133107831;827;28;1340384;14;5748;826444
0;84;1571511171488;1571511177138;5650;19306533526;42561829293;142402536;65891001;5525055388;129449164;133253042;715;4;1291832;-11;5682;813882
0;85;1571511177167;1571511182747;5580;19317601640;42561942789;144017624;66421968;5525080304;129511217;131322766;681;5;1273992;23;5610;805160
0;86;1571511182779;1571511196860;14081;19349516948;42561799659;143890893;67740162;5525047417;129602388;131568226;1807;19;3170824;-5;14112;1958312
0;87;1571511196895;1571511202614;5719;19391182428;42561519380;143643740;68192557;5524998236;129542799;131834254;795;68;1291520;-16;5754;831489
0;88;1571511202645;1571511208211;5566;19342435364;42561628157;143083219;67079729;5525017350;129518128;133039252;680;8;1266856;24;5597;802005
0;89;1571511208243;1571511213861;5618;19377456092;42561586492;143968070;66352868;5525009230;129569848;133269218;714;7;1280128;-10;5650;811897
0;90;1571511213891;1571511219466;5575;19343736954;42561769594;143902294;66372888;5525045690;129512526;133558229;688;9;1277760;-16;5605;802914
0;91;1571511219497;1571511225297;5800;19334079346;42561521023;142898279;65567235;5524999315;129557107;134757309;727;5;1326320;9;5832;835315
0;92;1571511225327;1571511238788;13461;19351269094;42561535634;142153044;66622137;5525001706;129522714;135034578;1817;71;3165960;-4;13490;1904983
0;93;1571511238818;1571511244390;5572;19388955928;42561596844;144467164;68019325;5525011997;129529923;132448325;723;4;1318216;13;5603;802530
0;94;1571511244421;1571511249984;5563;19360310728;42561596905;144630792;67943499;5525012085;129507105;132625051;685;7;1241400;-13;5594;804100
0;95;1571511250017;1571511255785;5768;19335953694;42561641026;145764821;66191229;5525021181;129443884;134034498;747;10;1360416;21;5800;832094
0;96;1571511255815;1571511261393;5578;19379923054;42561904316;145415646;66410259;5525064262;129477303;136523385;822;39;1270424;-13;5608;806770
0;97;1571511261425;1571511267093;5668;19318000950;42561385061;145245473;65445833;5524977807;129530422;134412092;736;10;1355440;0;5700;817099
0;98;1571511267123;1571511272802;5679;19363090568;42561463441;145767050;66087628;5524991470;129516712;135383920;706;6;1280632;-2;5709;820454
0;99;1571511272835;1571511287034;14199;19393925622;42561477860;144337601;67082554;5524994250;129594900;133794047;1800;14;3231416;5;14232;1909505
0;100;1571511287064;1571511292705;5641;19364613056;42561357747;144836687;67295212;5524973531;129579941;132514679;822;64;1298688;-9;5671;817174
0;101;1571511292737;1571511298367;5630;19406901810;42561462328;147126208;67838172;5524992167;129804075;132377435;745;6;1297472;-9;5663;811311
0;102;1571511298399;1571511304104;5705;19343559564;42561476978;143349395;66315135;5524994589;129520772;132699081;719;7;1304384;17;5736;824549
1;52;1571511804710;1571511810260;5550;19307926950;42751272481;145270241;66348822;5547596322;128321860;132169097;662;3;1300808;10;5582;799498
1;53;1571511810292;1571511815847;5555;19315962644;42751212456;145915281;66791507;5547587204;128299696;132426133;777;30;1274688;2;5586;811236
1;54;1571511815876;1571511821423;5547;19279162614;42751008069;144137428;65673062;5547553116;128281367;132844217;674;5;1313696;-2;5576;798395
1;55;1571511821455;1571511827005;5550;19298168602;42751076099;145870550;65608715;5547575290;128290248;132395020;655;4;1292416;-15;5583;799746
1;56;1571511827036;1571511840493;13457;19309365780;42751140090;145961564;66602629;5547585193;128387667;133124312;1570;11;3080864;7;13487;1860875
1;57;1571511840523;1571511846195;5672;19302884402;42751153137;145412496;68027184;5547588396;128416683;130155327;816;38;1307816;11;5702;825086
1;58;1571511846227;1571511851834;5607;19329570136;42751242667;148368960;67703238;5547603777;128386830;131897954;651;2;1286688;-11;5639;808224
1;59;1571511851867;1571511857429;5562;19327844562;42751111847;142957789;66621859;5547581753;128334898;131741545;679;3;1306976;-7;5595;803185
1;60;1571511857459;1571511863117;5658;19300606802;42751059816;143698631;66257345;5547575882;128353856;133151309;645;6;1260760;-5;5688;815970
1;61;1571511863148;1571511868906;5758;19304615232;42751039523;144393283;66187977;5547573501;128340915;130628344;698;5;1341120;6;5789;833104
1;62;1571511868938;1571511874538;5600;19333114724;42751215769;144310677;66514741;5547605397;128297565;132300062;683;7;1318976;-11;5632;807330
1;63;1571511874569;1571511888537;13968;19332482252;42751425852;149192114;67515252;5547656970;128337519;132795489;1799;42;3254416;7;13999;1959820
1;64;1571511888567;1571511894127;5560;19338536288;42751410061;148067922;67413987;5547638120;128269813;132803259;665;6;1279160;7;5590;803229
1;65;1571511894158;1571511899729;5571;19356267258;42750936779;147431451;67743568;5547553099;128333226;131696741;652;3;1254080;-12;5602;806517
1;66;1571511899760;1571511905321;5561;19281378748;42751028991;145485277;65957690;5547571916;128253009;130954541;704;6;1326464;0;5592;799310
1;67;1571511905351;1571511911138;5787;19294378588;42750923134;146420955;66573930;5547552284;128437346;130956130;833;25;1325288;10;5817;842531
1;68;1571511911168;1571511916769;5601;19282290080;42750945087;144862432;66134266;5547559022;128289272;132990272;676;2;1301648;-2;5631;809025
1;69;1571511916799;1571511922340;5541;19299758834;42750784257;146039047;66310055;5547529545;128267617;131379832;672;5;1286488;0;5572;800163
1;70;1571511922375;1571511936666;14291;19331898398;42750944657;143940343;68195189;5547559101;128410988;130705785;1721;17;3304664;-10;14325;1991502
1;71;1571511936697;1571511943029;6332;19317532436;42750753415;147222946;67868087;5547524903;128447485;132541066;894;52;1418408;23;6363;912836
1;72;1571511943062;1571511948920;5858;19341015514;42750913543;146667830;67180697;5547554494;128326957;132753494;715;5;1357976;-11;5891;844119
1;73;1571511948950;1571511954645;5695;19301211972;42750633940;144688476;65942760;5547505357;128400558;130826091;666;8;1268928;6;5725;820640
1;74;1571511954675;1571511960246;5571;19268023544;42750607677;144678032;65965229;5547500577;128347309;132436646;696;6;1305712;8;5602;801577
1;75;1571511960277;1571511966035;5758;19327995818;42750702351;146733661;66548719;5547518566;128467697;133221579;727;5;1385424;-23;5788;830139
1;76;1571511966065;1571511979880;13815;19338777480;42750792379;145237650;66775046;5547533416;128354179;131322234;1817;27;3198264;19;13845;1987336
1;77;1571511979911;1571511985472;5561;19314938016;42750764963;143978481;68071179;5547528024;128305184;131459483;692;7;1294976;-20;5592;800762
1;78;1571511985503;1571511991069;5566;19361933956;42750678154;143597404;67816214;5547513598;128256875;132130783;654;3;1233152;18;5597;802669
1;79;1571511991100;1571511996653;5553;19277856206;42750677464;143649047;66531323;5547513271;128307847;131503896;699;7;1316456;5;5584;800172
1;80;1571511996684;1571512002296;5612;19345403252;42750673942;145186805;66382413;5547512864;128363949;132386771;798;34;1287352;-9;5644;823784
1;81;1571512002328;1571512007909;5581;19295073840;42750560032;144976320;65698299;5547492655;128343175;130590362;716;6;1342904;-12;5613;803593
1;82;1571512007940;1571512013706;5766;19340288580;42750758731;144220434;66308149;5547528684;128529490;131059810;864;46;1097432;5;5796;846890
1;83;1571512013737;1571512031420;17683;19337442748;42750608118;145161851;67595400;5547503503;128340761;130758321;2484;88;3523808;17;17715;2525792
1;84;1571512031452;1571512037013;5561;19323411126;42750691342;141183556;68179814;5547519296;128311396;130341440;700;5;1311752;4;5592;800773
1;85;1571512037045;1571512042608;5563;19357039890;42750752830;142491417;68095513;5547530517;128298854;131337312;716;3;1330512;-12;5595;802718
1;86;1571512042639;1571512048219;5580;19280664808;42750659212;143184754;65824941;5547511715;128329118;131045921;876;39;1262680;-12;5611;820935
1;87;1571512048250;1571512053838;5588;19308687026;42750612944;143756360;66353570;5547503232;128447932;129970514;692;5;1268920;12;5619;805643
1;88;1571512053878;1571512059428;5550;19304771598;42750819371;141787514;65887617;5547538125;128310832;131129432;697;8;1275520;7;5590;801427
1;89;1571512059458;1571512073730;14272;19342878620;42750440000;144447077;67459302;5547474578;128293971;130658217;1771;20;3280320;-12;14302;1895165
1;90;1571512073760;1571512079386;5626;19298897288;42750441012;146642667;67900037;5547476220;128429947;129997493;811;64;1277272;-13;5656;820544
1;91;1571512079418;1571512085151;5733;19317837722;42750512665;145437105;67974057;5547488207;128414641;131898497;719;5;1305760;17;5766;829803
1;92;1571512085183;1571512090747;5564;19285452732;42750458175;143841790;66349562;5547478573;128367643;131289903;686;6;1257536;-14;5595;800294
1;93;1571512090776;1571512096629;5853;19280617212;42750487321;145338661;66430769;5547486910;128308234;129225262;736;7;1341320;0;5882;849035
1;94;1571512096659;1571512102224;5565;19290030854;42750452935;143053253;65853849;5547477727;128305383;129790234;732;12;1341576;4;5596;804892
1;95;1571512102255;1571512107842;5587;19284687254;42750503329;144293103;66704117;5547489038;128395105;131248235;774;50;1292920;10;5617;810129
1;96;1571512116485;1571512122075;5590;19333260724;42750442559;143485910;68227714;5547476150;128388843;130372419;1858;14;3363488;-10;14233;1971795
1;97;1571512122107;1571512127769;5662;19344756618;42750336179;146644646;68139583;5547458018;128487070;133067819;706;5;1275208;-2;5694;816219
1;98;1571512127800;1571512133456;5656;19306353946;42750440316;145784807;67390066;5547475915;128512542;132058568;720;8;1311808;16;5687;817990
1;99;1571512133488;1571512139030;5542;19273996112;42750430020;144410776;66527056;5547473256;128260727;130038908;804;46;1279864;-14;5575;825336
1;100;1571512139061;1571512144594;5533;19266676402;42750424410;144610703;65812727;5547472700;128210334;130821642;741;5;1345216;-5;5563;798152
1;101;1571512144624;1571512150307;5683;19280073800;42750344646;146815061;65733764;5547460204;128347639;131623534;727;4;1307336;9;5714;821240
2;55;1571512659270;1571512664974;5704;19342794232;42740471007;153426137;67741727;5543558671;123216278;136997458;749;47;1326416;5;5786;831366
2;56;1571512665006;1571512670590;5584;19277887742;42740543987;152169997;67324381;5543569403;123234545;132496736;675;1;1313536;-3;5616;805187
2;57;1571512670620;1571512676375;5755;19247983730;42740455346;150112098;65664337;5543552617;123109964;133936098;660;1;1286680;12;5784;831400
2;58;1571512676405;1571512681946;5541;19267534152;42740519938;152306005;66281579;5543565435;123175233;134792067;646;1;1277824;-6;5571;799481
2;59;1571512681979;1571512687539;5560;19321560868;42740506361;152859173;66249976;5543564471;123140929;134257069;674;1;1328072;-2;5593;800836
2;60;1571512687568;1571512700713;13145;19283875640;42740516996;151791152;66884285;5543568967;123103773;133706729;1657;49;3084704;-7;13174;1733381
2;61;1571512700746;1571512706298;5552;19303806100;42740536420;151591924;67821096;5543574484;123140904;135345402;654;2;1269600;18;5586;801632
2;62;1571512706330;1571512711882;5552;19293372940;42740453553;152893311;67873234;5543559410;123180078;133571669;637;2;1239616;3;5584;800834
2;63;1571512711923;1571512717628;5705;19270713740;42741017072;150963524;66283146;5543677131;123273259;133888158;705;2;1368704;-1;5745;824190
2;64;1571512717658;1571512723201;5543;19285265852;42741148153;152798000;66504493;5543678372;123164790;134651076;746;35;1268288;-13;5574;802843
2;65;1571512723232;1571512728915;5683;19264625686;42740300178;152183808;66371444;5543530135;123269321;134023934;719;2;1387264;-15;5713;820185
2;66;1571512728969;1571512734560;5591;19262461528;42740433138;153094566;65847947;5543557448;123266118;133505701;660;4;1277760;12;5646;811503
2;67;1571512734591;1571512749327;14736;19283923674;42740272582;153600010;67886299;5543528871;123296719;133619702;1745;11;3368728;13;14714;1841089
2;68;1571512749357;1571512754951;5594;19308000972;42740239262;151805017;67929607;5543523232;123240943;134818269;759;50;1294368;-20;5624;804385
2;69;1571512754981;1571512760587;5606;19287329416;42740265367;150606314;68106990;5543527023;123221773;133942263;663;4;1266640;10;5635;805413
2;70;1571512760618;1571512766252;5634;19257568338;42740222246;151893130;66373721;5543520400;123178998;134388739;661;6;1271528;12;5665;811308
2;71;1571512766284;1571512771877;5593;19267136302;42740132411;152540272;66341370;5543507384;123214517;136524105;670;4;1286328;2;5625;807765
2;72;1571512771906;1571512777494;5588;19266158248;42740085093;154108287;66339754;5543498674;123380292;134822403;698;4;1341488;-26;5618;809985
2;73;1571512777524;1571512790777;13253;19299043142;42740065370;150523483;66582398;5543495050;123142724;135550825;1663;50;3031184;14;13283;1847623
2;74;1571512790808;1571512796448;5640;19310720076;42739995219;152604467;68006703;5543482361;123302109;138042538;688;5;1310304;-16;5670;812317
2;75;1571512796479;1571512802242;5763;19304167158;42740003924;149804138;68042042;5543485177;123247805;135522673;671;8;1301120;1;5795;833434
2;76;1571512802275;1571512807951;5676;19261727586;42740038541;149358573;66377619;5543491704;123207454;132156322;704;3;1330976;0;5708;816037
2;77;1571512807980;1571512813650;5670;19247765022;42739939384;149506835;66621725;5543472837;123274397;132873861;795;37;1309008;18;5699;822324
2;78;1571512813680;1571512819224;5544;19254666150;42739901494;148914376;65985164;5543466243;123198128;133055563;693;1;1321176;11;5574;797768
2;79;1571512819258;1571512824855;5597;19252570904;42740059293;151437236;65879234;5543493933;123248525;132913461;692;5;1295496;-20;5631;809606
2;80;1571512824885;1571512838549;13664;19285563838;42739870310;150277341;67217876;5543461085;123198547;132771456;1648;19;3125672;16;13694;1903751
2;81;1571512838579;1571512844303;5724;19330665574;42739864584;151322630;68084397;5543460511;123412373;134394895;807;47;1324624;-25;5755;823145
2;82;1571512844335;1571512849986;5651;19291604588;42739951302;153980957;67803964;5543475556;123422396;134192058;841;32;1079440;0;5682;812332
2;83;1571512850017;1571512856045;6028;19232582774;42739906675;149493241;65323858;5543468445;123191270;131781862;814;13;1188552;22;6059;871536
2;84;1571512856076;1571512861653;5577;19254312538;42740133263;150399362;65994644;5543510766;123291245;133560334;682;6;1280192;-10;5609;803672
2;85;1571512861683;1571512867246;5563;19269703128;42739951485;149924140;66081121;5543477532;123238882;135061854;674;1;1251880;-2;5593;802079
2;86;1571512867277;1571512872863;5586;19305210474;42740005227;149200360;66121487;5543484797;123287669;133034194;716;3;1344432;-12;5617;804093
2;87;1571512872898;1571512886609;13711;19270372684;42739985920;152230401;67473796;5543480765;123162047;131680437;1777;66;3126744;19;13696;1797960
2;88;1571512886640;1571512892407;5767;19272796430;42739966980;150283914;67995945;5543479164;123149454;132224699;761;5;1263832;-17;5797;842562
2;89;1571512892439;1571512898034;5595;19334402590;42739941259;149121671;67751429;5543473745;123239156;137141682;675;6;1256144;29;5627;807507
2;90;1571512898065;1571512903642;5577;19258014076;42739845457;153663324;66046653;5543457418;123281009;134555205;732;3;1345216;-28;5608;804753
2;91;1571512903673;1571512909241;5568;19238205818;42739845533;150307521;66342434;5543457472;123212365;131800630;686;5;1286592;18;5600;805079
2;92;1571512909271;1571512914845;5574;19241490526;42739896173;150420606;65995820;5543466835;123221470;134258296;777;45;1290632;-10;5604;809292
2;93;1571512914875;1571512920415;5540;19253352588;42740024636;150615380;65779753;5543490999;123194535;133824333;703;7;1304712;1;5569;796904
2;94;1571512920445;1571512934522;14077;19299993018;42740001290;151410691;67911800;5543485650;123212368;132058832;1729;8;3181032;-12;14108;1998415
2;95;1571512934555;1571512940119;5564;19310825780;42739879841;149504011;67820267;5543465101;123141149;133156813;725;5;1322560;11;5596;802147
2;96;1571512940149;1571512945726;5577;19290250584;42740215832;150867522;67175037;5543521257;123202492;133116339;778;43;1272400;-9;5607;805320
2;97;1571512945757;1571512951305;5548;19260936558;42739801978;150129820;65994415;5543452096;123154606;132332029;689;5;1264632;15;5580;801827
2;98;1571512951593;1571512957133;5540;19276317950;42739787450;152415466;66215195;5543449680;123128621;134654440;737;9;1343712;-1;5828;835490
2;99;1571512957166;1571512962697;5531;19242174828;42739788376;150986765;66014395;5543449935;123164768;133007700;675;2;1237048;-3;5564;799147
2;100;1571512962745;1571512975816;13071;19262169382;42739712993;152845678;66048814;5543437495;123197429;135589938;1781;57;3073200;4;13118;1894997
2;101;1571512975848;1571512981449;5601;19282225110;42739693970;152226174;68181654;5543434987;123314518;132911130;698;6;1286936;6;5634;807548
2;102;1571512981483;1571512987103;5620;19304357396;42739812922;153386807;68202329;5543455147;123262214;131576462;724;4;1279344;-20;5653;811180
2;103;1571512987135;1571512992786;5651;19258154236;42739850714;150809522;66485221;5543461293;123220634;133150078;707;6;1294048;-3;5687;816915
2;104;1571512992819;1571512998372;5553;19277499236;42739709598;149933281;66338978;5543437873;123281159;132335872;716;8;1311656;20;5583;799931
3;56;1571513505111;1571513510634;5523;19143180258;42964603501;144445885;66359810;5553415470;122570558;131763376;731;37;1274256;-5;5554;798826
3;57;1571513510664;1571513516189;5525;19156618682;42964702818;146807570;66181914;5553432646;122543504;135297280;668;4;1304584;4;5554;795526
3;58;1571513516220;1571513521822;5602;19129707670;42964686279;145475717;66143717;5553430482;122587594;133079557;653;1;1276224;-13;5634;805195
3;59;1571513521853;1571513536589;14736;19151621832;42964653601;145160582;67381642;5553424672;122572894;132862533;1723;14;3375200;-46;14724;1886698
3;60;1571513536619;1571513542146;5527;19189416706;42964471909;147969709;67888368;5553397382;122518299;133288214;745;71;1246432;61;5556;767248
3;61;1571513542178;1571513547699;5521;19171046256;42964665155;147578099;68063061;5553432307;122578447;132844775;653;4;1264128;-13;5553;795253
3;62;1571513547731;1571513553242;5511;19174659464;42964607463;147640061;67094611;5553422546;122529128;134075511;653;4;1264272;19;5544;795340
3;63;1571513553273;1571513559071;5798;19177449816;42965021873;145676921;66700884;5553514083;122618917;135246005;672;9;1315472;0;5829;835632
3;64;1571513559102;1571513564726;5624;19158914240;42964904529;146087609;65825033;5553472981;122624739;137184944;680;4;1320000;-8;5655;810156
3;65;1571513564756;1571513570264;5508;19133859326;42964541314;146110085;66230424;5553408321;122559510;133052324;671;3;1305344;1;5537;793326
3;66;1571513570294;1571513584377;14083;19199080738;42964449060;147489493;68146184;5553394854;122998813;132932844;1817;39;3299432;16;14114;1988956
3;67;1571513584411;1571513590312;5901;19179215394;42964444221;145012365;68110607;5553394869;122625422;133883012;712;1;1341152;-8;5935;849121
3;68;1571513590343;1571513595888;5545;19216395462;42964294551;146565998;68325953;5553369312;122680154;134455739;663;1;1272640;-23;5575;799355
3;69;1571513595919;1571513601423;5504;19136721218;42964265060;144899147;66627492;5553363483;122535680;133827228;667;4;1271296;15;5535;796972
3;70;1571513601453;1571513606958;5505;19152458412;42964313017;145408799;67028924;5553371623;122567794;132801656;772;38;1275848;11;5536;798239
3;71;1571513606994;1571513612538;5544;19129554516;42964295170;144697317;65907377;5553369695;122618733;134594697;675;7;1282264;-2;5580;801723
3;72;1571513612568;1571513618097;5529;19152182764;42964263584;145358885;66330366;5553364331;122524201;135779983;677;3;1287952;-5;5558;797701
3;73;1571513626408;1571513631933;5525;19165035436;42964182938;144421839;67918059;5553348881;122575695;132457635;1660;14;3163936;5;13837;1794206
3;74;1571513631964;1571513637479;5515;19169334844;42964239697;143634357;68044208;5553358640;122514427;133274723;801;39;1252256;-7;5546;810326
3;75;1571513637511;1571513643533;6022;19190334608;42964419586;145312718;68246090;5553391793;122811213;131826676;734;3;1383360;2;6053;869735
3;76;1571513643566;1571513649519;5953;19188179794;42964270048;145719259;66618878;5553366109;122632097;136035916;711;6;1341328;-7;5987;860361
3;77;1571513649549;1571513655051;5502;19142075622;42964278721;142782669;66104264;5553365899;122598377;133511489;673;2;1268720;-1;5532;793448
3;78;1571513655080;1571513660611;5531;19148680808;42964090816;145101712;66306259;5553333778;122618773;136849443;693;3;1311824;11;5560;796167
3;79;1571513660644;1571513675042;14398;19190427026;42964301358;147880548;67726325;5553371889;122857760;134219019;1869;47;3334104;5;14431;2074987
3;80;1571513675072;1571513681236;6164;19185635452;42964039438;145852489;68227118;5553325747;122660663;133521862;771;5;1429536;-3;6194;889320
3;81;1571513681267;1571513686897;5630;19190383080;42964007505;145949437;67743921;5553320150;122612804;134468072;669;3;1265304;3;5661;811815
3;82;1571513686930;1571513692570;5640;19182706546;42964096326;144517368;66447005;5553335431;122668861;136084515;714;5;1345576;-10;5673;814354
3;83;1571513692603;1571513698150;5547;19179070270;42964030740;147493580;66306246;5553325836;122639446;136766322;834;32;1286192;-16;5579;810227
3;84;1571513698181;1571513703710;5529;19163177732;42964121100;147936869;66261032;5553342931;122603823;137492468;699;4;1311968;5;5560;793561
3;85;1571513703740;1571513709274;5534;19172907610;42964280815;149878246;65544395;5553373959;122584400;138847682;675;5;1265160;-3;5564;798162
3;86;1571513709306;1571513722954;13648;19168390370;42964641579;147229551;67833945;5553431585;122715926;133212580;1686;16;3122224;15;13681;1805619
3;87;1571513722987;1571513728567;5580;19202225724;42963953324;149998236;67852196;5553310154;122887436;134156376;846;42;1294376;10;5613;816336
3;88;1571513728598;1571513734275;5677;19168762962;42963986456;147587282;68159890;5553317319;122674752;132331618;798;38;1184392;-18;5708;838083
3;89;1571513734306;1571513739832;5526;19146371964;42963957757;145634779;65894425;5553311242;122906189;135873176;869;10;962568;8;5557;802158
3;90;1571513739862;1571513745358;5496;19103234658;42963967550;144538659;65531614;5553313106;122548617;132485242;658;10;1211824;-18;5525;793075
3;91;1571513745389;1571513750937;5548;19181356338;42963971909;146315742;66688193;5553314341;122593301;138117904;671;5;1259264;1;5580;802149
3;92;1571513750968;1571513764683;13715;19141628570;42963970412;147053938;65851986;5553313201;122638749;139307193;1784;22;3278600;-55;13746;1921532
3;93;1571513764714;1571513770290;5576;19221478744;42964190542;146518496;67929703;5553355083;122641806;138420223;786;60;1234744;82;5607;768627
3;94;1571513770323;1571513775854;5531;19199746352;42964158986;145789413;67993681;5553346818;122581985;135154395;757;8;1255704;-15;5563;797349
3;95;1571513775886;1571513781405;5519;19166201100;42964098579;146507418;66849503;5553337808;122594335;136587935;677;9;1219248;-5;5552;798785
3;96;1571513781436;1571513786946;5510;19166326660;42964266148;145672955;66296310;5553364127;122530352;134408255;703;5;1290880;1;5540;795500
3;97;1571513786977;1571513792496;5519;19135285892;42963934212;146229170;65734713;5553310239;122665636;132894742;717;9;1313536;19;5551;795164
3;98;1571513792527;1571513798038;5511;19131797076;42963823713;144562820;67074290;5553290401;122529518;132060511;805;42;1274128;3;5542;797880
3;99;1571513798070;1571513812670;14600;19141516004;42963967577;145959626;66392102;5553316253;122583962;133180010;1854;17;3352696;-65;14631;2074036
3;100;1571513812700;1571513818234;5534;19219783392;42963922614;145820186;68039278;5553308506;122598210;133681220;680;8;1238992;64;5564;774491
3;101;1571513818265;1571513823914;5649;19144173058;42963827468;147878396;65714918;5553292671;122658559;133366277;734;10;1323536;-30;5681;813998
3;102;1571513823944;1571513829476;5532;19142144972;42963833146;146425658;67627464;5553292592;122621008;134060600;821;67;1292832;0;5561;804816
3;103;1571513829507;1571513835150;5643;19160555864;42963996436;147700726;67718776;5553321876;122566703;133863734;723;9;1299688;13;5675;813916
3;104;1571513835180;1571513840697;5517;19148336248;42963998720;145872204;66502964;5553323195;122628810;133163089;710;5;1277008;-6;5547;797893
3;105;1571513840726;1571513846265;5539;19141169984;42963846281;148975331;65897639;5553295060;122622935;132077762;680;5;1205936;23;5568;796537
4;55;1571514344275;1571514349850;5575;19308356190;42781112397;141865093;66158755;5547976628;129320477;132855378;683;3;1337888;21;5607;803281
4;56;1571514349881;1571514355562;5681;19303189834;42781151371;142236678;66678258;5547981894;129331307;131896034;769;31;1301240;-22;5711;823813
4;57;1571514355591;1571514361237;5646;19281025428;42781289170;138756940;65666365;5548006659;129290438;130477007;670;7;1291496;2;5675;816635
4;58;1571514361267;1571514375601;14334;19297804916;42781212557;140725507;66659155;5547995467;129379192;131527299;1692;7;3269600;-81;14365;1956324
4;59;1571514375634;1571514381209;5575;19325769026;42781077111;142800014;68210800;5547973376;129299117;131744929;772;41;1270864;78;5608;745095
4;60;1571514381239;1571514386801;5562;19333427894;42781091082;143146831;68109373;5547980441;129222520;131740660;670;3;1272144;2;5592;804009
4;61;1571514386834;1571514392397;5563;19327668486;42781130703;142475891;67345695;5547986698;129266591;132418099;669;2;1296320;3;5595;803833
4;62;1571514392428;1571514398077;5649;19318583636;42781076749;142508586;66370264;5547977288;129264426;131737567;673;3;1265888;-1;5681;814338
4;63;1571514398108;1571514403675;5567;19321735630;42781343104;140442836;66357154;5548041527;129308749;130786011;690;2;1312448;14;5598;802999
4;64;1571514403705;1571514409253;5548;19294116226;42781123915;142283575;65945564;5547987121;129253843;131871850;675;5;1301072;-3;5578;803196
4;65;1571514409283;1571514422403;13120;19283821474;42780959795;139540338;67208919;5547954244;129291802;130661379;1702;40;3049816;-9;13150;1912640
4;66;1571514422435;1571514428465;6030;19338839530;42781035223;140571505;68202117;5547970474;129228134;131509271;743;8;1404648;-7;6061;868907
4;67;1571514428496;1571514434065;5569;19322472930;42780958678;140317173;68071073;5547956812;129258225;130803462;661;6;1245576;11;5601;805768
4;68;1571514434097;1571514439660;5563;19311332838;42781026790;142282452;66949539;5547969994;129294117;131505353;700;7;1332640;4;5595;801428
4;69;1571514439692;1571514445400;5708;19286932734;42780880890;140534622;66211082;5547944485;129329091;129728342;780;44;1316672;-17;5739;822789
4;70;1571514445429;1571514450974;5545;19275669126;42780775446;138759648;66965489;5547927049;129245199;130778101;713;8;1334672;25;5574;798289
4;71;1571514451005;1571514456578;5573;19296763644;42780762097;141206292;65785869;5547924801;129279837;131071304;680;7;1288320;-8;5605;806636
4;72;1571514456608;1571514470728;14120;19324341000;42780825581;141635018;67297050;5547936071;129278964;131323741;1741;16;3243336;-7;14150;1869345
4;73;1571514470785;1571514476360;5575;19362336332;42780885597;142219399;67549414;5547944906;129293074;131914247;778;56;1271808;2;5632;812954
4;74;1571514476391;1571514482067;5676;19333447312;42780655586;140050046;68119192;5547905075;129409674;129974101;693;2;1280320;11;5707;819642
4;75;1571514482100;1571514488053;5953;19313190104;42780938631;142236666;67530519;5547956348;129487134;130321883;736;5;1351672;0;5986;858724
4;76;1571514488084;1571514493698;5614;19253231554;42780777223;141774647;65280438;5547927752;129321711;129656643;690;9;1288344;-18;5645;813183
4;77;1571514493728;1571514499326;5598;19294829436;42780799751;141002984;66829477;5547931104;129361546;130331501;721;7;1333848;15;5628;808052
4;78;1571514499356;1571514512261;12905;19283399972;42780643311;140464401;66637016;5547904246;129312108;130614368;1752;38;3054088;-21;12935;1849974
4;79;1571514512295;1571514517984;5689;19344468414;42780732164;143222332;68131517;5547919881;129382447;132566070;693;4;1283432;28;5723;819952
4;80;1571514518015;1571514523578;5563;19330005362;42780693865;141192147;67927402;5547912333;129253339;130516513;689;6;1255840;-17;5594;801822
4;81;1571514523609;1571514529535;5926;19325671790;42780702873;142767373;66935635;5547914481;129377771;132137292;744;5;1363872;-8;5957;856008
4;82;1571514529565;1571514535271;5706;19280154538;42780699993;142539212;66406285;5547913869;129319983;131431235;811;39;1313872;-3;5736;822203
4;83;1571514535304;1571514540887;5583;19276519430;42780614759;142738898;65767106;5547900054;129310117;130377426;738;7;1357312;30;5616;802937
4;84;1571514540917;1571514546645;5728;19278718628;42780791836;142824435;66209486;5547933045;129448508;131210646;732;5;1324968;-28;5758;824603
4;85;1571514546675;1571514561199;14524;19314550970;42781039014;141722001;67654471;5547982450;129327188;130047262;1807;19;3295824;28;14554;2023532
4;86;1571514561231;1571514566816;5585;19350978846;42780844576;142653385;67616353;5547938621;129354778;131056036;825;60;1201848;-11;5616;813828
4;87;1571514566850;1571514572574;5724;19339613914;42780725753;140527796;68578813;5547919165;129484274;130507055;888;11;1003976;9;5759;833225
4;88;1571514572607;1571514578269;5662;19307837744;42780609793;140646111;66306701;5547898209;129276351;130363998;718;4;1324800;-14;5695;818473
4;89;1571514578300;1571514584037;5737;19282366438;42780654106;142507033;65947864;5547907217;129297093;131582024;721;6;1292568;15;5768;829478
4;90;1571514584068;1571514589746;5678;19274052760;42780512099;141925113;65845310;5547882899;129288177;130762684;731;5;1334656;-27;5709;816448
4;91;1571514589778;1571514595344;5566;19292219540;42780512412;139976333;66370707;5547882082;129271043;129817546;745;8;1347016;23;5598;801594
4;92;1571514595374;1571514611022;15648;19334910232;42780603402;143410024;67777304;5547898749;129379358;130036188;2132;52;3537632;-3;15678;2252547
4;93;1571514611054;1571514616696;5642;19334749778;42780751013;140879272;68143321;5547927383;129314884;130149700;704;11;1280616;1;5674;811968
4;94;1571514616730;1571514622281;5551;19307804018;42780658700;143265740;67230991;5547908862;129309171;130717401;715;5;1261360;-11;5585;800797
4;95;1571514622314;1571514627896;5582;19283026650;42780622960;140145946;66103203;5547905632;129344785;131733329;829;40;1287384;-13;5615;812878
4;96;1571514627926;1571514633474;5548;19294605034;42781033260;139909791;66468526;5547973244;129240930;130781570;726;2;1309448;10;5578;797116
4;97;1571514633504;1571514639047;5543;19291629992;42780330349;141948864;65386650;5547854534;129220511;130800555;699;7;1243704;5;5573;796183
4;98;1571514639077;1571514652565;13488;19275971054;42780358172;141489695;65972259;5547859513;129294109;131912369;1711;15;3052944;-26;13518;1927639
4;99;1571514652599;1571514658326;5727;19358127298;42780409593;141347245;68052336;5547868883;129340513;130150890;849;60;1330128;37;5761;823277
4;100;1571514658357;1571514664182;5825;19318774166;42780400148;142111394;67993924;5547867560;129414242;132018871;773;5;1374336;-5;5856;837429
4;101;1571514664215;1571514669883;5668;19333246124;42780316133;140078055;67086341;5547853294;129330210;130553373;741;3;1330560;-5;5701;818357
4;102;1571514669914;1571514675545;5631;19289317206;42780318594;141695783;65922981;5547852505;129297863;129386869;715;7;1256648;-11;5662;810931
4;103;1571514675578;1571514681146;5568;19296118762;42780350736;141786362;66258227;5547858672;129312579;129749360;722;6;1307112;14;5600;802991
4;104;1571514681175;1571514686738;5563;19300549862;42780473315;141453156;66527036;5547881315;129323593;132027271;753;6;1317784;-17;5593;800034
