0;19;1571574194929;1571574205294;10365;32585905126;11013088627;1393188480;745721125;2390072047;34133181;575027952;1685;2186;1844048;7;8908;64853
0;20;1571574205294;1571574215601;10307;32433964240;11013093151;1390247367;747407310;2390072973;34127627;573142784;1956;2084;1854816;7;9495;140741
0;21;1571574215601;1571574225835;10234;32275478904;11013094860;1394158125;747999532;2390073129;34117814;575835935;1921;1937;1867192;5;9388;76113
0;22;1571574225835;1571574236089;10254;32348481532;11013100584;1392636871;747958386;2390073958;34127216;572894861;1715;2165;1898152;-10;9408;67816
0;23;1571574236090;1571574246319;10229;32236675316;11013089214;1394345784;746257892;2390071997;34111521;574440213;1871;2279;1887208;-6;9858;274367
0;24;1571574246319;1571574256578;10259;32259155082;11013093071;1388899057;746508354;2390072830;34147876;573140181;1898;1960;1837048;5;9172;73942
0;25;1571574256578;1571574266924;10346;32387569236;11013100705;1390783914;746780507;2390074948;34142005;574156122;1705;2210;1858712;-4;8977;65207
0;26;1571574266924;1571574277237;10313;32373724202;11013091083;1393339587;748628190;2390073069;34116835;574213905;1830;2265;1856920;40;9419;168044
0;27;1571574277238;1571574287484;10246;32265344460;11013094472;1394446209;747350210;2390073180;34120844;574470652;1982;1909;1925848;-36;9607;130253
0;28;1571574287484;1571574297719;10235;32265662448;11013098700;1389831287;748187421;2390073784;34139046;573089943;1783;2084;1830600;-3;8736;55209
0;29;1571574297719;1571574307948;10229;32237112732;11013108214;1395895473;746478946;2390075353;34130893;574455756;1934;2017;1826648;3;9083;73922
0;30;1571574307948;1571574318212;10264;32386762878;11013098643;1396008691;750642719;2390073708;34117809;576675042;2026;1879;1841408;-9;9270;88506
0;31;1571574318212;1571574328546;10334;32437148354;11013097219;1390479347;751013293;2390073406;34122673;576884966;1786;2105;1782808;-1;8532;57446
0;32;1571574328546;1571574338948;10402;32203383082;11013095665;1389227122;742538078;2390072955;34127902;573163748;1691;2129;1823784;26;8845;104159
0;33;1571574338948;1571574349183;10235;32285923160;11013098606;1394012143;748273019;2390073671;34127492;573460780;2071;1870;1903248;-21;9400;80044
0;34;1571574349183;1571574359435;10252;32347510924;11013098622;1395179080;749589480;2390073687;34124083;576050605;1893;2042;1883136;1;8958;65335
0;35;1571574359435;1571574369680;10245;32312384638;11013098649;1391087134;748779897;2390073714;34122242;576871509;1859;2228;1853216;40;9091;183783
0;36;1571574369680;1571574379926;10246;32285412452;11013108382;1389658593;748806355;2390075407;34129272;573194425;2041;1947;1939632;-39;9890;157858
0;37;1571574379926;1571574390151;10225;32257874662;11013098562;1393885002;747362546;2390073646;34126952;572711628;1888;2004;1846816;-3;8859;62974
0;38;1571574390151;1571574400393;10242;32304907102;11013098633;1395721702;748053115;2390073698;34127769;576112901;1838;2291;1847032;37;9354;168711
0;39;1571574400394;1571574410637;10243;32288540502;11013108348;1391538211;748215895;2390075373;34118751;576911728;2059;1943;1918480;-41;9576;124271
0;40;1571574410637;1571574420888;10251;32314606612;11013106836;1390295764;749358232;2390075059;34126162;573268971;1908;2051;1872312;12;9295;99252
0;41;1571574420888;1571574431117;10229;32266532316;11013098610;1394622181;747811921;2390073675;34122640;573549146;1908;2231;1828680;43;9437;180400
0;42;1571574431117;1571574441364;10247;32327712010;11013098840;1396458604;748756259;2390073715;34123351;576718973;2048;1997;1930624;-44;9790;151330
0;43;1571574441364;1571574451609;10245;32315963828;11013098606;1391575695;748553809;2390073671;34115570;576915162;1963;2040;1883648;-5;9275;85734
0;44;1571574451609;1571574461843;10234;32277894328;11013098606;1390266393;748303316;2390073671;34132512;573241100;1891;2279;1841432;44;9474;192594
0;45;1571574461844;1571574472087;10243;32315016726;11013098073;1394801248;748746404;2390073591;34111617;574797408;1985;2089;1943960;-50;9938;203239
0;46;1571574472087;1571574482330;10243;32316004562;11013098610;1395674334;748174103;2390073675;34122936;576101424;1968;2068;1877520;16;9016;68961
0;47;1571574482330;1571574492677;10347;32307589560;11013098649;1391508888;748502144;2390073714;34129882;576900178;1953;2281;1876088;26;9400;156268
0;48;1571574492677;1571574502928;10251;32284443742;11013096849;1389558074;748028572;2390073299;34123183;572712885;2085;1975;1897376;-40;9439;111411
0;49;1571574502928;1571574513335;10407;32560632526;11013098039;1394043981;748040113;2390074207;34150395;572952281;1980;2140;1907944;4;9231;76680
0;50;1571574513336;1571574523700;10364;32681538630;11013099191;1396391073;746142430;2390074060;34135206;576123823;2080;2134;1856656;1;9531;93314
0;51;1571574523700;1571574533988;10288;32417656040;11013096627;1392131588;748477812;2390073248;34122463;576624058;2169;1893;1896040;-1;9444;88857
0;52;1571574533988;1571574544224;10236;32299303038;11013098593;1389704170;748526953;2390073658;34121398;573158794;2002;2073;1883392;-5;9345;81692
0;53;1571574544224;1571574554350;10126;31857305996;11013098507;1394479503;733781825;2390073572;34123874;573507721;1899;1974;1568472;18;9907;923666
0;54;1571574554351;1571574564601;10250;32348367068;11013098569;1396622397;748877047;2390073682;34102769;576979702;2136;1962;1890960;-6;9683;98370
0;55;1571574564601;1571574574869;10268;32374857016;11013097191;1391230492;749762119;2390073378;34120433;576863565;1969;2152;1887920;0;8854;71231
0;56;1571574574869;1571574585278;10409;32734876372;11013094980;1389691677;748864190;2390073392;34155349;573392020;2188;2251;1864912;-6;9807;232396
0;57;1571574585278;1571574595604;10326;32500079756;11013096183;1391949172;742551745;2390073347;34134634;573286136;2162;1974;1893160;5;9645;96677
0;58;1571574595604;1571574605970;10366;32469453482;11013098318;1392215857;746601930;2390074486;34135817;576280748;1940;2226;1907672;-3;8912;64256
0;59;1571574605970;1571574616347;10377;32436146356;11013100153;1389086935;748310313;2390075218;34144337;577174121;2060;2380;1911392;3;10341;391832
0;60;1571574616347;1571574626695;10348;32443453510;11013101192;1390405009;747462830;2390075009;34135714;577297070;2207;1981;1915768;-6;9841;127793
0;61;1571574626695;1571574637052;10357;32323286312;11013099327;1395158177;748042180;2390073845;34128086;575197614;1957;2216;1912880;3;9117;72002
0;62;1571574637052;1571574647310;10258;32350029278;11013091572;1393087992;748958794;2390072722;34123051;573752421;2165;2161;1882240;-1;10013;227464
0;63;1571574647310;1571574657554;10244;32298996876;11013090214;1392995202;746906592;2390072382;34105469;575689092;2165;1971;1891464;-4;9597;102638
0;64;1571574657554;1571574667795;10241;32313866246;11013100210;1391182034;747833568;2390073754;34124660;573655586;1974;2190;1882216;12;8714;63678
0;65;1571574667795;1571574678033;10238;32304068332;11013099557;1395685854;748330020;2390073790;34141643;575818205;2076;2282;1891952;-6;9960;322701
0;66;1571574678033;1571574688289;10256;32305079090;11013096143;1394165016;748401819;2390073215;34121345;576202536;2154;1979;1875152;0;9684;97031
0;67;1571574688289;1571574698534;10245;32326063378;11013094428;1395332357;747785878;2390072923;34116708;572210727;2022;2158;1888216;-10;9053;71645
0;68;1571574698534;1571574708793;10259;32346283648;11013099710;1392881194;749002369;2390073914;34120158;577545801;2021;2343;1881072;9;10143;344870
1;19;1571575050230;1571575060574;10344;32628477120;11628439387;1396876652;743081464;2404616769;34101740;578590868;1723;2230;1883464;-3;9064;57864
1;20;1571575060574;1571575070937;10363;32696519252;11628446454;1400997166;743959502;2404618086;34118266;577167251;1960;2201;1890136;14;9648;131124
1;21;1571575070937;1571575081295;10358;32672212004;11628449312;1397599655;745217654;2404618423;34114966;577394323;1950;2016;1880960;-5;9511;80677
1;22;1571575081295;1571575091647;10352;32665155970;11628440162;1398057953;744591472;2404616923;34140593;577895669;1776;2208;1877336;-10;8986;66937
1;23;1571575091647;1571575101993;10346;32641925180;11628438715;1399434574;744422890;2404616588;34133640;579881703;1840;2324;1885288;6;9943;223668
1;24;1571575101993;1571575112352;10359;32688944188;11628438722;1397828891;744417172;2404616595;34133561;580522868;1967;2020;1876776;6;9433;74050
1;25;1571575112352;1571575122716;10364;32653236530;11628448510;1399162563;743641386;2404618417;34124616;577322457;2039;2161;1885432;-7;10137;187405
1;26;1571575122716;1571575133077;10361;32592422128;11628437618;1403095159;746600589;2404616639;34162506;576314794;1883;2127;1875648;-4;9070;60209
1;27;1571575133077;1571575143468;10391;32434349972;11628436538;1405539550;748035046;2404616441;34144160;580086024;1699;2232;1869152;6;8480;51337
1;28;1571575143468;1571575153881;10413;32744259354;11628434256;1403971373;743941531;2404615535;34150435;580506881;1914;2008;1853232;-1;9966;219828
1;29;1571575153882;1571575164320;10438;32929435242;11628453880;1408329154;749478024;2404619209;34137127;577450326;1976;2051;1885216;3;9657;80614
1;30;1571575164320;1571575174706;10386;32691376694;11628448173;1399787824;745176261;2404618174;34128398;577392670;1794;2218;1849488;-9;8611;62074
1;31;1571575174706;1571575185092;10386;32670885010;11628440070;1400733320;743123442;2404616687;34130017;577115365;2095;2044;1830216;4;9546;153486
1;32;1571575185092;1571575195472;10380;32712848914;11628446775;1399612391;745591382;2404618204;34139838;577448159;1916;2014;1814728;10;9036;70941
1;33;1571575195472;1571575205979;10507;32692496660;11628442403;1399147329;746022648;2404617377;34122059;577170269;1869;2253;1903328;7;9378;68700
1;34;1571575205979;1571575216416;10437;32625569092;11628440195;1401295663;750252828;2404618267;34160831;575747839;2064;2260;1919352;-10;10193;253770
1;35;1571575216416;1571575226833;10417;32670471392;11628450297;1402937308;752073822;2404619517;34152925;579821252;2051;2069;1906952;-11;9853;90778
1;36;1571575226833;1571575237256;10423;32690391340;11628441395;1403539455;748729141;2404618159;34149189;580314193;1830;2283;1901168;5;8734;56665
1;37;1571575237257;1571575247633;10376;32492390958;11628455755;1405653030;744782441;2404620563;34152478;579211685;1972;2177;1857232;-3;9698;182928
1;38;1571575247633;1571575257963;10330;32356157336;11628440307;1400002114;744098735;2404617056;34121305;577988569;1844;1949;1822344;-3;8815;64652
1;39;1571575257963;1571575268295;10332;32543485118;11628450045;1406102551;748210193;2404618429;34132027;577497774;1889;2293;1846592;102;8954;68111
1;40;1571575268295;1571575278621;10326;32517184386;11628449400;1404929314;750924675;2404618981;34138287;578101380;2102;2078;1874552;-87;9638;179122
1;41;1571575278621;1571575288931;10310;32528077738;11628440725;1402657869;751136951;2404617043;34121723;578445861;2030;2097;1866856;-15;9352;85477
1;42;1571575288931;1571575299220;10289;32479802546;11628441991;1401122280;749384295;2404617221;34122968;577318288;1892;2186;1835144;36;8677;62717
1;43;1571575299220;1571575309576;10356;32647951768;11628444935;1400269561;746322934;2404617874;34129199;578242523;2027;2406;1921256;-29;10155;425972
1;44;1571575309576;1571575319927;10351;32649702308;11628449050;1397644084;744311640;2404618539;34128967;577351133;2053;2082;1883392;-5;9575;86669
1;45;1571575319927;1571575330288;10361;32656422980;11628440405;1397077996;746477581;2404616995;34148110;580294915;1879;2281;1860632;0;8792;57942
1;46;1571575330288;1571575340651;10363;32667984282;11628438720;1399955803;745043566;2404616593;34124672;575376905;2238;2217;1891712;15;10228;312060
1;47;1571575340651;1571575350985;10334;32601805548;11628438687;1399671786;743364525;2404616560;34150318;578258772;2144;2062;1894680;-10;9477;90087
1;48;1571575350985;1571575361316;10331;32594123758;11628437002;1397321790;743633054;2404616235;34154197;577463475;1949;2220;1870272;10;9134;77198
1;49;1571575361316;1571575371679;10363;32700174070;11628438727;1399746171;745262376;2404616600;34115786;577237417;2128;2342;1912104;-3;10310;373728
1;50;1571575371679;1571575382031;10352;32668635880;11628438701;1399795977;745001625;2404616593;34139345;575342517;2123;2090;1888008;-4;9608;90532
1;51;1571575382031;1571575392367;10336;32608604476;11628437000;1397864846;742984006;2404616233;34135746;577583650;2032;2327;1867080;117;8984;79008
1;52;1571575392367;1571575402710;10343;32630670770;11628438707;1397362938;743835614;2404616580;34138400;578663835;2122;2170;1911176;-125;9981;273090
1;53;1571575402710;1571575413089;10379;32685905636;11628439016;1399656978;744347851;2404616889;34116248;578935134;2096;2105;1881152;-2;9566;81549
1;54;1571575413090;1571575423454;10364;32675495252;11628439080;1400127472;745385813;2404616953;34148195;575408657;2137;2287;1807640;82;8982;145200
1;55;1571575423454;1571575433802;10348;32619882392;11628439046;1399897457;743771869;2404616919;34123296;578304328;1990;2271;1959760;-77;10185;388164
1;56;1571575433802;1571575444151;10349;32646012888;11628438751;1397569796;743916386;2404616624;34145580;578657657;2077;2114;1873272;-5;9544;101779
1;57;1571575444151;1571575454507;10356;32684986420;11628438962;1399909691;744971614;2404616645;34119803;577279010;2130;2308;1792992;134;9025;191235
1;58;1571575454507;1571575465180;10673;32819832312;11628439973;1399037095;753873675;2404617359;34174049;577152021;1964;2601;1692368;14;10673;1508820
1;59;1571575465180;1571575475546;10366;32492744278;11628443045;1402669944;747215034;2404618097;34161422;576085758;1565;2834;2162168;-112;10366;1154288
1;60;1571575475546;1571575485982;10436;32559444816;11628439365;1408148654;750711464;2404616689;34150038;578656492;2156;2362;1873072;15;9575;180023
1;61;1571575485982;1571575496348;10366;32666095188;11628457322;1399994680;745695867;2404619877;34132796;578538307;2089;2198;1951824;-45;10339;315661
1;62;1571575496348;1571575506712;10364;32653035926;11628456555;1399755388;746555251;2404619711;34156339;580179906;2100;2231;1879616;7;9647;147847
1;63;1571575506712;1571575517071;10359;32668031148;11628442163;1401837922;744370627;2404617270;34139891;578474513;2183;2301;1834720;40;9200;159400
1;64;1571575517071;1571575527480;10409;32724002000;11628440033;1399135948;747406444;2404617070;34147338;576111421;2103;2243;1937360;-46;10124;267570
1;65;1571575527481;1571575537855;10374;32649948318;11628446785;1398684815;745037693;2404618230;34136093;574861842;2183;2113;1877352;2;9398;112132
1;66;1571575537855;1571575548220;10365;32674638524;11628440767;1397741854;744644307;2404617003;34122457;578569652;2186;2296;1827432;62;9234;182836
1;67;1571575548220;1571575558582;10362;32649962042;11628439890;1398644182;745656271;2404616839;34144879;577977150;2242;2128;1924472;-55;10290;231896
1;68;1571575558582;1571575568950;10368;32657537252;11628437486;1402211231;743978119;2404616452;34137749;577601797;2206;2129;1884296;-9;9334;91506
2;19;1571575901649;1571575911969;10320;32547988050;11563719657;1399345093;744430682;2414796566;34026211;578509615;1622;2190;1782784;-1;7994;45774
2;20;1571575911969;1571575922291;10322;32563313524;11563729245;1398644689;742642192;2414798098;34009303;577969709;1812;2155;1805872;5;9499;164154
2;21;1571575922291;1571575932647;10356;32601536470;11563720012;1401382549;746174324;2414796632;34045187;580102551;1852;2004;1829600;-3;8966;61070
2;22;1571575932647;1571575942991;10344;32632600452;11563723600;1397822276;745828090;2414797136;34019443;579127084;1696;2152;1828664;12;8657;55645
2;23;1571575942991;1571575953336;10345;32645705850;11563721161;1401254352;745384347;2414796913;34006105;581708340;1864;2137;1818224;10;9411;171962
2;24;1571575953336;1571575963685;10349;32649417024;11563720986;1398905550;746649769;2414796889;34028996;580779513;1971;2112;1825136;22;8976;98551
2;25;1571575963685;1571575974044;10359;32667679434;11563734895;1401795344;747620137;2414799253;34029512;579921788;1952;1965;1863056;-40;9356;129502
2;26;1571575974044;1571575984515;10471;32369505386;11563726828;1401662848;743320096;2414798058;34057564;579334038;1593;2047;1793552;-3;7790;43272
2;27;1571575984515;1571575994910;10395;32519768294;11563716104;1400912836;745013568;2414795658;34047710;579183666;1705;2254;1774352;41;8059;75666
2;28;1571575994910;1571576005264;10354;32661500130;11563729451;1396578118;745641077;2414798195;34009082;577242355;2022;1960;1880680;-38;9642;138432
2;29;1571576005264;1571576015600;10336;32606117950;11563732857;1406051626;745692594;2414798783;34034506;579373929;1901;1998;1833032;-6;8780;62724
2;30;1571576015600;1571576025954;10354;32634711028;11563733622;1402199108;745431866;2414798804;34024289;579528878;1854;2270;1797608;38;8319;87588
2;31;1571576025954;1571576036291;10337;32553293690;11563725535;1402644459;750447876;2414797674;34018871;577147102;1977;1966;1848064;-36;9551;157319
2;32;1571576036291;1571576046825;10534;32488971346;11563724773;1404340003;747855439;2414798072;34051142;578775168;1851;1934;1792392;8;8561;57565
2;33;1571576046825;1571576057225;10400;32519788880;11563723876;1405318550;749038753;2414798038;34038453;577520599;1903;2237;1835184;41;8572;102037
2;34;1571576057225;1571576067572;10347;32607701758;11563721784;1402222080;745435031;2414796799;34039623;578299739;2032;1989;1860440;-45;9435;150808
2;35;1571576067573;1571576077920;10347;32636816640;11563735531;1401249470;745092833;2414799289;34006030;579061333;1943;2043;1841680;0;8780;57741
2;36;1571576077920;1571576088273;10353;32632390796;11563731752;1402825209;744313279;2414798803;34011840;582774424;1889;2280;1818120;33;8844;127188
2;37;1571576088273;1571576098608;10335;32598671804;11563730800;1405654407;743579206;2414798409;34011222;580095754;1948;1961;1883576;-39;9292;155252
2;38;1571576098608;1571576108944;10336;32603249050;11563721456;1401059646;745475860;2414796868;34027139;578594742;1920;2058;1809792;13;8830;64281
2;39;1571576108945;1571576119280;10335;32540684108;11563724611;1399577033;743461234;2414797322;34010154;579028449;1894;2200;1778616;60;8538;165675
2;40;1571576119280;1571576129741;10461;32527992912;11563738418;1403971689;751192868;2414800833;34082370;578546484;2110;1914;1908272;-73;10045;174035
2;41;1571576129741;1571576140138;10397;32466461650;11563716165;1403669292;751415723;2414795719;34029078;577146171;1905;2100;1795416;6;8624;64688
2;42;1571576140138;1571576150488;10350;32473504544;11563721451;1402441722;745046076;2414796939;34029830;579330746;1918;2194;1806224;33;8896;122819
2;43;1571576150488;1571576160863;10375;32731110156;11563722854;1398989763;748167879;2414796985;34026203;577333633;2054;1992;1829896;-32;9057;87498
2;44;1571576160863;1571576171223;10360;32688296094;11563719993;1402094028;746590343;2414796491;34033037;580186645;1937;2104;1829656;-5;8715;61010
2;45;1571576171223;1571576181630;10407;32603235910;11563720156;1401148514;747402769;2414797172;34009282;576771236;1980;2262;1801000;49;9237;210208
2;46;1571576181630;1571576192010;10380;32517031524;11563728438;1400778922;751098935;2414798987;34037072;575881978;2073;2047;1936032;-43;9914;167271
2;47;1571576192011;1571576202398;10387;32586059886;11563731038;1404230830;751513876;2414799440;34043498;580608731;1992;2094;1878424;-8;8900;64624
2;48;1571576202398;1571576212804;10406;32588908346;11563726939;1409311092;751855658;2414798745;34046786;583561026;2034;2243;1862008;23;9436;154271
2;49;1571576212804;1571576223398;10594;32577145710;11563732407;1411243708;752124482;2414799786;34057348;580741517;2230;1949;1890344;-13;9768;94778
2;50;1571576223398;1571576233789;10391;32550289302;11563733761;1407607763;751440627;2414800057;34057323;579024624;1997;2114;1880480;-10;9107;64308
2;51;1571576233789;1571576244217;10428;32589754854;11563722498;1406532749;752944354;2414798269;34054452;578637965;2018;2271;1860720;38;9560;247943
2;52;1571576244217;1571576254582;10365;32499389760;11563733527;1407959594;750167532;2414799981;34049376;578088173;2137;1978;1902736;-36;9621;126754
2;53;1571576254582;1571576265014;10432;32680963682;11563722064;1405849286;755603682;2414798109;34039320;576651595;2019;2318;1701160;141;9859;543800
2;54;1571576265014;1571576275457;10443;32762473000;11563719272;1404336547;752260450;2414797077;34060005;580308188;1720;2710;1981248;-113;10443;1173005
2;55;1571576275457;1571576285856;10399;32779989204;11563721270;1401953457;748318095;2414796913;34035178;576868857;1925;2209;1887824;-24;8975;79883
2;56;1571576285856;1571576296297;10441;32910186894;11563729374;1403768937;751312733;2414798274;34049455;580459679;1996;2271;1860968;24;9661;229928
2;57;1571576296297;1571576306727;10430;32873141584;11563721174;1404526306;750654013;2414796945;34038464;578842466;2229;1968;1836840;-26;9089;99141
2;58;1571576306727;1571576317141;10414;32845754466;11563719020;1403372938;750097478;2414796623;34044614;577099673;2009;2131;1871520;-2;8930;65358
2;59;1571576317141;1571576327540;10399;32825974386;11563737465;1407132511;750496974;2414799469;34030566;577410595;2091;2243;1874368;2;9276;137708
2;60;1571576327541;1571576338038;10497;32587628656;11563728504;1405863589;742385799;2414798576;34040537;577158268;2080;1917;1804056;10;8716;67235
2;61;1571576338038;1571576348427;10389;32533014874;11563737277;1408939798;746086539;2414800105;34065512;578636346;1866;2091;1847688;-11;8857;75646
2;62;1571576348427;1571576358821;10394;32364036956;11563733371;1405625545;745716214;2414798874;34037714;576032660;1919;2036;1820976;8;9533;200244
2;63;1571576358821;1571576369111;10290;32475219168;11563721297;1404186441;751539310;2414796862;34030139;577371686;2161;1927;1821944;7;8908;80345
2;64;1571576369111;1571576379394;10283;32450416834;11563731904;1409835322;751231032;2414798687;34017184;580338056;2000;2116;1833344;-12;8833;68039
2;65;1571576379395;1571576389681;10286;32472235950;11563721792;1410203006;751584053;2414796915;34026186;579565428;2206;2131;1827160;1;9422;202906
2;66;1571576389681;1571576400129;10448;32682227166;11563730108;1408060988;750949731;2414798113;34014113;581471183;2199;1999;1855144;-7;9634;89826
2;67;1571576400129;1571576410549;10420;32861896080;11563728825;1404780911;749907161;2414798266;34021342;579292168;2007;2162;1854496;12;8796;77282
2;68;1571576410549;1571576420934;10385;32792481256;11563721481;1403899097;747780025;2414796886;34066189;581130000;2195;2218;1872344;-12;9689;259286
3;19;1571576764404;1571576774874;10470;32639298640;10958023069;1392172659;742563264;2390501287;34841644;574776854;1693;2174;1900688;-3;8663;48486
3;20;1571576774874;1571576785252;10378;32646271600;10958019350;1395520966;744003157;2390500938;34842307;571072274;1939;2115;1889344;4;9581;131057
3;21;1571576785252;1571576795570;10318;32530474912;10958018795;1391315683;741679281;2390501154;34844151;569503838;1899;1936;1875120;0;9548;88371
3;22;1571576795570;1571576805888;10318;32523800230;10958019546;1388296403;740873706;2390501283;34838845;571978807;1725;2129;1894208;-11;9168;67288
3;23;1571576805888;1571576816207;10319;32541821448;10958025195;1392167885;741672081;2390502005;34850323;571060330;1959;2106;1895216;1;9865;225237
3;24;1571576816207;1571576826564;10357;32560200804;10958019461;1390206401;741940828;2390501108;34830556;574129146;1899;1974;1861848;7;9304;70527
3;25;1571576826564;1571576836874;10310;32473289778;10958030126;1389641626;740547965;2390502844;34850779;572377755;1948;2071;1869784;-5;9937;160237
3;26;1571576836874;1571576847195;10321;32542727962;10958021842;1388835300;742036492;2390501577;34837831;571198896;1819;2058;1874992;0;9299;64788
3;27;1571576847195;1571576857457;10262;32339540346;10958026563;1391542065;735723176;2390502349;34825650;571005721;1508;2065;1807368;-6;8138;53598
3;28;1571576857457;1571576867871;10414;32674260530;10958030002;1395281503;743367505;2390502877;34865008;574483768;1995;1973;1873200;10;9792;229951
3;29;1571576867872;1571576878286;10414;32818147618;10958033983;1396636481;748383235;2390503536;34845961;573975291;1941;1968;1885712;-1;9329;75114
3;30;1571576878286;1571576888683;10397;32776515280;10958018369;1397618648;748467070;2390500827;34854859;572258767;1746;2142;1843800;-4;8611;56891
3;31;1571576888683;1571576899155;10472;32604077016;10958026206;1393492875;741019627;2390502346;34853284;570932961;1993;2021;1754672;0;9184;123290
3;32;1571576899155;1571576909493;10338;32597140848;10958031069;1393864067;741893844;2390503106;34831889;571544286;1933;2015;1883904;1;9577;70090
3;33;1571576909493;1571576919810;10317;32529185732;10958022081;1393111994;742094665;2390501349;34822839;573640122;1852;2202;1859104;23;8617;56093
3;34;1571576919810;1571576930122;10312;32510441960;10958030918;1392516721;742263488;2390502859;34826972;570219306;1944;2008;1878704;-22;9767;222586
3;35;1571576930122;1571576940443;10321;32549014284;10958020522;1391461428;741735617;2390501194;34832260;573313712;1933;1979;1874728;-3;9131;67446
3;36;1571576940443;1571576950773;10330;32556035424;10958031446;1390688691;741670043;2390503092;34832529;572694143;1873;2251;1843624;25;8946;79212
3;37;1571576950773;1571576961099;10326;32571288044;10958026516;1391002747;742520332;2390502302;34834178;572390809;1957;2020;1907008;-25;9747;179221
3;38;1571576961099;1571576971401;10302;32485238710;10958029565;1389104805;740659849;2390502649;34842821;570743372;1952;1980;1871312;-4;9349;74116
3;39;1571576971401;1571576981730;10329;32544983662;10958038898;1391480611;740048352;2390504291;34841961;571158705;1880;2219;1840096;58;8933;84116
3;40;1571576981730;1571576992059;10329;32562510816;10958039127;1390654654;742245596;2390504331;34819882;573489978;2006;2013;1921912;-54;9805;224630
3;41;1571576992059;1571577002372;10313;32510834408;10958020595;1389705427;741953106;2390501119;34854192;573115496;1977;2010;1871912;-4;9150;72842
3;42;1571577002373;1571577012691;10318;32540658266;10958027387;1391860014;740576615;2390502304;34825577;574585978;1909;2250;1842224;27;8967;93053
3;43;1571577012691;1571577023028;10337;32551073322;10958019257;1390328555;740821934;2390500865;34821619;570960740;1987;2024;1916104;-17;9815;199177
3;44;1571577023028;1571577033349;10321;32552512152;10958019130;1394161524;741923357;2390501037;34848897;576178424;1984;2004;1881728;-5;9309;81109
3;45;1571577033350;1571577043669;10319;32525631362;10958017386;1393463126;741642516;2390500694;34847313;572795424;1948;2224;1840144;34;8960;112679
3;46;1571577043669;1571577053986;10317;32552762250;10958018948;1392206051;740682972;2390500855;34809135;574197833;2076;1929;1898944;-39;9582;155294
3;47;1571577053986;1571577064303;10317;32482977462;10958018973;1389733883;740130085;2390500880;34832227;571154503;1970;2043;1854144;0;9078;70441
3;48;1571577064303;1571577074615;10312;32534466552;10958017210;1392250718;742223848;2390500518;34828473;572520930;1951;2211;1837328;30;8996;111944
3;49;1571577074615;1571577084947;10332;32598718670;10958018947;1391467119;740907361;2390500854;34840754;574001337;2102;1964;1911304;-27;9698;175968
3;50;1571577084947;1571577095274;10327;32586509566;10958018967;1392112535;741727608;2390500874;34825819;574190347;2028;2027;1871168;4;9156;81029
3;51;1571577095274;1571577105569;10295;32464340124;10958018897;1388907724;739824474;2390500804;34797884;571412026;1973;2247;1813568;33;8883;129844
3;52;1571577105569;1571577115900;10331;32590754370;10958018953;1394108143;743652617;2390500860;34810517;576114636;2061;2021;1931144;-34;9974;210927
3;53;1571577115900;1571577126246;10346;32642871260;10958017549;1391219320;742846244;2390500540;34825844;573215241;2123;2121;1755352;128;9487;248910
3;54;1571577126246;1571577136595;10349;32659694840;10958019056;1392262241;744750485;2390500963;34862664;574243196;1713;2609;1835144;6;10350;1458439
3;55;1571577136595;1571577146908;10313;32516383430;10958019099;1389717572;741331047;2390501006;34828810;571145298;1684;2514;2050728;-133;9774;535128
3;56;1571577146908;1571577157246;10338;32610342168;10958019106;1394103277;742367835;2390501013;34825580;576152646;1981;2233;1785424;18;8759;123770
3;57;1571577157246;1571577167582;10336;32617330750;10958018961;1391504835;742298787;2390500868;34825589;574016667;2185;1965;1896528;-4;9863;173229
3;58;1571577167582;1571577177912;10330;32593020582;10958018960;1392230608;742176445;2390500867;34838904;574235541;2064;2035;1875792;-14;9496;96723
3;59;1571577177912;1571577188214;10302;32493467854;10958029139;1389103636;740304548;2390502576;34845098;571612903;2033;2260;1842744;22;8992;135029
3;60;1571577188214;1571577198552;10338;32621171864;10958022635;1393575328;742981138;2390501489;34820801;574544150;2248;1880;1903848;-18;9670;103593
3;61;1571577198552;1571577208881;10329;32587672894;10958021207;1391204043;742456758;2390501128;34823043;572005041;2082;2030;1875448;-4;9002;73280
3;62;1571577208881;1571577219194;10313;32552591430;10958027034;1391207650;742965443;2390502213;34838443;572069893;2083;2193;1830168;37;9259;175999
3;63;1571577219194;1571577229517;10323;32570412482;10958020876;1396780985;743477988;2390501104;34840837;572707951;2183;1978;1926200;-34;9748;156467
3;64;1571577229517;1571577239830;10313;32538472500;10958019320;1391329056;743030887;2390500798;34845837;574689475;2073;2056;1877560;-10;9307;83492
3;65;1571577239830;1571577250140;10310;32518711108;10958020617;1393517399;741786148;2390501216;34826218;573630117;2032;2288;1852208;25;9288;152052
3;66;1571577250140;1571577260455;10315;32543433726;10958017141;1392711510;741858942;2390500627;34832261;574025057;2272;1891;1893392;-18;9884;133689
3;67;1571577260455;1571577270784;10329;32590157376;10958017609;1393758230;743278944;2390500728;34837609;573758865;2079;2066;1875192;0;9403;97791
3;68;1571577270784;1571577281103;10319;32538073336;10958024984;1391743794;741757137;2390502112;34850322;575477798;2079;2240;1820304;49;9140;208303
4;18;1571577616977;1571577627329;10352;32605639070;10961634902;1396836300;745220886;2392373575;34577923;571310732;1740;1865;1793848;11;8732;62638
4;19;1571577627329;1571577637714;10385;32765720478;10961641111;1392682285;748850093;2392374321;34571818;571565512;1693;2108;1824072;-1;8576;57470
4;20;1571577637714;1571577648106;10392;32810570364;10961640732;1398076635;748127763;2392374449;34586609;574383961;2017;2043;1873080;-6;9675;183878
4;21;1571577648106;1571577658500;10394;32809745464;10961635655;1401036720;748874837;2392373473;34593071;572177607;1929;1895;1861800;1;9236;64310
4;22;1571577658500;1571577668869;10369;32658365072;10961636241;1396967890;744655815;2392373730;34593855;571666813;1576;2091;1809192;1;8159;48314
4;23;1571577668869;1571577679299;10430;32828440618;10961641406;1400921569;751030515;2392374420;34611788;574842382;1909;2074;1857616;-6;9571;241847
4;24;1571577679299;1571577689653;10354;32507969158;10961633264;1393667291;742352148;2392373316;34616753;574041556;2003;1938;1859456;91;9091;72087
4;25;1571577689653;1571577699981;10328;32509088394;10961654471;1387262727;741730698;2392376744;34597902;572395948;2033;1888;1864368;-87;9907;125048
4;26;1571577699981;1571577710316;10335;32590252860;10961640852;1391737894;744305208;2392374569;34596867;572903452;1804;2012;1848232;-3;8488;48344
4;27;1571577710316;1571577720684;10368;32644752324;10961634533;1394538300;743801964;2392373435;34592266;574801537;1711;2123;1842784;0;8551;50271
4;28;1571577720684;1571577731038;10354;32492119252;10961635567;1392947004;745714688;2392374102;34576706;575508583;1925;2134;1832088;10;9948;226814
4;29;1571577731038;1571577741403;10365;32538024572;10961644678;1398315464;749049374;2392375657;34584398;572390771;1968;1898;1874696;-7;9189;70029
4;30;1571577741403;1571577751765;10362;32508160856;10961634480;1394150554;748782110;2392374083;34601896;572691012;1744;2098;1861184;1;8354;51400
4;31;1571577751765;1571577762173;10408;32576319350;10961638067;1395193294;749777623;2392374723;34584472;573321011;2096;2015;1854360;3;9660;178235
4;32;1571577762173;1571577772592;10419;32480601750;10961637322;1394045515;747487516;2392374408;34576837;571154617;1734;1956;1714488;13;8184;50733
4;33;1571577772592;1571577782982;10390;32529119010;10961644252;1395974623;747703138;2392375881;34597111;572278945;1911;2176;1847640;27;8720;71545
4;34;1571577782982;1571577793343;10361;32635580604;10961645865;1394967554;744547063;2392375629;34590114;571898970;1929;1993;1916808;-47;10012;253517
4;35;1571577793343;1571577803703;10360;32510831634;10961645904;1390093916;739609275;2392375236;34571494;573285992;1805;1875;1862608;-1;9144;71379
4;36;1571577803703;1571577814016;10313;32438304382;10961655897;1393981522;746380824;2392377185;34601339;573524072;1855;2239;1835976;30;8745;74740
4;37;1571577814016;1571577824417;10401;32293989368;10961646354;1393485367;744329074;2392375496;34572826;572833875;1905;1858;1866392;-17;9339;129063
4;38;1571577824417;1571577834691;10274;32422100864;10961637056;1399832528;747151337;2392373619;34588101;572363989;1900;1958;1802296;-7;8600;59866
4;39;1571577834691;1571577844994;10303;32500020042;10961652919;1397307229;748618231;2392376394;34595666;576764427;1890;2151;1813808;29;8894;90253
4;40;1571577844994;1571577855639;10645;32357685518;10961645172;1391869074;740642200;2392374958;34577356;572509944;1810;1886;1882048;-29;9290;147540
4;41;1571577855639;1571577866019;10380;32724990858;10961630921;1396346751;744028934;2392372480;34596615;575317322;1946;1995;1834872;0;8849;63070
4;42;1571577866019;1571577876436;10417;32813948658;10961643728;1393061286;746980577;2392374877;34601346;571978065;1879;2238;1841352;14;8581;89633
4;43;1571577876436;1571577886818;10382;32766552678;10961637694;1394945197;745568254;2392373819;34606288;572504721;2050;1894;1818280;-15;9075;88547
4;44;1571577886818;1571577897276;10458;32676892764;10961637050;1395591053;746846754;2392373518;34575145;572285279;1932;2053;1848744;-2;8960;67036
4;45;1571577897276;1571577907665;10389;32760841450;10961646550;1397202761;745172033;2392375188;34593561;572246552;1875;2203;1776696;37;8471;123252
4;46;1571577907665;1571577918033;10368;32728500260;10961643572;1389205504;738609118;2392374684;34602032;572056807;2007;1936;1864592;-34;9205;115216
4;47;1571577918033;1571577928420;10387;32790519308;10961633212;1391171011;746208817;2392373093;34591567;572803797;1984;2008;1864176;-6;8970;67852
4;48;1571577928420;1571577938804;10384;32790813498;10961639347;1394395818;746388927;2392374035;34599868;573806002;1977;2183;1819520;55;9056;161216
4;49;1571577938804;1571577949195;10391;32802452910;10961636543;1399436117;746252845;2392373641;34593150;572055836;2103;1941;1914112;-48;9527;125058
4;50;1571577949195;1571577959521;10326;32593666486;10961642711;1393482133;740295606;2392374745;34561607;573914670;1777;1931;1796328;-7;8704;68600
4;51;1571577959521;1571577969900;10379;32762794930;10961645900;1393507372;744901949;2392375232;34579634;573279109;1857;2290;1785568;23;8651;139007
4;52;1571577969900;1571577980270;10370;32733333444;10961636867;1393103286;744826308;2392373639;34599754;572421103;2124;1871;1847480;-12;9301;92746
4;53;1571577980270;1571577990648;10378;32781451978;10961635237;1397795343;745187739;2392373392;34578106;571315364;1931;2044;1792360;-1;8621;62941
4;54;1571577990648;1571578001036;10388;32804699704;10961635243;1395565862;747403581;2392373398;34587840;572401067;2027;2228;1777392;76;9316;212236
4;55;1571578001036;1571578011496;10460;33020104746;10961635311;1395921572;753004915;2392373466;34580016;574836384;1799;2301;1635400;65;10460;1421669
4;56;1571578011496;1571578023752;12256;32570296266;10961638409;1403381798;747575876;2392374226;34607746;576294951;1901;2839;2512336;-56;12256;1720483
4;57;1571578023752;1571578034582;10830;32639258928;10961638620;1397269557;749452477;2392374659;34603458;573466484;1827;2692;2070824;-59;10216;342796
4;58;1571578034582;1571578045262;10680;32685674518;10961647543;1399835652;749845714;2392375540;34595710;572558652;2204;2066;1954160;-25;10217;209394
4;59;1571578045262;1571578055607;10345;32581493152;10961637737;1393898914;745280125;2392373576;34571560;575369584;2038;2004;1860296;0;9130;72873
4;60;1571578055607;1571578065994;10387;32431053730;10961635065;1390363568;740499757;2392373202;34563189;572130277;1921;2135;1816752;33;8978;133231
4;61;1571578065994;1571578076314;10320;32559158948;10961653190;1394963382;744646562;2392376226;34576510;574699492;2138;1931;1871408;-38;9442;135093
4;62;1571578076314;1571578086762;10448;32589709448;10961644782;1392660798;743888122;2392374945;34579561;572863123;2082;2019;1882848;-5;9126;75969
4;63;1571578086763;1571578097094;10331;32576771804;10961636204;1397120670;744340686;2392373561;34579427;573393251;2031;2181;1840440;12;9233;101843
4;64;1571578097094;1571578107404;10310;32523644010;10961648991;1397346049;742705490;2392375779;34584944;574656365;2158;1863;1855680;2;9479;95021
4;65;1571578107404;1571578117858;10454;32575305380;10961652242;1396066399;744925996;2392376371;34596964;572750599;2099;2038;1869744;-5;9113;70465
4;66;1571578117858;1571578128178;10320;32566495448;10961644976;1393284378;743234564;2392374947;34580347;573290665;2004;2231;1832128;11;9356;141845
4;67;1571578128178;1571578138740;10562;32580833816;10961640391;1391787071;735411425;2392374113;34594297;572230301;2317;1876;1909944;-14;9852;107296
