0;49;1571604208297;1571604216753;8456;14898914122;28644671309;562008239;283865815;4254236467;109908;288998335;870;9;1718032;-6;8457;1215969
0;50;1571604216753;1571604229072;12319;14940987964;28646940542;563983734;290332887;4254990453;95980;288987120;1327;10;2616768;-18;12281;1426493
0;51;1571604229072;1571604233876;4804;14943360318;28649346517;561140077;291054574;4255771155;98477;289000929;536;5;1047032;25;4804;687014
0;52;1571604233876;1571604238725;4849;14883363662;28586266078;558279117;277910817;4185256016;91177;289021231;653;51;1038616;-9;4848;703027
0;53;1571604238725;1571604245313;6588;14838413766;28480169141;550175077;275655255;4149333122;101521;286600996;656;5;1289248;-16;6589;944784
0;54;1571604245313;1571604252105;6792;14641342382;28173606096;517259426;258492662;4047234869;106191;279655275;734;3;1443584;2;6792;973009
0;55;1571604252105;1571604259820;7715;14660218430;28173603558;518554375;261178133;4047235972;96342;279617324;839;5;1657664;-7;7714;1105554
0;56;1571604259820;1571604272633;12813;14666471464;28173430073;516151146;260635980;4047203536;84623;279600356;1513;59;2773448;-24;12814;1709711
0;57;1571604272634;1571604277091;4457;14671479410;28173443776;513920123;262064392;4047205976;81285;279604515;436;3;852336;34;4458;622056
0;58;1571604277091;1571604281876;4785;14675679100;28173438284;516406102;261728482;4047204871;87539;279603468;508;5;984448;4;4785;687621
0;59;1571604281876;1571604288483;6607;14671018196;28173434239;517200029;261637713;4047204303;94879;279617356;715;6;1399712;-11;6607;947837
0;60;1571604288483;1571604296070;7587;14700204034;28173470002;521209557;263738710;4047211101;91133;279614677;864;47;1668912;127;7586;1091848
0;61;1571604296070;1571604302074;6004;14681934616;28173468402;521527001;263227903;4047212163;90761;279616821;780;5;1295752;-104;6005;865206
0;62;1571604302074;1571604310079;8005;14645112978;28173440472;520647971;257472433;4047206040;99153;279617257;813;8;1591712;-13;8005;1149789
0;63;1571604310079;1571604321465;11386;14670984324;28173444791;520261642;261455712;4047206782;88872;279614185;1258;12;2444208;-5;11386;1464934
0;64;1571604321465;1571604326449;4984;14673461360;28173451898;513817627;261550234;4047208014;79891;279607025;564;2;1088720;12;4984;714395
0;65;1571604326449;1571604330931;4482;14681720142;28173432031;523949140;263328014;4047206694;83890;279613306;612;54;934680;4;4482;648258
0;66;1571604330931;1571604338203;7272;14672187218;28173406713;526559634;260803430;4047202228;93300;279614018;743;8;1444320;-7;7271;1041696
0;67;1571604338203;1571604345236;7033;14647470586;28173455370;516714205;258271041;4047211499;90255;279604999;766;8;1494960;2;7033;1012500
0;68;1571604345236;1571604353168;7932;14647937202;28173363659;516000917;257532111;4047194861;91594;279607132;875;8;1701272;-11;7933;1136320
0;69;1571604353169;1571604365836;12667;14676010812;28173382608;519158726;262313459;4047198885;95016;279614616;1514;50;2697952;12;12668;1671502
0;70;1571604365836;1571604370307;4471;14677780916;28173380837;518111937;262168755;4047198391;85102;279606563;456;4;873104;-8;4471;641517
0;71;1571604370308;1571604374777;4469;14672483306;28173385794;514914734;261804701;4047199290;85198;279604532;488;3;940904;-8;4470;638568
0;72;1571604374777;1571604381376;6599;14674756088;28173381626;518482986;262309687;4047198465;88585;279604676;736;3;1415192;0;6599;948944
0;73;1571604381376;1571604388098;6722;14677278092;28173387915;519946407;263227728;4047199908;89110;279614075;777;7;1487176;24;6722;963096
0;74;1571604388098;1571604396647;8549;14649821624;28173370701;514621124;258739477;4047196486;109011;279614939;1050;41;1818968;-15;8548;1236684
0;75;1571604396647;1571604410617;13970;14654426026;28173395025;514494726;259563157;4047201552;92578;279613411;1493;18;2855912;-25;13970;1917289
0;76;1571604410617;1571604415199;4582;14682855438;28173381161;519089235;263584346;4047198477;84664;279607804;511;7;981704;20;4583;647721
0;77;1571604415199;1571604420086;4887;14681187972;28173381767;521499339;262866962;4047198740;84198;279605291;655;58;1014672;11;4887;703335
0;78;1571604420086;1571604426175;6089;14674113834;28173370438;516216992;262598313;4047196694;92441;279608327;832;28;1098920;-13;6089;875215
0;79;1571604426175;1571604435340;9165;14618331030;28173359693;519662885;255671798;4047194278;108173;279613186;1061;26;1642360;10;9165;1316171
0;80;1571604435340;1571604443495;8155;14659591506;28173372700;518245845;260848233;4047196742;96346;279607578;919;11;1751512;9;8155;1168682
0;81;1571604443496;1571604455827;12331;14674018934;28173381184;518497209;261878298;4047198842;98653;279609287;1544;97;2670304;-42;12331;1628458
0;82;1571604455827;1571604460507;4680;14690356334;28173382712;526164363;264175182;4047198827;82212;279606242;492;6;911296;41;4681;653618
0;83;1571604460507;1571604465078;4571;14688336424;28173394440;525915823;263942590;4047201744;81462;279607186;485;10;941776;-7;4570;657323
0;84;1571604465078;1571604471333;6255;14692160748;28173413922;525994077;264705485;4047204414;87156;279609791;766;11;1303680;2;6256;896585
0;85;1571604471333;1571604478447;7114;14672304456;28173377802;525412535;261995507;4047197810;91254;279608110;817;16;1549720;-17;7113;1020770
0;86;1571604478447;1571604486097;7650;14665948930;28173378598;520434421;260380645;4047198126;89897;279609418;974;61;1603784;22;7651;1100311
0;87;1571604486097;1571604493309;7212;14670537710;28173371858;521053741;261062176;4047196710;103975;279613417;856;12;1614816;-24;7212;1036890
0;88;1571604493309;1571604506777;13468;14669457018;28173380198;521309789;261680464;4047198375;89478;279610765;1445;17;2714720;29;13467;1836944
0;89;1571604506777;1571604511462;4685;14689174026;28173400737;526169704;263887373;4047202216;83638;279606997;548;4;1004816;-4;4686;672257
0;90;1571604511462;1571604515962;4500;14688319342;28173384097;526219391;264058443;4047199132;83387;279610029;537;10;1001840;-25;4500;646368
0;91;1571604515962;1571604522875;6913;14674678854;28173426488;523478102;263031697;4047207383;97716;279618129;914;56;1514464;24;6912;993034
0;92;1571604522875;1571604531053;8178;14662816354;28173387716;518045527;259850648;4047199620;89642;279604072;862;10;1596120;2;8179;1173612
0;93;1571604531053;1571604538779;7726;14662766276;28173385657;523767969;259890409;4047199166;93710;279607352;886;10;1648016;-22;7726;1108756
0;94;1571604538780;1571604551798;13018;14679826668;28173383365;519702912;263034850;4047199241;90175;279614589;1589;80;2707056;-4;12949;1624837
0;95;1571604551799;1571604556256;4457;14682568694;28173390288;521684331;262619139;4047200134;83025;279609926;461;5;867352;29;4458;636950
0;96;1571604556256;1571604560789;4533;14687738700;28173378705;523551016;263356508;4047198193;84341;279609331;525;6;952464;-13;4532;650254
0;97;1571604560789;1571604567240;6451;14670657284;28173381406;514429906;261937878;4047198519;86671;279607290;738;15;1364224;-2;6452;929369
0;98;1571604567240;1571604574848;7608;14663749294;28173370053;523794850;261475759;4047196337;90090;279604848;910;9;1671848;-14;7608;1090939
1;50;1571605073977;1571605081263;7286;14931304368;28951435816;562612171;288319657;4256490595;105065;288987958;865;50;1562520;0;7286;1051173
1;51;1571605081263;1571605093824;12561;14945313506;28944794984;567808881;291016469;4254261820;100652;288982020;1334;14;2658384;-4;12561;1712335
1;52;1571605093825;1571605098388;4563;14884200826;28888504095;558141248;277998244;4186004532;94710;289007104;469;6;934560;11;4563;654745
1;53;1571605098388;1571605104038;5650;14823466286;28793539999;543705910;272418020;4153809476;101465;286862059;604;5;1199960;4;5650;811192
1;54;1571605104038;1571605110316;6278;14663417874;28473590431;521659783;259238135;4047232550;99762;279644754;691;7;1370600;-19;6279;901186
1;55;1571605110316;1571605116952;6636;14680062750;28473585152;522438367;261587184;4047233010;98503;279609799;848;50;1471088;-1;6636;955003
1;56;1571605116952;1571605125117;8165;14635509682;28473403532;523128130;255975857;4047198627;97264;279598522;820;8;1627336;12;8164;1173409
1;57;1571605125117;1571605138365;13248;14666390142;28473414925;522368298;259476181;4047200977;89195;279596701;1434;18;2830688;-14;13249;1806540
1;58;1571605138366;1571605144010;5644;14687118492;28473391088;518772157;261456300;4047196247;96823;279605914;720;68;1174152;26;5645;855305
1;59;1571605144010;1571605148524;4514;14668189884;28473418879;519248743;260677118;4047201853;84625;279599331;460;5;899408;-12;4514;648358
1;60;1571605148524;1571605154954;6430;14691148822;28473416152;525686188;264112669;4047201341;91581;279607371;666;6;1305448;6;6430;922135
1;61;1571605154954;1571605162855;7901;14671059660;28473412404;522481472;261358044;4047200723;96338;279608867;864;8;1687016;1;7900;1134222
1;62;1571605162855;1571605169488;6633;14673260902;28473453003;524538006;260816435;4047209590;93618;279601217;744;9;1463496;-8;6634;951480
1;63;1571605169488;1571605183522;14034;14677627178;28473443182;520425094;261243755;4047207793;105879;279611369;1648;66;3017864;-33;14034;1931330
1;64;1571605183522;1571605187996;4474;14684174548;28473416433;523923966;262146942;4047201567;86039;279597468;454;7;875680;31;4474;629738
1;65;1571605187997;1571605192532;4535;14675393232;28473441578;519147828;260250897;4047208551;86967;279605860;490;5;960272;-10;4535;650241
1;66;1571605192532;1571605198910;6378;14679124992;28473385436;520880343;261054472;4047198636;88896;279597696;705;9;1357640;-1;6378;913919
1;67;1571605198910;1571605205515;6605;14666413502;28473435995;520665691;259618680;4047208576;91794;279594521;846;55;1440816;5;6605;956069
1;68;1571605205515;1571605213287;7772;14653102682;28473358233;517386011;257439432;4047194534;103899;279601541;856;10;1670576;8;7773;1115074
1;69;1571605213287;1571605220901;7614;14657911776;28473347138;522941955;258472625;4047192281;93860;279596815;796;10;1549256;4;7614;1093825
1;70;1571605220902;1571605232586;11684;14680938458;28473355283;525218640;262048368;4047193996;87918;279592657;1296;18;2521808;2;11684;1528193
1;71;1571605232586;1571605237089;4503;14675130140;28473358619;522686876;261096616;4047194684;87405;279595967;645;51;941696;3;4504;658659
1;72;1571605237089;1571605241561;4472;14676522104;28473357521;519021033;260388089;4047194595;82362;279600155;450;4;871680;-2;4472;644110
1;73;1571605241561;1571605248611;7050;14652883828;28473344200;517974780;257639867;4047191775;93014;279597104;756;10;1463672;-20;7049;1012658
1;74;1571605248611;1571605256528;7917;14667465578;28473354064;522306155;259845123;4047193714;91086;279596814;877;13;1694040;19;7918;1136383
1;75;1571605256528;1571605263545;7017;14674985308;28473361824;522232341;260991261;4047195346;84182;279595713;794;11;1537416;6;7017;1003868
1;76;1571605263545;1571605276995;13450;14672507980;28473350597;523732512;261506076;4047193212;92946;279600021;1599;52;2800328;-25;13450;1753720
1;77;1571605276995;1571605281442;4447;14688521698;28473355502;526211371;262797829;4047194081;77808;279592451;459;8;877496;21;4446;640086
1;78;1571605281442;1571605286342;4900;14683277378;28473341866;524535830;262090938;4047191936;83748;279594644;550;8;1043424;-6;4900;704108
1;79;1571605286342;1571605292442;6100;14666827558;28473331201;517777265;260721101;4047189534;83689;279587338;807;38;1264072;14;6100;891198
1;80;1571605292442;1571605301770;9328;14639244070;28473344127;522654695;255555576;4047191750;112007;279602294;1301;19;1705032;-13;9329;1342112
1;81;1571605301770;1571605310140;8370;14644120178;28473343888;521783841;257403697;4047191611;90910;279593206;884;8;1682152;12;8370;1201405
1;82;1571605310141;1571605322754;12613;14666189538;28473353018;519213288;260205433;4047193672;90236;279596115;1461;80;2755416;76;12613;1585999
1;83;1571605322754;1571605327299;4545;14675809332;28473370801;522236058;260958299;4047197697;89706;279602181;584;7;838368;-96;4546;651112
1;84;1571605327299;1571605331790;4491;14679689136;28473386815;522807289;261291602;4047199900;84096;279596190;512;7;832784;0;4491;645020
1;85;1571605331790;1571605338106;6316;14677115886;28473350606;523861167;261651311;4047193259;96221;279601373;710;13;1335104;-6;6316;908116
1;86;1571605338106;1571605346458;8352;14656440680;28473350972;520180060;258184991;4047193152;101453;279599337;963;13;1815256;-3;8351;1196264
1;87;1571605346458;1571605352969;6511;14654392008;28473349031;519086330;256897467;4047192770;95239;279590546;755;10;1423048;13;6512;934037
1;88;1571605352970;1571605360405;7435;14656569160;28473346106;520129780;258678922;4047192251;102176;279597851;977;65;1620368;13;7436;1071450
1;89;1571605360405;1571605371888;11483;14672643760;28473379800;515437874;261001275;4047198543;79248;279589588;1221;17;2304856;-1;11482;1535035
1;90;1571605371888;1571605376337;4449;14671800610;28473353047;514304411;261013678;4047193482;78254;279588260;496;10;931488;-16;4449;636710
1;91;1571605376337;1571605381541;5204;14677360144;28473354536;517940417;260835198;4047194051;82607;279596175;595;10;1114216;13;5204;746901
1;92;1571605381541;1571605387689;6148;14676468522;28473357217;520499473;261522239;4047194563;92218;279595225;807;54;1329680;5;6148;885081
1;93;1571605387689;1571605396377;8688;14668458816;28473347108;520161655;259062912;4047192367;95630;279599349;969;14;1831392;-9;8690;1248011
1;94;1571605396378;1571605404855;8477;14633547442;28473337907;525006111;254864535;4047190577;96697;279595704;918;18;1715000;10;8477;1215143
1;95;1571605404855;1571605416800;11945;14675118898;28473359323;517858220;261469548;4047194789;84603;279596373;1464;100;2545064;-20;11945;1488098
1;96;1571605416800;1571605421310;4510;14679016952;28473354204;526138377;262397197;4047193730;83466;279593140;471;7;883960;9;4509;644466
1;97;1571605421310;1571605426212;4902;14686682390;28473355239;525890547;262913590;4047193904;78098;279588027;535;10;991248;9;4903;702974
1;98;1571605426213;1571605433116;6903;14676702122;28473364927;524768932;261420101;4047195592;90965;279594011;793;18;1479336;-25;6904;992182
1;99;1571605433116;1571605439681;6565;14667679906;28473354459;515656094;259891587;4047194002;88096;279597968;794;13;1466824;6;6565;941824
2;49;1571605945447;1571605952292;6845;14879594818;29544688419;559314460;287727731;4254238437;103152;289015101;748;10;1488096;20;6845;975240
2;50;1571605952292;1571605966351;14059;14902061298;29546941617;564927396;291148902;4254989257;104531;289010972;1587;57;2973192;-15;14058;1936295
2;51;1571605966351;1571605970909;4558;14896815810;29549307759;566929752;290521785;4255762024;96840;289006783;472;5;935352;8;4559;653780
2;52;1571605970909;1571605975605;4696;14830381284;29486272007;556413042;276496239;4185255284;94768;289034876;511;6;993640;1;4695;674728
2;53;1571605975605;1571605982399;6794;14794674356;29384640144;549931584;274091145;4150826400;108798;286710006;757;8;1495528;-21;6795;974203
2;54;1571605982399;1571605989060;6661;14679877038;29073628087;520775494;261818534;4047237918;109239;279685036;844;49;1484728;21;6661;971775
2;55;1571605989060;1571605997301;8241;14734432128;29073672872;516866444;257092403;4047246184;103368;279643476;828;9;1631664;4;8241;1181010
2;56;1571605997301;1571606009986;12685;14698663880;29073454837;518477642;258209535;4047206292;94778;279630233;1386;13;2712752;-19;12685;1754637
2;57;1571606009986;1571606015235;5249;14763108572;29073459554;517955600;261901423;4047207476;87988;279631506;697;44;1094176;-4;5248;760856
2;58;1571606015235;1571606020326;5091;14826061728;29073468615;517206015;263175542;4047209229;85384;279629254;539;5;1042608;5;5092;735100
2;59;1571606020326;1571606026317;5991;14719066942;29073467278;514562539;262483545;4047209105;87284;279639612;613;8;1214488;-5;5990;858653
2;60;1571606026317;1571606033671;7354;14785762370;29073542660;516616261;262823695;4047223203;96174;279638639;810;6;1585152;22;7355;1056370
2;61;1571606033671;1571606041472;7801;14741552256;29073454382;524418624;263126714;4047207011;96732;279632414;866;10;1693440;-1;7801;1117957
2;62;1571606041472;1571606047964;6492;14759342356;29073499091;515777705;262038866;4047216852;89670;279634449;812;49;1375328;-24;6492;938888
2;63;1571606047964;1571606059578;11614;14819745184;29073485881;519460247;262462947;4047214239;89930;279633872;1248;13;2401280;21;11613;1546901
2;64;1571606059578;1571606064051;4473;14717963328;29073468988;514825558;261468742;4047209938;82533;279630701;481;8;938104;-1;4474;644036
2;65;1571606064052;1571606069776;5724;14837655004;29073477359;525577596;263383825;4047213731;91963;279639086;631;5;1218488;9;5725;824527
2;66;1571606069777;1571606076906;7129;14820915812;29073432178;517513858;262313188;4047205885;87872;279628034;901;62;1540056;-22;7130;1025724
2;67;1571606076906;1571606084327;7421;14674188732;29073455339;518778614;258913842;4047211001;95351;279636463;834;8;1604872;-2;7421;1063174
2;68;1571606084328;1571606092792;8464;14735254838;29073438199;521233117;256891187;4047207283;94447;279624944;891;13;1733312;5;8464;1214663
2;69;1571606092792;1571606104571;11779;14823091358;29073396212;522780531;262749935;4047200078;85563;279623557;1324;14;2539912;12;11780;1454840
2;70;1571606104571;1571606109166;4595;14733862144;29073399238;519605869;261936834;4047200707;84081;279625728;595;69;926688;-23;4595;662045
2;71;1571606109167;1571606114983;5816;14716034668;29073388425;518858791;261604646;4047198605;88482;279630937;596;7;1149072;12;5817;835927
2;72;1571606114983;1571606121178;6195;14786155256;29073503879;523359169;262908934;4047220527;91850;279636027;684;3;1295728;-12;6194;889215
2;73;1571606121178;1571606129354;8176;14761884070;29073371176;520181125;260544673;4047195751;94564;279633039;897;6;1717112;31;8177;1176575
2;74;1571606129354;1571606136263;6909;14772136628;29073376132;516548845;262160233;4047196623;87008;279629459;808;3;1541888;-8;6908;994068
2;75;1571606136263;1571606149556;13293;14680668796;29073389823;516716653;261756851;4047199457;92218;279638431;1551;58;2780280;-10;13294;1726606
2;76;1571606149556;1571606154076;4520;14685512638;29073381523;518870767;261063971;4047197937;85292;279634045;484;4;918560;16;4519;644752
2;77;1571606154076;1571606158626;4550;14719732702;29073371231;519109242;260831940;4047196143;84907;279633430;510;6;968656;2;4550;654174
2;78;1571606158626;1571606164446;5820;14722758698;29073370579;517724240;262202294;4047196362;85788;279630414;748;54;1178608;-6;5821;851956
2;79;1571606164447;1571606173579;9132;14788084646;29073369306;517038626;255782713;4047195380;115433;279634828;1272;15;1686608;-5;9132;1314132
2;80;1571606173579;1571606183077;9498;14726971236;29073362042;517791749;255795073;4047193556;95598;279620758;995;9;1877408;-3;9498;1361749
2;81;1571606183077;1571606195145;12068;14724655092;29073373797;521803154;262286326;4047196225;90966;279626968;1498;85;2537240;-16;12049;1534150
2;82;1571606195145;1571606200451;5306;14806949306;29073361129;518789570;260301107;4047193524;88828;279624092;546;5;1044448;4;5307;757557
2;83;1571606200451;1571606205251;4800;14853074356;29073392749;516026238;262484480;4047200556;82661;279626934;593;10;981952;17;4799;697212
2;84;1571606205251;1571606210341;5090;14709704254;29073415946;518479198;261851929;4047204315;96178;279638290;585;4;1086440;-9;5091;729136
2;85;1571606210341;1571606217741;7400;14723831068;29073372204;519918092;261245792;4047195850;93432;279627822;870;5;1637320;-6;7400;1064133
2;86;1571606217741;1571606224362;6621;14730693214;29073364466;521504539;262472538;4047194284;96994;279628180;772;9;1446872;-3;6621;952043
2;87;1571606224362;1571606231963;7601;14811536042;29073370478;515700260;260854767;4047195650;102462;279635612;985;50;1629792;2;7601;1101217
2;88;1571606231963;1571606244626;12663;14727184834;29073371912;521718368;261790324;4047195696;90623;279626552;1369;15;2535928;10;12662;1635806
2;89;1571606244626;1571606249196;4570;14684238058;29073392849;524954553;263030432;4047199571;86336;279621582;523;5;974520;-11;4570;655781
2;90;1571606249196;1571606253727;4531;14817163758;29073379541;520032628;263124987;4047197321;86067;279628548;534;5;1003392;10;4532;654742
2;91;1571606253727;1571606258985;5258;14737694644;29073379330;518630614;261178975;4047197352;89820;279632261;731;59;1144496;-1;5258;764456
2;92;1571606258986;1571606266607;7621;14687686286;29073376999;524910730;262955004;4047196969;91506;279628408;824;10;1543592;8;7622;1095000
2;93;1571606266607;1571606275270;8663;14727746204;29073374110;523109798;261787272;4047196262;89807;279629266;973;10;1818744;-13;8662;1242768
2;94;1571606275270;1571606288948;13678;14822069212;29073373146;524565547;263230926;4047196144;94859;279632173;1670;76;2840088;-47;13591;1697370
2;95;1571606288948;1571606293447;4499;14775833932;29073379581;525909762;263753486;4047197326;83732;279624007;467;5;864912;58;4499;624788
2;96;1571606293447;1571606298408;4961;14738624080;29073375775;523752100;262100772;4047196580;87744;279620291;561;9;1049608;-17;4961;712753
2;97;1571606298408;1571606303773;5365;14770355866;29073385885;519120856;261406427;4047198785;93496;279636624;635;8;1146728;5;5365;768691
2;98;1571606303773;1571606310986;7213;14806474952;29073391018;519397392;261209066;4047199553;96074;279637938;862;10;1582600;2;7212;1038306
3;49;1571606839971;1571606846772;6801;14870765030;29544689412;557863529;289114193;4254240696;108225;289007021;753;7;1506952;15;6803;977714
3;50;1571606846774;1571606860697;13923;14874842664;29546939817;563398376;288589136;4254990690;108590;289001462;1615;54;2997960;-40;13923;1914013
3;51;1571606860697;1571606865489;4792;14864361324;29549297712;561999832;288795163;4255762114;96985;288997954;470;2;925680;20;4791;679438
3;52;1571606865489;1571606870433;4944;14813827804;29486270536;554656646;276151199;4185257224;93458;289027573;534;7;1052176;10;4944;711191
3;53;1571606870433;1571606876964;6531;14765192284;29384645213;541127412;271979417;4150829274;100193;286694890;707;7;1396360;-3;6531;935686
3;54;1571606876964;1571606883403;6439;14666975602;29073644282;524997793;263073905;4047243211;99784;279664061;843;42;1394200;8;6441;932692
3;55;1571606883404;1571606892265;8861;14633859006;29073607803;516550327;258244710;4047237682;109557;279630265;940;12;1870200;-12;8861;1279740
3;56;1571606892265;1571606906097;13832;14624628594;29073423496;514017415;257582742;4047203325;94196;279617932;1466;21;2898144;-55;13832;1886336
3;57;1571606906098;1571606910771;4673;14643685390;29073436139;513766668;259835858;4047205633;87555;279613749;524;9;1032328;42;4673;623783
3;58;1571606910771;1571606916026;5255;14643045034;29073426552;517889000;259123320;4047203576;94007;279621447;704;64;1073512;30;5256;771713
3;59;1571606916026;1571606921179;5153;14653380958;29073434755;521103911;261329668;4047205194;87977;279614007;510;8;1009472;-30;5153;737438
3;60;1571606921179;1571606927078;5899;14706377644;29073440672;518107977;261793636;4047206539;90886;279620449;646;8;1254064;26;5899;847230
3;61;1571606927078;1571606935305;8227;14643152636;29073439237;518286040;260624139;4047206173;95970;279618310;892;7;1731792;5;8227;1180142
3;62;1571606935305;1571606943117;7812;14647020906;29073476523;519743267;261688400;4047214715;91703;279623500;1017;47;1700608;-28;7875;1138519
3;63;1571606943180;1571606954965;11785;14688843044;29073470801;515146144;261029278;4047213436;85498;279621792;1270;15;2460928;7;11785;1524991
3;64;1571606954966;1571606959413;4447;14663075796;29073452395;523160001;262646698;4047208853;76776;279605658;476;7;928376;4;4447;637460
3;65;1571606959413;1571606964819;5406;14657026724;29073463299;524692943;262384888;4047213179;83982;279615703;586;7;1134576;-10;5407;773826
3;66;1571606964820;1571606970714;5894;14632996730;29073405499;513821537;259965278;4047202933;89399;279617353;664;11;1286144;8;5895;843840
3;67;1571606970714;1571606977903;7189;14652160252;29073454299;521204266;261337356;4047213081;98728;279621476;966;48;1573392;-8;7189;1049567
3;68;1571606977903;1571606986152;8249;14651776710;29073370767;514610874;258049373;4047197524;103914;279619899;869;12;1692280;27;8249;1182437
3;69;1571606986153;1571606999612;13459;14617908068;29073375495;515221012;256351170;4047198324;94684;279613545;1443;23;2805288;-24;13460;1901705
3;70;1571606999612;1571607004181;4569;14644306620;29073383759;513412588;261251407;4047199994;86664;279615958;510;9;994240;2;4569;653355
3;71;1571607004181;1571607008642;4461;14650405186;29073389383;516442906;261958246;4047201027;83144;279611116;631;49;931112;6;4461;687271
3;72;1571607008642;1571607016134;7492;14624720574;29073370747;519261096;258077359;4047197265;92162;279611125;768;13;1470752;0;7491;1073723
3;73;1571607016134;1571607023262;7128;14672083996;29073377640;519706251;258545610;4047198752;92298;279613715;783;10;1497848;-15;7129;1020473
3;74;1571607023262;1571607031366;8104;14633146672;29073374267;517333194;258955433;4047198156;93154;279615662;905;16;1731704;23;8104;1162468
3;75;1571607031367;1571607044114;12747;14601981512;29073373426;513901839;255660579;4047197842;93236;279608379;1567;52;2711184;-31;12748;1745330
3;76;1571607044114;1571607048607;4493;14642488628;29073382951;516812361;259757608;4047200060;85107;279616822;465;8;883312;13;4493;638239
3;77;1571607048607;1571607053205;4598;14635033868;29073383524;513646654;260144080;4047200047;82640;279614370;512;10;961064;0;4598;659260
3;78;1571607053205;1571607059651;6446;14655503944;29073377268;524313070;261593423;4047199336;96442;279619264;947;41;1152240;19;6446;951930
3;79;1571607059651;1571607068714;9063;14615459210;29073362906;515329401;256336447;4047195884;105032;279613718;1094;22;1695776;5;9063;1303553
3;80;1571607068714;1571607077232;8518;14628520078;29073366172;520070273;258778047;4047196453;96026;279610488;919;13;1734112;-23;8518;1221518
3;81;1571607077232;1571607090486;13254;14667874670;29073380288;518487627;260706008;4047199409;89422;279615275;1707;60;2915016;-20;13254;1862406
3;82;1571607090486;1571607094919;4433;14664215618;29073384018;524466853;262391294;4047199903;75676;279603223;446;9;852984;15;4433;627900
3;83;1571607094919;1571607099515;4596;14665644374;29073390601;523351248;263240578;4047201781;79127;279606038;549;8;936408;27;4596;669131
3;84;1571607099515;1571607106311;6796;14651410104;29073396947;514770300;261444209;4047201990;93463;279615105;771;16;1403184;-3;6796;975881
3;85;1571607106311;1571607113041;6730;14652560146;29073384189;520943254;262137163;4047199949;82879;279604106;778;15;1481496;-10;6730;967421
3;86;1571607113041;1571607120184;7143;14629685304;29073379429;514993702;258372530;4047199175;93728;279616416;945;55;1519680;-3;7143;1037943
3;87;1571607120184;1571607128082;7898;14626023624;29073361765;517887553;258008992;4047195491;95851;279614550;897;13;1692272;-1;7898;1131285
3;88;1571607128082;1571607140855;12773;14649206672;29073380125;520777682;260984383;4047199154;86519;279608087;1408;18;2624192;-2;12772;1767787
3;89;1571607140855;1571607145957;5102;14673606922;29073400507;521266186;261861235;4047203149;87748;279611078;586;10;1094336;22;5102;732974
3;90;1571607145957;1571607150483;4526;14656225330;29073385750;525071410;262472062;4047200372;79989;279609869;647;59;974592;-4;4527;656052
3;91;1571607150483;1571607156671;6188;14654636704;29073382108;523948681;262283988;4047199646;93192;279614005;691;11;1306472;-19;6188;889677
3;92;1571607156671;1571607164448;7777;14622867834;29073377573;516955693;258716866;4047198826;95190;279616316;863;11;1594800;1;7777;1117404
3;93;1571607164448;1571607172762;8314;14624559098;29073374044;516548974;258421090;4047197991;89682;279608599;952;10;1771608;8;8314;1195945
3;94;1571607172763;1571607185625;12862;14651781090;29073378468;518549549;261458048;4047199009;86614;279611651;1557;68;2666584;11;12862;1660839
3;95;1571607185625;1571607190066;4441;14659745828;29073382743;524911360;262269492;4047199653;78258;279602108;492;8;890032;-12;4441;640082
3;96;1571607190066;1571607194631;4565;14654618162;29073382792;524795482;261879095;4047199747;80415;279605213;514;9;970544;-2;4566;653056
3;97;1571607194631;1571607201243;6612;14657234920;29073390521;524634186;262437086;4047201366;85482;279613916;767;15;1410080;1;6612;950589
3;98;1571607201243;1571607208265;7022;14658602940;29073395958;523038627;261862048;4047202183;85765;279614476;855;10;1557728;9;7022;1008430
4;49;1571607739293;1571607746642;7349;14848856416;29544691117;560503345;285412859;4254240513;106617;288995962;875;45;1553176;0;7350;1057923
4;50;1571607746642;1571607757944;11302;14871531238;29546947301;565425728;289571002;4254991930;96803;288999216;1159;12;2318976;-10;11302;1462162
4;51;1571607757945;1571607762596;4651;14876527358;29549309787;560991339;288055700;4255764273;101802;289003311;508;5;994984;4;4651;665004
4;52;1571607762596;1571607767116;4520;14806832068;29486266575;553758400;275029229;4185255773;97233;289025028;485;7;975048;-5;4521;648257
4;53;1571607767116;1571607774363;7247;14747313854;29393491433;546753517;270125988;4153798907;107139;286869942;886;46;1582680;24;7246;1040948
4;54;1571607774363;1571607781183;6820;14711446180;29073455454;518707202;259569946;4047206206;95685;279628489;763;11;1493808;-23;6821;982285
4;55;1571607781183;1571607789869;8686;14630559698;29073440322;519963156;254501325;4047203437;98193;279624981;842;9;1681976;-9;8685;1244891
4;56;1571607789869;1571607803287;13418;14685013610;29073464124;523698672;260280960;4047207980;93255;279623726;1462;19;2892016;8;13419;1734173
4;57;1571607803288;1571607807786;4498;14721483388;29073471384;521865482;260568710;4047209343;89786;279623604;580;76;917848;10;4498;650793
4;58;1571607807786;1571607812820;5034;14706010016;29073469012;524700760;262426869;4047208817;90340;279626542;497;6;975416;-17;5034;721617
4;59;1571607812820;1571607819480;6660;14678398058;29073482495;521900964;261058446;4047211497;93547;279630227;691;10;1367200;14;6661;957246
4;60;1571607819481;1571607827100;7619;14705159128;29073466405;519052332;257399839;4047208273;92320;279620365;835;10;1641264;-3;7619;1094374
4;61;1571607827100;1571607834239;7139;14649616786;29073464516;518221891;257755949;4047207942;95445;279624238;802;12;1577392;-2;7139;1023498
4;62;1571607834239;1571607848138;13899;14713177302;29073510139;518472938;259903899;4047218030;98272;279625093;1630;51;2947904;-17;13899;1803907
4;63;1571607848138;1571607852617;4479;14671222304;29073566307;522495140;260946946;4047228463;89781;279627274;466;6;896640;24;4480;635610
4;64;1571607852617;1571607857310;4693;14762142782;29073703301;519525532;256180802;4047252298;96034;279653901;509;4;995416;3;4692;674945
4;65;1571607857310;1571607862353;5043;14736569276;29073681242;519900937;260427527;4047252280;92757;279625872;562;6;1089760;-18;5044;723390
4;66;1571607862354;1571607868609;6255;14784551154;29073393259;523268009;260827976;4047199762;105186;279622434;799;47;1358696;9;6256;906204
4;67;1571607868610;1571607876551;7941;14674060544;29073436331;520516620;255294095;4047208035;107723;279618108;883;9;1709960;13;7941;1137394
4;68;1571607876551;1571607884068;7517;14735475736;29073362994;521436596;258023156;4047194782;93041;279611729;782;12;1513144;-14;7518;1079511
4;69;1571607884068;1571607896109;12041;14749158710;29073365103;517883394;260109689;4047195337;88607;279610879;1350;16;2592808;5;12040;1598882
4;70;1571607896109;1571607900821;4712;14716702472;29073358515;519192397;261379786;4047193936;84049;279603608;647;58;950008;-11;4713;683023
4;71;1571607900821;1571607905625;4804;14801769372;29073369378;518473224;260574096;4047196172;86855;279611038;503;6;984672;9;4804;688944
4;72;1571607905626;1571607912814;7188;14671270776;29073363724;522150214;258469528;4047194898;90365;279611474;783;12;1503200;17;7188;1027799
4;73;1571607912814;1571607920671;7857;14727368064;29073354132;515661283;257390380;4047193093;100761;279616193;867;14;1659608;-3;7857;1124271
4;74;1571607920671;1571607927543;6872;14704798508;29073366185;519558348;260860577;4047195320;87670;279607465;797;14;1525728;3;6873;986046
4;75;1571607927543;1571607940105;12562;14761893560;29073371893;514134014;259894766;4047196708;89967;279612356;1483;75;2622120;-17;12562;1748199
4;76;1571607940106;1571607944788;4682;14731798580;29073365027;523984758;261753683;4047195296;79707;279604527;503;12;966632;9;4683;671204
4;77;1571607944788;1571607949385;4597;14764929484;29073366909;525076517;262250928;4047195740;81739;279607962;521;7;973480;-9;4597;656904
4;78;1571607949385;1571607956072;6687;14714719792;29073357196;518010927;260959208;4047194220;93258;279612022;901;50;1271944;-1;6686;975943
4;79;1571607956072;1571607965258;9186;14743995128;29073342959;520966824;253595380;4047190964;109451;279612673;1194;19;1747120;-7;9186;1317193
4;80;1571607965258;1571607972515;7257;14750932610;29073362537;521426196;258221771;4047194896;93257;279617931;793;6;1496544;7;7258;1041390
4;81;1571607972515;1571607986142;13627;14771317276;29073358373;517214319;259712737;4047194105;93431;279615222;1662;95;2896392;-5;13626;1755457
4;82;1571607986142;1571607990693;4551;14769207284;29073365025;518213390;259361028;4047195482;84970;279618305;469;7;892184;11;4551;655213
4;83;1571607990693;1571607995716;5023;14712756676;29073383679;524248172;262023074;4047199602;84127;279612825;588;12;986216;-7;5023;740633
4;84;1571607995716;1571608002943;7227;14730944042;29073398296;524885187;261471487;4047201569;92400;279620321;824;11;1543144;8;7228;1035810
4;85;1571608002943;1571608010002;7059;14698789294;29073349141;514185961;256254207;4047192077;100466;279613731;826;14;1544696;6;7058;1015618
4;86;1571608010002;1571608017030;7028;14664073560;29073358027;514895103;258402759;4047193865;100314;279615822;907;74;1505352;5;7028;1012388
4;87;1571608017030;1571608031879;14849;14710673840;29073353847;515738149;256671433;4047193092;100262;279613876;1632;35;3081696;-119;14850;2061972
4;88;1571608031879;1571608037122;5243;14691458634;29073345626;517875430;257317404;4047191391;90348;279611957;573;11;1111360;104;5242;577047
4;89;1571608037122;1571608042751;5629;14741833452;29073354203;521809112;258637504;4047193145;99059;279619969;647;13;1189344;-7;5630;807732
4;90;1571608042751;1571608047654;4903;14765712336;29073374319;524580157;262452361;4047196683;82349;279605854;667;59;1047984;20;4902;707875
4;91;1571608047654;1571608053120;5466;14732916940;29073362829;525501802;261687044;4047195003;92039;279617522;639;9;1205592;1;5466;788733
4;92;1571608053120;1571608061575;8455;14743554062;29073359285;518643567;254362404;4047194216;95266;279611670;899;10;1692624;-3;8455;1213274
4;93;1571608061575;1571608068402;6827;14752869300;29073362944;518177841;260778846;4047194913;85069;279607516;798;10;1471696;2;6827;979091
4;94;1571608068402;1571608081015;12613;14659876644;29073354202;515348115;258886952;4047193071;85588;279601828;1522;84;2581480;-11;12613;1631356
4;95;1571608081015;1571608085519;4504;14808305646;29073369974;525406211;261761074;4047196306;81425;279610574;476;5;900128;4;4504;647455
4;96;1571608085519;1571608090938;5419;14719151184;29073366399;513974680;260267159;4047195605;87270;279612124;631;10;1149776;9;5420;779827
4;97;1571608090938;1571608097441;6503;14645445274;29073363103;519903489;260258545;4047194866;86990;279608400;755;13;1397920;-19;6502;936631
4;98;1571608097441;1571608104060;6619;14647776456;29073374815;521204925;259106163;4047196899;90845;279608418;788;15;1473456;12;6620;948492
