0;5;1571603103306;1571603109042;5736;16244202798;29920940591;578613260;389476896;4466419065;150006;293910520;642;1802;976464;-7;5737;830749
0;6;1571603109043;1571603116988;7945;16021946560;29920323193;587825106;383233511;4466330337;166198;293867821;1299;3689;1394904;1;7945;1213452
0;7;1571603116988;1571603130055;13067;15988923404;29922341918;587669565;377982486;4467042966;164537;293857038;1746;9169;2117808;15;13067;1868145
0;8;1571603130055;1571603149658;19603;16175075156;29922550188;584590411;388117898;4467080407;145878;293878683;2803;18603;3240008;-4;19604;2911985
0;9;1571603149658;1571603160474;10816;15649195858;29922215897;596095141;352411007;4467022014;145455;293849177;1417;6245;1553696;-9;10815;1542276
0;10;1571603160474;1571603173266;12792;15850246910;29924431917;590205907;374053507;4467779072;153071;293863507;1616;10209;2110104;17;12793;1830087
0;11;1571603173267;1571603193506;20239;16074003006;29923948100;585932049;383865812;4467701309;150010;293842610;3032;17789;3424352;-5;20239;3022057
0;12;1571603193506;1571603203467;9961;16168403102;29919460368;583358847;383487727;4466206498;141400;293861220;1200;8065;1577168;-16;9961;1423908
0;13;1571603203467;1571603210093;6626;16031726954;29919368799;589296523;384292702;4466195798;136070;293862230;1088;1151;1181832;27;6627;1016449
0;14;1571603210093;1571603222693;12600;15919002836;29919147262;590612925;377155272;4466151764;144775;293824032;1740;8114;2046056;-12;12600;1808291
0;15;1571603222693;1571603240811;18118;16197212552;29921558690;584732872;389447678;4466934177;140689;293823074;2624;19615;3071088;-7;18117;2681067
0;16;1571603240811;1571603252503;11692;16104132588;29920972005;583133587;384186368;4466827988;151165;293796770;1628;6802;1859936;11;11693;1675706
0;17;1571603252503;1571603265410;12907;15877674762;29493038343;575669388;362226932;4405688033;141501;293789951;1597;9429;1976232;7;12907;1845861
0;18;1571603265411;1571603285501;20090;15836331066;29397576879;573864619;358232203;4392453133;131873;293759284;2999;17821;3369424;-12;20090;2947893
0;19;1571603285501;1571603296035;10534;15990156666;29397579411;573312215;360989346;4392453595;122904;293761821;1272;8603;1656584;9;10535;1511216
0;20;1571603296036;1571603303082;7046;15868326528;29393182495;574205125;361079577;4390973292;126905;293787961;1186;957;1254728;-3;7047;1068010
0;21;1571603303082;1571603314393;11311;15524594202;29393065765;582074214;330429120;4390953836;132282;293757438;1527;7380;1826984;-23;11311;1616104
0;22;1571603314393;1571603334515;20122;16056644628;29393040372;569349978;367523917;4390949331;123721;293767149;2871;20822;3275440;28;20121;2971365
0;23;1571603334515;1571603344028;9513;15967360372;29393071621;571432424;361678881;4390955075;128438;293762673;1133;4028;1744992;-13;9513;1362223
0;24;1571603344028;1571603355015;10987;15576626266;29395278989;579848871;348637869;4391696888;131789;293761747;1578;6020;1601664;-10;10987;1573195
0;25;1571603355015;1571603376643;21628;15773396744;29395458537;575619449;357681784;4391731503;137193;293765257;3034;16682;3628992;15;21629;3181245
0;26;1571603376643;1571603385361;8718;15767818522;29395569109;574575811;353844605;4391763228;128131;293760336;1271;7708;1154832;-9;8717;1246517
0;27;1571603385361;1571603397862;12501;15560135274;29396880003;582025923;339937336;4392354875;121540;293684603;1805;10272;2088312;3;12502;1899489
0;28;1571603397862;1571603409708;11846;15367345778;29036902647;556001714;323005612;4272368079;122868;289740996;1646;9082;2077472;-14;11845;1690927
0;29;1571603409708;1571603428512;18804;15634281374;28969259407;544230908;334081999;4249841275;111984;289052116;2670;17410;2812392;11;18805;2787924
0;30;1571603428512;1571603441194;12682;15358824050;28969263987;547754901;318774653;4249841449;121410;289043066;1811;8210;2046736;-10;12681;1818795
0;31;1571603441194;1571603454942;13748;15293391668;28969258851;551503189;315215060;4249840486;119460;289044965;1748;10439;2174024;17;13749;1963239
0;32;1571603454942;1571603471463;16521;15707398758;28969302496;543993031;338545844;4249852652;108825;289040766;2725;16175;2786392;8;16521;2426507
0;33;1571603471463;1571603485101;13638;15287416326;28968997058;553403604;316105206;4249794905;118210;289006318;1741;9523;2117704;-13;13638;1944108
0;34;1571603485101;1571603496908;11807;15275582588;28970946843;551624027;317321688;4250486486;113778;289003474;1771;9697;2080616;11;11806;1746220
0;35;1571603496908;1571603518549;21641;15636117762;28973201245;544996532;333484106;4251236955;111459;288999747;2941;17657;3320544;3;21641;3096956
0;36;1571603518549;1571603527864;9315;15659175104;28973204942;543836651;334659994;4251237810;104065;288997404;1559;7458;1624736;0;9315;1428724
0;37;1571603527864;1571603541812;13948;15185584830;28968697783;550942482;302394217;4249736020;111940;288992845;2052;9086;2114408;-4;13948;2002590
0;38;1571603541812;1571603562493;20681;15401641324;28968710462;546138881;316364837;4249739266;106422;289001488;3066;19447;3501472;-22;20682;3027163
0;39;1571603562494;1571603574055;11561;15490479842;28968728478;542956783;322416740;4249742580;105223;288992844;1528;8481;1686024;8;11562;1658787
0;40;1571603574055;1571603581530;7475;15475078010;28968736145;547894820;324616806;4249745419;109710;288997737;885;1226;1428672;14;7475;1069620
0;41;1571603581530;1571603589188;7658;15354298050;28968671421;550820081;318978785;4249734524;112336;289000818;1185;2909;1291696;-19;7657;1214990
0;42;1571603589188;1571603608568;19380;15317343844;28968665384;549201047;319120395;4249733266;109049;289002679;2587;15899;3214112;26;19381;2779108
0;43;1571603608568;1571603614857;6289;15491870346;28970929090;545042541;324849559;4250486312;110462;289000776;879;5726;1153472;141;6289;926316
0;44;1571603614858;1571603625938;11080;15284421720;28973172925;549934467;314906729;4251234616;124409;289004736;1686;9458;2022152;-157;11081;1645555
0;45;1571603625939;1571603654381;28442;15294796918;28973176113;548546450;318079571;4251235028;120384;289003905;4439;19302;3973752;11;28442;4310555
0;46;1571603654381;1571603660899;6518;15526509138;28968650521;543070484;326344934;4249730324;109245;288993006;822;7332;1236328;-22;6518;931722
0;47;1571603660899;1571603667386;6487;15488855592;28968665329;545236976;327196739;4249733649;114471;289007654;1129;653;1195920;17;6487;1035408
0;48;1571603667386;1571603679983;12597;15168707084;28968657248;553477023;311464031;4249731524;114393;289000986;1805;6931;1816752;-11;12597;1799694
0;49;1571603679983;1571603701791;21808;15480811284;28968663305;544796094;326604034;4249732818;105926;288997775;3214;19731;3737008;1;21809;3238704
0;50;1571603701791;1571603712314;10523;15525016142;28968657663;547708164;329171973;4249732066;116940;289007423;1554;8056;1405368;20;10522;1499720
0;51;1571603712314;1571603725168;12854;15397209786;28971028739;548809792;322040870;4250505940;110965;288996665;1945;9514;2018072;-16;12855;1893716
0;52;1571603725169;1571603748247;23078;15159318262;28910260530;541418988;300461954;4180751631;118239;289028303;3181;18175;3717360;-14;23079;3310335
0;53;1571603748247;1571603756212;7965;15361769454;28804066102;525495694;313361288;4144811847;109933;286616715;1372;7885;1193400;10;7965;1190821
0;54;1571603756212;1571603768468;12256;14945804942;28511237947;510898896;280206765;4047255556;123319;279684481;1702;10008;2260400;-6;12256;1756656
1;3;1571603911421;1571603925571;14150;15770708884;29923298008;565911890;352503831;4352330449;241324;290249497;2183;11189;2147040;5;14150;2086621
1;4;1571603925571;1571603943074;17503;16026624254;30221399747;592870912;386802367;4466496272;169767;293926558;2712;14859;2734120;-9;17503;2521899
1;5;1571603943074;1571603956007;12933;15823725864;30221076294;595182960;374903907;4466452293;172339;293874546;1923;9212;2033936;0;12933;1943053
1;6;1571603956007;1571603967880;11873;15782718698;30220181705;591850643;372429898;4466309615;164033;293852223;1614;9047;2180784;18;11873;1703873
1;7;1571603967880;1571603992282;24402;16040706830;30222370670;586640876;383752953;4467050440;150171;293846348;3607;21873;3741544;-9;24402;3570931
1;8;1571603992282;1571604002558;10276;15724192700;30222474010;594166586;360507043;4467068175;152474;293864908;1509;5706;1388952;-5;10276;1468159
1;9;1571604002559;1571604014899;12340;15815567968;30222215475;591909337;371201698;4467023640;150524;293854652;1567;9578;1998152;11;12340;1762313
1;10;1571604014899;1571604037529;22630;15924396368;30224487650;588753887;376791678;4467790076;157586;293858116;3257;15038;3876448;-13;22631;3184977
1;11;1571604037529;1571604042801;5272;16341331050;30223941465;579333949;397116617;4467702222;162492;293897507;736;3743;804696;-1;5272;741870
1;12;1571604042801;1571604052948;10147;15897438782;30219396638;588711578;379333371;4466196752;158000;293833419;1621;6176;1624752;15;10147;1561443
1;13;1571604052948;1571604064185;11237;15966634460;30219349606;588971916;379213757;4466193535;152504;293830725;1502;8714;1887472;2;11237;1605379
1;14;1571604064185;1571604085968;21783;15854101894;30219094869;588415497;373960326;4466142752;129630;293809881;3169;20171;3407008;-15;21782;3207857
1;15;1571604085968;1571604095802;9834;15907173624;30221584050;587651091;376927148;4466940028;137797;293809677;1402;5099;1403760;6;9908;1413388
1;16;1571604095875;1571604109614;13739;16037156840;30220964213;587681060;381471259;4466827312;148751;293778293;1753;10274;2242256;7;13739;1968934
1;17;1571604109614;1571604130713;21099;15819246876;29808950853;579074040;362507381;4407973899;148003;293813305;3268;18018;3398528;-2;21099;3135151
1;18;1571604130714;1571604141100;10386;15959207732;29697931927;571146286;364297068;4392526243;133893;293803092;1338;8569;1634056;12;10387;1480324
1;19;1571604141100;1571604152741;11641;15453426356;29697931354;585613307;335006749;4392525443;142715;293784690;1766;9812;2056304;-21;11641;1785645
1;20;1571604152742;1571604177483;24741;15755140758;29693519501;580873476;347969359;4391040899;137862;293780841;3579;19677;3627152;7;24742;3619249
1;21;1571604177484;1571604184985;7501;15997044654;29693109723;571004338;369490164;4390964599;128808;293775620;1028;7179;1352280;15;7502;1083269
1;22;1571604184985;1571604195724;10739;15698784028;29693025796;580131072;354361317;4390948173;152701;293765891;1634;9373;1986112;-12;10739;1595370
1;23;1571604195725;1571604220365;24640;15579305074;29693039441;585550719;348109407;4390950611;141915;293759048;3276;17878;3964944;-10;24641;3520432
1;24;1571604220365;1571604226803;6438;15844591162;29695263781;573118492;359817376;4391695782;119632;293752750;1205;8094;1036768;8;6438;1011146
1;25;1571604226804;1571604239357;12553;15595475888;29695449465;581706428;339448229;4391731096;140314;293748358;1774;7356;1851288;-11;12554;1792405
1;26;1571604239357;1571604251197;11840;15873703854;29695521922;574017666;360982051;4391755048;139835;293744480;1579;9653;2058008;22;11840;1693146
1;27;1571604251197;1571604269510;18313;15822470264;29696877222;579052097;360587603;4392356624;118796;293687807;2914;16638;2997848;-21;18313;2706775
1;28;1571604269510;1571604281031;11521;15421624052;29336779121;553597370;326541540;4272346692;124036;289724943;1442;8016;1861952;-2;11520;1643728
1;29;1571604281031;1571604292357;11326;15365165998;29268842345;549120116;319215498;4249760054;121629;289020059;1740;10086;2064688;27;11326;1692176
1;30;1571604292357;1571604316277;23920;15442297944;29268865438;546799735;326046465;4249765169;118563;289028361;3645;20122;3520744;-31;23921;3516503
1;31;1571604316278;1571604326600;10322;15547757394;29268861104;543679741;331646194;4249763843;120224;289019743;1527;7783;1673936;9;10323;1486650
1;32;1571604326600;1571604339496;12896;15206130096;29268897608;549321800;312035306;4249772979;116477;289001817;1693;9425;2041544;3;12896;1847260
1;33;1571604339497;1571604355448;15951;15355562556;29268789966;550594272;320221707;4249755972;117816;289006602;2408;8743;2877424;15;15952;2328641
1;34;1571604355448;1571604365636;10188;15489511424;29270915614;546011739;325368790;4250483251;112258;288997725;1386;9213;1437584;-4;10188;1458271
1;35;1571604365636;1571604375591;9955;15366469486;29273163749;546089084;320041079;4251232370;108484;288987192;1203;6468;1916688;-16;9955;1427281
1;36;1571604375591;1571604383273;7682;15538382734;29273186626;547634471;326132614;4251237202;108548;289002650;1255;5969;1420224;22;7682;1161477
1;37;1571604383273;1571604408346;25073;15295580938;29268682288;550348775;313958629;4249735922;115590;288999237;3361;19907;3841072;-28;25073;3583035
1;38;1571604408346;1571604416224;7878;15231985820;29268677698;550600043;317386749;4249735207;115011;288998654;1357;7067;1377056;30;7877;1212628
1;39;1571604416224;1571604431207;14983;15106833014;29268679717;553372954;302500331;4249735226;115757;288988334;2057;9593;2166424;-8;14984;2144868
1;40;1571604431207;1571604449992;18785;15318137646;29268712082;547428517;311245159;4249741882;111333;288989721;2699;14841;3387344;-21;18785;2688636
1;41;1571604449992;1571604454917;4925;15589011884;29268681297;541961032;334003078;4249737017;112313;289014483;710;2672;637744;26;4925;704833
1;42;1571604454917;1571604466344;11427;15339418898;29268666668;547570029;320914569;4249733386;111103;288993413;1365;6997;1791096;-21;11426;1628277
1;43;1571604466344;1571604478169;11825;15296621042;29270931084;549463807;318726428;4250488288;112274;288993366;1791;9454;2029760;21;11825;1742036
1;44;1571604478169;1571604503997;25828;15471921198;29273142537;545337832;322325264;4251230594;109470;288986126;3932;18984;3560536;-11;25829;3796544
1;45;1571604503997;1571604513398;9401;15482873388;29273149858;548677331;325975030;4251232086;115614;288994759;1320;8810;1719096;1;9401;1346013
1;46;1571604513399;1571604524203;10804;15311340616;29268651506;549131201;319851918;4249732429;111368;288994475;1742;9756;1974392;9;10805;1656855
1;47;1571604524203;1571604547404;23201;15603001750;29268652916;542837759;333988989;4249732988;116009;289005079;3188;19801;3623024;4;23201;3321097
1;48;1571604547404;1571604556262;8858;15558020610;29268653859;546128524;331260275;4249733321;113657;289007370;1499;7509;1535016;-21;8858;1339838
1;49;1571604556262;1571604570026;13764;15171026440;29268649136;550459064;311262628;4249731564;117941;288992738;1916;8892;1986536;4;13764;1964849
1;50;1571604570026;1571604590376;20350;15457994258;29268647655;545991068;323990708;4249731371;103939;288988224;2870;17661;3578544;-13;20349;2948099
1;51;1571604590376;1571604600560;10184;15366040538;29271014997;547205307;322113453;4250505056;109568;289005783;1425;7822;1360328;15;10185;1456745
1;52;1571604600560;1571604613392;12832;15143143068;29210227012;541612068;298473857;4180747425;114090;289026182;1876;9474;2052240;-12;12832;1920510
2;4;1571604787358;1571604792585;5227;16132438630;29921175361;584386874;392017137;4466456954;174136;293919622;752;4001;866560;17;5228;743687
2;5;1571604792585;1571604802081;9496;15994969556;29920842717;586714431;385739950;4466413270;165489;293884778;1499;6708;1689656;12;9496;1445284
2;6;1571604802082;1571604830934;28852;15867060562;29920170635;590544918;377804322;4466308549;144865;293859580;4060;21113;4597104;-1;28852;4138547
2;7;1571604830934;1571604836049;5115;16505376066;29922317973;573851712;404130250;4467040085;131179;293864344;716;3123;683568;-12;5116;733048
2;8;1571604836049;1571604845261;9212;15877700312;29922476640;590288367;373007759;4467068224;154205;293867261;1140;5923;1476656;5;9211;1320441
2;9;1571604845261;1571604856108;10847;15813351396;29922238312;591533665;377103824;4467028111;163844;293860174;1346;9779;2060552;-2;10847;1553481
2;10;1571604856108;1571604882421;26313;15829795522;29924480247;588740849;376728973;4467788851;163275;293861834;3718;21769;4352096;-19;26314;3840083
2;11;1571604882421;1571604889733;7312;15876349520;29923973645;590356244;373511333;4467707223;142989;293845323;864;5966;1285592;8;7312;1052543
2;12;1571604889734;1571604896052;6318;15843400386;29919395211;588691928;380124089;4466195478;138577;293836251;1182;3329;1106824;13;6318;990138
2;13;1571604896077;1571604909776;13699;15801953614;29919363935;589111614;374155204;4466195599;146077;293820475;1831;9017;2034744;-7;13725;1965697
2;14;1571604909776;1571604928044;18268;15928724684;29919157929;590768984;382954431;4466155519;140936;293821296;2611;19450;3310608;-5;18268;2670457
2;15;1571604928044;1571604939593;11549;15853111430;29921476429;588759924;377548907;4466918475;151009;293823035;1610;6504;1653344;-6;11549;1649378
2;16;1571604939593;1571604952207;12614;15775407018;29921224193;589887406;374264554;4466875395;140845;293803617;1543;9630;2071992;160;12613;1845131
2;17;1571604952207;1571604976224;24017;15713829912;29508956910;578873441;360310751;4407973857;139998;293811930;3576;21940;3662088;-137;24018;3496036
2;18;1571604976224;1571604985747;9523;15756258680;29397942075;574775165;359594107;4392527983;132042;293792652;1602;7499;1591296;2;9522;1475971
2;19;1571604985747;1571604998803;13056;15434236262;29397940425;582164796;333322502;4392527413;136520;293782176;1718;9835;2207496;-22;13056;1865204
2;20;1571604998803;1571605020077;21274;15535818098;29393519531;578180992;344954984;4391040580;143428;293796613;3067;16721;3144336;3;21274;3164552
2;21;1571605020077;1571605027991;7914;15778578430;29393135667;573804518;358848470;4390969097;120472;293772958;1073;6723;1458640;-6;7914;1136975
2;22;1571605027991;1571605038127;10136;15658403932;29393012319;578785612;355531551;4390944970;142238;293756303;1627;7253;1842648;7;10136;1525385
2;23;1571605038127;1571605063481;25354;15668661308;29393022698;577643785;353272431;4390946865;129065;293749028;3510;16580;4003000;-15;25354;3668731
2;24;1571605063481;1571605068715;5234;15719932858;29395276366;576705624;355788325;4391698012;118160;293763345;823;3186;694928;31;5234;745769
2;25;1571605068715;1571605076996;8281;15519384630;29395444599;580900711;344791630;4391730471;133630;293763319;1037;5606;1430128;-21;8282;1185538
2;26;1571605076996;1571605088077;11081;15801662928;29395551738;577470402;359786482;4391760115;143753;293755926;1413;10104;2137384;-1;11080;1584294
2;27;1571605088077;1571605109919;21842;15964360510;29396968508;571853141;363289372;4392362745;118338;293694256;3071;17133;3806248;-2;21843;3117074
2;28;1571605109920;1571605114961;5041;16062372646;29396911456;568899169;373865957;4392354188;114704;293705265;671;3172;730032;2;5041;715262
2;29;1571605114961;1571605123907;8946;15955725486;29392408411;570297633;366995367;4390853217;116087;293694222;1156;6062;1496352;4;8947;1277319
2;30;1571605123907;1571605135835;11928;15488040474;29392419540;579894626;347242927;4390855529;122471;293694031;1739;10038;2134272;22;11927;1784952
2;31;1571605135835;1571605158733;22898;15564838664;29392865868;577780033;349093722;4390950131;123321;293703491;3360;20147;3471904;-12;22899;3371300
2;32;1571605158733;1571605168057;9324;15912628768;29507046863;569554659;366415212;4391589634;116488;293674502;1357;5273;1466400;-13;9323;1334986
2;33;1571605168057;1571605182167;14110;15771512468;29507011599;573170049;358313948;4391583881;116382;293667530;1780;10298;2252984;12;14111;2016573
2;34;1571605182167;1571605202618;20451;15805562442;29506925496;571982045;360798957;4391568201;110638;293659199;3158;17335;3456152;-12;20450;3035023
2;35;1571605202618;1571605212960;10342;15609572042;29509175649;576987926;353077173;4392318283;109660;293664580;1365;9040;1540256;11;10342;1475458
2;36;1571605212960;1571605224476;11516;15613159554;29509182758;577728444;346977380;4392319120;114373;293654805;1747;9890;1982576;9;11517;1740023
2;37;1571605224476;1571605249390;24914;15507260644;29504515552;582342361;340796125;4390787023;113768;293648849;3447;20151;3852496;146;24913;3605003
2;38;1571605249390;1571605256406;7016;15846300968;29504315902;571472925;359812837;4390745610;109409;293641992;1178;7847;1241264;-154;7016;1086245
2;39;1571605256406;1571605263950;7544;15729966562;29504357106;575665702;361756305;4390754370;117311;293659659;930;474;1389576;5;7544;1091695
2;40;1571605263950;1571605277322;13372;15691922320;29504357504;577642953;356568080;4390755322;114281;293648178;1901;9468;1953664;-10;13373;1906220
2;41;1571605277323;1571605295407;18084;15864731132;29506534226;571024243;362982086;4391492746;108942;293644153;2882;15464;3024128;-12;18084;2648242
2;42;1571605295407;1571605308845;13438;15246497198;29068755922;559052969;311075456;4283544927;120918;290128104;2107;8239;1780624;21;13439;2055766
2;43;1571605308845;1571605322776;13931;15146084238;28933543805;551951819;309594448;4250501936;127356;289009055;1954;10146;2258816;-4;13931;1989059
2;44;1571605322777;1571605342564;19787;15371228648;28935782094;548258253;324172081;4251250050;103753;289007839;2976;13629;3063576;-16;19788;2846516
2;45;1571605342564;1571605349860;7296;15504575996;28935771942;548041652;331930911;4251248272;111763;289017375;1042;3802;999616;14;7295;1050970
2;46;1571605349860;1571605361266;11406;15204052954;28931268366;551804928;315772105;4249746880;116195;289005746;1433;9881;2029880;-5;11407;1636279
2;47;1571605361267;1571605372845;11578;15188121726;28931440148;553290333;315163502;4249784772;119024;288998436;1838;10257;2160272;-4;11578;1750909
2;48;1571605372845;1571605392230;19385;15629682958;28931188744;540427886;336210217;4249737585;110355;289001453;2663;17580;2876480;25;19385;2765468
2;49;1571605392230;1571605403931;11701;15204113544;28931176571;549853649;315079292;4249734468;115122;288994819;1974;8596;2054960;-31;11701;1793742
2;50;1571605403931;1571605417583;13652;15219720798;28931174526;551394535;315772562;4249734003;113364;288990968;1886;7655;1996880;8;13652;1951100
2;51;1571605417583;1571605436812;19229;15262215266;28933534425;549215215;319482434;4250505716;111049;288994858;3090;17798;3090328;10;19229;2896483
2;52;1571605436812;1571605447930;11118;15180053036;28872750777;538122712;304173121;4180749549;110736;289019774;1473;3850;1691632;2;11118;1593781
2;53;1571605447930;1571605458686;10756;15046711090;28779931564;533421340;290917136;4149284387;106501;286861716;1371;8145;1786080;155;10756;1539600
3;3;1571605613241;1571605637387;24146;15863774686;29922404497;590520630;373107973;4466673005;214725;294031045;3546;17736;4028024;0;24147;3533321
3;4;1571605637387;1571605642918;5531;16348290286;29921402835;580178524;390737487;4466496493;154111;293912178;709;4777;708120;30;5531;796996
3;5;1571605642918;1571605649812;6894;15971193456;29920836377;589863088;382995338;4466409040;169145;293897562;833;2358;1259536;0;6893;990099
3;6;1571605649812;1571605662454;12642;15899651704;29920145005;589257801;375664438;4466301950;162856;293858989;1835;10285;2199928;-13;12642;1883798
3;7;1571605662454;1571605687839;25385;15965431858;29922352383;589471626;378966737;4467044132;155114;293851730;3518;18560;4095328;4;25386;3617358
3;8;1571605687840;1571605692799;4959;16059160062;29922491613;589235760;387444834;4467069603;143879;293887467;813;2797;655416;-12;4960;710630
3;9;1571605692799;1571605703205;10406;16075699964;29922280218;587339826;375672185;4467033300;149154;293861567;1320;6397;1610888;3;10406;1488803
3;10;1571605703205;1571605715011;11806;15863534808;29924430089;589058869;375862490;4467778067;157497;293856823;1483;9839;2092264;158;11806;1725770
3;11;1571605715011;1571605737616;22605;15789244022;29923984737;593475070;372553192;4467708018;148911;293847017;3274;19279;3663832;-144;22605;3282597
3;12;1571605737616;1571605746625;9009;15851101156;29919392347;589088986;375345620;4466193058;140313;293851316;1345;8508;1423784;157;9009;1318133
3;13;1571605746625;1571605757717;11092;15840624342;29919358833;591037890;373887182;4466193232;158677;293853925;1567;9434;2020144;-176;11092;1636030
3;14;1571605757717;1571605782257;24540;15838807956;29919148221;588699849;372472321;4466151372;147675;293818369;3601;19083;3788496;0;24540;3626369
3;15;1571605782257;1571605791256;8999;15859326504;29921539421;591676437;378244679;4466930060;141047;293846068;1401;6793;1234848;8;8999;1287229
3;16;1571605791256;1571605805374;14118;15898452022;29921013334;589730712;376235390;4466834983;143174;293793575;1730;10711;2226840;-2;14118;2012267
3;17;1571605805374;1571605826806;21432;15666198142;29511371925;582457365;354327603;4408302795;145188;293789393;3223;16348;3604216;-6;21432;3180099
3;18;1571605826807;1571605835903;9096;15776663786;29397568670;576521278;357397578;4392451556;131724;293767862;1221;8804;1282192;13;9097;1298322
3;19;1571605835903;1571605847520;11617;15812855434;29397575792;575182027;356424172;4392452678;132879;293769032;1767;10156;2025728;8;11617;1743611
3;20;1571605847520;1571605873952;26432;15538490190;29393090138;584066243;334590529;4390956468;139622;293759300;3882;18225;3924768;-22;26431;3886516
3;21;1571605873952;1571605880494;6542;16145779380;29393146870;568737684;373879321;4390969756;131654;293775343;902;7560;1064904;-6;6543;929574
3;22;1571605880494;1571605891453;10959;15892649690;29393025220;572998513;361616098;4390945624;134962;293768003;1672;9788;2011440;16;10959;1629726
3;23;1571605891453;1571605905709;14256;15590566054;29393030912;582988982;344848144;4390946170;132293;293754279;2070;9399;2270016;10;14256;2040437
3;24;1571605905709;1571605921624;15915;15944204918;29395274661;575330881;367085118;4391695845;130137;293772221;2323;14999;2521632;-21;15914;2352885
3;25;1571605921624;1571605933210;11586;15752070670;29395452838;575870685;342589178;4391729960;132507;293755246;1619;5411;1833504;-6;11587;1656993
3;26;1571605933210;1571605946556;13346;15764046466;29383394413;578115128;352953224;4387680149;139678;293761376;1762;11195;2217600;3;13346;1907890
3;27;1571605946556;1571605967885;21329;15639060830;29290965635;572443549;343173184;4357076590;120891;293710953;3274;18676;3486768;5;21329;3162619
3;28;1571605967885;1571605978657;10772;15740212842;29290928663;567295956;346769570;4357071215;115996;293708324;1410;8674;1671136;0;10772;1543096
3;29;1571605978657;1571605990746;12089;15620552556;29290925587;569379682;342457735;4357070575;125979;293708582;1814;10326;2197224;-8;12088;1822703
3;30;1571605990746;1571606014918;24172;15733551008;29286441993;566628098;348017639;4355574347;118912;293718854;3604;21415;3637120;31;24173;3555846
3;31;1571606014918;1571606024784;9866;15682621390;29286627142;568062331;346207763;4355616698;122150;293716034;1490;6803;1443392;-17;9866;1417476
3;32;1571606024784;1571606037437;12653;15587309670;29398853660;574751889;339509287;4355563336;119048;293676528;1691;9603;2048080;5;12653;1804786
3;33;1571606037437;1571606057378;19941;15636742788;29399889903;572214787;344568112;4355923800;115768;293676202;3111;17134;3505112;-8;19941;2912046
3;34;1571606057378;1571606068013;10635;15731935226;29400931138;569907761;347185728;4356283907;108996;293665145;1411;8945;1552888;1;10635;1518988
3;35;1571606068013;1571606079811;11798;15565587790;29400920092;574086394;335403725;4356281325;112519;293662898;1802;9667;2002528;-10;11798;1771880
3;36;1571606079811;1571606104173;24362;15362984466;29403184125;576422384;319269977;4357033877;116864;293666217;3306;18958;3894408;22;24362;3483265
3;37;1571606104173;1571606110664;6491;15737809390;28991043245;543390562;339056064;4263656086;108155;289575674;1249;8284;1073536;-16;6490;1055499
3;38;1571606110664;1571606125325;14661;15215484608;28931227397;551471254;313027966;4249741540;120931;289013897;2002;9791;2203072;14;14661;2101573
3;39;1571606125325;1571606137738;12413;15395276308;28931255322;548682537;322185121;4249747316;112244;289010317;1873;9411;2014872;-7;12414;1864888
3;40;1571606137739;1571606151996;14257;15551780570;28931254867;546783760;329206437;4249748046;94995;289003120;1846;8847;2619640;13;14257;1872946
3;41;1571606151996;1571606159382;7386;15373322872;28931215727;548828446;315141526;4249740832;107194;289008098;1078;4591;1037928;-22;7387;1051705
3;42;1571606159382;1571606174904;15522;15198642194;28931323043;555270247;311860159;4249762423;123655;289006803;2250;9622;2099136;24;15522;2403456
3;43;1571606174904;1571606197580;22676;15443915624;28931200001;546782072;323528582;4249740949;119474;289019454;3067;17701;3624872;-17;22676;3253482
3;44;1571606197580;1571606203849;6269;15458801200;28933420911;546219495;324446177;4250485292;103526;289008115;1173;4370;1041056;12;6269;963157
3;45;1571606203849;1571606216731;12882;15271333696;28935657883;552309222;314829789;4251232094;109575;289000419;1785;7151;1781848;-20;12881;1847835
3;46;1571606216731;1571606228693;11962;15226176042;28935661359;552151911;312682428;4251232830;109142;289000806;1531;9387;2045904;6;11963;1710896
3;47;1571606228693;1571606245509;16816;15370925114;28931149254;547822142;317647835;4249730366;107315;288999293;2726;15565;2762544;15;16815;2494276
3;48;1571606245509;1571606258296;12787;15309694466;28931157448;552305192;314709355;4249731929;108271;288995217;1572;8643;2002520;-4;12788;1819731
3;49;1571606258297;1571606270069;11772;15341882064;28931153361;551191565;318630174;4249731178;114931;288999997;1852;9604;2104752;-16;11773;1784430
3;50;1571606270069;1571606294215;24146;15485672646;28931164967;547062866;328240057;4249734025;111105;289014667;3922;23641;3574216;7;24146;3547510
3;51;1571606294215;1571606305003;10788;15557594874;28931282694;544726472;326277568;4249756978;118108;289014266;1572;6462;1748808;-4;10788;1543339
3;52;1571606305003;1571606319385;14382;15291130128;28868235865;538161947;303445282;4179247698;113777;289031277;1891;10210;2227528;-3;14382;2055627
4;4;1571606494273;1571606501963;7690;16183815592;29921274206;583388376;389384566;4466474334;161839;293905623;1116;5612;1153952;8;7691;1111773
4;5;1571606501963;1571606513088;11125;16173015534;29920754709;581939860;386989009;4466397896;169216;293877098;1584;9899;2025200;-11;11125;1676519
4;6;1571606513088;1571606542029;28941;16130787808;29920110110;584512349;387273987;4466296050;154593;293882720;4111;25475;4559232;0;28940;4182258
4;7;1571606542029;1571606550487;8458;16035720638;29922337969;586386292;382355668;4467042701;144498;293857386;1249;4864;1218360;-1;8459;1207645
4;8;1571606550487;1571606564219;13732;16011760870;29922470244;586429825;379567333;4467065345;153631;293854134;1710;9931;2187872;-4;13732;1964689
4;9;1571606564219;1571606587244;23025;16073802110;29922225448;582861974;381976998;4467023950;146035;293841478;3277;17306;3864600;24;23025;3350778
4;10;1571606587287;1571606595090;7803;16085018560;29924500996;581812025;383122504;4467791486;146663;293874327;1095;8925;1045696;-1;7846;1117198
4;11;1571606595090;1571606606087;10997;15801264932;29923951739;590057595;370453057;4467701865;154552;293847436;1737;9316;1975024;6;10996;1689192
4;12;1571606606087;1571606617225;11138;15761475698;29919416482;588838450;348793473;4466197688;149847;293830276;1491;5598;1862680;-10;11138;1596866
4;13;1571606617225;1571606634537;17312;16033303900;29919357933;582998240;383698506;4466193466;140211;293825155;2576;11386;2738728;-17;17313;2602799
4;14;1571606634537;1571606645018;10481;16025979518;29919150297;582744987;380405026;4466152575;137204;293819781;1504;8094;1544048;3;10480;1498675
4;15;1571606645018;1571606657733;12715;15880520886;29921538609;590065187;375282086;4466929528;150309;293815026;1579;9752;2057544;-1;12715;1822445
4;16;1571606657733;1571606669213;11480;15796463430;29920978080;591143361;371990936;4466828432;142710;293774176;1765;10285;2136544;1;11480;1723902
4;17;1571606669213;1571606686556;17343;15666702426;29511552771;581995917;353923498;4408341858;142460;293809345;2187;8090;2939752;7;17344;2385096
4;18;1571606686557;1571606691439;4882;15870237668;29397951061;576088707;364597303;4392528469;123076;293805241;620;3354;774064;-12;4882;691920
4;19;1571606691439;1571606702369;10930;15659091592;29397947062;581313417;342631100;4392527217;126096;293791404;1646;6760;1780632;13;10930;1672935
4;20;1571606702369;1571606711167;8798;15630234254;29393455649;576540100;346381422;4391028179;135323;293796671;1297;3801;1509640;-10;8798;1440377
4;21;1571606711167;1571606723933;12766;15547079078;29393192221;579478816;345777146;4390976515;133201;293755707;1806;8212;1864744;9;12766;1826172
4;22;1571606723933;1571606741496;17563;16075622730;29393036574;565656151;368838502;4390948737;121873;293764743;2463;13795;3139352;2;17564;2401292
4;23;1571606741496;1571606747170;5674;16009445894;29393064696;570420988;368343590;4390954423;118241;293766385;816;3436;991928;16;5674;814780
4;24;1571606747170;1571606759745;12575;15728186384;29395261342;576629216;353481875;4391693229;129248;293746579;1634;7805;1868544;-1;12575;1795851
4;25;1571606759745;1571606783578;23833;15559594344;29395448350;583563069;346024396;4391729702;145314;293756234;3326;19917;4265064;-26;23833;3500234
4;26;1571606783578;1571606789223;5645;15817821916;29395683459;574876047;361833783;4391789359;140114;293783160;985;6495;620256;19;5645;807514
4;27;1571606789223;1571606801729;12506;15668739126;29396785636;575563483;351594541;4392335902;127058;293675213;1481;9477;2000520;-9;12506;1790379
4;28;1571606801729;1571606812979;11250;15361405768;29036842616;552859081;323680103;4272356535;124890;289725093;1680;8712;2048704;-4;11249;1717041
4;29;1571606812979;1571606835191;22212;15452177472;28969177387;544886523;322245152;4249825461;112371;289020387;3404;18570;3247656;-2;22213;3242716
4;30;1571606835191;1571606843670;8479;15441918928;28969190552;548967133;323447561;4249828412;122095;289027685;1045;4048;1701544;14;8479;1212360
4;31;1571606843671;1571606854064;10393;15236252816;28969230149;550828057;310586329;4249837700;107342;289021879;1454;5313;1492312;-15;10393;1487184
4;32;1571606854064;1571606876487;22423;15346171106;28969294046;548986261;312465828;4249849065;119963;289019896;3088;17939;3858664;15;22424;3278381
4;33;1571606876487;1571606886846;10359;15283305112;28969100248;551751090;316726279;4249811235;110203;289016074;1552;9646;1364232;-16;10359;1474961
4;34;1571606886846;1571606898722;11876;15453684338;28971009885;547090748;322550934;4250494713;110847;288999255;1837;10300;1977296;16;11875;1793274
4;35;1571606898722;1571606924066;25344;15263252158;28973263675;550210721;314234145;4251245092;113314;288998711;3442;18878;4061608;-16;25345;3629671
4;36;1571606924066;1571606930713;6647;15541459100;28973270044;544170397;323982957;4251246565;106609;288997592;1237;8503;975592;11;6647;1044278
4;37;1571606930713;1571606943768;13055;15496360576;28968845330;544555272;322577058;4249768435;119974;289001012;1841;9523;2174136;-6;13055;1863159
4;38;1571606943768;1571606967278;23510;15343209788;28968687923;546824154;318227184;4249735683;116753;288988036;3286;19234;3969664;13;23509;3447622
4;39;1571606967278;1571606974015;6737;15430317622;28968698776;549705232;323579884;4249738257;108966;288993124;1141;6360;904912;-21;6737;962488
4;40;1571606974015;1571606984387;10372;15254642246;28968737873;546729778;312722305;4249746134;111075;288986710;1118;4448;1706760;2;10372;1489995
4;41;1571606984387;1571606992732;8345;15353580898;28968668437;547739133;321430515;4249735069;119438;289008636;1358;4150;1454872;15;8345;1256288
4;42;1571606992732;1571607016841;24109;15317385454;28968660845;548481620;316810956;4249733153;121059;289000353;3274;18684;3807440;-9;24109;3444415
4;43;1571607016841;1571607023914;7073;15603827526;28970936595;542820470;333464148;4250488790;115855;289007594;1295;7592;1116072;19;7073;1104921
4;44;1571607023914;1571607038693;14779;15136491308;28973171188;552345890;310464794;4251234794;134230;288994199;2147;9650;2186160;-20;14780;2127031
4;45;1571607038693;1571607061801;23108;15176176444;28973150936;551943707;311998365;4251230862;111979;288981942;3170;17988;3675976;6;23108;3353257
4;46;1571607061801;1571607069878;8077;15607449494;28968657960;540020646;332223829;4249732756;111068;288995603;1254;6977;1208040;-1;8076;1159607
4;47;1571607069878;1571607083546;13668;15332175400;28968653213;549418504;316486316;4249731434;114526;288982977;1778;9687;2057472;15;13669;1953594
4;48;1571607083547;1571607106871;23324;14990252160;28968654305;555876582;288990218;4249731503;111405;288976558;3448;18611;3879552;-11;23324;3426953
4;49;1571607106871;1571607114989;8118;15445555788;28968665667;542720105;324380763;4249734324;103332;288993416;1160;8224;1155872;-2;8119;1158855
4;50;1571607114989;1571607126759;11770;15398094254;28968656208;544907670;319246634;4249732205;115436;288990958;1795;9871;2031200;4;11769;1767071
4;51;1571607126759;1571607138981;12222;15117487948;28970999840;552081960;299181508;4250500289;116495;288977627;1657;6442;2068776;-12;12223;1750910
4;52;1571607138981;1571607154174;15193;15412323560;28910232314;534510946;319600321;4180748362;113065;289030233;2256;11618;2382352;12;15192;2228589
4;53;1571607154174;1571607165544;11370;15216415504;28808603332;530730446;304467661;4146318638;124788;286697547;1622;7334;1658360;10;11370;1623145
