0;2;1571705161102;1571705174398;13296;43467877886;56581647296;2109799052;930889937;10983799060;86157069;736001884;426;0;7232;0;463;46253
0;3;1571705174901;1571705188193;13292;43503716214;56544626600;2037414198;868299972;10976645623;85685967;724344104;56;20;7512;0;111;604
0;4;1571705188533;1571705201575;13042;42732051902;56572430883;2038237528;871234566;10982350690;85342596;722745490;0;0;0;0;0;0
0;5;1571705201916;1571705215133;13217;43395731402;56544086736;2040569579;867329463;10976468536;85481820;722384159;51;12;6912;0;102;417
0;6;1571705215473;1571705228488;13015;42747844868;56574415379;2050254684;868990237;10982831157;85542224;725079256;1;0;8;0;0;0
0;7;1571705228878;1571705242610;13732;45075653100;56577721165;2033993955;868922209;10984917597;85526951;721677363;3;7;80;0;9;9
0;8;1571705242950;1571705256168;13218;42763890706;56564462558;2041793307;867431447;10982223868;85726448;723985501;42;10;6352;0;84;385
0;9;1571705256607;1571705269799;13192;43520229106;56537861928;2046049311;868998651;10976630759;85522228;722998151;0;0;0;0;0;0
0;10;1571705270138;1571705283066;12928;42767514572;56563401731;2040857438;868804402;10982081312;85239455;726710328;49;6;6200;0;87;432
0;11;1571705283551;1571705296879;13328;43398774334;56533951200;2050498783;870315959;10976053267;85702839;730876834;1;0;8;0;0;0
0;12;1571705297219;1571705310176;12957;42822443130;56584188729;2070072445;871322547;10989502391;85793491;734555171;3;2;48;0;9;9
0;13;1571705310515;1571705323806;13291;43488496006;56536082161;2065923543;870781177;10976776249;85737089;731624199;38;14;6352;0;85;351
0;14;1571705324145;1571705336933;12788;42726268696;56562301921;2060569342;871567271;10981896269;85624207;734413289;3;3;48;0;1;1
0;15;1571705337326;1571705350568;13242;43481625684;56534182333;2032874779;862472671;10976170467;85271585;722458759;3;7;80;0;9;18
0;16;1571705351010;1571705363927;12917;42952434814;56564684633;2049170240;868733026;10982576817;85532278;723665042;66;22;11304;0;166;597
0;17;1571705364271;1571705377351;13080;43580498636;56533054863;2053248434;866740416;10975946139;85562749;724126916;0;0;0;0;0;0
0;18;1571705377693;1571705390677;12984;42865319242;56561997081;2042650549;866154269;10981908589;85493810;722932844;4;0;32;0;1;4
0;19;1571705391068;1571705404392;13324;43706823822;56553983237;2051779281;868427404;10983350321;85782730;729721620;49;15;6440;0;91;431
0;20;1571705404732;1571705418531;13799;42787862300;56561752922;2049865111;870413464;10981837994;85302870;728144986;0;0;0;0;0;0
0;21;1571705418871;1571705432998;14127;43947710536;56533763076;2048739157;872061784;10976264060;85410890;728928345;38;12;6432;0;80;230
0;22;1571705433339;1571705446443;13104;43041197558;56592479281;2059078412;877937211;10989517536;85374938;731328552;0;0;0;0;0;0
0;23;1571705446934;1571705460084;13150;43553390378;56532368466;2054208533;868370798;10975785594;85561802;728837360;5;0;40;0;1;5
0;24;1571705460425;1571705473369;12944;42783463028;56563153881;2057412941;870584288;10982208084;85520278;725001918;37;16;6552;0;87;313
0;25;1571705473710;1571705487254;13544;43533707242;56534053594;2041420024;868499482;10976232797;85363407;728523303;5;0;40;0;1;5
0;26;1571705487595;1571705500887;13292;43030609638;56561081525;2039296684;870794249;10981685842;85499032;728519866;4;6;80;0;1;3
0;27;1571705501279;1571705515383;14104;43508926370;56535113254;2051738363;866523873;10976721031;85350890;727216257;28;16;6416;0;64;203
0;28;1571705515723;1571705528906;13183;42945063420;56561191147;2058226351;872300584;10981719498;85561446;728527597;0;0;0;0;0;0
0;29;1571705529246;1571705542415;13169;43628873254;56532877056;2054976048;869203353;10975967687;85398050;726147814;33;14;6336;0;81;224
0;30;1571705542757;1571705555874;13117;43030266976;56560963546;2065719047;877768973;10981671002;85605255;729586400;1;0;8;0;0;0
0;31;1571705556266;1571705569584;13318;43724437554;56533066501;2035189341;872619476;10975963911;85424182;728884835;6;4;80;0;10;23
0;32;1571705569927;1571705582950;13023;43048138252;56562227571;2039136966;873128867;10981962644;85492972;729045486;30;12;6416;0;80;248
0;33;1571705583318;1571705596964;13646;43885492928;56553704913;2058242959;878716870;10983310000;85757176;732964670;4;0;32;0;1;4
0;34;1571705597306;1571705610588;13282;42995296472;56562676708;2037695758;875482133;10982097928;85411820;727200782;30;8;6184;0;80;236
0;35;1571705610982;1571705624187;13205;43684533564;56533398566;2048550698;875814054;10976192737;85676881;725104265;4;0;32;0;1;4
0;36;1571705624528;1571705637756;13228;43035552468;56562901221;2057298269;880703489;10982234461;85636852;725306081;0;0;0;0;0;0
0;37;1571705638197;1571705651585;13388;43666857782;56532446553;2047740244;876192711;10975861723;85672637;726085882;40;10;6368;0;85;355
0;38;1571705651927;1571705665021;13094;42993432344;56560956098;2046049383;875769079;10981664074;85480776;724491415;4;0;32;0;1;4
0;39;1571705665514;1571705678707;13193;43721239278;56532121115;2044277986;869690762;10975745912;85345643;721505250;29;16;6360;0;82;235
0;40;1571705679149;1571705692438;13289;43270161182;56584032448;2054543805;881197920;10989712395;85564287;724152726;477;17;49272;0;1672;2070
0;41;1571705692779;1571705705963;13184;43774709588;56531781029;2045978438;875499331;10975691595;85137682;725219056;1;0;16;0;0;0
0;42;1571705706305;1571705719349;13044;43179947636;56564312259;2036364966;877551719;10982621583;85357780;723460531;115;25;7832;0;107;1448
0;43;1571705719744;1571705733269;13525;43870082482;56534368359;2045504029;875156061;10976450274;85161587;723908728;2;0;16;0;0;0
0;44;1571705733673;1571705746868;13195;43433269754;56560847996;2054071994;883264587;10981647784;85211302;730215042;3;7;80;0;1;1
0;45;1571705747210;1571705760522;13312;43965710438;56531821739;2041464988;877735791;10975707630;85393103;726171689;29;20;7056;0;95;267
0;46;1571705760849;1571705774140;13291;43298642278;56561739892;2061206140;878477525;10981908231;85460092;723003173;0;0;0;0;0;0
0;47;1571705774635;1571705787885;13250;44155362832;56534576681;2049226430;877054593;10976376058;85465627;724915261;39;12;6272;0;93;317
0;48;1571705788228;1571705801192;12964;43308320618;56562484814;2040609756;878123185;10982164797;85223511;720728657;1;0;8;0;0;0
0;49;1571705801535;1571705814643;13108;43868656500;56531697613;2037029392;874629734;10975678447;85040167;721949008;4;0;32;0;1;4
0;50;1571705814986;1571705828011;13025;43099402648;56560789754;2044384572;877659353;10981633719;85186289;725204832;39;16;6432;0;77;336
0;51;1571705828404;1571705841761;13357;43925759144;56553174325;2052270170;878348681;10983208369;85631778;721406990;5;0;40;0;1;5
1;3;1571706077399;1571706090357;12958;43156871022;55573915918;2098205580;877513392;10831835140;86900294;743276859;31;24;6944;0;70;205
1;4;1571706090710;1571706103570;12860;42515998474;55584169261;2103263023;882009363;10833535867;86911215;745544979;0;0;0;0;0;0
1;5;1571706103913;1571706116808;12895;43026059402;55558634367;2091090258;876183177;10829294092;86755896;738445072;5;5;80;0;9;19
1;6;1571706117154;1571706130627;13473;42447708872;55581517257;2094169871;879570612;10833576632;86825666;740642606;36;14;6352;0;89;323
1;7;1571706131164;1571706145157;13993;43276056370;55554150421;2105644348;878437498;10828931103;86989715;744271560;10;0;80;0;10;21
1;8;1571706145642;1571706159174;13532;42725427152;55580275755;2115006524;882089418;10836913791;86696112;743066270;44;8;6352;0;89;444
1;9;1571706159516;1571706173138;13622;43780581854;55548109305;2130431214;878288626;10830592297;86692033;743177677;0;0;0;0;0;0
1;10;1571706173562;1571706187277;13715;42540533920;55580280182;2127094719;878861336;10837039541;86684336;742505478;5;0;40;0;1;5
1;11;1571706187770;1571706202037;14267;43195258656;55547197634;2113682655;876770128;10830372830;86786355;737979923;47;17;6440;0;89;385
1;12;1571706202377;1571706215196;12819;42638736294;55599637059;2128588991;882292974;10843998974;86831901;742476471;0;0;0;0;0;0
1;13;1571706215538;1571706228567;13029;43333565770;55549125588;2118517835;881549863;10831063832;86752982;742286829;10;0;80;0;2;20
1;14;1571706228908;1571706241830;12922;42491522596;55576311404;2104521814;879845985;10835910809;86674107;739031320;28;10;6352;0;95;263
1;15;1571706242224;1571706255214;12990;43277406140;55546781655;2104112162;878301310;10830328843;86799095;740567515;4;0;32;0;1;4
1;16;1571706255556;1571706268330;12774;42527925360;55576528766;2102559377;880527854;10836080629;86783702;744438667;26;14;6184;0;76;183
1;17;1571706268671;1571706281758;13087;43342398040;55545908321;2109695506;878720430;10830224257;86757222;743539561;35;16;6456;0;73;234
1;18;1571706282099;1571706295195;13096;42623897876;55575677926;2111014342;881156411;10835864280;86875103;741768319;0;0;0;0;0;0
1;19;1571706295587;1571706308620;13033;43458606740;55568233888;2123643384;881040820;10838215453;86875635;743770264;1;0;8;0;0;0
1;20;1571706309062;1571706321869;12807;42656531504;55575056987;2119272716;881610794;10835704744;86834328;743720846;36;18;6440;0;90;265
1;21;1571706322211;1571706335241;13030;43280455350;55544986132;2120489254;875577909;10829959157;86607494;744415657;0;0;0;0;0;0
1;22;1571706335582;1571706348344;12762;42612468996;55599988184;2115930538;880173087;10843959653;86558867;741520514;9;1;80;0;10;36
1;23;1571706348737;1571706361961;13224;43469957948;55544981179;2107752799;880932541;10829949409;86832989;743537210;34;10;6352;0;76;283
1;24;1571706362303;1571706375106;12803;42666269120;55574935961;2116168538;882839594;10835687465;86857471;745470189;5;0;40;0;1;5
1;25;1571706375435;1571706388854;13419;43370691380;55544848515;2119278293;879570645;10829936990;86532494;745080504;6;4;80;0;9;12
1;26;1571706389195;1571706402188;12993;42656433538;55576440524;2102429139;883775272;10836127912;86767999;739478440;28;16;6352;0;85;224
1;27;1571706402685;1571706416234;13549;43649089144;55546200984;2123181690;884209129;10830387550;86660163;742026463;0;0;0;0;0;0
1;28;1571706416575;1571706429356;12781;42736222684;55576575196;2123552909;884603020;10836169186;86465987;742025273;5;0;40;0;1;5
1;29;1571706429700;1571706443256;13556;43531949840;55544692341;2135674631;879956278;10829905404;86439425;742608971;29;10;6168;0;72;220
1;30;1571706443599;1571706456564;12965;42952327942;55574638604;2148612383;883157060;10835627755;86447351;743218827;4;1;40;0;1;3
1;31;1571706456960;1571706470069;13109;43826783116;55545293017;2128647313;882236000;10830025924;86558744;741817617;30;14;6352;0;83;255
1;32;1571706470412;1571706483320;12908;43114334944;55575057562;2132053634;883256111;10835716203;86427996;745199728;5;1;48;0;1;3
1;33;1571706483664;1571706496783;13119;43814570508;55567804999;2124599719;879478765;10837965463;86475370;743357976;0;0;0;0;0;0
1;34;1571706497126;1571706509973;12847;42923727418;55574737561;2132807179;882615994;10835645013;86544276;741369596;28;12;6352;0;88;252
1;35;1571706510367;1571706523462;13095;43745921016;55544715945;2136426270;880737822;10829910352;86441696;743985871;4;1;40;0;1;3
1;36;1571706523804;1571706536687;12883;43040018170;55575238924;2132093990;883625547;10835742100;86456085;745217824;1;0;16;0;0;0
1;37;1571706537031;1571706550093;13062;43774728276;55544759136;2139826542;882866885;10829923408;86435078;744306911;38;10;6384;0;94;345
1;38;1571706550437;1571706563287;12850;42959858476;55574585016;2133864904;883055539;10835627126;86382537;742349382;1;0;8;0;0;0
1;39;1571706563681;1571706576738;13057;43719102276;55550674135;2138580656;881954395;10831796463;86596945;742574032;23;16;6400;0;80;112
1;40;1571706577081;1571706589967;12886;43063835880;55597689651;2141171018;885162080;10843673066;86462000;743759691;0;0;0;0;0;0
1;41;1571706590311;1571706603389;13078;43772998468;55545820131;2131243143;886623305;10830325369;86351293;739556354;467;20;49808;0;1653;2080
1;42;1571706603734;1571706616637;12903;43069964668;55574658567;2152961264;885918697;10835631491;86571722;741409158;4;2;48;0;1;4
1;43;1571706617031;1571706630022;12991;43512510524;55544713647;2113793362;885457072;10829907762;86536375;741594810;0;0;0;0;0;0
1;44;1571706630365;1571706643233;12868;42703155436;55576584763;2120352357;886053900;10836439682;86675788;743722672;123;19;7832;0;143;1805
1;45;1571706643577;1571706656733;13156;43631201224;55547662504;2108411235;883139883;10830930282;86792349;740709466;1;0;8;0;0;0
1;46;1571706657176;1571706670031;12855;42814313120;55575145052;2120652907;885313798;10835770782;86807826;743316972;34;29;6816;0;75;264
1;47;1571706670426;1571706683509;13083;43716273380;55546740186;2112547609;884699400;10830543965;86731597;737784963;0;0;0;0;0;0
1;48;1571706683852;1571706696669;12817;42888519226;55574635147;2121996138;887759024;10835634180;86709113;742304226;5;0;40;0;1;5
1;49;1571706697012;1571706710075;13063;43731849390;55544674560;2113012349;880738371;10829960470;86514544;743099558;35;16;6832;0;111;270
1;50;1571706710420;1571706723250;12830;42925870114;55574461976;2108014461;880910766;10835593582;86394390;738804069;1;0;8;0;0;0
1;51;1571706723644;1571706736741;13097;43726762166;55566185713;2117791366;882871324;10837494195;86458866;743682002;2;3;40;0;0;0
1;52;1571706737084;1571706749962;12878;43046117758;55596196309;2129994730;882348062;10843198985;86501131;746277329;33;21;6496;0;90;240
2;4;1571706983660;1571706996362;12702;42271383212;55665260351;2023122098;862543375;10723471410;86451300;721550974;1;0;8;0;0;0
2;5;1571706996692;1571707009577;12885;42999968326;55633834037;2023652127;858529582;10717546129;86296286;724236475;7;3;80;0;10;32
2;6;1571707009907;1571707022598;12691;42281770382;55662132551;2038472977;864105969;10723137829;86491311;723003381;34;12;6480;0;90;309
2;7;1571707022979;1571707035913;12934;43181670874;55632767790;2062169988;864783179;10717368239;86364704;725319266;10;0;80;0;10;29
2;8;1571707036241;1571707048969;12728;42315038088;55661607527;2050111379;866281651;10723064778;86439072;727382531;34;14;6480;0;79;308
2;9;1571707049297;1571707062708;13411;42997766792;55632218686;2046778268;861161820;10717262161;86485421;726235286;0;0;0;0;0;0
2;10;1571707063036;1571707075758;12722;42420344822;55660116024;2061577308;863493106;10722619784;86305361;724653115;40;16;6496;0;72;249
2;11;1571707076138;1571707089037;12899;43006160916;55632530443;2048008418;861089751;10717524850;86355751;723492843;0;0;0;0;0;0
2;12;1571707089367;1571707102060;12693;42311289976;55680753200;2042078102;861095044;10729962487;86181698;721739434;4;0;48;0;9;10
2;13;1571707102388;1571707115294;12906;43000119874;55633534841;2028696681;858322751;10717891238;86331285;720899358;26;14;6248;0;87;152
2;14;1571707115624;1571707128323;12699;42333923772;55659411550;2048558733;860379449;10722551405;86228368;724140956;4;0;32;0;1;4
2;15;1571707128706;1571707141594;12888;43022058710;55631669883;2045920485;858994195;10717277306;86364485;717108154;0;0;0;0;0;0
2;16;1571707141923;1571707154596;12673;42218011160;55660459705;2047715018;861150773;10722984097;86411072;718420301;30;18;6496;0;66;185
2;17;1571707154925;1571707167794;12869;42985780338;55629615062;2033890557;857208971;10716822063;86370555;717259885;0;0;0;0;0;0
2;18;1571707168113;1571707180788;12675;42268032804;55659280588;2039146958;860305948;10722602738;86392124;715365620;36;12;6400;0;77;239
2;19;1571707181169;1571707194006;12837;42956005244;55650764809;2063149721;858222072;10724345760;86275040;719928395;1;0;8;0;0;0
2;20;1571707194335;1571707207032;12697;42237823798;55657311436;2055211836;862729344;10722137273;86464072;719735540;9;1;88;0;10;53
2;21;1571707207361;1571707220955;13594;43130257996;55629145741;2053810483;865652103;10716788207;86573828;717928771;24;12;6352;0;75;132
2;22;1571707221284;1571707234169;12885;42273200766;55659512698;2056858401;866875195;10722808718;86440269;719897963;0;0;0;0;0;0
2;23;1571707234549;1571707247402;12853;42895587962;55629150352;2038026570;858685837;10716783354;86401571;722512947;6;0;48;0;1;6
2;24;1571707247731;1571707260429;12698;42276417292;55657265096;2056517030;862700910;10722145108;86508064;723153519;33;13;6432;0;82;231
2;25;1571707260759;1571707273616;12857;42890444820;55629018742;2033222753;858244243;10716769521;86324343;723586652;0;0;0;0;0;0
2;26;1571707273945;1571707286591;12646;42203713088;55657110905;2049685230;858725848;10722108971;86326198;724659155;5;0;40;0;1;5
2;27;1571707286974;1571707299825;12851;42916558672;55629292444;2034955614;856287222;10716859928;86373445;722364144;29;14;6168;0;76;211
2;28;1571707300155;1571707312804;12649;42224564808;55657298550;2044907268;859769713;10722161221;86340251;723426683;7;3;80;0;1;7
2;29;1571707313133;1571707325950;12817;42837889784;55629325984;2027212149;857732019;10716848892;86277737;721241449;0;0;0;0;0;0
2;30;1571707326279;1571707338888;12609;42171500086;55679831492;2049132568;857937292;10729691197;86224103;723502637;32;14;6352;0;83;268
2;31;1571707339268;1571707352136;12868;42952432770;55629407908;2032121355;858760518;10716847540;86280168;719614780;5;0;40;0;1;5
2;32;1571707352466;1571707365180;12714;42402918992;55680213291;2044018805;863687855;10729769092;86261597;720821889;5;5;80;0;9;11
2;33;1571707365508;1571707378393;12885;43091255848;55650468050;2031506598;859320897;10724299529;86189002;720373607;24;18;6352;0;89;222
2;34;1571707378725;1571707391428;12703;42415506528;55657018662;2040794585;863694420;10722084584;86251071;717276152;5;0;40;0;1;5
2;35;1571707391809;1571707404723;12914;43135653280;55628822650;2034233831;860186853;10716722791;86266065;719259675;1;0;8;0;0;0
2;36;1571707405052;1571707417755;12703;42411084626;55657575809;2043037278;865476329;10722197264;86231670;721684334;30;14;6352;0;87;269
2;37;1571707418084;1571707431004;12920;43139646672;55629038537;2041908317;860466307;10716791457;86332683;723586520;5;0;40;0;1;5
2;38;1571707431335;1571707444093;12758;42553834082;55656815227;2044248054;862138424;10722044138;86330627;722578227;5;5;80;0;1;4
2;39;1571707444474;1571707457423;12949;43223814358;55629039234;2038329754;860942894;10716765426;86357688;722032289;24;16;6352;0;76;133
2;40;1571707457754;1571707470450;12696;42348892422;55678580404;2045840024;861854607;10729656398;86261866;721771973;205;18;27376;1;704;1109
2;41;1571707470779;1571707483792;13013;43476723880;55628900427;2024484835;871197075;10716796095;86365149;722771866;278;6;22480;-1;848;946
2;42;1571707484123;1571707496849;12726;42473190398;55656965273;2034130959;866307409;10722090599;86312567;722152060;93;2;896;0;59;1713
2;43;1571707497231;1571707510216;12985;43332434124;55629187414;2043980279;863595996;10716844608;86336363;723568510;47;24;7056;0;104;516
2;44;1571707510546;1571707523300;12754;42595885294;55657151711;2035983214;865842334;10722162761;86345104;722998131;0;0;0;0;0;0
2;45;1571707523630;1571707536623;12993;43347124790;55628963071;2050730866;864214093;10716808607;86420504;728015391;45;10;6200;0;71;344
2;46;1571707536954;1571707549709;12755;42568019004;55680261758;2049860912;865193124;10729825356;86253185;721154954;1;0;8;0;0;0
2;47;1571707550086;1571707563064;12978;43361498198;55630969537;2045604440;866157612;10717390347;86313390;723105469;8;2;80;0;10;34
2;48;1571707563395;1571707576152;12757;42597218128;55658354874;2041786337;866217170;10722542400;86271703;723115734;59;12;6832;0;120;656
2;49;1571707576483;1571707589469;12986;43409955452;55628523968;2049972946;863875813;10716693784;86351114;724733006;4;0;32;0;1;3
2;50;1571707589801;1571707602599;12798;42596435568;55656693456;2049878041;867298173;10722024760;86387647;723219697;0;0;0;0;0;0
2;51;1571707602981;1571707615962;12981;43378305864;55651338731;2056554077;866283934;10724659496;86354302;721808550;44;4;6440;0;98;425
2;52;1571707616292;1571707629044;12752;42562208350;55678442450;2057210040;868516775;10729633717;86316196;725269799;4;0;32;0;1;4
2;53;1571707629373;1571707642377;13004;43425842296;55649952648;2055376729;865209966;10724207568;86237924;724012819;6;4;80;0;1;6
3;3;1571707860364;1571707873265;12901;43016642986;55104742662;2041804071;864640554;10604782187;89967252;728624300;63;12;7008;0;92;649
3;4;1571707873590;1571707886915;13325;42440096286;55132457432;2054873959;878410825;10610074342;90279402;730996902;0;0;0;0;0;0
3;5;1571707887368;1571707901588;14220;42978825628;55103818915;2045098210;867284175;10604534843;90119837;729305356;7;3;80;0;1;7
3;6;1571707901918;1571707914630;12712;42249691846;55137089863;2039393458;868540936;10610662966;89936376;727131768;58;8;6544;0;107;630
3;7;1571707915013;1571707927918;12905;43014069736;55102095591;2048849081;870010006;10603343668;90172852;730182883;0;0;0;0;0;0
3;8;1571707928250;1571707941338;13088;41970310334;55125104765;2059881444;869651568;10607902275;90400666;731412909;55;13;6632;0;107;496
3;9;1571707941774;1571707956048;14274;42787997496;55097303762;2048757780;863185801;10602775497;90332744;727451555;0;0;0;0;0;0
3;10;1571707956478;1571707969374;12896;42144961228;55124519249;2049474090;870438409;10607741496;90189381;728194054;4;0;40;0;1;4
3;11;1571707969758;1571707982901;13143;43036668492;55097915638;2054575231;868794114;10603089015;89936974;734338400;56;6;6312;0;114;567
3;12;1571707983232;1571707996961;13729;42070216528;55146814022;2056846824;869048759;10615640677;90321803;737350138;4;0;32;0;1;4
3;13;1571707997290;1571708010931;13641;43009567680;55097790628;2053094497;868778058;10603037297;90212194;736536493;55;15;6568;0;98;476
3;14;1571708011263;1571708024394;13131;42225384744;55124566890;2055362938;868532676;10607994150;90261751;733802271;0;0;0;0;0;0
3;15;1571708024780;1571708037970;13190;43035277550;55094646897;2050778170;864056321;10602106694;90057283;735336245;5;0;40;0;1;5
3;16;1571708038301;1571708051235;12934;42120554992;55123412191;2044583996;865962163;10607673327;90237127;730044161;56;6;6224;0;101;579
3;17;1571708051667;1571708064640;12973;43028258600;55093588976;2046506819;867137307;10601909045;90029867;735041693;1;0;8;0;0;0
3;18;1571708064971;1571708078120;13149;42225776608;55123503888;2048657984;869217386;10607730301;90303074;733847658;54;8;5952;0;102;498
3;19;1571708078496;1571708091282;12786;42861115756;55116544310;2046038294;866432257;10609927738;90004145;729955922;0;0;0;0;0;0
3;20;1571708091613;1571708104201;12588;42079247650;55122238327;2040628314;869622891;10607351266;90045584;730761775;59;13;6496;0;107;568
3;21;1571708104533;1571708117272;12739;42682303862;55095071131;2034621823;868215063;10602447063;89857511;730808503;0;0;0;0;0;0
3;22;1571708117603;1571708130226;12623;42054126160;55124486963;2050327085;868423990;10608025111;90152325;731018095;5;0;40;0;1;5
3;23;1571708130596;1571708143609;13013;42980626976;55093810323;2049198476;866332265;10601994313;89986166;729615873;54;8;6224;0;110;604
3;24;1571708143940;1571708156593;12653;42224594884;55122114297;2042754678;866947328;10607334015;90096022;724326922;1;0;8;0;0;0
3;25;1571708156924;1571708169742;12818;42858812898;55093374334;2051387251;866617857;10601887231;89825598;731557729;7;3;80;0;10;33
3;26;1571708170075;1571708182653;12578;42085151160;55123308872;2047458831;869150972;10607750465;89879432;727425124;58;6;6560;0;86;484
3;27;1571708183037;1571708196260;13223;42955181658;55093597437;2057091821;868479925;10601958159;89958935;734481637;0;0;0;0;0;0
3;28;1571708196649;1571708210014;13365;41933092890;55122201472;2059071157;869070606;10607358337;90243291;731676325;9;1;80;0;2;12
3;29;1571708210339;1571708224835;14496;42781621092;55094544528;2048721406;868764061;10602297048;90241215;731304137;48;6;6352;0;93;492
3;30;1571708225272;1571708237740;12468;41688818538;55123175549;2042170297;867339253;10607728184;90002487;731261931;5;0;64;0;1;5
3;31;1571708238122;1571708250894;12772;42653597050;55095163104;2024067846;865396914;10602422913;89934354;730222586;0;0;0;0;0;0
3;32;1571708251220;1571708264435;13215;42457568982;55122063209;2059542810;875462886;10607321452;90248170;735729680;43;8;6360;0;64;343
3;33;1571708264767;1571708278186;13419;43153677710;55114763949;2053797443;872944037;10609395040;90081446;736319104;3;2;48;0;1;1
3;34;1571708278507;1571708291626;13119;42419811776;55121914756;2053495506;876328043;10607293068;90245946;734334326;7;3;80;0;1;7
3;35;1571708292008;1571708305467;13459;42932463912;55093004617;2055655415;867895982;10601796808;90088872;733818703;45;9;5408;0;99;422
3;36;1571708305797;1571708318838;13041;42156271264;55122713541;2050707241;870585729;10607490810;90128066;734779609;0;0;0;0;0;0
3;37;1571708319170;1571708332260;13090;43139114648;55093239288;2054345937;869295565;10601850883;90170340;736299016;37;10;6200;0;87;276
3;38;1571708332592;1571708345288;12696;42527929010;55121667921;2056484576;872726830;10607245947;89996886;732034579;1;0;8;0;0;0
3;39;1571708345666;1571708358529;12863;43063953702;55093596514;2036251097;873468473;10601958360;90128969;729000618;24;16;6352;0;84;210
3;40;1571708358860;1571708371466;12606;42123266796;55144851945;2047473818;872232947;10615319939;90045543;735113800;4;1;48;0;1;3
3;41;1571708371797;1571708384848;13051;43070689850;55092945396;2046985433;874733788;10601805322;90355315;731759315;472;20;49904;0;1523;1936
3;42;1571708385178;1571708397765;12587;42066557184;55124739222;2043435215;871682600;10608237442;90117424;733505909;5;1;48;0;1;5
3;43;1571708398140;1571708411496;13356;43283338704;55096362111;2051250375;873073846;10602895119;90189484;729318371;48;16;7312;0;90;515
3;44;1571708411828;1571708425053;13225;42478776212;55121705109;2053767179;874293016;10607260218;90366230;732671758;88;0;840;0;79;1911
3;45;1571708425384;1571708438714;13330;43175907378;55094691186;2048668417;872679600;10602379345;90061111;731477430;2;0;24;0;1;1
3;46;1571708439045;1571708452412;13367;42644551912;55122265485;2069493071;878007094;10607406405;90193202;733249288;52;14;7184;0;120;568
3;47;1571708452799;1571708466100;13301;43319686280;55093892161;2036424061;870495117;10602017042;90051678;729636901;0;0;0;0;0;0
3;48;1571708466431;1571708479291;12860;42308229378;55121768864;2062473288;876520534;10607274619;90322079;728979570;1;0;8;0;0;0
3;49;1571708479622;1571708492919;13297;43065017604;55092833983;2048647462;871456242;10601781644;90179221;730318525;41;12;6464;0;75;323
3;50;1571708493353;1571708506668;13315;42756605744;55122994258;2053674036;875728393;10607707355;90247762;730153952;0;0;0;0;0;0
3;51;1571708507051;1571708520272;13221;43203411150;55119074192;2049867638;871599754;10610244508;90061228;732414192;6;0;48;0;2;8
3;52;1571708520603;1571708534248;13645;43662622322;55151791300;2059219188;877409687;10620785849;90102635;725573908;58;6;6544;0;98;605
4;4;1571708747712;1571708760426;12714;42286778036;54555647015;2031543520;860469633;10421928979;91085376;722517428;1;0;8;0;0;0
4;5;1571708760767;1571708773627;12860;42925290932;54506706132;2016187041;858391937;10410204306;90939738;720928647;6;5;112;0;13;16
4;6;1571708773966;1571708786628;12662;42159289814;54530590840;2036800217;861332672;10413601446;90958487;717755174;40;14;7472;0;104;382
4;7;1571708787019;1571708799851;12832;42883757290;54504707828;2039292213;861901798;10409832155;90825502;721446713;5;0;40;0;1;5
4;8;1571708800193;1571708812836;12643;42189302304;54531697089;2046234857;863513241;10414092415;90825376;727167558;44;8;7000;0;83;424
4;9;1571708813197;1571708826792;13595;43300676350;54503045417;2057237373;866775229;10409335771;90795055;724395315;0;0;0;0;0;0
4;10;1571708827133;1571708839870;12737;42542283438;54555169171;2071515669;867319512;10421969821;90858595;725286150;2;2;32;0;0;0
4;11;1571708840265;1571708853166;12901;43113851100;54501916937;2044843047;859693636;10409122783;90830569;721785449;44;20;7560;0;96;342
4;12;1571708853507;1571708866218;12711;42483785472;54546091289;2045859289;859570280;10418658516;90650104;720928118;0;0;0;0;0;0
4;13;1571708866558;1571708879475;12917;43070534360;54503037704;2047222335;860068960;10409500529;90712697;724700387;4;0;32;0;1;4
4;14;1571708879817;1571708892514;12697;42481044906;54529983477;2055943966;863108517;10413774524;90631783;722407053;33;14;7016;0;93;275
4;15;1571708892909;1571708905803;12894;43102511134;54502889634;2048951588;861072899;10409546339;90654548;713731000;4;0;32;0;1;3
4;16;1571708906144;1571708918837;12693;42453412946;54527877175;2046155595;862910061;10413156750;90748169;712678475;0;0;0;0;0;0
4;17;1571708919178;1571708932113;12935;43243915054;54500686132;2047994520;860111328;10408982804;90719198;714502946;49;16;7456;0;103;424
4;18;1571708932456;1571708945181;12725;42495191138;54528087674;2057825561;863503033;10413247821;90900884;718173241;22;12;5336;0;81;184
4;19;1571708945565;1571708958466;12901;43158768438;54517347087;2064003008;862600178;10414179445;90674992;717787919;5;0;40;0;1;5
4;20;1571708958807;1571708971523;12716;42502904318;54528879814;2060901965;864141182;10413560660;90771918;716798681;1;0;8;0;0;0
4;21;1571708971864;1571708984833;12969;43353428778;54500059274;2056073771;862552231;10408822970;90695285;717630222;40;20;6896;0;93;348
4;22;1571708985180;1571708998045;12865;42656751964;54528188421;2051986161;863305646;10413254432;90833982;720370889;1;0;16;0;0;0
4;23;1571708998437;1571709011296;12859;42950286424;54526211723;2027067548;854127021;10417509656;90798069;717401626;0;0;0;0;0;0
4;24;1571709011640;1571709024310;12670;42340978054;54528726675;2039768319;856016860;10413526598;90753040;713660680;30;16;5112;0;94;218
4;25;1571709024651;1571709037506;12855;43008596780;54500107725;2030958172;853737718;10408842790;90687391;716681325;1;0;8;0;0;0
4;26;1571709037849;1571709050508;12659;42301010116;54527127509;2027011755;854907459;10413011661;90844880;718112938;41;24;7232;0;117;361
4;27;1571709050901;1571709063738;12837;42977907580;54499896065;2023427537;855514715;10408793812;90739717;715901297;0;0;0;0;0;0
4;28;1571709064079;1571709076779;12700;42334968840;54529065731;2034074716;858071495;10413542562;90784150;718184251;4;0;32;0;1;3
4;29;1571709077120;1571709090023;12903;43166377666;54499901286;2024494899;855868579;10408789873;90768958;718119848;30;12;6632;0;100;277
4;30;1571709090349;1571709104580;14231;42430151788;54527042179;2039504573;861976239;10413000439;91098177;717886528;4;0;32;0;1;4
4;31;1571709104974;1571709117877;12903;42954835784;54502244032;2032912891;865307015;10409495574;91171731;716972109;0;0;0;0;0;0
4;32;1571709118218;1571709130950;12732;42426009038;54527476379;2041031290;870954130;10413084031;91209239;720800584;39;25;7136;0;88;283
4;33;1571709131292;1571709144162;12870;43088297304;54517064187;2037720591;864744215;10414137545;90834228;723134891;0;0;0;0;0;0
4;34;1571709144502;1571709157163;12661;42355996490;54551418870;2031990594;866936103;10421116762;90834244;719170906;38;22;6880;0;93;286
4;35;1571709157550;1571709170469;12919;43216252434;54500108515;2036718008;873495539;10408874968;90752678;716421189;0;0;0;0;0;0
4;36;1571709170810;1571709183498;12688;42374471476;54527536770;2045085865;865010521;10413093334;90811992;717088304;32;19;6872;0;82;211
4;37;1571709183841;1571709196653;12812;42993340656;54501629387;2038565749;859574134;10409292950;90724818;714538638;0;0;0;0;0;0
4;38;1571709196994;1571709209641;12647;42342831378;54527230031;2045369219;865722580;10413084093;90794718;717013069;0;0;0;0;0;0
4;39;1571709210034;1571709222911;12877;43050816768;54501727946;2040225698;863390768;10409377894;90853375;717418559;42;25;6872;0;113;408
4;40;1571709223254;1571709236097;12843;42907586096;54544132406;2081909897;867315696;10418334688;90890173;724272621;0;0;0;0;0;0
4;41;1571709236441;1571709249492;13051;43567049408;54501314895;2073807915;871218515;10409316352;90958580;718745400;465;14;47544;0;1555;1926
4;42;1571709249836;1571709262571;12735;42664232858;54528690243;2053359097;870753101;10413474382;90981217;718513089;1;0;8;0;0;0
4;43;1571709262963;1571709275892;12929;43260335382;54502101686;2039203854;867897821;10409522353;90856507;718465591;93;23;6104;0;120;875
4;44;1571709276236;1571709288908;12672;42438226610;54527347425;2040389661;869974907;10413119958;90805724;716329543;1;0;16;0;0;0
4;45;1571709289250;1571709302170;12920;43195993328;54499553754;2038188462;866670818;10408734092;90888301;716937552;0;0;0;0;0;0
4;46;1571709302511;1571709315372;12861;42902129054;54527568703;2070962925;868325360;10413146723;91103025;714394223;56;23;8864;0;114;580
4;47;1571709315768;1571709329182;13414;43404646892;54500771120;2037933540;864755086;10409056592;90923192;714082389;0;0;0;0;0;0
4;48;1571709329525;1571709342381;12856;42946904480;54526930026;2069134350;871596858;10412986856;90949213;718541424;35;10;4384;0;94;600
4;49;1571709342724;1571709355829;13105;43767538068;54506317650;2061235042;868534878;10409986397;90851563;721586576;0;0;0;0;0;0
4;50;1571709356173;1571709368991;12818;42849460722;54527531152;2038182815;871234147;10411616147;90757572;714328705;35;16;7344;0;111;291
4;51;1571709369387;1571709382429;13042;43582731560;54514385188;2044850278;870713018;10412672396;90628706;716986358;2;0;24;0;0;0
4;52;1571709382772;1571709395592;12820;42844846538;54541739320;2061074952;872255144;10416927612;90680983;716997329;32;20;6736;0;87;292
4;53;1571709395935;1571709408894;12959;43357458816;54517327261;2021216137;864156345;10413588256;90618608;712205270;4;0;32;0;1;4
