0;36;1571765549638;1571765558077;8439;28179222312;70079102125;1258098460;228647387;9826986886;97247289;1379154376;1279;1457;62456;0;702;10527
0;37;1571765558077;1571765566266;8189;28162648830;70055658087;1257107392;227102819;9819329149;97173895;1381292959;815;1574;39424;0;316;1229
0;38;1571765566266;1571765574434;8168;28146296830;70055411551;1264158319;224886618;9819276493;97153859;1383713443;685;1715;39600;0;308;748
0;39;1571765574434;1571765582621;8187;28164104158;70055553757;1261331402;225030696;9819348615;97220128;1382424576;871;1806;61096;0;561;13032
0;40;1571765582621;1571765590823;8202;28209724486;70055357221;1268585827;227284793;9819249972;97206650;1383511789;1045;1371;39864;0;368;2313
0;41;1571765590823;1571765599153;8330;28213133732;70055451615;1281918841;226820163;9819301044;97218507;1383293124;812;1595;39704;0;361;1447
0;42;1571765599153;1571765607342;8189;28191395062;70055559508;1265979958;228468823;9819349803;97135500;1383529040;638;1778;39864;0;320;800
0;43;1571765607342;1571765615780;8438;28200384574;70055116158;1276624222;226038387;9819218021;97191359;1383777398;1317;1477;62464;0;689;25294
0;44;1571765615780;1571765623980;8200;28206220632;70054538500;1292774928;225195046;9819161555;97156875;1384908809;730;1654;39336;0;285;1102
0;45;1571765623981;1571765632179;8198;28204235470;70054227099;1270698587;227736210;9819028349;97118852;1383910785;756;1650;39696;0;300;923
0;46;1571765632179;1571765640367;8188;28182555346;70054271629;1258941558;225596703;9819033667;97162190;1383956576;664;1752;39864;0;306;722
0;47;1571765640367;1571765648561;8194;28200251130;70054548288;1266963668;225993258;9819180771;97178468;1385473196;1324;1368;60904;0;704;15116
0;48;1571765648561;1571765656747;8186;28178598162;70054577062;1260548471;226112386;9819185887;97140157;1383181258;794;1622;39864;0;327;1228
0;49;1571765656747;1571765664929;8182;28157676070;70054304724;1259668303;225119314;9819052779;97190083;1384678889;684;1690;39168;0;375;936
0;50;1571765664929;1571765673256;8327;28170795484;70040266139;1264374336;224579864;9814417746;97199927;1385266267;652;1799;40424;0;253;610
0;51;1571765673256;1571765681435;8179;28166381466;70036967034;1258715324;225465905;9813357247;97157955;1384393090;1370;1347;61504;0;726;19116
0;52;1571765681435;1571765689606;8171;28131523090;70036661684;1258875990;222270638;9813205180;97178646;1384569433;852;1554;39696;0;352;1339
0;53;1571765689606;1571765697791;8185;28194257830;70036828108;1277808517;223898194;9813285638;97135218;1384298255;669;1747;39864;0;284;715
0;54;1571765697791;1571765706029;8238;28202010576;70036777421;1284860600;225295548;9813263130;97179507;1383896058;1059;1836;77032;0;748;37252
0;55;1571765706029;1571765714247;8218;28194834384;70036771035;1287528822;224147422;9813258081;97180992;1383795058;994;1438;40128;0;340;2075
0;56;1571765714247;1571765722486;8239;28212494690;70036841443;1282964673;226122684;9813294731;97162313;1385383168;872;1566;40224;0;356;1362
0;57;1571765722486;1571765730725;8239;28181282372;70026557785;1259862734;224528678;9813302979;97151301;1379856188;649;1767;39864;0;302;826
0;58;1571765730726;1571765738922;8196;28194237536;70025342740;1277676839;223311130;9813303251;97118507;1383497463;1289;1371;59568;0;597;9508
0;59;1571765738922;1571765747126;8204;28217945892;70025233320;1276300589;226361965;9813238220;97183943;1384071328;711;1657;39072;0;280;1029
0;60;1571765747126;1571765755313;8187;28162903162;70025451726;1267687438;223559564;9813354348;97151812;1382809930;760;1662;39960;0;313;975
0;61;1571765755313;1571765763520;8207;28217793322;70025243166;1275044168;225060361;9813247213;97144899;1382736590;636;1716;38808;0;289;862
0;62;1571765763520;1571765771816;8296;28169653910;70025321619;1278595104;223264745;9813281998;97195353;1381951563;1300;1374;60208;0;604;7731
0;63;1571765771816;1571765780035;8219;28167082558;70025445809;1272677200;223558532;9813341938;97137712;1382719686;795;1611;39792;0;352;1209
0;64;1571765780036;1571765788334;8298;28206009662;70025227341;1280451325;224549673;9813269679;97210754;1383402147;719;1735;40488;0;302;840
0;65;1571765788334;1571765796535;8201;28218458060;70025086507;1275495972;226114774;9813239287;97153793;1385237599;620;1751;39104;0;215;602
0;66;1571765796535;1571765804712;8177;28154364790;70025133189;1257491433;222321115;9813260685;97138923;1383569544;1324;1455;72264;0;883;24975
0;67;1571765804712;1571765812925;8213;28139486514;70025117350;1256478988;222812753;9813245672;97140067;1383226278;1537;1306;92824;1;3230;39605
0;68;1571765812925;1571765821160;8235;28231435416;70025256141;1273129015;231531743;9813324111;97185325;1383267503;1265;1703;251032;-1;2843;12460
0;69;1571765821161;1571765829350;8189;28137359878;70025157238;1267409670;223182411;9813271344;97121189;1383724225;642;1777;39896;0;256;663
0;70;1571765829350;1571765837578;8228;28227714460;70025376455;1278755821;227252262;9813329666;97153967;1383447864;629;1803;40128;0;219;538
0;71;1571765837578;1571765845758;8180;28148293380;70024688847;1266890926;222956769;9813091830;97120126;1383329859;1287;1469;65024;0;792;13578
0;72;1571765845758;1571765853922;8164;28106576508;70024977539;1255672103;221213850;9813239735;97109454;1383349238;731;1669;39600;0;289;1156
0;73;1571765853922;1571765862102;8180;28135082278;70024877005;1258957924;223792384;9813192713;97116661;1384397591;793;1623;39880;0;289;955
0;74;1571765862102;1571765870275;8173;28138646722;70024734418;1258001318;222050087;9813120711;97100281;1382698872;646;1770;39864;0;276;698
0;75;1571765870275;1571765878450;8175;28149391008;70024761194;1256657797;224907280;9813138364;97125163;1383307803;1312;1378;63840;0;660;14552
0;76;1571765878450;1571765886626;8176;28138308440;70024967474;1262694903;221408503;9813235696;97152867;1384270467;764;1604;39072;0;278;1048
0;77;1571765886626;1571765894790;8164;28131510680;70024963690;1262454928;221991377;9813242798;97128699;1383739188;730;1674;39640;0;295;979
0;78;1571765894790;1571765902977;8187;28168114632;70024844071;1267886730;224050385;9813168486;97130706;1383975873;617;1799;39864;0;251;642
0;79;1571765902977;1571765911195;8218;28194023208;70024845539;1280460600;223413693;9813180678;97174650;1384276308;1328;1406;63200;0;840;29061
0;80;1571765911195;1571765919398;8203;28220041576;70024813999;1279942262;226220461;9813162595;97153880;1383913947;838;1582;39904;0;307;1254
0;81;1571765919398;1571765927590;8192;28164212928;70025024869;1270551095;222212510;9813274088;97155178;1381847054;668;1748;39864;0;263;662
0;82;1571765927590;1571765935766;8176;28157453420;70024875996;1269318935;222009728;9813189401;97145466;1382682304;835;1812;59200;0;576;16411
0;83;1571765935766;1571765943957;8191;28201692296;70025035818;1281513316;225619012;9813277612;97106245;1382707000;1093;1323;39864;0;366;2437
0;84;1571765943958;1571765952146;8188;28193229698;70024761779;1277298183;223434823;9813133393;97111026;1383675161;829;1560;39384;0;330;1394
0;85;1571765952146;1571765960338;8192;28154669346;70024706080;1258098940;224152245;9813106446;97155854;1382811035;639;1777;39864;0;313;755
1;35;1571766371997;1571766380485;8488;28122362028;69879971640;1224417025;229982493;9799857316;98329416;1358648143;815;1701;41480;0;320;1158
1;36;1571766380485;1571766389377;8892;28178807234;69879709312;1237821007;230437366;9799804979;98373203;1360002238;671;1953;43296;0;277;713
1;37;1571766389378;1571766397752;8374;28107534706;69868656138;1221724236;232343180;9799448501;98355724;1357901701;1010;1863;70640;0;647;29065
1;38;1571766397752;1571766406068;8316;28104835166;69866183469;1233001073;229739902;9799410137;98317283;1357564619;997;1467;40656;0;326;2266
1;39;1571766406068;1571766414245;8177;28116181118;69866152646;1230297241;232904031;9799399533;98306254;1357461951;829;1607;40160;0;309;1262
1;40;1571766414246;1571766422401;8155;28087669946;69866112143;1217828591;228673906;9799405758;98297277;1357660101;677;1755;40128;0;275;662
1;41;1571766422402;1571766430896;8494;28109772156;69865952182;1225681842;230933510;9799334284;98287471;1357699270;1472;1539;77984;0;917;46613
1;42;1571766430897;1571766439184;8287;28119560434;69866090816;1232038259;231211121;9799375320;98263225;1358619883;723;1741;40656;0;289;1023
1;43;1571766439184;1571766447472;8288;28113251482;69866229189;1227355892;231639300;9799421117;98279876;1358253226;754;1714;40688;0;341;1019
1;44;1571766447472;1571766455944;8472;28102009044;69805841496;1235925815;225835144;9779270947;98268812;1357374254;670;1842;41448;0;243;721
1;45;1571766455944;1571766464331;8387;28110204900;69780062640;1234713548;222028901;9770801738;98235757;1358390508;1345;1433;62912;0;686;16172
1;46;1571766464331;1571766472604;8273;28085745958;69780176949;1227625909;223580921;9770836226;98272878;1357757282;830;1638;40688;0;344;1284
1;47;1571766472604;1571766480984;8380;28057530874;69780202073;1217708972;221680601;9770872398;98264334;1358435739;680;1816;41184;0;341;914
1;48;1571766480984;1571766489243;8259;28062656788;69780120925;1216323724;223660917;9770822604;98254728;1358328060;845;2048;76896;0;744;41124
1;49;1571766489243;1571766497429;8186;28050107212;69780309098;1214754224;220708704;9770919648;98278230;1357134299;1178;1238;39864;0;409;2924
1;50;1571766497429;1571766505795;8366;28059700288;69780254405;1218461908;221378924;9770888847;98316537;1357794900;803;1617;39896;0;319;1184
1;51;1571766505795;1571766513949;8154;28026545002;69780195788;1212705410;218889976;9770833275;98226858;1358187728;659;1758;39896;0;310;780
1;52;1571766513949;1571766522321;8372;28085697340;69779901652;1221794352;222946270;9770760858;98252638;1358421073;1379;1578;78152;0;818;39140
1;53;1571766522321;1571766530699;8378;28050491922;69779892890;1220728646;220026963;9770751771;98265375;1359058971;806;1692;41248;0;336;1459
1;54;1571766530699;1571766538868;8169;28080119410;69779880118;1216402424;222165466;9770748802;98264007;1358899369;722;1714;40160;0;342;953
1;55;1571766538868;1571766547193;8325;28054532326;69779912691;1219220266;220512364;9770769578;98267827;1358351612;608;1873;40952;0;260;637
1;56;1571766547193;1571766555337;8144;28055457382;69779901503;1219113066;220452043;9770761805;98221970;1359190620;1333;1439;69224;0;773;26603
1;57;1571766555337;1571766563818;8481;28063818364;69780040804;1222363851;222479361;9770835587;98276884;1357366293;782;1746;41712;0;322;1095
1;58;1571766563818;1571766572203;8385;28103614022;69779905464;1233299402;221328354;9770759019;98229318;1358275231;679;1805;40952;0;265;715
1;59;1571766572204;1571766580597;8393;28106766892;69779848511;1230253051;222717779;9770742272;98276061;1357293455;653;1857;41312;3;242;612
1;60;1571766580597;1571766589074;8477;28084891128;69780034121;1230078029;221070238;9770840542;98311647;1358012097;1407;1510;72096;-3;899;42138
1;61;1571766589074;1571766597343;8269;28087232238;69780194572;1233000447;220407451;9770925223;98253725;1357484356;853;1615;40688;0;394;1359
1;62;1571766597343;1571766605595;8252;28034099772;69779844772;1215503249;221072645;9770743343;98246474;1356171498;685;1763;40392;0;312;917
1;63;1571766605595;1571766613849;8254;28058280876;69779840427;1216941189;220967702;9770750015;98231241;1357632947;1241;1625;70400;0;719;28203
1;64;1571766613849;1571766621999;8150;28048303820;69779897400;1215274178;222047565;9770767191;98253988;1358005846;840;1592;40128;0;291;1499
1;65;1571766621999;1571766630359;8360;28038545326;69780054956;1217923220;221027821;9770834098;98279427;1358242753;814;1670;40960;0;388;1288
1;66;1571766630359;1571766638624;8265;28081016580;69780093687;1228853021;222975010;9770881817;98311939;1358287548;1711;1453;115760;0;4338;55524
1;67;1571766638624;1571766647233;8609;28067742552;69780024928;1225254898;221554553;9770841260;98306168;1358293264;806;1760;42368;0;272;1035
1;68;1571766647233;1571766655368;8135;28031302266;69779999679;1213168840;220570346;9770828746;98221876;1357990324;687;1729;39864;0;288;833
1;69;1571766655368;1571766664034;8666;28084924854;69779939270;1230252436;221304664;9770795963;98270332;1357727764;639;1909;42008;0;222;505
1;70;1571766664034;1571766672689;8655;28092712348;69779982061;1237683477;221295816;9770821911;98337512;1359362700;1446;1529;67760;0;957;30318
1;71;1571766672689;1571766680865;8176;28048412590;69780001503;1217783693;221413802;9770826440;98277252;1355249170;767;1665;40128;0;288;1033
1;72;1571766680866;1571766689032;8166;28045293154;69780224677;1213726937;220336739;9770948190;98233517;1359294309;723;1713;40160;0;275;833
1;73;1571766689032;1571766697316;8284;28084343482;69779977842;1222586822;224107448;9770820355;98277676;1358737182;645;1819;40656;0;233;590
1;74;1571766697317;1571766705603;8286;28059995062;69779835537;1222242238;220516835;9770754091;98275709;1358300579;1332;1483;77232;0;798;21055
1;75;1571766705603;1571766713735;8132;28016982294;69780064603;1209679282;219312424;9770863238;98249479;1357339730;825;1591;39864;0;355;1465
1;76;1571766713735;1571766721894;8159;28082088512;69779887598;1236126617;220609687;9770766377;98270279;1358736952;680;1725;39640;0;283;910
1;77;1571766721894;1571766730053;8159;28047401394;69780028038;1216082883;221877251;9770846238;98251961;1358658490;873;1776;60080;0;514;5818
1;78;1571766730054;1571766738310;8256;28080666180;69780091560;1214541209;223225555;9770869467;98304562;1359050457;1058;1394;40480;0;369;2274
1;79;1571766738310;1571766746479;8169;28055236922;69780104131;1223150828;219520979;9770880460;98277217;1355438350;833;1599;40128;0;403;1441
1;80;1571766746479;1571766754847;8368;28042613178;69780114053;1223006157;219471814;9770891279;98269709;1358055355;653;1800;40432;0;288;803
1;81;1571766754847;1571766763750;8903;28086099424;69779962520;1224680504;223088697;9770805308;98363866;1358320348;1351;1557;63832;0;629;10773
1;82;1571766763750;1571766772000;8250;28036136326;69779936997;1214810160;220302467;9770796383;98236318;1358750357;753;1695;40392;0;251;922
1;83;1571766772000;1571766780165;8165;28029233884;69780014093;1210351565;220879826;9770829929;98246740;1355420083;719;1718;40168;0;331;832
1;84;1571766780165;1571766788332;8167;28047820706;69780244830;1215891533;219940874;9770953375;98302773;1359365296;665;1767;40128;0;302;822
2;36;1571767204916;1571767213671;8755;28208511518;69899527739;1254107428;232880667;9801626989;98396485;1384574671;854;1551;39640;0;329;1299
2;37;1571767213672;1571767222150;8478;28243459538;69874386330;1248699156;232553067;9796495899;98399964;1382409933;644;1724;39072;0;285;860
2;38;1571767222150;1571767230614;8464;28255031936;69868725618;1255915158;231683720;9795426030;98410336;1383842845;1432;1440;77608;0;926;53426
2;39;1571767230614;1571767238847;8233;28244329114;69868755136;1260766101;229782905;9795449835;98408074;1382139674;735;1569;38016;0;288;1097
2;40;1571767238847;1571767247060;8213;28236671998;69868724613;1258928098;229184846;9795443007;98383315;1382996409;648;1660;38048;0;305;974
2;41;1571767247060;1571767255276;8216;28267708094;69869053251;1261688226;232103152;9795610283;98369957;1384322412;605;1704;38112;0;231;619
2;42;1571767255276;1571767263512;8236;28210427038;69868677948;1247623009;229449131;9795412444;98383762;1383382359;1292;1291;59408;0;701;17055
2;43;1571767263512;1571767271878;8366;28216999958;69816793374;1248671054;227215937;9778104635;98377900;1381922702;794;1546;38576;0;276;1110
2;44;1571767271878;1571767280221;8343;28197762268;69800212637;1256676070;222234529;9772655844;98405764;1381958675;620;1732;38808;0;342;975
2;45;1571767280221;1571767288559;8338;28196948172;69800240046;1257642518;222474088;9772688280;98380034;1381708837;1047;1682;75376;1;761;32446
2;46;1571767288559;1571767296767;8208;28213002770;69800044672;1254794969;225354818;9772586373;98370302;1383843238;914;1359;37600;-1;370;2184
2;47;1571767296767;1571767305000;8233;28202031600;69800178088;1251837424;223134288;9772665436;98392248;1383207380;768;1544;38176;0;348;1234
2;48;1571767305000;1571767313366;8366;28216957764;69800185450;1257234916;224659586;9772658555;98419865;1383258406;581;1755;38544;0;268;677
2;49;1571767313366;1571767321695;8329;28195642786;69800049000;1246874376;224309292;9772589655;98382309;1382838865;1498;1352;68288;0;961;66701
2;50;1571767321695;1571767330049;8354;28228891658;69800316672;1265016235;224489593;9772688577;98365723;1383141363;718;1618;38544;0;360;1179
2;51;1571767330049;1571767338276;8227;28197620648;69799842031;1255909230;222821645;9772585815;98359765;1383510389;687;1589;37520;0;281;882
2;52;1571767338276;1571767346591;8315;28236212536;69799774738;1257966317;225191822;9772545180;98349242;1382864499;631;1705;38544;0;333;957
2;53;1571767346591;1571767355015;8424;28216909584;69799870560;1258345797;224646853;9772602029;98395906;1381414488;1384;1349;60208;0;827;38090
2;54;1571767355015;1571767363407;8392;28184228798;69799966333;1243209094;223114541;9772653612;98375832;1382514767;757;1583;38576;0;288;1050
2;55;1571767363407;1571767371591;8184;28194795256;69799834694;1250272461;221630905;9772577894;98301321;1382252998;627;1677;38016;0;248;686
2;56;1571767371591;1571767379773;8182;28197231412;69799907032;1245833216;224465897;9772620175;98318112;1379588608;926;1766;60400;0;718;32221
2;57;1571767379773;1571767388124;8351;28166764862;69799955267;1234824624;223642488;9772656078;98385067;1379426738;1076;1260;38544;0;364;2514
2;58;1571767388125;1571767396530;8405;28184830610;69799495921;1240691223;224563496;9772522898;98347838;1379207310;779;1593;39104;0;298;1057
2;59;1571767396530;1571767404844;8314;28173820604;69799617610;1247566224;222988731;9772582813;98400835;1382049643;592;1728;38280;0;258;670
2;60;1571767404844;1571767413097;8253;28157004908;69799474751;1244959912;221529785;9772514538;98428569;1382249379;1321;1363;58424;0;809;40336
2;61;1571767413097;1571767421312;8215;28192151196;69799935324;1249167337;224878210;9772746054;98358307;1383312575;768;1536;38016;0;352;1387
2;62;1571767421312;1571767429603;8291;28161084440;69799626502;1241109640;222434507;9772591142;98350615;1382594864;757;1583;38576;0;309;963
2;63;1571767429603;1571767438010;8407;28181831332;69799541058;1244113484;223777110;9772542055;98382332;1382321491;594;1758;38808;0;211;626
2;64;1571767438010;1571767446240;8230;28203353776;69799605935;1262081257;222826437;9772574685;98344605;1381944731;1455;1361;69208;0;1096;50083
2;65;1571767446240;1571767454450;8210;28179240124;69799907436;1254551225;222844825;9772731034;98370849;1383368732;743;1561;38016;0;282;1143
2;66;1571767454450;1571767462643;8193;28181433190;69799417482;1236786068;225122466;9772469679;98375609;1382071764;665;1643;38048;0;288;805
2;67;1571767462643;1571767471081;8438;28156776126;69799482576;1226226550;223629997;9772503550;98400200;1380135320;1082;1758;66152;14;1342;67547
2;68;1571767471081;1571767479324;8243;28175597862;69799538856;1234522416;225875727;9772544013;98379619;1379174823;1388;1264;74328;-14;3224;26678
2;69;1571767479325;1571767487528;8203;28174299922;69799682212;1241736397;222639294;9772614036;98350024;1382291667;821;1487;38048;0;327;1154
2;70;1571767487528;1571767495736;8208;28177040488;69799551469;1246332110;223925205;9772546144;98362909;1381649602;630;1674;38016;0;265;722
2;71;1571767495736;1571767503925;8189;28176567740;69799899080;1254434775;222568603;9772727332;98325362;1379573626;1171;1587;60144;0;784;37221
2;72;1571767503926;1571767512100;8174;28138183610;69799550783;1239412709;221238075;9772550864;98348918;1382126379;842;1446;37752;0;352;1771
2;73;1571767512100;1571767520400;8300;28212785668;69799844918;1258005034;224675762;9772694450;98352569;1382583334;824;1509;38456;0;303;1157
2;74;1571767520400;1571767528585;8185;28153173576;69799632217;1245822933;220331784;9772595221;98324370;1378680733;623;1681;38016;0;271;732
2;75;1571767528585;1571767536814;8229;28139866698;69799508567;1235623992;221068536;9772517785;98364390;1377614729;1451;1244;59176;0;814;39038
2;76;1571767536814;1571767545207;8393;28115602228;69799531292;1234760076;220069713;9772532410;98383066;1377389752;710;1642;38808;0;306;1105
2;77;1571767545207;1571767553508;8301;28135752418;69799638458;1235384831;221689838;9772593227;98373135;1379743718;672;1668;38576;0;245;844
2;78;1571767553508;1571767561714;8206;28167096574;69799573508;1242860386;224051327;9772557428;98358716;1381144585;573;1731;38016;0;221;602
2;79;1571767561714;1571767570012;8298;28178261778;69799661831;1255769809;221132653;9772604522;98333494;1382082659;1364;1281;58736;0;738;25175
2;80;1571767570012;1571767578324;8312;28163935820;69799410905;1247965628;221655905;9772481118;98403889;1382045120;752;1589;38584;0;310;1275
2;81;1571767578324;1571767586526;8202;28184868132;69799633623;1247076155;224854157;9772600208;98356565;1381331836;627;1664;37848;0;298;740
2;82;1571767586526;1571767594829;8303;28177445200;69799652811;1255920159;221182269;9772604459;98372256;1381584658;923;1802;61048;0;800;41686
2;83;1571767594829;1571767603152;8323;28212054354;69799745340;1257652644;224868573;9772644534;98359392;1380823659;1056;1280;38544;0;371;2505
2;84;1571767603153;1571767611354;8201;28176032796;69799863306;1250698449;222406725;9772703489;98360820;1382115787;773;1522;37856;0;323;1073
2;85;1571767611354;1571767619544;8190;28160777548;69799748975;1249104921;221202376;9772648922;98361512;1382373925;624;1680;38016;0;322;886
3;37;1571768044483;1571768052684;8201;28058515790;69812783907;1243268163;224296179;9776889056;97457294;1376415857;594;1806;39600;0;233;592
3;38;1571768052684;1571768060935;8251;28033885882;69809986501;1236225734;224136407;9776777367;97424015;1376807741;1253;1464;66528;0;759;12140
3;39;1571768060936;1571768069084;8148;28060581982;69810154216;1234975527;225832553;9776849118;97407110;1376895162;796;1588;39336;0;265;1069
3;40;1571768069084;1571768077241;8157;28071381018;69810192041;1244370976;226221782;9776880896;97414720;1375489225;685;1703;39368;0;296;849
3;41;1571768077241;1571768085412;8171;28090075880;69810070236;1253668153;225628850;9776812245;97422067;1375144672;586;1798;39336;0;238;600
3;42;1571768085412;1571768093561;8149;28037730938;69810031841;1232191275;223804423;9776788557;97432426;1375744374;1301;1319;57872;0;642;10291
3;43;1571768093561;1571768101748;8187;28045262494;69810094159;1232500939;226651920;9776805940;97412573;1375979488;862;1558;39896;0;267;1112
3;44;1571768101748;1571768109880;8132;28024861184;69809477384;1231124553;223911589;9776682013;97376298;1376445312;674;1710;39336;0;304;741
3;45;1571768109880;1571768118047;8167;28054297996;69809593419;1235267524;225115049;9776728426;97461342;1377342336;841;1801;58264;0;530;9011
3;46;1571768118047;1571768126226;8179;28048890448;69809442823;1236623541;223466848;9776657137;97470417;1374108609;1089;1327;39864;0;373;2601
3;47;1571768126226;1571768134496;8270;28086818328;69809573192;1245770828;226028274;9776731677;97391351;1376694219;854;1566;39896;0;365;1337
3;48;1571768134497;1571768142665;8168;28050144296;69809588720;1236849695;224424159;9776729339;97403804;1375457526;635;1765;39600;0;261;675
3;49;1571768142665;1571768150859;8194;28115617266;69809566586;1259521545;227051662;9776723575;97414601;1376347569;1205;1477;61472;0;608;11662
3;50;1571768150859;1571768159153;8294;28049165366;69795341501;1237058343;221833545;9771986929;97399993;1375790883;825;1591;39864;0;352;1459
3;51;1571768159153;1571768167308;8155;28048396822;69792226612;1231019648;222300010;9771032406;97389872;1375338347;758;1631;39376;0;305;967
3;52;1571768167308;1571768175469;8161;28034887880;69792118777;1231298378;221552451;9770976108;97379990;1375839204;649;1752;39632;0;251;625
3;53;1571768175469;1571768183642;8173;28046978286;69792135771;1232026437;222913576;9770983552;97390065;1375544296;1322;1327;58136;0;750;15803
3;54;1571768183642;1571768191804;8162;28075962936;69792122343;1250051668;221268139;9770971115;97410632;1376058434;777;1623;39600;0;246;972
3;55;1571768191805;1571768199967;8162;28056018314;69792229748;1240696034;221340573;9771037149;97396879;1375127570;698;1690;39368;0;327;802
3;56;1571768199967;1571768208121;8154;28096044652;69792275242;1250819719;223114880;9771047527;97365326;1376371123;626;1772;39400;2;218;557
3;57;1571768208121;1571768216305;8184;28087085508;69792280057;1249962100;223222193;9771048606;97382931;1375259710;1337;1339;58280;-2;751;17503
3;58;1571768216305;1571768224453;8148;28068049590;69791881549;1248603308;220925233;9770930949;97375518;1375350901;844;1560;39640;0;313;1187
3;59;1571768224453;1571768232610;8157;28054508382;69791857219;1244019167;220989072;9770913599;97386744;1375573162;640;1744;39336;0;258;683
3;60;1571768232610;1571768240779;8169;28037947310;69791903590;1237778968;222006775;9770937661;97398619;1376082999;833;1807;59552;0;487;9213
3;61;1571768240779;1571768248950;8171;28095641984;69791867043;1250254023;223918525;9770919824;97400352;1376038480;1118;1282;39600;0;346;2475
3;62;1571768248950;1571768257122;8172;28065237192;69791792888;1247356422;220425766;9770876747;97407460;1374834910;823;1581;39640;0;259;1103
3;63;1571768257122;1571768265288;8166;28081069432;69792042631;1252035176;222122111;9771006498;97379946;1375381355;636;1748;39336;0;279;763
3;64;1571768265288;1571768273450;8162;28080293880;69791798930;1248436257;222008985;9770895758;97378570;1375768292;1120;1508;58840;0;600;7889
3;65;1571768273450;1571768281611;8161;28091196430;69791832031;1246544226;223975387;9770934851;97382913;1374953281;847;1553;39600;0;301;1568
3;66;1571768281611;1571768289859;8248;28034638074;69791812191;1231123902;220763079;9770919196;97381630;1375891057;793;1627;39896;0;360;1050
3;67;1571768289859;1571768298019;8160;28027119658;69791715486;1232746169;221954502;9770862528;97404142;1376559511;637;1763;39600;0;246;649
3;68;1571768298019;1571768306208;8189;28057936608;69791915023;1237683571;222364348;9770976549;97416992;1376565618;1321;1355;60648;0;662;12716
3;69;1571768306208;1571768314372;8164;28088272634;69791699831;1243634785;224695346;9770859768;97371157;1376243268;758;1626;39336;0;250;995
3;70;1571768314372;1571768322503;8131;28029650860;69791987821;1230378126;221363175;9771007358;97373347;1376296778;728;1662;39432;0;307;884
3;71;1571768322503;1571768330684;8181;28068342758;69791671635;1249209936;221654089;9770849387;97369139;1374183893;641;1759;39600;0;208;614
3;72;1571768330684;1571768338962;8278;28096091518;69791889966;1248888217;223574607;9770957704;97406926;1377298124;1314;1369;61544;0;650;10331
3;73;1571768338962;1571768347138;8176;28100632264;69791687421;1252185215;223417199;9770858228;97369942;1377668439;1247;1508;70872;14;1853;31116
3;74;1571768347138;1571768355345;8207;28084304792;69791750090;1250469675;223469868;9770889414;97423497;1375132755;1225;1474;70376;-14;2818;21216
3;75;1571768355345;1571768363509;8164;28070457422;69791797896;1249118170;220482791;9770911909;97393037;1377382791;652;1736;39424;0;311;915
3;76;1571768363510;1571768371668;8158;28070652624;69791683906;1241746639;222930766;9770856101;97391905;1375882817;604;1796;39600;0;233;546
3;77;1571768371668;1571768379970;8302;28052958738;69791769732;1238095741;222262915;9770899484;97443204;1377494423;1085;1866;81080;0;956;39550
3;78;1571768379970;1571768388130;8160;28035825346;69791638150;1234127717;221300992;9770826147;97430820;1376155095;947;1437;39336;0;340;2124
3;79;1571768388130;1571768396290;8160;28071475918;69791897686;1246443178;222008023;9770962652;97403271;1377477701;871;1542;39832;0;308;1251
3;80;1571768396290;1571768404464;8174;28093950866;69791943619;1249830749;223563846;9770982086;97401074;1376881498;641;1759;39600;0;237;680
3;81;1571768404464;1571768412651;8187;28089837170;69791965218;1250132030;222082680;9770993018;97387267;1375706586;1317;1372;61800;0;661;14449
3;82;1571768412651;1571768420821;8170;28079638632;69791796500;1247650460;221963705;9770911575;97387767;1375819565;728;1656;39336;0;362;1239
3;83;1571768420821;1571768428972;8151;28061880798;69791783394;1242444448;221098361;9770899898;97362250;1376187700;751;1653;39696;0;370;966
3;84;1571768428972;1571768437154;8182;28081085200;69791751025;1246767015;224004622;9770883738;97399035;1372425689;602;1798;39600;0;262;580
3;85;1571768437154;1571768445311;8157;28103317058;69791850297;1256585504;223647878;9770927164;97352605;1376403903;1329;1352;59432;0;797;20762
3;86;1571768445311;1571768453469;8158;28084079952;69791777413;1250778434;223393942;9770895005;97381433;1375838906;776;1608;39336;0;314;1216
4;37;1571768875526;1571768883733;8207;28104993430;69869362923;1252024884;228839582;9799630814;97590469;1374430006;620;1588;36432;0;315;832
4;38;1571768883733;1571768891942;8209;28139384168;69866678381;1252871706;232231941;9799533317;97584045;1374784825;1268;1331;58032;0;679;25799
4;39;1571768891943;1571768900129;8186;28100582332;69866534770;1246588173;229615412;9799461232;97615872;1373668861;753;1472;36728;0;295;1230
4;40;1571768900129;1571768908390;8261;28089004094;69866574034;1242027473;229224536;9799474162;97568071;1374173461;730;1547;37528;0;301;944
4;41;1571768908390;1571768916571;8181;28095896754;69866810336;1247233675;228556971;9799594391;97590803;1373153238;586;1654;36960;0;303;788
4;42;1571768916571;1571768924741;8170;28135049428;69866593407;1246065914;231874955;9799478649;97563404;1373552426;1351;1232;59344;0;798;28564
4;43;1571768924742;1571768932975;8233;28111578030;69815445743;1243221693;226397888;9782432848;97593697;1374005662;744;1521;37224;3;259;929
4;44;1571768932975;1571768941137;8162;28109769820;69798333083;1243890924;224005404;9776802504;97554361;1374787140;672;1581;37296;-3;297;818
4;45;1571768941138;1571768949293;8155;28100644674;69798391964;1242963763;223385457;9776823388;97565416;1374142343;623;1617;36960;0;273;669
4;46;1571768949293;1571768957458;8165;28111850320;69798352618;1240554083;224848522;9776813839;97563107;1374618033;1355;1188;55736;0;771;29058
4;47;1571768957458;1571768965665;8207;28098075220;69798493309;1238656502;225380572;9776881299;97598865;1373745654;779;1466;37000;0;291;1074
4;48;1571768965665;1571768973913;8248;28050016838;69798295006;1225015999;223717156;9776775860;97566834;1374061100;660;1612;37488;0;293;767
4;49;1571768973913;1571768982080;8167;28086682256;69798584090;1233595241;223388038;9776923165;97576409;1375040995;869;1656;58360;0;587;23463
4;50;1571768982080;1571768990372;8292;28046556200;69784075222;1222835319;222083424;9772053877;97581531;1372646131;997;1259;37224;0;336;2310
4;51;1571768990372;1571768998505;8133;28006838068;69780838561;1216891278;219944672;9771024765;97554204;1372065946;786;1443;36744;0;288;1135
4;52;1571768998506;1571769006652;8146;28027350046;69780993132;1219164639;221733776;9771113161;97549138;1373183738;640;1584;36696;0;270;758
4;53;1571769006652;1571769014906;8254;28038542844;69780725791;1227781566;220282965;9770969054;97581378;1373332058;1269;1318;59160;0;686;20913
4;54;1571769014906;1571769023486;8580;28049777106;69780802677;1229526065;221910217;9771016003;97617782;1373382158;773;1579;38808;0;327;1474
4;55;1571769023486;1571769031721;8235;28011581024;69781060149;1220731133;220398997;9771146845;97558854;1373130341;701;1560;37264;0;308;905
4;56;1571769031721;1571769039884;8163;28070900532;69781134351;1239334598;221899898;9771186327;97567657;1375106816;598;1642;36960;0;298;749
4;57;1571769039884;1571769048183;8299;28052853910;69780959324;1237789439;220146464;9771083848;97601794;1373378669;1351;1358;75624;0;921;37974
4;58;1571769048183;1571769056345;8162;28066215538;69780599265;1243184349;221410463;9770973339;97576114;1373312473;755;1489;37128;0;259;986
4;59;1571769056345;1571769064500;8155;28046084620;69780905414;1234033998;220613656;9771119476;97543263;1374379414;661;1585;37008;0;251;796
4;60;1571769064500;1571769072751;8251;28045363234;69780922704;1224120546;222623732;9771140651;97562306;1373613224;628;1644;37488;0;289;781
4;61;1571769072751;1571769080935;8184;28036504684;69780624716;1235725557;219329264;9770992250;97597029;1373974549;1219;1262;55944;0;689;8508
4;62;1571769080935;1571769089084;8149;28052334734;69780670541;1245407547;219465155;9771009043;97556036;1373451843;784;1461;37000;0;328;1187
4;63;1571769089085;1571769097254;8169;28093027270;69780576927;1250340626;222204409;9770954694;97553439;1375617570;610;1582;36168;0;255;771
4;64;1571769097254;1571769105424;8170;28068774918;69780695820;1245234419;220484527;9771037272;97573172;1374716179;927;1587;58920;0;635;11239
4;65;1571769105424;1571769113582;8158;28078111618;69780734220;1244357283;221760723;9771077591;97556144;1374421609;928;1312;36960;0;361;2228
4;66;1571769113582;1571769121739;8157;28061391698;69780449829;1241151370;219771572;9770930211;97556687;1373437198;779;1420;36248;0;269;1066
4;67;1571769121739;1571769129887;8148;28064226288;69780658609;1246112636;220469869;9771039798;97546710;1372672117;646;1594;36960;0;262;741
4;68;1571769129887;1571769138046;8159;28026419734;69780534701;1223824530;220214668;9770977202;97565447;1373386456;1226;1269;56336;0;650;11896
4;69;1571769138046;1571769146194;8148;28026837294;69780546302;1219838506;221360804;9770975740;97573377;1373367130;714;1494;36432;0;286;1168
4;70;1571769146194;1571769154336;8142;28009195092;69780639102;1218108274;219151441;9771023557;97556131;1374080806;705;1508;36472;0;278;848
4;71;1571769154336;1571769162502;8166;28032517862;69780335002;1221416572;219780379;9770874313;97585511;1372237282;596;1645;36992;0;353;939
4;72;1571769162502;1571769170669;8167;28073285004;69780630967;1227291636;222981853;9771020385;97572522;1373502175;1275;1257;58320;0;717;14858
4;73;1571769170669;1571769178841;8172;28022791342;69780388719;1217488118;220016060;9770892298;97570250;1372796474;1136;1425;65808;1;1630;21199
4;74;1571769178842;1571769187125;8283;28066630762;69780316256;1232134144;223066710;9770864326;97600346;1372924460;1281;1280;69008;-1;2936;21949
4;75;1571769187125;1571769195273;8148;28050830788;69780616996;1236483238;219960338;9771018005;97537513;1374753487;640;1586;36760;0;305;777
4;76;1571769195273;1571769203416;8143;28060239612;69780637313;1243487325;219863435;9771029615;97532979;1373061121;589;1639;36784;0;240;576
4;77;1571769203416;1571769211595;8179;28077094436;69780721852;1245326619;221073105;9771071768;97554949;1374704467;677;1793;45200;160;370;3107
4;78;1571769211595;1571769219875;8280;28079763608;69780771170;1239090254;222810731;9771093973;97558117;1373274387;1365;1244;70728;-160;843;34425
4;79;1571769219875;1571769228039;8164;28031099326;69780549395;1222269997;218987242;9770984787;97558808;1373161231;756;1448;36392;0;285;1056
4;80;1571769228039;1571769236190;8151;28057700380;69780558194;1243366738;220091690;9770990731;97540301;1373484908;626;1614;36960;0;237;653
4;81;1571769236190;1571769244351;8161;28065943102;69780508477;1235464109;222032385;9770955673;97587397;1373196169;1033;1487;60768;0;596;11364
4;82;1571769244351;1571769252524;8173;28044646228;69780673722;1225780510;221054153;9771045284;97587101;1374903898;785;1423;36432;0;312;1576
4;83;1571769252524;1571769260773;8249;28030248000;69780808023;1222759468;220371642;9771114495;97545436;1373902786;763;1482;37048;0;266;1013
4;84;1571769260774;1571769268920;8146;28065304206;69780429269;1235578897;220313213;9770917846;97538210;1373496675;603;1621;36696;0;307;729
4;85;1571769268921;1571769277090;8169;28033940632;69780459206;1223066477;220492889;9770945068;97590910;1373608042;1273;1371;72000;0;874;29621
4;86;1571769277090;1571769285231;8141;28025126028;69780463432;1217980663;220842666;9770938206;97537724;1374204643;683;1541;36696;0;246;952
