0;70;1571811949175;1571811954379;5204;18170427080;64068022602;1348955084;857700955;13367709116;25710497;670853228;1000;5828;737792;16;5204;620905
0;71;1571811954379;1571811960314;5935;19011034782;64068033049;1353578892;929030646;13367711417;25699530;670960326;1185;5218;630112;-1;5936;847390
0;72;1571811960314;1571811965763;5449;18850743280;64068024067;1341097019;928542605;13367710581;25703685;670925029;873;6134;673512;-8;5448;780660
0;73;1571811965763;1571811971148;5385;18760410306;64068026909;1354097028;922918963;13367710156;25716285;670869112;806;4818;714360;-6;5385;768375
0;74;1571811971148;1571811976447;5299;18500169686;64068023109;1357516405;880827528;13367709623;25689584;670919531;1201;6792;632760;-8;5299;763054
0;75;1571811976447;1571811981640;5193;18109366814;64068023061;1350729769;825390009;13367709575;25692672;670848352;1003;7040;867768;8;5193;893698
0;76;1571811981640;1571811986840;5200;18153201562;64068023172;1348773409;855066566;13367709686;25717744;670829111;847;5826;813064;3;5200;651158
0;77;1571811986840;1571811992223;5383;18789381670;64068023366;1350752498;939428266;13367709880;25682029;670928504;1053;4152;567040;3;5384;765604
0;78;1571811992223;1571811997739;5516;18782731808;64068023885;1346912483;910772091;13367710399;25714089;670963241;866;6589;650760;-1;5515;784870
0;79;1571811997739;1571812003168;5429;18832068566;64068023763;1344596442;923078640;13367710277;25690121;670920739;672;6182;739496;0;5429;769063
0;80;1571812003168;1571812008499;5331;18594445682;64068026780;1355717427;900843226;13367710038;25706215;670888081;766;7048;704368;8;5332;762440
0;81;1571812008500;1571812013692;5192;18141238614;64068023615;1365585239;816539036;13367710129;25690941;670836824;1103;6834;840424;-5;5193;863192
0;82;1571812013692;1571812019134;5442;18313229242;64068022702;1360827334;860479630;13367709216;25721741;670839359;894;6137;852248;-1;5442;679831
0;83;1571812019134;1571812024568;5434;18933647190;64068022813;1348444564;930486464;13367709327;25689665;670914208;1103;4383;610464;-15;5433;776338
0;84;1571812024568;1571812029949;5381;18797861642;64068023007;1338929115;930581844;13367710107;25693105;670857120;888;6448;623832;18;5381;768106
0;85;1571812029949;1571812035410;5461;18716059740;64068023794;1341226628;916480057;13367710308;25690879;670938271;671;6177;744096;0;5462;776122
0;86;1571812035411;1571812040716;5305;18520303524;64068022649;1341603999;892757836;13367709163;25686027;670871384;778;7318;744896;155;5306;767509
0;87;1571812040716;1571812045984;5268;18318504660;64068023137;1342158417;872080513;13367709651;25707686;670935083;1048;7316;900632;-167;5267;830299
0;88;1571812045984;1571812054477;8493;18814664052;64068027720;1335732325;905114102;13367710978;25705483;670944146;1773;7520;1033624;77;8494;1351281
0;89;1571812054478;1571812059728;5250;18248550658;64068024613;1344555744;850001542;13367711127;25707837;670952173;1022;3998;441360;-76;5250;770993
0;90;1571812059728;1571812064895;5167;17990696554;64068024239;1348219663;819308902;13367710753;25726753;670896676;686;6467;665328;12;5168;742624
0;91;1571812064895;1571812070225;5330;18167307790;64068024541;1347920350;822882126;13367711055;25706125;670940864;1032;3978;597800;-19;5330;750543
0;92;1571812070225;1571812075861;5636;18880550202;64068024218;1347170459;930923002;13367710732;25731995;670894924;860;6987;740280;5;5635;803083
0;93;1571812075861;1571812081662;5801;18770592200;64068022950;1340280112;926228757;13367709464;25688991;670976667;854;8939;982168;-2;5801;834189
0;94;1571812081662;1571812087408;5746;18801156716;64068023116;1334010570;931448286;13367709630;25680674;670955324;807;9438;1055392;168;5746;827651
0;95;1571812087408;1571812093028;5620;18734182574;64068028185;1335580710;920705668;13367711443;25710130;671049797;1506;3807;675632;-160;5620;918042
0;96;1571812093028;1571812098429;5401;18166552532;64068023167;1348051630;835697209;13367709681;25708951;670910745;1332;3552;516496;9;5401;770686
0;97;1571812098429;1571812103786;5357;18022606314;64068023038;1349997456;824238400;13367709552;25732645;670897613;1029;4905;545088;-5;5357;761542
0;98;1571812103786;1571812109305;5519;18213384368;64068023015;1347928496;841149656;13367709529;25710385;670825695;885;5593;687816;8;5519;666988
0;99;1571812109305;1571812114662;5357;18358749122;64068023242;1343594982;907666347;13367709756;25718730;670891616;825;5753;721968;-18;5357;760145
0;100;1571812114662;1571812120016;5354;18686734910;64068023361;1341989682;919983896;13367709875;25716832;670924621;1113;6446;704032;6;5354;832792
0;101;1571812120016;1571812126150;6134;18876220280;64068023865;1343412968;931733884;13367710379;25725670;670928823;1119;6068;861856;1;6134;872523
0;102;1571812126150;1571812131713;5563;18676631272;64068027513;1339072562;907486005;13367711357;25690993;670903538;1129;5269;554400;-8;5564;798410
0;103;1571812131713;1571812137016;5303;18455682026;64068023755;1342822098;867281286;13367710269;25703611;670977511;673;4634;682720;-1;5303;763112
0;104;1571812137016;1571812142331;5315;18487741290;64068023722;1343248259;882932104;13367710236;25763498;671004602;944;8324;745992;16;5314;753407
0;105;1571812142331;1571812147968;5637;18283121560;64068023054;1346203216;866334957;13367709568;25692625;670882551;712;8691;1061632;-8;5637;805969
0;106;1571812147968;1571812153668;5700;18607491950;64068023252;1333632811;905216673;13367709766;25681818;670900347;1164;8872;880968;-5;5700;916209
0;107;1571812153668;1571812159226;5558;18699370334;64068023338;1338967049;923866811;13367709852;25710971;670900268;1033;5868;795696;-7;5558;788714
0;108;1571812159226;1571812164567;5341;18318672122;64068023028;1344212206;872082464;13367709542;25698195;670887401;995;5404;591672;29;5342;768482
0;109;1571812164568;1571812170017;5449;18681383134;64068025625;1340533824;906929707;13367710055;25697406;670795931;872;3957;703056;-8;5450;777941
0;110;1571812170018;1571812175714;5696;18728116274;64068024311;1334985702;923624545;13367710825;25699395;670913556;1032;6498;674160;3;5697;819465
0;111;1571812175714;1571812181646;5932;18792169686;64068023193;1334101524;907824719;13367709707;25699915;670910637;794;8605;960424;-12;5931;848899
0;112;1571812181646;1571812186840;5194;18078411894;64068023436;1347917602;820434063;13367709950;25693766;670994488;1289;3235;645920;8;5194;853460
0;113;1571812186840;1571812191997;5157;17953815056;64068024665;1349959322;800593374;13367711179;25698764;671023633;1144;1913;354048;8;5158;735352
0;114;1571812191997;1571812197020;5023;17469807536;64068024944;1363477093;677177550;13367711458;25700977;670984809;1536;2627;368304;0;5022;720279
0;115;1571812197020;1571812202394;5374;18655453826;64068023964;1342657547;878405727;13367710478;25691902;671114014;1234;4129;542104;-22;5374;704010
0;116;1571812202394;1571812207817;5423;18805599642;64068027390;1344267796;932101417;13367710648;25711166;670893576;1019;4747;577904;5;5423;774558
0;117;1571812207817;1571812213197;5380;18764869730;64068022916;1330921657;927332213;13367709430;25684335;670944866;787;6656;666992;13;5380;766721
0;118;1571812213197;1571812218404;5207;18189866250;64068023492;1367444785;814115220;13367710006;25685843;670855658;934;5765;711032;-4;5207;875039
0;119;1571812218404;1571812223555;5151;17993271118;64068023565;1365295802;819884775;13367710079;25708244;670858077;959;4589;733288;0;5152;735285
1;72;1571812801427;1571812807032;5605;18835109308;64068023369;1349143815;934039887;13367709883;23592330;670813336;934;6973;666288;30;5606;800912
1;73;1571812807033;1571812812858;5825;18569793582;64068027547;1340132180;911521053;13367710316;23592159;670758886;686;6929;818392;-12;5825;834023
1;74;1571812812858;1571812818484;5626;18564882580;64068023313;1341857138;893642433;13367709827;23591888;670841610;1281;6135;737616;-6;5627;927817
1;75;1571812818485;1571812824078;5593;18142200024;64068023101;1345433723;870013113;13367709615;23585425;670815685;697;8756;1017360;11;5594;795476
1;76;1571812824078;1571812829602;5524;18480364786;64068023631;1339086951;888814276;13367710145;23596731;670905524;1152;5199;699848;0;5524;789952
1;77;1571812829602;1571812837977;8375;18693789192;64068036795;1339271829;923291720;13367714744;23622296;671257885;1292;9174;966360;-12;8375;1192666
1;78;1571812837977;1571812843478;5501;18490506238;64068023134;1340740806;901463997;13367709648;23593515;670816947;645;6257;765576;-5;5501;785381
1;79;1571812843479;1571812849157;5678;18615362518;64068023264;1341514745;900901466;13367709778;23594103;670826898;841;7516;782304;159;5679;837926
1;80;1571812849157;1571812854445;5288;17739417852;64068026692;1352258558;751169778;13367709950;23588979;670807324;996;7186;938240;-155;5288;833396
1;81;1571812854445;1571812861628;7183;18081420078;64068034481;1350036540;813056962;13367713642;23612418;671008061;1408;7212;950400;-3;7183;920447
1;82;1571812861628;1571812867069;5441;18877100076;64068022771;1352882173;931273440;13367709285;23589063;670828631;955;5322;594856;5;5441;776121
1;83;1571812867069;1571812872548;5479;18788182280;64068023811;1352457758;924542130;13367710325;23590027;670784776;770;6578;717376;10;5479;783072
1;84;1571812872548;1571812877902;5354;18677913882;64068022740;1345480540;911297453;13367709254;23587801;670844859;686;6347;771688;-13;5354;767775
1;85;1571812877902;1571812883186;5284;18378901064;64068023315;1342228549;862448226;13367709829;23595670;670898260;1101;6884;759544;-7;5283;893703
1;86;1571812883186;1571812888364;5178;18010448748;64068024086;1348703350;812764378;13367710600;23589590;670855106;636;8410;972784;-33;5179;733500
1;87;1571812888364;1571812893742;5378;18699155130;64068024372;1341225630;905801491;13367710886;23599141;670880376;1105;4062;617720;50;5377;696430
1;88;1571812893742;1571812899119;5377;18763362426;64068028452;1331703612;917583552;13367711221;23595519;670867389;965;5123;580016;-5;5378;767303
1;89;1571812899120;1571812904513;5393;18683833160;64068024389;1331950800;922545206;13367710903;23597779;670932961;727;6604;711976;9;5394;763489
1;90;1571812904514;1571812909809;5295;18430580976;64068024088;1342385895;884969237;13367710602;23593770;670927660;666;6791;751440;-16;5296;755029
1;91;1571812909809;1571812915089;5280;18443977644;64068023703;1343443559;880218524;13367710217;23591662;670834208;1144;6605;786072;3;5280;910893
1;92;1571812915089;1571812920230;5141;17958442234;64068023554;1349410652;808911511;13367710068;23586205;670813490;648;8037;1001304;-87;5141;697479
1;93;1571812920230;1571812925593;5363;18720043496;64068022798;1336636298;912373482;13367709312;23593182;670877679;1179;4169;579168;78;5363;695059
1;94;1571812925593;1571812931006;5413;18866069484;64068022836;1331724211;921067406;13367709350;23596018;670912079;946;5303;606840;14;5413;773474
1;95;1571812931007;1571812936373;5366;18723504134;64068028166;1336852560;923245983;13367710676;23592071;670849274;729;6450;683760;7;5366;759719
1;96;1571812936373;1571812941774;5401;18496115266;64068023117;1342202857;894581036;13367709631;23592042;670870216;691;6695;777960;-19;5402;766784
1;97;1571812941774;1571812947063;5289;18442242434;64068023170;1344055929;875139694;13367709684;23588510;670829060;1094;7199;791816;24;5289;872489
1;98;1571812947063;1571812952207;5144;17969725114;64068023083;1349565652;807948100;13367709597;23590882;670797325;910;6399;729880;-13;5144;845547
1;99;1571812952207;1571812957475;5268;18325048526;64068023300;1349398141;860237059;13367709814;23592272;670825080;969;3307;579864;-4;5267;623694
1;100;1571812957475;1571812963130;5655;18906920576;64068023757;1351383485;930558126;13367710271;23597828;670909556;1149;2864;612872;2;5656;813038
1;101;1571812963131;1571812968508;5377;18697294652;64068023427;1335470850;920221173;13367709941;23594261;670917216;992;6390;617760;1;5378;772063
1;102;1571812968508;1571812973804;5296;18485762698;64068026710;1336113500;877918611;13367710554;23592538;670810249;602;5809;728416;7;5295;754365
1;103;1571812973804;1571812979086;5282;18421448384;64068023332;1336479771;882182947;13367709846;23592810;670848882;726;7083;764904;10;5283;753403
1;104;1571812979086;1571812984361;5275;18303035376;64068023995;1341220918;872439549;13367710509;23593757;670935974;1205;6594;750544;-11;5275;910643
1;105;1571812984361;1571812989773;5412;18782935040;64068023940;1343980066;923142823;13367710454;23595152;670895214;736;7778;962088;-1;5412;770114
1;106;1571812989774;1571812995016;5242;18318841336;64068022355;1360814548;866803455;13367709455;23591523;670792078;1025;3918;590920;-1;5243;749838
1;107;1571812995016;1571813000274;5258;18023592544;64068023091;1366457337;800784183;13367709605;23587192;670782875;879;5469;583976;-16;5257;750878
1;108;1571813000274;1571813005511;5237;18279902552;64068023081;1359542622;855920491;13367709595;23590697;670796452;698;5770;732544;14;5238;621636
1;109;1571813005511;1571813010911;5400;18846140192;64068027460;1351527416;931036333;13367710556;23590409;670816909;840;7101;732200;-3;5399;769610
1;110;1571813010911;1571813016316;5405;18838329046;64068023897;1351404082;927091341;13367710411;23590807;670861681;1280;6318;760808;-13;5406;880884
1;111;1571813016316;1571813021804;5488;18734110888;64068024013;1338971182;926888065;13367710527;23590973;670812466;952;5752;779704;8;5488;786949
1;112;1571813021804;1571813027103;5299;18425510396;64068024699;1340334936;884182606;13367711213;23597110;670899585;1005;4268;555352;19;5298;754286
1;113;1571813027103;1571813032422;5319;18555845034;64068023886;1342927604;896626416;13367710400;23595484;670825732;772;6444;665584;-5;5320;768170
1;114;1571813032422;1571813037822;5400;18475568394;64068022710;1341076601;895608022;13367709224;23587928;670865312;961;4677;640728;-1;5399;764699
1;115;1571813037822;1571813042969;5147;17981669228;64068022464;1340250913;829465958;13367708978;23587806;670843036;778;7491;810160;-10;5148;737959
1;116;1571813042969;1571813052548;9579;18773213484;64068027519;1329334435;926352374;13367710558;23595882;670815606;2046;10397;1316896;4;9579;1452772
1;117;1571813052548;1571813057956;5408;18785838104;64068024423;1335644890;917380969;13367710937;23602077;670855972;931;5388;585112;-3;5407;773033
1;118;1571813057956;1571813063313;5357;18651934058;64068024211;1334907590;904936784;13367710725;23596018;670802692;651;6379;750384;-12;5358;765472
1;119;1571813063313;1571813068745;5432;18612838470;64068023799;1348275084;902580145;13367710313;23589383;670825645;850;5828;655520;15;5432;774172
1;120;1571813068745;1571813074217;5472;18364256972;64068023969;1338472878;869759962;13367710483;23596124;670880960;1002;4000;643336;-10;5472;781937
1;121;1571813074217;1571813079670;5453;18001139642;64068023573;1346019690;784597234;13367710087;23586230;670842676;1135;8778;846608;9;5453;921638
2;68;1571813637059;1571813642353;5294;18390786194;66720934854;1340315503;877752441;16020621368;23441871;670911817;1368;2028;511328;4;5294;844777
2;69;1571813642353;1571813647530;5177;18008141072;66720936834;1348240406;807310476;16020623348;23433999;671019315;1570;2972;361512;-2;5177;743270
2;70;1571813647530;1571813652695;5165;17978706304;66720936303;1345526280;825617474;16020622817;23436102;670937882;972;5569;679376;-12;5165;741944
2;71;1571813652695;1571813658077;5382;18721831558;66720935159;1348648266;888938347;16020621673;23437756;670917715;1117;3870;613832;4;5382;702087
2;72;1571813658077;1571813663484;5407;18889526428;66720935567;1351525847;932416640;16020622081;23438425;670864561;1022;5483;595664;5;5406;769191
2;73;1571813663484;1571813668897;5413;18830842312;66720938244;1337623455;931903205;16020622088;23442246;670824355;783;5987;696576;-15;5414;768803
2;74;1571813668897;1571813674284;5387;18467197192;66720934965;1344381150;882933844;16020621479;23433801;670924097;1695;2053;488080;8;5386;864237
2;75;1571813674284;1571813679440;5156;18018848858;66720934920;1347532334;826292034;16020621434;23441315;670827786;1374;4069;436976;1;5157;742878
2;76;1571813679440;1571813684619;5179;18102676364;66720934997;1349452656;816572891;16020621511;23435507;670823901;925;5417;711200;3;5179;739101
2;77;1571813684619;1571813690007;5388;18822443078;66720935214;1341237208;910981551;16020621728;23435896;670842422;1250;4523;584432;2;5388;761861
2;78;1571813690008;1571813698097;8089;18829752568;66720948282;1340308882;928387307;16020626248;23497583;671273086;1296;8428;972648;-16;8089;1152887
2;79;1571813698097;1571813703422;5325;18552497838;66720935333;1346729233;882649821;16020621847;23442863;670859612;810;4311;604408;26;5326;760435
2;80;1571813703422;1571813721465;18043;18714544990;66720940145;1335891530;911830741;16020623195;23447502;670991646;4557;14794;1867520;-17;18043;2660412
2;81;1571813721465;1571813726784;5319;18552909558;66720935655;1354988353;902706036;16020622169;23440632;670869347;852;6227;623536;12;5319;757532
2;82;1571813726784;1571813732166;5382;18791012928;66720934690;1353448367;921568311;16020621204;23436489;670819933;671;5781;714360;1;5382;766858
2;83;1571813732166;1571813737427;5261;18386726080;66720934457;1360596787;864226759;16020620971;23440139;670830986;1525;2259;486728;-16;5261;821403
2;84;1571813737427;1571813742594;5167;18055779850;66720935339;1366075664;819905844;16020621853;23437062;670862643;1350;3948;456056;-6;5167;738112
2;85;1571813742594;1571813747781;5187;18125171314;66720934499;1363759262;850788199;16020621013;23436022;670830606;987;5036;758552;-83;5187;707072
2;86;1571813747781;1571813753197;5416;18852120498;66720936012;1346797119;927225538;16020622526;23441472;670963025;1230;4691;566160;101;5416;753222
2;87;1571813753197;1571813758588;5391;18823339664;66720935703;1351085610;938305636;16020622217;23438033;670924981;916;5990;623752;12;5391;766218
2;88;1571813758588;1571813764013;5425;18905493718;66720938656;1350877245;932016717;16020622500;23439123;670833358;758;5024;721624;-22;5425;774485
2;89;1571813764013;1571813769240;5227;18268372202;66720935045;1361334733;869857577;16020621559;23440280;670855891;1813;1794;367736;3;5227;858222
2;90;1571813769240;1571813774437;5197;18164933100;66720934869;1361696538;856072001;16020621383;23433559;670785454;1134;5398;558416;18;5197;742882
2;91;1571813774437;1571813779715;5278;18442772852;66720934940;1359756304;873600653;16020621454;23441813;670848687;985;5433;750400;-25;5278;755859
2;92;1571813779715;1571813785128;5413;18915311342;66720935214;1352695260;933792325;16020621728;23433233;670856429;1158;5563;537320;-5;5413;767815
2;93;1571813785128;1571813790421;5293;18496919872;66720934982;1356083071;894556391;16020621496;23435159;670816096;691;6305;687600;13;5293;758503
2;94;1571813790421;1571813795807;5386;18781406274;66720935220;1353720211;917239324;16020621734;23438439;670912076;792;4429;692664;8;5386;762986
2;95;1571813795807;1571813815819;20012;18902817684;66720939316;1348657525;933634665;16020622574;23448408;670900717;5087;14101;1925824;5;20012;2922824
2;96;1571813815819;1571813821605;5786;18819991738;66720935711;1345776448;936168502;16020622225;23445183;670942147;1026;4879;586920;-13;5785;825582
2;97;1571813821605;1571813826932;5327;18610586274;66720935050;1354401898;908885988;16020621564;23437049;670852281;746;6184;696608;-7;5328;759976
2;98;1571813826932;1571813832188;5256;18364886524;66720935016;1359792594;867736669;16020621530;23433950;670829512;1438;1200;406456;4;5255;753449
2;99;1571813832188;1571813837174;4986;17424633822;66720934802;1384788198;641432671;16020621316;23431709;670802903;1201;4368;478344;15;4987;719671
2;100;1571813837174;1571813842152;4978;17391059662;66720934708;1383405531;652762183;16020621222;23433694;670770539;963;6081;672288;-11;4978;715041
2;101;1571813842152;1571813847490;5338;18639012620;66720935025;1355860824;890488490;16020621539;23437292;670924776;1374;5055;712776;-13;5338;678851
2;102;1571813847490;1571813852902;5412;18738253638;66720939237;1332498685;924596388;16020623081;23446183;670904308;1056;4193;579624;0;5412;776230
2;103;1571813852902;1571813858276;5374;18701439446;66720935278;1334830758;926465737;16020621792;23437915;670945785;871;6117;662808;25;5374;773107
2;104;1571813858276;1571813863586;5310;18547671224;66720934980;1341899459;897552196;16020621494;23435261;670860785;785;5267;679512;-17;5309;753889
2;105;1571813863586;1571813868769;5183;18110562554;66720934853;1345852079;856947785;16020621367;23439866;670876908;1000;3316;455544;-8;5184;742684
2;106;1571813868769;1571813873955;5186;18122151888;66720934853;1349777295;830849538;16020621367;23436682;670891505;1150;6027;607224;2;5186;743606
2;107;1571813873955;1571813879239;5284;18448349322;66720934960;1355245809;873868126;16020621474;23435297;670867001;1027;5137;768016;-2;5283;837921
2;108;1571813879239;1571813884663;5424;18918974336;66720935218;1351346456;935176113;16020621732;23440124;670892897;1131;4987;571336;21;5425;777223
2;109;1571813884664;1571813890109;5445;18968561776;66720938854;1352724757;931568822;16020622209;23439730;670840112;859;6065;661776;5;5446;773918
2;110;1571813890109;1571813895463;5354;18694290702;66720935153;1354958962;910350465;16020621667;23435615;670863837;716;5219;726032;-12;5354;765308
2;111;1571813895464;1571813900684;5220;18239071024;66720934914;1363145248;854040625;16020621428;23439054;670871503;1393;2148;339640;15;5221;745606
2;112;1571813900684;1571813905894;5210;18202809880;66720935026;1364342971;845132812;16020621540;23436405;670878467;987;5805;685920;-28;5210;743691
2;113;1571813905894;1571813911191;5297;18502304352;66720935119;1360002281;889382135;16020621633;23434130;670879515;1086;7787;782280;-2;5297;827761
2;114;1571813911191;1571813916608;5417;18894141196;66720935312;1349107751;928203737;16020621826;23435656;670928252;1054;5993;737792;1;5417;780893
2;115;1571813916608;1571813922036;5428;18596154758;66720935169;1341628683;903698993;16020621683;23440912;670888385;973;4621;557616;21;5427;779863
2;116;1571813922036;1571813927363;5327;18600014560;66720937991;1344142283;892433350;16020621835;23438933;670796225;709;6162;697720;-6;5328;762922
2;117;1571813927363;1571813932724;5361;18686658698;66720935189;1343066393;902529722;16020621703;23440304;670917044;820;4423;609184;-16;5361;763767
3;74;1571814543679;1571814549102;5423;18913930328;64063183941;1352713001;929814122;13367710455;23640204;670820909;1135;6966;869656;22;5424;901083
3;75;1571814549102;1571814554490;5388;18755749402;64063183935;1349809780;933637712;13367710449;23636004;670800848;952;6263;783296;-24;5387;769292
3;76;1571814554490;1571814559795;5305;18488004966;64063183774;1350633570;880066751;13367710288;23632752;670807387;966;4794;583728;-7;5305;758024
3;77;1571814559795;1571814565092;5297;18432830690;64063184516;1339883761;884253033;13367711030;23639290;670885882;821;5865;636912;11;5298;755967
3;78;1571814565092;1571814570434;5342;18575519702;64063184399;1339831210;886510741;13367710913;23637596;670868800;666;6079;731272;6;5341;763534
3;79;1571814570434;1571814575622;5188;18059127484;64063184528;1344550540;839353646;13367711042;23638463;670877792;988;5905;621320;4;5188;739100
3;80;1571814575622;1571814580894;5272;18296270320;64063186782;1339615004;882492489;13367710626;23642124;670829849;1100;7195;893592;-3;5273;872093
3;81;1571814580894;1571814586254;5360;18642596336;64063184018;1337250654;931035496;13367710532;23638833;670828031;1068;5995;694184;-10;5359;762157
3;82;1571814586254;1571814591530;5276;18428035612;64063183690;1342730718;894347089;13367710204;23638096;670819912;922;4498;568544;6;5277;759440
3;83;1571814591531;1571814596807;5276;18428559606;64063183691;1343163078;892103979;13367710205;23632653;670833896;859;6110;641992;5;5277;750455
3;84;1571814596807;1571814602090;5283;18445025486;64063183713;1341093725;910882216;13367710227;23633634;670797822;1073;3446;624296;-17;5282;752588
3;85;1571814602090;1571814607372;5282;18450244256;64063183697;1344240780;885605114;13367710211;23631345;670818615;1351;3075;452344;26;5283;751843
3;86;1571814607372;1571814612465;5093;17792975470;64063183506;1351733850;763003797;13367710020;23626044;670791434;1367;5481;530056;3;5092;846462
3;87;1571814612465;1571814617494;5029;17569873746;64063183446;1354438672;702007568;13367709960;23626956;670752598;889;5950;889360;-2;5029;608906
3;88;1571814617494;1571814622845;5351;18663384108;64063188398;1340389487;919845634;13367711167;23639979;670833807;1120;4749;556944;-29;5351;760648
3;89;1571814622845;1571814628222;5377;18711384236;64063183854;1341572060;933160940;13367710368;23632940;670819462;975;5431;610816;16;5377;768158
3;90;1571814628222;1571814633582;5360;18717211826;64063183798;1340265290;925755360;13367710312;23640768;670838533;711;6214;677680;11;5361;767654
3;91;1571814633583;1571814638824;5241;18293529170;64063183673;1345957161;861882721;13367710187;23632392;670817918;843;2928;579040;-11;5241;749308
3;92;1571814638824;1571814643933;5109;17853669276;64063183524;1349041419;807984015;13367710038;23624838;670800576;1561;4796;488520;-16;5110;860987
3;93;1571814643933;1571814649142;5209;18149986350;64063183651;1345842613;847126746;13367710165;23628828;670812197;826;5799;814600;8;5208;654380
3;94;1571814649142;1571814654530;5388;18758873364;64063183118;1331371909;924240303;13367709632;23643165;670886242;1120;4776;539448;0;5389;772453
3;95;1571814654531;1571814659920;5389;18777108180;64063187298;1340752379;924650600;13367710556;23638302;670830826;850;5967;634624;17;5389;775686
3;96;1571814659920;1571814665284;5364;18724896682;64063183221;1339287911;926793049;13367709735;23635598;670850909;658;6026;751896;-18;5364;765930
3;97;1571814665284;1571814670560;5276;18432049298;64063183176;1343630315;890247889;13367709690;23630057;670832082;1172;3655;495520;13;5276;751043
3;98;1571814670560;1571814675727;5167;18060085682;64063182990;1347151722;850355902;13367709504;23627739;670740005;1284;5721;622264;-4;5168;900596
3;99;1571814675728;1571814680922;5194;18152531860;64063183100;1345150298;858323475;13367709614;23625081;670756373;687;7083;913976;-12;5194;740791
3;100;1571814680922;1571814686268;5346;18649480528;64063183305;1337752433;930185051;13367709819;23639966;670813304;1552;3462;412296;-2;5346;1093225
3;101;1571814686268;1571814691508;5240;18258981628;64063183809;1341670912;873122091;13367710323;23638771;670858603;957;3542;437928;12;5240;757104
3;102;1571814691508;1571814696748;5240;18246404312;64063187613;1344231500;844170442;13367711457;23633531;670799864;677;6415;720736;2;5241;751857
3;103;1571814696748;1571814702117;5369;18663701658;64063183273;1343110292;916301499;13367709787;23644735;670906724;899;4296;689976;-4;5368;772471
3;104;1571814702117;1571814707501;5384;18786247196;64063183698;1350884641;935588142;13367710212;23635758;670845823;786;8140;824080;14;5385;767443
3;105;1571814707501;1571814712867;5366;18719119754;64063183155;1352026594;927143625;13367710255;23638484;670819956;949;5645;898352;-21;5366;763721
3;106;1571814712868;1571814718068;5200;18165557250;64063182515;1361384199;856444009;13367709029;23631396;670813885;1421;4322;473536;161;5201;739086
3;107;1571814718069;1571814723265;5196;18149587478;64063182514;1360554334;856305371;13367709028;23631556;670834260;1517;4623;644184;-136;5196;939104
3;108;1571814723265;1571814728650;5385;18780356242;64063182753;1344219887;927434379;13367709267;23641216;670860894;1135;7631;712872;-7;5385;770238
3;109;1571814728650;1571814734005;5355;18689023752;64063186459;1356725484;897568134;13367710303;23632859;670741827;950;3887;571512;-22;5356;769896
3;110;1571814734005;1571814739315;5310;18545323544;64063183724;1357020107;890179738;13367710238;23636263;670798296;935;6103;616128;25;5309;757254
3;111;1571814739315;1571814744641;5326;18599972804;64063183752;1356052311;901234429;13367710266;23633876;670842841;669;5706;718872;3;5326;755087
3;112;1571814744641;1571814749986;5345;18659957488;64063182720;1351118162;910750632;13367709234;23635807;670847179;756;7635;793344;-8;5345;759065
3;113;1571814749986;1571814755170;5184;18106662018;64063183568;1344017932;869968354;13367710082;23632533;670827108;1255;3807;718760;7;5184;872798
3;114;1571814755170;1571814760285;5115;17869035922;64063182474;1349722004;800810243;13367708988;23628947;670820336;1245;2470;379752;3;5115;732508
3;115;1571814760285;1571814765403;5118;17883977416;64063183479;1350537040;804223271;13367709993;23627722;670813263;1394;2180;377400;-18;5119;736732
3;116;1571814765404;1571814771267;5863;18825405564;64063187303;1331661918;920495731;13367710353;23641574;670874572;1400;4798;526120;8;5864;839020
3;117;1571814771268;1571814776677;5409;18866836568;64063183382;1333945715;916774982;13367709896;23636630;670888354;923;5927;631392;5;5409;770627
3;118;1571814776677;1571814782105;5428;18605664468;64063183304;1353429346;902289036;13367709818;23639208;670815631;717;6374;746624;-7;5428;771925
3;119;1571814782105;1571814787291;5186;18118361144;64063183138;1362926972;842359277;13367709652;23626417;670784526;1159;5263;682944;5;5187;853582
3;120;1571814787291;1571814792446;5155;18015940538;64063183095;1364868057;822589040;13367709609;23622983;670746769;1699;835;358088;-3;5155;741059
3;121;1571814792447;1571814797682;5235;18258205638;64063183174;1362589666;842315330;13367709688;23626943;670794860;1343;4060;547424;1;5235;663749
3;122;1571814797682;1571814803093;5411;18817283146;64063183650;1345470699;931698539;13367710164;23636655;670850273;1206;4842;562360;-22;5411;771106
3;123;1571814803093;1571814808505;5412;18873211804;64063186303;1330951876;918389144;13367710147;23639274;670781116;917;5736;638504;11;5413;773404
4;67;1571815384586;1571815389933;5347;18573486068;66721193448;1347388009;862272037;16026245111;24531589;670887936;907;4750;585520;21;5346;765275
4;68;1571815389933;1571815395256;5323;18602223394;66721193076;1348044619;878642875;16026244739;24530684;670779115;822;6228;692216;-24;5324;755258
4;69;1571815395256;1571815400751;5495;18821289678;66721193312;1345251379;897888794;16026244975;24523402;670780822;697;7110;772120;7;5495;785458
4;70;1571815400752;1571815409103;8351;19217763044;66721206360;1343221163;938630479;16026249515;24625873;671175289;1568;11883;1291448;-7;8352;1310003
4;71;1571815409103;1571815414595;5492;19120959058;66721193410;1343125081;924490843;16026245073;24552186;670861428;942;6757;851160;19;5492;786709
4;72;1571815414596;1571815419886;5290;18482539748;66721193048;1348581537;849397311;16026244711;24529217;670835449;983;4600;575104;8;5291;763134
4;73;1571815419886;1571815431365;11479;19153030440;66721197290;1337854461;936573842;16026245489;24537467;670770526;1904;11666;1359360;-16;11478;1638219
4;74;1571815431365;1571815436879;5514;19210465088;66721193470;1345407868;938762074;16026245133;24542512;670844054;996;7233;727720;141;5515;875935
4;75;1571815436879;1571815442157;5278;18436910368;66721193112;1349395500;855587622;16026244775;24534959;670834593;842;8163;937304;-147;5278;790289
4;76;1571815442157;1571815448955;6798;18773377588;66721205202;1344390870;880897352;16026248357;24570922;671044506;1255;6234;895680;13;6798;894065
4;77;1571815448955;1571815454480;5525;19204035978;66721193393;1341408333;939511606;16026245056;24534710;670849241;938;5037;592400;-11;5525;790826
4;78;1571815454480;1571815459967;5487;19152526156;66721193345;1340816680;932885545;16026245008;24540947;670889894;806;6263;703784;-4;5486;782743
4;79;1571815459967;1571815465397;5430;18959830830;66721193272;1344196917;901930444;16026244935;24528441;670859327;695;5913;769072;11;5430;776228
4;80;1571815465397;1571815470820;5423;18919727112;66721196919;1342451322;908950479;16026245326;24541535;670760390;1061;7984;783680;2;5423;850224
4;81;1571815470820;1571815476235;5415;18911378832;66721193813;1340680268;927065427;16026245476;24541583;670906551;725;7590;962528;-16;5416;767919
4;82;1571815476236;1571815481595;5359;18687169990;66721193784;1341506844;879038489;16026245447;24528914;670836347;1091;4106;571840;-3;5360;768322
4;83;1571815481595;1571815486872;5277;18395708438;66721194170;1346594762;823828595;16026245833;24531347;670892524;840;5294;610216;24;5277;757826
4;84;1571815486872;1571815492321;5449;18882374618;66721194519;1344572723;866230398;16026246182;24540923;670917163;767;6474;727816;1;5449;781635
4;85;1571815492321;1571815498192;5871;19307655390;66721194160;1334317406;932736171;16026245823;24531974;670881331;904;7816;820736;-8;5871;837881
4;86;1571815498192;1571815503731;5539;19169515446;66721194202;1339402328;921620988;16026245865;24544302;670865721;1248;7013;845504;11;5539;887212
4;87;1571815503732;1571815512317;8585;19197492842;66721207720;1341372780;935368834;16026250465;24626850;671223810;1689;7764;1054856;-24;8586;1222984
4;88;1571815512317;1571815517763;5446;18978512844;66721192234;1353724417;894056030;16026244483;24540715;670773309;793;6168;701096;6;5446;783705
4;89;1571815517763;1571815523239;5476;19123608374;66721192761;1358357061;911986635;16026244424;24528313;670806732;752;5677;703344;16;5476;775817
4;90;1571815523239;1571815528593;5354;18699498376;66721192642;1361904530;885486763;16026244305;24537374;670843005;961;6602;718656;-1;5354;769278
4;91;1571815528594;1571815533951;5357;18711493444;66721192642;1360540770;892834858;16026244305;24531980;670801559;1192;7236;807264;-8;5357;872863
4;92;1571815533951;1571815539441;5490;19163853274;66721192807;1353736821;935178242;16026244470;24545113;670830982;1071;7377;803664;14;5491;913256
4;93;1571815539441;1571815544824;5383;18793726338;66721192700;1360590085;890784341;16026244363;24533506;670813053;1164;2574;439528;-18;5383;778542
4;94;1571815544824;1571815550150;5326;18607598384;66721192612;1363288717;881132408;16026244275;24533465;670800025;938;5002;567904;4;5326;760557
4;95;1571815550150;1571815559980;9830;19288275934;66721198615;1340766334;924274091;16026246814;24564575;670970702;1469;11773;1281568;3;9830;1399831
4;96;1571815559980;1571815565552;5572;19316879670;66721194378;1337000684;922095002;16026246041;24552913;670953039;767;7683;849584;1;5571;791975
4;97;1571815565552;1571815570998;5446;19000580744;66721193874;1354319766;904388953;16026245537;24532113;670906424;1750;2678;555320;-1;5447;880199
4;98;1571815570998;1571815576301;5303;18527871434;66721193689;1368837189;828794624;16026245352;24531706;670885360;1147;5592;506112;5;5303;757968
4;99;1571815576301;1571815581613;5312;18557249700;66721193699;1367440265;824121162;16026245362;24525612;670867596;864;6001;876928;-2;5312;750022
4;100;1571815581613;1571815587170;5557;19278369980;66721194590;1346831410;930977233;16026246253;24541540;670987160;1130;4478;562928;-10;5557;797628
4;101;1571815587170;1571815592706;5536;19275637736;66721194115;1339456492;935569655;16026245778;24539702;670899416;854;6068;671248;10;5536;784242
4;102;1571815592706;1571815598203;5497;19039159784;66721197628;1339028998;916888821;16026246035;24545237;670825461;742;6914;723448;-5;5496;781235
4;103;1571815598203;1571815603546;5343;18664977698;66721193273;1348552976;863240715;16026244936;24532748;670854377;1025;6251;744376;5;5344;886707
4;104;1571815603547;1571815608832;5285;18461251050;66721193197;1350985265;840447577;16026244860;24531704;670892674;1263;3348;667272;-16;5285;757435
4;105;1571815608832;1571815614226;5394;18796633928;66721193638;1344262091;879897084;16026245301;24535040;670898624;1379;3697;463112;17;5395;731048
4;106;1571815614227;1571815619772;5545;19330312984;66721193548;1338328749;934468300;16026245211;24541934;670865531;1128;4919;577032;-7;5546;795402
4;107;1571815619772;1571815625369;5597;19150880736;66721193497;1340981645;936422607;16026245160;24537406;670866254;858;6615;693456;7;5597;795770
4;108;1571815625369;1571815630935;5566;19054063172;66721193369;1340745836;912440883;16026245032;24532624;670866744;924;3945;714384;4;5565;797180
4;109;1571815630935;1571815636254;5319;18564702124;66721196921;1344060474;831999996;16026245328;24526611;670793136;1559;3899;411336;-2;5319;808405
4;110;1571815636254;1571815641508;5254;18357644924;66721193040;1349086683;817902796;16026244703;24530384;670875661;800;7610;817888;0;5255;756006
4;111;1571815641508;1571815646972;5464;19078847840;66721193377;1343504519;901248539;16026245040;24526907;670783824;1318;4188;668608;-14;5463;664841
4;112;1571815646972;1571815652470;5498;19193056194;66721193296;1341643059;933278684;16026244959;24547207;670875432;1020;4606;586400;4;5498;783070
4;113;1571815652470;1571815657919;5449;19027144860;66721192699;1340109341;938067972;16026244948;24538215;670867766;746;6195;711336;-9;5450;777254
4;114;1571815657919;1571815663372;5453;19000401164;66721193342;1343425683;910254882;16026245005;24539709;670864419;1067;6549;701328;14;5453;834216
4;115;1571815663372;1571815668734;5362;18660808376;66721193914;1347664708;859430459;16026245577;24527906;670951605;706;6976;872984;2;5361;765702
4;116;1571815668734;1571815679408;10674;19234859060;66721197276;1340246719;930031328;16026245683;24538336;670779343;2701;7239;984616;-13;10675;1526202
