0;71;1571837414468;1571837419460;4992;17444832922;64068022895;1354790479;696889523;13367709409;23516120;670774170;880;6499;766448;-16;4992;715162
0;72;1571837419460;1571837425253;5793;17469699496;64068034035;1354329562;687411090;13367712012;23530142;670891030;1094;5456;689056;-6;5794;833204
0;73;1571837425253;1571837433430;8177;18610627300;64068036960;1339847498;937917305;13367714505;23554082;671229365;1356;10313;1072936;21;8176;1164106
0;74;1571837433430;1571837438825;5395;18636331768;64068023258;1342444017;949163682;13367710358;23529860;670850805;814;5805;803408;-6;5395;773081
0;75;1571837438825;1571837444129;5304;18470063026;64068022882;1351789105;904974670;13367709396;23529746;670889288;1525;4948;647096;-8;5304;883874
0;76;1571837444129;1571837449458;5329;18562403938;64068023915;1350660107;909882571;13367710429;23525105;670888254;895;7717;821968;1;5329;760842
0;77;1571837449458;1571837454814;5356;18623524794;64068023023;1346026247;936279569;13367709537;23540007;670923361;1057;4808;683440;-1;5357;769126
0;78;1571837454814;1571837460070;5256;18350610352;64068023668;1353574736;906895914;13367710182;23525058;670803936;1059;5169;621040;-3;5255;747185
0;79;1571837460070;1571837469787;9717;17713760834;64068033594;1360410445;767386845;13367711907;23551470;670934300;1569;12031;1421056;-3;9718;1385433
0;80;1571837469788;1571837475139;5351;18648282744;64068022736;1342297378;946604422;13367709250;23529854;670847942;1291;7240;766264;25;5351;828270
0;81;1571837475139;1571837480417;5278;18425910144;64068027465;1341646931;930586810;13367710723;23526613;670770936;1334;3626;547200;-22;5278;757730
0;82;1571837480417;1571837485669;5252;18309212344;64068023699;1342268657;919208401;13367710213;23526066;670833097;983;4062;629432;9;5252;746435
0;83;1571837485669;1571837491007;5338;18599940246;64068023818;1345501798;952975650;13367710332;23529604;670854812;1116;4492;655784;4;5338;764961
0;84;1571837491007;1571837496299;5292;18352534924;64068024788;1343364115;890294744;13367711302;23536893;670994990;1777;2115;407848;-16;5292;864622
0;85;1571837496299;1571837501277;4978;17327503088;64068024495;1362493969;693299699;13367711009;23526926;670886474;1167;4254;510344;17;4978;714547
0;86;1571837501277;1571837506227;4950;17235322338;64068024460;1365980334;644434207;13367710974;23526300;670859428;1153;3991;524992;-1;4951;707459
0;87;1571837506228;1571837511580;5352;18624074338;64068024170;1353218475;895558744;13367710684;23534142;670912125;1146;5351;683784;6;5352;769821
0;88;1571837511580;1571837516969;5389;18787859328;64068026864;1358520266;942815215;13367710708;23528687;670860822;1103;5653;591456;-4;5389;770862
0;89;1571837516969;1571837522292;5323;18582137882;64068023247;1359870051;916781562;13367709761;23524849;670851510;721;5201;705336;-17;5323;760336
0;90;1571837522292;1571837527316;5024;17548688562;64068022845;1376567127;728457098;13367709359;23521119;670799518;1267;3407;433216;13;5024;720226
0;91;1571837527316;1571837532252;4936;17246463014;64068022836;1382470091;657406616;13367709350;23518529;670772405;1539;4297;502464;16;4936;908012
0;92;1571837532252;1571837537273;5021;17542745340;64068022859;1378814125;712016087;13367709373;23517341;670769574;828;3962;697776;-21;5022;610584
0;93;1571837537274;1571837542644;5370;18694017974;64068023321;1354603778;954761982;13367709835;23527483;670914356;1200;4875;507976;16;5370;769274
0;94;1571837542644;1571837547999;5355;18625632450;64068023320;1353978145;954125078;13367709834;23527044;670890088;909;5901;670344;-13;5356;764574
0;95;1571837548000;1571837553378;5378;18730795520;64068028557;1336408950;934140203;13367711320;23534100;670858164;1040;3967;615304;16;5378;766440
0;96;1571837553378;1571837558632;5254;18340056742;64068023679;1354870339;891676390;13367710193;23528391;670791391;1193;5259;505344;-9;5254;755277
0;97;1571837558632;1571837563974;5342;18647190372;64068023769;1357722761;929209032;13367710283;23523284;670847228;736;7846;977224;0;5343;768373
0;98;1571837563975;1571837569243;5268;18390924602;64068023711;1361562042;890588590;13367710225;23524777;670800840;1173;7330;786648;-7;5269;883185
0;99;1571837569243;1571837574259;5016;17526076082;64068023426;1376062900;736297544;13367709940;23525260;670732756;795;6566;892304;5;5016;720598
0;100;1571837574259;1571837579561;5302;18429906602;64068024106;1357804694;846232336;13367710620;23527654;670849906;1091;5345;564760;-2;5301;757171
0;101;1571837579561;1571837584942;5381;18670719294;64068023361;1333352128;938974912;13367710461;23530115;670815491;845;6865;722280;-13;5381;767844
0;102;1571837584942;1571837590279;5337;18613780170;64068027782;1357530705;938062691;13367710292;23530074;670827733;683;6988;809248;21;5338;758653
0;103;1571837590280;1571837595591;5311;18539999362;64068023743;1356627881;933434858;13367710257;23529161;670870396;773;7791;836512;-6;5311;756361
0;104;1571837595591;1571837600717;5126;17870102160;64068023598;1356942805;780901272;13367710112;23527191;670809699;1123;7607;947720;-15;5127;856679
0;105;1571837600717;1571837605799;5082;17689967360;64068023711;1352192751;739251239;13367710225;23518195;670770088;844;6216;837104;10;5081;673824
0;106;1571837605799;1571837611153;5354;18674909786;64068023826;1354841541;956650992;13367710340;23529785;670853399;1108;5269;618968;11;5355;765140
0;107;1571837611154;1571837616528;5374;18749500018;64068023812;1356425021;948948591;13367710326;23529165;670858941;887;6324;694400;-2;5375;770509
0;108;1571837616529;1571837621871;5342;18644772174;64068023806;1354329937;954590224;13367710320;23522099;670885768;692;6871;842040;-22;5342;762520
0;109;1571837621871;1571837630186;8315;18570358894;64068037155;1344302560;937578915;13367714711;23549900;671144771;1426;12302;1314656;7;8315;1245721
0;110;1571837630186;1571837635553;5367;18702696360;64068022566;1343191155;936257098;13367709666;23528194;670846084;818;7217;987376;14;5367;763404
0;111;1571837635553;1571837640817;5264;18382200226;64068023072;1344193187;916036636;13367709586;23526169;670828356;1020;5205;575248;4;5264;754751
0;112;1571837640817;1571837645983;5166;18046784936;64068022954;1348792808;836020628;13367709468;23520310;670824545;884;5374;622520;-20;5166;731525
0;113;1571837645983;1571837650982;4999;17468812400;64068022922;1353293805;757908192;13367709436;23520458;670747830;634;6233;741480;6;4999;713405
0;114;1571837650982;1571837656116;5134;17932365612;64068022953;1347082217;843212183;13367709467;23520183;670803910;846;7409;765152;-13;5135;729716
0;115;1571837656117;1571837661486;5369;18681281956;64068023245;1340337945;938734272;13367709759;23531220;670884358;1195;9078;903616;5;5370;843747
0;116;1571837661486;1571837666854;5368;18698648948;64068023380;1335435991;936615060;13367709894;23529481;670905088;1018;6577;876360;12;5368;779884
0;117;1571837666854;1571837672178;5324;18517623402;64068027398;1338513069;920102163;13367711242;23535729;670904258;1080;4945;598176;8;5323;754291
0;118;1571837672178;1571837677489;5311;18487342564;64068023903;1353469867;914596544;13367710417;23526288;670864444;739;6269;737656;-3;5311;756877
0;119;1571837677489;1571837682806;5317;18568938606;64068023737;1359949420;915827184;13367710251;23526795;670822081;1434;2639;530984;5;5318;761668
0;120;1571837682807;1571837688070;5263;18360788888;64068022642;1345529705;913958451;13367709156;23525186;670850817;1115;5190;571384;-27;5263;746847
1;74;1571838243976;1571838252312;8336;18685816716;64068027713;1343069724;944061552;13367710763;23594023;670827985;1808;7763;1059024;-2;8336;1107158
1;75;1571838252312;1571838257641;5329;18588993312;64068023168;1343344727;941043064;13367709682;23591222;670888107;875;6428;680552;-10;5329;763126
1;76;1571838257641;1571838263095;5454;18692972906;64068033337;1343069986;940779023;13367711723;23596313;670895645;748;6512;802432;-12;5454;776295
1;77;1571838263095;1571838268406;5311;18404548300;64068023168;1342570519;900232705;13367709682;23593681;670903386;1464;3236;503864;28;5311;836662
1;78;1571838268406;1571838273363;4957;17317847524;64068022744;1357877346;636255209;13367709258;23584762;670792498;1406;3414;410376;-30;4957;711534
1;79;1571838273363;1571838278306;4943;17270159544;64068022729;1358443138;645099426;13367709243;23585304;670736345;848;6303;799896;9;4943;709151
1;80;1571838278306;1571838283646;5340;18537207258;64068023262;1339538241;929449342;13367709776;23591454;670874963;1082;4713;610568;9;5340;745736
1;81;1571838283646;1571838289002;5356;18667170326;64068026476;1333395779;938885102;13367710320;23592575;670851550;905;5913;677072;-7;5356;762311
1;82;1571838289002;1571838294354;5352;18574888398;64068023985;1340384609;942302733;13367710499;23602517;670978647;1165;5163;622168;19;5353;764287
1;83;1571838294354;1571838299427;5073;17706315564;64068023079;1351966023;770128400;13367709593;23588726;670791820;1535;1251;407192;-22;5072;843516
1;84;1571838299427;1571838304373;4946;17282130814;64068022776;1359004533;642874383;13367709290;23585906;670734882;1049;5541;562568;7;4947;709733
1;85;1571838304373;1571838309796;5423;17380334648;64068033749;1355148157;687150768;13367711715;23590108;670783010;1129;5421;755616;-11;5407;634374
1;86;1571838309796;1571838315164;5368;18677113656;64068023315;1354236097;956218523;13367709829;23594621;670889252;1175;5033;621480;22;5367;770385
1;87;1571838315164;1571838320525;5361;18678088060;64068023465;1351436806;951419150;13367709979;23596936;670897594;922;6253;691176;-26;5362;764307
1;88;1571838320526;1571838325863;5337;18601655308;64068028405;1333311151;932648947;13367711174;23589722;670786624;706;6626;803352;0;5338;761592
1;89;1571838325863;1571838331132;5269;18256949892;64068024180;1345661600;878037167;13367710694;23592680;670899134;1310;3896;549944;9;5268;838079
1;90;1571838331132;1571838336094;4962;17272364144;64068024626;1369184657;632291282;13367711140;23587866;670927963;1282;4041;457408;-2;4963;710384
1;91;1571838336094;1571838341079;4985;17341242272;64068024248;1364216633;664188302;13367710762;23587317;670821720;915;5984;759768;13;4984;713552
1;92;1571838341079;1571838346424;5345;18624711774;64068023862;1340994060;946133253;13367710376;23593937;670828591;1102;4440;614088;-14;5346;765072
1;93;1571838346424;1571838351753;5329;18569751680;64068022999;1347119386;942308868;13367709513;23593293;670905459;871;6749;700072;-6;5328;760798
1;94;1571838351753;1571838357101;5348;18635040252;64068022381;1350534766;947135843;13367709481;23588526;670929785;877;4818;736072;18;5348;762460
1;95;1571838357101;1571838362243;5142;17922036696;64068026797;1343388333;795286939;13367710055;23584969;670785251;1690;2169;365720;7;5142;864857
1;96;1571838362243;1571838367202;4959;17324472128;64068022296;1359054467;642310424;13367708810;23582872;670772208;1045;4784;514664;-21;4959;712132
1;97;1571838367202;1571838372170;4968;17357831376;64068023350;1357116655;666913833;13367709864;23579706;670769890;869;5380;760448;-3;4969;648207
1;98;1571838372170;1571838377541;5371;18613567740;64068023774;1340691252;933056380;13367710288;23598284;670991650;1216;5252;583872;13;5370;763461
1;99;1571838377541;1571838382909;5368;18575805570;64068024448;1343497481;939317055;13367710962;23606376;670915756;937;6037;669528;7;5368;771269
1;100;1571838382909;1571838388277;5368;18688813074;64068022833;1354393331;951859726;13367709347;23596159;670888569;1178;4976;657360;-11;5368;1060915
1;101;1571838388277;1571838393339;5062;17688135790;64068022391;1371068210;800391343;13367708905;23589342;670766936;941;4340;501784;-1;5063;722716
1;102;1571838393339;1571838409758;16419;18849940426;64068026807;1356290993;946012709;13367710065;23594271;670826713;3619;12721;1630744;-2;16418;2355662
1;103;1571838409758;1571838415055;5297;18473834060;64068023295;1342512956;919829247;13367709809;23591769;670855944;968;4087;571880;-7;5298;753930
1;104;1571838415056;1571838420019;4963;17280067834;64068024165;1364830072;654331964;13367710679;23588050;670935782;1665;2159;334992;15;4964;836822
1;105;1571838420020;1571838424970;4950;17235921084;64068023820;1368360009;635317451;13367710334;23585949;670882672;1015;5723;660464;9;4950;709054
1;106;1571838424970;1571838430114;5144;17864600588;64068023123;1355818484;778295357;13367710223;23594751;670879001;1128;5162;632232;-2;5144;729474
1;107;1571838430114;1571838435461;5347;18656961860;64068023213;1333119185;937639596;13367709727;23588876;670877520;1090;4789;615992;-2;5348;764474
1;108;1571838435461;1571838440833;5372;18674546538;64068023649;1336212058;938032135;13367710163;23594411;670943228;965;5531;635240;-5;5371;769202
1;109;1571838440833;1571838446161;5328;18559539126;64068023203;1334245711;923099233;13367709717;23591217;670868410;757;6343;772904;9;5328;752470
1;110;1571838446161;1571838451272;5111;17775663082;64068027302;1355475929;766530058;13367711146;23597197;670891725;1211;3451;537880;-1;5111;862304
1;111;1571838451272;1571838456214;4942;17202096096;64068024114;1367296607;634724195;13367710628;23586916;670936859;1323;3439;430552;-11;4943;707264
1;112;1571838456214;1571838461235;5021;17466181918;64068023786;1363700845;682557306;13367710300;23588018;670881729;993;5407;747328;13;5020;599507
1;113;1571838461235;1571838466551;5316;18553366392;64068023262;1340098997;952912242;13367709776;23593115;670868255;1167;5113;591992;-19;5316;762936
1;114;1571838466551;1571838471895;5344;18614795016;64068023258;1340808752;945226924;13367709772;23591807;670889336;949;5958;675088;-3;5344;769783
1;115;1571838471895;1571838477263;5368;18693425944;64068023476;1334697158;937891174;13367709990;23597917;670874681;740;7092;788320;28;5368;764206
1;116;1571838477263;1571838482438;5175;17954994444;64068024540;1355050019;779925979;13367711054;23594612;670991723;1646;1646;397440;-28;5175;896331
1;117;1571838482438;1571838496930;14492;18599262952;64068027517;1346159468;938388388;13367711361;23601171;670923874;2900;15375;1893472;1;14492;2030607
1;118;1571838496930;1571838502384;5454;18640321072;64068022929;1341791847;942733947;13367709443;23596175;670917176;942;6485;666464;18;5454;784135
1;119;1571838502384;1571838507773;5389;18733604998;64068022864;1344819313;945898197;13367709378;23596136;670916074;878;4815;729200;-17;5390;763484
1;120;1571838507774;1571838512976;5202;18170717182;64068022538;1345305166;834269923;13367709052;23589143;670799740;1279;3907;519664;1;5203;827515
1;121;1571838512976;1571838517893;4917;17180650302;64068022229;1357282723;643211330;13367708743;23580826;670758482;1422;3005;362624;17;4917;700390
1;122;1571838517893;1571838522854;4961;17333679910;64068022271;1359212457;641528256;13367708785;23584678;670758743;842;5962;809624;-82;4960;696416
1;123;1571838522854;1571838528178;5324;18585384484;64068022689;1342301128;929574424;13367709203;23590111;670869499;1255;5069;610808;79;5324;698290
2;70;1571839134680;1571839139911;5231;18255582164;64068023714;1344430563;900346336;13367710228;23727723;670828334;1123;6943;883744;-156;5231;825849
2;71;1571839139911;1571839144863;4952;17303190730;64068023363;1352930506;724163036;13367709877;23718676;670749056;1454;2817;478760;-14;4952;711460
2;72;1571839144864;1571839149812;4948;17285788844;64068023365;1359221046;638593863;13367709879;23719156;670763492;944;4339;516952;16;4949;717113
2;73;1571839149812;1571839155135;5323;18560845096;64068023771;1343410431;919159885;13367710285;23723155;670878808;1122;5531;562720;1;5323;753710
2;74;1571839155135;1571839160470;5335;18592707552;64068027351;1341858302;944260748;13367710609;23726315;670893230;822;7197;734768;9;5335;760357
2;75;1571839160470;1571839165788;5318;18554984218;64068023306;1339198378;927811147;13367709820;23723550;670882877;690;7169;859496;-11;5317;759960
2;76;1571839165788;1571839170823;5035;17578476796;64068022963;1352196932;725600346;13367709477;23719112;670852182;1416;4309;694592;-10;5035;872865
2;77;1571839170823;1571839175776;4953;17307801702;64068022739;1359593916;641207401;13367709253;23718260;670793717;1327;4829;517056;17;4954;709075
2;78;1571839175776;1571839181061;5285;18348095210;64068023446;1342677297;852991507;13367709960;23731537;670906037;1126;5302;738264;-14;5285;703625
2;79;1571839181061;1571839186417;5356;18554729302;64068023974;1342075094;939811649;13367710488;23738202;670964755;1061;4627;564736;-5;5356;761682
2;80;1571839186417;1571839191795;5378;18689224210;64068022761;1339977394;944675883;13367709861;23730325;670902820;825;7020;745584;7;5378;770011
2;81;1571839191795;1571839197140;5345;18533060858;64068028677;1340797224;933139316;13367711446;23734707;670919787;745;7637;881344;-1;5345;764242
2;82;1571839197140;1571839202458;5318;18538480670;64068023759;1342842246;923824096;13367710273;23725211;670867781;1102;8123;911976;14;5317;829725
2;83;1571839202458;1571839207715;5257;18359473574;64068022641;1342896648;922856750;13367709155;23723611;670903230;1403;2768;579832;5;5258;755878
2;84;1571839207716;1571839212647;4931;17232192682;64068022243;1358177178;645515421;13367708757;23716824;670748899;872;4868;550440;-8;4932;708920
2;85;1571839212647;1571839217591;4944;17276436522;64068023284;1358620661;642764158;13367709798;23716929;670715847;837;4856;649296;-64;4944;692321
2;86;1571839217591;1571839222925;5334;18602365306;64068022763;1345562172;909515487;13367709277;23727992;670922903;972;7027;774320;67;5334;506367
2;87;1571839222925;1571839228280;5355;18691443556;64068022710;1341483351;943334428;13367709224;23725114;670908983;788;7528;856600;-20;5355;763520
2;88;1571839228280;1571839233640;5360;18639207384;64068028017;1341507054;947514416;13367711275;23730112;670836304;1865;3589;570432;13;5360;882873
2;89;1571839233640;1571839238974;5334;18601000936;64068023778;1341470600;934959103;13367710292;23723946;670827937;1086;4812;644856;3;5334;761735
2;90;1571839238974;1571839243969;4995;17449542444;64068023418;1356218353;708725158;13367709932;23718191;670728900;867;5264;576968;-3;4994;713906
2;91;1571839243969;1571839248930;4961;17335397600;64068022692;1358984410;653505945;13367709792;23717987;670754487;714;6288;693048;145;4962;761594
2;92;1571839248930;1571839254104;5174;18068391914;64068023611;1349744775;818312083;13367710125;23716785;670805197;1179;2052;432912;-150;5174;858119
2;93;1571839254104;1571839259448;5344;18643989468;64068023807;1340937082;950997580;13367710321;23721213;670852202;1192;4792;533904;8;5344;773347
2;94;1571839259448;1571839264795;5347;18653231414;64068023799;1343148258;941399708;13367710313;23725267;670862891;844;7344;797520;-12;5346;760257
2;95;1571839264795;1571839270144;5349;18652076846;64068026958;1341682640;948368340;13367710216;23724434;670846342;732;9503;1038360;4;5350;765212
2;96;1571839270144;1571839275466;5322;18575180106;64068023761;1341828633;946864125;13367710275;23723026;670863497;755;8805;1044024;13;5322;757436
2;97;1571839275466;1571839280780;5314;18548605624;64068023738;1340370645;948990725;13367710252;23722138;670870920;792;8368;928504;147;5313;786401
2;98;1571839280780;1571839285889;5109;17777273462;64068023956;1353627691;774029959;13367710470;23719560;670850092;1009;8326;930472;-145;5109;820139
2;99;1571839285889;1571839290898;5009;17439876076;64068024185;1361218487;685288650;13367710699;23718870;670822385;859;4849;813744;-70;5010;624814
2;100;1571839290898;1571839296281;5383;18611216556;64068024623;1341914589;941258311;13367711137;23733235;670976953;1148;5282;588720;65;5383;752264
2;101;1571839296281;1571839301640;5359;18663409074;64068023833;1355283377;946800480;13367710347;23728346;670864227;873;6077;689384;0;5358;765331
2;102;1571839301640;1571839306999;5359;18657992912;64068026851;1340147918;944443880;13367710109;23729777;670843140;755;7769;834104;-18;5359;766469
2;103;1571839306999;1571839312315;5316;18553815488;64068023747;1343207564;934985503;13367710261;23724567;670943044;927;7739;881528;159;5317;804403
2;104;1571839312316;1571839317646;5330;18611824062;64068023086;1343149710;931604405;13367710186;23723472;670843005;981;8220;931480;-153;5331;793160
2;105;1571839317646;1571839323057;5411;18506730780;64068024128;1342201086;926610786;13367710642;23727980;670905714;968;5302;813760;-8;5410;768399
2;106;1571839323057;1571839328305;5248;18267429042;64068024484;1342000230;898570909;13367710998;23720994;670947836;980;5109;544472;12;5249;749900
2;107;1571839328306;1571839333344;5038;17592847868;64068023463;1348156090;787482907;13367709977;23719288;670794629;675;6351;740344;-3;5039;720709
2;108;1571839333344;1571839338434;5090;17781597252;64068023512;1350971106;805685990;13367710026;23718737;670777321;781;7410;779944;19;5090;722841
2;109;1571839338434;1571839343827;5393;18632074116;64068024408;1338270936;941638272;13367710922;23730491;670945321;1154;8746;837104;48;5393;876715
2;110;1571839343827;1571839349195;5368;18719499938;64068027744;1334934064;934532834;13367711099;23725765;670810442;786;7794;983992;-47;5368;771677
2;111;1571839349196;1571839354521;5325;18573496288;64068023846;1341762963;930741676;13367710360;23724425;670841770;1021;4508;640952;-29;5325;754984
2;112;1571839354521;1571839359514;4993;17444421348;64068022392;1356792774;697270459;13367708906;23722906;670784927;966;4910;566400;26;4994;715806
2;113;1571839359514;1571839364462;4948;17289815524;64068022258;1358455430;644323082;13367708772;23717744;670768148;742;6267;719120;-9;4948;712319
2;114;1571839364462;1571839369801;5339;18598736476;64068022716;1340628908;917221968;13367709230;23728570;670898042;1348;3262;527368;-5;5338;769826
2;115;1571839369801;1571839375124;5323;18531177166;64068022963;1341057925;937812688;13367709477;23723650;670913264;1306;5839;643208;98;5323;833998
2;116;1571839375124;1571839380496;5372;18694030238;64068023860;1347418986;948539677;13367710374;23727039;670853255;874;8211;989864;-102;5373;772942
2;117;1571839380497;1571839385835;5338;18625809402;64068027023;1354560857;951068375;13367710378;23725670;670828429;1060;4862;639752;-5;5339;765969
2;118;1571839385835;1571839390805;4970;17363320246;64068022826;1381684877;665748396;13367709340;23720573;670784315;843;5885;635480;21;4970;717077
2;119;1571839390805;1571839395756;4951;17296795638;64068022811;1381488074;655542367;13367709325;23721211;670786032;594;5121;743768;-120;4951;645910
3;73;1571839961817;1571839968178;6361;18579162986;64068035791;1336173842;939740605;13367713358;23629451;671083339;962;7675;1010304;-2;6362;904827
3;74;1571839968178;1571839973490;5312;18542304994;64068022462;1338940787;935150508;13367709562;23612258;670907201;1353;6375;686368;1;5311;860608
3;75;1571839973490;1571839978769;5279;18431399306;64068023241;1340505404;922111455;13367709755;23613538;670916354;1175;6231;766944;16;5279;842455
3;76;1571839978769;1571839983734;4965;17349108168;64068022751;1353650446;721282942;13367709265;23598112;670805645;942;5052;592600;-9;4965;713946
3;77;1571839983734;1571839988650;4916;17181243208;64068022849;1355489613;653393420;13367709363;23603048;670807648;769;5892;671192;-1;4917;708053
3;78;1571839988650;1571839996492;7842;18204093074;64068035815;1341328570;886794126;13367713781;23630119;671175096;1255;11096;1151392;2;7841;1124843
3;79;1571839996492;1571840001860;5368;18685657138;64068023368;1348551445;947832976;13367709882;23618485;670872644;884;8661;962296;0;5368;770659
3;80;1571840001860;1571840007219;5359;18648304644;64068023266;1347807989;945208830;13367709780;23619499;670914192;870;8778;1032624;-6;5359;765913
3;81;1571840007219;1571840012566;5347;18653978934;64068028165;1350482059;943304240;13367710934;23609997;670878029;1226;7724;852448;-8;5347;895984
3;82;1571840012566;1571840017906;5340;18632555624;64068022772;1348429489;950191891;13367709286;23619428;670938959;846;6635;926232;-14;5340;760866
3;83;1571840017906;1571840023203;5297;18444599896;64068024224;1345872197;917622606;13367710738;23615172;670960059;1061;5103;560888;27;5297;759325
3;84;1571840023203;1571840028201;4998;17388086956;64068024211;1362948083;696763821;13367710725;23614664;670863361;832;5338;601328;0;4998;718554
3;85;1571840028201;1571840033120;4919;17129234504;64068023949;1367157978;639322697;13367710463;23615592;670842462;658;5737;754784;-76;4919;691102
3;86;1571840033120;1571840038476;5356;18666727946;64068022911;1347019369;937310900;13367709425;23618728;670944013;923;8051;895456;74;5356;517615
3;87;1571840038476;1571840043842;5366;18651614610;64068023822;1346598235;939700614;13367710336;23618060;670902118;1275;7859;887440;-17;5367;850037
3;88;1571840043842;1571840049183;5341;18620755320;64068027411;1338203869;945953584;13367710766;23612557;670843699;1090;4579;695112;-2;5341;763027
3;89;1571840049184;1571840054511;5327;18598295702;64068023283;1338465872;946125814;13367709797;23614503;670936551;972;5665;573472;20;5327;761191
3;90;1571840054511;1571840059812;5301;18506090424;64068023121;1340015181;927606331;13367709635;23613302;670896212;666;6541;761160;-26;5301;754524
3;91;1571840059812;1571840065036;5224;18244815248;64068023146;1342793961;879042048;13367709660;23608590;670879716;1181;4459;569704;26;5224;852589
3;92;1571840065036;1571840069995;4959;17327444980;64068022780;1350384375;737516793;13367709294;23601194;670798963;688;8574;979544;-15;4959;711050
3;93;1571840069995;1571840075180;5185;18106081376;64068023086;1342614874;854254717;13367709600;23606811;670878224;1003;6119;720480;-11;5185;737871
3;94;1571840075180;1571840080485;5305;18495663688;64068023190;1337965226;944277031;13367709704;23614289;670912423;950;6463;656440;10;5305;759064
3;95;1571840080485;1571840085796;5311;18433607410;64068028349;1341958785;916303786;13367711607;23625914;670902504;728;6618;753184;8;5311;752348
3;96;1571840085796;1571840091053;5257;18350350326;64068023697;1344559988;929038378;13367710211;23616628;670863061;863;5969;731464;2;5257;748761
3;97;1571840091053;1571840096362;5309;18538523302;64068023754;1340596091;921948002;13367710268;23612241;670860343;1199;7379;836256;11;5309;904282
3;98;1571840096362;1571840101702;5340;18545846662;64068024115;1345385783;936638117;13367710629;23623713;670943936;780;8077;978664;-10;5340;766688
3;99;1571840101702;1571840106752;5050;17633718816;64068023494;1366269126;765910985;13367710008;23604958;670786658;1197;2882;465568;7;5050;895609
3;100;1571840106752;1571840111689;4937;17251229330;64068023349;1375924933;671983421;13367709863;23608865;670740240;941;3419;444216;-14;4938;713424
3;101;1571840111690;1571840116669;4979;17397908960;64068023392;1378326295;661923050;13367709906;23600228;670744038;807;5840;670992;-12;4979;694778
3;102;1571840116669;1571840123127;6458;18638784130;64068026520;1338429733;938835384;13367710145;23618716;670856848;1083;8524;991184;17;6458;916352
3;103;1571840123127;1571840128443;5316;18556173534;64068023745;1338202581;946374886;13367710259;23610114;670884080;751;8171;892456;-16;5316;760532
3;104;1571840128443;1571840133788;5345;18627901436;64068023885;1345345539;940278619;13367710399;23615930;670935098;844;9668;1029680;24;5345;766443
3;105;1571840133788;1571840139122;5334;18612890884;64068023789;1349474288;948147852;13367710303;23618795;670904865;1291;6924;917584;-17;5335;875014
3;106;1571840139122;1571840144465;5343;18636607270;64068023784;1349029785;949172651;13367710298;23613899;670892348;1019;5938;750224;10;5342;764343
3;107;1571840144465;1571840149741;5276;18419498408;64068023693;1352154107;919670887;13367710207;23611683;670835528;923;5087;579360;5;5276;757853
3;108;1571840149741;1571840154718;4977;17386468254;64068023391;1371865813;718589665;13367709905;23599746;670727160;745;6444;688840;-2;4977;711770
3;109;1571840154718;1571840164944;10226;18031784458;64068036739;1361362686;825773629;13367714645;23653247;671187883;1694;13754;1681520;-18;10227;1232444
3;110;1571840164944;1571840170303;5359;18559155438;64068022613;1355326531;934938071;13367709713;23621891;670907161;1609;5493;736624;23;5358;880797
3;111;1571840170303;1571840175657;5354;18680460268;64068023170;1354888181;953125823;13367709684;23620615;670914676;1192;4971;620856;-8;5354;766594
3;112;1571840175657;1571840181020;5363;18673957428;64068023467;1350853629;946651118;13367709981;23620691;670955252;963;5895;654408;-4;5364;770765
3;113;1571840181020;1571840186326;5306;18448044766;64068023840;1340027701;917431373;13367710354;23624194;670976537;764;6994;748248;12;5305;757228
3;114;1571840186326;1571840191617;5291;18435653162;64068023408;1343199567;924463264;13367709922;23616155;670943877;1214;3921;618480;2;5291;758256
3;115;1571840191617;1571840196855;5238;18287306504;64068023199;1343311191;921219063;13367709713;23608534;670849423;905;8036;826592;-9;5238;753686
3;116;1571840196855;1571840201843;4988;17423246530;64068022924;1351712929;774981367;13367709438;23599145;670798414;1045;6542;841352;-7;4988;809869
3;117;1571840201843;1571840207025;5182;18035073400;64068027045;1344076923;851948854;13367710889;23610053;670840280;924;7872;922784;7;5182;741025
3;118;1571840207025;1571840212371;5346;18639155116;64068022719;1333833797;936769364;13367709233;23623212;670969656;1156;5244;582712;0;5347;760787
3;119;1571840212372;1571840217656;5284;18421512624;64068022606;1335158625;920943187;13367709120;23614848;670926926;780;6049;699880;-12;5284;755778
3;120;1571840217656;1571840222985;5329;18596675978;64068022672;1340232894;924159218;13367709186;23614715;670949372;777;7372;785504;-2;5330;760306
3;121;1571840222985;1571840228302;5317;18532242236;64068022709;1340950013;936063259;13367709223;23614552;670927091;719;8038;892544;17;5316;759492
3;122;1571840228302;1571840233574;5272;18395019318;64068022600;1337137471;926299466;13367709114;23606535;670906440;1184;7875;908920;7;5272;867523
4;76;1571840806813;1571840812168;5355;18605749440;64068023857;1335253471;943787536;13367710371;25695889;670924155;760;6708;836344;11;5356;760574
4;77;1571840812169;1571840817246;5077;17733480762;64068022824;1348388236;773242623;13367709924;25698953;670837697;1417;4949;564160;-11;5077;817146
4;78;1571840817246;1571840822176;4930;17226130616;64068022247;1355711897;652050381;13367708761;25688703;670807142;660;7024;881192;12;4931;709350
4;79;1571840822176;1571840827496;5320;18530625724;64068023822;1347563660;891879499;13367710336;25693884;670866136;1143;4903;588376;-4;5319;722348
4;80;1571840827496;1571840832855;5359;18707736426;64068022715;1347309178;953486760;13367709229;25694844;670922526;903;6001;673520;-7;5360;766445
4;81;1571840832855;1571840838285;5430;18739682248;64068027877;1351018638;945544827;13367710646;25689246;670952842;750;7118;809224;24;5429;777021
4;82;1571840838285;1571840843634;5349;18610412242;64068023438;1346206487;925147613;13367709952;25697324;670953875;807;5922;741208;-5;5349;763552
4;83;1571840843634;1571840848673;5039;17540234724;64068023866;1362618302;700925881;13367710380;25692942;670973769;1325;3763;502776;-17;5039;858918
4;84;1571840848673;1571840853663;4990;17373609158;64068023356;1368733203;636314342;13367709870;25725942;670907495;652;7569;909304;-57;4991;690731
4;85;1571840853663;1571840859044;5381;18752554922;64068023474;1342730884;927429100;13367709988;25673299;670937320;1176;4638;629104;71;5381;722068
4;86;1571840859044;1571840864390;5346;18656997338;64068023316;1339694824;937788608;13367709830;25717404;670921772;890;6487;638880;8;5345;766672
4;87;1571840864390;1571840869772;5382;18697244574;64068023451;1333555412;945559239;13367709965;25698825;670977678;756;6400;788448;-21;5382;766355
4;88;1571840869772;1571840875130;5358;18645731394;64068027890;1343046611;942805069;13367711148;25703128;670912719;755;6383;791088;20;5359;765583
4;89;1571840875130;1571840880192;5062;17647237102;64068022823;1348716164;735787535;13367709923;25707177;670823184;1524;4795;558152;-2;5062;857241
4;90;1571840880192;1571840885188;4996;17407181128;64068023792;1357654493;693001123;13367710306;25695282;670866677;717;7405;846464;-13;4996;715614
4;91;1571840885188;1571840890572;5384;18650300464;64068024938;1342023865;911147475;13367711452;25703253;671054725;1220;4954;646632;-4;5384;781280
4;92;1571840890572;1571840895948;5376;18754240346;64068023821;1348976357;948870976;13367710335;25704008;670928699;842;6824;666432;21;5376;765921
4;93;1571840895949;1571840901246;5297;18497018130;64068023719;1352026038;920158737;13367710233;25693574;670936977;642;6844;776552;-1;5298;754643
4;94;1571840901246;1571840906571;5325;18585298490;64068023752;1347586597;940528700;13367710266;25686863;670905563;779;6426;825368;-11;5324;756402
4;95;1571840906571;1571840911721;5150;17904224404;64068027165;1348073852;780734647;13367710423;25677866;670839936;1259;2897;511584;-6;5150;855176
4;96;1571840911721;1571840916702;4981;17337801198;64068024173;1368271572;641009495;13367710687;25691250;670930711;858;9187;852904;6;4982;716426
4;97;1571840916702;1571840921980;5278;18369803512;64068023838;1340186779;863389103;13367710352;25710766;670886680;1369;3436;567232;14;5278;971794
4;98;1571840921981;1571840927345;5364;18713746224;64068023812;1329543987;939153267;13367710326;25707231;670881899;1066;3143;476808;-15;5364;775549
4;99;1571840927345;1571840932639;5294;18477254840;64068023732;1341064305;932257077;13367710246;25705655;670862381;867;6092;657584;-11;5294;759260
4;100;1571840932639;1571840937976;5337;18633454546;64068023766;1352431242;921910840;13367710280;25675552;670875528;664;6993;832064;8;5337;767370
4;101;1571840937976;1571840943347;5371;18696394270;64068024126;1347673405;924857671;13367710640;25648744;670957135;831;6401;824264;1;5371;764875
4;102;1571840943347;1571840948675;5328;18553335878;64068026826;1349089007;929711065;13367710084;25709112;670911591;1122;7495;747320;-3;5328;764321
4;103;1571840948675;1571840953999;5324;18579093782;64068022617;1351758398;919131854;13367709717;25695867;670934841;976;7530;861888;16;5324;876460
4;104;1571840953999;1571840959177;5178;18029347426;64068023331;1342929990;850264580;13367709845;25700770;670898580;937;6517;897184;-2;5178;737294
4;105;1571840959177;1571840964206;5029;17569024172;64068022839;1354666377;734460191;13367709353;25695558;670829880;990;4514;590800;2;5029;723730
4;106;1571840964206;1571840969548;5342;18647144966;64068023143;1340151783;923423652;13367709657;25693633;670939893;959;7150;668696;1;5342;763257
4;107;1571840969548;1571840974858;5310;18537272812;64068023111;1340431281;932880645;13367709625;25702556;670908687;759;6798;782696;-23;5310;757816
4;108;1571840974858;1571840980223;5365;18647164968;64068023403;1331707953;936983238;13367709917;25713232;670980892;775;8128;871808;25;5365;766508
4;109;1571840980223;1571840985315;5092;17754193782;64068023146;1352037534;738368233;13367709660;25690048;670878213;1064;7286;943352;-20;5092;807355
4;110;1571840985315;1571840994070;8755;18713975006;64068027790;1337397791;933778718;13367711426;25721659;670988546;1798;9817;1242432;16;8755;1160633
4;111;1571840994070;1571840999430;5360;18693845986;64068023829;1332961722;943690098;13367710343;25717924;670894194;906;6040;651784;-10;5361;765547
4;112;1571840999431;1571841004788;5357;18661598236;64068023818;1334055114;946159804;13367710332;25697866;670917286;726;6970;770920;9;5357;760477
4;113;1571841004788;1571841010115;5327;18565487750;64068022926;1342990304;920889200;13367709440;25689134;670956572;712;6887;786904;-8;5327;756397
4;114;1571841010115;1571841015449;5334;18622582948;64068022667;1355493327;945877760;13367709181;25687252;670870742;961;7173;907712;9;5335;837258
4;115;1571841015449;1571841020836;5387;18681858218;64068023179;1346888110;933426306;13367709693;25699615;671014956;821;7057;938768;-21;5386;769664
4;116;1571841020836;1571841026171;5335;18518228426;64068022963;1342867125;909218213;13367710063;25705283;671053858;1008;5783;622312;16;5336;768252
4;117;1571841026171;1571841031299;5128;17837002792;64068028031;1353276538;803061512;13367711289;25731131;670932689;928;5529;608064;0;5128;729004
4;118;1571841031299;1571841036330;5031;17514133720;64068023014;1358623531;745652812;13367709528;25687040;670961928;625;6114;757008;-18;5031;717910
4;119;1571841036331;1571841041546;5215;18100481692;64068023171;1351805142;855044302;13367709685;25691477;670984065;845;8252;817184;19;5215;739697
4;120;1571841041546;1571841046896;5350;18667079368;64068022695;1357443214;933164310;13367709209;25694850;670924241;1212;8603;854096;9;5351;846674
4;121;1571841046896;1571841052399;5503;18749178088;64068022910;1353118386;953770438;13367709424;25711737;671006593;919;7033;926480;-23;5502;790402
4;122;1571841052399;1571841057603;5204;18067122444;64068023444;1350361008;822877086;13367709958;25706790;671009118;1061;4213;565152;-5;5204;745603
4;123;1571841057603;1571841062604;5001;17416160420;64068023083;1357606598;734018899;13367709596;25680886;670910622;805;5935;643128;27;5002;718201
4;124;1571841062604;1571841071100;8496;18623907752;64068027361;1342462691;941395569;13367710997;25711468;670914912;2082;7599;958248;-2;8495;1219305
4;125;1571841071100;1571841076416;5316;18555193290;64068022690;1341904751;941516544;13367709204;25732171;670984678;1141;7914;839144;-10;5316;843173
