0;37;1571846544511;1571846552970;8459;27425139174;65361524345;1831484863;713698087;13129293318;29851020;931246808;7;0;2680;1;7;7
0;38;1571846553020;1571846561495;8475;27418303308;64618484011;1845877330;732590754;12860613474;29620496;929970760;48;22;9456;-1;92;354
0;39;1571846561545;1571846569819;8274;26791462820;63067951614;1844247488;698825821;12296019995;29093492;929534434;8;0;2768;0;7;7
0;40;1571846569855;1571846578188;8333;27700178208;63902313122;1844687380;802482226;12599810084;29474952;931725754;9;1;2712;1;8;8
0;41;1571846578213;1571846586410;8197;26290407610;63981112409;1844807339;682845655;12629044921;29352603;931323900;46;16;8456;0;106;454
0;42;1571846586435;1571846594635;8200;27273322972;65229266102;1845126493;702231890;13080597550;29922975;931526632;11;0;2352;0;7;9
0;43;1571846594661;1571846602736;8075;27069113356;65159502982;1853176537;694047184;13056348323;29800498;934875374;8;0;2768;0;6;6
0;44;1571846602760;1571846611111;8351;27600245734;64457466307;1825161186;850996225;12800241992;29777588;930888474;10;0;2784;0;8;8
0;45;1571846611136;1571846619486;8350;27468540594;65369757032;1839940541;757812552;13132250756;29795077;934275448;48;26;9632;0;93;443
0;46;1571846619511;1571846627695;8184;26659115280;64956859345;1846371391;690383995;12982322303;29646939;933046612;12;0;2808;0;8;10
0;47;1571846627722;1571846635815;8093;26703263490;65180187942;1856701487;657820801;13063859404;29839874;933152054;8;0;2768;0;7;7
0;48;1571846635841;1571846643934;8093;27070489406;65344946412;1844408317;727701858;13124925167;29751303;933075275;12;0;2808;0;9;12
0;49;1571846643960;1571846652456;8496;26450779266;65315306618;1849735415;622481607;13111912577;29912930;934859463;41;21;9344;0;111;298
0;50;1571846652481;1571846660453;7972;26828272194;65365777995;1836552747;694572538;13131013144;29716141;931666378;8;0;2768;0;6;6
0;51;1571846660480;1571846668689;8209;26662953766;65052339021;1834897781;664058098;13016739993;29879977;932438456;11;0;2792;0;9;9
0;52;1571846668715;1571846676753;8038;26867577000;65284195523;1838673678;656559971;13101728611;29777762;933148579;9;0;2856;-1;7;7
0;53;1571846676778;1571846684727;7949;26777273664;65393175249;1851372192;634193062;13140974166;29815792;934347883;43;19;8744;4;63;377
0;54;1571846684752;1571846692704;7952;26715260018;65382153804;1866249076;627171714;13137273237;29815255;932523883;13;0;3160;-3;67;164
0;55;1571846692731;1571846700747;8016;26839139120;65365100453;1860224349;650633089;13129862253;29813511;933608544;12;0;2808;0;7;9
0;56;1571846700772;1571846708879;8107;26971459066;65043690226;1836818977;658400792;13013930485;29804063;933293048;8;0;2768;0;7;7
0;57;1571846708905;1571846716849;7944;26703661194;65269647638;1836707091;628137114;13095679109;29880076;931980487;32;22;9200;0;107;229
0;58;1571846716875;1571846725090;8215;26573046236;65071733819;1847928554;603556355;13024829984;29721349;931074351;8;0;2768;0;9;9
0;59;1571846725117;1571846733317;8200;27054632784;65375149899;1844805578;670733528;13135244282;29883153;931453760;12;0;2808;0;7;9
0;60;1571846733342;1571846741410;8068;26688795766;65359219015;1841048597;627067370;13129137428;29713343;932100329;8;0;2768;0;6;6
0;61;1571846741435;1571846749415;7980;26812366808;65339136610;1840380815;640277609;13122480568;29693258;932394716;12;0;2808;0;9;12
0;62;1571846749440;1571846757518;8078;26873133176;65362134452;1847692641;645574993;13130013092;29783172;932210255;52;16;9256;0;101;495
0;63;1571846757545;1571846765558;8013;26662163030;65385682160;1838512532;627310010;13139221676;29815395;931978038;12;0;2808;0;9;11
0;64;1571846765584;1571846773625;8041;26999966880;65357421256;1861868441;654259156;13128967125;29685006;933014652;8;0;2768;0;7;7
0;65;1571846773650;1571846781735;8085;27090018512;65308347220;1868116811;664067792;13110401827;29819013;933013262;35;20;9336;0;105;270
0;66;1571846781761;1571846789894;8133;26475721176;65305918646;1844331155;586758206;13110342155;29788086;932831424;458;9;57856;0;1442;1784
0;67;1571846789921;1571846798099;8178;27055151960;65357692003;1846059862;654739558;13128404651;29802373;930227890;8;0;2768;0;6;6
0;68;1571846798124;1571846806234;8110;26761694880;65378724682;1839702341;631811373;13136255624;29777070;930382876;11;1;2888;-1;9;9
0;69;1571846806259;1571846814300;8041;26589905294;65292474875;1841764269;594462673;13105156279;29705685;931984664;8;0;2768;0;7;7
0;70;1571846814342;1571846822463;8121;26973884564;64983901902;1840245358;665029773;12992659239;29703078;930924865;136;27;11216;1;170;2308
0;71;1571846822491;1571846830648;8157;26747915108;65353356152;1860799513;611789396;13126828567;29841162;932483607;9;0;2856;-1;8;8
0;72;1571846830673;1571846838688;8015;26599884248;65155547179;1855170610;605860094;13055200473;29637754;931660432;10;0;2704;1;7;7
0;73;1571846838714;1571846846774;8060;27008899744;65384946553;1844690888;655610786;13138810889;29744805;932975342;8;0;2768;0;6;6
0;74;1571846846799;1571846854865;8066;26660943200;65329867194;1857282160;593521854;13118823687;29634629;932879072;61;36;12776;0;143;684
0;75;1571846854892;1571846862920;8028;26829186300;65326218761;1840393550;634883575;13117294499;29728289;932483555;8;0;2768;0;6;6
0;76;1571846862945;1571846871011;8066;26761123582;65328474924;1844929313;634857370;13117961622;29708676;931200465;13;0;2896;-1;10;11
0;77;1571846871037;1571846878982;7945;26525252990;64889318292;1842118651;612859616;12959103549;29705017;931867229;7;0;2680;1;7;7
0;78;1571846879007;1571846887171;8164;27145328130;65338560712;1841617786;655259119;13121711978;29846477;933849934;34;31;9856;0;106;206
0;79;1571846887220;1571846895167;7947;26038110120;65072361459;1846795468;546608627;13024595894;29655560;930718317;8;0;2768;0;6;6
0;80;1571846895210;1571846903190;7980;26185552016;64470288966;1843187288;565611010;12805988241;29462006;930549868;12;0;2880;-1;11;11
0;81;1571846903243;1571846911276;8033;26473904790;64017908531;1834935133;629352504;12642244155;29419716;930279574;7;0;2680;1;8;8
0;82;1571846911320;1571846919361;8041;26809250000;64856355633;1845603878;628332801;12945976299;29645810;931277013;51;27;9672;0;100;458
0;83;1571846919389;1571846927461;8072;26194705632;65144140393;1860400161;536448898;13051533264;29638743;932698468;8;0;2768;0;8;8
0;84;1571846927497;1571846935574;8077;26914401536;65114331263;1856110732;650086725;13040134180;29653861;934467600;12;0;2808;0;8;11
0;85;1571846935631;1571846943572;7941;26620219712;65060833475;1854804809;598241155;13021051696;29602801;933014335;40;24;9672;0;134;340
0;86;1571846943598;1571846951622;8024;26966076192;65325311600;1839665736;642515366;13117521195;29660057;933056334;8;0;2768;0;7;7
1;25;1571847315201;1571847324626;9425;31350350634;74696912212;1874012610;755613534;16853163389;27988925;928151268;96;2;9504;0;162;1628
1;26;1571847324651;1571847334132;9481;31942528824;76106683441;1886405510;818016614;17366100405;28442221;928922206;16;2;2936;0;40;67
1;27;1571847334158;1571847343760;9602;31686333280;76145939158;1882503307;804962873;17380119070;28479518;929378481;13;0;2808;0;10;14
1;28;1571847343785;1571847353226;9441;31395795324;75995448363;1877061720;730664126;17325103768;28536269;930792170;11;0;3696;0;10;10
1;29;1571847353251;1571847362975;9724;31515646432;75017872017;1863176511;756753797;16970931639;28181426;927320652;103;12;10496;0;178;1753
1;30;1571847363011;1571847372422;9411;30798209440;73851387509;1862807218;758675022;16547396361;27652742;925717360;14;0;2816;0;8;13
1;31;1571847372449;1571847381845;9396;31726396702;75692683806;1869851724;809559378;17216355558;28360718;929869875;8;0;2768;0;7;7
1;32;1571847381870;1571847391303;9433;30899054706;75865036500;1873383199;686827797;17285733146;28377458;930575971;8;0;2768;0;6;6
1;33;1571847391328;1571847400707;9379;31042907046;75616316384;1874938239;708956065;17221314941;28380797;929096232;95;2;9656;-1;135;1383
1;34;1571847400747;1571847410192;9445;31155176812;74836708866;1874272046;763562127;16941820051;28384753;927528805;17;0;3224;1;8;22
1;35;1571847410218;1571847419645;9427;31423138642;75272725918;1868795850;758451675;17100629786;28289584;927660038;10;0;3688;0;10;10
1;36;1571847419670;1571847429244;9574;31716744934;75545122363;1864155707;778629721;17200269346;28298887;926575019;89;14;9720;-1;145;1253
1;37;1571847429277;1571847438792;9515;31220398078;73360950769;1867573159;824964649;16405729039;27638931;924861951;15;0;2752;1;8;15
1;38;1571847438841;1571847448142;9301;31089762680;75516030891;1867438409;723367310;17189144051;28378689;929175292;8;0;2768;0;7;7
1;39;1571847448170;1571847457675;9505;30986925244;75575374212;1870427182;698303586;17211029427;28388256;926862815;8;0;2768;0;6;6
1;40;1571847457700;1571847467035;9335;31286394312;75320355178;1866648366;765708018;17118174278;28347168;925849573;90;10;10128;0;136;1126
1;41;1571847467059;1571847476475;9416;31784001586;75483964230;1875451554;787403200;17177750027;28372280;926641323;10;0;3688;0;9;9
1;42;1571847476501;1571847485865;9364;30840457606;74862026350;1879006255;687379617;16951709808;28107090;925519133;12;0;2816;0;8;9
1;43;1571847485900;1571847495340;9440;31074418664;73574040244;1854689994;796303501;16483134926;27696331;924417973;92;10;9408;0;154;1251
1;44;1571847495371;1571847504761;9390;31120901560;75627997036;1874380094;719919335;17229272176;28426668;927858807;8;0;2768;0;7;7
1;45;1571847504786;1571847513973;9187;30996640960;75012928359;1868666658;722144443;17005830635;28276590;925756113;10;0;2784;0;7;7
1;46;1571847513998;1571847523405;9407;31766150020;75302962249;1857620144;863736693;17111637279;28291734;924482944;8;0;2768;0;6;6
1;47;1571847523432;1571847532896;9464;31494591480;75615695004;1865385041;757906010;17225194177;28398757;926966544;84;16;10824;0;125;872
1;48;1571847532921;1571847542297;9376;30816933064;73789812753;1854284990;739642464;16562990008;27827774;925110446;10;0;2784;0;9;9
1;49;1571847542321;1571847551900;9579;31375694190;74825230300;1869454050;778202541;16938880381;28118040;925442369;8;0;2768;0;7;7
1;50;1571847551925;1571847561390;9465;32004847318;75358422732;1871348970;854039198;17132378073;28363092;927120343;11;2;2808;0;8;8
1;51;1571847561416;1571847570897;9481;31085464732;75575733365;1870345770;715297297;17210628197;28469354;925727399;86;12;9184;0;125;1195
1;52;1571847570925;1571847580454;9529;31721733170;75506959605;1860944390;810608386;17185877699;28367801;926424881;14;0;3728;0;9;9
1;53;1571847580479;1571847589946;9467;31939835270;75347603258;1865762506;819972252;17127402817;28434282;925243645;14;0;3272;0;8;12
1;54;1571847589986;1571847599337;9351;30375773624;73092393685;1849481086;722399186;16309974978;27535202;923385843;79;16;9656;-1;127;978
1;55;1571847599368;1571847608697;9329;31337251368;74234979231;1856067743;798468372;16724405351;27936955;924947628;10;0;2712;1;8;8
1;56;1571847608722;1571847618056;9334;31525279366;75409493682;1862759047;811668451;17150574307;28280389;925953328;12;0;2800;0;8;11
1;57;1571847618082;1571847627286;9204;30921869250;75357056797;1875995587;719748427;17131626167;28291020;925481564;8;0;2768;0;8;8
1;58;1571847627312;1571847636803;9491;31803178540;75226795998;1865118042;824036363;17084872868;28353523;924262489;78;14;9928;0;140;891
1;59;1571847636829;1571847646192;9363;31252329738;74995653370;1861170911;737370145;16999995050;28218283;926487996;451;6;46824;0;1331;1570
1;60;1571847646217;1571847655494;9277;30341308426;73250749606;1866109120;706517712;16366326204;27604376;923650157;14;0;2824;0;6;11
1;61;1571847655519;1571847665071;9552;31395368858;74853952309;1869662397;776040097;16947755971;28187452;925260276;88;24;10144;3;79;1297
1;62;1571847665096;1571847674364;9268;31119692096;75566232488;1860510067;696716424;17207058362;28311108;925909913;13;0;3160;-3;81;228
1;63;1571847674391;1571847683815;9424;31750675042;75675196484;1863061954;821630703;17247145686;28416172;926323317;95;0;3688;0;246;2139
1;64;1571847683841;1571847693247;9406;31087251772;74873496670;1859866894;763532891;16955098157;28255725;925395846;8;0;2768;0;7;7
1;65;1571847693272;1571847702583;9311;31081062832;75011912161;1875211251;728358707;17006418349;28441774;925735487;92;30;13440;0;161;1205
1;66;1571847702609;1571847711815;9206;31068017878;75084708259;1872681105;690462965;17032328753;28317766;923962624;12;0;2800;0;8;11
1;67;1571847711843;1571847721330;9487;31115811124;75552380187;1870350767;666669210;17201922365;28342416;927169059;9;0;2856;-1;6;6
1;68;1571847721365;1571847730660;9295;31257577270;74773382652;1869715409;765099244;16919352957;28112915;927412795;10;1;2728;1;6;7
1;69;1571847730685;1571847739866;9181;31089094292;75450804269;1874364954;725551247;17165367087;28358811;928263383;70;14;9312;0;108;787
1;70;1571847739891;1571847749145;9254;31272578770;75628069050;1873580317;733314578;17230127209;28394154;927634585;12;0;2800;0;8;11
1;71;1571847749173;1571847758768;9595;31892992192;75612534942;1861643678;831335621;17224160713;28278714;926074349;12;0;3248;0;10;11
1;72;1571847758794;1571847768382;9588;32421360352;75657821483;1848785213;887617473;17241042775;28352819;925518618;10;0;3688;0;9;9
1;73;1571847768407;1571847777645;9238;30169425254;73341660928;1868788967;688554600;16399245751;27675170;924731703;86;23;10168;-1;149;1145
1;74;1571847777675;1571847787014;9339;30889018228;73395485728;1846552274;763839604;16419054902;27605360;925983942;9;0;2696;1;8;8
2;35;1571848206620;1571848214963;8343;27807305854;68604852378;1866049572;621223720;13392964961;29114391;931736750;7;0;2680;1;8;8
2;36;1571848214998;1571848223218;8220;27485340960;68823633187;1859049930;599142994;13472889570;28987099;930703749;40;18;9336;0;108;342
2;37;1571848223247;1571848231681;8434;27510416168;68618883792;1853628023;576659617;13398211695;29039996;932082310;8;0;2768;0;7;7
2;38;1571848231706;1571848240209;8503;27520758954;68870665270;1868759286;562572019;13490508712;29108536;933321732;14;0;2896;-1;9;13
2;39;1571848240236;1571848248667;8431;27790805518;68581160149;1880324929;600689811;13384880372;28898901;929325783;7;0;2680;1;6;6
2;40;1571848248718;1571848257307;8589;27778171262;67973934247;1852998235;619577670;13163858522;28757727;930882554;45;20;9424;-1;112;402
2;41;1571848257348;1571848265699;8351;28048829274;68495054631;1859095930;647015519;13353657666;28902878;931274263;7;0;2680;1;5;5
2;42;1571848265726;1571848273949;8223;26897266976;66821662755;1860009299;562843199;12745693128;28413953;929637069;14;0;2824;0;8;13
2;43;1571848273975;1571848282411;8436;27869579380;68553336684;1862879153;590001607;13374689789;29131118;929419172;8;0;2768;0;6;6
2;44;1571848282437;1571848290660;8223;26655405420;66514153577;1853156729;551420212;12634328444;28394009;927483768;34;24;9312;0;96;200
2;45;1571848290689;1571848298924;8235;27087350800;68266068796;1856028526;524190858;13270401901;28792601;930100678;12;0;1904;0;8;15
2;46;1571848298947;1571848307495;8548;28757787900;68732671675;1843162272;713483374;13440120514;28995410;929464246;6;0;2304;0;5;5
2;47;1571848307521;1571848316029;8508;28488250876;68382941109;1853660241;708765110;13313005166;29031055;929926963;10;0;2792;0;5;5
2;48;1571848316055;1571848324347;8292;27482082240;68668749778;1858923979;562127474;13417221520;29125087;931648288;32;24;9504;0;110;1071
2;49;1571848324372;1571848332779;8407;27983127376;68865114846;1855037079;604502129;13488453495;29024614;933434405;14;0;2824;0;7;12
2;50;1571848332803;1571848341446;8643;27962723730;68837952546;1852684306;638790015;13479692916;29169546;931611875;8;0;2768;0;8;8
2;51;1571848341472;1571848349853;8381;27751105052;68719011668;1851793430;622374756;13435400732;29050996;928715214;9;0;2776;0;6;6
2;52;1571848349878;1571848358262;8384;27906131648;68707228345;1847512981;634919295;13431681041;28922098;930065578;44;20;9440;0;111;420
2;53;1571848358286;1571848366655;8369;28143465160;68848314663;1840904118;691111178;13481744466;28883749;931222762;14;0;2824;0;9;14
2;54;1571848366681;1571848374981;8300;27313738400;68874170093;1853685922;553729169;13492211349;28975034;929497403;8;0;2768;0;6;6
2;55;1571848375009;1571848383447;8438;28145164162;68827913598;1845575189;661655279;13475601161;29025257;930376708;9;0;2784;0;6;6
2;56;1571848383473;1571848392056;8583;28029731744;68817862281;1856959494;644173777;13471525675;28996314;930892507;12;2;2824;0;9;11
2;57;1571848392103;1571848400350;8247;27337225712;68056939249;1862120769;564181130;13195547688;28821353;930219077;31;24;8800;0;82;174
2;58;1571848400375;1571848408737;8362;28106874494;68880214570;1859322623;598395158;13494463690;28949868;929708198;9;0;2776;0;7;7
2;59;1571848408764;1571848417108;8344;28094670062;68876835624;1869597930;622238412;13492750038;28986528;930674884;8;0;2768;0;7;7
2;60;1571848417134;1571848425279;8145;26383906156;66398742398;1853900542;522785507;12593804934;28261927;928093800;49;26;10008;0;109;400
2;61;1571848425305;1571848433576;8271;27005066368;67142559660;1848554207;537228906;12862495796;28394347;929063022;6;0;1848;0;5;5
2;62;1571848433601;1571848442076;8475;28400170098;68849760368;1849644954;670723906;13483483501;29021468;930419509;8;0;2328;0;6;6
2;63;1571848442114;1571848450590;8476;28442830422;68578830428;1846680240;702694543;13384236821;29002015;930579827;8;0;2768;0;7;7
2;64;1571848450615;1571848458992;8377;27674453884;68309231351;1849155417;602517226;13286604351;28887338;929320053;58;18;9992;0;104;515
2;65;1571848459017;1571848467454;8437;28299913504;68505796274;1841941364;692025678;13357482015;29085903;930637145;9;0;2784;0;7;7
2;66;1571848467480;1571848476031;8551;27889210832;68747668213;1865540151;635052675;13447043749;28996292;932477588;447;8;45904;0;1351;1539
2;67;1571848476058;1571848484345;8287;27652193994;68290111067;1856797602;599928728;13280297200;29016707;930195891;15;0;2832;0;6;12
2;68;1571848484371;1571848492738;8367;28169870574;68938679084;1860052848;672873098;13515329968;29004875;931099147;44;26;10016;0;121;453
2;69;1571848492764;1571848501135;8371;27123018016;68444048455;1861625532;548731586;13335442417;28853566;930980443;8;0;2768;0;8;8
2;70;1571848501161;1571848509527;8366;27787088066;68854466215;1859695182;598823065;13484590041;29125019;931178149;8;0;2768;0;7;7
2;71;1571848509554;1571848518048;8494;28092098418;68817784914;1862320716;642868040;13471893822;28869681;929410779;91;2;3632;0;76;1949
2;72;1571848518080;1571848526600;8520;27815050132;68619098195;1853443157;621126138;13399650889;28957825;929554690;59;34;11608;-1;150;660
2;73;1571848526632;1571848535069;8437;27392254572;68124856505;1850842723;568158356;13219529752;28821670;931609345;8;0;2696;1;5;5
2;74;1571848535118;1571848543545;8427;27773321434;67456298920;1844105901;670510716;12976291599;28556340;928194933;8;0;2768;0;9;9
2;75;1571848543589;1571848551817;8228;26999780438;66900784644;1857355061;577212599;12774859363;28452896;929537441;14;0;2904;-1;8;11
2;76;1571848551852;1571848559994;8142;26405830684;66430358946;1847522929;513411700;12605585920;28256589;929415738;40;22;9752;1;102;380
2;77;1571848560047;1571848568361;8314;27600936314;68312484584;1860764771;582148121;13288820371;28723786;930017271;7;0;2312;0;6;6
2;78;1571848568386;1571848576804;8418;28355836614;68756727680;1844594822;679564753;13450269816;28946648;930209618;9;3;2352;0;4;4
2;79;1571848576831;1571848585265;8434;27941469196;68745074842;1851189952;604330103;13446007337;28961732;929928085;6;0;2304;0;5;5
2;80;1571848585290;1571848593899;8609;28851231988;68886209122;1852865869;722482794;13496836095;28983382;930842308;51;22;9408;0;97;455
2;81;1571848593923;1571848602451;8528;28716719706;68833320390;1846913377;732262575;13476659977;28949520;930351001;8;0;2768;0;9;9
2;82;1571848602476;1571848610826;8350;27653944242;68885307673;1854058457;572846295;13495689293;28984542;931427129;12;0;2800;0;8;11
2;83;1571848610853;1571848619180;8327;27913512386;68842238504;1862884967;613568543;13481001785;28978743;932931124;8;0;2768;0;10;10
2;84;1571848619205;1571848627485;8280;27503777548;68601617483;1863447306;581945049;13393009970;29019351;930702061;56;20;9752;-1;111;513
3;35;1571849048231;1571849056353;8122;26444426660;65799190136;1848640489;570712502;12659407700;28023325;929160495;13;0;2888;-1;10;13
3;36;1571849056377;1571849064777;8400;26966347460;66952979257;1844884152;621904529;13079812306;28443157;929062704;56;16;8928;0;119;591
3;37;1571849064813;1571849072864;8051;25986343484;65418681043;1846047306;549901893;12522853545;28164134;928921966;11;0;2728;1;8;10
3;38;1571849072889;1571849081291;8402;26585360460;65241311497;1856953240;620701012;12458463810;27915313;928548938;9;0;2856;-1;8;8
3;39;1571849081322;1571849089763;8441;27022846102;65372259270;1835974804;696359069;12506225374;27934363;927844863;11;0;2712;1;8;11
3;40;1571849089806;1571849098294;8488;26840943680;65728099474;1858465581;647712521;12635555122;28018567;930719121;67;20;9288;-1;117;680
3;41;1571849098339;1571849106854;8515;27467378580;66904327103;1845923358;690689149;13061275834;28433510;931719679;7;0;2680;1;8;8
3;42;1571849106878;1571849115179;8301;27337720944;67350970117;1838431476;672898214;13224330206;28642017;930309667;14;0;2832;0;6;11
3;43;1571849115206;1571849123478;8272;26929385662;67612656884;1855053935;586872837;13320068799;28642258;931500744;8;0;2768;0;6;6
3;44;1571849123502;1571849131634;8132;27410646922;67645748815;1856004168;646761062;13331986744;28580481;931345472;62;16;9440;0;116;628
3;45;1571849131658;1571849139734;8076;27262090900;67663241556;1848062000;667781481;13338325580;28546604;929965150;8;0;2768;0;7;7
3;46;1571849139759;1571849147941;8182;27315246726;67657234439;1859267322;651545270;13329505688;28690768;930483375;15;0;2904;-1;8;13
3;47;1571849147970;1571849156595;8625;27437009266;67671230533;1849303661;684878490;13328053295;28677502;933265874;7;0;2680;1;6;6
3;48;1571849156623;1571849164693;8070;27055415198;67601463375;1868309646;631235884;13303442242;28590600;932285185;50;26;9416;0;117;495
3;49;1571849164722;1571849172878;8156;27510581586;67708030599;1861014408;691189040;13342265708;28684824;932169953;8;0;2768;0;6;6
3;50;1571849172907;1571849181385;8478;28007524560;67586264592;1860089930;745642080;13297943984;28639646;932439244;14;0;2816;0;8;13
3;51;1571849181415;1571849189805;8390;27343189958;67591255533;1862298992;658434586;13300139100;28537706;930542265;8;0;2768;0;8;8
3;52;1571849189833;1571849198448;8615;27828983642;67454418551;1856884626;707753407;13249507043;28663227;932336585;11;0;3240;0;8;8
3;53;1571849198476;1571849207072;8596;27975048466;67720762574;1854781041;691213611;13346995655;28585299;930343326;59;22;10424;0;102;488
3;54;1571849207109;1571849215681;8572;27099783284;66040227619;1848709356;666930344;12736081432;28262385;931147084;8;0;2768;0;6;6
3;55;1571849215712;1571849224107;8395;27646351804;67684456006;1843446124;647090064;13333096868;28675430;930613725;9;0;2784;0;6;6
3;56;1571849224152;1571849232542;8390;27553136206;66283949087;1833009573;707165541;12825205090;28085344;929516223;44;20;9504;0;110;435
3;57;1571849232571;1571849241125;8554;27257068500;65910871098;1841515491;703317375;12689943528;27918467;929167435;14;0;2816;0;11;16
3;58;1571849241155;1571849249346;8191;26902376246;66687781066;1852176596;611081399;12971427132;28321775;929959463;8;0;2768;0;8;8
3;59;1571849249376;1571849257677;8301;27318957170;67277875396;1862848620;656397007;13186724030;28508854;933612481;9;0;2784;0;7;7
3;60;1571849257706;1571849265882;8176;27153399594;67651219815;1852427095;614953106;13321713428;28610237;931512231;58;20;9248;0;124;594
3;61;1571849265922;1571849274347;8425;27325646160;67602105617;1847835138;634375854;13303658620;28680077;931382890;15;0;2832;0;7;13
3;62;1571849274376;1571849282638;8262;27839339130;67718551017;1856675584;721167616;13345399410;28696322;932215585;8;0;2768;0;6;6
3;63;1571849282669;1571849290977;8308;27188586762;67105827101;1859393591;664636096;13122808689;28546607;930623360;8;0;2768;0;8;8
3;64;1571849291007;1571849299278;8271;27468923114;67668460345;1860497368;665946211;13327180179;28603889;931599124;51;18;9248;0;117;335
3;65;1571849299307;1571849307669;8362;27647897652;67687995539;1856251082;693902174;13335490053;28568937;929711056;8;0;2768;0;7;7
3;66;1571849307699;1571849315800;8101;27331023924;67614994779;1873156650;673944315;13307626992;28631849;932203013;9;0;2784;0;7;7
3;67;1571849315831;1571849324068;8237;27364427264;67671099379;1861860846;665193485;13327765603;28670958;931439217;8;0;2768;0;7;7
3;68;1571849324098;1571849332569;8471;27322346122;67696149601;1856317845;660305452;13337534682;28688479;931479787;497;26;52480;0;1418;2088
3;69;1571849332598;1571849340909;8311;27107542016;67570132242;1864385971;633641324;13292135112;28584219;931167719;8;0;2768;0;7;7
3;70;1571849340938;1571849349497;8559;28560613878;67672481070;1862781062;795372150;13328625429;28609286;931858137;11;0;2800;0;7;8
3;71;1571849349526;1571849357943;8417;28109476652;67734007850;1860382392;737943024;13352149526;28639990;930048767;59;24;10584;0;132;610
3;72;1571849357972;1571849366273;8301;28017211952;67292308665;1841368012;780780539;13191511083;28517273;930700026;83;0;3552;0;49;1005
3;73;1571849366302;1571849374802;8500;28248487632;67636174385;1844111813;740327060;13316373000;28579651;931085451;19;0;2928;0;10;23
3;74;1571849374831;1571849383264;8433;28367484348;67345340432;1841715058;784328208;13210340773;28711164;930244666;9;0;3232;0;6;6
3;75;1571849383294;1571849391630;8336;28164644942;67609369661;1864935352;739114893;13307243239;28550760;931812773;59;31;12072;0;160;637
3;76;1571849391659;1571849399974;8315;27129647730;66340945292;1850898961;631919631;12845833203;28191878;929631026;8;0;2768;0;7;7
3;77;1571849400005;1571849408427;8422;27546335964;67693818042;1851273874;649878450;13337157127;28585855;931538385;10;0;2864;-1;7;7
3;78;1571849408459;1571849416376;7917;25879284166;65381151735;1851543005;536195928;12497335768;27870459;929560423;7;0;2680;1;6;6
3;79;1571849416407;1571849425015;8608;27069653118;67114735256;1852661335;601456149;13126914343;28391569;930673209;44;20;9440;-1;89;307
3;80;1571849425056;1571849433520;8464;26440783230;65610380794;1839971919;615493027;12581762709;27921383;929814464;7;0;2680;1;7;7
3;81;1571849433558;1571849441864;8306;27093197078;66658456507;1845550800;661402842;12960879136;28319492;930032619;11;0;2808;0;7;7
3;82;1571849441923;1571849450577;8654;27494949950;67399646956;1847385729;652960995;13229702876;28596664;930979048;8;0;2768;0;7;7
3;83;1571849450607;1571849458918;8311;27669743778;67675506506;1849139739;701157820;13330712347;28664912;930808210;47;22;9288;0;93;360
3;84;1571849458947;1571849467114;8167;27100513576;67710517675;1850955185;628078188;13343279585;28600233;930414658;10;0;2864;-1;8;8
4;26;1571849833273;1571849842679;9406;30557946438;73991799911;1872545438;774828981;16335427228;27995907;928609820;15;2;2928;0;47;81
4;27;1571849842721;1571849852238;9517;31541738968;74411055295;1854764870;859987970;16487575002;28116113;929593179;8;0;2768;0;9;9
4;28;1571849852262;1571849861794;9532;31979447990;76171284848;1880235916;933508067;17127194651;28610942;928857683;15;0;2832;0;7;13
4;29;1571849861819;1571849871509;9690;31358134040;75974915377;1883704603;860158176;17055049781;28573045;930818185;54;22;9696;0;119;580
4;30;1571849871533;1571849880972;9439;31374141480;75984251549;1862424274;806036990;17059372767;28611477;929147174;12;0;4152;0;12;12
4;31;1571849880998;1571849890633;9635;30872944650;74484844399;1876028529;771893165;16514695534;28078475;925934398;15;0;2928;-1;8;13
4;32;1571849890667;1571849900449;9782;31233173662;76004823201;1865095492;788963339;17066915077;28683329;927089835;9;0;2696;1;7;7
4;33;1571849900481;1571849909864;9383;31174462828;75828338736;1876350313;762681065;17009743104;28512251;926922127;41;20;10848;-1;108;235
4;34;1571849909889;1571849919402;9513;31238249790;75103412495;1864264034;832443485;16750793655;28298331;924827614;11;0;2712;1;6;9
4;35;1571849919429;1571849928610;9181;30770432064;76106630956;1881733219;680911043;17115319546;28548778;925884109;8;0;2768;0;6;6
4;36;1571849928636;1571849938135;9499;31253913838;76149463180;1873060931;794261445;17131544497;28419411;925368119;38;20;9424;0;83;249
4;37;1571849938170;1571849947866;9696;32814660700;76095359536;1865045171;1016928835;17111071717;28621903;925344034;15;0;3736;0;11;14
4;38;1571849947890;1571849957233;9343;30928171632;76087449115;1864630268;724408784;17109308000;28468525;925082640;9;0;3224;0;7;7
4;39;1571849957267;1571849966411;9144;30513716176;75285145529;1865263348;703307050;16817270906;28234443;924336080;45;24;9672;0;93;363
4;40;1571849966436;1571849975926;9490;31870690546;76140328581;1845836818;882061984;17128334645;28512722;926128903;8;0;2768;0;7;7
4;41;1571849975950;1571849985283;9333;31032199552;75999169886;1863161072;771669993;17077244946;28557503;925732746;15;0;3272;0;10;14
4;42;1571849985308;1571849994915;9607;30826296190;75862606141;1865803597;736840450;17027751390;28479537;925473563;47;24;10928;-1;134;398
4;43;1571849994954;1571850004613;9659;31734898282;75993457729;1845731058;865646756;17074750822;28519010;924567595;7;0;2680;1;6;6
4;44;1571850004637;1571850013974;9337;31266582258;76064953531;1864256578;777799315;17100869006;28503686;926171065;14;0;2824;0;7;12
4;45;1571850013999;1571850023433;9434;31136021904;76067287990;1873476308;793917369;17101317908;28518139;927486571;38;24;9592;0;106;308
4;46;1571850023457;1571850032696;9239;31013530824;75696895046;1853771679;753703955;16966234221;28479456;926181881;10;0;3232;0;8;8
4;47;1571850032723;1571850041984;9261;30511993960;75476065278;1876232387;688284146;16886952176;28368231;926233497;15;0;3728;0;11;15
4;48;1571850042010;1571850051279;9269;30644450562;75530116498;1868688327;681447665;16906783653;28289631;926927580;8;0;2768;0;6;6
4;49;1571850051304;1571850060762;9458;31276017946;74439808584;1851495231;864534082;16510764363;27943632;925548873;45;22;9520;0;120;495
4;50;1571850060787;1571850069994;9207;31123261504;76132545646;1866640261;790553206;17125365929;28497381;926715640;14;0;2824;0;9;14
4;51;1571850070021;1571850079253;9232;30854133426;76075287147;1872833927;761508303;17105592634;28498303;924614423;8;0;2768;0;6;6
4;52;1571850079278;1571850088725;9447;31303423168;76033794542;1856711121;783536873;17089382250;28460154;926891060;45;22;9448;0;104;418
4;53;1571850088748;1571850098222;9474;32032601042;76050753322;1857310309;906672419;17094474248;28606025;925373894;10;0;3232;0;8;8
4;54;1571850098247;1571850107522;9275;31399087916;75877270628;1865230895;811300350;17032864349;28482808;927673483;16;0;3744;0;10;15
4;55;1571850107548;1571850117051;9503;30708701512;74105488048;1860242439;777454596;16388946205;27914476;923291656;11;0;2880;-1;7;7
4;56;1571850117075;1571850126273;9198;30597032536;74796079577;1865547294;731886326;16640135655;27967975;923160331;47;24;9288;1;181;593
4;57;1571850126299;1571850135810;9511;31309067966;75808561906;1855723007;807079917;17007187503;28439440;924717697;453;8;46040;-1;1370;1561
4;58;1571850135836;1571850144851;9015;30595962356;75470642205;1865894544;745584005;16884645479;28479042;924364121;7;0;2680;1;6;6
4;59;1571850144878;1571850154017;9139;30882004680;75842954206;1868420798;778288810;17021123380;28367927;924786904;58;26;10360;0;114;594
4;60;1571850154042;1571850163326;9284;31026552272;76113853299;1857064864;739556039;17118651334;28497089;923003266;15;0;3272;0;10;14
4;61;1571850163350;1571850172734;9384;31659047194;75822863225;1867798429;820350578;17012918842;28517268;924309550;9;0;3232;0;8;8
4;62;1571850172759;1571850181863;9104;30451228322;74834976698;1867623333;701813682;16654791182;28255661;922576030;148;33;13256;0;249;2805
4;63;1571850181890;1571850191117;9227;30187753510;74522532813;1858053795;679410512;16539814982;28006891;923303824;9;0;2856;-1;9;9
4;64;1571850191143;1571850200629;9486;30837037118;73794122548;1850753649;823339002;16275498758;27712474;923983254;13;0;2736;1;7;10
4;65;1571850200653;1571850210018;9365;31324768514;75704764201;1861002396;817226258;16970028807;28376629;923836013;9;0;2776;0;7;7
4;66;1571850210044;1571850219364;9320;31072310424;76104600825;1871062337;772111934;17114161583;28498927;925455435;38;26;9696;0;105;310
4;67;1571850219392;1571850228866;9474;31129360946;76020373142;1879645858;748196034;17085204022;28422265;924855495;13;0;2816;0;8;11
4;68;1571850228892;1571850238253;9361;31412036948;76014102573;1864160284;758536477;17083478374;28525461;923465547;14;0;3728;0;8;8
4;69;1571850238278;1571850248071;9793;32411240362;76162775850;1853590873;890672664;17136272394;28617569;923473017;49;26;10280;0;130;430
4;70;1571850248117;1571850257538;9421;30657260894;74119782968;1864291911;758770645;16394127931;27914594;922806832;13;0;2888;-1;11;14
4;71;1571850257564;1571850266878;9314;31170283140;75868065786;1880026765;778022606;17029694521;28361975;924909439;7;0;2680;1;7;7
4;72;1571850266904;1571850276150;9246;31209421652;76022819838;1879878510;797706202;17085419077;28463959;925736103;12;0;2816;0;7;10
4;73;1571850276175;1571850285580;9405;31007364660;76090799005;1871497595;780564452;17111544030;28419877;926235853;46;18;9600;0;97;433
4;74;1571850285604;1571850294884;9280;31260585600;75411088000;1858160520;828636277;16863184766;28317338;925682516;11;0;3696;0;10;10
4;75;1571850294911;1571850304346;9435;31707474664;76179338608;1859402399;822693363;17142408689;28513310;924101470;13;0;3352;-1;9;9
