0;44;1571864482032;1571864489645;7613;25518306028;66870381968;1843523126;451916783;13183997100;28871129;934493892;4;0;1384;0;2;2
0;45;1571864489672;1571864497207;7535;25437621902;67095746633;1852037208;438434463;13266236030;28832574;934205998;9;0;1432;0;5;9
0;46;1571864497234;1571864504703;7469;25120262724;66702531541;1853224932;407710052;13123215128;28938306;936196338;4;0;1384;0;3;3
0;47;1571864504732;1571864512209;7477;25167831422;67045095067;1871079292;394187234;13248703992;29099309;935591737;48;20;8528;0;106;479
0;48;1571864512237;1571864519831;7594;25553689420;67127462660;1876893946;452362455;13278332125;28889350;936790787;4;0;1384;0;3;3
0;49;1571864519858;1571864527400;7542;25459675202;66900936899;1850081550;452021074;13195047066;28910129;933617576;8;0;1416;0;5;8
0;50;1571864527428;1571864535242;7814;25607444576;66920964972;1851507594;464953294;13203448942;28888870;933965753;4;0;1384;0;4;4
0;51;1571864535271;1571864542907;7636;25417778604;67078860111;1850935637;423845168;13260004365;28915093;934350268;46;20;8160;0;96;399
0;52;1571864542935;1571864550528;7593;25657837206;67131858276;1848424108;466963701;13279748205;29034293;933933845;4;0;1384;0;4;4
0;53;1571864550556;1571864558041;7485;25306871748;67126297884;1864040672;404376747;13277852287;28746692;934830020;7;0;1408;0;6;6
0;54;1571864558069;1571864565664;7595;25573572576;67142384783;1854903534;446249773;13283009958;28994041;932885897;4;0;1384;0;3;3
0;55;1571864565692;1571864573191;7499;25266315576;67120936030;1868924238;428101625;13275243484;29099730;933942722;50;30;9200;0;121;556
0;56;1571864573218;1571864580748;7530;25414332712;67089440697;1852682225;438341014;13264299475;28825082;933674753;4;0;1384;0;4;4
0;57;1571864580776;1571864588295;7519;25333981466;67113962846;1867737907;422297822;13273954731;28802605;934141460;8;0;1424;0;4;6
0;58;1571864588322;1571864595849;7527;25431826140;66394124967;1851571799;479775702;13011380158;28935886;932749768;4;0;1384;0;3;3
0;59;1571864595879;1571864603412;7533;25455645164;67142259159;1845787156;429280107;13283189889;28798862;933127086;55;18;7768;0;85;528
0;60;1571864603440;1571864611020;7580;25580955796;67131729344;1851940363;455999106;13279435145;28945254;934366778;4;0;1384;0;5;5
0;61;1571864611047;1571864618439;7392;25037191060;66277734843;1857161464;394888669;12969880459;29064302;935037289;7;0;1408;0;4;4
0;62;1571864618466;1571864625968;7502;25295543316;67095229315;1865196271;423958031;13267423711;28957091;936791184;4;0;1384;0;4;4
0;63;1571864625997;1571864633437;7440;24934876450;66604824365;1860163990;388702464;13087024458;29071893;932865025;51;14;7528;0;97;482
0;64;1571864633465;1571864640980;7515;25280857176;67090305687;1881983993;398912599;13264128417;29059993;933240886;4;0;1384;0;3;3
0;65;1571864641007;1571864648605;7598;25403603026;66400718802;1883760222;448477442;13013741971;28721643;932198963;7;0;1408;0;3;3
0;66;1571864648633;1571864656173;7540;25364153826;67111876936;1862125619;415954687;13272056767;28965360;931807989;4;0;1384;0;3;3
0;67;1571864656202;1571864663867;7665;25793635018;67165969896;1880476474;461893459;13292677248;29019643;932979830;6;0;1400;0;5;5
0;68;1571864663895;1571864671488;7593;25563923582;67093068862;1881057093;446284430;13266164651;28847202;932418228;58;20;7864;0;95;614
0;69;1571864671516;1571864679075;7559;25524492194;67139522657;1850275845;458639316;13282670758;28867827;932367328;9;0;1440;0;4;6
0;70;1571864679102;1571864686596;7494;25235483442;66874883973;1851595433;415951498;13187090836;28820472;931639005;4;0;1384;0;2;2
0;71;1571864686625;1571864694152;7527;25385398578;67137929169;1848767112;426473662;13282285867;28997596;933574935;7;0;1408;0;4;4
0;72;1571864694179;1571864701780;7601;25616346488;66791210878;1843823818;469377567;13155437073;28815276;933112079;4;0;1384;0;4;4
0;73;1571864701808;1571864709465;7657;25838724782;67056263510;1871831407;492594404;13253009115;28789992;934435193;55;18;8048;0;92;550
0;74;1571864709493;1571864717133;7640;25570146832;67112179708;1873600714;451734115;13273017966;28987257;935781645;498;24;50880;0;1756;3057
0;75;1571864717162;1571864724875;7713;25622438776;67127855725;1879258619;451657288;13278847040;28884961;933748122;7;0;1408;0;5;5
0;76;1571864724903;1571864732694;7791;25181304740;67069605000;1867439247;397044910;13257471858;28821942;931756629;5;0;1472;-1;5;5
0;77;1571864732722;1571864740295;7573;25584080050;67020900317;1853462485;478534239;13240295315;28782586;933475581;7;0;1336;1;5;6
0;78;1571864740322;1571864747944;7622;25732562196;67114757135;1846137289;481188291;13273661800;28937875;933034116;50;24;8504;0;119;522
0;79;1571864747973;1571864755593;7620;25710655480;67102049664;1847741375;473992552;13269137105;28912077;934043116;84;0;2176;0;62;1545
0;80;1571864755621;1571864763145;7524;25419672370;67115717722;1852842399;421846807;13274433862;28772790;933662985;4;0;1384;0;3;3
0;81;1571864763174;1571864770691;7517;25387050130;67102290654;1850158207;435753174;13268954626;28997589;935741080;11;0;1496;0;16;41
0;82;1571864770719;1571864778337;7618;25723782486;67091042270;1845613519;481390762;13265557811;28854079;934984678;65;26;11384;0;123;789
0;83;1571864778366;1571864785997;7631;25738037634;67144167840;1882641257;458494166;13284613993;28842282;933787859;6;0;1400;0;4;4
0;84;1571864786025;1571864793588;7563;25533075680;67096936081;1871599922;439882361;13267865038;28866002;933291639;5;0;1472;-1;4;4
0;85;1571864793616;1571864801101;7485;25204407050;66978043849;1865040958;389644333;13223970925;28795462;932747784;3;0;1296;1;3;3
0;86;1571864801128;1571864808662;7534;25232566654;66844640996;1849930178;404112230;13175736815;28839826;932008350;11;0;1472;0;14;20
0;87;1571864808692;1571864816224;7532;25352823350;67005050798;1865018418;426735980;13234001771;28688945;934414746;40;24;9944;0;109;371
0;88;1571864816252;1571864823637;7385;24928413176;66505918663;1871318451;391848045;13052427999;28701348;933280918;6;0;1400;0;3;3
0;89;1571864823667;1571864831244;7577;25508862164;66986983990;1865260391;447944627;13227546382;28879370;934667650;4;0;1384;0;4;4
0;90;1571864831272;1571864838852;7580;25459024480;67104720970;1854997544;433629911;13269928683;28854635;934935027;8;0;1424;0;4;6
0;91;1571864838882;1571864846404;7522;25380585396;67011662480;1852179190;419906951;13235535312;28849533;932590436;40;16;8408;0;105;394
0;92;1571864846431;1571864853923;7492;25271197378;67030622267;1854414020;399682914;13242904560;28875923;934327204;8;0;1416;0;4;6
0;93;1571864853951;1571864861494;7543;25417885330;67080162411;1865174234;417721195;13261396274;28847888;935054215;4;0;1384;0;4;4
1;30;1571865285757;1571865294795;9038;29611206664;74762997951;1891688280;524739526;17079495984;29210738;927570350;8;0;1416;0;4;7
1;31;1571865294822;1571865303580;8758;29407811436;74809020777;1872053775;514707953;17094503694;28836338;926416658;93;2;8528;-1;184;1576
1;32;1571865303610;1571865312633;9023;29492491874;74853501389;1869467938;497597355;17111515155;29272234;927509680;7;0;1336;1;4;6
1;33;1571865312682;1571865321562;8880;29602221386;74821366386;1872082013;514533051;17100721067;28989372;926652598;5;0;1472;-1;6;6
1;34;1571865321588;1571865330524;8936;29414107102;74638927324;1865690242;500271599;17044808207;28930373;926612602;5;0;1312;1;3;3
1;35;1571865330551;1571865339671;9120;29762352288;74479382879;1864477933;570087716;16986833377;28986614;925112547;103;4;7968;0;188;1815
1;36;1571865339697;1571865348838;9141;29755539052;74746979017;1867712077;556298042;17084043267;29134318;923906537;5;0;1480;-1;4;4
1;37;1571865348883;1571865358038;9155;29518049320;74700128107;1860431328;516328314;17068014971;29000898;924659418;7;0;1360;1;14;14
1;38;1571865358064;1571865367058;8994;29618537616;74728473333;1869554676;537728119;17078130391;28852796;923341777;4;0;1384;0;4;4
1;39;1571865367085;1571865376146;9061;29595652262;74697173737;1887291991;555982928;17066603427;28923951;924257606;77;8;8544;0;151;1055
1;40;1571865376174;1571865385285;9111;29666258300;74730316769;1861661938;529091718;17078471216;29060006;926320370;5;0;1392;0;4;4
1;41;1571865385311;1571865394654;9343;29669567098;73655606390;1862759392;557730502;16688197112;28978868;923816693;4;0;1384;0;4;4
1;42;1571865394680;1571865403477;8797;29483785602;74572404181;1876671882;517767035;17019586613;28940610;923675649;10;0;1448;0;4;9
1;43;1571865403509;1571865412285;8776;29556093270;74724924016;1861684171;522618597;17076994956;28882023;923690734;99;4;7952;-1;171;1669
1;44;1571865412311;1571865421131;8820;29813154886;74740865570;1868522618;574147877;17082736728;28882491;925043757;5;0;1312;1;5;5
1;45;1571865421156;1571865430180;9024;29593793390;74777810421;1874260334;512586157;17095692285;29182179;924862963;8;0;1416;0;4;7
1;46;1571865430205;1571865438924;8719;29528613588;74741055680;1859878828;527060424;17082370627;28913806;922911218;4;0;1384;0;4;4
1;47;1571865438951;1571865447780;8829;29771038558;74771513604;1864386005;562996389;17094348315;28991794;924699107;75;10;8096;0;142;1008
1;48;1571865447806;1571865456553;8747;29540446012;74678102705;1877215678;489740006;17060193460;29066500;925617620;4;0;1384;0;3;3
1;49;1571865456578;1571865465566;8988;29662835038;74751331497;1884509546;551418341;17086237106;29073184;923637908;9;0;1424;0;5;10
1;50;1571865465591;1571865474723;9132;29860751762;74708270166;1887811734;566717560;17070571662;29176198;925015489;4;0;1384;0;3;3
1;51;1571865474751;1571865483975;9224;29858504968;74706999795;1887696103;549790913;17071333543;28944357;923687874;105;4;8192;0;186;2218
1;52;1571865484001;1571865492933;8932;29837327230;74773381174;1886557180;565536287;17095494294;28937181;924103784;10;0;1472;0;13;16
1;53;1571865492959;1571865502025;9066;29674163032;74687804851;1868406661;554849083;17063560053;29121782;922832863;4;0;1384;0;3;3
1;54;1571865502051;1571865510911;8860;29560943682;74693341700;1894130863;515995640;17065113175;28934648;924255770;7;0;1408;0;4;5
1;55;1571865510938;1571865519745;8807;29433842506;74784520625;1878722312;504044086;17098541949;28903562;923739751;88;14;9880;0;163;1472
1;56;1571865519771;1571865528857;9086;29714772202;74699812763;1888358496;526276464;17068031412;28920651;923958319;8;0;1416;0;4;6
1;57;1571865528884;1571865537588;8704;29442332552;74791557626;1877117175;498754030;17101289130;29086164;924510297;6;0;1408;0;4;4
1;58;1571865537613;1571865546651;9038;29911507932;74729980298;1889283940;573532524;17079205065;29070573;923707303;4;0;1384;0;3;3
1;59;1571865546679;1571865555603;8924;29543624140;74757613955;1881520555;484516522;17089154264;28909959;926933790;112;6;8704;-1;192;2016
1;60;1571865555628;1571865564623;8995;28931920202;72398513546;1863576382;531443616;16231925551;28099655;921138223;3;0;1296;1;3;3
1;61;1571865564648;1571865573545;8897;29676974992;74512848189;1882812164;568152454;17000237766;28819979;923796175;7;0;1440;0;18;18
1;62;1571865573571;1571865582597;9026;29711109646;74766229849;1885717744;523364641;17091760656;29216373;924978774;527;18;51648;0;1612;3053
1;63;1571865582625;1571865591387;8762;29503445816;74550937540;1868012990;512000644;17013744738;29265589;924352254;9;0;1424;0;5;9
1;64;1571865591413;1571865600098;8685;29342515856;74716865423;1873578126;511580649;17074234316;28893347;924922362;6;0;1400;0;4;4
1;65;1571865600124;1571865608988;8864;29456390454;74678554814;1873052810;501318859;17060335581;29119572;925566103;4;0;1384;0;3;3
1;66;1571865609014;1571865618153;9139;29734934364;74700551148;1860511729;550475098;17067803346;29048832;925183901;188;10;9560;0;339;4875
1;67;1571865618181;1571865627013;8832;29173052780;74678532632;1873391478;475495710;17060794821;28876970;922884393;4;0;1384;0;4;4
1;68;1571865627039;1571865636165;9126;29866555554;74776906635;1888385814;570973005;17095623961;28936213;925645586;5;0;1392;0;4;4
1;69;1571865636192;1571865645238;9046;29864297080;74792679821;1889011512;556350063;17101660024;29028469;922513123;142;14;11688;0;241;4455
1;70;1571865645264;1571865654089;8825;29524239574;74740260613;1876714649;488634090;17082450298;29036178;922481307;4;0;1384;0;3;3
1;71;1571865654116;1571865662948;8832;29550660756;74687610154;1892685747;498617166;17063939060;28885400;926464197;6;0;1408;0;3;3
1;72;1571865662974;1571865671725;8751;29594884302;74731818503;1865125745;539143170;17079969820;28887989;923306161;4;0;1384;0;3;3
1;73;1571865671751;1571865680505;8754;29590955588;74788477862;1856432257;531416143;17100894358;29099227;924536863;97;10;8032;0;209;2251
1;74;1571865680531;1571865689510;8979;28711515098;72635879165;1864366607;496421814;16318421286;28119366;921609292;4;0;1384;0;5;5
1;75;1571865689537;1571865698310;8773;29356240148;74544074691;1875008327;495574993;17012076925;28873110;924755435;6;0;1400;0;3;3
1;76;1571865698336;1571865707280;8944;29894933428;74741566640;1859578299;580096394;17083150948;28868996;924238068;70;8;7328;0;116;742
1;77;1571865707306;1571865716090;8784;29748003992;74745794508;1862582047;563112453;17085027375;28972966;925106504;4;0;1384;0;4;4
1;78;1571865716116;1571865725098;8982;29706085640;74624033016;1878826520;523764723;17040323660;28848300;925851536;8;0;1424;0;5;7
1;79;1571865725125;1571865734075;8950;29605538652;74736107151;1882813971;513919900;17082094484;29034147;926057955;4;0;1384;0;5;5
2;42;1571866216745;1571866224439;7694;25741291828;66767514098;1880634122;473235040;13027388591;28830236;931616308;4;0;1384;0;3;3
2;43;1571866224466;1571866232030;7564;25345756220;66664872347;1880385096;438041297;12990522871;28620624;929825413;6;0;1408;0;4;4
2;44;1571866232056;1571866239655;7599;25468064946;66743205333;1878977127;433755443;13019305910;28745923;930032175;40;10;7352;0;87;376
2;45;1571866239680;1571866247239;7559;25379894524;66772615707;1879216046;419810225;13030078567;28687474;931564457;10;0;1440;0;6;13
2;46;1571866247264;1571866254864;7600;25545676356;66768513093;1876235388;451430598;13028729634;28694432;930359408;4;0;1384;0;3;3
2;47;1571866254890;1571866262802;7912;25213958808;66711651640;1867788646;398235044;13007918090;28593540;931112883;7;0;1440;0;4;4
2;48;1571866262827;1571866271055;8228;25382397110;66749832048;1868311993;429504403;13021386731;28663647;929758683;40;22;8600;0;112;398
2;49;1571866271080;1571866278746;7666;25381372482;66589467013;1847397638;451227420;12963305923;28695500;930921942;8;0;1416;0;5;8
2;50;1571866278771;1571866286812;8041;25277031830;66756185632;1849556426;421269007;13023532659;28749190;930546562;4;0;1384;0;3;3
2;51;1571866286838;1571866294413;7575;25212696200;66775805230;1856419209;413834577;13031209915;28846286;929653475;7;0;1416;0;5;5
2;52;1571866294439;1571866302611;8172;24930186930;66785526546;1854205625;379356010;13034479169;28668465;928563999;5;0;1472;-1;3;3
2;53;1571866302655;1571866310547;7892;24769785928;64560084067;1843408588;440014773;12226491427;27850272;927702428;39;16;8456;1;104;327
2;54;1571866310573;1571866318120;7547;25402074406;66771815200;1872604324;447013867;13029464914;28641975;928366011;4;0;1384;0;4;4
2;55;1571866318147;1571866325801;7654;25095000344;66762340760;1879179951;366091255;13025786310;28735448;929072277;4;0;1384;0;3;3
2;56;1571866325826;1571866333692;7866;25462755948;66754251921;1873968826;440051584;13022894669;28656411;931714168;4;0;1384;0;3;3
2;57;1571866333718;1571866341706;7988;25204649848;66721818887;1851413982;407997516;13012085096;28554696;929941060;46;26;9568;-1;133;1959
2;58;1571866341744;1571866349175;7431;24249718306;64426819034;1862136923;394854217;12178433843;27787945;927417205;3;0;1296;1;3;3
2;59;1571866349202;1571866356648;7446;24952470618;66702752057;1847261551;389232898;13004772129;28688445;929802978;4;0;1384;0;4;4
2;60;1571866356672;1571866364315;7643;25387175106;66768738385;1848106027;455620228;13028818176;28645750;929033650;4;0;1384;0;5;5
2;61;1571866364339;1571866371868;7529;25026952664;66695504416;1863443742;384585467;13002182989;28687539;930781137;41;20;8048;0;93;294
2;62;1571866371894;1571866379871;7977;25441285626;66726042509;1848895513;460867426;13013602003;28571309;929379361;4;0;1384;0;4;4
2;63;1571866379899;1571866387691;7792;25419571922;66746544821;1844952180;444640650;13019664054;28753107;931101342;6;0;1400;0;4;4
2;64;1571866387717;1571866395305;7588;25146616162;66699543212;1846994450;394364644;13003813380;28741514;927973116;4;0;1384;0;3;3
2;65;1571866395330;1571866402989;7659;25305646954;66742861103;1872851404;436000619;13019091876;28706148;930412899;49;16;8368;0;98;452
2;66;1571866403015;1571866410744;7729;24929019952;66758810603;1863975149;367360307;13025400921;28626966;927681896;4;0;1384;0;4;4
2;67;1571866410770;1571866418572;7802;25107356324;66710485410;1866415155;390237615;13007215988;28817754;929796890;5;0;1392;0;5;5
2;68;1571866418597;1571866426056;7459;24959884790;66531905168;1846020438;379617541;12942411069;28538357;928807487;4;0;1384;0;3;3
2;69;1571866426080;1571866433853;7773;25157318546;66637477972;1857944601;420427319;12981026710;28665013;930274040;11;0;1472;0;3;8
2;70;1571866433879;1571866441621;7742;25270591624;66759119494;1853314035;433087679;13025085654;28740751;929485738;519;40;56048;0;1787;2885
2;71;1571866441647;1571866449075;7428;24979700202;66726141874;1852809555;391377197;13012379776;28623356;929758213;6;0;1408;0;4;4
2;72;1571866449100;1571866457169;8069;25327913122;66762545515;1849669896;443801677;13026257657;28714467;930791268;4;0;1384;0;3;3
2;73;1571866457194;1571866464930;7736;25283219164;66713567054;1846575428;441190044;13009055547;28637026;929527650;9;0;1432;0;5;8
2;74;1571866464954;1571866472740;7786;25394897046;66852239194;1849820237;433674550;13058454126;28624726;930785473;51;20;8888;0;105;550
2;75;1571866472767;1571866480345;7578;25083146166;66789588920;1861764832;386399458;13036286387;28656720;930473172;82;0;2176;0;119;1185
2;76;1571866480370;1571866488202;7832;25267623882;66698074430;1845809843;446529983;13003857985;28658390;929013358;4;0;1384;0;4;4
2;77;1571866488227;1571866495806;7579;25069322740;66745779258;1866321154;405932169;13020267706;28574311;930470480;9;0;1432;0;6;10
2;78;1571866495831;1571866503564;7733;24896967258;66549017262;1851789669;386532922;12948778079;28660007;931081511;58;32;11480;0;156;660
2;79;1571866503591;1571866511164;7573;25472332818;66692792859;1864545874;440068903;13001248206;28693722;931392967;5;0;1392;0;4;4
2;80;1571866511189;1571866518933;7744;25291204926;66731325660;1848224493;416897721;13015925560;28570158;930489731;4;0;1384;0;3;3
2;81;1571866518958;1571866526643;7685;25151012076;66773413355;1858476913;403882640;13030000008;28633509;930721331;11;0;1448;0;5;11
2;82;1571866526668;1571866534146;7478;24745852002;66686779440;1854331123;346152469;12998787494;28621611;930821491;29;22;8184;0;87;217
2;83;1571866534173;1571866542009;7836;25658776862;66630267280;1845724735;507505141;12977670858;28628648;929209431;5;0;1392;0;3;3
2;84;1571866542036;1571866549617;7581;25271311842;66737768027;1850178589;433381737;13018204849;28638678;927061309;5;0;1472;-1;6;6
2;85;1571866549642;1571866557644;8002;25153816736;66695819332;1847967175;407987557;13001855199;28713116;929055414;11;0;1472;0;13;17
2;86;1571866557668;1571866565284;7616;24391693232;64451570769;1862542548;379743982;12186613415;27958175;926629950;5;0;1312;1;4;4
2;87;1571866565338;1571866572917;7579;25061774248;66034460074;1875550205;434594335;12762335908;28359875;930310201;52;16;8408;0;97;553
2;88;1571866572942;1571866580575;7633;25280972808;66762609753;1872880394;417666164;13027238812;28604383;930038087;10;0;1440;0;5;10
2;89;1571866580601;1571866588169;7568;25433466888;66733379800;1877592393;432276450;13015383603;28683581;929257007;4;0;1384;0;5;5
2;90;1571866588194;1571866595915;7721;25572799944;66800999053;1873479822;443418850;13040590387;28675077;929350494;5;0;1392;0;4;4
2;91;1571866595942;1571866603386;7444;25014384838;66794969799;1880026852;386469686;13038438195;28753880;930733725;4;0;1384;0;4;4
3;47;1571867095214;1571867102512;7298;24496481958;57934186052;1863543329;402676702;13072621049;29409466;918352327;11;0;1456;0;3;9
3;48;1571867102538;1571867109672;7134;23820515098;57215148888;1854968091;371536305;12810175374;29178629;917162190;52;26;9944;0;119;561
3;49;1571867109697;1571867116985;7288;24473530612;58180905283;1860739846;394339263;13161206274;29368209;918890060;4;0;1384;0;4;4
3;50;1571867117011;1571867124257;7246;24342961060;58243414049;1868311864;396403390;13185014268;29388631;918952980;5;0;1392;0;4;4
3;51;1571867124283;1571867131657;7374;24663982356;58244320297;1831406776;437157152;13184888249;29507297;919551658;4;0;1384;0;4;4
3;52;1571867131681;1571867138847;7166;24100235038;57926097120;1843200052;353898868;13070132140;29392743;921185489;64;20;10480;0;126;590
3;53;1571867138873;1571867146073;7200;23397880868;56141267563;1840080810;345837821;12420859899;28788951;919913079;4;0;1384;0;5;5
3;54;1571867146099;1571867153316;7217;24262381762;58215837310;1834890335;389388869;13173515578;29452782;919360959;5;0;1392;0;4;4
3;55;1571867153343;1571867161137;7794;24488353408;58358573018;1831864026;404420864;13226846793;29522438;918242752;5;0;1472;-1;3;3
3;56;1571867161167;1571867168359;7192;23919688518;56849407769;1830300759;398069249;12677853439;29066721;917716359;9;0;1344;1;4;9
3;57;1571867168385;1571867175732;7347;24615992886;58073405504;1858561765;441101844;13122189761;29368248;917166410;37;18;9400;0;86;301
3;58;1571867175759;1571867183188;7429;24907583648;58330321001;1865557556;435941646;13215997962;29485791;916673232;5;0;1400;0;4;4
3;59;1571867183215;1571867190749;7534;24506417258;58044234674;1842230628;382289316;13111843102;29550815;921321962;5;0;1472;-1;4;4
3;60;1571867190773;1571867197823;7050;23263939884;55825303066;1831081888;370928510;12305785936;28711257;916940530;9;0;1344;1;4;9
3;61;1571867197847;1571867205160;7313;24516950720;58303395666;1863542623;406003014;13206163598;29566123;918711992;4;0;1384;0;3;3
3;62;1571867205185;1571867212566;7381;24794556872;58184726275;1859550708;443500339;13163235710;29576646;918847969;42;26;9544;0;122;402
3;63;1571867212593;1571867219860;7267;24302037406;58307939288;1848114645;371738324;13207700865;29515504;919231260;4;0;1384;0;4;4
3;64;1571867219886;1571867227329;7443;24603729178;58340417157;1853205092;407036995;13219329088;29554940;920240873;9;0;1432;0;5;8
3;65;1571867227355;1571867234818;7463;24652166722;58312491268;1863962043;406596647;13208421521;29672749;918497140;4;0;1384;0;4;4
3;66;1571867234844;1571867242233;7389;24775042366;58315359860;1866654108;427227630;13210480962;29530516;919679136;46;20;9232;0;106;413
3;67;1571867242261;1571867249531;7270;24338013558;58328790682;1869860480;372458685;13215477233;29498665;919699869;4;0;1384;0;4;4
3;68;1571867249556;1571867256868;7312;24471848984;58242391089;1867440567;393527797;13183122609;29414702;917828005;8;0;1416;0;5;8
3;69;1571867256894;1571867264174;7280;24480600370;58270893172;1847265238;392932388;13194720553;29383158;920080636;4;0;1384;0;4;4
3;70;1571867264200;1571867271533;7333;24629481826;58316953345;1855374932;427819007;13211815493;29495602;919801442;41;28;9584;0;106;363
3;71;1571867271559;1571867278888;7329;24650808630;58304080357;1870733873;414516086;13206753211;29526944;924300117;4;0;1384;0;4;4
3;72;1571867278913;1571867286189;7276;24416663466;58291754046;1869116099;373256417;13201598935;29444184;917968783;4;0;1384;0;3;3
3;73;1571867286214;1571867293583;7369;24736819420;58308968173;1846215560;417190378;13208001478;29388929;918425859;11;0;1472;0;6;12
3;74;1571867293611;1571867300785;7174;24017816432;57744657938;1854501369;343074810;13003348203;29426542;918293578;4;0;1384;0;3;3
3;75;1571867300812;1571867308078;7266;24445332902;58088865547;1832733901;386914738;13127625442;29346573;918318470;40;30;10032;0;145;491
3;76;1571867308103;1571867315323;7220;24143968608;57738374436;1863898631;379628556;13000033688;29381799;918150951;5;0;1472;-1;2;2
3;77;1571867315350;1571867322586;7236;24317471358;58258799249;1853276412;372724065;13189736281;29381434;918342482;7;0;1328;1;4;6
3;78;1571867322611;1571867329836;7225;24219739104;58149071667;1828494481;367237371;13149240437;29443970;917813910;4;0;1384;0;4;4
3;79;1571867329864;1571867337255;7391;24523581310;58275007881;1831834813;417097911;13195917643;29533762;919630017;503;44;57768;0;1512;2810
3;80;1571867337283;1571867344900;7617;24291778132;58231373629;1841184935;359196014;13179785265;29502236;919014088;537;43;208912;0;1904;5532
3;81;1571867344926;1571867352267;7341;24726154996;57879237364;1861283108;436858543;13052430002;29376233;918861388;8;0;1416;0;4;6
3;82;1571867352292;1571867359507;7215;24202046386;58336477165;1833028140;333995847;13218389518;29388651;920018766;4;0;1384;0;2;2
3;83;1571867359535;1571867366794;7259;24429049960;58223243639;1830719679;389821967;13177416315;29454985;918723557;56;26;9408;1;120;631
3;84;1571867366820;1571867374078;7258;24391108794;58346853700;1834550094;379144687;13222386369;29499823;918492238;6;0;1472;-2;20;36
3;85;1571867374104;1571867381433;7329;24551938890;58272503014;1829169598;411249048;13194608956;29411316;918139076;93;0;2240;1;184;1698
3;86;1571867381459;1571867388617;7158;23738071526;58297348372;1833494697;307866049;13203624426;29425840;917276256;4;0;1384;0;4;4
3;87;1571867388644;1571867395793;7149;23369954134;55800906313;1826379111;361327943;12297466583;28625158;916460931;5;0;1392;0;4;4
3;88;1571867395819;1571867403202;7383;24247316460;58103077061;1867855724;364791056;13133140610;29409550;919272877;66;38;12784;-1;145;755
3;89;1571867403244;1571867410619;7375;23802469644;56017708117;1857604768;393078295;12375638499;28827678;917831063;8;0;1336;1;5;9
3;90;1571867410645;1571867417710;7065;23736044170;57972139771;1859662399;302610150;13084740793;29259244;918846991;4;0;1384;0;4;4
3;91;1571867417738;1571867425020;7282;24469241278;58275746775;1865094346;389848441;13195857629;29398526;918541258;4;0;1384;0;4;4
3;92;1571867425046;1571867432209;7163;24076128978;58343604542;1837886390;349939921;13220978954;29375721;918136322;6;0;1416;0;4;4
3;93;1571867432235;1571867439422;7187;24064103104;58264149521;1830916975;345253416;13192881533;29451186;918703137;47;28;10768;-1;129;492
3;94;1571867439449;1571867446509;7060;23181420392;55755934967;1833899265;348148341;12280447616;28533434;916019008;9;0;1352;1;5;10
3;95;1571867446537;1571867453816;7279;24376437400;58286247100;1828959087;391087338;13199858822;29415807;917161495;4;0;1384;0;3;3
3;96;1571867453841;1571867461051;7210;24269166090;58321865244;1842105721;377636555;13211763498;29486616;918666561;6;0;1432;0;10;10
4;44;1571867973404;1571867980986;7582;25511794866;66408126788;1877842997;455656479;13133593352;28418072;929852150;6;0;1480;-1;5;5
4;45;1571867981011;1571867988602;7591;25595925906;66252665064;1879489533;458146029;13076422017;28365328;929923437;44;20;8992;1;111;442
4;46;1571867988628;1571867996287;7659;25812015104;66457693722;1874783269;485853174;13150520954;28460961;929033621;11;0;1448;0;4;10
4;47;1571867996314;1571868004001;7687;25125504562;66214571323;1880906104;408372421;13062284079;28386995;930775519;4;0;1384;0;3;3
4;48;1571868004027;1571868011488;7461;25132669220;66373072073;1870422820;404042096;13121262463;28390674;931810488;5;0;1392;0;3;3
4;49;1571868011536;1571868019148;7612;25232235964;66389531184;1887779859;425057374;13125659137;28408074;937953972;49;24;9464;0;115;520
4;50;1571868019173;1571868026769;7596;25172024104;65330960291;1867378078;461562779;12741643394;28135104;931371036;9;0;1432;0;3;7
4;51;1571868026795;1571868034382;7587;25410925802;66287882225;1843950446;460621606;13090547595;28364446;931228488;4;0;1384;0;3;3
4;52;1571868034407;1571868041921;7514;25306360602;66440047731;1847634391;419927171;13144471961;28413524;931823136;6;0;1408;0;5;5
4;53;1571868041947;1571868049662;7715;25514829184;66424583539;1844859332;451073445;13139374237;28425198;932834592;4;0;1384;0;3;3
4;54;1571868049688;1571868057291;7603;25573419714;66399897043;1841376693;463364705;13130306829;28372565;929322826;66;24;9928;0;124;641
4;55;1571868057318;1571868064886;7568;25478337798;66362397896;1844073581;455182118;13116125168;28402499;931219231;4;0;1392;0;3;3
4;56;1571868064912;1571868072357;7445;25020417412;66107820445;1846823517;394681359;13023678932;28370241;932721296;4;0;1384;0;4;4
4;57;1571868072383;1571868079967;7584;25546829026;66408815907;1843076428;465028479;13133616809;28393094;932816517;4;0;1384;0;4;4
4;58;1571868079993;1571868087469;7476;25219678358;66380992546;1864217207;427617660;13123283202;28453646;933107783;49;32;10240;0;106;340
4;59;1571868087496;1571868094990;7494;25232853982;66290068822;1849633209;426671257;13090731894;28359175;929978648;4;0;1384;0;3;3
4;60;1571868095034;1571868102608;7574;25142845858;66166816510;1869956967;402719015;13045513286;28408727;931380984;4;0;1384;0;4;4
4;61;1571868102633;1571868110364;7731;25551831862;66420890201;1874961242;447601301;13138300235;28417251;930217703;4;0;1384;0;3;3
4;62;1571868110390;1571868118198;7808;25531064092;66434482171;1876306869;459848954;13142867288;28438944;931467642;9;0;1424;0;5;9
4;63;1571868118225;1571868125752;7527;25182381782;66372461592;1880701562;395411794;13119738789;28538328;930857076;38;14;7032;0;87;338
4;64;1571868125778;1571868133344;7566;25460651066;66161765207;1872549648;449034311;13044403003;28346138;932540573;7;0;1416;0;12;12
4;65;1571868133369;1571868140941;7572;25476023260;66014886282;1875383802;463671095;12990971964;28323141;933326968;4;0;1384;0;4;4
4;66;1571868140968;1571868148562;7594;25529000674;66336263666;1847025959;488518895;13106729184;28445504;931713720;8;0;1416;0;4;7
4;67;1571868148589;1571868156177;7588;25498014656;66315921374;1855174768;456159330;13099767621;28435906;929087949;46;20;9752;0;119;479
4;68;1571868156203;1571868163620;7417;24969440344;66132364084;1852436670;377320904;13032861458;28314990;931651750;6;0;1408;0;3;3
4;69;1571868163646;1571868171158;7512;25311764062;66405968240;1847458615;424375662;13132882206;28378872;929027745;4;0;1384;0;4;4
4;70;1571868171184;1571868178672;7488;25237703372;66390292863;1880282811;397609456;13125844333;28411923;929197617;12;0;1504;0;48;60
4;71;1571868178699;1571868186253;7554;25499728258;66384834587;1847168387;465964625;13125536703;28309129;930505920;4;0;1384;0;3;3
4;72;1571868186279;1571868193746;7467;25079874014;66283407045;1855405085;399968847;13087755025;28377861;929940393;40;30;10368;0;134;390
4;73;1571868193771;1571868201380;7609;25520747878;66414542394;1875240847;446941966;13135441784;28431770;930156519;492;29;62560;0;1544;2377
4;74;1571868201406;1571868208990;7584;25535315758;66418211338;1875949788;445606294;13137505214;28370806;929986694;10;0;1464;0;13;25
4;75;1571868209018;1571868216551;7533;25380658542;66417825211;1869369577;413503848;13136092508;28381151;932375293;4;0;1384;0;3;3
4;76;1571868216576;1571868224153;7577;25542332664;66419924077;1874615681;459516414;13137687946;28446283;931959205;8;0;1504;-1;4;4
4;77;1571868224179;1571868231540;7361;24678304080;66055657922;1878356980;350915684;13005020839;28316776;931133896;34;34;9952;1;120;257
4;78;1571868231568;1571868239058;7490;25281613748;66410352230;1862844419;416850225;13133994055;28415790;930757042;87;0;2192;0;72;1932
4;79;1571868239084;1571868246660;7576;25508477892;66283095274;1874845062;450867033;13087948677;28344323;930808422;4;0;1384;0;3;3
4;80;1571868246685;1571868254280;7595;25612883368;66404149320;1877057955;464134552;13131874629;28324721;929876959;6;0;1432;0;19;19
4;81;1571868254306;1571868261890;7584;25438699382;66385495241;1879266073;428592212;13124475931;28331825;930535557;4;0;1384;0;3;3
4;82;1571868261916;1571868269535;7619;25637314570;66411337728;1877845501;459613498;13133568450;28445771;930854691;58;40;11448;0;117;590
4;83;1571868269563;1571868277097;7534;25362531328;66420019437;1878755370;429593020;13137179464;28540835;930058839;4;0;1384;0;4;4
4;84;1571868277122;1571868284672;7550;25414346144;66372992487;1873734326;453159982;13120698665;28325573;931232314;6;0;1480;-1;3;3
4;85;1571868284697;1571868292291;7594;25576524988;66392369597;1876342521;465406096;13127709198;28314904;931239569;3;0;1296;1;3;3
4;86;1571868292318;1571868299892;7574;25527689594;66425147841;1877571512;442917011;13139759001;28420356;929938327;9;0;1424;0;4;8
4;87;1571868299919;1571868307490;7571;25530034354;66392235607;1876025987;452903760;13128403195;28326389;929435183;47;20;9784;0;101;469
4;88;1571868307516;1571868315087;7571;25507890534;66388923625;1876227771;441217310;13127336724;28321681;928812436;7;0;1416;0;4;4
4;89;1571868315113;1571868322717;7604;25595195468;66402160203;1872659485;459989945;13131056261;28376892;930668008;4;0;1384;0;3;3
4;90;1571868322742;1571868330299;7557;25440916684;66379088393;1880127977;449397207;13123569388;28227695;929547804;8;0;1416;0;4;7
4;91;1571868330326;1571868337873;7547;25428581290;66396773576;1873569712;440640685;13128870772;28423380;929253132;4;0;1384;0;4;4
4;92;1571868337898;1571868345505;7607;25618548606;66413417391;1873119461;468855534;13135582389;28416241;931682109;53;22;9736;0;109;492
4;93;1571868345531;1571868353158;7627;25714924520;66411043636;1875007558;476134576;13134516139;28327449;929364595;4;0;1384;0;4;4
