0;78;1571939092498;1571939097899;5401;16998915050;49507476331;373663852;250203399;8837214815;695803;166099717;525;1084;26464;-5;263;751
0;79;1571939097899;1571939103299;5400;16991471678;49507464551;373841281;250701222;8837211549;691053;166096536;451;1148;26400;1;197;453
0;80;1571939103299;1571939108715;5416;16998920598;49507487110;373776931;250618229;8837221245;699087;166655402;439;1161;26400;0;178;498
0;81;1571939108715;1571939114116;5401;16996207626;49507481699;373569795;250316161;8837224592;685060;165999311;877;1325;79304;9;921;64656
0;82;1571939114116;1571939119517;5401;17002054488;49507527392;373907943;250587901;8837232351;690068;166452949;1295;311;26400;-6;385;4078
0;83;1571939119518;1571939124912;5394;16998112342;49507513795;373865182;250462298;8837226589;688696;166299775;1056;552;26496;-8;318;2913
0;84;1571939124912;1571939130325;5413;16996317418;49507516445;373805668;250158697;8837228223;699398;166731259;492;1109;26368;4;233;647
0;85;1571939130325;1571939136223;5898;17004123308;49507457927;375396386;250327911;8837206535;730072;166165828;416;1188;26496;-4;225;589
0;86;1571939136223;1571939141600;5377;16987904168;49507521091;374074941;250409845;8837240319;687958;166561624;439;1164;26424;0;184;548
0;87;1571939141600;1571939147002;5402;17000386438;49507551346;373924027;250698508;8837233367;691243;166383225;1040;871;55440;9;710;22089
0;88;1571939147002;1571939152398;5396;17003911900;49507479270;373840445;250444172;8837215698;693412;166544726;1331;267;26400;2;367;4134
0;89;1571939152398;1571939157789;5391;17011542736;49507506865;373829282;250501393;8837229304;687472;166465783;660;950;26464;-6;307;1226
0;90;1571939157789;1571939163202;5413;16996963030;49507442561;373981394;250564482;8837202090;695804;166290751;456;1149;26496;-5;219;565
0;91;1571939163202;1571939168583;5381;16995372798;49507540160;373877787;250310910;8837248187;893286;166083431;433;1167;26400;0;203;512
0;92;1571939168583;1571939173981;5398;16992427248;49507493246;373908026;250644107;8837224684;687865;166494407;538;1056;26336;10;166;753
0;93;1571939173982;1571939179379;5397;16998106064;49507452706;373876306;250716441;8837201909;693871;166349379;1287;680;57584;3;717;23462
0;94;1571939179379;1571939184794;5415;17004532254;49507502315;374051737;250449559;8837230879;694663;166871945;1244;362;26400;-6;357;3725
0;95;1571939184794;1571939190196;5402;17003416230;49507448518;373932584;250589261;8837205131;748027;166245472;520;1089;26512;-6;310;809
0;96;1571939190196;1571939195581;5385;16995781014;49507515494;373743297;250261439;8837232690;691323;166369375;438;1163;26432;-1;230;604
0;97;1571939195581;1571939200966;5385;17001587726;49507502796;373778597;250515965;8837229512;686480;166574209;448;1152;26400;0;200;587
0;98;1571939200966;1571939206354;5388;16997230356;49507448926;373916083;250531687;8837203662;685754;166554143;911;1310;80952;14;886;72650
0;99;1571939206354;1571939211756;5402;17002671046;49507519732;374190706;250253879;8837228251;807591;166343233;1276;324;26400;0;366;3863
0;100;1571939211756;1571939217169;5413;16999458024;49507465228;373982400;250673484;8837213005;697593;166580852;1038;571;26400;-9;333;2791
0;101;1571939217169;1571939222776;5607;17004492834;49507504956;375862375;250791922;8837231456;749900;166572145;1689;1007;128296;5;4209;125633
0;102;1571939222776;1571939228166;5390;16995367104;49507520763;373824874;250598776;8837236186;683529;166298844;1161;446;26400;-7;337;3448
0;103;1571939228166;1571939233567;5401;16985172070;49507524149;373011141;250154336;8837219918;699353;165184943;457;1144;26424;2;253;793
0;104;1571939233567;1571939238965;5398;16981097210;49507455674;373047113;249851666;8837210814;693418;165291639;429;1179;26592;-5;244;458
0;105;1571939238966;1571939244355;5389;16978474904;49507466924;373672826;250182190;8837215963;690551;164963228;498;1090;26304;12;176;682
0;106;1571939244355;1571939249740;5385;16987515662;49507534873;372951693;250518882;8837243072;691526;164864085;518;1098;26560;-12;175;726
0;107;1571939249741;1571939255139;5398;16993771324;49507447057;375530625;250317478;8837208356;690579;164705073;1286;838;65136;9;871;58626
0;108;1571939255139;1571939260529;5390;16979279802;49507422917;374442959;250269886;8837203439;697993;165070469;1317;282;26400;1;376;4216
0;109;1571939260529;1571939265901;5372;16978844138;49507469244;373087956;250270909;8837217592;686824;165286311;690;996;27232;-4;410;2444
0;110;1571939265901;1571939271282;5381;16977206894;49507480807;373210758;250181722;8837223533;690558;165148801;451;1154;26496;-5;170;514
0;111;1571939271282;1571939276692;5410;16979865554;49507477957;373601040;250128493;8837221004;684791;164885667;433;1169;26568;-2;198;530
0;112;1571939276692;1571939283221;6529;16981284090;49507465729;375864653;250690982;8837215363;716738;165598072;684;1350;59216;12;679;39695
0;113;1571939283221;1571939289700;6479;16981246860;49507466739;375580698;250632572;8837215281;737184;165569489;1251;347;26400;2;368;3923
0;114;1571939289700;1571939295089;5389;16983869166;49507466339;375368931;249939780;8837214165;693466;165236415;1022;592;26440;-9;298;2741
0;115;1571939295089;1571939300472;5383;16982542318;49507468282;374555974;250111093;8837227667;694110;165527276;470;1130;26400;0;198;596
0;116;1571939300472;1571939305856;5384;16986999844;49507459168;373120421;250550825;8837212803;687728;164978731;467;1138;26664;-5;234;648
0;117;1571939305857;1571939311251;5394;16980592780;49507481539;375142553;250150129;8837222597;693166;164525666;494;1109;26448;0;179;664
0;118;1571939311252;1571939316728;5476;16978851876;49507477125;373324410;250421899;8837221444;697397;165516768;1386;881;78376;10;1018;76244
0;119;1571939316728;1571939322131;5403;16982303024;49507406319;373146279;250319191;8837192602;694266;164961491;1313;283;26400;4;389;4197
0;120;1571939322131;1571939327518;5387;16980871494;49507520380;372702193;249891090;8837241269;685198;164918171;639;979;26536;-13;228;1044
0;121;1571939327519;1571939332908;5389;16983878802;49507465441;372753087;250116357;8837216115;689201;164876983;463;1138;26568;-1;162;439
0;122;1571939332908;1571939338336;5428;16984716404;49507421845;373335921;250387715;8837200404;698147;165285008;433;1163;26136;4;209;572
0;123;1571939338337;1571939343746;5409;16983968884;49507521108;374687174;250243939;8837234096;696884;165818974;410;1190;26440;2;201;473
0;124;1571939343746;1571939349147;5401;16979121246;49507446100;373570458;250650443;8837204916;695673;165137129;1550;706;81776;8;1192;89472
0;125;1571939349147;1571939354540;5393;16978842386;49507529981;373524394;249870956;8837238222;694271;164903079;1247;359;26400;-6;360;3746
0;126;1571939354540;1571939359941;5401;16988797396;49507559964;372807578;250014131;8837239473;691004;164734218;531;1082;26704;-8;241;658
0;127;1571939359941;1571939365346;5405;16992921604;49507511881;372873141;250042970;8837216486;692065;165211261;440;1155;26136;5;174;427
1;81;1571939959341;1571939964641;5300;16610168588;49437165812;380562836;251996772;8828404429;628907;167151494;1278;322;26376;0;371;3815
1;82;1571939964641;1571939969930;5289;16589474256;49437078252;377259977;251752506;8828371438;624691;167183317;1054;559;26544;-6;361;3080
1;83;1571939969930;1571939975202;5272;16595674292;49437140493;378671433;251778462;8828384345;620296;167603087;461;1138;26440;1;308;674
1;84;1571939975202;1571939980485;5283;16604935656;49437054966;380510493;251878402;8828354091;618018;166741645;463;1136;26296;1;184;502
1;85;1571939980485;1571939985766;5281;16601750958;49437137103;379935415;251992187;8828380727;625490;166645082;407;1199;26720;-4;147;356
1;86;1571939985768;1571939991076;5308;16604191932;49437083659;380178279;251834905;8828378422;627095;167853562;944;1186;76360;11;896;79418
1;87;1571939991077;1571939996468;5391;16603721520;49437124284;380903449;251690415;8828378609;685940;167029284;1288;308;26400;4;369;3968
1;88;1571939996468;1571940001775;5307;16607693450;49437148291;380987113;251994609;8828400557;623062;166797223;984;634;26536;-12;351;2642
1;89;1571940001775;1571940007062;5287;16605253936;49437115871;380836996;251931740;8828380797;635961;166777500;485;1117;26432;-2;228;527
1;90;1571940007063;1571940012366;5303;16599194352;49437109134;378388354;251609582;8828377908;625247;168174752;432;1164;26304;4;202;494
1;91;1571940012366;1571940017660;5294;16600605004;49437029950;380795341;252127931;8828344653;623372;166738390;457;1148;26488;-2;188;484
1;92;1571940017661;1571940022963;5302;16594210934;49437140309;379424964;251620033;8828383327;615484;166804980;1043;1106;75920;12;867;50868
1;93;1571940022963;1571940028242;5279;16590575534;49437104263;378420653;251890092;8828379638;621219;166802776;1338;261;26400;1;374;4208
1;94;1571940028242;1571940033528;5286;16599300056;49437055119;380694733;252012717;8828361145;620947;166738934;764;854;26440;-13;280;1556
1;95;1571940033528;1571940038808;5280;16594876694;49437144240;380669134;251793946;8828396857;618808;166844254;489;1114;26664;-3;163;488
1;96;1571940038808;1571940044086;5278;16606712038;49437074468;380474474;251765985;8828375050;650057;167721152;432;1167;26232;1;182;449
1;97;1571940044087;1571940049368;5281;16590235500;49437102397;377630012;251669522;8828380459;625157;167795691;420;1179;26384;4;165;443
1;98;1571940049368;1571940054654;5286;16601238352;49437072537;379231282;251981988;8828358072;620523;166809305;1225;756;56880;5;740;29697
1;99;1571940054654;1571940059942;5288;16590163084;49437096006;380090954;251955946;8828372929;623376;166796492;1307;293;26400;0;360;4101
1;100;1571940059942;1571940065220;5278;16585346982;49437073183;376638627;251896705;8828375375;619231;167407914;592;1020;26448;-6;309;1088
1;101;1571940065220;1571940070522;5302;16598158336;49437078479;379171744;251925526;8828369349;647043;167137651;471;1133;26528;-3;216;510
1;102;1571940070523;1571940075823;5300;16603497118;49437171486;378987724;251906792;8828406541;619581;166811889;457;1139;26304;4;165;441
1;103;1571940075823;1571940081111;5288;16639136010;49437140447;378518861;251471015;8828384366;621292;168777369;508;1098;26696;-5;203;740
1;104;1571940081111;1571940086407;5296;16633542896;49437089124;377005509;251816211;8828374469;620715;167797924;1400;787;79112;14;999;74154
1;105;1571940086407;1571940091744;5337;16639487578;49436996958;380858762;251601795;8828340663;629080;169766571;1373;551;44680;145;548;30101
1;106;1571940091744;1571940097346;5602;16644096798;49437126607;382546790;252425055;8828378425;704031;168462733;1684;625;97248;-156;4366;94150
1;107;1571940097346;1571940102630;5284;16639201272;49437058310;380105774;251468643;8828373987;613921;168940193;460;1137;26336;3;286;730
1;108;1571940102630;1571940107945;5315;16637537310;49437106028;376642566;251800748;8828369074;620776;167128478;446;1159;26512;-1;232;517
1;109;1571940107946;1571940113250;5304;16639673290;49437075355;379555829;251676704;8828376087;681337;167625670;430;1175;26664;-5;158;400
1;110;1571940113250;1571940118540;5290;16636828334;49437058090;380496871;251495016;8828375425;630824;168578933;473;1127;26400;0;166;639
1;111;1571940118540;1571940124046;5506;16625187900;49437080626;380471084;251543659;8828378496;623444;168368336;1095;1252;80376;12;994;89472
1;112;1571940124047;1571940129356;5309;16646520982;49437035702;380125852;251854618;8828354033;639258;167347320;1281;316;26400;3;379;3926
1;113;1571940129356;1571940134673;5317;16649909496;49437088344;381045987;251903609;8828374399;651431;167336638;1017;596;26496;-12;380;2830
1;114;1571940134673;1571940139968;5295;16625371422;49437049858;380108167;251751001;8828368782;616144;167348496;475;1135;26584;1;248;753
1;115;1571940139968;1571940145276;5308;16651355918;49437085486;376983938;251657726;8828367716;606500;167312427;474;1124;26336;2;263;637
1;116;1571940145276;1571940150562;5286;16633001236;49437112592;376597319;251545541;8828391147;617104;167789481;428;1174;26400;-2;164;379
1;117;1571940150562;1571940155988;5426;16645091496;49437080275;380763120;251854561;8828376164;617277;167448190;1280;1164;80152;10;1279;142216
1;118;1571940155988;1571940161285;5297;16645455766;49437145845;380946783;251725178;8828390354;644897;167106993;1303;296;26400;1;376;4159
1;119;1571940161285;1571940166594;5309;16630949352;49437038153;380994674;251857940;8828354317;614457;167625154;931;684;26528;-14;341;2375
1;120;1571940166594;1571940171898;5304;16644443694;49437100069;380698514;251895358;8828375266;611294;166983235;484;1116;26392;4;203;529
1;121;1571940171899;1571940177185;5286;16646870360;49437105813;380768382;251671538;8828380274;610252;167158424;462;1142;26640;-4;200;555
1;122;1571940177185;1571940182474;5289;16630377178;49437048386;377021393;251437263;8828360536;607729;167216843;421;1179;26256;0;130;299
1;123;1571940182474;1571940187795;5321;16660365140;49437123527;379837414;251368966;8828393842;620469;168351579;1354;1002;77424;12;1487;119142
1;124;1571940187795;1571940193122;5327;16653077842;49437104719;380956161;251807667;8828381226;681139;167215111;1327;271;26400;2;381;4319
1;125;1571940193122;1571940198434;5312;16642579566;49437062679;379084709;251844214;8828371640;620354;167316323;803;807;26432;-9;305;1936
1;126;1571940198434;1571940203726;5292;16637725212;49437057491;380833046;251851076;8828356291;613154;167154369;503;1107;26728;-6;214;611
1;127;1571940203726;1571940209018;5292;16635774798;49437132062;380273533;251787857;8828380079;616336;168043132;449;1151;26400;0;159;423
1;128;1571940209018;1571940214330;5312;16632444976;49437095536;378128556;251716942;8828380455;624132;168435861;414;1176;26136;10;168;419
1;129;1571940214330;1571940219637;5307;16648417376;49437036841;376894507;251883705;8828362514;624911;167234321;1402;1009;85136;5;1300;131243
1;130;1571940219637;1571940224959;5322;16635769104;49437146356;376828021;251905754;8828400517;621231;167275254;1342;258;26400;0;380;4256
2;71;1571940783925;1571940789708;5783;18379945840;52960490110;377533592;254757676;9557864117;829912;168484128;957;658;26448;-10;292;2465
2;72;1571940789708;1571940795598;5890;18387789836;52960415402;378805040;254706953;9557831941;728815;169918742;469;1133;26464;-2;285;772
2;73;1571940795599;1571940801384;5785;18382540990;52960465193;381116497;254520049;9557844432;644996;167914617;458;1141;26336;1;226;634
2;74;1571940801384;1571940807161;5777;18378555628;52960477544;381131900;254359896;9557857078;692637;167948095;644;1298;45464;90;431;26539
2;75;1571940807161;1571940812966;5805;18385684808;52960406911;380987892;254446986;9557828039;680254;167849967;1343;342;36936;-81;582;9213
2;76;1571940812967;1571940818758;5791;18369459974;52960465770;380994700;254361525;9557845543;690154;167762332;1093;520;26448;-8;333;3154
2;77;1571940818758;1571940824539;5781;18376734132;52960457047;381064333;254587323;9557844863;663055;167933830;492;1108;26400;0;235;656
2;78;1571940824539;1571940830313;5774;18370058720;52960425734;380894173;254492461;9557833467;706568;167763759;464;1136;26400;0;234;588
2;79;1571940830314;1571940836145;5831;18381168736;52960464545;380944342;254634941;9557841059;671185;167809547;475;1132;26704;-5;256;871
2;80;1571940836145;1571940841971;5826;18375388888;52960466174;381284908;254226072;9557862621;678173;167928423;1262;699;55816;14;723;31667
2;81;1571940841971;1571940847784;5813;18385095406;52960465597;381038377;254356427;9557844932;612964;167798886;1285;320;26400;-5;361;3887
2;82;1571940847784;1571940853582;5798;18385104312;52960440327;381001724;254610374;9557840952;648714;167907907;545;1067;26512;-6;256;898
2;83;1571940853582;1571940859373;5791;18383553792;52960534752;381023862;254523256;9557870790;653606;167915862;470;1132;26432;-2;216;572
2;84;1571940859373;1571940865174;5801;18388505090;52960458753;380962328;254485607;9557837736;719490;167855396;458;1144;26440;0;351;809
2;85;1571940865175;1571940870987;5812;18380816000;52960476294;381122696;254572396;9557857833;680580;167865912;1134;1048;72464;14;830;58549
2;86;1571940870988;1571940876799;5811;18386458462;52960436375;380944374;254660225;9557843933;683591;167952195;1338;262;26400;0;401;4544
2;87;1571940876799;1571940882587;5788;18384294158;52960442513;381008932;254540945;9557834162;667903;167890261;722;893;26440;-10;281;1634
2;88;1571940882588;1571940888387;5799;18385131030;52960449972;380955975;254448804;9557837796;634664;167959411;486;1114;26400;0;301;879
2;89;1571940888387;1571940894341;5954;18379157586;52960468336;380481938;254185646;9557860047;625054;169636616;431;1170;26400;-1;228;610
2;90;1571940894342;1571940900251;5909;18374938770;52960418943;377244819;254170260;9557832784;682023;167883872;931;1277;78560;9;938;63711
2;91;1571940900251;1571940906155;5904;18383486486;52960416877;377190626;254378681;9557833437;614925;168127059;1284;315;26400;1;366;3904
2;92;1571940906155;1571940911963;5808;18383950474;52960439757;377307678;254288139;9557851823;634311;168749451;1010;604;26496;-10;311;2846
2;93;1571940911963;1571940917870;5907;18384037052;52960421933;379447347;254490556;9557829336;694172;167831712;488;1115;26432;-3;300;890
2;94;1571940917870;1571940923674;5804;18393917602;52960484308;380986426;254328885;9557864403;642566;167890708;465;1134;26368;1;268;688
2;95;1571940923674;1571940929465;5791;18383707530;52960453250;380991571;254527670;9557851474;669869;167758748;438;1163;26392;2;193;457
2;96;1571940929465;1571940935272;5807;18376856772;52960425875;381390239;254623287;9557829727;694712;167807922;1459;802;79664;10;1150;92473
2;97;1571940935272;1571940941947;6675;18384129032;52960416204;380486358;254671620;9557835717;671429;169323668;2108;528;111616;-5;4307;185598
2;98;1571940941947;1571940947929;5982;18382504052;52960458975;377513454;254799914;9557854392;659814;168478937;588;1015;26400;-3;291;984
2;99;1571940947929;1571940953707;5778;18373005730;52960413739;377290132;254813461;9557826016;676007;167788943;473;1131;26464;-4;243;614
2;100;1571940953707;1571940959517;5810;18378727762;52960420022;377320526;254770591;9557833933;637325;168138870;439;1165;26480;0;227;580
2;101;1571940959517;1571940965296;5779;18383132728;52960472989;377147866;254577979;9557857467;669409;167746913;459;1141;26400;0;166;474
2;102;1571940965296;1571940971088;5792;18374726340;52960376357;377305008;254679957;9557818981;675284;168286365;583;1017;26432;0;192;958
2;103;1571940971089;1571940977123;6034;18395138746;52960529584;381810317;254460753;9557871919;707405;169613410;1540;837;90048;11;1426;130543
2;104;1571940977123;1571940982937;5814;18386585190;52960454461;382549674;254197858;9557853084;673053;169532560;1261;349;26592;-4;424;3984
2;105;1571940982937;1571940988753;5816;18390751008;52960405647;382541822;254494062;9557825521;655296;169442830;524;1089;26728;-9;320;1089
2;106;1571940988753;1571940994539;5786;18383635698;52960446952;378797259;254208152;9557842831;713315;169435514;466;1130;26136;4;205;532
2;107;1571940994539;1571941000334;5795;18378819742;52960462320;377507150;254012620;9557854881;713772;169348661;458;1140;26400;2;224;571
2;108;1571941000335;1571941006122;5787;18380198566;52960389296;377679088;253823456;9557828301;692526;169851541;1233;1177;94416;8;1146;102683
2;109;1571941006122;1571941011918;5796;18384473592;52960386120;377488252;254007111;9557824571;690180;169156945;1340;260;26400;0;376;4250
2;110;1571941011919;1571941017718;5799;18380562544;52960412431;377599887;253900844;9557842947;704489;169259738;695;916;26464;-11;287;1572
2;111;1571941017718;1571941023510;5792;18387438122;52960380829;380698773;254357934;9557818178;660264;169539114;484;1120;26472;-2;241;693
2;112;1571941023511;1571941029326;5815;18385610932;52960445782;382448208;254538132;9557854778;687785;169249715;455;1146;26568;-1;287;620
2;113;1571941029326;1571941035263;5937;18391037314;52960447892;382630881;254720111;9557854425;717262;169369520;792;1197;65312;12;672;22563
2;114;1571941035263;1571941041070;5807;18383451300;52960393399;382526697;254458680;9557821482;706365;169295236;1288;309;26400;3;363;3931
2;115;1571941041070;1571941046887;5817;18388529764;52960394749;382680061;254612253;9557836913;765819;169667796;990;620;26400;-10;290;2500
2;116;1571941046888;1571941052692;5804;18387370378;52960497536;382556985;254610146;9557860351;700571;169377826;490;1112;26440;0;231;752
2;117;1571941052692;1571941058491;5799;18392603456;52960415958;382433175;254437075;9557836447;652294;169271271;469;1135;26496;-4;244;654
2;118;1571941058491;1571941064316;5825;18394663078;52960401705;382573787;254583288;9557829364;622431;169531681;445;1155;26400;0;232;522
2;119;1571941064316;1571941070152;5836;18384785594;52960450895;382592715;254526019;9557845142;636325;169608426;1446;734;72840;13;933;68497
2;120;1571941070153;1571941075970;5817;18392446798;52960355348;382625004;254490783;9557813151;678256;169321287;1238;372;26464;-8;399;3731
3;72;1571941666275;1571941671975;5700;17926565324;53441348604;378978443;254613305;9821148593;652909;169373604;522;1091;26496;-9;338;840
3;73;1571941671975;1571941677673;5698;17929153758;53441351055;379516350;254974239;9821144723;652779;169600911;457;1138;26336;5;234;480
3;74;1571941677673;1571941683346;5673;17927269482;53441341863;379328003;254967887;9821142809;659243;169422546;544;1062;26456;-3;221;880
3;75;1571941683346;1571941689088;5742;17928160520;53441304302;379191725;254854142;9821124749;658335;168935744;1352;909;83632;10;1037;76640
3;76;1571941689088;1571941695037;5949;17930638432;53441352125;380280242;254690688;9821152287;654909;169672749;1298;305;26400;-3;368;3952
3;77;1571941695038;1571941700727;5689;17933985336;53441346963;380050774;255043282;9821146241;647653;169510062;572;1044;26704;-11;199;677
3;78;1571941700727;1571941706425;5698;17921156170;53441292463;379891496;254969482;9821116548;655287;169752871;453;1146;26232;1;255;481
3;79;1571941706425;1571941712095;5670;17931569912;53441322855;379459522;255019912;9821139375;651954;169378591;445;1152;26304;3;181;464
3;80;1571941712095;1571941717791;5696;17923174620;53441390354;379034146;254831192;9821158674;648001;169229322;888;1250;74848;9;837;61572
3;81;1571941717791;1571941723496;5705;17926724610;53441337185;380354095;254762192;9821146561;687035;171303074;1299;301;26432;1;372;4065
3;82;1571941723496;1571941729173;5677;17929018270;53441360855;379710424;255070469;9821147506;650343;169803294;905;712;26528;-12;290;2188
3;83;1571941729173;1571941735639;6466;17933872478;53441330704;381778105;254658468;9821139851;664333;170692224;392;1208;26368;1;178;460
3;84;1571941735639;1571941741559;5920;17929509852;53441327461;380872980;254940913;9821129484;691876;170910124;431;1171;26496;-2;210;474
3;85;1571941741559;1571941747275;5716;17925736336;53441400624;379118874;254666581;9821162598;654407;169478463;855;1298;65728;140;645;61004
3;86;1571941747275;1571941753091;5816;17933028306;53441354514;379741945;254676206;9821148192;660085;169766422;1400;331;39496;-127;755;27079
3;87;1571941753092;1571941758821;5729;17935896038;53441300611;379173168;254898160;9821117542;658689;169035482;1131;480;26480;-11;357;3304
3;88;1571941758822;1571941764524;5702;17928238776;53441332705;379004965;254825855;9821140540;655382;169439271;496;1108;26384;0;352;776
3;89;1571941764524;1571941770240;5716;17928490334;53441337178;378841157;254837404;9821139948;653084;168928150;497;1105;26464;-2;237;541
3;90;1571941770240;1571941775940;5700;17926897912;53441369980;378867088;254617603;9821151573;698508;168892019;441;1162;26448;0;237;441
3;91;1571941775940;1571941781666;5726;17928534134;53441353413;382119057;254991553;9821148888;655101;169358746;1256;963;75664;10;853;57763
3;92;1571941781667;1571941787380;5713;17933496528;53441357039;383747388;254880697;9821148481;677253;171223684;1312;290;26400;-2;374;4091
3;93;1571941787381;1571941793090;5709;17931232944;53441356106;380776994;254777756;9821136739;649827;169537818;625;986;26520;-6;245;881
3;94;1571941793091;1571941798788;5697;17925034368;53441377106;379130101;254859960;9821159320;652089;169336219;480;1122;26424;-2;270;524
3;95;1571941798788;1571941804484;5696;17927785592;53441341839;378899847;254767092;9821144784;796156;169029301;462;1136;26336;2;243;453
3;96;1571941804484;1571941810240;5756;17929254644;53441275253;379032649;254873443;9821112808;653142;169077714;1025;1171;72696;10;930;74974
3;97;1571941810240;1571941815959;5719;17926616570;53441322402;379268333;254798305;9821137403;653523;169262482;1303;296;26400;1;379;3920
3;98;1571941815959;1571941821664;5705;17935666672;53441337104;378951248;254727967;9821138874;652510;168854154;977;641;26536;-13;303;2332
3;99;1571941821664;1571941827391;5727;17928166652;53441349996;379074925;254833143;9821147287;652786;169094207;483;1119;26600;-1;220;448
3;100;1571941827391;1571941833087;5696;17929468534;53441388097;381180968;254786024;9821154951;653458;169066351;457;1139;26136;4;191;433
3;101;1571941833087;1571941838792;5705;17926620512;53441318721;380933386;255267321;9821135784;648568;169725284;421;1184;26552;-2;184;360
3;102;1571941838792;1571941844486;5694;17925195990;53441345797;379491806;255105092;9821136327;650917;169298654;1514;918;92304;12;1188;89957
3;103;1571941844486;1571941850175;5689;17925049260;53441421838;378913387;255319122;9821167044;646491;168748242;1301;304;26400;-5;374;4060
3;104;1571941850175;1571941856059;5884;17936124528;53441341802;380183273;255671547;9821144304;734122;168292048;1550;1005;118320;6;3690;105602
3;105;1571941856060;1571941861862;5802;17919162102;53441237754;380004028;255102977;9821107006;674932;168506691;1108;660;34976;-14;1011;6964
3;106;1571941861863;1571941867544;5681;17935530016;53441300232;383234229;255119893;9821132463;645541;169413751;448;1152;26360;4;217;495
3;107;1571941867544;1571941873228;5684;17921106238;53441293236;383366970;254861559;9821129389;681701;170234908;398;1206;26496;-4;227;464
3;108;1571941873228;1571941878909;5681;17934144476;53441324728;383257973;255226361;9821141169;653971;169014398;447;1140;26304;13;261;737
3;109;1571941878909;1571941884584;5675;17919280800;53441318806;383330619;255429091;9821140270;653061;167852292;565;1044;26432;-5;187;915
3;110;1571941884584;1571941890293;5709;17927752304;53441368798;383659825;255189472;9821151940;658214;168462600;1201;926;74544;0;926;63645
3;111;1571941890293;1571941896005;5712;17930743698;53441321565;380270980;254792714;9821132358;657708;169255038;1310;290;26400;0;378;4191
3;112;1571941896005;1571941901690;5685;17923643426;53441335121;382492132;255091319;9821150620;652751;168289973;705;980;27264;-8;249;2820
3;113;1571941901690;1571941907347;5657;17919346938;53441328093;379654127;255216716;9821141989;645913;168871408;459;1138;26368;3;239;604
3;114;1571941907347;1571941913065;5718;17924601040;53441278427;381458334;255240060;9821113439;652155;168420683;474;1134;26424;-1;278;649
3;115;1571941913065;1571941918792;5727;17921244646;53441304441;383354731;255084169;9821134021;712712;169656501;875;1351;81424;9;845;54904
3;116;1571941918793;1571941924536;5743;17922737934;53441297227;379424511;254921522;9821130876;680073;168775647;1303;297;26464;2;401;3766
3;117;1571941924537;1571941930206;5669;17911384390;53441327364;379745128;254934953;9821141999;675571;168876618;943;670;26496;-12;340;2461
3;118;1571941930207;1571941935888;5681;17916317876;53441363795;379088914;255098499;9821150208;654599;168223951;483;1118;26432;-1;242;611
3;119;1571941935888;1571941941555;5667;17922865976;53441276828;379975821;254713469;9821126818;651260;168767653;448;1152;26400;0;211;536
3;120;1571941941556;1571941947271;5715;17922155394;53441292465;378814307;254926262;9821129598;657593;168104284;493;1109;26352;4;176;567
3;121;1571941947271;1571941953082;5811;17918247704;53441400678;379394032;255371465;9821167945;658467;168107666;1428;782;81264;8;1019;64157
4;75;1571942526593;1571942532151;5558;17473888820;52612206450;383652711;254157819;9678568978;626670;168822597;479;1125;26432;0;287;768
4;76;1571942532151;1571942537708;5557;17485424718;52612261745;383527737;253986053;9678596432;621284;168916011;460;1143;26464;-3;187;540
4;77;1571942537708;1571942543252;5544;17471455584;52612281797;383357311;254170171;9678585814;617055;168178774;450;1154;26392;0;214;556
4;78;1571942543253;1571942548818;5565;17467241148;52612193778;383437333;254098338;9678554175;624166;168202190;1306;1112;77616;12;1153;109712
4;79;1571942548818;1571942554403;5585;17474360400;52612269441;383292750;253818279;9678578828;635529;168712113;1352;253;26624;2;434;4386
4;80;1571942554404;1571942559944;5540;17462071434;52612202038;382832827;253855989;9678571590;623878;168109188;821;800;26712;-16;349;2057
4;81;1571942559944;1571942565601;5657;17468032030;52612314519;383867379;253818032;9678606202;634131;169944517;448;1149;26168;4;231;518
4;82;1571942565601;1571942571771;6170;17472772504;52612260445;383538952;253974778;9678582959;636189;168732483;404;1196;26400;0;195;467
4;83;1571942571771;1571942578017;6246;17469242078;52612245871;382563755;253917994;9678581052;639361;170058759;703;1303;53792;154;486;47550
4;84;1571942578017;1571942583707;5690;17472539780;52612246982;383629554;254184215;9678566883;630510;168078296;1500;480;54168;-145;984;53607
4;85;1571942583707;1571942589255;5548;17474821906;52612297923;383678852;254174668;9678596356;627224;168105683;1140;474;26448;-8;368;3215
4;86;1571942589255;1571942594792;5537;17472080902;52612215811;383461911;253881465;9678578990;624007;168843571;488;1116;26496;-4;208;607
4;87;1571942594792;1571942600337;5545;17477413698;52612181643;383526620;254148324;9678551484;623977;168040479;470;1128;26368;2;217;591
4;88;1571942600337;1571942605888;5551;17478767118;52612191622;383560305;254039553;9678570767;624833;168329879;436;1168;26472;-2;215;501
4;89;1571942605888;1571942611507;5619;17471675168;52612227644;383957837;254272565;9678576805;628321;168217054;1207;1024;80432;13;978;67490
4;90;1571942611507;1571942617251;5744;17468127222;52612242914;383335450;254154046;9678584195;632580;168346728;1357;242;26400;1;385;4527
4;91;1571942617251;1571942623181;5930;17463897602;52612279666;383238960;253754860;9678589410;633098;169200516;691;924;26440;-10;268;1479
4;92;1571942623181;1571942628726;5545;17473964594;52612264666;382972719;254121734;9678583003;624774;168077601;478;1126;26496;-4;225;598
4;93;1571942628727;1571942634314;5587;17468743342;52612248394;383783202;253875784;9678572598;632550;169426681;425;1172;26304;3;207;478
4;94;1571942634315;1571942639870;5555;17478404162;52612253931;383505344;254135088;9678590996;635814;168176436;746;1174;44880;148;487;35489
4;95;1571942639870;1571942645432;5562;17475906394;52612240451;383753472;254213022;9678580836;623294;168281745;1414;402;41072;-139;802;37984
4;96;1571942645432;1571942651005;5573;17472770460;52612140694;383597696;254028224;9678542917;628652;168333185;1119;497;26528;-12;335;3296
4;97;1571942651006;1571942656562;5556;17467207860;52612203209;382948922;254103098;9678569768;628340;168510063;472;1126;26368;2;292;752
4;98;1571942656562;1571942662127;5565;17473484254;52612190988;383425679;253926828;9678566923;698845;168542584;461;1141;26432;-2;239;544
4;99;1571942662127;1571942667674;5547;17473994962;52612260326;383479268;254091918;9678586010;644503;168623330;421;1181;26432;1;177;448
4;100;1571942667674;1571942673288;5614;17472022940;52612232081;383908364;254105472;9678580292;629647;168622374;1245;1084;87664;12;1143;106337
4;101;1571942673288;1571942678845;5557;17475715134;52612226449;383601677;254105382;9678573478;688755;168402506;1352;248;26432;1;392;4475
4;102;1571942678845;1571942684380;5535;17475904788;52612264965;383452434;254179401;9678580028;620721;168109381;775;840;26440;-10;322;1771
4;103;1571942684380;1571942689984;5604;17490392806;52612309282;383619094;253852220;9678604854;615120;169140389;852;1402;70448;49;932;88446
4;104;1571942689984;1571942695709;5725;17504572326;52612259414;384450931;254291700;9678578379;701807;169452802;1683;374;77248;-42;3966;39689
4;105;1571942695709;1571942701272;5563;17486583520;52612204634;383057439;253852858;9678557517;621821;168956257;1081;530;26504;-9;328;2993
4;106;1571942701272;1571942707551;6279;17488721252;52612232474;381059888;253790038;9678575426;627286;169604757;395;1208;26600;-3;287;914
4;107;1571942707551;1571942713119;5568;17493187538;52612194583;383340864;253820261;9678567051;622783;169461729;443;1160;26248;2;238;613
4;108;1571942713119;1571942718670;5551;17491081780;52612187164;383118507;253623210;9678570119;622519;169240153;481;1120;26432;-1;169;672
4;109;1571942718670;1571942724421;5751;17492721944;52612234743;383383110;253998537;9678579564;627601;169367023;1110;1127;77584;12;1009;97993
4;110;1571942724421;1571942730003;5582;17490313528;52612301559;382841909;253635210;9678599376;626720;169555527;1417;263;27200;1;432;5937
4;111;1571942730003;1571942735672;5669;17490800876;52612166916;383810959;253963736;9678556128;685478;169312783;871;742;26528;-12;308;2178
4;112;1571942735672;1571942742281;6609;17493968200;52612230595;381912348;253928919;9678585667;673030;169503335;369;1232;26344;4;172;391
4;113;1571942742281;1571942749244;6963;17499435170;52612243537;380537246;254170054;9678581531;633507;170580654;305;1296;26400;-1;183;413
4;114;1571942749244;1571942754789;5545;17494405616;52612174791;382085243;253640126;9678549864;629223;170616868;913;1360;84464;7;1081;81118
4;115;1571942754789;1571942760353;5564;17494428392;52612223367;380836133;253985132;9678574719;625135;168991056;1328;272;26480;3;384;4179
4;116;1571942760353;1571942765901;5548;17499834626;52612191577;384139273;253930025;9678567483;616088;169135762;919;696;26664;-15;289;2343
4;117;1571942765901;1571942771556;5655;17492337964;52612220956;383674466;253846595;9678577834;620788;169361937;462;1133;26200;5;219;596
4;118;1571942771556;1571942777105;5549;17493118480;52612212061;383718555;254085545;9678576647;618263;168895198;475;1135;26480;-4;226;591
4;119;1571942777105;1571942782657;5552;17490914610;52612227644;383398623;253770425;9678573142;619161;169077138;557;1033;26304;10;186;881
4;120;1571942782658;1571942788231;5573;17488165138;52612183661;383905561;254076987;9678564783;623445;168933259;1340;910;80056;1;1144;90517
4;121;1571942788231;1571942793806;5575;17495532444;52612253795;383887010;253982846;9678595329;624015;168948859;1320;282;26432;-1;396;4232
4;122;1571942793806;1571942799342;5536;17489763546;52612185325;383574831;253773600;9678567542;617776;168860271;576;1032;26464;-8;222;946
4;123;1571942799342;1571942804905;5563;17490495444;52612176737;383736734;253914971;9678555552;624546;169209935;451;1156;26472;-2;218;531
4;124;1571942804906;1571942810447;5541;17488424872;52612239364;383454448;253830307;9678574148;621857;169085055;450;1147;26304;3;227;543
