0;78;1571937512510;1571937517949;5439;17116762746;50020233881;383057704;252744685;8891097743;776076;172590037;400;1205;26528;-4;157;347
0;79;1571937517949;1571937523365;5416;17111680778;50020262887;382839796;252681570;8891104219;695019;172471814;899;694;26336;11;327;2844
0;80;1571937523365;1571937528777;5412;17110128360;50020324007;381759284;252999175;8891135125;683357;172744928;1565;704;78000;-8;1124;82748
0;81;1571937528778;1571937534182;5404;17112883526;50020279472;381279608;252624940;8891109468;604845;172500365;444;1153;26400;3;170;551
0;82;1571937534182;1571937539610;5428;17112361284;50020241633;381175229;252963834;8891094374;603204;171575106;487;1124;26728;-7;162;556
0;83;1571937539610;1571937545034;5424;17113225312;50020295638;380972523;252999691;8891115959;620212;170888821;528;1072;26400;0;188;784
0;84;1571937545034;1571937550433;5399;17097603458;50020319989;381161395;252678289;8891108151;606396;170908756;405;1190;26136;5;119;272
0;85;1571937550434;1571937555953;5519;17124985904;50020281669;381442062;252968077;8891112664;762708;171816651;714;883;26440;7;239;1747
0;86;1571937555953;1571937561701;5748;17109176440;50020251494;382019097;252853585;8891107377;625264;171968478;1465;914;83792;-8;1350;144566
0;87;1571937561701;1571937567121;5420;17111971318;50020254815;381219280;253081953;8891102422;615426;170855288;488;1109;26400;3;162;600
0;88;1571937567121;1571937572554;5433;17115024616;50020287587;381282951;252986754;8891104362;618144;171027239;549;1058;26464;-3;197;863
0;89;1571937572554;1571937577975;5421;17109911404;50020271313;381163489;252793045;8891117081;614039;170514757;410;1193;26496;-3;138;324
0;90;1571937577975;1571937583399;5424;17105910420;50020263813;381221141;253164622;8891105230;611963;170708285;409;1192;26568;-1;127;302
0;91;1571937583399;1571937588823;5424;17113353354;50020244229;381379326;252786538;8891088649;617540;171561377;1218;371;26168;14;359;3622
0;92;1571937588823;1571937594303;5480;17106289436;50020278713;381572569;253170714;8891113053;621385;171185567;1065;1273;78928;-12;1026;77632
0;93;1571937594303;1571937599730;5427;17106051456;50020268044;381683078;252904796;8891109641;618108;172632974;455;1154;26656;0;234;641
0;94;1571937599730;1571937605159;5429;17108444834;50020251633;381603939;252846183;8891110719;615876;171448317;519;1083;26600;-2;185;779
0;95;1571937605159;1571937610827;5668;17125191034;50020336445;382578401;253452848;8891126198;761582;171497466;1108;1348;107256;0;2817;38414
0;96;1571937610827;1571937616240;5413;17111809988;50020222547;382765391;252490042;8891099326;619521;174647281;424;1178;26416;0;136;414
0;97;1571937616240;1571937621661;5421;17110936324;50020240245;381369333;253099214;8891094123;611203;170985846;474;1126;26400;0;163;597
0;98;1571937621661;1571937627083;5422;17102739008;50020279888;383802296;252664665;8891109724;616369;172364252;383;1216;26168;1;138;331
0;99;1571937627083;1571937632504;5421;17107936024;50020324326;381979375;253100381;8891125812;620161;171504017;1205;389;26440;11;344;3514
0;100;1571937632504;1571937637976;5472;17110437880;50020218010;382716374;252775851;8891084050;620471;171840141;1089;522;26496;-11;356;3260
0;101;1571937637977;1571937643412;5435;17111615224;50020259898;381721482;252317671;8891109286;619295;172403134;875;1232;71760;3;745;33562
0;102;1571937643412;1571937648852;5440;17104184408;50020265296;380957835;252683793;8891108893;614039;170750259;512;1147;27072;0;201;1164
0;103;1571937648852;1571937654271;5419;17117651740;50020295829;381392644;252191172;8891117314;663626;172829067;478;1115;26400;7;155;573
0;104;1571937654271;1571937659708;5437;17126724180;50020257463;381672635;252597794;8891108409;655156;173575065;506;1100;26400;-6;188;891
0;105;1571937659708;1571937665137;5429;17118186538;50020252200;381564088;252650443;8891107704;620168;173167470;397;1213;26728;-5;135;351
0;106;1571937665137;1571937670589;5452;17119735744;50020257286;381432346;252232183;8891093060;615270;172784143;976;616;26264;12;378;3119
0;107;1571937670589;1571937676022;5433;17116169548;50020237061;381785622;252543304;8891108128;617440;173596709;1144;1065;77432;-12;1020;106635
0;108;1571937676022;1571937681454;5432;17120008618;50020262612;383131482;252390211;8891112843;615167;173168446;448;1150;26152;4;150;520
0;109;1571937681454;1571937686880;5426;17119313804;50020214090;385751550;252840593;8891082549;600153;172292383;539;1064;26496;-3;164;757
0;110;1571937686880;1571937692302;5422;17116762308;50020243605;385803625;252945043;8891105428;601187;172052592;416;1186;26376;3;146;369
0;111;1571937692302;1571937697726;5424;17121921364;50020288592;385731407;252485311;8891114000;597091;172797091;470;1122;26400;8;137;487
0;112;1571937697726;1571937703176;5450;17114991182;50020263305;382394674;252573317;8891112566;611036;172643843;1496;812;87160;1;1117;74160
0;113;1571937703176;1571937708623;5447;17117984328;50020307336;386081440;252629061;8891116517;615305;172516448;558;1052;26416;-7;210;942
0;114;1571937708623;1571937714065;5442;17124772014;50020239216;385909494;252950387;8891104244;610354;172577457;494;1112;26528;-5;180;582
0;115;1571937714065;1571937719597;5532;17124030480;50020160974;385876061;252956921;8891073873;613215;172580231;514;1085;26304;1;184;830
0;116;1571937719597;1571937725011;5414;17111656980;50020273302;381307360;252235648;8891115890;609141;172325189;412;1194;26720;-2;135;318
0;117;1571937725011;1571937730441;5430;17126377576;50020301109;381257448;252654977;8891114451;676457;172434908;663;924;26136;13;213;1453
0;118;1571937730441;1571937735901;5460;17116626966;50020221943;381725034;252271195;8891084904;621231;173659525;1468;809;83928;-13;1138;109720
0;119;1571937735901;1571937741335;5434;17125603776;50020280751;381218574;252571089;8891115993;614379;172287176;461;1140;26184;4;186;590
0;120;1571937741336;1571937746753;5417;17115640882;50020247453;382656735;252931488;8891107391;610173;172679687;471;1129;26400;0;218;738
0;121;1571937746753;1571937752291;5538;17113964656;50020267844;381715621;252735076;8891111294;626150;172745039;531;1072;26496;-3;184;884
0;122;1571937752291;1571937757710;5419;17116945392;50020264320;381625337;252982049;8891105876;606926;172940023;408;1196;26456;0;170;481
0;123;1571937757710;1571937763138;5428;17108018222;50020227423;381627723;252800514;8891102056;607925;172439355;925;662;26304;13;298;2730
0;124;1571937763138;1571937768566;5428;17120300180;50020187436;381888961;253058904;8891080449;611253;173134728;1161;1131;83424;-14;945;61046
0;125;1571937768566;1571937773982;5416;17116565208;50020296504;381394499;253027040;8891119773;607637;172459074;497;1103;26400;0;169;614
0;126;1571937773982;1571937779399;5417;17116863048;50020351991;381517806;252810953;8891129843;608589;172505160;555;1044;26232;1;242;996
0;127;1571937779399;1571937784818;5419;17118825580;50020261110;381554280;253075466;8891091303;607946;172744757;436;1167;26448;0;185;463
1;79;1571938388856;1571938394288;5432;17148337874;49831315611;378752041;252122116;8878787126;644078;169456621;1118;483;26360;3;337;3490
1;80;1571938394288;1571938399716;5428;17135775158;49831445910;380567009;252261857;8878828275;648497;169747020;1030;1196;81912;-1;1074;88160
1;81;1571938399716;1571938405161;5445;17138199342;49831350689;379750945;252354879;8878789691;655294;170545355;465;1137;26424;-2;167;641
1;82;1571938405161;1571938410582;5421;17138008520;49831282096;379626437;252873225;8878768416;642445;169683402;526;1066;26336;12;188;742
1;83;1571938410582;1571938415991;5409;17129105586;49831451101;379734261;252443752;8878828081;643557;170170881;429;1184;26664;-13;124;346
1;84;1571938415991;1571938421410;5419;17138835610;49831413786;379559041;252644704;8878813096;639675;169656290;402;1194;26136;4;122;274
1;85;1571938421410;1571938426837;5427;17133563988;49831452143;379657618;252795518;8878817742;644280;169464159;1021;570;26456;11;325;2969
1;86;1571938426837;1571938432260;5423;17133436968;49831361738;379745365;252530459;8878795931;644514;169296492;1054;1122;77744;-11;1124;106579
1;87;1571938432260;1571938437688;5428;17139497574;49831426295;379634548;252872942;8878815921;669655;169274118;471;1135;26464;0;159;544
1;88;1571938437689;1571938443099;5410;17137078646;49831309658;380014961;252441942;8878775067;643397;170462809;513;1087;26400;0;204;833
1;89;1571938443099;1571938448531;5432;17130105102;49831392686;379525632;252718042;8878814704;634524;169573791;415;1188;26496;-3;143;320
1;90;1571938448532;1571938453950;5418;17134166822;49831436572;379640001;252822080;8878826744;642226;169465122;575;1014;26344;13;168;899
1;91;1571938453950;1571938459397;5447;17144326670;49831380461;380079644;252498920;8878800939;643809;169762471;1456;726;77520;-10;1238;111908
1;92;1571938459397;1571938464809;5412;17123416696;49831366589;379648587;252791178;8878798012;636987;169545129;449;1150;26400;1;179;581
1;93;1571938464809;1571938470233;5424;17127332562;49831432155;379544990;252476889;8878822689;633976;169374171;492;1117;26536;-4;176;572
1;94;1571938470233;1571938475660;5427;17135809906;49831375784;379587625;252770927;8878797406;638365;169298944;513;1084;26304;3;195;809
1;95;1571938475660;1571938481078;5418;17127954668;49831401193;379625088;252707918;8878799701;634142;169567908;413;1190;26496;-3;123;295
1;96;1571938481078;1571938486500;5422;17127545722;49831380379;379657558;252404971;8878810146;635812;169572556;764;828;26360;11;262;1834
1;97;1571938486500;1571938491920;5420;17133192418;49831392612;379821076;252767667;8878793930;640170;169894027;1286;950;82232;-12;934;75946
1;98;1571938491921;1571938497343;5422;17127801660;49831404102;379539858;252467022;8878820818;636044;169382876;450;1147;26168;4;169;556
1;99;1571938497344;1571938502762;5418;17143262768;49831398228;383111312;252515779;8878817122;639800;169821769;489;1115;26432;0;171;585
1;100;1571938502762;1571938508325;5563;17141676186;49831331066;381432606;253118958;8878782559;683818;169764930;1086;1320;110504;-2;2458;71044
1;101;1571938508325;1571938513841;5516;17130298114;49831403883;379915138;252692110;8878809327;660878;169451945;582;1183;34792;-1;656;1561
1;102;1571938513841;1571938519266;5425;17142638180;49831403959;379641213;252771390;8878814296;643806;169326376;465;1132;26304;3;138;467
1;103;1571938519266;1571938524710;5444;17163608452;49831390582;379906332;252562638;8878802675;641221;170792738;408;1191;26400;1;129;333
1;104;1571938524710;1571938530149;5439;17165416516;49831331337;379957245;252832433;8878787884;646205;170623014;1209;391;26440;5;349;3702
1;105;1571938530149;1571938535579;5430;17164540662;49831359900;380017524;252840329;8878804384;642152;170977659;1279;712;66024;58;666;43584
1;106;1571938535580;1571938541035;5455;17169783668;49831332311;379691703;251776466;8878780802;657519;172405908;676;996;30704;-68;513;19169
1;107;1571938541035;1571938546497;5462;17159339850;49831403001;379091851;252214252;8878818817;654921;170612205;542;1121;27144;0;181;1179
1;108;1571938546497;1571938551932;5435;17154412934;49831385237;379283247;251909369;8878814634;650326;170714401;525;1071;26136;4;207;840
1;109;1571938551932;1571938557373;5441;17168480472;49831342479;379201743;252225675;8878784114;650948;170775684;408;1196;26664;-4;146;354
1;110;1571938557373;1571938562842;5469;17172306256;49831385644;379414470;252165627;8878808078;649783;170725871;694;896;26168;14;276;1660
1;111;1571938562842;1571938568291;5449;17168110362;49831387321;379348788;251914706;8878810666;648857;171354589;1321;912;80400;-10;979;53731
1;112;1571938568291;1571938573725;5434;17154961310;49831348517;379036515;252186979;8878796537;643624;170653805;453;1147;26400;0;176;650
1;113;1571938573725;1571938579164;5439;17160175116;49831345592;378985331;251904299;8878792015;642460;170491561;492;1114;26704;-4;185;585
1;114;1571938579165;1571938584623;5458;17165929706;49831348929;379161408;252177918;8878800904;672478;170861828;521;1082;26496;0;198;743
1;115;1571938584623;1571938590051;5428;17158233608;49831342309;379033437;252094567;8878781127;640478;170771479;403;1193;26136;4;128;290
1;116;1571938590051;1571938595478;5427;17148146760;49831395168;379061185;251918664;8878815782;645793;170684186;867;729;26456;10;328;2456
1;117;1571938595478;1571938601023;5545;17161220330;49831392480;379689354;252244612;8878813647;656954;171015949;1252;1045;88944;-10;1332;147859
1;118;1571938601023;1571938606471;5448;17153668480;49831301464;382747822;252197459;8878774961;643785;171001383;461;1134;26440;7;157;533
1;119;1571938606471;1571938611904;5433;17166561594;49831384370;384113986;252596701;8878809359;639375;170626550;537;1070;26400;-7;201;805
1;120;1571938611905;1571938617344;5439;17156322176;49831350038;383875062;252505691;8878800780;640339;170485045;410;1190;26400;0;141;381
1;121;1571938617344;1571938622775;5431;17171506176;49831363973;384053513;252407666;8878804875;639549;170960120;419;1190;26552;-3;138;323
1;122;1571938622775;1571938628250;5475;17156072370;49831404835;384276175;252646011;8878807275;649610;170846553;1390;676;63352;151;693;56914
1;123;1571938628250;1571938633694;5444;17158153162;49831354755;383446269;252380172;8878801050;647262;170705052;714;1041;44728;-151;537;27672
1;124;1571938633694;1571938639143;5449;17158201780;49831377823;379406910;252190407;8878792276;649648;171034607;489;1109;26368;4;187;598
1;125;1571938639143;1571938644586;5443;17159206552;49831376001;379114514;252100669;8878808701;648615;170711444;526;1075;26400;-1;223;949
1;126;1571938644586;1571938650024;5438;17161355234;49831388458;379252478;252120471;8878811056;648496;170732620;409;1195;26664;-4;136;325
1;127;1571938650024;1571938655471;5447;17162431838;49831359022;379276321;252239760;8878784425;652149;170955278;667;927;26200;13;229;1443
1;128;1571938655471;1571938660962;5491;17165793780;49831390779;379607253;251976548;8878806692;723072;170541095;1426;847;77328;-9;1318;117959
2;74;1571939256773;1571939262400;5627;17805309988;50233279867;379879870;253592944;9003461166;655959;167398903;521;1079;26400;0;231;851
2;75;1571939262400;1571939268006;5606;17800955246;50233135994;380223131;253713412;9003413088;624639;167112190;409;1191;26400;0;153;364
2;76;1571939268006;1571939273641;5635;17805120042;50233291615;380356001;253670583;9003468025;635334;167078706;934;658;26376;10;295;2610
2;77;1571939273641;1571939279263;5622;17799401076;50233196281;378781987;253586747;9003435464;648326;167780175;1434;1082;81968;-8;1687;240796
2;78;1571939279263;1571939284883;5620;17805636590;50233137036;375792869;253451188;9003418339;667474;167281865;468;1132;26400;0;196;602
2;79;1571939284883;1571939290517;5634;17800695366;50233200982;375734722;253158597;9003432422;732871;167463799;544;1062;26448;0;217;870
2;80;1571939290518;1571939296133;5615;17798504052;50233246570;375320288;253435485;9003461806;636745;166882988;415;1185;26400;0;152;378
2;81;1571939296133;1571939301768;5635;17804230172;50233163561;375376214;253214146;9003426599;672515;167002099;740;866;26704;-4;246;1857
2;82;1571939301768;1571939307420;5652;17798512666;50233194382;376018713;253569630;9003430763;646995;167394572;1533;796;77128;4;1351;157579
2;83;1571939307420;1571939313056;5636;17805939978;50233216402;375637654;253192168;9003444984;648939;167056134;460;1145;26696;-4;242;739
2;84;1571939313056;1571939318671;5615;17798358198;50233217422;375696450;253462774;9003432347;653726;167282430;466;1134;26168;4;177;624
2;85;1571939318671;1571939324290;5619;17803363808;50233218661;375688288;253266659;9003444771;640153;167367034;521;1079;26400;0;225;937
2;86;1571939324290;1571939329916;5626;17810051192;50233226381;375515639;253300487;9003440283;641509;167233380;414;1186;26400;0;145;367
2;87;1571939329916;1571939335545;5629;17803693038;50233146703;375680323;253550981;9003417379;639986;167062907;888;707;26464;9;306;2482
2;88;1571939335546;1571939341198;5652;17804283316;50233138134;381008534;253458306;9003418179;646169;167577619;1484;992;77232;-9;1579;205374
2;89;1571939341198;1571939346825;5627;17793871910;50233248563;381089681;253789024;9003459506;647765;167669318;468;1134;26464;0;176;542
2;90;1571939346825;1571939352443;5618;17807000668;50233151079;380827741;253579716;9003422811;654734;167434560;538;1066;26432;0;224;904
2;91;1571939352444;1571939358067;5623;17807690956;50233142401;380625786;253812433;9003422206;648210;167178236;413;1187;26400;0;147;359
2;92;1571939358068;1571939363685;5617;17797812304;50233222322;381076587;253537088;9003450252;645355;167213697;642;956;26448;5;207;1278
2;93;1571939363685;1571939369353;5668;17804546554;50233159094;381387435;253690947;9003419541;651757;167362219;1458;756;76848;-5;1166;99866
2;94;1571939369353;1571939374963;5610;17791344066;50233242866;380997165;253374661;9003453651;631607;167378666;455;1145;26400;0;231;709
2;95;1571939374963;1571939380590;5627;17797962100;50233211285;380877824;253746189;9003441326;639674;167281312;479;1131;26600;0;208;616
2;96;1571939380590;1571939386204;5614;17798785686;50233124607;380789773;253640918;9003411818;639324;167082689;531;1072;26496;-3;231;908
2;97;1571939386204;1571939391816;5612;17807062718;50233163386;380796339;253474089;9003422810;672680;166968942;409;1191;26400;0;153;371
2;98;1571939391816;1571939397454;5638;17796869874;50233237799;381001142;253639213;9003453487;642476;167398266;843;749;26352;11;306;2368
2;99;1571939397454;1571939403105;5651;17802929020;50233249929;381230157;253452192;9003446333;652187;167482428;1256;1053;76976;-8;1181;129168
2;100;1571939403105;1571939408731;5626;17803187440;50233174908;380155578;253664713;9003428305;640525;167580188;463;1143;26496;0;199;608
2;101;1571939408731;1571939414353;5622;17806846638;50233215632;375559137;253162058;9003447804;646889;167243103;534;1068;26464;-2;220;995
2;102;1571939414353;1571939419969;5616;17800988388;50233196188;375713458;253445746;9003427625;645799;167503880;409;1189;26336;2;171;385
2;103;1571939419969;1571939425577;5608;17768634642;50233295836;377674422;253215054;9003458797;696996;167155763;688;911;26448;4;236;1623
2;104;1571939425577;1571939431408;5831;17779745096;50233151850;379885932;254292023;9003425336;769351;167472657;1569;1085;114328;-4;3195;120285
2;105;1571939431408;1571939437012;5604;17770791354;50233125558;379868964;253683957;9003414054;649410;166432849;465;1135;26400;0;196;601
2;106;1571939437012;1571939442612;5600;17766118478;50233153552;380290501;253644424;9003420945;649250;166635318;546;1059;26448;0;204;878
2;107;1571939442613;1571939448251;5638;17772961936;50233210028;378559146;253671515;9003452618;666071;166687336;404;1195;26400;1;170;423
2;108;1571939448251;1571939453862;5611;17760153064;50233157340;375034321;253302835;9003424339;655745;166149852;684;907;26400;9;231;1501
2;109;1571939453862;1571939459484;5622;17771752764;50233204286;375275286;253581951;9003434663;650008;166529040;1157;455;26440;-10;382;3644
2;110;1571939459484;1571939465097;5613;17762074716;50233180528;379482352;253523341;9003441818;649021;166265461;904;1307;74160;0;923;62094
2;111;1571939465097;1571939470701;5604;17763416894;50233138850;380597897;253757495;9003414856;644285;166211782;541;1132;27280;-3;230;1640
2;112;1571939470701;1571939476305;5604;17767563148;50233187124;380606259;253416420;9003442535;641511;166633430;525;1072;26304;3;212;801
2;113;1571939476305;1571939481950;5645;17774028758;50233204312;380042492;253945394;9003440015;648748;166231598;415;1188;26496;-3;155;396
2;114;1571939481950;1571939487589;5639;17775296768;50233168278;380262108;253598596;9003421303;674221;166875439;407;1195;26600;-1;158;394
2;115;1571939487589;1571939493217;5628;17774513186;50233102847;380287637;253885100;9003410834;677793;166664783;1700;558;75112;4;1356;116717
2;116;1571939493217;1571939498837;5620;17754433514;50233159441;380217585;253763536;9003438380;646826;167033979;448;1155;26496;-3;209;654
2;117;1571939498837;1571939504439;5602;17763298342;50233153186;379905260;253614007;9003420559;652917;166188427;478;1124;26376;4;169;599
2;118;1571939504439;1571939510060;5621;17767927710;50233148333;380463647;253890585;9003420898;662358;166336291;528;1075;26440;-3;188;777
2;119;1571939510060;1571939515679;5619;17760360676;50233229198;380582060;253610694;9003450415;654286;166329418;412;1186;26336;2;179;469
2;120;1571939515679;1571939521292;5613;17766781318;50233131353;380744049;253833430;9003411091;654873;166400314;1029;563;26440;10;312;2980
2;121;1571939521292;1571939526935;5643;17756538542;50233192070;380630745;253656324;9003447696;654764;166217789;1143;1131;83376;-10;990;62676
2;122;1571939526935;1571939532540;5605;17766407850;50233209430;380315991;253929772;9003445047;689360;166593109;470;1136;26448;0;173;573
2;123;1571939532541;1571939538182;5641;17767643886;50233155617;380164396;253682622;9003416966;647305;166336784;539;1063;26496;-1;209;869
3;74;1571940145853;1571940151459;5606;17756092366;52924515294;381255912;253227777;9741428105;686767;174268138;528;1072;26400;0;223;1180
3;75;1571940151459;1571940157082;5623;17747290464;52924393981;381103873;252810581;9741386743;596038;173467204;411;1189;26400;0;156;370
3;76;1571940157082;1571940162683;5601;17757200798;52924508828;381199147;253100971;9741432710;600180;173538214;928;663;26352;12;302;2552
3;77;1571940162683;1571940168389;5706;17756076890;52924501424;381365735;252901266;9741430428;900543;173414490;1115;1204;86896;-9;971;92723
3;78;1571940168389;1571940174001;5612;17748059884;52924455058;380928864;253114206;9741400429;609130;173282760;469;1135;26432;0;179;547
3;79;1571940174001;1571940179605;5604;17741369726;52924498130;380950029;252999272;9741426485;704364;172876561;540;1062;26600;-2;198;880
3;80;1571940179606;1571940185198;5592;17737248584;52924448978;380768034;253052370;9741414748;617803;173027172;417;1181;26200;2;153;433
3;81;1571940185198;1571940190917;5719;17751152602;52924498267;381408908;253338575;9741427184;648460;173407416;676;932;26720;-4;211;1329
3;82;1571940190920;1571940196540;5620;17753151926;52924535868;381640975;253064896;9741431569;648598;173670968;1450;810;85416;5;1381;141484
3;83;1571940196540;1571940202161;5621;17750225356;52924485093;381281011;253294844;9741421485;600580;173436241;466;1139;26664;-5;213;764
3;84;1571940202161;1571940207780;5619;17750669196;52924446040;381289654;252945795;9741401634;649658;173405292;470;1133;26264;1;180;589
3;85;1571940207780;1571940213384;5604;17751961004;52924500235;381361513;253214970;9741430573;734430;173269035;505;1092;26304;3;215;947
3;86;1571940213384;1571940219003;5619;17750939880;52924480525;382080274;252462264;9741423468;599027;173988355;397;1204;26400;-1;169;386
3;87;1571940219003;1571940224627;5624;17754983350;52924445837;384206399;253021863;9741396228;716779;173667256;1032;561;26440;9;317;3061
3;88;1571940224627;1571940230266;5639;17749238396;52924487412;385811098;252944567;9741422026;605856;174310777;1085;1261;87984;-11;1236;114256
3;89;1571940230266;1571940235890;5624;17751672800;52924461327;385504608;252672011;9741414891;593905;173434017;471;1134;26424;2;180;554
3;90;1571940235890;1571940241489;5599;17758339160;52924483372;385220280;252808878;9741423619;603476;173731386;533;1066;26368;1;175;753
3;91;1571940241490;1571940247103;5613;17750989666;52924504621;385117747;252628777;9741429205;605032;173487769;391;1209;26400;0;168;404
3;92;1571940247104;1571940252721;5617;17758225864;52924475555;385593529;253031347;9741414941;821514;173078529;575;1018;26440;9;225;1178
3;93;1571940252723;1571940258430;5707;17752289358;52924455299;385836089;252748168;9741404574;610798;173671656;1510;719;81200;-11;1134;94867
3;94;1571940258431;1571940264044;5613;17745894996;52924532390;381662178;253122546;9741438471;605970;173595236;450;1148;26400;2;206;613
3;95;1571940264044;1571940269663;5619;17750147100;52924513227;380772237;252981278;9741430170;637905;173040194;473;1138;26768;-4;182;585
3;96;1571940269663;1571940275279;5616;17751930198;52924432354;381390647;252912284;9741392542;604845;173310649;525;1075;26400;0;229;950
3;97;1571940275279;1571940280894;5615;17757151450;52924544485;384963099;252976693;9741433929;602419;173917488;388;1212;26400;0;155;413
3;98;1571940280894;1571940286576;5682;17742202656;52924519478;381884048;252907981;9741428706;627482;172981489;1189;819;53272;159;958;103026
3;99;1571940286576;1571940292389;5813;17755483108;52924474431;386285028;253354130;9741424506;643949;173187209;1249;1058;90760;-155;2961;97426
3;100;1571940292389;1571940298008;5619;17754946996;52924488529;382740921;252730065;9741417111;593629;173292932;473;1133;26480;0;184;565
3;101;1571940298009;1571940303612;5603;17746823410;52924502624;381942381;253270299;9741424916;620677;172894807;526;1074;26400;0;202;864
3;102;1571940303612;1571940310153;6541;17763663780;52924437697;382602559;253088632;9741392923;732240;174930401;303;1300;26400;-3;158;314
3;103;1571940310153;1571940315779;5626;17777132572;52924531128;381092525;252913554;9741435105;597145;173795704;881;709;26472;13;320;2604
3;104;1571940315779;1571940321412;5633;17778527894;52924479518;380139877;252843934;9741426132;600094;172198109;1333;975;81872;-9;1084;87977
3;105;1571940321413;1571940327038;5625;17768147148;52924417130;380644655;252756829;9741393121;596357;172961932;490;1114;26496;-4;178;701
3;106;1571940327039;1571940332666;5627;17774163662;52924479756;380232678;252844002;9741423532;701695;172439949;567;1092;27080;12;254;1834
3;107;1571940332666;1571940338297;5631;17775716226;52924447493;380718837;252644000;9741415176;847268;173045158;442;1171;26664;-13;171;570
3;108;1571940338297;1571940343908;5611;17766935348;52924482159;379814248;252814636;9741423916;592327;171736315;409;1189;26176;4;153;355
3;109;1571940343909;1571940349558;5649;17770123696;52924466950;380125227;252629581;9741416910;600575;172224428;1280;770;51104;202;619;45941
3;110;1571940349558;1571940355180;5622;17770275828;52924467644;380071222;252722197;9741417592;597183;172226161;854;1078;65584;-202;893;87611
3;111;1571940355180;1571940360815;5635;17765219848;52924435093;380637717;252836769;9741399628;600280;172834691;476;1131;26504;-2;183;661
3;112;1571940360815;1571940366431;5616;17762553304;52924495541;380400247;252797831;9741429516;612445;172443306;514;1083;26336;3;175;867
3;113;1571940366431;1571940372029;5598;17771184970;52924448033;380411246;253230488;9741416626;657058;172055127;419;1185;26496;-4;171;485
3;114;1571940372029;1571940377630;5601;17765530390;52924428143;380409125;252941202;9741393376;844776;171528178;770;824;26352;8;261;1998
3;115;1571940377630;1571940383243;5613;17766502312;52924454348;380587770;253201905;9741415255;592363;172043862;1364;875;78064;-5;1070;81642
3;116;1571940383243;1571940388840;5597;17772664972;52924509023;380332418;253012180;9741424885;658871;171795139;466;1142;26536;-3;191;577
3;117;1571940388840;1571940394434;5594;17763951400;52924446213;380305409;253087186;9741416704;601998;171710583;476;1119;26304;5;190;653
3;118;1571940394434;1571940400046;5612;17778861650;52924506896;381186600;253079927;9741432157;613906;172629053;513;1091;26400;-4;196;779
3;119;1571940400046;1571940405656;5610;17778070768;52924460304;380357375;252375997;9741415793;603132;174002681;401;1201;26520;1;177;414
3;120;1571940405656;1571940411323;5667;17777081034;52924419366;380087955;252798493;9741390407;604046;172262020;1044;545;26336;11;340;2999
3;121;1571940411323;1571940416957;5634;17768741660;52924485503;380763850;252755101;9741427630;601688;173259224;967;1234;76720;-10;970;82182
3;122;1571940416957;1571940422568;5611;17768561204;52924492499;380760253;253377351;9741427792;688152;171887470;498;1109;26504;-2;179;668
3;123;1571940422568;1571940428200;5632;17774553482;52924366423;380599241;253022588;9741381649;598260;172835973;520;1076;26336;4;180;778
4;72;1571941020554;1571941026191;5637;17902713888;53150667552;384206726;252535180;9788028601;622017;169604541;515;1089;26400;-4;186;806
4;73;1571941026191;1571941031935;5744;17908427744;53150686012;384272219;252265583;9788033613;622359;169622626;403;1197;26400;0;145;369
4;74;1571941031935;1571941037704;5769;17906024876;53150709018;384028283;252525672;9788051308;615344;169387831;730;863;26448;9;236;1714
4;75;1571941037705;1571941043457;5752;17915592840;53150646370;384664881;252589877;9788020107;623481;169768461;1133;1059;71472;-8;1222;115346
4;76;1571941043457;1571941049200;5743;17915352232;53150756501;384405534;252148280;9788065334;624467;170125479;466;1135;26400;-1;164;587
4;77;1571941049200;1571941054866;5666;17917187890;53150721873;384430757;252603589;9788051798;706313;169514286;541;1067;26696;-4;189;863
4;78;1571941054866;1571941060546;5680;17913607970;53150632532;383194609;252124726;9788014707;619679;169536611;395;1203;26136;2;149;361
4;79;1571941060546;1571941066206;5660;17902964570;53150688371;382526854;252310031;9788033779;655646;170260604;933;663;26464;8;285;2653
4;80;1571941066206;1571941071850;5644;17907783884;53150716479;383398271;252325488;9788054467;631518;170277162;1295;944;79728;-4;980;56979
4;81;1571941071850;1571941077505;5655;17917731302;53150691090;380854696;252731440;9788033215;614773;169777377;489;1116;26496;-5;236;987
4;82;1571941077505;1571941083171;5666;17904022048;53150665115;380606412;252749481;9788028510;616715;169531819;504;1086;26336;14;203;680
4;83;1571941083171;1571941089956;6785;17916122528;53150728634;382828435;252554351;9788054745;643107;170861458;295;1316;26400;-11;143;600
4;84;1571941089956;1571941095698;5742;17908895090;53150680329;384326510;252563086;9788025327;625094;169736176;394;1206;26400;0;157;365
4;85;1571941095698;1571941101354;5656;17907743150;53150748435;384544714;252276499;9788063673;625237;169396058;1433;812;77152;0;1248;112926
4;86;1571941101354;1571941107007;5653;17913930922;53150754027;384251923;252616002;9788060017;619058;169384251;456;1144;26400;0;251;743
4;87;1571941107007;1571941112673;5666;17918323332;53150672214;384178522;252331009;9788024581;616457;169644754;499;1109;26536;-3;181;611
4;88;1571941112673;1571941118335;5662;17915088410;53150696814;384117521;252700038;9788040319;615878;169322010;510;1089;26368;1;188;792
4;89;1571941118335;1571941124493;6158;17908471398;53150727411;382004778;252387598;9788053274;622809;170330641;343;1247;26336;10;147;395
4;90;1571941124493;1571941130136;5643;17898254756;53150691025;380517943;252724843;9788035990;615222;169591950;1242;358;26440;2;383;4004
4;91;1571941130136;1571941135836;5700;17901544282;53150645132;380818051;252876485;9788022634;620620;170018584;1035;1183;79088;-10;1081;75592
4;92;1571941135836;1571941141486;5650;17904624298;53150719489;380481651;252471232;9788050429;612974;169480888;482;1118;26400;0;168;629
4;93;1571941141486;1571941147142;5656;17911959484;53150674498;380465360;252756609;9788022837;614010;169278259;536;1069;26448;0;218;954
4;94;1571941147143;1571941153004;5861;17906914600;53150712824;381932905;252849105;9788053579;683548;169850181;1148;1371;111704;0;2896;54154
4;95;1571941153004;1571941158657;5653;17902072510;53150687200;382644300;252482496;9788047758;618473;169345994;440;1167;26712;-4;230;619
4;96;1571941158658;1571941164310;5652;17907009646;53150734333;379656844;251867671;9788039945;620331;169323859;467;1129;26136;4;157;558
4;97;1571941164310;1571941169978;5668;17915214700;53150707841;379922193;252087810;9788036013;616874;170336387;700;889;26400;11;243;1640
4;98;1571941169978;1571941175646;5668;17911525134;53150727302;379792852;252087978;9788056953;704338;169357098;1251;362;26440;-8;376;3866
4;99;1571941175646;1571941181305;5659;17899961350;53150658164;379712741;251980900;9788026245;615059;169402916;882;719;26400;-1;331;2485
4;100;1571941181306;1571941186962;5656;17905171068;53150670054;379564524;252215194;9788024808;658210;169213797;870;1389;89712;-2;1066;59813
4;101;1571941186962;1571941192623;5661;17908938160;53150721801;379631120;251915196;9788055206;635143;169441536;559;1116;27432;-4;243;1583
4;102;1571941192626;1571941198269;5643;17905628194;53150667116;379588044;252108145;9788025355;616322;169410718;529;1067;26136;4;225;972
4;103;1571941198269;1571941203912;5643;17917495804;53150776233;379244431;251975530;9788065728;611557;168614651;421;1185;26448;0;189;493
4;104;1571941203912;1571941210267;6355;17927068002;53150711926;382908968;252684997;9788048418;630281;169243244;314;1289;26496;-3;143;315
4;105;1571941210267;1571941215921;5654;17919128522;53150650390;384279058;252339685;9788021604;622808;168599164;1470;627;69712;1;1082;85376
4;106;1571941215921;1571941221585;5664;17915289160;53150625345;383878177;252614787;9788021771;614187;168520814;453;1150;26536;2;245;778
4;107;1571941221586;1571941227230;5644;17918743520;53150717371;383846947;252568690;9788053554;612473;168646373;500;1100;26400;0;205;736
4;108;1571941227231;1571941233106;5875;17921647022;53150665505;384093956;252310791;9788027982;622387;168840242;470;1130;26400;0;182;744
4;109;1571941233106;1571941238757;5651;17916396862;53150619297;383985170;252659793;9788018600;617021;168456643;413;1194;26504;-2;150;375
4;110;1571941238758;1571941244417;5659;17923244992;53150727229;384003711;252309959;9788054078;619119;168555561;1210;378;26336;12;390;3904
4;111;1571941244417;1571941250075;5658;17918548902;53150654946;384029199;252648385;9788020807;615078;168714439;1074;1260;84832;-9;1257;129075
4;112;1571941250075;1571941255718;5643;17911449360;53150654757;383662984;252249725;9788043878;614337;168628119;492;1109;26432;0;209;764
4;113;1571941255718;1571941261363;5645;17915203166;53150702784;383774510;252682611;9788050823;612319;168569569;530;1071;26400;-1;212;966
4;114;1571941261363;1571941267016;5653;17923648244;53150653677;383708672;252636464;9788020884;612851;168657278;412;1192;26432;0;144;358
4;115;1571941267016;1571941272676;5660;17908323792;53150641738;383802308;252343184;9788029993;611481;168529758;569;1021;26400;10;188;1046
4;116;1571941272676;1571941278341;5665;17916536146;53150660360;383846291;252616691;9788039281;633111;168435379;1419;826;79600;-10;969;66646
4;117;1571941278341;1571941283981;5640;17908323792;53150694500;383611264;252262484;9788037004;612198;168363203;494;1099;26448;10;247;796
4;118;1571941283981;1571941289655;5674;17929802728;53150641684;383310946;252547486;9788023463;609883;168610802;503;1100;26464;-1;175;600
4;119;1571941289655;1571941295387;5732;17912446248;53150651305;383639198;252253109;9788035095;605389;168546840;476;1135;26464;-11;178;687
4;120;1571941295388;1571941301065;5677;17923223676;53150643602;382704945;252469392;9788015755;656544;168876679;402;1201;26376;2;152;379
4;121;1571941301065;1571941306728;5663;17914160434;53150707200;384573992;252446246;9788052304;611274;168727309;1264;547;39872;164;431;10876
