0;137;1571971531191;1571971534864;3673;12540664306;22761590563;1406044785;131193009;3705807754;36801936;746928604;0;0;0;0;0;0
0;138;1571971534901;1571971538682;3781;12598947944;22761894314;1421841433;130994537;3705746377;36778150;749780796;0;0;0;0;0;0
0;139;1571971538719;1571971542590;3871;12500243184;22754294687;1416022073;129625159;3704355960;36770235;749755318;131;20;14840;1;452;907
0;140;1571971542626;1571971546324;3698;12541963122;22745767941;1420533070;130142032;3702760192;37027642;747832729;356;20;37168;-1;1118;1266
0;141;1571971546361;1571971550038;3677;12581072288;22753941610;1416206402;131376657;3704310894;36718994;749591086;0;0;0;0;0;0
0;142;1571971550074;1571971553826;3752;12518599618;22761401750;1405298516;129990623;3705729437;36774665;748952166;0;0;0;0;0;0
0;143;1571971553864;1571971557523;3659;12524956020;22753067801;1411417712;129877253;3704184527;36909477;751634041;0;0;0;0;0;0
0;144;1571971557560;1571971561226;3666;12498851804;22763167122;1407004990;129252847;3705936195;36750891;749586028;18;6;776;0;5;51
0;145;1571971561272;1571971565278;4006;12573378234;22753832736;1425326111;130549569;3704219668;36885191;750020763;0;0;0;0;0;0
0;146;1571971565316;1571971569194;3878;12589617230;22760854570;1417808627;131461243;3705652243;36759786;749879281;0;0;0;0;0;0
0;147;1571971569247;1571971572920;3673;12559719496;22752241387;1420087635;130744920;3704062132;36767282;753784379;0;0;0;0;0;0
0;148;1571971572963;1571971576718;3755;12492099742;22753967952;1404091875;129277643;3704366306;36773953;749125320;120;35;10032;0;137;1378
0;149;1571971576755;1571971580530;3775;12549726526;22753395783;1406905175;130522232;3704183576;36784719;745219256;0;0;0;0;0;0
0;150;1571971580573;1571971584323;3750;12493536382;22755220691;1413899956;129222751;3704510414;36779654;750997541;0;0;0;0;0;0
0;151;1571971584361;1571971588048;3687;12498753108;22752228308;1419112381;128526629;3704060855;36756311;750424270;0;0;0;0;0;0
0;152;1571971588096;1571971591894;3798;12533577320;22761440200;1404890234;130688464;3705823740;36788173;749901024;13;13;792;0;12;29
0;153;1571971591931;1571971595581;3650;12492535552;22761156627;1408499325;128761182;3705659369;36770365;748876389;0;0;0;0;0;0
0;154;1571971595618;1571971599296;3678;12576261296;22770308867;1414633529;130320911;3707336797;36774135;747389391;0;0;0;0;0;0
0;155;1571971599335;1571971602982;3647;12492471458;22752874682;1406976782;128975523;3704226537;36745962;749336469;0;0;0;0;0;0
0;156;1571971603018;1571971606990;3972;12518360762;22771991865;1404921089;129297726;3707635834;36818963;746829094;73;45;12864;0;157;925
0;157;1571971607026;1571971610794;3768;12578308362;22743757579;1421474459;130744247;3702489216;36740649;748528431;0;0;0;0;0;0
0;158;1571971610831;1571971614504;3673;12505059432;22763850397;1409369714;129646806;3706036894;36751078;749449255;0;0;0;0;0;0
0;159;1571971614542;1571971618282;3740;12470485610;22744294486;1413577373;128972013;3702555672;36756570;754256567;0;0;0;0;0;0
0;160;1571971618318;1571971622142;3824;12563545718;22770603409;1415639912;130625546;3707333288;36774296;753240066;10;21;976;0;13;61
0;161;1571971622179;1571971625848;3669;12534368348;22755564444;1398622175;130093166;3704600896;36706648;746155665;0;0;0;0;0;0
0;162;1571971625885;1571971629858;3973;12537161328;22745623066;1408446226;129887677;3702725256;36801389;747559142;0;0;0;0;0;0
0;163;1571971629896;1571971633572;3676;12600233912;22761069628;1420900873;131165245;3705563082;36751834;746678104;0;0;0;0;0;0
0;164;1571971633608;1571971637491;3883;12549938518;22745746734;1410760461;130553821;3702825723;36813028;748385262;56;37;8968;0;146;522
0;165;1571971637540;1571971641314;3774;12511352908;22772527906;1400259005;129905532;3707647486;36790085;746767441;0;0;0;0;0;0
0;166;1571971641351;1571971645340;3989;12543188938;22761175458;1416910866;130411158;3705657332;36825858;751867789;0;0;0;0;0;0
0;167;1571971645379;1571971649059;3680;12579983712;22760146179;1423926576;130915660;3705528717;36733592;752161317;0;0;0;0;0;0
0;168;1571971649095;1571971652893;3798;12580149422;22762271578;1426824158;130139292;3705878111;36890566;752937899;14;11;784;0;13;38
0;169;1571971652929;1571971656848;3919;12572830004;22772952467;1415762960;130962380;3707714352;36783493;748136774;0;0;0;0;0;0
0;170;1571971656885;1571971660744;3859;12474547914;22761805552;1417490481;127729001;3705800679;36770589;752758345;0;0;0;0;0;0
0;171;1571971660883;1571971664671;3788;12620121156;22761106404;1426655749;131179226;3705698586;36783954;754241610;55;12;7440;0;107;625
0;172;1571971664708;1571971668591;3883;12585400020;22771583812;1414896058;130789905;3707490922;36771655;753159255;7;16;768;0;12;54
0;173;1571971668636;1571971672340;3704;12552332918;22762743895;1438801560;129517649;3705915930;36770855;758866308;0;0;0;0;0;0
0;174;1571971672377;1571971676033;3656;12533013760;22763439835;1407652119;130396075;3706081534;36720437;753379709;0;0;0;0;0;0
0;175;1571971676071;1571971679846;3775;12582871446;22751922871;1418947144;130589699;3704041370;36765462;751278640;0;0;0;0;0;0
0;176;1571971679882;1571971683764;3882;12587214362;22764163571;1425942513;130681822;3706064716;36753159;754997126;20;5;784;0;13;70
0;177;1571971683801;1571971687467;3666;12541587464;22751840221;1418149732;129517360;3703958606;36761937;749469028;0;0;0;0;0;0
0;178;1571971687604;1571971691676;4072;12527918506;22760117400;1406023225;130263320;3705463440;36800884;751304828;0;0;0;0;0;0
0;179;1571971691715;1571971695476;3761;12506834354;22745497575;1415782007;129714636;3702742793;36757550;753999997;47;24;7504;0;95;533
0;180;1571971695512;1571971699391;3879;12542853430;22753644299;1410694901;130521037;3704132605;36769124;749397489;7;17;768;0;12;19
0;181;1571971699428;1571971703081;3653;12495950200;22763020666;1403012681;128596019;3705881233;36848556;749505376;0;0;0;0;0;0
0;182;1571971703117;1571971706882;3765;12534729406;22751449982;1417893707;129702802;3703898629;36878471;751830666;0;0;0;0;0;0
0;183;1571971706921;1571971710602;3681;12589604528;22759423745;1421587410;131147195;3705336950;36775797;751383432;0;0;0;0;0;0
0;184;1571971710646;1571971714317;3671;12542925700;22769162385;1421382486;130080954;3707073921;36776418;756153358;13;11;776;0;4;27
0;185;1571971714354;1571971718228;3874;12489946388;22753287691;1414827785;128084071;3704239807;36803272;753085470;0;0;0;0;0;0
0;186;1571971718265;1571971722064;3799;12539467252;22744700463;1410956601;130463877;3702552851;36935279;751849329;0;0;0;0;0;0
1;139;1571972369992;1571972373712;3720;12723616906;23175560921;1414782306;130587400;3774573415;36373981;748325623;16;8;768;0;4;30
1;140;1571972373748;1571972377440;3692;12619826674;23178942532;1410168264;127704407;3775055177;36329540;749883503;51;26;9680;0;125;636
1;141;1571972377476;1571972381175;3699;12656770368;23170678848;1419033314;129186148;3773614898;36330556;748444269;0;0;0;0;0;0
1;142;1571972381212;1571972384928;3716;12701403444;23177946493;1432828435;130432543;3774944830;36341274;753747912;0;0;0;0;0;0
1;143;1571972384967;1571972388680;3713;12625966704;23178806027;1408384577;128236705;3775092796;36347034;747936839;17;8;784;0;5;46
1;144;1571972388717;1571972392438;3721;12682697778;23169221830;1415816520;129635545;3773313371;36332514;749744293;468;28;49864;0;1475;2024
1;145;1571972392475;1571972396232;3757;12717201666;23178771424;1424257007;130599320;3775049324;36365769;749030581;0;0;0;0;0;0
1;146;1571972396269;1571972400078;3809;12717088516;23168445827;1433953645;130067762;3773211833;36356517;750321736;0;0;0;0;0;0
1;147;1571972400116;1571972403842;3726;12723832402;23187513582;1411560103;130052806;3776678445;36431758;748267407;12;15;936;0;4;19
1;148;1571972403902;1571972407638;3736;12741680026;23176234105;1418425290;130787681;3774674778;36364308;752566497;0;0;0;0;0;0
1;149;1571972407694;1571972411430;3736;12753763424;23160787985;1441121586;130318993;3771750190;36332822;748643636;0;0;0;0;0;0
1;150;1571972411467;1571972415185;3718;12759938056;23159604386;1436016543;130766888;3771582486;36316242;749696024;0;0;0;0;0;0
1;151;1571972415223;1571972418955;3732;12710985716;23186042700;1411810346;130166054;3776414594;36315065;747754873;14;13;800;0;11;23
1;152;1571972418992;1571972422694;3702;12695856612;23169094223;1418124861;129715074;3773344324;36333929;746798306;73;34;9424;0;138;1126
1;153;1571972422745;1571972426472;3727;12726908038;23170459874;1418857264;130600708;3773546238;36337625;748639793;0;0;0;0;0;0
1;154;1571972426509;1571972430325;3816;12722697982;23180585768;1416831109;130034533;3775333652;36341886;747591635;0;0;0;0;0;0
1;155;1571972430363;1571972434105;3742;12714310866;23186648431;1419788417;129326321;3776532468;36379896;750158742;62;19;1464;0;114;970
1;156;1571972434141;1571972437877;3736;12714109240;23176674869;1414383767;130415314;3774737868;36394898;747141463;0;0;0;0;0;0
1;157;1571972437914;1571972441634;3720;12710186220;23177214332;1415957942;130094144;3774817621;36367653;750628789;0;0;0;0;0;0
1;158;1571972441679;1571972445395;3716;12705517724;23171582683;1444055682;129591822;3773686285;36330054;752886185;0;0;0;0;0;0
1;159;1571972445441;1571972449174;3733;12752104572;23169648346;1428393946;130575349;3773432986;36348313;747242470;17;12;816;0;13;44
1;160;1571972449218;1571972453013;3795;12704044000;23178582992;1427389850;130169867;3775041968;36501529;752885875;58;26;10576;0;117;721
1;161;1571972453050;1571972456982;3932;12694806580;23178201459;1418020773;129526862;3774990842;36355073;750417383;0;0;0;0;0;0
1;162;1571972457032;1571972460767;3735;12749059158;23160951864;1433054964;131119705;3771856014;36351741;750943369;0;0;0;0;0;0
1;163;1571972460805;1571972464537;3732;12686187762;23169107601;1420290050;129165742;3773388461;36344471;746088296;7;13;736;0;3;6
1;164;1571972464573;1571972468274;3701;12676599358;23169354997;1419090892;128979997;3773429458;36317689;749306835;0;0;0;0;0;0
1;165;1571972468322;1571972472060;3738;12731483386;23168900351;1419564825;130698546;3773331305;36344823;749341608;0;0;0;0;0;0
1;166;1571972472097;1571972475800;3703;12666803780;23168471965;1417169979;128777968;3773223013;36368234;749654994;0;0;0;0;0;0
1;167;1571972475838;1571972479557;3719;12735936824;23177277309;1427678691;130269484;3774956006;36291521;747345642;12;14;792;0;4;23
1;168;1571972479593;1571972483333;3740;12780308998;23170805258;1439395487;130881578;3773597133;36327052;751928947;48;26;8016;0;107;556
1;169;1571972483369;1571972487200;3831;12728506154;23169754805;1433186992;129898975;3773399907;36344427;749842979;0;0;0;0;0;0
1;170;1571972487236;1571972490973;3737;12719051486;23187764975;1419464293;129049970;3776733645;36386602;750358260;0;0;0;0;0;0
1;171;1571972491012;1571972494741;3729;12746807838;23168287068;1421201965;130859179;3773204590;36344339;748390903;6;22;944;0;11;37
1;172;1571972494778;1571972498517;3739;12769944020;23169157718;1464291543;130460629;3773379663;36376181;758424326;0;0;0;0;0;0
1;173;1571972498554;1571972502291;3737;12747667048;23169894833;1434454867;130334009;3773423320;36360797;752646953;0;0;0;0;0;0
1;174;1571972502328;1571972506030;3702;12698214220;23169509247;1418740489;130186808;3773468961;36317953;753678316;0;0;0;0;0;0
1;175;1571972506068;1571972509776;3708;12662441446;23168005070;1414014111;129108733;3773178902;36350233;751559997;13;13;816;0;39;57
1;176;1571972509813;1571972513533;3720;12732170170;23170397386;1438250549;130058153;3773512464;36361355;750954827;38;22;7600;0;102;365
1;177;1571972513570;1571972517312;3742;12728288176;23179367902;1435708713;129785943;3775169304;36400197;750358295;0;0;0;0;0;0
1;178;1571972517349;1571972521070;3721;12773914928;23178351827;1446562408;130613748;3774989324;36286806;749397486;0;0;0;0;0;0
1;179;1571972521108;1571972524847;3739;12747000558;23178363628;1420316494;130707275;3775056380;36324053;746877872;5;17;752;0;10;35
1;180;1571972524884;1571972528622;3738;12780778972;23173951533;1433866091;131308016;3774408463;36328812;750707253;0;0;0;0;0;0
1;181;1571972528670;1571972532407;3737;12727151420;23185993217;1445746448;128934493;3776465079;36352745;756307354;0;0;0;0;0;0
1;182;1571972532456;1571972536199;3743;12794724746;23184014826;1449023270;131320376;3776175634;36400170;749891479;0;0;0;0;0;0
1;183;1571972536238;1571972539955;3717;12742335566;23165797995;1418979903;130707266;3772912989;36318568;749846915;12;16;840;0;17;94
1;184;1571972539999;1571972543711;3712;12671030918;23166889544;1415247764;128862302;3773045485;36341384;752559719;49;26;7696;0;109;581
1;185;1571972543765;1571972547703;3938;12750544124;23159069245;1433846131;130470752;3771645193;36384057;751746735;0;0;0;0;0;0
1;186;1571972547739;1571972551448;3709;12719273260;23167523429;1432070047;129630174;3773145364;36308593;750664471;0;0;0;0;0;0
1;187;1571972551486;1571972555193;3707;12707413534;23175089249;1422547935;129449423;3774551068;36318485;749632183;8;14;752;0;3;7
1;188;1571972555229;1571972558945;3716;12730717908;23165217613;1417653361;130668495;3772801800;36315932;747943957;0;0;0;0;0;0
2;142;1571973213211;1571973216883;3672;12571427966;22884669828;1427850772;130052756;3736570108;36407307;746662912;23;28;8240;0;114;181
2;143;1571973216920;1571973220591;3671;12578889442;22883602273;1419770884;131224253;3736396401;36344753;748534287;0;0;0;0;0;0
2;144;1571973220627;1571973224299;3672;12544229480;22902347247;1402086701;130330846;3739784761;36415828;743580989;0;0;0;0;0;0
2;145;1571973224341;1571973228002;3661;12533767704;22886025264;1412343903;130116387;3736758442;36393137;744982288;16;11;792;0;13;44
2;146;1571973228036;1571973231693;3657;12491840154;22883652894;1405673323;128916233;3736426686;36410243;744997829;0;0;0;0;0;0
2;147;1571973231743;1571973235402;3659;12505330554;22882545891;1399799829;130132303;3736300209;36403549;743961573;0;0;0;0;0;0
2;148;1571973235447;1571973239110;3663;12497566712;22884558521;1420703155;129341738;3736501720;36363696;744890475;0;0;0;0;0;0
2;149;1571973239152;1571973242815;3663;12512548210;22902032078;1403265554;129867961;3739754298;36361820;747004392;9;13;760;0;11;19
2;150;1571973242851;1571973246542;3691;12506421904;22900479579;1401168702;129221665;3739504993;36419887;743932828;477;30;50088;0;1480;1981
2;151;1571973246578;1571973250231;3653;12513075562;22901736742;1402249180;129393652;3739669521;36375971;747143277;0;0;0;0;0;0
2;152;1571973250266;1571973253921;3655;12503117632;22876483385;1405349559;130252550;3735075391;36357906;746209273;0;0;0;0;0;0
2;153;1571973253956;1571973257630;3674;12514682292;22901148292;1415261689;129909923;3739609012;36393840;749060901;16;9;776;0;5;38
2;154;1571973257665;1571973261326;3661;12526787736;22872102012;1411476740;130027972;3734399612;36486604;742506157;0;0;0;0;0;0
2;155;1571973261362;1571973265038;3676;12586738402;22902070275;1412327062;131165946;3739756062;36348216;745809479;0;0;0;0;0;0
2;156;1571973265073;1571973268770;3697;12581587230;22891516104;1415314078;130913165;3737925301;36374526;744287692;0;0;0;0;0;0
2;157;1571973268805;1571973272489;3684;12563509072;22902046732;1426477339;129997953;3739823276;36358280;750673034;10;14;784;0;3;10
2;158;1571973272537;1571973276237;3700;12552266196;22893671348;1416582109;130536690;3738231090;36389708;746042150;0;0;0;0;0;0
2;159;1571973276274;1571973279952;3678;12522246114;22892985183;1407069613;130141668;3738079356;36380741;745005847;56;32;8528;0;119;756
2;160;1571973279992;1571973283767;3775;12500955518;22882539578;1407812151;129341449;3736259868;36386225;745489645;0;0;0;0;0;0
2;161;1571973283802;1571973287465;3663;12507759118;22875902441;1405750037;129316841;3734965147;36443763;747767775;0;0;0;0;0;0
2;162;1571973287501;1571973291266;3765;12533606082;22894575727;1400857499;130554850;3738351639;36360367;743836626;74;17;1496;0;41;1337
2;163;1571973291303;1571973295162;3859;12531738450;22893146581;1407126325;130058023;3738116919;36523443;746272086;0;0;0;0;0;0
2;164;1571973295198;1571973298863;3665;12535750822;22893812863;1402698118;130272227;3738197204;36417765;744971088;0;0;0;0;0;0
2;165;1571973298898;1571973302553;3655;12496390536;22885020098;1402646803;129148629;3736628335;36386502;745928922;0;0;0;0;0;0
2;166;1571973302588;1571973306341;3753;12526225490;22893316746;1420785310;129614226;3738149810;36372968;748759165;11;14;1288;0;23;29
2;167;1571973306378;1571973310340;3962;12546618332;22893786413;1407206237;130715121;3738221289;36387961;747563630;37;32;8464;0;105;465
2;168;1571973310375;1571973314017;3642;12462832290;22894785320;1400378339;128826456;3738349560;36354470;745693634;0;0;0;0;0;0
2;169;1571973314052;1571973317687;3635;12472722038;22882505190;1407049901;129016428;3736227838;36361043;746798522;0;0;0;0;0;0
2;170;1571973317722;1571973321388;3666;12534311846;22891954198;1402038323;130573941;3738049752;36371134;746709797;12;13;776;0;3;9
2;171;1571973321425;1571973325074;3649;12500181134;22892780592;1401872530;129731446;3738027240;36387910;745349479;0;0;0;0;0;0
2;172;1571973325126;1571973328787;3661;12541785294;22891769995;1416774739;129612334;3737898981;36358689;745689994;0;0;0;0;0;0
2;173;1571973328823;1571973332492;3669;12531900656;22884744627;1403988028;130276367;3736636646;36385015;744978869;0;0;0;0;0;0
2;174;1571973332527;1571973336192;3665;12504856200;22884436696;1406490748;129640627;3736531818;36386108;745741754;10;13;768;0;3;17
2;175;1571973336229;1571973339888;3659;12489496854;22894039136;1403595797;128743926;3738277638;36398962;745929153;26;26;6416;0;123;311
2;176;1571973339923;1571973343578;3655;12528315772;22891886811;1409875889;129170584;3737980113;36391570;747987753;0;0;0;0;0;0
2;177;1571973343615;1571973347373;3758;12539535580;22893581873;1409659904;130413816;3738185045;36429645;746251576;0;0;0;0;0;0
2;178;1571973347408;1571973351183;3775;12539339940;22902220679;1422587095;129389089;3739762393;36386266;750632537;14;17;968;0;5;14
2;179;1571973351220;1571973354925;3705;12578721834;22891916437;1423771135;131228145;3737940601;36360941;744962901;0;0;0;0;0;0
2;180;1571973354961;1571973358637;3676;12499851028;22882385084;1407137711;129202515;3736157300;36404070;743710105;0;0;0;0;0;0
2;181;1571973358672;1571973362309;3637;12465540006;22892872350;1411355619;128802934;3738016342;36358338;748001521;0;0;0;0;0;0
2;182;1571973362344;1571973366006;3662;12518458874;22893897034;1399324152;130023754;3738179901;36481023;745855984;8;15;768;0;3;8
2;183;1571973366054;1571973369797;3743;12455828232;22881769182;1396131999;128704521;3736066215;36469026;743869452;0;0;0;0;0;0
2;184;1571973369856;1571973373578;3722;12576598556;22901887823;1415737337;130613749;3739610737;36408920;747416083;55;22;7440;0;100;648
2;185;1571973373613;1571973377272;3659;12553007876;22876440516;1410597400;130526697;3734946270;36452164;746071841;0;0;0;0;0;0
2;186;1571973377308;1571973380961;3653;12495242246;22893596607;1416152513;128585911;3738116241;36364808;746421497;11;14;776;0;4;17
2;187;1571973380998;1571973384663;3665;12543342238;22872659301;1418687654;129963882;3734436865;36570696;747629403;0;0;0;0;0;0
2;188;1571973384699;1571973388376;3677;12587689884;22885405255;1410945127;131312147;3736607209;36546254;745477062;0;0;0;0;0;0
2;189;1571973388412;1571973392091;3679;12517607548;22883708365;1417540923;128905164;3736328062;36545213;747712340;0;0;0;0;0;0
2;190;1571973392126;1571973395803;3677;12556193012;22899797660;1414573273;130370551;3739325027;36398332;746869823;9;15;776;0;3;8
2;191;1571973395848;1571973399623;3775;12528144076;22883830648;1403018856;130012275;3736416144;36420542;745708151;0;0;0;0;0;0
3;141;1571974051532;1571974055228;3696;12617683394;22985940747;1425438489;130873151;3738121780;36527905;748972359;0;0;0;0;0;0
3;142;1571974055264;1571974058950;3686;12610162350;22982791462;1427801801;130429330;3737627918;36443059;747556238;0;0;0;0;0;0
3;143;1571974058987;1571974062664;3677;12586408296;22975523618;1423699678;129259097;3736226890;36944899;744463029;0;0;0;0;0;0
3;144;1571974062699;1571974066396;3697;12617115162;22975866908;1433089344;130050411;3736282739;36457189;750737301;67;36;10104;0;140;664
3;145;1571974066432;1571974070161;3729;12627594458;22985349979;1431001239;129843969;3738001060;37019824;747477177;0;0;0;0;0;0
3;146;1571974070210;1571974073929;3719;12646681476;22986755283;1437510032;130149404;3738230252;37121664;749666767;0;0;0;0;0;0
3;147;1571974073967;1571974077643;3676;12593763630;22975528639;1412300449;129966158;3736224247;37081233;745449669;0;0;0;0;0;0
3;148;1571974077687;1571974081365;3678;12588825326;22976164134;1434311649;129406301;3736323305;36473750;751631841;11;18;968;0;11;21
3;149;1571974081420;1571974085116;3696;12630580742;22985276390;1429443941;130751968;3737985445;36493292;747544516;0;0;0;0;0;0
3;150;1571974085152;1571974088854;3702;12655093412;22984010202;1434353047;131110536;3737759985;36688846;752044786;0;0;0;0;0;0
3;151;1571974088892;1571974092560;3668;12557988812;22975572040;1422877304;128568259;3736247296;36543768;744283519;0;0;0;0;0;0
3;152;1571974092596;1571974096293;3697;12665837552;22965896033;1428560194;130785094;3734537226;36595266;743172650;62;37;9256;0;133;624
3;153;1571974096329;1571974100049;3720;12659470200;22984031932;1437732411;130907734;3737816249;36793699;749667008;0;0;0;0;0;0
3;154;1571974100084;1571974103747;3663;12549917786;22976627476;1423243769;128639011;3736435632;36436387;749188341;0;0;0;0;0;0
3;155;1571974103783;1571974107454;3671;12550388636;22985491657;1415380256;128107352;3738064629;36436927;746759701;0;0;0;0;0;0
3;156;1571974107490;1571974111172;3682;12597365888;22984214791;1415578988;129974800;3737878041;36595264;746337402;11;15;792;0;13;96
3;157;1571974111208;1571974114905;3697;12629704012;22975639612;1443119232;130210709;3736278269;36650544;752622436;0;0;0;0;0;0
3;158;1571974114952;1571974118634;3682;12593703916;22967462469;1427961424;129773831;3734761175;36490941;746353330;0;0;0;0;0;0
3;159;1571974118672;1571974122362;3690;12639501634;22985025641;1422066675;130935530;3737954640;36534940;747962816;0;0;0;0;0;0
3;160;1571974122397;1571974126168;3771;12606120048;22978018200;1438783072;130204030;3736655703;36512817;750126745;186;20;22264;1;564;1005
3;161;1571974126208;1571974130108;3900;12605397932;22974413390;1429794249;131186969;3736023380;36646523;749389700;297;24;28256;-1;889;1123
3;162;1571974130144;1571974133851;3707;12621456180;22981721299;1421637455;130093954;3737478959;36452843;746907653;0;0;0;0;0;0
3;163;1571974133889;1571974137571;3682;12579400588;22974366277;1418247810;128780545;3736047427;37107567;745301825;0;0;0;0;0;0
3;164;1571974137621;1571974141311;3690;12629958344;22966301349;1425309261;130911805;3734657815;36710262;746368210;0;0;0;0;0;0
3;165;1571974141347;1571974145036;3689;12602574876;22974199498;1421137348;130477494;3736079011;36460951;747911111;13;12;784;0;12;30
3;166;1571974145086;1571974148762;3676;12548745260;22994026286;1428700421;128488846;3739610707;36459600;752802266;0;0;0;0;0;0
3;167;1571974148828;1571974152591;3763;12551504660;22976073888;1407769165;129658600;3736381237;36446089;744891442;0;0;0;0;0;0
3;168;1571974152627;1571974156288;3661;12559713802;22973345435;1416529739;130018921;3735969102;36400490;749210264;0;0;0;0;0;0
3;169;1571974156324;1571974160077;3753;12522208446;22974781052;1412482222;128856194;3736126198;36445482;747317558;123;42;7592;0;216;11236
3;170;1571974160113;1571974163837;3724;12607792478;22975725288;1433542448;130359195;3736357214;36491473;750926227;0;0;0;0;0;0
3;171;1571974163874;1571974167535;3661;12552327808;22973991127;1404450488;129959910;3736046754;36448545;744384466;0;0;0;0;0;0
3;172;1571974167571;1571974171232;3661;12556262070;22984878265;1414412939;129590428;3737927071;36582757;749318078;0;0;0;0;0;0
3;173;1571974171267;1571974175068;3801;12554860178;22973935444;1409466363;128537925;3735973322;36619823;747622559;11;20;976;0;13;33
3;174;1571974175103;1571974178804;3701;12661228040;22967730170;1458470301;131125743;3734847606;36532769;748884659;0;0;0;0;0;0
3;175;1571974178842;1571974182519;3677;12610024380;22983293855;1414257090;130146830;3737691051;36689713;747244732;0;0;0;0;0;0
3;176;1571974182555;1571974186270;3715;12590748584;22993995655;1415069344;129837744;3739576809;36572440;747153136;0;0;0;0;0;0
3;177;1571974186306;1571974190003;3697;12654371588;22973976047;1441405139;131157880;3735964456;36534512;750839676;60;55;10704;0;134;730
3;178;1571974190039;1571974193721;3682;12622726818;22993288141;1430403683;130035708;3739421876;36431391;751101078;0;0;0;0;0;0
3;179;1571974193758;1571974197481;3723;12602056430;22965720331;1421241853;130458427;3734619640;36493104;747824461;0;0;0;0;0;0
3;180;1571974197518;1571974201223;3705;12644325766;22982953773;1430941395;130540118;3737745873;36448639;749423046;0;0;0;0;0;0
3;181;1571974201258;1571974204941;3683;12595818434;22972813421;1434055426;129719384;3735941449;36692405;749897460;10;14;776;0;12;38
3;182;1571974204988;1571974208681;3693;12601999782;22981686806;1408042444;129840481;3737542211;36953325;747959293;0;0;0;0;0;0
3;183;1571974208718;1571974212434;3716;12589338808;22980505078;1416676944;130212070;3737392953;36515496;747241622;0;0;0;0;0;0
3;184;1571974212477;1571974216190;3713;12590272186;22990559478;1432803766;128991249;3739125264;36502777;751608521;0;0;0;0;0;0
3;185;1571974216226;1571974219894;3668;12573051340;22964680041;1429127293;129752831;3734447019;36569325;753187905;41;44;8984;0;133;318
3;186;1571974219930;1571974223597;3667;12577099190;22964213052;1408958855;130276059;3734341720;36458969;744456376;0;0;0;0;0;0
3;187;1571974223634;1571974227360;3726;12595223046;22972502894;1418078374;129640014;3735898126;36956486;748962333;0;0;0;0;0;0
3;188;1571974227410;1571974231095;3685;12602636050;22964340005;1420288252;130706489;3734358776;36441350;748080909;0;0;0;0;0;0
3;189;1571974231131;1571974234821;3690;12612452798;22972299956;1427130686;130838634;3735785001;36456361;749109750;12;13;808;0;51;65
3;190;1571974234867;1571974238559;3692;12635329538;22980857857;1429328493;130674416;3737414923;36757858;749068863;0;0;0;0;0;0
4;137;1571974882023;1571974885743;3720;12651514952;22858720887;1425965230;129681378;3717698829;36587467;749040313;17;11;952;0;5;31
4;138;1571974885793;1571974889523;3730;12649380286;22841591800;1414962920;130730926;3714511084;36547031;744972016;0;0;0;0;0;0
4;139;1571974889563;1571974893260;3697;12668586440;22842543823;1438029854;130485866;3714770196;36575251;747440017;55;26;9488;0;127;683
4;140;1571974893307;1571974897124;3817;12618677362;22840111096;1423601494;130077020;3714295963;36582343;746816741;0;0;0;0;0;0
4;141;1571974897162;1571974900846;3684;12614558264;22842881738;1423887784;130048482;3714778097;36558523;748904132;11;14;776;0;12;17
4;142;1571974900883;1571974904564;3681;12615667134;22850416058;1420872374;129956137;3716120800;36575176;747837837;0;0;0;0;0;0
4;143;1571974904603;1571974908285;3682;12603200194;22857748099;1419137159;129726754;3717537990;36585149;749976563;0;0;0;0;0;0
4;144;1571974908333;1571974912031;3698;12652321894;22830848347;1425292338;130672118;3712640441;36584470;746404798;0;0;0;0;0;0
4;145;1571974912068;1571974915929;3861;12663760118;22849411051;1435846097;130923991;3716033126;36687705;750476581;481;37;51336;0;1458;1883
4;146;1571974915968;1571974919669;3701;12684684546;22851720219;1427224990;131075095;3716363446;36653454;747558512;0;0;0;0;0;0
4;147;1571974919720;1571974923447;3727;12677974386;22850412633;1436353350;131005957;3716147249;36564410;749985217;0;0;0;0;0;0
4;148;1571974923494;1571974927380;3886;12621721754;22849568380;1428174274;129045538;3716058467;36570913;746006462;0;0;0;0;0;0
4;149;1571974927424;1571974931121;3697;12679662584;22840900006;1435566583;130980637;3714440518;36529152;751811801;13;12;776;0;12;25
4;150;1571974931159;1571974934948;3789;12640527576;22842875792;1428610575;130520961;3714741228;36520024;746032535;0;0;0;0;0;0
4;151;1571974934986;1571974938676;3690;12644677626;22841637130;1430545007;129789120;3714522173;36565357;744169262;0;0;0;0;0;0
4;152;1571974938714;1571974942524;3810;12662881344;22841148761;1424816104;130199498;3714480999;36822303;747250175;0;0;0;0;0;0
4;153;1571974942561;1571974946464;3903;12607623994;22840256785;1419286946;129387219;3714334563;36592975;746202225;125;51;8392;0;293;13946
4;154;1571974946502;1571974950224;3722;12626329222;22843851528;1414812016;130095799;3714921295;36572577;743608778;0;0;0;0;0;0
4;155;1571974950263;1571974954000;3737;12657832956;22858352009;1433014111;130387038;3717558422;36615352;749068172;0;0;0;0;0;0
4;156;1571974954038;1571974957950;3912;12638351884;22850233848;1427749959;129659527;3716152101;36846763;748203874;0;0;0;0;0;0
4;157;1571974957988;1571974961693;3705;12661051234;22848832385;1433785014;130647740;3715862598;36561332;748089644;10;15;784;0;12;20
4;158;1571974961731;1571974965672;3941;12681857986;22841376364;1439518119;130961026;3714512308;36562635;751594065;0;0;0;0;0;0
4;159;1571974965711;1571974969484;3773;12594972656;22837694149;1413720968;129200924;3713934770;36543723;743623155;0;0;0;0;0;0
4;160;1571974969522;1571974973235;3713;12679922756;22834412781;1442417737;131248852;3713171573;36567318;748205048;0;0;0;0;0;0
4;161;1571974973273;1571974977101;3828;12647006326;22843193293;1432451031;130887840;3714797331;36525301;746589710;57;52;8136;0;121;670
4;162;1571974977155;1571974980970;3815;12652040114;22858381019;1426692000;130190206;3717663215;36687107;750103543;0;0;0;0;0;0
4;163;1571974981008;1571974984685;3677;12559249084;22841902436;1407605824;128835587;3714648710;36540618;745107405;0;0;0;0;0;0
4;164;1571974984722;1571974988514;3792;12596218182;22840256906;1419648238;130043433;3714308609;36538538;748017066;0;0;0;0;0;0
4;165;1571974988551;1571974992225;3674;12569143358;22850425358;1422269566;128831484;3716135733;36504471;745581716;12;13;776;0;12;23
4;166;1571974992262;1571974996058;3796;12598515492;22840209294;1421106658;129769849;3714315577;36559850;748665979;0;0;0;0;0;0
4;167;1571974996097;1571974999973;3876;12611278374;22860561227;1419640977;129036948;3717959526;36523092;746377477;0;0;0;0;0;0
4;168;1571975000010;1571975003795;3785;12626011526;22849337101;1431225459;129278413;3715989905;36530472;745753355;0;0;0;0;0;0
4;169;1571975003833;1571975007635;3802;12675136438;22832539981;1437410468;131143418;3712864408;36538212;750738003;38;42;8504;0;114;375
4;170;1571975007673;1571975011402;3729;12597913826;22860069715;1421374074;129284967;3717939531;36556319;745977129;0;0;0;0;0;0
4;171;1571975011440;1571975015329;3889;12602564072;22839860524;1422297925;129799346;3714257194;36557996;750178325;0;0;0;0;0;0
4;172;1571975015367;1571975019051;3684;12618130154;22849035657;1414877308;130552054;3715879528;36530342;749876521;0;0;0;0;0;0
4;173;1571975019088;1571975022990;3902;12615589024;22841717459;1420815588;129489864;3714552662;36549364;747810878;13;11;768;0;4;14
4;174;1571975023028;1571975026825;3797;12657048644;22849451567;1420861480;130299952;3715931906;36550244;746720715;0;0;0;0;0;0
4;175;1571975026864;1571975030667;3803;12642881242;22842184640;1417209654;130366489;3714589046;36576621;744878759;0;0;0;0;0;0
4;176;1571975030805;1571975034509;3704;12605355738;22840805683;1421415134;129302475;3714430970;36563670;747794117;0;0;0;0;0;0
4;177;1571975034547;1571975038245;3698;12619272166;22849071063;1416039668;129944119;3715928902;36552155;746334935;49;36;8088;0;164;424
4;178;1571975038282;1571975042168;3886;12615256582;22841099664;1422323070;129378669;3714444757;36548972;743660507;0;0;0;0;0;0
4;179;1571975042207;1571975045907;3700;12663705514;22851471373;1421738894;130259499;3716277873;36682451;744700740;0;0;0;0;0;0
4;180;1571975045944;1571975049865;3921;12641891216;22841715855;1427678035;130494645;3714432707;36594353;748256962;0;0;0;0;0;0
4;181;1571975049903;1571975053703;3800;12614144792;22840543116;1417719924;129994397;3714302832;36835590;746253323;10;15;776;0;12;58
4;182;1571975053752;1571975057443;3691;12651442974;22849075579;1431451841;129895984;3715911237;36578986;745719865;0;0;0;0;0;0
4;183;1571975057482;1571975061175;3693;12619499780;22840026669;1413675900;130299448;3714140980;36557142;743585491;0;0;0;0;0;0
4;184;1571975061232;1571975065255;4023;12631453822;22832501395;1430588654;130325615;3712817371;36567972;747878527;0;0;0;0;0;0
4;185;1571975065292;1571975068992;3700;12608972596;22832722745;1425365063;129076440;3712860382;36610729;745256095;62;37;8432;0;119;657
4;186;1571975069029;1571975073038;4009;12612901310;22840478517;1420346637;130264732;3714327405;36593563;749442768;0;0;0;0;0;0
