0;125;1571988894683;1571988898858;4175;13615094950;23198947854;1425628758;142472007;3786627131;36527906;753532589;1826;403;337336;-4;2173;40525
0;126;1571988898897;1571988903129;4232;13548665534;23187626639;1420146141;141437324;3784613666;36461237;752198275;1844;8;311136;-2;1674;5059
0;127;1571988903170;1571988907266;4096;13510274104;23207067499;1420137083;140162242;3788191196;36517320;752918395;1760;17;298536;0;1443;4671
0;128;1571988907312;1571988911435;4123;13489308942;23188261493;1404029085;139372422;3784792155;36547613;750268742;1763;25;299752;0;1620;5579
0;129;1571988911474;1571988915432;3958;13396166636;23189979438;1410178170;137689190;3785019111;36476475;749324169;1717;18;291480;0;1466;5128
0;130;1571988915479;1571988919470;3991;13381555540;23195298215;1407238271;137903273;3786093030;36445142;752707669;1135;872;320928;4;3054;14629
0;131;1571988919510;1571988923557;4047;13722483790;23187916521;1411759508;145429559;3784717458;36454945;756226116;1407;507;303280;-4;2042;9775
0;132;1571988923596;1571988927596;4000;13649216902;23189639491;1402604405;143849588;3784976155;36387984;751821241;1721;456;323408;3;1744;52903
0;133;1571988927635;1571988931616;3981;13511226024;23206232369;1421822581;140936343;3788002356;36447657;754244146;1729;23;298872;-2;1806;5989
0;134;1571988931665;1571988935635;3970;13552745796;23188021116;1415084635;141493920;3784702116;36406684;751448475;1729;5;291312;-1;1317;4243
0;135;1571988935676;1571988939614;3938;13481859292;23196703869;1410722244;139809422;3786299738;36351019;754313334;1731;0;290016;0;1554;5494
0;136;1571988939652;1571988943675;4023;13431753552;23189505134;1414650449;139044569;3784909753;36364578;753928707;1745;3;293664;3;1505;5298
0;137;1571988943713;1571988947692;3979;13440156290;23198555888;1420937605;138544380;3786603056;36447569;755672682;1725;6;290808;-3;1521;5187
0;138;1571988947732;1571988951951;4219;13461543538;23197981637;1424753206;137920882;3786514849;36518777;754143198;1837;9;310128;1;1618;5644
0;139;1571988952003;1571988956008;4005;13412436438;23199676939;1421292821;138494949;3786755232;36505595;757670528;1762;59;292784;7;1736;14766
0;140;1571988956047;1571988960126;4079;13460678196;23196015225;1400282400;139014733;3786181926;36447935;749447125;1772;403;335624;-8;1911;26792
0;141;1571988960164;1571988964216;4052;13505337260;23204201269;1419849101;138413738;3787623190;36357108;752114521;1775;4;298872;0;1398;3993
0;142;1571988964255;1571988968200;3945;13374343724;23180735959;1419431597;137579823;3783342600;36485593;754801964;1699;20;288792;0;1404;4879
0;143;1571988968241;1571988972314;4073;13515161746;23188644898;1423314603;139146354;3784777728;36427294;758108638;1768;12;298248;0;1642;5738
0;144;1571988972353;1571988976487;4134;13425462704;23188222722;1405958072;138426900;3784675624;36595249;751317152;1802;5;303576;0;1585;5880
0;145;1571988976526;1571988980487;3961;13381540648;23189266022;1409540330;137514958;3784957183;36476501;753344801;1713;13;289968;0;1565;5350
0;146;1571988980526;1571988984455;3929;13436738138;23196398158;1403180960;138423997;3786207429;36406227;753299097;1701;5;286608;1;1340;4544
0;147;1571988984495;1571988988813;4318;13445985778;23196343423;1409354623;138489471;3786196454;36543460;747990374;1884;382;341840;15;1675;47862
0;148;1571988988863;1571988992965;4102;13459471652;23189590894;1425841980;139582801;3784964926;36508907;751572650;1753;76;315336;-16;1790;6267
0;149;1571988993011;1571988997212;4201;13605743650;23199796844;1430104216;142620953;3786795965;36570206;754552671;1826;2;307104;0;1461;5016
0;150;1571988997251;1571989001289;4038;13588362496;23196443888;1417393062;141944092;3786264602;36500558;749563775;1742;16;294720;0;1585;5653
0;151;1571989001330;1571989005498;4168;13429503984;23180300214;1412957513;138813968;3783222383;36437935;751803611;1800;11;304248;5;1596;5517
0;152;1571989005536;1571989009644;4108;13479979396;23197155306;1408147461;138759752;3786391270;36473285;752648824;1782;1;299544;-4;1490;5154
0;153;1571989009692;1571989013662;3970;13413188776;23198422969;1413383121;137935423;3786548786;36460769;754308824;1731;4;291480;-1;1667;5878
0;154;1571989013701;1571989017889;4188;13390783470;23179385167;1424546110;138106251;3783157247;36557783;751650503;1821;0;305296;2;1594;5700
0;155;1571989017930;1571989021937;4007;13445825762;23189960014;1417340161;138936832;3785040498;36528639;755130900;1700;428;329640;-2;2046;40780
0;156;1571989021975;1571989026029;4054;13417706600;23181536918;1411294032;138308355;3783475535;36407785;752584992;1776;3;298872;1;1488;4572
0;157;1571989026068;1571989030256;4188;13466241088;23205882233;1416871243;139297680;3787935412;36469674;755658180;1820;1;305792;-1;1561;5437
0;158;1571989030297;1571989034247;3950;13512975250;23195810894;1419753047;139414109;3786091429;36362202;754780029;1728;5;290520;0;1592;6082
0;159;1571989034287;1571989038379;4092;13438639642;23187938953;1419569368;138257868;3784708140;36479892;758518036;1788;0;300384;0;1483;4999
0;160;1571989038417;1571989042370;3953;13429891176;23196249303;1405874327;138937620;3786161864;36423819;749569726;1703;7;287280;0;1524;5104
0;161;1571989042409;1571989046492;4083;13463208376;23197951743;1413962896;138897566;3786514199;36489680;753259298;1769;1;297360;0;1268;4393
0;162;1571989046531;1571989050508;3977;13410347470;23190492067;1413066368;137961007;3785059502;36423419;754714560;1691;421;324136;2;1674;45838
0;163;1571989050557;1571989054475;3918;13407228180;23190784644;1405958532;138740438;3785153956;36375925;754287277;1709;26;291480;0;1804;6848
0;164;1571989054516;1571989058500;3984;13463145596;23187190538;1408020517;138772934;3784543024;36461738;750801921;1734;9;292688;-2;1390;4665
0;165;1571989058539;1571989062748;4209;13435162068;23189870830;1415633299;138283507;3785052355;36513709;754268831;1843;8;310336;0;1659;6241
0;166;1571989062784;1571989066734;3950;13534982122;23190449943;1417571823;139768617;3785107836;36371070;752789187;1716;4;288960;0;1530;5520
0;167;1571989066775;1571989070737;3962;13411892442;23197106791;1412557230;138183094;3786377648;36483844;754016779;1727;0;290136;2;1477;4937
0;168;1571989070776;1571989074765;3989;13378189364;23195501522;1414904933;137489255;3786076051;36535611;751266919;1739;5;292992;-1;1614;5818
0;169;1571989074805;1571989078749;3944;13421134972;23179145715;1409250346;139163877;3783079925;36444398;755436260;1707;4;286816;-1;1475;5328
0;170;1571989078788;1571989082741;3953;13403157992;23197295118;1411360460;138505514;3786479191;36391421;755092767;1652;482;324776;0;2068;42567
0;171;1571989082781;1571989086902;4121;13375623122;23187869039;1415491159;137607017;3784691642;36649060;753874634;1809;0;303912;1;1483;4398
0;172;1571989086948;1571989090920;3972;13461055606;23189053860;1419387151;139414147;3784893327;36450803;752000904;1727;0;290136;-1;1426;4863
0;173;1571989090959;1571989095025;4066;13427074398;23198500468;1427911398;137984903;3786565115;36441300;753707975;1785;2;299584;0;1578;5444
0;174;1571989095067;1571989099080;4013;13398699590;23199665589;1412613790;138286956;3786795226;36593064;749259045;1744;1;293160;1;1486;5034
1;128;1571989738522;1571989742565;4043;13482168228;22971893654;1416279846;142903690;3732430946;36669673;752367743;1805;10;304920;0;1422;4782
1;129;1571989742602;1571989746625;4023;13446622192;22961401427;1390270480;143048687;3730571188;36465577;744011303;1800;0;302400;0;1637;6026
1;130;1571989746664;1571989750687;4023;13256168258;22961262261;1412941254;138497898;3730555496;36489097;748938567;1791;2;301224;0;1469;5166
1;131;1571989750727;1571989754773;4046;13260423574;22969810036;1408231303;138056791;3732108831;36663918;747261393;1811;4;304616;0;1574;5587
1;132;1571989754811;1571989758723;3912;13274902540;22976129677;1416678363;138011444;3733294260;36553780;747858667;1745;0;293160;0;1661;6388
1;133;1571989758765;1571989762741;3976;13368341518;22970016525;1420988907;141371071;3732162896;36615755;747185291;1749;0;293832;4;1156;3980
1;134;1571989762780;1571989766726;3946;13449092658;22968281186;1430226051;141861353;3731878625;36508194;753848885;1675;472;324712;-4;1806;41657
1;135;1571989766766;1571989770722;3956;13432991340;22968065262;1412716541;141864771;3731842600;36516588;748606852;1772;10;298424;8;1634;5620
1;136;1571989770761;1571989774673;3912;13270584298;22968247718;1416818366;138832767;3731851361;36522782;748540465;1738;15;294504;-8;1432;4961
1;137;1571989774712;1571989778666;3954;13301828736;22968121690;1420992344;138805541;3731862691;36600884;749927130;1748;21;297192;7;1466;4861
1;138;1571989778714;1571989782638;3924;13271086100;22970147404;1421561399;138091763;3732171749;36578278;751558200;1723;47;297056;-7;1577;5583
1;139;1571989782687;1571989786777;4090;13237674584;22968005078;1400597309;138792436;3731836254;36714033;746837075;1809;16;306600;1;1454;4845
1;140;1571989786826;1571989790776;3950;13277808670;22959524983;1419536494;138793986;3730280924;36658430;747059883;1762;5;296856;0;1708;6130
1;141;1571989790823;1571989794747;3924;13275969654;22968374977;1420569610;138296260;3731890074;36607881;746287636;1754;0;294672;-1;1397;5053
1;142;1571989794785;1571989799113;4328;13369592738;22959139369;1423546427;141212196;3730209000;36596917;747080532;1216;1411;378728;15;3761;82401
1;143;1571989799153;1571989803236;4083;13406725356;22958969560;1405356569;142276167;3730174316;36649890;745981161;893;1294;373072;-10;3752;27522
1;144;1571989803274;1571989807396;4122;13297368144;22967809515;1411152655;140028683;3731801803;36651971;748087565;1276;817;442256;-5;2885;17469
1;145;1571989807435;1571989811472;4037;13546877034;22969384817;1411412721;144825698;3732025253;36656887;746174528;1785;4;300552;0;1615;5767
1;146;1571989811522;1571989815542;4020;13491223586;22969398885;1413476667;143907272;3731976667;36661399;751266174;1787;0;299904;3;1562;5729
1;147;1571989815582;1571989819504;3922;13337767658;22970635304;1412879468;140578124;3732223159;36554001;748722022;1739;0;292152;5;1535;5386
1;148;1571989819560;1571989823492;3932;13422466930;22967611092;1394895238;142853977;3731740527;36505943;747252996;1745;0;293160;-8;1223;4223
1;149;1571989823538;1571989827466;3928;13425754850;22961129355;1403731026;142556497;3730524430;36506212;747846038;1694;533;327288;0;1951;72814
1;150;1571989827504;1571989831579;4075;13388473604;22966105264;1410097968;142321873;3731509408;36629269;747257348;1863;64;310672;0;2024;12016
1;151;1571989831620;1571989835613;3993;13508661242;22959533279;1419487137;143966669;3730232594;36588484;749291347;1760;1;295848;2;1330;4527
1;152;1571989835651;1571989839666;4015;13518615668;22966652467;1426026822;143912437;3731643341;36648132;752994327;1791;0;300888;-2;1428;4950
1;153;1571989839714;1571989843647;3933;13246192954;22968110063;1409573807;138521082;3731852928;36647279;748023569;1769;0;295368;4;1545;5394
1;154;1571989843693;1571989847719;4026;13339651934;22960202819;1404645593;139736748;3730389251;36731284;745521318;1774;0;297760;-4;1653;6713
1;155;1571989847769;1571989851721;3952;13325346270;22968214842;1418149640;139503337;3731852980;36636934;751812019;1768;0;297024;0;1715;6248
1;156;1571989851759;1571989855791;4032;13287781346;22978059878;1436822659;138935710;3733615946;36617003;751975425;1790;0;300720;4;1475;5406
1;157;1571989855829;1571989859996;4167;13299690274;22960878353;1409958759;139766213;3730522507;36657321;747759167;1847;607;353376;1;2241;105739
1;158;1571989860033;1571989863917;3884;13277481776;22975483716;1407860927;139214529;3733173995;36506989;747724241;1742;1;292824;-4;1613;5242
1;159;1571989863957;1571989867823;3866;13246574160;22960498838;1398391448;138845699;3730451738;36453265;746858328;1677;66;291736;-1;1553;5544
1;160;1571989867862;1571989871758;3896;13305677442;22951548311;1409000598;139393350;3728825118;36474273;746616081;1711;23;291312;6;1689;7383
1;161;1571989871796;1571989875743;3947;13315146856;22960414187;1406919155;140021986;3730400514;36589371;749157511;1730;31;295272;-6;1513;5010
1;162;1571989875781;1571989879863;4082;13283126574;22975829804;1412847957;139162618;3733243526;36591831;746029284;1813;8;305928;1;1624;5407
1;163;1571989879913;1571989884094;4181;13336034054;22968315168;1413837846;139819213;3731892287;36662246;750143602;1859;2;312648;-1;1551;5704
1;164;1571989884143;1571989888014;3871;13234260812;22977508686;1413263658;138595398;3733478753;36473292;749389848;1722;0;289296;0;1110;3803
1;165;1571989888053;1571989892248;4195;13307840724;22961774191;1417146065;138911722;3730712833;36647158;748680260;1820;771;357928;0;2819;147952
1;166;1571989892286;1571989896241;3955;13341693452;22966972710;1417503666;139757676;3731608651;36605580;748646388;1768;2;297360;0;1549;5032
1;167;1571989896281;1571989900228;3947;13272315128;22958783712;1411584388;138582646;3730143187;36571939;744283368;1764;7;297528;0;1403;4675
1;168;1571989900266;1571989904276;4010;13312360300;22962185763;1415585099;138903832;3730714413;36551042;751716034;1788;2;300720;8;1614;6001
1;169;1571989904314;1571989908305;3991;13295225740;22959454789;1399078607;138869686;3730242667;36489804;746036767;1791;1;300752;-8;1508;5296
1;170;1571989908343;1571989912353;4010;13314224574;22968574893;1402932536;140691837;3731927960;36638213;744665212;1773;10;299544;1;1656;5613
1;171;1571989912393;1571989916372;3979;13432975426;22961964436;1395232121;142387716;3730630862;36629180;745119217;1759;0;295512;-1;1528;5616
1;172;1571989916420;1571989920457;4037;13454269088;22956670101;1414573379;143063924;3729796618;36627132;751342507;1836;462;326576;8;1953;71983
1;173;1571989920504;1571989924507;4003;13276425466;22960404125;1411254879;139288932;3730407016;36782366;748220825;1784;28;307968;-8;1748;5859
1;174;1571989924553;1571989928476;3923;13256201984;22958846896;1405203039;138921252;3730188887;36619708;751308065;1764;0;296352;7;1331;4483
1;175;1571989928515;1571989932398;3883;13243786874;22959701624;1400769798;139070042;3730304637;36516536;747981146;1725;31;295008;-7;1567;5661
1;176;1571989932437;1571989936337;3900;13223165980;22968108883;1410931581;138435531;3731794519;36539749;749519770;1741;4;292856;4;1540;5606
1;177;1571989936375;1571989940330;3955;13256996370;22950936749;1401850686;139091205;3728712098;36615575;746500294;1781;1;299376;-4;1574;5488
2;126;1571990574858;1571990578838;3980;13445040282;22983790746;1437790965;139314328;3737686275;36481157;752239905;1746;480;335056;0;2010;54186
2;127;1571990578877;1571990582841;3964;13362385740;22984322871;1434909162;137881496;3737790918;36563225;753594687;1774;15;300552;5;1763;5792
2;128;1571990582884;1571990586951;4067;13462749060;22990746070;1427119914;140803353;3738952435;36479067;750348017;1819;1;305760;-5;1345;4503
2;129;1571990586990;1571990591061;4071;13532862932;22994793611;1419773738;141653725;3739580231;36460437;748237195;1798;18;304496;0;1538;5207
2;130;1571990591099;1571990595207;4108;13476853536;22983410865;1435593550;141027195;3737549833;36572931;751364579;1813;16;307136;0;1623;5901
2;131;1571990595247;1571990599179;3932;13324673940;22998873070;1420048650;138679672;3740404755;36467431;748600876;1761;1;296016;0;1510;5023
2;132;1571990599217;1571990603166;3949;13351906444;23001302054;1426667261;138446378;3740786351;36489919;750060348;1737;6;292824;1;1517;5285
2;133;1571990603204;1571990607118;3914;13362384426;22991159532;1420708861;138197745;3738979530;36459897;750749360;1749;8;294376;-1;1180;4313
2;134;1571990607156;1571990611458;4302;13393712376;22999984565;1439708112;139089003;3740630143;36583572;755859789;1921;489;362776;0;2067;47124
2;135;1571990611498;1571990615524;4026;13408098778;23001739075;1429948335;139265992;3740884920;36437447;749791345;1786;12;302064;8;1631;5774
2;136;1571990615562;1571990619479;3917;13308433630;22993703791;1426054347;137996549;3739420496;36429963;746619974;1762;2;296352;-4;1434;5391
2;137;1571990619516;1571990623613;4097;13520061944;23001405546;1435777951;141909577;3740847690;36508768;752383711;1829;2;307152;-1;1732;6197
2;138;1571990623651;1571990627670;4019;13504620400;23001261251;1438302906;141820255;3740786503;36571717;751973404;1791;0;300888;-2;1546;5483
2;139;1571990627719;1571990631778;4059;13455161732;23000796673;1437571432;141689613;3740726895;36567927;751425761;1807;0;303576;-1;1526;5055
2;140;1571990631816;1571990636037;4221;13588058962;22991040330;1427235042;143880667;3738975270;36507740;750785273;1854;8;312016;10;1805;7067
2;141;1571990636075;1571990640157;4082;13581462244;22974515690;1434134087;144075623;3735945581;36590311;748646160;1426;973;328568;21;2933;76280
2;142;1571990640196;1571990644236;4040;13494636044;22993220833;1438139889;142013686;3739340318;36573734;750723223;949;1121;359784;-29;3643;40732
2;143;1571990644285;1571990648401;4116;13582369926;23001314846;1434420275;143622200;3740836570;36577453;751045689;1835;12;310296;-2;1487;5377
2;144;1571990648444;1571990652466;4022;13527358878;23000525158;1430625655;142853936;3740689166;36520419;753432291;1770;23;300632;0;1470;5107
2;145;1571990652515;1571990656682;4167;13379215452;22983758986;1421362746;139300820;3737635919;36482498;746667966;1861;8;313992;0;1613;5832
2;146;1571990656729;1571990660794;4065;13403911644;22992482629;1438032027;139318213;3739215900;36522146;752078520;1808;2;304080;0;1557;5660
2;147;1571990660834;1571990664892;4058;13359117530;22984580623;1431893676;138926910;3737776958;36479230;753092283;1801;8;303912;1;1631;5537
2;148;1571990664941;1571990669004;4063;13302537128;23000973882;1423744330;137302901;3740722002;36525550;749325814;1814;6;304960;-1;1138;3787
2;149;1571990669059;1571990673029;3970;13386069568;23000408334;1422455512;138790044;3740656374;36533230;751827864;1654;511;328488;0;1848;44288
2;150;1571990673077;1571990677041;3964;13369626902;22982616443;1418903634;138508043;3737423156;36540815;749404995;1782;5;300216;0;1420;4393
2;151;1571990677081;1571990681132;4051;13335135278;22983605608;1438503835;138964819;3737590396;36492689;753390158;1803;4;303576;8;1428;4878
2;152;1571990681176;1571990685129;3953;13459768178;22984710878;1423509067;140378173;3737802694;36424858;749304504;1823;24;297640;0;1770;12268
2;153;1571990685167;1571990689341;4174;13414279396;22983900246;1418027961;140022120;3737659908;36449770;746940201;1876;0;315168;-7;1627;5980
2;154;1571990689379;1571990693310;3931;13346914850;22983744426;1427282020;138558536;3737620167;36407875;747464130;1759;0;295512;-1;1511;5176
2;155;1571990693350;1571990697281;3931;13379641042;22993081690;1429356584;138563803;3739308075;36437600;750986530;1747;2;293032;3;1621;6199
2;156;1571990697319;1571990701223;3904;13359840230;22991854832;1423931565;138103197;3739157831;36375153;750577521;1776;220;305128;152;1541;11237
2;157;1571990701271;1571990705228;3957;13336046026;22980108877;1420594080;138469192;3737003031;36509845;746428012;1644;309;327896;-155;2098;41522
2;158;1571990705266;1571990709373;4107;13343469104;22981175795;1430775135;138588067;3737218981;36516802;749411245;1829;4;307944;8;1496;5364
2;159;1571990709413;1571990713348;3935;13382313426;22984227437;1422498137;138676861;3737699406;36468700;748924360;1771;2;297408;-8;1453;4895
2;160;1571990713396;1571990717335;3939;13332740878;22983301988;1416683542;138319708;3737579273;36503676;747809118;1765;4;297192;6;1467;5484
2;161;1571990717374;1571990721468;4094;13401634336;22993079496;1427957628;139419066;3739253503;36501397;749501016;1810;4;304752;-5;1596;5758
2;162;1571990721506;1571990725515;4009;13371152894;22991152013;1430323361;139042761;3738979809;36498486;752491119;1791;0;300888;-1;1662;5798
2;163;1571990725553;1571990729582;4029;13319275006;22973594817;1436840021;138190614;3735801555;36501657;751668360;1799;8;302776;0;1232;4219
2;164;1571990729621;1571990733599;3978;13422886096;22999742298;1440006936;139448935;3740610502;36522403;752085410;1726;440;335384;1;1623;44793
2;165;1571990733637;1571990737717;4080;13371629438;22982784227;1434593596;139185256;3737507881;36670834;753019290;1833;1;308112;-1;1598;5198
2;166;1571990737754;1571990741640;3886;13294724376;22991105970;1424486382;137883754;3738999284;36391226;749458202;1747;3;294000;4;1395;4927
2;167;1571990741686;1571990745788;4102;13362812498;22982789966;1428812148;139282185;3737452836;36625833;751561781;1826;2;306648;3;1578;5683
2;168;1571990745834;1571990749758;3924;13321969436;22990777440;1430712593;138250350;3738967906;36455673;752710212;1753;6;295512;-7;1595;5888
2;169;1571990749795;1571990753735;3940;13504585798;22990303319;1432945727;141146751;3738856188;36378456;753806416;1759;0;295512;0;1451;4640
2;170;1571990753773;1571990757748;3975;13507685378;22983425619;1435105614;141940812;3737664797;36443335;753413067;1750;0;294000;0;1659;6095
2;171;1571990757795;1571990761854;4059;13385193860;22982515547;1435990862;140169876;3737433969;36470468;751580284;1802;4;302768;4;1592;5917
2;172;1571990761892;1571990765796;3904;13359911332;22993529196;1433507189;138345681;3739362810;36402038;755314230;1706;480;331720;-1;2265;56285
2;173;1571990765835;1571990770047;4212;13434708592;22992982186;1445962347;139763959;3739345516;36493233;753671906;1880;1;316008;0;1590;5201
2;174;1571990770086;1571990774017;3931;13288776920;22976478476;1440457891;137487065;3736255473;36476015;750015022;1762;19;298472;-3;1396;4581
2;175;1571990774061;1571990778033;3972;13382730402;22975584946;1436752957;138225146;3736142984;36622720;754371471;1768;7;298200;1;1501;5193
3;130;1571991414222;1571991418098;3876;13090845012;22639575976;1398850127;138379552;3681166253;36338583;748142298;1725;4;290472;0;1418;4396
3;131;1571991418147;1571991421997;3850;13066364462;22629201023;1398961526;137870159;3679361778;36308269;750708637;1720;7;290136;0;1428;6122
3;132;1571991422035;1571991425912;3877;13198270644;22631094848;1411578751;139592450;3679591271;36302761;749369774;1704;15;288792;0;1481;5112
3;133;1571991425962;1571991429829;3867;13187612352;22630082526;1405670038;139196305;3679477380;36282463;748987447;1719;10;290016;0;1500;5420
3;134;1571991429869;1571991433851;3982;13140309812;22621273388;1402924540;139569808;3677828950;36311952;747646932;1743;11;294672;5;1634;5894
3;135;1571991433893;1571991437849;3956;13135314860;22630977597;1398110971;139263599;3679704833;36303562;748755266;1752;1;294504;-5;1301;4264
3;136;1571991437888;1571991441980;4092;13060219906;22621261039;1399245427;138564887;3677826072;36399654;748598353;1836;153;310264;145;1276;24013
3;137;1571991442029;1571991445932;3903;13220003474;22631718413;1406139565;139821178;3679781733;36331151;747330001;1610;442;324960;-145;2387;60333
3;138;1571991445972;1571991450060;4088;13136032450;22621216648;1400995609;139531050;3677814010;36455605;747746187;1085;992;331384;6;3399;20385
3;139;1571991450102;1571991453958;3856;13099869418;22621717309;1411244254;138442914;3677958055;36311947;749397493;1414;475;299840;-2;2182;9683
3;140;1571991453999;1571991458108;4109;13102263088;22630494417;1403973743;138661018;3679561909;36384564;749402637;1831;0;307608;-4;1676;5978
3;141;1571991458147;1571991461990;3843;13142995482;22622712659;1393239541;139511383;3678073943;36248633;747840610;1705;0;285816;0;1417;4818
3;142;1571991462030;1571991466100;4070;13033982100;22620180044;1398868777;138205274;3677678340;36364790;747960088;1810;0;304080;0;1580;5228
3;143;1571991466141;1571991470125;3984;13259822200;22631666396;1401045890;142451989;3679702113;36302305;750511535;1744;4;293664;0;1605;5933
3;144;1571991470165;1571991474300;4135;13279547968;22620187942;1396829741;142999564;3677682523;36416859;748822345;1734;563;340104;4;2124;69435
3;145;1571991474340;1571991478216;3876;13117900418;22640556931;1396145580;139699902;3681321072;36317961;747866909;1736;9;293160;-3;1738;5406
3;146;1571991478266;1571991482284;4018;13148979730;22638972039;1399883493;139394880;3681070997;36404766;749117496;1779;0;298872;-1;1382;4771
3;147;1571991482338;1571991486352;4014;13180513394;22637928755;1406573078;139643082;3680918856;36361059;750899665;1779;10;300552;0;1516;5382
3;148;1571991486402;1571991490271;3869;13036550678;22628837118;1403409597;137807438;3679322981;36370298;752033480;1684;26;274328;0;1681;10060
3;149;1571991490329;1571991494188;3859;13112768226;22629410993;1392845826;139334047;3679348770;36320573;747691039;1711;7;288624;0;1497;5136
3;150;1571991494229;1571991498179;3950;13133959542;22629933061;1399402208;139578164;3679382089;36299487;748775339;1741;4;293160;0;1642;5406
3;151;1571991498221;1571991502089;3868;13121142056;22628469742;1401965880;140235572;3679194901;36330573;751139673;1708;0;286944;0;1059;3308
3;152;1571991502129;1571991506080;3951;13292390274;22631670761;1407270166;143120486;3679714885;36306107;751781377;1657;507;328040;0;1856;44137
3;153;1571991506120;1571991510269;4149;13291606108;22636649383;1394059262;142568222;3680723776;36331220;745826196;1847;0;310296;0;1515;4402
3;154;1571991510310;1571991514205;3895;13160492268;22630830680;1407053584;140143266;3679573219;36392055;747571832;1733;3;291648;0;1402;4934
3;155;1571991514247;1571991518148;3901;13202134680;22629534347;1393641204;140578752;3679425911;36338807;748111136;1733;0;291144;0;1446;4760
3;156;1571991518189;1571991522096;3907;13333435692;22646976571;1412504518;142428138;3682562845;36272123;753461811;1718;12;290024;0;1536;5674
3;157;1571991522145;1571991526024;3879;13172623262;22621388578;1411713982;139646661;3677870967;36334794;748620383;1717;15;290840;0;1447;4991
3;158;1571991526064;1571991529924;3860;13155303720;22638556337;1401028981;139118045;3681009708;36253653;749510091;1702;0;285936;1;1614;5622
3;159;1571991529966;1571991533950;3984;13188835102;22620322147;1407864886;139818183;3677747936;36316471;750645238;1750;4;294672;-1;1567;5963
3;160;1571991533990;1571991537971;3981;13038132004;22645187308;1405726319;137702416;3682280372;36326522;747402065;1664;426;325592;0;1785;25762
3;161;1571991538011;1571991542070;4059;13116831552;22629370434;1407662876;139256051;3679327257;36452481;749255015;1808;0;303744;0;1456;5082
3;162;1571991542120;1571991546035;3915;13155297734;22632678580;1407605782;139699462;3679900957;36388713;751269488;1733;3;291648;5;1430;5071
3;163;1571991546076;1571991549927;3851;13006398612;22630072411;1405579358;137155617;3679429903;36372589;750965372;1720;0;288960;-5;1508;5245
3;164;1571991549967;1571991553829;3862;13144014124;22637994738;1389747977;139072370;3680941374;36329545;745594508;1713;4;287832;4;1552;5859
3;165;1571991553869;1571991557767;3898;13196458638;22648831656;1409749326;139720041;3682892763;36300687;750992019;1708;6;287952;-1;1507;5269
3;166;1571991557806;1571991561670;3864;13047359350;22646619675;1410863711;136668147;3682533655;36393390;751513355;1719;6;289800;-2;1364;4459
3;167;1571991561722;1571991565562;3840;13108398446;22632614931;1400690498;138682013;3679948244;36262745;751758789;1695;0;284760;-1;1093;3556
3;168;1571991565602;1571991569540;3938;13147402492;22647423131;1397974806;139484703;3682599922;36342043;749130819;1739;386;323872;1;2118;42071
3;169;1571991569581;1571991573448;3867;13012652960;22638251710;1417006878;136798387;3681007638;36310770;748429446;1737;1;291984;-1;1343;4383
3;170;1571991573487;1571991577387;3900;13143188640;22632349479;1405037713;139375246;3679890613;36356722;750410060;1735;0;291480;0;1402;4693
3;171;1571991577429;1571991581303;3874;13158889480;22629061148;1400643176;139866288;3679295598;36312600;750518488;1688;15;285488;5;1544;5641
3;172;1571991581348;1571991585211;3863;13045951472;22629301867;1402218424;137764708;3679283199;36386662;749718576;1721;5;289968;-5;1541;5482
3;173;1571991585251;1571991589190;3939;13151681898;22631672604;1405279419;138910524;3679772704;36473028;745294556;1732;5;291816;7;1502;5014
3;174;1571991589241;1571991593197;3956;13175360908;22622231216;1407601782;140065947;3677991567;36424167;749270981;1749;1;294000;-7;1548;5489
3;175;1571991593239;1571991597141;3902;13031587408;22631626403;1406854972;137504847;3679794904;36383554;753302305;1708;401;310392;15;1696;51067
3;176;1571991597188;1571991601046;3858;13123006914;22631126032;1404495804;138015873;3679666316;36304309;752040108;1662;98;303408;-15;2014;7281
3;177;1571991601086;1571991604990;3904;13187892380;22645087480;1404024116;139603648;3682232561;36366859;751504576;1717;2;288792;0;1349;4618
3;178;1571991605038;1571991608912;3874;13052798142;22638546131;1411576146;137677486;3681024995;36328856;751836108;1737;1;291984;0;1471;5206
3;179;1571991608954;1571991612887;3933;13175151690;22647429155;1404703236;139302081;3682673899;36298034;749778161;1748;10;294728;0;1415;4837
4;125;1571992250527;1571992254707;4180;13473278872;22994250837;1414353690;141183992;3733746059;36490263;746560778;1857;3;311688;8;1695;6551
4;126;1571992254753;1571992258938;4185;13393159328;23005888928;1408685324;138714342;3735773335;36556765;749425898;1890;0;317520;-6;1468;5105
4;127;1571992258980;1571992262973;3993;13435766508;22986319738;1412222762;139775223;3732349172;36474397;743837009;1780;5;299880;-2;1604;5897
4;128;1571992263013;1571992266943;3930;13416154036;23007997830;1412473330;139578571;3736127203;36423305;746252560;1744;0;292848;0;1641;6610
4;129;1571992266993;1571992271014;4021;13340944764;23004107358;1398268645;138059988;3735487425;36633884;745371643;1792;0;301056;0;1581;5620
4;130;1571992271054;1571992275097;4043;13372526754;23004591090;1403771906;138939653;3735570018;36439523;746636885;1796;0;301728;0;1250;4484
4;131;1571992275150;1571992279120;3970;13291127228;22998086183;1393921062;138694446;3734371917;36517228;744266353;1749;457;328200;0;1776;51947
4;132;1571992279160;1571992283264;4104;13368073170;23003775354;1398100363;138652498;3735458219;36538425;743370569;1854;3;310864;0;1884;8389
4;133;1571992283304;1571992287268;3964;13337625892;22996344375;1391070853;138978962;3734057450;36536322;744089760;1772;4;298368;0;1385;4732
4;134;1571992287309;1571992291388;4079;13488622158;23006284034;1400896851;142152444;3735813119;36496703;746020438;1805;12;304848;0;1731;6531
4;135;1571992291430;1571992295541;4111;13646476920;22988397084;1399805796;145090990;3732661690;36454550;743640248;1817;3;305760;0;1646;5893
4;136;1571992295590;1571992299654;4064;13614770538;22996773525;1399111042;144832551;3734095716;36565832;747860042;1796;0;301584;0;1614;5905
4;137;1571992299694;1571992303780;4086;13388762392;23002681263;1407635361;140074907;3735273229;36600028;745945801;1007;1175;328384;7;3596;16771
4;138;1571992303820;1571992308022;4202;13444883332;22998394583;1405273461;140370540;3734409772;36652331;744163588;1774;110;319808;1;1873;7933
4;139;1571992308064;1571992312116;4052;13427710228;22998015871;1396898479;140490826;3734356056;36457792;742669221;1759;488;342864;-7;2173;52082
4;140;1571992312165;1571992316278;4113;13346993398;23006711502;1393894501;139246151;3735910871;36565666;744906105;1833;2;308280;2;1477;4782
4;141;1571992316318;1571992320352;4034;13331451990;22989585682;1395381075;138585894;3732859742;36389128;743096639;1788;19;303576;-3;1454;4838
4;142;1571992320401;1571992324391;3990;13368019588;22995611993;1398437605;138922463;3733974954;36507172;746164678;1763;18;299208;0;1698;6094
4;143;1571992324433;1571992328397;3964;13327550432;22998311727;1404181858;139092550;3734417232;36519071;745936126;1746;5;294024;0;1442;5070
4;144;1571992328437;1571992332437;4000;13340024380;22998173419;1404702979;138698085;3734342246;36532956;750001538;1764;5;297192;11;1556;5340
4;145;1571992332476;1571992336586;4110;13424178634;23002651102;1401454620;139622573;3735259599;36620645;746562672;1816;1;305256;-8;1302;4787
4;146;1571992336627;1571992340701;4074;13358858234;22992421849;1396686905;139500784;3733480828;36488872;744407710;1818;415;337032;-3;1719;46741
4;147;1571992340744;1571992344707;3963;13339182398;22990315760;1402646235;138204490;3732961423;36403206;745236504;1797;79;301224;0;2090;19066
4;148;1571992344754;1571992348788;4034;13353664868;22989207354;1404882307;138819239;3732892433;36395765;745880035;1798;8;303272;3;1505;5459
4;149;1571992348845;1571992352923;4078;13459706274;22989589079;1408518000;142110696;3732805629;36482880;747909533;1802;18;305760;-3;1544;5049
4;150;1571992352963;1571992357324;4361;13456447116;22997246173;1404082007;141729140;3734233696;36463863;744780881;1927;12;325752;0;1651;5691
4;151;1571992357365;1571992361488;4123;13356796276;22988549618;1404436592;140065836;3732659933;36429990;746608984;1827;3;307296;0;1678;5694
4;152;1571992361528;1571992365564;4036;13372726774;22998131913;1398703255;139428273;3734374946;36502709;748546906;1773;13;300048;2;1553;5216
4;153;1571992365603;1571992369557;3954;13374825378;22997383055;1396506091;138693090;3734248483;36486615;745033700;1739;15;294672;-2;1561;6040
4;154;1571992369606;1571992373573;3967;13277857142;22997524023;1405576194;137203412;3734381789;36580400;749225795;1704;577;335016;1;2452;58862
4;155;1571992373624;1571992377782;4158;13386179068;22986750287;1399882931;139621304;3732390537;36512697;744469862;1858;2;312480;-1;1571;5351
4;156;1571992377828;1571992381898;4070;13391260014;22988323416;1411605569;139658902;3732613632;36647217;747328591;1811;1;304416;0;1416;4813
4;157;1571992381945;1571992385930;3985;13370741174;22997670086;1392578745;139898189;3734318816;36530061;743840891;1761;2;296184;0;1640;5676
4;158;1571992385971;1571992390131;4160;13499637858;22995126000;1415236391;142656608;3733844248;36611336;747188594;1838;7;309808;0;1604;5825
4;159;1571992390172;1571992394131;3959;13465375892;23004760208;1395095721;141336607;3735573165;36456847;746034776;1695;58;294504;0;1642;5359
4;160;1571992394171;1571992398222;4051;13329400690;22989370304;1393739034;139962997;3732822658;36452238;747650895;1786;0;300048;8;1209;4151
4;161;1571992398267;1571992402299;4032;13359180310;22987808741;1414385583;139380035;3732532786;36629195;749990767;1745;492;343640;-7;1815;42991
4;162;1571992402341;1571992406473;4132;13291347396;22994642301;1389794312;138364271;3733828116;36448476;744421513;1869;0;312880;-1;1685;5941
4;163;1571992406525;1571992410522;3997;13295560664;22995110373;1395466092;138682984;3733889536;36392216;745273021;1790;1;300888;1;1534;5480
4;164;1571992410562;1571992414475;3913;13374525932;22988164559;1390953303;139740085;3732561667;36397319;742171481;1750;0;294000;-1;1485;5227
4;165;1571992414515;1571992418549;4034;13334657274;22988535160;1393212637;138913161;3732645123;36438752;746827591;1802;2;303072;0;1653;6147
4;166;1571992418589;1571992422549;3960;13306222606;22995794104;1406018372;138667640;3734053694;36554067;747687342;1756;2;295200;0;1529;5227
4;167;1571992422591;1571992426713;4122;13357640302;22990581649;1397980153;139798561;3732991498;36622693;744773644;1829;4;307944;0;1676;5757
4;168;1571992426754;1571992430829;4075;13385390522;22997780979;1402776505;138710045;3734370361;36538393;746506442;1782;7;300416;0;1535;5473
4;169;1571992430869;1571992434829;3960;13322450068;22978101775;1409706514;139108398;3730754017;36550855;747124243;1714;413;327288;4;2006;37871
4;170;1571992434869;1571992438971;4102;13488804512;22996361189;1409516362;141948614;3734170141;36493808;746816979;1842;4;309176;-3;1436;4458
4;171;1571992439013;1571992443278;4265;13475719992;23004292433;1400573192;141285905;3735518602;36539014;747157394;1903;0;319704;0;1634;5818
4;172;1571992443318;1571992447344;4026;13374474248;22998095994;1420728579;138842045;3734396444;36426306;747120873;1791;0;300888;1;1523;5318
4;173;1571992447384;1571992451362;3978;13372166134;22996800639;1412253808;138931609;3734200639;36500301;745134036;1773;2;297896;-2;1548;5536
4;174;1571992451402;1571992455355;3953;13348914466;22997066896;1408489206;138505511;3734140296;36435829;744654716;1759;0;295512;0;1670;5534
