0;119;1571948869865;1571948873599;3734;12652595790;22677454214;1411439901;130938182;3698126836;36416200;748505914;492;24;834456;21;3773;521895
0;120;1571948873636;1571948877400;3764;12717834430;22659903355;1404266580;130726064;3694960448;36319610;749798364;511;40;866112;1;3802;543835
0;121;1571948877439;1571948881151;3712;12646344070;22669128418;1408087065;130759612;3696652635;36319371;750249607;508;21;837136;4;3750;539786
0;122;1571948881189;1571948884957;3768;12767143302;22675741930;1391967910;130909274;3697824811;36292114;749248816;650;74;752544;4;3807;565842
0;123;1571948884998;1571948888764;3766;12764864096;22679987603;1372285984;130422767;3698537344;36338389;748123208;487;19;814776;-7;3806;543492
0;124;1571948888813;1571948892653;3840;12682301096;22676697952;1384966039;129481148;3697979814;36340824;749924690;440;21;722424;8;3889;556816
0;125;1571948892689;1571948896484;3795;12575471290;22671016223;1395054216;128610978;3696892172;36356948;749524156;471;40;772608;9;3831;549675
0;126;1571948896536;1571948900260;3724;12651325444;22686476413;1386310966;129643362;3699829692;36308356;752354106;499;30;841712;-19;3777;543129
0;127;1571948900315;1571948904078;3763;12692927414;22672596972;1386242587;131170298;3697275947;36395921;748318139;510;20;844416;2;3817;550416
0;128;1571948904118;1571948911323;7205;12463142540;22669217897;1414612469;125419980;3696601497;36757343;751535090;962;65;1588232;-97;7245;861133
0;129;1571948911364;1571948915131;3767;12703507012;22675935670;1400000211;131301084;3697921973;36322374;749263049;611;97;770200;103;3809;354164
0;130;1571948915174;1571948919038;3864;12705205722;22687592107;1394170864;130666907;3699915018;36317089;749668812;491;30;785776;-11;3907;560119
0;131;1571948919078;1571948923026;3948;12688370024;22678242460;1417795020;131860157;3698317814;36302865;752845138;451;23;752552;-3;3988;569886
0;132;1571948923076;1571948926917;3841;12682507540;22686578700;1414911024;132277724;3699752276;36319422;750973172;467;43;798240;13;3890;558081
0;133;1571948926971;1571948930712;3741;12592324946;22678258380;1421322747;130567971;3698286466;36427380;753081751;516;35;833328;-4;3795;545536
0;134;1571948930747;1571948934432;3685;12507153948;22677752804;1404347959;127200724;3698182762;36421556;750037057;484;31;815888;-4;3721;531964
0;135;1571948934473;1571948938354;3881;12747403956;22669649337;1400200485;131428601;3696667684;36362247;748975883;531;28;892088;13;3922;562215
0;136;1571948938393;1571948942119;3726;12611309180;22668117370;1399101028;130475680;3696470403;36330200;749710354;485;43;789816;-5;3764;542851
0;137;1571948942154;1571948945863;3709;12507381270;22669755509;1401781463;127458725;3696711563;36484268;748650652;544;81;749536;88;3744;557463
0;138;1571948945902;1571948949726;3824;12505419760;22669887415;1407288643;129090026;3696746892;36416645;751588297;657;17;621448;-100;3863;580108
0;139;1571948949766;1571948959339;9573;12512447908;22677906566;1414958673;128012428;3698216172;36342080;750522866;1259;79;1761656;-60;9613;1234988
0;140;1571948959378;1571948963211;3833;12697634016;22676747131;1394146396;130819443;3698044944;36314299;752799910;476;24;794432;60;3872;488478
0;141;1571948963253;1571948967103;3850;12661074594;22667895176;1398726491;131948876;3696377459;36333815;748735866;519;23;857488;-7;3892;558545
0;142;1571948967141;1571948971194;4053;12784273190;22669878150;1379466128;129937117;3696747156;36397319;750996052;559;24;883912;17;4091;586377
0;143;1571948971236;1571948974954;3718;12686869144;22668114130;1394523462;130481671;3696467737;36256479;750858191;528;25;854184;-16;3761;539105
0;144;1571948974992;1571948979035;4043;12695929466;22668878783;1384005289;131395236;3696482667;36293592;747032468;684;110;808712;16;4081;609892
0;145;1571948979084;1571948982849;3765;12666275114;22670329925;1422149474;131067722;3696804519;36413660;747921184;484;18;792128;-4;3814;546028
0;146;1571948982889;1571948987001;4112;12490123632;22668822526;1435015161;127692636;3696612410;36302938;750533013;528;26;762448;-1;4152;597935
0;147;1571948987067;1571948990763;3696;12594302662;22677679228;1405153201;127526512;3698114767;36411082;752077473;472;48;749016;8;3761;539607
0;148;1571948990800;1571948994509;3709;12632397128;22677913405;1413952247;130310348;3698226665;36349567;753406890;506;23;835120;6;3746;538151
0;149;1571948994555;1571948998311;3756;12745490334;22676651963;1391982571;130133887;3698057201;36305585;749553390;518;34;832640;-6;3803;547266
0;150;1571948998361;1571949006571;8210;12671116912;22680086367;1404830990;130717243;3698565585;36656679;750906649;1173;59;1850200;-51;8260;888007
0;151;1571949006617;1571949010370;3753;12711086748;22667650420;1404493974;131208497;3696331741;36334151;747442818;585;116;718800;37;3799;502080
0;152;1571949010407;1571949014170;3763;12726221108;22678020746;1411127773;131572864;3698244428;36330277;752010268;451;20;712288;-3;3799;544229
0;153;1571949014213;1571949018444;4231;12613072714;22686306041;1417379113;130532314;3699738853;36338998;749524571;538;47;843992;7;4275;613857
0;154;1571949018496;1571949022205;3709;12670460496;22669818339;1380453585;131030743;3696734114;36324902;747396141;498;34;828608;14;3761;540270
0;155;1571949022262;1571949025969;3707;12637314408;22667598925;1399253148;129916909;3696340328;36282660;752162793;518;11;826112;-6;3764;538815
0;156;1571949026009;1571949029862;3853;12712527914;22668721958;1411315845;130664542;3696563684;36365807;751588605;579;20;868072;-3;3893;558755
0;157;1571949029902;1571949033654;3752;12729789786;22677164538;1384524224;130480284;3698080802;36289091;753161411;519;39;811920;-7;3792;542538
0;158;1571949033696;1571949037375;3679;12500880328;22670815736;1415907490;126131269;3696888631;36362808;752797896;474;17;771664;6;3721;535256
0;159;1571949037412;1571949041168;3756;12678231492;22677560679;1413947092;129418539;3698120430;36362750;751539309;628;71;751784;-3;3793;552362
0;160;1571949041207;1571949044889;3682;12509244376;22676461118;1419248771;127780081;3697956265;36314015;752549804;527;28;823752;17;3720;531390
0;161;1571949044927;1571949053368;8441;12744281016;22677995015;1389675481;129791876;3698252100;36297317;751153920;1046;53;1644120;-35;8479;954746
0;162;1571949053407;1571949057141;3734;12714550452;22670410500;1383094813;130559551;3696820371;36247509;746825484;530;27;831152;21;3774;531534
0;163;1571949057184;1571949060957;3773;12825012738;22677916930;1392305778;129996828;3698251723;36294635;752639995;529;18;841864;15;3816;545925
0;164;1571949061004;1571949064755;3751;12683604146;22666899588;1402032011;130797763;3696278511;36300329;753223085;560;37;860232;-16;3798;546185
0;165;1571949064799;1571949068560;3761;12765721846;22669400515;1397449305;130722725;3696644987;36486194;752950172;535;27;809504;9;3804;547329
0;166;1571949068598;1571949072433;3835;12626748242;22676860221;1408061880;131972007;3698052557;36304962;751338065;676;68;807096;-19;3874;571919
0;167;1571949072473;1571949076359;3886;12664598012;22670130476;1416847079;130524007;3696780047;36316789;750860660;480;29;764544;0;3925;561923
0;168;1571949076396;1571949080101;3705;12591662836;22686225060;1407553473;127877100;3699691162;36286463;749396333;475;32;719504;5;3742;537195
1;118;1571949712862;1571949716799;3937;12916720740;22611019081;1452477026;130233161;3681266291;36878634;752364644;458;16;765992;-4;3988;555948
1;119;1571949716836;1571949720767;3931;12974758514;22601560580;1454079758;130443384;3679609861;36669830;750742466;481;30;792064;-1;3968;570332
1;120;1571949720804;1571949724628;3824;12922932310;22601535292;1453219842;130876183;3679576257;37046152;747802569;510;29;837152;2;3861;553401
1;121;1571949724665;1571949728433;3768;12808552990;22611405016;1460493323;131110406;3681364947;36779597;751383837;488;14;831184;24;3805;546321
1;122;1571949728469;1571949732260;3791;12851803008;22602825557;1461144360;129783537;3679830514;36801166;756233437;528;31;871336;-16;3827;550847
1;123;1571949732297;1571949736166;3869;12770258942;22619675198;1450381101;129872702;3682893491;36731763;748545204;533;18;868576;11;3907;558836
1;124;1571949736204;1571949740283;4079;12937475662;22601090359;1441898491;130186807;3679577634;36843531;747552433;509;43;867392;3;4116;589026
1;125;1571949740320;1571949744069;3749;12776569208;22592822665;1454475109;125889653;3677973887;36785496;749656817;627;55;719320;-8;3787;569008
1;126;1571949744107;1571949747853;3746;12700637674;22610418062;1469939456;128674081;3681212020;36682955;752421903;521;24;856144;-9;3783;538341
1;127;1571949747888;1571949751641;3753;12721563124;22613123268;1463764267;128877835;3681733275;37072839;752348487;425;34;733000;-9;3788;543320
1;128;1571949751674;1571949760249;8575;12726357910;22611237214;1460523151;129062745;3681353951;37129601;753248723;1085;65;1803184;-23;8608;951460
1;129;1571949760296;1571949764103;3807;12835111996;22611257667;1474642016;131963807;3681329146;36776140;752633809;511;38;846496;26;3854;525330
1;130;1571949764139;1571949767978;3839;12920141812;22592679532;1448590130;130191154;3677974534;36649218;749904965;734;62;650000;22;3876;641175
1;131;1571949768026;1571949771850;3824;12829830154;22602492745;1457249319;131563918;3679702415;37081002;749409754;591;36;550920;-8;3872;560036
1;132;1571949771887;1571949775990;4103;12595862672;22611099817;1472452984;125052246;3681273741;37384449;754276483;449;34;754768;-19;4139;592042
1;133;1571949776035;1571949780166;4131;12712614930;22610710268;1466384563;127931039;3681198199;36819620;753443206;506;34;861904;6;4176;601499
1;134;1571949780214;1571949784005;3791;12791921546;22609917536;1467224756;129553485;3681098865;36838877;751917812;523;30;850816;21;3840;550035
1;135;1571949784042;1571949787863;3821;12707762182;22612592211;1466506938;128087170;3681497720;37336521;751835799;489;55;829336;-9;3857;555501
1;136;1571949787898;1571949791782;3884;12829673350;22601660739;1450399174;128237291;3679594059;37167299;751843481;501;24;830920;11;3920;563538
1;137;1571949791829;1571949795690;3861;12768631918;22619759753;1455707279;129430560;3682861628;37098316;751732200;498;18;811000;-18;3907;560759
1;138;1571949795724;1571949804024;8300;12841252026;22599681319;1452160041;128764851;3679283412;36956893;749570149;1303;119;1730208;-77;8335;1063520
1;139;1571949804061;1571949807939;3878;12798600608;22612547600;1460479737;131155413;3681511460;36896940;751350218;454;27;739544;71;3914;478262
1;140;1571949807975;1571949811774;3799;12850504484;22617745106;1447577348;130383169;3682569590;37027354;752695079;476;26;770096;4;3835;550387
1;141;1571949811823;1571949815606;3783;12821918852;22609659402;1447559366;130580447;3681048155;36714234;750518781;510;21;824184;3;3832;550681
1;142;1571949815641;1571949819408;3767;12776959904;22603184114;1452668141;129537014;3679856535;36615038;749326041;513;40;833544;-1;3802;546112
1;143;1571949819443;1571949823233;3790;12896519304;22612018159;1434894064;129078705;3681456956;36844877;751351990;533;28;870120;11;3825;548120
1;144;1571949823284;1571949827059;3775;12871775224;22602166236;1444306296;129839032;3679702812;36848058;750519339;523;15;844280;-11;3826;548535
1;145;1571949827093;1571949830884;3791;12856099934;22608802808;1446141037;129917143;3680940215;36856316;750667086;679;88;737520;3;3825;581906
1;146;1571949830921;1571949834720;3799;12820345994;22602365683;1455854544;129580105;3679681660;37417677;750111730;505;36;797504;7;3836;547511
1;147;1571949834759;1571949838447;3688;12595747916;22611373696;1476707066;126115264;3681326865;36711157;752704859;452;12;736552;-4;3727;534521
1;148;1571949838488;1571949842262;3774;12698648424;22602102656;1465739896;128957010;3679607075;36795216;753050949;436;26;716688;12;3815;548765
1;149;1571949842297;1571949850153;7856;12738894054;22601900884;1451094477;128376061;3679591953;36735814;750376037;1044;59;1688864;-87;7891;983801
1;150;1571949850188;1571949853966;3778;12800569272;22591497005;1460343738;130476000;3677809260;37030828;752284283;530;32;866144;49;3813;382720
1;151;1571949854002;1571949857884;3882;12871367738;22601308261;1456627730;130979875;3679524473;36751083;747991531;541;21;884712;27;3918;542923
1;152;1571949857928;1571949862249;4321;12907514418;22618100950;1439453846;130260738;3682601035;36855070;750028026;746;74;874776;-19;4365;680271
1;153;1571949862285;1571949866053;3768;12817627328;22610154264;1463234396;130749587;3681167923;36601941;751137862;455;23;757992;25;3804;546547
1;154;1571949866088;1571949870050;3962;12773955808;22602597996;1455639047;130601906;3679694321;36691881;750359665;468;18;764352;-20;3997;573905
1;155;1571949870085;1571949873837;3752;12758573832;22601306396;1475725620;128671283;3679508898;36946617;752544249;498;18;779912;14;3788;543318
1;156;1571949873873;1571949877863;3990;12905811912;22603133020;1432190086;128447437;3679824299;36760920;752895048;530;24;882176;-18;4025;576816
1;157;1571949877899;1571949881822;3923;12935121120;22602948803;1444078497;129649842;3679844166;36978632;748753211;563;35;890760;13;3959;567819
1;158;1571949881866;1571949885690;3824;12721144104;22611161632;1483228408;126813146;3681291174;36694655;751631215;541;24;845632;3;3868;555585
1;159;1571949885728;1571949889592;3864;12747608210;22602526005;1470973889;128271471;3679675781;36740628;753315659;494;23;810768;-14;3902;560238
1;160;1571949889628;1571949898592;8964;12844615720;22603170450;1447406120;130194897;3679843833;36771492;751751976;1313;103;1795464;-27;8995;988133
1;161;1571949898629;1571949902429;3800;12818244178;22611836685;1442635085;129459649;3681413193;36793488;750322012;478;13;731624;50;3837;527536
1;162;1571949902476;1571949906267;3791;12859779134;22618947044;1459804492;130408807;3682791990;37003402;751273168;491;13;787704;-11;3838;551262
1;163;1571949906312;1571949910106;3794;12882794282;22610961339;1449498855;130096835;3681268857;36855550;751678766;541;35;847920;3;3839;551033
1;164;1571949910140;1571949913944;3804;12881140832;22611288928;1460946664;129896504;3681276585;36895406;752709366;561;14;863776;-17;3838;549359
1;165;1571949913979;1571949917756;3777;12852206260;22603325199;1454631733;129458788;3679897406;36615956;749400312;541;30;859496;3;3812;546680
1;166;1571949917793;1571949921534;3741;12747603538;22600893705;1473904548;130492310;3679462840;36597629;752429601;513;24;825672;-1;3778;541636
1;167;1571949921799;1571949925597;3798;12853256876;22611053480;1468580180;131040928;3681302290;36809219;753686215;704;66;729456;21;4064;614134
2;117;1571950556846;1571950560647;3801;12904184596;22706162461;1403323773;130927102;3701757472;37497825;750849338;624;82;770512;-13;3834;575356
2;118;1571950560679;1571950564450;3771;12900971136;22704069171;1403543887;130833556;3701472271;37453926;751581191;490;16;793832;22;3803;549041
2;119;1571950564485;1571950568256;3771;12848473040;22712994995;1390244211;130537536;3703048904;37458382;754044242;410;24;713008;-26;3806;544189
2;120;1571950568290;1571950572199;3909;12742924530;22721457120;1409640955;129062735;3704552780;37525003;757611463;474;25;796208;8;3944;566328
2;121;1571950572236;1571950576073;3837;12950152696;22713211695;1401946031;131075602;3703113234;37608748;754070759;536;37;862744;8;3873;554511
2;122;1571950576116;1571950579895;3779;12786089138;22713344665;1404682025;131432234;3703159313;37529814;752458792;506;24;843976;6;3822;549466
2;123;1571950579931;1571950583783;3852;12744541918;22704544285;1399873808;129074304;3701545389;37497661;750920661;513;33;894168;-1;3888;556889
2;124;1571950583813;1571950591702;7889;12709524110;22722059017;1381730010;124835592;3704750322;37450577;750665423;1158;103;1558320;-39;7860;770065
2;125;1571950591734;1571950595645;3911;12934937598;22713261662;1395405206;130013987;3703132059;37483489;752038019;464;17;767568;25;3943;542653
2;126;1571950595694;1571950599463;3769;12836068880;22714890411;1400990275;130919455;3703417001;37511096;748064057;455;13;722920;-7;3818;547610
2;127;1571950599695;1571950603706;4011;12817238092;22722497838;1403155465;131060838;3704933732;37598254;755781246;538;39;892784;6;4243;607678
2;128;1571950603760;1571950607666;3906;12926177452;22714311800;1387497235;131345945;3703322110;37549410;754519729;530;18;859864;14;3961;566841
2;129;1571950607699;1571950611527;3828;12850884522;22713831790;1424356842;130678155;3703274394;37597066;754675453;526;15;861928;-14;3860;553761
2;130;1571950611560;1571950615346;3786;12789929960;22704491435;1411272096;130411510;3701454436;37553619;754686680;518;40;847496;-6;3819;548513
2;131;1571950615384;1571950619136;3752;12723140362;22712814451;1395414566;127616723;3703055448;37856322;752723600;481;36;809968;-1;3790;543066
2;132;1571950619168;1571950622988;3820;12839016474;22713841261;1413916975;131854170;3703165374;37625077;753455648;621;58;737536;18;3852;573217
2;133;1571950623023;1571950626774;3751;12782527906;22720397190;1395825716;127261959;3704431258;37479474;754747554;526;36;853152;-14;3786;538822
2;134;1571950626805;1571950635212;8407;12698196408;22712888229;1399341487;125832379;3703076136;37607897;751937778;998;54;1640288;-87;8439;1118886
2;135;1571950635246;1571950639338;4092;12864883440;22722483748;1399208424;130639675;3704776682;37433042;752663575;534;35;879448;71;4125;341969
2;136;1571950639371;1571950643570;4199;12924700516;22722850966;1396559705;130098893;3704804443;37624906;752483981;579;27;918856;37;4232;593617
2;137;1571950643603;1571950647692;4089;12857710752;22722085549;1398716276;131141524;3704692193;37485703;751339883;716;99;868632;0;4123;635035
2;138;1571950647726;1571950651503;3777;12866440384;22703955997;1401467857;131654526;3701415853;37560299;750324120;548;20;622336;-23;3810;548351
2;139;1571950651537;1571950655433;3896;12741628926;22704092904;1410434154;130408625;3701404351;37604105;750641638;573;26;583512;28;3930;565412
2;140;1571950655464;1571950659159;3695;12575434644;22704041865;1418489721;126380887;3701436088;37535654;753036112;423;13;717496;-7;3726;535349
2;141;1571950659193;1571950663132;3939;12673789734;22712923058;1406219692;128232159;3703069737;37530438;748858053;517;35;838088;-5;3974;570629
2;142;1571950663165;1571950667292;4127;12703806020;22712220675;1411095750;129485500;3702988568;37514200;750903811;541;46;898424;3;4159;598217
2;143;1571950667325;1571950671276;3951;12731110210;22713143604;1406433432;128472886;3703123204;37455031;754978905;531;26;877432;-19;3984;571181
2;144;1571950671312;1571950675274;3962;12784378164;22712813885;1420930662;131660330;3703049949;37701534;753278935;493;28;830528;19;3998;573841
2;145;1571950675307;1571950683843;8536;12712530834;22712297997;1420325702;128489952;3702906050;37534981;755088707;1227;126;1708112;-61;8555;910725
2;146;1571950683877;1571950687630;3753;12764586112;22714142361;1410180054;131195349;3703255133;37481552;754163280;423;25;729752;50;3787;513850
2;147;1571950687678;1571950691457;3779;12834405064;22695251081;1395760905;131042002;3699891856;37521222;752911177;497;28;787056;15;3827;546987
2;148;1571950691513;1571950695546;4033;12819818642;22704075980;1421292732;131827874;3701460950;37550210;752018074;591;56;870376;-19;4090;595460
2;149;1571950695588;1571950699367;3779;12796730202;22704889114;1400529014;130631331;3701638776;37495296;751460890;504;25;853144;8;3820;546270
2;150;1571950699401;1571950703190;3789;12915326878;22721727664;1406413292;131172027;3704684979;37461754;750514830;552;20;865832;-8;3823;551416
2;151;1571950703227;1571950707020;3793;12867481948;22722698560;1390500423;129729370;3704870729;37535847;755356525;501;25;822304;11;3831;550739
2;152;1571950707052;1571950710799;3747;12787504170;22695431035;1405670162;127995887;3699878013;37641062;753217940;628;68;715688;-15;3779;571321
2;153;1571950710834;1571950714542;3708;12702941116;22705044281;1398875860;126320935;3701547148;37552645;752081895;548;30;837952;28;3742;530788
2;154;1571950714576;1571950718320;3744;12786481732;22703956576;1410151983;130063978;3701422472;37529973;754034969;458;22;721272;-10;3778;544052
2;155;1571950718356;1571950722320;3964;12721189948;22704366902;1403352024;129123647;3701495100;37534399;749259163;475;18;780832;5;4001;572110
2;156;1571950722354;1571950730742;8388;12903101568;22713820034;1389036323;129794689;3703269226;37533154;749523780;1148;57;1780896;-60;8421;934321
2;157;1571950730776;1571950734661;3885;12768024412;22721924048;1393541715;130886850;3704681963;37516630;749973735;560;31;905752;51;3919;453537
2;158;1571950734696;1571950738788;4092;12849026818;22703539077;1383958173;129793628;3701310235;37559635;749413249;556;23;907992;10;4127;591171
2;159;1571950738832;1571950742965;4133;12843507142;22704084589;1400271113;131136425;3701440299;37564805;752021850;673;106;804248;-25;4177;611984
2;160;1571950743001;1571950746985;3984;12819355530;22696056634;1395550929;131388118;3699956579;37546716;747925739;496;31;796232;16;4020;577856
2;161;1571950747018;1571950750834;3816;12855061436;22712747682;1394930814;130724818;3703045461;37627344;749293208;440;22;732736;8;3849;551739
2;162;1571950750879;1571950754890;4011;12867736280;22713859768;1399772923;130679802;3703179153;37544322;749194524;553;23;844272;-8;4056;582140
2;163;1571950754923;1571950758645;3722;12668610092;22711672765;1395213120;125107777;3702858697;37747243;750365742;517;32;805072;-5;3755;539155
2;164;1571950758679;1571950762462;3783;12807336080;22713895753;1401863505;128747354;3703174412;37536968;751327323;539;24;855008;5;3817;547603
2;165;1571950762496;1571950766327;3831;12844226338;22713586144;1401044457;131602889;3703198869;37526487;750125267;556;18;868280;-12;3865;551855
2;166;1571950766361;1571950775008;8647;12720236422;22713843837;1411335064;127493481;3703242498;37510106;751414774;1270;102;1728888;-104;8681;1131533
3;126;1571951411631;1571951415225;3594;12202657954;22774355196;1344286048;131352900;3714389614;36305635;748218976;472;41;800352;-24;3633;521333
3;127;1571951415281;1571951418930;3649;12324294058;22792757797;1314959646;130679661;3717805543;36299089;743956709;501;30;849992;11;3705;528950
3;128;1571951418966;1571951422507;3541;12076633382;22793084088;1355771110;125998770;3717761937;36365237;749157419;481;17;803312;-1;3577;513070
3;129;1571951422546;1571951426234;3688;12176033686;22783591233;1335287203;129585570;3715977502;36360309;749106486;463;33;776376;17;3727;533671
3;130;1571951426273;1571951434718;8445;12115292868;22781071408;1343479815;129515023;3715585111;36312025;749102711;1133;140;1663952;-54;8415;863969
3;131;1571951434758;1571951438370;3612;12205524664;22782946790;1336879936;132119364;3715902631;36306666;745023995;409;30;698336;40;3652;500791
3;132;1571951438420;1571951442020;3600;12170246246;22781395217;1329491952;131597075;3715640277;36341207;746568086;434;29;748520;14;3650;522574
3;133;1571951442068;1571951445682;3614;12260353212;22789764603;1312289359;130000464;3717191786;36287727;748004721;491;40;810512;-11;3662;525033
3;134;1571951445722;1571951449338;3616;12287571992;22782410423;1330810337;130285679;3715778968;36310637;749114182;488;23;814864;-8;3656;522598
3;135;1571951449378;1571951452973;3595;12185402068;22781228950;1328176488;130719059;3715616225;36306312;745182011;490;21;811000;22;3635;519878
3;136;1571951453010;1571951456583;3573;12215930230;22781314214;1349006753;129328965;3715688108;36327377;750894092;472;20;790680;-24;3610;517414
3;137;1571951456622;1571951460634;4012;12237302294;22782450305;1326380833;129933113;3715792781;36301587;749396251;630;87;824584;20;4051;588357
3;138;1571951460675;1571951464214;3539;12042321922;22790052915;1347512797;128021454;3717271483;36354220;751033399;525;51;556144;-25;3581;515949
3;139;1571951464258;1571951467776;3518;11927138726;22773036819;1333114582;126700282;3714098553;36331497;745042351;566;12;535776;4;3561;513998
3;140;1571951467814;1571951471324;3510;11930413506;22783081487;1352621079;125148344;3715930408;36378523;746933629;400;34;645600;-5;3548;509792
3;141;1571951471359;1571951479015;7656;12072356750;22782895603;1338083344;125798076;3715927990;36391032;745975316;953;64;1591352;-73;7691;864359
3;142;1571951479054;1571951482750;3696;12178252302;22784153081;1344820921;130672888;3716160564;36301235;750443848;500;31;824904;68;3735;344895
3;143;1571951482791;1571951486509;3718;12163792170;22791815182;1327154687;130362110;3717515966;36311998;743791570;528;30;863928;14;3759;517943
3;144;1571951486559;1571951490750;4191;12210199876;22789618832;1345247571;130545789;3717151390;36336919;750485206;586;49;952512;-7;4241;594600
3;145;1571951490794;1571951494432;3638;12288628594;22800742145;1332851411;130606861;3719182542;36393719;748662710;460;28;766392;13;3682;528102
3;146;1571951494471;1571951498128;3657;12350607638;22790765575;1336004790;130763689;3717367703;36332946;748514603;582;99;706328;4;3696;546014
3;147;1571951498170;1571951501764;3594;12194038552;22791780132;1318709085;130233941;3717533243;36315760;745631653;425;20;694512;-9;3636;519877
3;148;1571951501814;1571951505406;3592;12139198032;22775877450;1333189239;129210979;3714567338;36355249;745761439;483;20;680400;20;3642;526297
3;149;1571951505453;1571951509030;3577;12166360748;22782835157;1325090718;127896814;3715891614;36368655;747602410;446;50;731360;-30;3624;519983
3;150;1571951509072;1571951512763;3691;12172545600;22781300616;1333350484;129360315;3715621804;36363531;744619483;492;30;813880;20;3733;536480
3;151;1571951512804;1571951516393;3589;12181705348;22772638065;1331673077;128584522;3714057663;36328663;747118829;511;29;811984;1;3630;523674
3;152;1571951516428;1571951519983;3555;12131023346;22790330460;1335350235;128131468;3717306230;36304515;746964311;512;28;825872;0;3590;513609
3;153;1571951523994;1571951527584;3590;12255324972;22783861145;1327293900;130976801;3716120360;36279467;744336944;1149;127;1545080;4;7601;896414
3;154;1571951527622;1571951531221;3599;12231023272;22790308663;1342537299;132070774;3717299882;36289094;745783227;432;27;706536;-16;3637;523838
3;155;1571951531271;1571951535008;3737;12267024098;22792245011;1325014645;131586225;3717535683;36339533;744497722;436;26;728912;12;3787;543430
3;156;1571951535049;1571951538653;3604;12172786792;22799393781;1334766706;130983833;3718919761;36349932;746778554;488;36;764744;-8;3645;523170
3;157;1571951538705;1571951542291;3586;12115839054;22793431850;1332892577;129617547;3717818182;36366316;742360441;490;28;795408;-10;3638;522507
3;158;1571951542341;1571951545937;3596;12179778878;22800456671;1330728161;130745700;3719114869;36338093;747098670;489;28;814992;23;3646;520654
3;159;1571951545976;1571951549580;3604;12158161972;22799253202;1337584001;129526013;3718894035;36376949;748568518;522;27;832040;-10;3643;522976
3;160;1571951549614;1571951553206;3592;12193656178;22782537641;1329350437;129134532;3715759953;36307676;751223633;471;28;759352;9;3626;519682
3;161;1571951553245;1571951556825;3580;12138900776;22793884868;1329488400;128204747;3717886377;36350923;747913678;466;21;733736;-18;3619;519873
3;162;1571951556864;1571951560455;3591;12223379734;22790897787;1348373010;130919997;3717369444;36284283;749058791;599;83;733992;0;3630;529064
3;163;1571951560497;1571951564043;3546;12016793822;22791282460;1328998341;124288910;3717469890;36340908;743728835;492;27;776608;20;3588;509905
3;164;1571951564081;1571951572807;8726;12148850822;22783787051;1341500664;130388808;3716019933;36325867;747308314;1084;48;1707312;-111;8764;981643
3;165;1571951572847;1571951576474;3627;12290545428;22790413518;1313692821;129533604;3717210511;36309641;745519758;499;30;804904;64;3667;290887
3;166;1571951576534;1571951580122;3588;12166805756;22790443890;1326140673;130569721;3717345857;36328851;742517852;504;32;816864;44;3648;493773
3;167;1571951580162;1571951583887;3725;12256569476;22772792886;1311607253;129483692;3714092320;36313213;742975925;548;33;849528;-4;3765;538563
3;168;1571951583925;1571951587639;3714;12222597904;22791726257;1334024065;130441903;3717515357;36354645;751220979;505;25;802160;7;3752;539751
3;169;1571951587687;1571951591420;3733;12241790188;22791519745;1337230204;130459817;3717435511;36478438;750376415;597;97;740664;-2;3781;560174
3;170;1571951591458;1571951595087;3629;12203030984;22776165473;1342592150;131592800;3714674325;36331070;747712568;449;24;706912;-1;3668;525387
3;171;1571951595128;1571951598818;3690;12148912726;22791890332;1330786212;130497136;3717555740;36374598;746345271;437;22;723912;-21;3730;535189
3;172;1571951598864;1571951602456;3592;12149676598;22782350215;1342705457;128391454;3715756114;36370588;750153150;477;45;758728;3;3638;522409
3;173;1571951602503;1571951606114;3611;12220393158;22781769309;1330774211;128790694;3715774652;36369970;745985656;504;26;793408;8;3658;526718
3;174;1571951606154;1571951609679;3525;12031529748;22791630573;1340216394;124922717;3717484126;36339346;750098530;509;22;807464;3;3565;512356
3;175;1571951609719;1571951617337;7618;12157232536;22792209642;1334190284;129406313;3717541579;36307002;750780773;1067;55;1653064;-77;7658;925608
4;115;1571952246764;1571952250662;3898;13174874582;23116870587;1395861896;131703588;3764116575;36427303;750301924;510;14;812184;2;3935;562532
4;116;1571952250700;1571952254583;3883;13178551008;23117476647;1401740541;131609473;3764188422;36380192;749726576;428;20;737456;-12;3921;563503
4;117;1571952254627;1571952258484;3857;13120736322;23124300109;1408182624;131099912;3765408637;36354081;751743578;484;24;812832;-4;3901;558040
4;118;1571952258533;1571952262721;4188;13112115314;23124654429;1404825694;131752993;3765485578;36388280;750248808;573;24;930640;3;4237;609780
4;119;1571952262761;1571952266665;3904;12921056940;23122742239;1423521818;129048042;3765192832;36440879;747706937;534;42;891496;10;3944;566162
4;120;1571952266712;1571952270541;3829;12971263712;23098676194;1408254484;129985890;3760789532;36354297;745005659;504;21;850848;8;3876;552688
4;121;1571952270577;1571952274438;3861;13018891686;23114047911;1412412450;131003106;3763578340;36378396;746854784;526;28;871968;-14;3897;557071
4;122;1571952274475;1571952282435;7960;12974556012;23114327663;1422529998;129180235;3763621348;36392589;748028360;1150;120;1678984;-77;7933;867454
4;123;1571952282475;1571952286361;3886;13156561948;23105832819;1402390861;132175295;3762063283;36507097;746956973;433;23;725320;74;3926;482951
4;124;1571952286401;1571952290278;3877;13144140268;23116911093;1408410005;130865253;3764110064;36309246;754233320;492;20;789752;20;3917;562816
4;125;1571952290318;1571952294565;4247;13109850854;23116624698;1414111638;131845615;3764023218;36383054;750338034;695;85;756968;-12;4287;644041
4;126;1571952294602;1571952298451;3849;12992170766;23097542027;1411735916;131675923;3760544051;36466161;748438026;613;14;618368;-11;3886;560349
4;127;1571952298491;1571952302270;3779;12800345162;23124179807;1430603326;126373497;3765540325;36402971;751010447;444;30;666552;20;3819;544979
4;128;1571952302305;1571952306076;3771;12887415766;23098216431;1412068161;128105659;3760745708;36348348;744864018;462;12;756008;-14;3806;545313
4;129;1571952306116;1571952309958;3842;12995292246;23108978424;1409599603;132587002;3762661120;36369328;745415392;530;47;880064;14;3882;555732
4;130;1571952310001;1571952314003;4002;12913814026;23115710668;1420770275;128934326;3763899248;36406082;746952805;542;30;905560;2;4045;578963
4;131;1571952314042;1571952318092;4050;13014121428;23121568354;1418835684;132933414;3765003197;36395127;750216186;528;23;885464;-16;4089;586844
4;132;1571952318133;1571952321915;3782;12903248882;23107856610;1404885614;125157403;3762480240;36320907;748169361;480;35;788376;0;3823;545704
4;133;1571952326394;1571952330386;3992;13096368776;23115169342;1403074130;132983110;3763760591;36416346;747221416;1138;114;1635544;8;8471;944607
4;134;1571952330425;1571952334292;3867;13122986182;23107522058;1389201817;131336541;3762363142;36375009;744379003;474;22;759288;6;3906;560343
4;135;1571952334342;1571952338529;4187;13149077988;23113478375;1404717999;130984570;3763523169;36350058;748106677;608;23;901776;-5;4237;614017
4;136;1571952338568;1571952342440;3872;13086201190;23099637449;1398572041;132080939;3760920571;36421994;745880995;527;44;824976;-15;3911;562600
4;137;1571952342478;1571952346522;4044;13064160592;23108158568;1409722415;132233289;3762428681;36401498;747381997;570;19;936992;6;4082;587313
4;138;1571952346558;1571952350482;3924;12999351922;23108149593;1415331592;131530769;3762432833;36505421;745561514;548;21;870056;-4;3960;571756
4;139;1571952350522;1571952354684;4162;12964409596;23099975153;1419481721;129140237;3760937789;36417270;747462641;694;84;836712;2;4202;624315
4;140;1571952354722;1571952358537;3815;13022746232;23107965621;1404450259;128952798;3762388060;36413595;747159513;497;37;813416;15;3853;548693
4;141;1571952358588;1571952362474;3886;12948179506;23108597759;1426273504;130470937;3762552409;36390973;747203892;462;16;751280;-13;3937;564674
4;142;1571952362511;1571952366293;3782;12862457358;23106953721;1420352754;128022326;3762247440;36411092;747130048;461;15;737096;-13;3819;545981
4;143;1571952366344;1571952373270;6926;12921960096;23113558358;1418196335;129236960;3763506560;36369511;745022011;928;54;1495608;8;6977;979765
4;144;1571952373309;1571952377137;3828;13039988686;23108095038;1411220288;132016109;3762417984;36345711;748272238;547;31;870200;14;3867;552320
4;145;1571952377178;1571952381051;3873;13146362972;23116486793;1409735920;131236363;3764010882;36341227;751724793;532;11;863584;-20;3914;560760
4;146;1571952381091;1571952385039;3948;13146039290;23099004961;1454903354;132569476;3760851219;36351093;746295744;601;84;838504;115;3988;576338
4;147;1571952385088;1571952388917;3829;13041661262;23107546018;1409977932;131405670;3762372100;36363894;746586995;565;35;751160;-113;3878;571003
4;148;1571952388960;1571952392860;3900;13177627412;23123443292;1394487643;130897082;3765327104;36365658;748831757;471;19;762320;9;3943;568135
4;149;1571952392896;1571952396712;3816;12902670138;23114972624;1418901181;128728720;3763703442;36395451;748029643;465;20;746456;15;3852;550711
4;150;1571952396747;1571952400586;3839;13029862418;23113445448;1418481704;130982623;3763504228;36377625;749541047;531;23;829200;-19;3874;556668
4;151;1571952400632;1571952404463;3831;13002404198;23117053866;1419580462;131570117;3764061488;36395140;749062884;518;41;846920;-6;3877;553421
4;152;1571952404504;1571952408370;3866;13074719750;23123619190;1405984286;131118529;3765366281;36343412;749175993;567;28;893312;9;3907;560144
4;153;1571952408405;1571952412283;3878;12902371422;23116170052;1430444395;125987662;3764001820;36363504;748439802;542;23;866776;2;3913;561643
4;154;1571952412321;1571952420996;8675;13017876986;23125162368;1409148157;130901305;3765563296;36363946;747012174;1272;128;1751096;-108;8699;1038815
4;155;1571952421038;1571952424858;3820;13050533098;23099870570;1398829560;130793781;3760965857;36340968;747664608;465;11;721416;103;3863;407440
4;156;1571952424894;1571952428719;3825;13073874410;23117098841;1398020896;131487870;3764051022;36335637;748018035;487;36;768040;-7;3861;553028
4;157;1571952428772;1571952432576;3804;12999569024;23106219012;1409708479;131928509;3762123847;36352264;747578478;525;43;859648;19;3857;554323
4;158;1571952432623;1571952436516;3893;13194592612;23115636705;1404281781;132501140;3763909969;36388830;747903398;548;21;861040;-4;3940;566310
4;159;1571952436557;1571952440454;3897;13103259100;23115183763;1405088507;131503631;3763770257;36451870;748511093;583;22;901264;-7;3938;566170
4;160;1571952440498;1571952444584;4086;13109414460;23098759045;1415146750;133011538;3760804475;36372599;746683245;568;35;903160;8;4130;590821
4;161;1571952444619;1571952448729;4110;12901206342;23114139220;1410790144;126349742;3763641005;36375029;747463020;687;79;787720;0;4145;618535
4;162;1571952448766;1571952452599;3833;13017426576;23107555575;1412110198;131036792;3762388508;36354123;748668373;530;33;819368;-18;3870;552612
4;163;1571952452635;1571952456402;3767;12869002538;23107191665;1407812355;126666669;3762297790;36496750;747869070;440;24;708920;8;3803;547695
4;164;1571952456439;1571952460249;3810;12929876362;23115257257;1405651486;128334995;3763793772;36402381;750320963;482;25;771040;-2;3847;552726
