0;114;1571993095407;1571993099243;3836;12768391602;22836868146;1456691931;130215321;3711245613;36687157;752575408;649;4605;537424;-9;3882;554845
0;115;1571993099284;1571993103093;3809;12798468040;22818540804;1455660996;130832937;3708006326;36699204;750108711;935;2580;312464;25;3850;550711
0;116;1571993103132;1571993106926;3794;12745612828;22829262525;1469281037;129326211;3709873068;36721816;754907034;719;4532;444976;-15;3833;550058
0;117;1571993106964;1571993110797;3833;12761169128;22828480069;1460674539;130135681;3709780460;36583163;753606001;702;5434;474744;15;3872;554119
0;118;1571993110854;1571993114643;3789;12720635732;22809493107;1460570443;129549998;3706415451;36694835;751498012;565;5445;558232;-21;3845;547258
0;119;1571993114682;1571993118589;3907;12737482234;22829984533;1459883179;129517975;3710061562;36749791;751835534;607;6220;560600;1;3947;559616
0;120;1571993118664;1571993122499;3835;12746628550;22820401931;1450501379;130247711;3708357413;36787696;750956684;543;6776;604928;1;3909;558118
0;121;1571993122537;1571993132282;9745;12761016412;22828514418;1456387733;130145041;3709776353;36580629;753545053;1774;11842;1311952;8;9783;1515271
0;122;1571993132320;1571993136142;3822;12769921974;22829389907;1462673786;130014992;3709896755;36670007;751984243;826;1905;261280;15;3860;556699
0;123;1571993136182;1571993140146;3964;12782957000;22820800037;1454402742;130370947;3708314432;36815770;748760190;825;2641;264832;-3;4004;590999
0;124;1571993140184;1571993144003;3819;12751917984;22818433433;1467126413;129254827;3707951168;36729146;752987851;796;5161;444648;4;3857;558968
0;125;1571993144043;1571993147859;3816;12738246398;22818096477;1457736000;129436007;3707900336;36617591;752311257;509;4880;556104;-29;3857;550557
0;126;1571993147916;1571993151717;3801;12726759264;22826181713;1455988964;128943989;3709368335;36642094;750096645;648;6130;502464;24;3857;548005
0;127;1571993151776;1571993155635;3859;12765088936;22820498745;1453924650;130614795;3708437330;36689259;751606550;552;6559;599976;-8;3918;558233
0;128;1571993155688;1571993159519;3831;12765133466;22818716464;1455683030;130378027;3708064233;36776144;750401257;905;4702;512320;7;3885;662136
0;129;1571993159568;1571993163373;3805;12732050304;22836172258;1457796727;128838047;3711160493;36643755;755044262;507;5328;570424;6;3853;548095
0;130;1571993163411;1571993167253;3842;12785836850;22828547792;1463840284;130257367;3709842801;36730640;751263947;877;2396;333584;-12;3880;555125
0;131;1571993167313;1571993177559;10246;12766413156;22827993125;1455063379;129295097;3709655904;36577060;748262453;1991;13001;1245184;2;10307;1476921
0;132;1571993177607;1571993181552;3945;12778426620;22835429626;1455857639;130629082;3711056412;36673146;751101407;646;5419;520720;0;3992;570976
0;133;1571993181590;1571993185629;4039;12714435112;22826023697;1448509203;129141486;3709363405;36656532;750616449;554;6521;627272;-10;4078;582826
0;134;1571993185668;1571993189554;3886;12736596014;22827598967;1456688250;130315924;3709663449;36868556;753519523;1153;5047;476904;8;3924;721039
0;135;1571993189594;1571993193447;3853;12751978574;22816804744;1453523138;130005215;3707751107;36702015;750446839;521;6189;597104;-7;3893;558879
0;136;1571993193485;1571993197458;3973;12745935050;22819046602;1450155654;129782986;3708052145;36774308;750424851;722;2804;430232;14;4011;572659
0;137;1571993197496;1571993201487;3991;12746174052;22814973590;1461281083;129536857;3707305902;36665296;752912505;901;3793;370192;-5;4029;576188
0;138;1571993201528;1571993205433;3905;12750204090;22817054792;1451951584;129498586;3707677182;36652856;749116883;833;4848;427992;-1;3946;565483
0;139;1571993205487;1571993209320;3833;12756457270;22818904516;1452519722;130070283;3707960214;36656535;750225496;561;5057;542888;-17;3888;552163
0;140;1571993209380;1571993213170;3790;12759023366;22834504653;1465751298;129291953;3710896337;36686755;752593676;623;5462;508176;17;3849;545723
0;141;1571993213212;1571993222613;9401;12769280012;22809678013;1462763769;130159408;3706310470;36849812;754071614;1998;13589;1358816;-14;9443;1500302
0;142;1571993222652;1571993226488;3836;12795184792;22833319983;1459945370;130302322;3710697060;36685720;752786435;552;6007;555040;24;3876;551328
0;143;1571993226528;1571993230284;3756;12758690924;22823399957;1448648466;129323036;3708945982;36651173;752365625;804;2331;366824;-4;3795;550761
0;144;1571993230322;1571993234091;3769;12745458506;22814475460;1471477729;128715586;3707285354;36630081;753406022;853;3879;380728;-21;3807;546623
0;145;1571993234129;1571993237847;3718;12714883770;22828230259;1453924817;128039542;3709662901;36654691;750637741;669;4475;503384;-64;3757;517342
0;146;1571993237886;1571993241705;3819;12735563356;22816878808;1462640261;129256622;3707608034;36726916;752734074;977;4542;462000;43;3833;194951
0;147;1571993241744;1571993245549;3805;12741358096;22811512817;1448370869;128957243;3706675839;36907851;745488143;642;5291;540312;-26;3844;399183
0;148;1571993245598;1571993249396;3798;12741840480;22811283733;1459473437;130332257;3706620165;36680138;752720892;722;5763;582528;-53;3847;249710
0;149;1571993249441;1571993253265;3824;12733753248;22818425310;1452086394;130186670;3708022640;36556987;752474132;951;5209;506728;101;3869;368574
0;150;1571993253305;1571993257169;3864;12738290636;22817365312;1463587627;129821847;3707795033;36724999;750428721;972;3053;352664;20;3904;556510
0;151;1571993257214;1571993260967;3753;12707879858;22820429971;1452284601;129354773;3708275991;36601491;750972117;840;4385;370688;-6;3798;544980
0;152;1571993261005;1571993267771;6766;12708852510;22815605611;1456661953;129601477;3707426971;36572625;752129284;1168;9190;913624;-16;6804;967574
0;153;1571993267830;1571993271670;3840;12734755246;22834157543;1450940369;130170458;3710800282;36698945;751292633;567;5553;534424;16;3900;558153
0;154;1571993271729;1571993275589;3860;12728857868;22816066031;1448822196;129838348;3707492242;36690095;749881433;566;6582;575752;3;3919;561556
0;155;1571993275651;1571993279511;3860;12775354342;22827132852;1465537130;130436142;3709556430;36799086;752280537;551;6246;595352;-6;3921;562148
0;156;1571993279556;1571993283539;3983;12761911100;22829565996;1457691711;130500634;3709962628;36689489;752707342;860;5440;585192;149;4029;650193
0;157;1571993283594;1571993287390;3796;12756625316;22816870546;1452652542;129789081;3707657966;36675642;748075156;737;5349;531688;-153;3851;611200
0;158;1571993287428;1571993291235;3807;12699865188;22825846099;1450064079;128972918;3709335737;36652035;749488417;840;2396;390320;-8;3844;546941
0;159;1571993291275;1571993295253;3978;12767553270;22826931418;1457138911;130247314;3709451359;36725150;753068813;837;3931;397328;-5;4019;571977
0;160;1571993295292;1571993299024;3732;12721182210;22815643924;1466012024;129366132;3707497753;36664459;753803729;711;5446;478152;25;3770;536638
0;161;1571993299064;1571993302933;3869;12759850602;22816360528;1458858154;130176881;3707607443;36781673;753361652;616;5008;538224;-8;3909;554019
0;162;1571993302972;1571993306835;3863;12761535880;22827951024;1453573239;130455968;3709700700;36694567;752028576;620;6421;568520;-4;3902;560479
0;163;1571993306881;1571993313023;6142;12775801686;22826159500;1458077300;130473532;3709341256;36692159;752309340;946;9734;942640;-9;6189;884217
1;117;1571993947735;1571993951527;3792;12540408514;22789307606;1408898983;130797203;3709464052;36349156;750269395;849;4702;419864;-17;3829;546197
1;118;1571993951569;1571993955392;3823;12534494346;22806875292;1411260905;130338774;3712572788;36366616;747825710;523;5343;546496;-11;3865;550185
1;119;1571993955431;1571993959276;3845;12545785694;22789703305;1411845219;131025361;3709434829;36342831;748122190;600;5740;518016;8;3884;551484
1;120;1571993959313;1571993963113;3800;12539871672;22797897467;1410375651;130436773;3710924622;36294037;749965831;526;6783;580640;18;3837;545697
1;121;1571993963150;1571993967081;3931;12505989306;22790246882;1410859709;130446252;3709543796;36405465;751659517;537;5774;603256;-15;3968;570864
1;122;1571993967118;1571993971030;3912;12526993742;22789109966;1421242380;128947613;3709445314;36324737;748970802;608;6493;613824;138;3949;581772
1;123;1571993971085;1571993974859;3774;12620678584;22808825564;1416382468;131549225;3712883094;36450834;748728437;839;3939;535496;-135;3829;627902
1;124;1571993974897;1571993978637;3740;12569928838;22808907267;1421063632;130892625;3712929847;36328042;749043840;929;3521;356240;-1;3779;546312
1;125;1571993978688;1571993987621;8933;12527536424;22803333979;1424735201;130191547;3712086810;36358795;750792034;1815;10649;1076288;-40;8983;1045911
1;126;1571993987658;1571993991374;3716;12569816710;22796787429;1422620674;130958246;3710839356;36294418;752121061;623;5105;555120;-15;3753;356328
1;127;1571993991428;1571993995236;3808;12601903568;22817071943;1412799421;131842816;3714509148;36432000;749052016;731;5736;565696;-30;3862;319321
1;128;1571993995280;1571993999024;3744;12533386790;22807659249;1407499676;130791648;3712820791;36326573;748681326;607;5395;457368;79;3788;322656
1;129;1571993999062;1571994002869;3807;12494316752;22797852908;1399992573;129866670;3710965809;36328444;746422373;934;4581;382528;156;3845;630303
1;130;1571994002906;1571994006720;3814;12545909794;22806719127;1420094296;130769891;3712555783;36374168;752984953;715;3101;459280;-154;3851;630895
1;131;1571994006759;1571994010534;3775;12547771586;22813014767;1409912934;131032502;3713827404;36421740;748999572;837;2827;354072;-5;3814;544367
1;132;1571994010587;1571994014365;3778;12524524736;22798534147;1402616455;130836174;3711112983;36484425;749374505;900;4367;373896;-4;3831;549720
1;133;1571994014401;1571994018172;3771;12500684250;22797158590;1407995596;129070788;3710919456;36355135;750378051;619;5295;533904;21;3807;542286
1;134;1571994018232;1571994021994;3762;12521482826;22799324499;1402124240;130668655;3711169920;36431472;747681730;599;5540;512192;-6;3822;547304
1;135;1571994022038;1571994030909;8871;12531935404;22788405341;1412163648;130654843;3709263423;36375178;750655521;1129;13912;1329768;16;8915;1267904
1;136;1571994030947;1571994034867;3920;12526860152;22806266825;1419987436;129600687;3712563234;36395533;746639858;836;5579;565400;123;3958;629418
1;137;1571994034904;1571994038766;3862;12526464638;22806961440;1416300430;130214774;3712563133;36424285;748598426;926;3219;463136;-131;3899;610784
1;138;1571994038814;1571994042543;3729;12541468328;22806759078;1419343725;130466357;3712566931;36322670;753082205;950;3460;316144;-18;3777;539644
1;139;1571994042581;1571994046307;3726;12504325344;22813011357;1402060507;130746986;3713828349;36425661;749239968;830;3869;405448;2;3764;536205
1;140;1571994046345;1571994050066;3721;12496346590;22797818866;1399017031;130125316;3710956694;36474721;748692152;563;5919;501448;14;3759;536061
1;141;1571994050104;1571994053822;3718;12520232920;22805934907;1403515862;130482837;3712489706;36332505;748459494;571;5206;514288;5;3756;532209
1;142;1571994053859;1571994057603;3744;12535691984;22787557741;1409786171;130698630;3709190744;36278539;747803817;566;6077;563504;-22;3781;535982
1;143;1571994057642;1571994061337;3695;12540824760;22805556664;1406010001;130731094;3712463122;36293946;750838485;524;6102;569464;20;3734;528371
1;144;1571994061374;1571994065144;3770;12551800894;22797513049;1422156149;129962647;3710894574;36355637;749195897;537;6080;582832;7;3807;542643
1;145;1571994065185;1571994069360;4175;12514146472;22788633388;1421774041;129999406;3709381547;36442902;749832360;1002;4981;561960;-19;4216;735929
1;146;1571994069398;1571994079434;10036;12540114324;22805848433;1425978430;130129283;3712385623;36488381;757805499;2015;9851;1090552;3;10074;1453479
1;147;1571994079473;1571994083187;3714;12510794750;22797754321;1406770527;130203615;3711032313;36413316;750056299;714;4729;460112;-10;3753;537529
1;148;1571994083223;1571994087010;3787;12521308502;22793121620;1414375826;130057458;3710187239;36574144;750253631;565;6000;542000;11;3824;545497
1;149;1571994087055;1571994090910;3855;12542368126;22796925371;1412632149;131302855;3710822600;36365739;750572254;629;5815;547168;11;3899;553135
1;150;1571994090958;1571994094756;3798;12530364152;22806478184;1413001285;130795867;3712485738;36580502;751102791;569;6298;615384;-25;3846;546582
1;151;1571994094795;1571994098576;3781;12518160450;22797920014;1411391022;130572110;3710918377;36387371;749039535;713;5441;535904;164;3820;637724
1;152;1571994098616;1571994102317;3701;12487321892;22807129771;1409283807;130067119;3712656706;36262963;748966063;797;5385;497480;-162;3741;606631
1;153;1571994102355;1571994106033;3678;12508453932;22796998633;1419739920;130306225;3710851574;36286515;748966821;570;3454;517216;11;3716;530199
1;154;1571994106070;1571994109820;3750;12522108874;22818395149;1416127134;130237478;3714619965;36369780;749629449;924;3360;297416;4;3787;536550
1;155;1571994109878;1571994113663;3785;12572495226;22807065905;1418683411;130804680;3712609260;36407329;751096306;833;4188;431808;-1;3843;553767
1;156;1571994113733;1571994117525;3792;12528477978;22787680838;1420122354;130912505;3709137205;36473968;749884916;608;5461;516504;0;3862;554068
1;157;1571994117587;1571994126584;8997;12528631132;22788270892;1415973001;130744619;3709262428;36384862;751961450;1484;13712;1289912;-4;9059;1293654
1;158;1571994126646;1571994130501;3855;12523860144;22805785387;1414417715;130353389;3712458915;36333752;749525877;730;5418;579528;145;3917;625065
1;159;1571994130539;1571994134318;3779;12498767124;22805685477;1408663440;129633220;3712378995;36454553;750585049;876;5322;479104;-133;3817;624680
1;160;1571994134364;1571994138142;3778;12522010324;22788650903;1407703372;130462360;3709370338;36599319;751291750;621;3508;508696;-13;3825;546367
1;161;1571994138195;1571994142056;3861;12541444968;22815079299;1401536449;130576686;3714063000;36676400;748747553;932;3244;322608;-4;3913;559873
1;162;1571994142094;1571994145834;3740;12497031768;22807947417;1407607443;129517588;3712808605;36320669;748256830;819;4664;462392;13;3778;544179
1;163;1571994145873;1571994149753;3880;12522126540;22790065175;1413987837;130495717;3709590653;36587535;749978264;630;5641;507080;-22;3919;558409
1;164;1571994149791;1571994153485;3694;12497453416;22798957686;1410722003;130164695;3711124066;36307670;750601455;555;4996;514712;21;3732;530357
1;165;1571994153522;1571994157293;3771;12556010366;22798239711;1410592111;130970409;3711057117;36362081;749775353;623;6031;514480;-15;3808;542052
1;166;1571994157330;1571994161090;3760;12526326376;22795535505;1405707582;130495315;3710616565;36372287;750864636;549;5591;606184;-4;3797;544819
2;118;1571994792567;1571994796319;3752;12558540254;22848246011;1419117264;130631024;3712372958;36111499;747412930;892;3486;314272;4;3790;542200
2;119;1571994796358;1571994803637;7279;12480949722;22837625008;1408779866;129760004;3710525953;36154800;743138874;1316;9570;917760;-3;7318;1047758
2;120;1571994803691;1571994807712;4021;12511637754;22849510122;1405420100;130469386;3712542119;36175715;746773135;540;5793;527384;5;4076;582315
2;121;1571994807749;1571994811612;3863;12479715584;22830427980;1405813217;129383951;3709168068;36118369;745298715;571;5677;603600;-4;3900;561323
2;122;1571994811651;1571994815345;3694;12441930784;22848106103;1417660157;127179266;3712336944;36164820;749185342;564;6731;571880;-9;3732;536125
2;123;1571994815383;1571994819203;3820;12499021456;22846807963;1406252171;129911381;3712178745;36240856;745691232;529;6667;611640;15;3858;555977
2;124;1571994819240;1571994823008;3768;12548203600;22839572105;1427439448;130685838;3710829136;36139108;748155973;963;4340;472464;8;3805;712048
2;125;1571994823046;1571994826919;3873;12524647814;22839586930;1421796999;129952014;3710764439;36123017;746770345;650;4327;544664;-11;3911;562435
2;126;1571994826957;1571994830677;3720;12512974238;22840709440;1414529809;129935451;3710912561;36155832;744707149;910;2686;294464;18;3759;532872
2;127;1571994830724;1571994834522;3798;12491225494;22857917822;1406523182;129692693;3714151004;36272925;744723428;732;4476;444872;-28;3845;547036
2;128;1571994834577;1571994838466;3889;12518313020;22840589553;1408588504;130506350;3710954028;36187102;744538171;706;5324;502752;2;3943;563212
2;129;1571994838503;1571994842210;3707;12467748694;22848788669;1404247584;128295034;3712408384;36105956;745953809;501;5125;522056;11;3744;532143
2;130;1571994842247;1571994850842;8595;12532084178;22838583919;1419165900;130311932;3710625432;36136962;743617007;1330;14239;1294272;-14;8633;1232400
2;131;1571994850881;1571994854792;3911;12524197550;22844095943;1409053653;129394727;3711814696;36152538;746720007;1031;4627;515848;7;3949;688714
2;132;1571994854838;1571994858696;3858;12517906118;22853737156;1409615766;130135067;3713525968;36091771;747968530;604;5324;551232;0;3904;556033
2;133;1571994858732;1571994862371;3639;12372612612;22838137993;1413231740;125143034;3710468839;36113967;750127221;744;2093;324552;-8;3675;529424
2;134;1571994862407;1571994866141;3734;12431196134;22845921145;1413577252;125710145;3712025438;36427016;753573657;826;4287;390448;6;3770;543488
2;135;1571994866180;1571994869984;3804;12551342162;22848686079;1417627835;130339441;3712437122;36249965;748023372;776;4956;466680;24;3843;550518
2;136;1571994870023;1571994873785;3762;12480971184;22841108941;1403795345;129405161;3711041035;36088058;745326000;563;5798;534680;-18;3801;544497
2;137;1571994873836;1571994877542;3706;12529398362;22846581952;1420294310;130055328;3712107672;36094203;745118654;617;5232;534872;-9;3757;536758
2;138;1571994877580;1571994881416;3836;12543413194;22845825045;1426178341;130280164;3711966810;36179855;746852111;574;6637;601648;2;3874;555891
2;139;1571994881457;1571994885329;3872;12540797312;22858563617;1410194673;130682377;3714168010;36142243;745909421;1041;4010;470936;-1;3913;745169
2;140;1571994885376;1571994897808;12432;12505795564;22838918436;1408973449;129748718;3710686572;36198803;744741294;2275;11796;1306184;6;12479;1784407
2;141;1571994897846;1571994901523;3677;12508878500;22840005183;1409586663;129073051;3710873958;36137929;744181275;833;4002;298840;-1;3715;527069
2;142;1571994901560;1571994905260;3700;12500039222;22846699601;1427361558;128525135;3712057402;36116646;747388989;521;4683;540056;-9;3737;531669
2;143;1571994905297;1571994908893;3596;12336097282;22839399541;1408238975;122475559;3710737290;36122582;747577797;532;4930;512200;-74;3633;489200
2;144;1571994908929;1571994912626;3697;12533736606;22857096411;1412030362;129366840;3713996003;36055990;748316657;629;4846;540024;-7;3734;144294
2;145;1571994912664;1571994916344;3680;12542151754;22845812682;1408763955;130523454;3711962682;36038622;744149236;1246;5470;433160;93;3717;347484
2;146;1571994916382;1571994920153;3771;12481599422;22831265494;1409646929;129458124;3709295740;36114938;748003940;825;2864;410048;9;3810;541009
2;147;1571994920192;1571994923929;3737;12520058888;22835784442;1411069278;130276048;3710191309;36219031;744727929;907;3686;371104;-11;3775;536471
2;148;1571994923973;1571994927704;3731;12533430590;22847848133;1415184755;130335989;3712315101;36164881;745967200;790;5247;468216;11;3775;538298
2;149;1571994927748;1571994931461;3713;12505091552;22836832798;1408353847;129867181;3710412527;36073647;745278877;559;5263;511528;-15;3757;534954
2;150;1571994931499;1571994935287;3788;12491774016;22832046014;1419233706;128983254;3709400475;36155154;744049081;515;4972;520328;29;3826;548658
2;151;1571994935326;1571994942735;7409;12519301440;22829925173;1414519971;131113409;3709086929;36327133;747333650;1115;12063;1124368;-32;7448;1066044
2;152;1571994942791;1571994946988;4197;12538904860;22841139427;1427644893;129985820;3710980018;36250630;747410159;678;7101;639624;164;4254;627922
2;153;1571994947026;1571994950815;3789;12563315768;22850473604;1433492259;130807756;3712734061;36139046;748821030;876;4347;543184;-147;3826;629595
2;154;1571994950853;1571994954516;3663;12437022702;22838343984;1422683263;127217322;3710591008;36185936;744636922;806;2419;309848;-6;3702;534201
2;155;1571994954559;1571994958292;3733;12446983406;22856598858;1408832868;127597531;3713886616;36072472;750082494;875;3909;360056;-11;3775;535992
2;156;1571994958329;1571994962113;3784;12514810188;22849289306;1410903992;129988763;3712575401;36189657;749019396;679;5404;489224;25;3821;545875
2;157;1571994962150;1571994965987;3837;12508850030;22848806168;1410604160;129656935;3712432101;36144351;751872333;569;4725;519928;-25;3874;553479
2;158;1571994966033;1571994969940;3907;12551705264;22856001893;1410643849;130789441;3713813928;36236266;747943737;602;6420;559192;6;3953;566321
2;159;1571994969987;1571994973765;3778;12566533170;22840875678;1414410974;130843549;3711010881;36214647;744875795;563;6100;592240;13;3825;540788
2;160;1571994973805;1571994977629;3824;12559486772;22847930545;1411412266;130705481;3712339778;36466089;746812735;592;6230;580168;26;3865;553790
2;161;1571994977668;1571994981657;3989;12492067184;22856610513;1416399117;128896387;3713935296;36184901;745334974;1022;4771;541856;-40;4027;706826
2;162;1571994981721;1571994991442;9721;12493222628;22836971636;1419697905;128988885;3710383959;36159409;744753185;1909;9516;1034736;11;9785;1401123
2;163;1571994991480;1571994995290;3810;12511062222;22847796064;1412817657;129796852;3712255583;36052354;747516502;772;4827;451176;-4;3848;548796
2;164;1571994995327;1571994999152;3825;12473362832;22835603464;1428498932;128793564;3710235051;36089638;748354534;566;5586;546464;10;3862;547235
2;165;1571994999188;1571995002948;3760;12423773056;22847887099;1422773589;126514205;3712321049;36080462;743562677;612;5518;516440;-4;3797;542292
2;166;1571995002986;1571995006745;3759;12516651102;22839926406;1418045021;130113367;3710827458;36137230;747694336;610;6633;602872;-2;3796;540102
2;167;1571995006784;1571995010604;3820;12569998772;22831005832;1414343268;130488241;3709249188;36156484;745530418;606;5521;586664;146;3859;555652
3;115;1571995646055;1571995649871;3816;12583367992;22792028095;1439582308;130553010;3713866897;37062604;751826306;706;5319;514256;5;3855;552204
3;116;1571995649912;1571995653705;3793;12587162386;22799445344;1446641641;130332064;3715274990;36849736;751959277;600;5309;498288;-15;3834;547255
3;117;1571995653743;1571995657520;3777;12594426470;22798223823;1457134602;130321219;3715045179;36805625;754941265;534;6165;538544;10;3816;543165
3;118;1571995657558;1571995661271;3713;12564758978;22783384733;1451808038;130480373;3712252107;36836337;753017556;521;5325;551608;2;3750;533233
3;119;1571995661311;1571995665173;3862;12555913130;22776118971;1450095645;129938198;3710987539;36852467;755220885;526;6762;607112;-14;3902;555908
3;120;1571995665234;1571995669095;3861;12603700828;22793058842;1434423482;130854527;3714059556;36929477;751290836;893;4878;552088;5;3922;668629
3;121;1571995669151;1571995672971;3820;12609574992;22784363966;1445580594;130702505;3712432098;37018611;753951164;528;5526;560992;-10;3876;553395
3;122;1571995673021;1571995682715;9694;12599349006;22800066039;1447394700;130383347;3715329531;36994891;751736433;2076;8592;991456;-93;9744;1342198
3;123;1571995682754;1571995686608;3854;12554120688;22792604837;1446085300;128954352;3713994059;36802435;754062860;684;5062;509448;49;3893;245727
3;124;1571995686649;1571995690391;3742;12561781746;22782263631;1440906399;130141488;3712154604;36917238;751079631;663;5613;482792;51;3783;477683
3;125;1571995690429;1571995694188;3759;12573225080;22783436221;1457156291;130667377;3712253640;36810274;754335894;661;5398;585816;-23;3797;412627
3;126;1571995694227;1571995698110;3883;12602281270;22791451200;1453671658;130953591;3713808709;37063822;754693183;693;5547;545016;-22;3922;277304
3;127;1571995698149;1571995702096;3947;12547171234;22794207322;1434737654;130107319;3714316031;36942692;750038073;1094;4510;388080;70;3986;629843
3;128;1571995702154;1571995706016;3862;12598801214;22794311022;1436377456;131092483;3714209964;36951994;749329215;763;2115;330432;-13;3920;566449
3;129;1571995706054;1571995709748;3694;12526237170;22782376280;1432722243;129155995;3712085392;36840712;751048409;822;2759;322496;10;3732;533229
3;130;1571995709786;1571995713463;3677;12496974390;22790514917;1439751859;128072822;3713588224;36876613;752202869;770;3905;458304;-92;3715;390525
3;131;1571995713503;1571995717366;3863;12575273460;22785229526;1433599162;130354056;3712613677;36951189;749622840;782;5282;456664;70;3903;528408
3;132;1571995717404;1571995721185;3781;12603153036;22793033220;1439392157;130960727;3714093609;37133181;753811541;635;5171;515056;-5;3819;529706
3;133;1571995721229;1571995725997;4768;12578176962;22776906703;1443022899;130627234;3711054075;36792859;754753561;718;7393;696840;13;4812;679046
3;134;1571995726035;1571995729861;3826;12550992638;22782403374;1436640665;129751637;3712122427;36827974;751829838;655;6160;554440;-12;3864;536656
3;135;1571995729900;1571995733684;3784;12560003612;22790380565;1429582841;130088577;3713568908;36838502;751550322;1036;4794;499312;-3;3823;671421
3;136;1571995733737;1571995737544;3807;12592538544;22791672707;1437964683;130444281;3713814741;36880409;756030109;803;2817;401360;5;3860;551310
3;137;1571995737584;1571995741268;3684;12546749440;22792262441;1452233769;129115858;3713874537;36822781;753929522;915;3532;354472;18;3724;536132
3;138;1571995741305;1571995745338;4033;12489967558;22783448613;1451412594;127791716;3712366282;36753605;756251068;859;3939;478104;-59;4070;292380
3;139;1571995745378;1571995749265;3887;12594559914;22802920489;1440891913;130817556;3715814754;36894882;749355400;744;5392;484384;37;3927;490129
3;140;1571995749324;1571995753234;3910;12563125530;22784370641;1437889923;130553915;3712492722;36917011;752812978;707;5739;559216;11;3969;514094
3;141;1571995753274;1571995757920;4646;12616971206;22776948684;1435314805;130834177;3711131646;36980821;746406017;762;6773;746536;-72;4686;532237
3;142;1571995757958;1571995761847;3889;12614280864;22792318290;1445045800;131190915;3713875631;36936881;751788438;687;6064;532568;-1;3927;228853
3;143;1571995761886;1571995765829;3943;12565110692;22775031496;1426163888;130150575;3710789142;36820548;750946354;1175;5034;509176;88;3982;530416
3;144;1571995765868;1571995769653;3785;12579838150;22793937388;1436748562;130794011;3714193094;36809576;753876847;889;3061;366304;-25;3824;548054
3;145;1571995769703;1571995773469;3766;12598343796;22799174999;1443905057;130331655;3715189704;36794699;756394811;965;3895;395320;31;3816;550681
3;146;1571995773508;1571995777352;3844;12576613156;22793187784;1444096775;130440026;3714122656;36780764;756790283;701;5931;542968;-29;3883;555589
3;147;1571995777391;1571995781236;3845;12596799116;22781405603;1443031794;130857695;3711956353;36858786;751000798;564;5254;524896;14;3884;554880
3;148;1571995781298;1571995785289;3991;12592250778;22791153511;1436855724;130485256;3713724327;37064451;750805895;611;6974;602128;-3;4053;573774
3;149;1571995785326;1571995789014;3688;12508519632;22785339146;1444412330;127332996;3712618628;36794378;753649761;536;5468;556936;8;3725;530708
3;150;1571995789073;1571995792965;3892;12566603250;22775267501;1441596520;129949214;3710876284;37045589;751134102;509;6328;600576;3;3951;565047
3;151;1571995793008;1571995797212;4204;12582196050;22784087766;1445667105;130857805;3712358803;36995411;752616147;1167;4407;516568;47;4248;788821
3;152;1571995797250;1571995805165;7915;12555664200;22784110101;1416390989;129671280;3712399166;36899486;745089758;1542;8341;935984;-58;7952;1136483
3;153;1571995805204;1571995808995;3791;12587314664;22791042485;1447144087;130706150;3713676761;36924458;755820382;916;4720;378592;12;3830;547796
3;154;1571995809036;1571995812775;3739;12597030672;22801701334;1442440993;130164109;3715621978;36810467;751977584;549;5284;515912;-5;3781;537296
3;155;1571995812815;1571995816625;3810;12592267276;22785199926;1444908623;131063302;3712599496;36957750;752985749;618;4943;482200;-9;3849;547163
3;156;1571995816663;1571995820441;3778;12563464834;22801750217;1435897558;129664951;3715629173;36799458;751744834;515;5695;564552;-3;3816;544301
3;157;1571995820479;1571995824272;3793;12585887368;22783443082;1432879391;130635937;3712306066;36860032;751957325;613;6259;579400;-1;3831;547487
3;158;1571995824323;1571995828190;3867;12565810762;22793354232;1448026504;130185099;3714154752;36822958;751632233;571;5538;584408;146;3918;564637
3;159;1571995828230;1571995832016;3786;12567814028;22794533027;1439762548;130170836;3714342444;36913751;752197974;1308;4213;396688;-147;3826;731141
3;160;1571995832054;1571995835726;3672;12410285576;22780892925;1438740608;125094949;3711817761;36839233;750598038;513;4542;577576;-1;3710;534248
3;161;1571995835763;1571995839520;3757;12570802356;22802666638;1436540919;129433289;3715821688;36812814;752047918;962;2683;276272;6;3794;541121
3;162;1571995839558;1571995843281;3723;12565586214;22792411021;1441097689;129582095;3713898131;36817129;749812499;802;4258;425360;-2;3761;542082
3;163;1571995843320;1571995853086;9766;12558873718;22782179086;1438614467;130261340;3712154532;36894730;752035325;1602;13952;1324448;0;9805;1411023
3;164;1571995853147;1571995857003;3856;12578244268;22775632204;1430993340;130744691;3710885517;37015914;750576765;588;6006;621832;0;3917;557339
4;115;1571996490166;1571996493979;3813;12560938012;22958983867;1411401144;130301970;3737800897;36743296;747869245;769;4736;431696;0;3852;551698
4;116;1571996494017;1571996497746;3729;12552891368;22951058024;1426369376;130151284;3736355621;36605010;748619564;561;5058;530504;-17;3767;533306
4;117;1571996497783;1571996501550;3767;12561582456;22960355719;1427603245;129895973;3738099153;36941109;749200200;578;5577;510008;-1;3804;543957
4;118;1571996501613;1571996505408;3795;12623444408;22960197018;1438756222;131097917;3738070007;36675612;752443616;551;5984;588464;-5;3858;551088
4;119;1571996505447;1571996509272;3825;12562389252;22954524274;1413773008;130490089;3736892860;36720016;748416670;566;6259;577024;-1;3864;553951
4;120;1571996509310;1571996513162;3852;12578988284;22960308018;1419556266;130631782;3738084558;36671138;750733550;528;6884;609848;16;3890;557778
4;121;1571996513220;1571996516983;3763;12572253450;22944092024;1417854360;130110466;3735032857;36625086;746030011;1011;3895;496648;-9;3821;678237
4;122;1571996517025;1571996526980;9955;12549667834;22952097914;1429850020;129756547;3736583390;36625780;749061855;2016;9607;1071672;3;9997;1430536
4;123;1571996527019;1571996530809;3790;12602869504;22963238209;1423660265;130472227;3738573535;36692497;746885775;799;5223;452552;1;3829;543627
4;124;1571996530846;1571996534694;3848;12571032890;22970209567;1424322276;130151891;3739748482;36643004;751579227;514;5231;528232;-2;3885;553761
4;125;1571996534738;1571996538547;3809;12580506684;22946339844;1426124663;129773614;3735474673;36665729;750462160;642;6003;541704;-2;3853;549045
4;126;1571996538585;1571996542297;3712;12557802224;22962238771;1418333253;130166712;3738369077;36570718;751572145;507;5680;610232;5;3750;537491
4;127;1571996542337;1571996546079;3742;12623156350;22971468707;1424571167;131226102;3740121584;36627420;747693003;699;5790;491480;138;3782;617635
4;128;1571996546118;1571996549915;3797;12584901868;22955069848;1424986066;130611516;3737085752;36674241;750073733;820;4776;528624;-121;3836;627217
4;129;1571996549953;1571996553705;3752;12563130494;22960512899;1414234649;129656031;3738111204;36661121;746292726;603;4119;481576;-27;3790;535873
4;130;1571996553743;1571996557602;3859;12581333628;22953033703;1417181205;130345076;3736706138;36766978;749530948;909;2865;348280;19;3897;558112
4;131;1571996557642;1571996561422;3780;12602670652;22952959564;1426587307;130640701;3736691665;36661764;749725462;875;4793;401976;-11;3820;548646
4;132;1571996561460;1571996565246;3786;12595467158;22971649003;1427053004;130180153;3740026123;36633875;748225536;610;5287;538224;-2;3824;550011
4;133;1571996570414;1571996574240;3826;12577643332;22960875476;1414653458;129868036;3738103182;36578642;746933915;1545;11865;1266152;-74;8994;830946
4;134;1571996574278;1571996578126;3848;12579853042;22964331429;1414709243;130421913;3738722302;36598120;748232922;1282;5345;491176;67;3886;296831
4;135;1571996578166;1571996581962;3796;12604824882;22955182870;1425976255;130903869;3737064726;36721118;747146372;906;3074;390544;1;3836;545069
4;136;1571996582016;1571996585826;3810;12590431618;22952758471;1421353525;130551185;3736615056;36788348;749387377;831;3261;359536;15;3864;551296
4;137;1571996585864;1571996589725;3861;12571718798;22953142465;1421825321;130467707;3736694715;36609101;748688581;779;3569;366024;12;3899;557961
4;138;1571996589767;1571996593582;3815;12586055122;22950143793;1430200167;130946942;3736182279;36706227;749203719;621;3782;380488;-28;3857;556751
4;139;1571996593643;1571996597474;3831;12583357772;22968195188;1426421728;129958108;3739550571;36738979;748704758;619;6355;509232;23;3892;559623
4;140;1571996597514;1571996601364;3850;12584625052;22960969751;1424118312;129860828;3738218292;36659995;750071209;471;5842;548504;-23;3890;556699
4;141;1571996601402;1571996605215;3813;12583747884;22952604927;1419192790;130432826;3736647629;36834302;750929520;520;5367;578616;-3;3851;550859
4;142;1571996605266;1571996609244;3978;12586724532;22969614860;1427359448;130094881;3739782720;36640196;753909667;520;6973;606976;162;4028;585495
4;143;1571996609283;1571996618795;9512;12588519602;22953422933;1424028912;130339487;3736691332;36582811;746683076;2086;9975;1147128;-160;9551;1503415
4;144;1571996618833;1571996622699;3866;12535537954;22953832563;1418688986;129214551;3736831715;36590511;750421101;815;3926;394256;17;3905;563905
4;145;1571996622738;1571996626532;3794;12573092512;22962278003;1420630199;130412771;3738382189;36603986;748593899;780;5116;463560;-12;3833;551025
4;146;1571996626570;1571996630521;3951;12563406434;22952074452;1404602074;130036000;3736556050;36731195;744982634;587;5165;515304;-2;3989;570212
4;147;1571996630560;1571996634292;3732;12542365790;22953749858;1411635077;129856307;3736796892;36630372;745669658;605;5318;496088;4;3771;539975
4;148;1571996634351;1571996638135;3784;12577351770;22945180352;1429528650;130887489;3735267478;36689941;749064688;534;6034;637080;10;3843;547082
4;149;1571996638182;1571996642186;4004;12551946748;22945733894;1431300589;129801337;3735328640;36790642;751856756;1084;5288;457800;-11;4051;718638
4;150;1571996642224;1571996645914;3690;12566121450;22951935278;1433579862;130142795;3736552676;36659936;749105221;484;5995;622424;-4;3728;534498
4;151;1571996645953;1571996649688;3735;12542649760;22961235512;1415878517;127876162;3738148848;36716553;746650280;733;3008;403400;18;3774;465999
4;152;1571996649745;1571996653495;3750;12619635414;22956260306;1427864903;131059066;3737183357;36594624;751648870;876;3001;373432;-12;3807;542910
4;153;1571996653534;1571996657352;3818;12606694996;22969220252;1423338576;130801741;3739668185;36832217;751386950;847;5754;445176;17;3857;556362
4;154;1571996657417;1571996664027;6610;12572339152;22951659338;1418747637;130650006;3736540605;36683269;746496089;1045;9386;921896;-8;6674;954626
4;155;1571996664067;1571996667804;3737;12556783874;22968228103;1426011804;129028819;3739481773;36754188;750701264;601;5890;577920;-11;3777;540935
4;156;1571996667841;1571996671806;3965;12549050838;22952849299;1420772543;130423611;3736660690;36625833;749525622;574;6229;611120;2;4003;570920
4;157;1571996671853;1571996675625;3772;12579857714;22960783294;1429940439;130197952;3738122939;36632730;752159482;1019;5199;532424;7;3819;661505
4;158;1571996675663;1571996679439;3776;12587570164;22961863408;1428365243;130378026;3738270984;36663266;750888999;754;2896;389488;14;3813;545782
4;159;1571996679478;1571996683310;3832;12606718502;22961062292;1422313664;130561282;3738196578;36596494;746416362;907;3670;382008;-11;3872;552749
4;160;1571996683348;1571996687300;3952;12600617600;22953054489;1422132456;131253300;3736709773;36727948;749009137;781;5498;457136;-13;3990;568106
4;161;1571996687338;1571996691093;3755;12552772524;22962163781;1411224221;130157206;3738368592;36583338;745972560;538;4748;542384;6;3793;538819
4;162;1571996691139;1571996694945;3806;12603884496;22961775730;1421815994;130849960;3738253718;36619518;747258967;586;6081;526224;-8;3852;552548
4;163;1571996694988;1571996698766;3778;12578182072;22961030675;1418981733;130469880;3738177965;36636597;747344681;562;6199;614984;21;3820;547051
4;164;1571996698804;1571996702491;3687;12565220192;22959372024;1423864005;130133182;3737896012;36521880;750836537;568;5645;516760;-4;3726;536370
