0;145;1572004445182;1572004448744;3562;4057114576;6623612208;190061907;2664295;1054933889;10439418;152109168;0;0;0;0;0;0
0;146;1572004448766;1572004452362;3596;4086941208;6686496395;192301106;2626805;1067235442;10797027;156026218;9;13;752;0;3;11
0;147;1572004452387;1572004455810;3423;3958226440;6556895954;185803632;2783333;1043191398;10305971;148943555;0;0;0;0;0;0
0;148;1572004455831;1572004459497;3666;4138978090;6725346238;198152559;2856908;1075171687;10865847;155310883;144;18;18648;1;491;850
0;149;1572004459521;1572004463081;3560;4080690364;6664662669;198137300;3141290;1063418252;10779903;153943591;334;6;32888;-1;991;1134
0;150;1572004463104;1572004466793;3689;4103226924;6668247415;205539245;2693534;1064296246;10645452;153697339;0;0;0;0;0;0
0;151;1572004466818;1572004470357;3539;4060073996;6648778235;188441032;2673087;1060493699;10560547;154877975;11;14;792;0;2;6
0;152;1572004470380;1572004473894;3514;4050290098;6587887597;195670395;2796988;1048635480;10327507;152634069;0;0;0;0;0;0
0;153;1572004473915;1572004477504;3589;4049796472;6598077703;202801937;2676580;1051329588;10269377;152516781;0;0;0;0;0;0
0;154;1572004477527;1572004481144;3617;4095981236;6685258665;200064798;2653574;1068132876;10788278;157920344;0;0;0;0;0;0
0;155;1572004481168;1572004484544;3376;3912735760;6479420120;191850567;2718665;1026024480;9728001;146830928;15;12;936;0;5;35
0;156;1572004484567;1572004488079;3512;3972662482;6595794953;181957861;2666221;1049009946;10268122;152822946;0;0;0;0;0;0
0;157;1572004488101;1572004491552;3451;3954852964;6572750495;171123783;2644887;1045592404;10378760;150354492;58;26;10032;0;136;774
0;158;1572004491575;1572004495211;3636;4105049150;6707118371;182914871;2668687;1071434544;10723159;156891035;0;0;0;0;0;0
0;159;1572004495235;1572004498698;3463;3988542756;6584072613;175902083;2620276;1047125616;10295740;151925096;87;18;1560;0;70;2000
0;160;1572004498719;1572004502542;3823;4266308340;6866284555;193288174;2787068;1103620190;11430535;165361800;0;0;0;0;0;0
0;161;1572004502565;1572004506083;3518;4068972696;6695987494;178111287;2574085;1069533614;10720555;156826620;0;0;0;0;0;0
0;162;1572004506106;1572004509645;3539;4065703026;6654389628;190283568;2580485;1062199033;10660780;157247887;0;0;0;0;0;0
0;163;1572004509668;1572004513395;3727;4208899680;6778939001;189963465;2773793;1085988338;11087593;160627540;7;16;760;0;3;7
0;164;1572004513418;1572004517058;3640;4112036856;6714846665;190519897;2648393;1074040842;10994885;160093847;0;0;0;0;0;0
0;165;1572004517081;1572004520752;3671;4165831432;6757456793;190229770;2672428;1082163554;11003570;160361399;0;0;0;0;0;0
0;166;1572004520775;1572004524454;3679;4179368990;6725366033;194063838;2854251;1075574248;10867804;159222853;52;32;10480;0;147;669
0;167;1572004524479;1572004528245;3766;4165477090;6761297570;188993948;2687779;1082619362;11017776;160510826;0;0;0;0;0;0
0;168;1572004528268;1572004531782;3514;4068534696;6666595067;183586302;2585207;1063492212;10589428;156344017;9;15;784;0;12;25
0;169;1572004531805;1572004535371;3566;4072319162;6663119822;180073300;2671831;1062838530;10731303;157743641;0;0;0;0;0;0
0;170;1572004535393;1572004539136;3743;4191172798;6744546743;196694181;2667801;1080549229;10903883;159111444;0;0;0;0;0;0
0;171;1572004539159;1572004543005;3846;4267243762;6827407743;200530792;2754339;1097759186;11363445;164872333;0;0;0;0;0;0
0;172;1572004543027;1572004546782;3755;4207321858;6786534107;196296338;2805939;1088824229;11068002;163475601;21;7;944;0;6;57
0;173;1572004546805;1572004550355;3550;4069785624;6668321320;183902092;2477575;1064623688;10625547;156285012;0;0;0;0;0;0
0;174;1572004550377;1572004554005;3628;4101203948;6710273153;183790813;2765100;1073236320;10702299;156864830;51;20;8368;0;110;592
0;175;1572004554030;1572004557493;3463;3972929516;6591201161;177414500;2588805;1048306546;10173915;150196326;0;0;0;0;0;0
0;176;1572004557516;1572004561037;3521;4009686330;6627319263;175370337;2635248;1055553573;10687739;153892716;17;7;784;0;13;53
0;177;1572004561060;1572004564747;3687;4130228310;6712937889;189610521;2774781;1073845997;11047458;157883122;0;0;0;0;0;0
0;178;1572004564768;1572004568263;3495;3995085308;6595814818;177747479;2543920;1049032976;10406730;154509340;0;0;0;0;0;0
0;179;1572004568286;1572004571760;3474;4008451754;6595874907;193735241;2628756;1049958683;10329995;152479653;0;0;0;0;0;0
0;180;1572004571781;1572004575276;3495;4019794056;6610520851;188715140;2781432;1052309557;10302735;153460045;16;6;752;0;5;46
0;181;1572004575298;1572004578745;3447;3975183172;6577811805;185421144;2430360;1045370967;10368261;153262796;0;0;0;0;0;0
0;182;1572004578768;1572004582365;3597;4091473632;6665652754;199904181;2709354;1063748623;10677068;156855295;0;0;0;0;0;0
0;183;1572004582390;1572004586020;3630;4125115244;6693646648;200211430;2747406;1069797595;10947514;160915868;0;0;0;0;0;0
0;184;1572004586044;1572004589632;3588;4089643522;6659944526;194509929;2501664;1062367260;10564874;153453288;43;16;7120;0;115;521
0;185;1572004589654;1572004593332;3678;4149203200;6712742311;195951574;2828111;1073182191;10947096;159855502;20;5;792;0;14;171
0;186;1572004593353;1572004597047;3694;4188032922;6751240493;187235419;2775858;1080677172;11061178;160017623;0;0;0;0;0;0
0;187;1572004597070;1572004600694;3624;4090446814;6722137368;168165630;2497134;1074367756;10761426;156024683;0;0;0;0;0;0
0;188;1572004600716;1572004604325;3609;4087230288;6659105417;183679277;2699667;1063015716;10673951;155111191;0;0;0;0;0;0
0;189;1572004604346;1572004607917;3571;4085549098;6668876914;180604763;2548827;1064609483;10601757;156344020;23;4;936;0;15;116
0;190;1572004607939;1572004611330;3391;3933633032;6502015831;180197281;2685899;1031270105;10009404;146754323;0;0;0;0;0;0
0;191;1572004611354;1572004614909;3555;4050917168;6662464181;177459334;2727595;1062589415;10571519;155224954;0;0;0;0;0;0
0;192;1572004614933;1572004618572;3639;4123100006;6692680372;186254835;2501566;1069520813;10862469;158403766;0;0;0;0;0;0
0;193;1572004618595;1572004622194;3599;4102290334;6665277867;191492872;2777366;1064170589;10621589;156184254;21;4;792;0;6;68
0;194;1572004622215;1572004625903;3688;4122569880;6699993696;188553415;2775509;1071544532;10892814;158337825;43;30;8752;0;130;558
1;143;1572005301195;1572005304595;3400;3911939330;6525936506;188680802;2734909;1032371262;10117839;149412206;0;0;0;0;0;0
1;144;1572005304617;1572005308235;3618;3984297952;6615781057;190198719;2666386;1050447904;10504970;153185712;0;0;0;0;0;0
1;145;1572005308270;1572005312019;3749;4061532536;6672481560;188188439;2643737;1062037858;10901888;158509451;0;0;0;0;0;0
1;146;1572005312041;1572005315615;3574;4044959200;6625843949;206320846;2800010;1052603982;10583166;155535826;51;35;9112;0;119;515
1;147;1572005315640;1572005319231;3591;4047707504;6670193064;195442713;2664542;1061419124;10582773;155229028;0;0;0;0;0;0
1;148;1572005319255;1572005322761;3506;3984710110;6607244716;192304130;2619933;1048638544;10462684;152752628;0;0;0;0;0;0
1;149;1572005322785;1572005326207;3422;3893030578;6511129944;186802104;2787259;1029804672;10379545;149996780;0;0;0;0;0;0
1;150;1572005326231;1572005330112;3881;4208502706;6806110991;211735117;2697658;1089430501;11129451;162576779;0;0;0;0;0;0
1;151;1572005330137;1572005333770;3633;4028296074;6651941050;193643009;2622105;1057595404;10435034;155417582;10;12;768;0;4;13
1;152;1572005333792;1572005337365;3573;4062124420;6662411867;205537186;2761737;1059931961;10441943;157299401;0;0;0;0;0;0
1;153;1572005337387;1572005341048;3661;4130245246;6738496912;201036459;2608111;1075016406;10758579;159735137;0;0;0;0;0;0
1;154;1572005341070;1572005344595;3525;4024740974;6613693217;202649896;2569725;1049795537;10316315;155154105;45;32;8912;0;109;514
1;155;1572005344620;1572005348284;3664;4033225326;6643479473;201461065;2794865;1057350325;10473710;155716127;12;13;776;0;4;23
1;156;1572005348307;1572005351913;3606;4107467932;6691665104;209520410;2513467;1065588323;10470621;159100871;0;0;0;0;0;0
1;157;1572005351937;1572005355555;3618;3966005758;6589250895;176214154;2743155;1045827784;10362985;152734934;0;0;0;0;0;0
1;158;1572005355577;1572005359135;3558;4058709772;6648189773;209615415;2909546;1057106895;10438888;155565326;67;18;9024;0;196;736
1;159;1572005359159;1572005362777;3618;3982444044;6615762129;194138084;3203155;1050463833;10530087;153779696;436;24;44104;0;1281;1423
1;160;1572005362800;1572005366369;3569;4051815506;6671859724;203167404;2753717;1061955206;10597362;156904801;0;0;0;0;0;0
1;161;1572005366393;1572005369772;3379;3899689346;6506505717;196409382;2588444;1028841908;10289633;152080424;0;0;0;0;0;0
1;162;1572005369796;1572005373562;3766;4049140348;6669202300;199233399;2561584;1061434010;10584041;156687226;0;0;0;0;0;0
1;163;1572005373586;1572005377368;3782;4221896892;6770724924;215188458;2806516;1081818484;11119121;159746366;10;14;768;0;3;9
1;164;1572005377392;1572005381244;3852;4058172054;6649338908;211774052;2853030;1057722770;10514787;156627905;0;0;0;0;0;0
1;165;1572005381267;1572005384843;3576;4074722030;6659411731;224551649;2530664;1060046991;10655139;158122013;0;0;0;0;0;0
1;166;1572005384867;1572005388554;3687;4197065066;6734394011;220790458;2842380;1075247026;10882573;160510541;0;0;0;0;0;0
1;167;1572005388579;1572005392039;3460;3970344002;6551794344;215647753;2768324;1038019822;10416853;153070813;137;41;10152;0;181;3445
1;168;1572005392061;1572005397002;4941;5018630280;7481722198;280549817;2824865;1226104966;14157363;194733437;0;0;0;0;0;0
1;169;1572005397026;1572005400650;3624;4082710712;6708824396;206737951;2589765;1070391185;10728553;160303013;0;0;0;0;0;0
1;170;1572005400673;1572005404320;3647;4127656082;6705065461;212212018;2734725;1068824307;10873935;158359806;0;0;0;0;0;0
1;171;1572005404344;1572005408031;3687;4130180714;6738368621;197348850;2698143;1075235528;10765123;158779269;20;4;768;0;5;77
1;172;1572005408054;1572005411478;3424;3941420234;6567387904;191502429;2540489;1041064041;9968002;151544200;0;0;0;0;0;0
1;173;1572005411502;1572005415065;3563;4061101836;6675340452;191797611;2707852;1062921786;10548681;155779208;0;0;0;0;0;0
1;174;1572005415089;1572005418728;3639;4111774494;6721666005;199666440;2524805;1072189167;10854611;160188281;0;0;0;0;0;0
1;175;1572005418754;1572005422266;3512;4010562914;6616117589;199322071;2646140;1050661005;10456597;155572768;0;0;0;0;0;0
1;176;1572005422289;1572005425777;3488;4020717506;6639007592;198454916;2763274;1054964392;10283396;154014791;91;43;11408;0;163;1112
1;177;1572005425800;1572005430846;5046;5078432172;7614628222;242210172;3075349;1252028239;14709565;196661649;0;0;0;0;0;0
1;178;1572005430870;1572005434525;3655;4145933092;6741578447;207695134;2478895;1076266726;10854427;159597231;0;0;0;0;0;0
1;179;1572005434550;1572005438276;3726;4171467908;6758434199;213888910;2766435;1079458237;11061283;161210239;14;5;584;0;4;35
1;180;1572005438299;1572005441820;3521;4048134700;6665313201;196438680;2703645;1060530215;10381941;155143388;0;0;0;0;0;0
1;181;1572005441844;1572005445643;3799;4221344574;6826331304;211430567;2487295;1092809192;11185978;162664284;0;0;0;0;0;0
1;182;1572005445666;1572005449170;3504;4029194412;6657773491;191837852;2677104;1058714680;10289895;153284299;0;0;0;0;0;0
1;183;1572005449195;1572005452817;3622;4085663562;6692347920;207067344;2674709;1066546736;10531809;157643793;0;0;0;0;0;0
1;184;1572005452840;1572005456270;3430;3946809970;6579957066;193948307;2459703;1043342298;10092575;152581249;66;30;8520;0;117;606
1;185;1572005456293;1572005460116;3823;4214027054;6825329383;203863982;2729675;1092836666;11203371;164947643;0;0;0;0;0;0
1;186;1572005460140;1572005464003;3863;4242517640;6841235697;214044632;2746270;1096022361;11291235;166090522;0;0;0;0;0;0
1;187;1572005464028;1572005467772;3744;4118253390;6732273655;198103982;2469194;1073912516;11047368;160787455;0;0;0;0;0;0
1;188;1572005467796;1572005471558;3762;4169750656;6789683815;201247764;2743364;1085653394;11066992;160900311;21;4;776;0;5;61
1;189;1572005471582;1572005475834;4252;4476487896;7057294772;213935710;2876458;1139742928;12497994;174798361;0;0;0;0;0;0
1;190;1572005475858;1572005479511;3653;4088907244;6723362977;195734591;2496027;1072107807;10735812;159759085;0;0;0;0;0;0
1;191;1572005479536;1572005482962;3426;3855225630;6523237206;178275846;2679173;1031579707;9959582;149930044;0;0;0;0;0;0
1;192;1572005482987;1572005486739;3752;4141082388;6771304380;193574227;2843559;1082784763;11235942;160936485;17;5;768;0;4;50
2;144;1572006164009;1572006167766;3757;4268622586;6823056999;177515783;2689241;1092365195;11570917;155532438;0;0;0;0;0;0
2;145;1572006167789;1572006171265;3476;4046237722;6664462322;163281620;2683161;1059861985;10647634;148719219;0;0;0;0;0;0
2;146;1572006171288;1572006175088;3800;4246869754;6830708180;176618083;2504645;1093305295;11444786;155615227;0;0;0;0;0;0
2;147;1572006175112;1572006178577;3465;4047098538;6613080241;165442499;2641818;1050690908;10674274;146249075;14;13;864;0;25;68
2;148;1572006178598;1572006182387;3789;4263076484;6818028701;185809209;2771002;1091780911;11362113;155575174;0;0;0;0;0;0
2;149;1572006182408;1572006185989;3581;4086905146;6646562322;175643601;2558546;1056813956;10666427;146249819;0;0;0;0;0;0
2;150;1572006186010;1572006189748;3738;4220009696;6765435684;184309836;2729868;1080438554;11191477;154565884;43;24;8976;0;119;425
2;151;1572006189772;1572006193528;3756;4267940182;6772793646;199304440;2760754;1082177279;11215988;156343187;8;15;776;0;3;9
2;152;1572006193550;1572006197451;3901;4359607450;6895210575;201427804;2612452;1106609062;11817515;161593417;0;0;0;0;0;0
2;153;1572006197474;1572006201183;3709;4240217410;6771121590;193164684;2560387;1081569752;11320561;157109154;0;0;0;0;0;0
2;154;1572006201205;1572006204932;3727;4244113274;6779837327;195099786;2739466;1083436578;11318078;158877310;0;0;0;0;0;0
2;155;1572006204956;1572006208627;3671;4190678442;6760260492;190908949;2612437;1079142063;11085074;156329771;15;10;800;0;4;33
2;156;1572006208650;1572006212531;3881;4310635546;6840747666;195973746;3496007;1096215028;11559965;160261481;490;38;52432;0;1502;2120
2;157;1572006212552;1572006216216;3664;4215121762;6766318300;187580704;2793091;1082057837;11381933;156540092;0;0;0;0;0;0
2;158;1572006216239;1572006220002;3763;4271583174;6813726539;192021004;2646355;1089999439;11402050;158644265;0;0;0;0;0;0
2;159;1572006220026;1572006223481;3455;4032703668;6568140135;181720329;2469694;1040546117;10705599;149141367;6;16;768;0;3;5
2;160;1572006223503;1572006227322;3819;4251092950;6766273892;199514697;2838267;1080780217;11232739;156345178;0;0;0;0;0;0
2;161;1572006227344;1572006231164;3820;4314327156;6860539603;184828163;2741293;1099624541;11678944;159555913;0;0;0;0;0;0
2;162;1572006231187;1572006234646;3459;4024686662;6591594024;179134051;2407098;1045366381;10716672;148751447;0;0;0;0;0;0
2;163;1572006234670;1572006238191;3521;4066663706;6642712299;179861290;2652775;1055385576;10740190;150602939;11;14;776;0;4;17
2;164;1572006238212;1572006241947;3735;4236174086;6810874116;195356199;2667000;1090008011;11415745;159542717;37;32;7168;2;83;392
2;165;1572006241970;1572006245430;3460;4026590064;6618436640;174042131;2570876;1050505358;10462392;146288857;6;0;2064;-2;41;67
2;166;1572006245452;1572006248940;3488;4062565194;6615422372;179418064;2652444;1049840930;10555385;146408044;0;0;0;0;0;0
2;167;1572006248962;1572006252380;3418;4030119760;6634399206;167668042;2431487;1054887228;10647629;148132336;0;0;0;0;0;0
2;168;1572006252402;1572006256197;3795;4308620892;6832089229;190544049;2673696;1094032671;11462025;158038313;89;14;1576;0;70;2084
2;169;1572006256218;1572006259788;3570;4167050532;6664036296;180071775;2686757;1060366034;10816403;149616251;0;0;0;0;0;0
2;170;1572006259809;1572006263338;3529;4115526256;6667955471;181479715;2447441;1061575476;10826086;150305089;0;0;0;0;0;0
2;171;1572006263362;1572006267232;3870;4354522708;6847127852;190634531;2830333;1096980032;12050595;160111076;0;0;0;0;0;0
2;172;1572006267253;1572006271067;3814;4311728356;6836006407;191395116;2790004;1094506544;11392919;159590053;19;7;808;0;5;61
2;173;1572006271090;1572006274804;3714;4245064756;6774242563;187353695;2517242;1082486288;11256845;156755599;58;50;11856;0;171;698
2;174;1572006274827;1572006278769;3942;4396669550;6906985000;193867998;2762169;1109074877;11809954;162347858;0;0;0;0;0;0
2;175;1572006278793;1572006282357;3564;4130202468;6693005316;172981144;2679013;1066680405;10894296;152317259;0;0;0;0;0;0
2;176;1572006282378;1572006286181;3803;4214738804;6780108441;176988684;2745338;1084332268;11244186;157312994;14;13;952;0;4;17
2;177;1572006286211;1572006289525;3314;3950161254;6529103998;159483160;2396806;1033770041;10323306;146061223;0;0;0;0;0;0
2;178;1572006289546;1572006293487;3941;4389127336;6909406641;184232327;2776550;1109431409;11792965;162615376;0;0;0;0;0;0
2;179;1572006293511;1572006297206;3695;4238135742;6746495583;185941163;2578507;1076659761;11040414;155322404;0;0;0;0;0;0
2;180;1572006297229;1572006300966;3737;4266891026;6793954267;185504610;2570066;1086002180;11180864;156544737;19;6;800;0;5;54
2;181;1572006300989;1572006304768;3779;4293229134;6816626815;191282212;2733447;1090523027;11322701;158942253;0;0;0;0;0;0
2;182;1572006304790;1572006308391;3601;4163414256;6689907752;190365335;2597380;1065736390;10782889;152468725;46;20;7536;0;100;514
2;183;1572006308415;1572006312169;3754;4090626248;6619722443;178379298;2580738;1051573052;10936083;152027869;0;0;0;0;0;0
2;184;1572006312190;1572006315620;3430;4021376842;6580305187;172236150;2708732;1043551852;10314484;147383746;18;5;776;0;13;148
2;185;1572006315640;1572006319169;3529;4085210524;6635876505;185126323;2441981;1054144942;10896103;153703168;0;0;0;0;0;0
2;186;1572006319191;1572006323024;3833;4317223504;6859406873;192362862;2699718;1099444769;11571087;159636547;0;0;0;0;0;0
2;187;1572006323048;1572006326620;3572;4110276388;6708847907;185546030;2693597;1069677671;10883383;152907836;0;0;0;0;0;0
2;188;1572006326642;1572006329896;3254;3923344266;6506889445;176676659;2370767;1028638872;10192672;142007389;21;4;800;0;5;62
2;189;1572006329919;1572006333176;3257;3909159928;6511932240;171960729;2589796;1029339713;10085553;142107788;0;0;0;0;0;0
2;190;1572006333199;1572006336827;3628;4153796068;6707504687;177587689;2726537;1069152894;11098534;152787602;0;0;0;0;0;0
2;191;1572006336851;1572006340314;3463;4036689030;6664651547;164652321;2445471;1059887783;10628936;148312836;0;0;0;0;0;0
2;192;1572006340338;1572006344058;3720;4239872412;6811997155;184861294;2797512;1090502210;11610770;157057568;47;24;7920;0;99;519
2;193;1572006344081;1572006348153;4072;4445441434;6997278937;200339837;2808195;1127251979;12327400;165439877;17;6;776;0;5;49
3;141;1572007015251;1572007018507;3256;3927542058;6485298441;166966397;2467440;1024052094;9735871;143143774;7;15;768;0;3;6
3;142;1572007018540;1572007022194;3654;4167677748;6688092272;198337979;2818692;1064621139;10978736;155672993;0;0;0;0;0;0
3;143;1572007022223;1572007025943;3720;4228565296;6755858708;200245060;2748803;1079487859;11016948;157756161;0;0;0;0;0;0
3;144;1572007025966;1572007029752;3786;4255048528;6769100646;209564562;2666166;1081224160;10856433;157127891;0;0;0;0;0;0
3;145;1572007029776;1572007033381;3605;4117410678;6643820170;194827551;2827144;1055983846;10676875;154798482;7;18;776;0;47;52
3;146;1572007033404;1572007037279;3875;4345483410;6874942429;204111891;2774366;1102830960;11531485;162656986;0;0;0;0;0;0
3;147;1572007037303;1572007041412;4109;4357652510;6865138750;201061757;3688406;1100493532;11743545;162264013;488;30;51984;0;1492;2069
3;148;1572007041436;1572007044993;3557;4133487760;6665176251;190679235;2780468;1060651774;10812231;153597192;0;0;0;0;0;0
3;149;1572007045017;1572007048844;3827;4312348126;6848654837;198453739;2890066;1097172751;11366335;160701656;16;8;832;0;25;87
3;150;1572007048868;1572007052593;3725;4248760600;6766577709;199781883;2584815;1080729362;11140490;158975677;0;0;0;0;0;0
3;151;1572007052618;1572007056390;3772;4263888098;6796062313;194349356;2824469;1086964147;11007394;159170033;0;0;0;0;0;0
3;152;1572007056414;1572007060202;3788;4237375812;6769517964;202709968;2851329;1082175231;11029033;159146638;0;0;0;0;0;0
3;153;1572007060225;1572007065550;5325;5406782814;7755604742;257331466;3161750;1280706691;15730917;204313954;10;15;776;0;3;9
3;154;1572007065573;1572007069312;3739;4287189844;6791222106;208619535;2554092;1085661164;11128379;161444637;0;0;0;0;0;0
3;155;1572007069336;1572007073193;3857;4371492434;6873656778;210397758;2878523;1102578899;11376234;163365689;59;30;9744;0;135;616
3;156;1572007073216;1572007076775;3559;4156437354;6695362419;202138618;2851978;1066291764;10595593;152960495;0;0;0;0;0;0
3;157;1572007076799;1572007080392;3593;4166660274;6670401754;201236705;2520228;1061325381;10805893;157352437;87;17;1560;0;67;1713
3;158;1572007080415;1572007083989;3574;4169115556;6704361627;203213149;2738511;1068213406;10635179;156427453;0;0;0;0;0;0
3;159;1572007084014;1572007087790;3776;4350451352;6833072545;207231257;2799576;1093998849;11177721;161790450;0;0;0;0;0;0
3;160;1572007087813;1572007091453;3640;4192324738;6710976010;208232294;2536321;1069611626;10737418;155543733;0;0;0;0;0;0
3;161;1572007091476;1572007095231;3755;4258274836;6761539999;205629846;2837565;1079783931;11210809;160655406;10;14;768;0;3;9
3;162;1572007095254;1572007098701;3447;4055343742;6595291017;197652365;2676693;1045975114;10007606;149240326;0;0;0;0;0;0
3;163;1572007098727;1572007102437;3710;4257349050;6721084635;205156607;2572830;1071762627;10813861;154868070;0;0;0;0;0;0
3;164;1572007102459;1572007106048;3589;4172962364;6687594961;212594301;2786910;1064595502;10542589;153748477;0;0;0;0;0;0
3;165;1572007106070;1572007109789;3719;4251590810;6728445477;219712586;2750861;1073220198;10706969;155601290;72;50;10488;0;168;819
3;166;1572007109811;1572007113337;3526;4107383544;6598658439;201880984;2626757;1046528489;10377163;151555938;0;0;0;0;0;0
3;167;1572007113362;1572007116992;3630;4177999656;6694456761;217563833;2837010;1067375965;10558786;154859222;0;0;0;0;0;0
3;168;1572007117015;1572007120655;3640;4207376024;6700972080;229019754;2673133;1067882067;10770344;156182376;0;0;0;0;0;0
3;169;1572007120679;1572007124494;3815;4307634078;6795765973;226810806;2738502;1087432758;10966400;161397782;24;5;928;0;5;73
3;170;1572007124518;1572007128241;3723;4260806330;6774074003;212008919;2776578;1082015681;10951689;159019274;0;0;0;0;0;0
3;171;1572007128264;1572007131969;3705;4221320922;6745413730;201525704;2754499;1076320417;10788681;158007019;0;0;0;0;0;0
3;172;1572007131993;1572007135683;3690;4210421730;6724269694;203245922;2584536;1071892829;10902146;157207206;0;0;0;0;0;0
3;173;1572007135706;1572007139551;3845;4322823334;6833543400;210519507;2819218;1093993323;11183141;162267565;18;5;776;0;5;53
3;174;1572007139573;1572007143562;3989;4410365372;6894518604;218196391;2859002;1106631525;11630806;163576651;45;28;8496;0;106;512
3;175;1572007143587;1572007147366;3779;4283869074;6810862496;205508187;2541929;1089594089;11064689;162071054;0;0;0;0;0;0
3;176;1572007147389;1572007151270;3881;4368192396;6858736507;219272958;2723555;1099380342;11348044;164833912;0;0;0;0;0;0
3;177;1572007151294;1572007154830;3536;4107954988;6607139039;205072584;2722767;1048713150;10586747;154896971;24;5;952;0;14;99
3;178;1572007154852;1572007158615;3763;4297528250;6802277015;218170500;2645485;1087812445;11159577;162078976;0;0;0;0;0;0
3;179;1572007158640;1572007162355;3715;4244865612;6735363236;221517713;2628141;1074563842;11031282;160887534;0;0;0;0;0;0
3;180;1572007162379;1572007166285;3906;4398055674;6862838568;232012138;2817779;1100874729;11517124;165136538;0;0;0;0;0;0
3;181;1572007166307;1572007170068;3761;4295198820;6774858045;222448318;2640497;1083154459;11162022;161523777;20;4;808;0;6;61
3;182;1572007170091;1572007173759;3668;4239358784;6755721527;212315674;2642307;1079066438;10779076;158650325;38;32;8400;0;128;409
3;183;1572007173784;1572007177420;3636;4223277760;6710914915;224828702;2714067;1070424290;10980385;157571822;0;0;0;0;0;0
3;184;1572007177443;1572007181091;3648;4204096864;6741478224;205337612;2593096;1076386933;10852717;158483543;0;0;0;0;0;0
3;185;1572007181115;1572007185030;3915;4381606730;6887257917;224828343;2643329;1105963988;11638433;166307277;0;0;0;0;0;0
3;186;1572007185053;1572007190208;5155;5253953956;7648911879;267003038;3067977;1259992903;15259644;199994618;17;7;768;0;13;64
3;187;1572007190233;1572007194081;3848;4316719220;6779938145;237251063;2849015;1083563843;11216123;162910094;0;0;0;0;0;0
3;188;1572007194104;1572007197932;3828;4373923188;6816482386;238598039;2676354;1091136133;11253308;162737186;0;0;0;0;0;0
3;189;1572007197954;1572007201434;3480;4075773376;6621592472;211622043;2607993;1052100508;10341357;151555750;17;6;776;0;5;51
3;190;1572007201457;1572007205044;3587;4170285746;6712319757;210625606;2772572;1069573446;10599850;155542052;41;24;8240;0;113;482
4;142;1572007868711;1572007872060;3349;4024448682;6535840700;189615911;2557395;1035800804;10790358;146642916;0;0;0;0;0;0
4;143;1572007872089;1572007875741;3652;4219757408;6689774247;209358069;2642756;1068209866;11825390;156242227;0;0;0;0;0;0
4;144;1572007875764;1572007879497;3733;4266335496;6748951529;206314394;2823562;1079326415;11931340;158720255;0;0;0;0;0;0
4;145;1572007879520;1572007883252;3732;4290640116;6776749431;212923128;2662506;1084500634;11897711;159345568;13;12;776;0;13;64
4;146;1572007883276;1572007886919;3643;4254809380;6724211276;214237436;2646671;1074468546;11757789;157123634;0;0;0;0;0;0
4;147;1572007886944;1572007890555;3611;4214828448;6697327339;218876510;2797861;1068438513;11492173;156093926;0;0;0;0;0;0
4;148;1572007890579;1572007894369;3790;4358739772;6784716002;233949249;2662503;1086233199;12086415;161625127;0;0;0;0;0;0
4;149;1572007894392;1572007898172;3780;4320641218;6771064770;226252151;2749943;1083480233;11837190;160220461;43;28;8720;0;120;2730
4;150;1572007898194;1572007902020;3826;4352751436;6810147428;202704429;2779984;1092755033;12249744;161808228;9;13;768;0;3;11
4;151;1572007902043;1572007905520;3477;4057276344;6561163886;209283625;2623919;1041091277;10755509;149602078;0;0;0;0;0;0
4;152;1572007905542;1572007909456;3914;4366560116;6832223192;195198481;2711701;1097101801;12567334;164826285;0;0;0;0;0;0
4;153;1572007909479;1572007913361;3882;4390201020;6841372841;226616387;2809708;1097562862;12328059;165625744;0;0;0;0;0;0
4;154;1572007913385;1572007917029;3644;4248305226;6688103212;209322273;2633785;1066717307;11430749;156217426;17;13;960;0;13;54
4;155;1572007917054;1572007920674;3620;4221298146;6697108144;210257031;2604546;1069067739;11613919;156757850;0;0;0;0;0;0
4;156;1572007920697;1572007924512;3815;4381891430;6815308856;213807354;2761573;1092638953;12259818;163896652;0;0;0;0;0;0
4;157;1572007924536;1572007927878;3342;3999767820;6515806693;197397166;2578943;1032038525;10537896;147152150;0;0;0;0;0;0
4;158;1572007927902;1572007931702;3800;4316967420;6798306698;212274216;2683073;1089435265;12035383;162102484;19;3;768;0;5;75
4;159;1572007931727;1572007935379;3652;4212171832;6673301968;217667500;2808572;1063688337;11432963;156139797;58;28;9584;0;140;776
4;160;1572007935403;1572007938928;3525;4072443262;6593966006;195410545;3459011;1048253322;11101750;150614390;483;20;49776;0;1395;1878
4;161;1572007938952;1572007942547;3595;4196224982;6699941885;210686047;2576271;1070069704;11603340;158176077;0;0;0;0;0;0
4;162;1572007942570;1572007945950;3380;4047171246;6569422447;197370358;2698211;1044502476;10807889;150613961;18;6;768;0;5;68
4;163;1572007945975;1572007949798;3823;4343157630;6821681387;207096916;2532647;1093835846;12236602;161412454;0;0;0;0;0;0
4;164;1572007949822;1572007953580;3758;4295973204;6758348192;222924177;2749778;1081612659;11907937;161891410;0;0;0;0;0;0
4;165;1572007953602;1572007957344;3742;4288923594;6756833551;211943603;2759775;1080542066;11963058;161256014;0;0;0;0;0;0
4;166;1572007957368;1572007961316;3948;4456081622;6915088864;212737597;2694591;1112714445;12508057;166136385;17;6;776;0;5;50
4;167;1572007961341;1572007965092;3751;4296984984;6796513054;210977082;2617549;1088572128;11916456;163750665;0;0;0;0;0;0
4;168;1572007965116;1572007968622;3506;4132199894;6660172931;194668666;2704624;1061277402;11296378;154791375;51;30;9552;0;140;690
4;169;1572007968646;1572007972154;3508;4117389800;6634600863;193581737;2529580;1055812551;11257198;155248528;0;0;0;0;0;0
4;170;1572007972178;1572007975912;3734;4266707504;6767112695;200556747;2599383;1082643204;11807390;161469915;90;19;1568;0;84;2519
4;171;1572007975937;1572007979613;3676;4235394592;6730588839;209010298;2726063;1075241105;11668713;159152614;0;0;0;0;0;0
4;172;1572007979637;1572007983237;3600;4187014572;6676270370;207453519;2572810;1064302409;11490228;156262184;0;0;0;0;0;0
4;173;1572007983260;1572007987030;3770;4267967192;6773471342;174279886;2650002;1084573674;12211284;160387126;0;0;0;0;0;0
4;174;1572007987052;1572007990822;3770;4291667956;6776932681;212765654;2781389;1084497369;11938194;162407556;9;14;776;0;3;9
4;175;1572007990847;1572007994758;3911;4407847018;6877082238;225960596;2646166;1105168636;12431752;167174598;0;0;0;0;0;0
4;176;1572007994782;1572007998760;3978;4470391812;6930282414;225668711;2655784;1115651432;12573060;168116949;47;38;9840;0;140;775
4;177;1572007998782;1572008002899;4117;4550451204;6991970770;227237462;2825312;1128110608;13004918;173844404;0;0;0;0;0;0
4;178;1572008002923;1572008006618;3695;4266847810;6739621884;214872833;2780974;1077045903;11734746;160424903;18;6;768;0;5;55
4;179;1572008006643;1572008010229;3586;4166691956;6622736105;219041779;2466389;1054126478;11634159;156736896;0;0;0;0;0;0
4;180;1572008010253;1572008013583;3330;4005833098;6507995752;199735810;2617892;1032052069;10625109;147934136;0;0;0;0;0;0
4;181;1572008013605;1572008017289;3684;4245609190;6725229474;217086479;2579327;1075162890;11874182;159091096;0;0;0;0;0;0
4;182;1572008017313;1572008020919;3606;4155839338;6672602963;176477626;2627720;1064375496;11444520;154603639;0;0;0;0;0;0
4;183;1572008020943;1572008024759;3816;4365053688;6823006714;229378475;2742977;1094422632;12283229;161912312;23;5;960;0;6;86
4;184;1572008024783;1572008028497;3714;4281101498;6753478196;213544660;2576459;1080343365;11898384;160195267;0;0;0;0;0;0
4;185;1572008028521;1572008032365;3844;4369609764;6832307104;225812156;2592561;1095852966;12149780;163015905;0;0;0;0;0;0
4;186;1572008032389;1572008036031;3642;4237426766;6721209212;211419960;2677788;1073656394;11716462;156774713;36;32;8272;0;104;376
4;187;1572008036057;1572008039697;3640;4231732474;6721293724;211541081;2621224;1073452673;11648092;158245026;15;4;584;0;4;37
4;188;1572008039721;1572008043432;3711;4266662390;6744208182;218318349;2597946;1079643711;11654684;161093811;0;0;0;0;0;0
4;189;1572008043456;1572008047297;3841;4365144938;6824936725;224628187;2751185;1094765870;12272817;163857239;0;0;0;0;0;0
4;190;1572008047319;1572008051042;3723;4275953538;6766712315;218644693;2748427;1083044534;11800982;161371304;0;0;0;0;0;0
4;191;1572008051067;1572008054818;3751;4270635634;6780662297;208807025;2599309;1085747087;11959086;160356645;20;8;960;0;6;66
