0;139;1572042700712;1572042704667;3955;4566248112;6830035310;194443242;14946416;1060541552;11910909;156259255;485;619;18216;0;134;750
0;140;1572042704691;1572042708545;3854;4486754908;6749055924;202465535;14127281;1045678285;11670615;152969212;415;641;17424;0;142;618
0;141;1572042708568;1572042712111;3543;4265134354;6596536362;178818781;13302044;1013952576;10637943;143674831;661;976;75288;1;1189;84521
0;142;1572042712135;1572042715848;3713;4375493856;6674199076;196837127;15182938;1030640531;11309048;149873610;1128;276;55424;-1;3283;28367
0;143;1572042715877;1572042719358;3481;4292621044;6614178539;180292860;13942105;1018061855;10950986;143787156;842;134;16104;0;239;2772
0;144;1572042719386;1572042723222;3836;4513104988;6777292132;199979831;15028070;1049832037;11650743;153956228;627;430;17456;0;245;1716
0;145;1572042723247;1572042726902;3655;4289018056;6635980019;189100588;13692371;1022664332;10803309;146737320;373;651;16896;0;146;735
0;146;1572042726927;1572042730457;3530;4315099934;6651861901;192103279;13554964;1024796556;10938860;147104228;421;571;16368;0;143;664
0;147;1572042730483;1572042734179;3696;4425802974;6743948347;200175622;13972381;1043779278;11146433;151755141;353;693;17672;0;131;406
0;148;1572042734204;1572042738043;3839;4552807206;6786627599;202313527;15177395;1051873066;11856639;156363415;309;763;17688;0;133;316
0;149;1572042738068;1572042741825;3757;4526863590;6760390361;201289675;15696444;1046651986;11378293;152598290;298;742;17160;0;107;285
0;150;1572042741850;1572042745588;3738;4536362350;6747736039;201582215;16176710;1044141636;11407057;153240008;286;754;17160;0;106;263
0;151;1572042745614;1572042749320;3706;4366767290;6662222548;197047545;13787924;1026988483;11298527;148215282;929;754;62744;0;985;55669
0;152;1572042749345;1572042752957;3612;4278818642;6598644402;188613820;13740540;1014676479;10896786;145655595;875;133;16632;0;246;2839
0;153;1572042752981;1572042756567;3586;4323417846;6631275177;188859972;13735479;1021270332;11142246;145879641;740;253;16400;0;219;2172
0;154;1572042756594;1572042760386;3792;4489018784;6773720466;188631407;14698390;1050446258;11708863;157012015;423;601;16896;0;156;745
0;155;1572042760413;1572042763958;3545;4330689814;6640260384;179989396;14581286;1023324618;11047710;148297290;418;596;17144;0;135;642
0;156;1572042763984;1572042767527;3543;4313278584;6637158857;180301202;14061728;1021619973;10942394;149520137;413;579;16368;0;113;537
0;157;1572042767552;1572042771157;3605;4252366946;6629226266;178964564;13561568;1020704238;10733339;147304533;350;658;16632;0;110;415
0;158;1572042771187;1572042774692;3505;4174712028;6536653794;173152774;14245822;1001835829;10732445;145724910;282;694;16104;0;157;409
0;159;1572042774723;1572042778905;4182;4758534054;6991870655;212841892;15167876;1093287924;12634040;165603137;865;962;62888;0;804;65881
0;160;1572042778930;1572042782667;3737;4397848646;6692951398;184982070;15747324;1032837307;11250617;152254705;872;168;17160;0;259;2891
0;161;1572042782691;1572042786744;4053;4712344472;6876259672;232378275;16807172;1070893326;12222458;158776869;882;212;18144;0;299;2768
0;162;1572042786769;1572042790745;3976;4660397672;6882021912;203905735;16327091;1071985583;12219278;162701374;557;547;18216;0;175;1210
0;163;1572042790773;1572042794232;3459;4194832872;6455132660;170188625;15320531;985534035;10397014;136861039;371;612;16632;0;143;569
0;164;1572042794256;1572042798284;4028;4741564328;6884614560;190270055;16821464;1072044798;12224594;161970590;476;644;18480;0;175;823
0;165;1572042798309;1572042801978;3669;4408547088;6717954719;179556210;15341958;1038456493;11141447;153394130;348;676;16896;0;135;410
0;166;1572042802003;1572042806068;4065;4594405672;6816068759;183909560;16235197;1058247380;12000420;157162207;323;781;18216;0;114;367
0;167;1572042806093;1572042809984;3891;4517915980;6749527993;186723124;15806930;1044882695;11625496;152786692;1076;1043;81336;0;1397;156259
0;168;1572042810009;1572042813417;3408;4291231270;6547442677;176643843;13811644;1004103487;10792420;143440629;792;152;15576;0;258;2697
0;169;1572042813443;1572042817199;3756;4428614496;6717096922;186307628;13748930;1037842524;11351930;151470616;875;149;16896;0;243;2870
0;170;1572042817223;1572042820821;3598;4319245458;6663230076;175158417;13442637;1027251330;11071735;149292973;602;406;16632;0;188;1569
0;171;1572042820846;1572042824094;3248;4129124696;6461101205;164469145;13268181;986464363;10053308;139547621;314;621;15832;0;127;358
0;172;1572042824119;1572042828073;3954;4639072620;6871659126;199536373;15163521;1069097095;12153851;161920342;488;616;18216;0;140;677
0;173;1572042828096;1572042831812;3716;4434703864;6740427249;179673556;14433252;1042871775;11298941;153701970;398;642;17160;0;117;469
0;174;1572042831837;1572042835427;3590;4327727328;6633037410;181503418;14940026;1021514703;10920493;148766612;291;718;16664;0;139;431
0;175;1572042835452;1572042839643;4191;4735977930;6892289875;198899945;16906251;1073443867;12201912;160300554;353;901;23352;159;212;1066
0;176;1572042839667;1572042843349;3682;4414460818;6642256777;187593920;16312760;1023108808;11100973;149174892;985;419;43288;-159;678;41643
0;177;1572042843373;1572042847112;3739;4369398648;6672068987;177233133;15057238;1028823560;10991677;150692590;900;138;16992;2;258;2905
0;178;1572042847135;1572042851031;3896;4490563610;6738750608;191432005;15463860;1042321884;11442567;152747659;684;390;17856;-2;225;1913
0;179;1572042851057;1572042854740;3683;4442164318;6701621109;184742813;15313272;1035431294;11289427;150631672;390;658;17688;0;186;764
0;180;1572042854763;1572042858789;4026;4690751364;6880176271;228767368;15255225;1070969590;12335555;159385517;500;636;18744;0;141;714
0;181;1572042858813;1572042862468;3655;4306462428;6613176257;172252463;14589830;1017246032;10815407;144824943;378;630;16632;0;171;610
0;182;1572042862491;1572042866417;3926;4401137442;6690261243;190351238;14617087;1032753419;11396300;149338708;331;773;18216;0;141;479
0;183;1572042866441;1572042870046;3605;4345276090;6639378498;186189361;14539189;1022662151;10960593;147981667;275;741;17144;0;122;346
0;184;1572042870069;1572042873836;3767;4474842768;6734606623;189952607;15667202;1041560595;11548757;155603863;1085;717;69024;0;988;89303
0;185;1572042873862;1572042877649;3787;4396188772;6684418137;190850249;14806976;1031286286;11175997;150355888;905;119;16896;0;258;3039
0;186;1572042877673;1572042881725;4052;4738265750;6905508408;216763066;16556967;1076013295;12348436;163971009;801;336;18776;0;253;2284
0;187;1572042881750;1572042885475;3725;4372122570;6652132456;184776788;15719548;1025672279;10978848;147140397;426;622;17688;0;244;939
0;188;1572042885500;1572042889118;3618;4276673902;6613408816;183673506;14269862;1017548928;10967224;145839872;439;569;16632;0;126;658
1;136;1572043535148;1572043538977;3829;4493329726;6724197135;211235446;13968099;1070240534;11048185;153449037;369;671;17160;0;122;434
1;137;1572043539001;1572043542838;3837;4441479140;6696037758;205529322;13720214;1064672517;10763285;154117296;320;733;17728;0;144;426
1;138;1572043542867;1572043546632;3765;4431043790;6689841525;206267911;14760676;1063442999;10706747;152511155;581;836;49168;0;517;23341
1;139;1572043546660;1572043550353;3693;4461892130;6663912968;212298486;15458743;1058037963;10714318;150746464;834;158;16368;0;232;2637
1;140;1572043550380;1572043554192;3812;4528889048;6706909547;218984028;15947095;1067503493;10949952;154944522;852;172;16896;0;245;2798
1;141;1572043554218;1572043558134;3916;4607995498;6797998942;219425252;15942714;1085634942;11398532;156650696;521;559;18192;0;221;1235
1;142;1572043558171;1572043562003;3832;4459046736;6659937705;209495436;15591900;1057576986;10724863;151361717;385;655;17160;0;169;677
1;143;1572043562033;1572043565743;3710;4333563824;6580137194;198844658;15608956;1041257766;10284373;148046120;430;562;16368;0;126;580
1;144;1572043565768;1572043569721;3953;4525619524;6776551613;217712147;15161412;1080412390;11163656;157602284;364;692;17424;0;118;465
1;145;1572043569745;1572043573522;3777;4460201450;6703317096;206494676;14789941;1066027493;10925026;152710173;269;778;17680;0;129;321
1;146;1572043573548;1572043577403;3855;4497892810;6724638260;213228884;15296683;1070687632;10931385;156752049;736;1053;78264;0;933;71098
1;147;1572043577429;1572043581394;3965;4623695024;6785336974;210521972;16303705;1082806738;11259943;158625656;911;161;17688;0;256;2922
1;148;1572043581419;1572043585554;4135;4695044202;6827793635;204160734;17419354;1091032903;11634600;160845514;1397;530;97944;1;2791;163457
1;149;1572043585583;1572043589432;3849;4343132810;6585089343;197009111;16045966;1041858653;10444344;147073969;723;551;31888;-1;1437;8647
1;150;1572043589461;1572043593136;3675;4361708536;6598591769;197623742;15254369;1044255178;10339006;148489784;409;583;16368;0;121;593
1;151;1572043593164;1572043596976;3812;4533554332;6717658420;205714892;16085401;1069411513;11008569;156352541;430;594;16896;0;193;674
1;152;1572043597001;1572043600672;3671;4386520214;6647219608;206902690;14246232;1054842379;10742676;152163632;317;676;16400;0;115;375
1;153;1572043600698;1572043604497;3799;4422845452;6647411555;197210302;14722099;1054675254;10671575;151191229;294;752;17672;0;163;449
1;154;1572043604522;1572043608251;3729;4374421194;6583126746;201112293;14959212;1041509958;10439018;149530870;295;697;16368;0;168;369
1;155;1572043608279;1572043612324;4045;4571675662;6772010162;218200808;14316786;1079685922;11299524;161130252;445;1057;41584;146;272;20989
1;156;1572043612351;1572043616523;4172;4719238446;6884433299;220061467;15349408;1102933133;11846408;165047416;1010;429;58296;-146;821;47309
1;157;1572043616549;1572043620339;3790;4353967762;6591765434;191617573;13816813;1043759532;10355308;150682683;989;142;18456;0;388;6985
1;158;1572043620365;1572043624099;3734;4382806412;6616814900;202573543;15341158;1048593882;10515922;151669985;592;409;16400;4;216;1518
1;159;1572043624132;1572043627724;3592;4369251918;6580367946;196549255;15355332;1040898293;10303652;148327095;301;635;15576;-4;132;383
1;160;1572043627750;1572043631498;3748;4342093290;6587690129;196567696;15142210;1042475546;10231526;148180279;456;568;16896;0;127;710
1;161;1572043631522;1572043635291;3769;4498463524;6667250298;213665641;15771104;1059802128;10863251;153562336;404;595;16888;0;126;534
1;162;1572043635321;1572043639030;3709;4416062438;6610865609;199805594;15335644;1047823609;10504744;150927524;286;722;16632;0;127;346
1;163;1572043639061;1572043642715;3654;4298249052;6550402890;194634446;14685921;1035233889;10285800;145220068;281;695;16104;0;144;348
1;164;1572043642741;1572043646504;3763;4475899370;6649323694;208220854;16303219;1055522305;10571931;152211803;844;684;63112;0;823;43856
1;165;1572043646530;1572043650373;3843;4482500906;6606677479;214576904;15950171;1046591188;10880835;154890099;954;111;17936;0;267;3305
1;166;1572043650398;1572043654307;3909;4602261348;6778162035;206985300;15758488;1081001775;11229727;158989365;769;287;17424;0;223;2156
1;167;1572043654334;1572043658107;3773;4515691232;6722618419;215770777;15184293;1070225957;11102590;156489411;329;695;16896;0;185;689
1;168;1572043658133;1572043661995;3862;4426943526;6664470921;214319601;15209580;1057999091;10699563;152352076;439;601;17160;0;152;692
1;169;1572043662021;1572043665862;3841;4545047452;6726481297;220910293;15783365;1071067160;11291172;158278590;445;602;17680;0;149;711
1;170;1572043665887;1572043669688;3801;4431654070;6591899486;222285046;15345482;1043425852;10818023;153728461;309;715;16896;0;121;367
1;171;1572043669715;1572043673625;3910;4621382822;6780695463;231808287;15962339;1081651169;11283643;160063665;290;766;17424;0;142;362
1;172;1572043673651;1572043677641;3990;4663653034;6819674894;229439041;16284245;1089591418;11589687;161804963;1026;519;49192;0;662;31558
1;173;1572043677668;1572043681330;3662;4447873356;6645306201;216241031;15664719;1054596086;10616632;154576627;884;132;17136;0;262;2993
1;174;1572043681356;1572043685227;3871;4532032282;6686241067;227317800;16389469;1062295445;11017543;158131861;691;350;17192;0;229;1983
1;175;1572043685256;1572043688999;3743;4484684774;6673376880;207366690;15744312;1060126642;10651524;153503006;314;678;16368;0;154;446
1;176;1572043689025;1572043692708;3683;4420053640;6585610787;211698509;15667417;1042211590;10758112;151997506;428;564;16368;0;126;622
1;177;1572043692734;1572043696683;3949;4620456890;6783509332;218188743;16190458;1082497052;11561728;159931772;435;643;18200;0;124;552
1;178;1572043696709;1572043700712;4003;4670124484;6844435447;216608341;15791261;1095043030;11603725;162404612;321;767;17952;0;157;407
1;179;1572043700740;1572043704386;3646;4405961136;6646018674;198755624;15333748;1054538739;10661666;152451905;293;683;16104;0;133;337
1;180;1572043704411;1572043708038;3627;4399925496;6654517309;203793097;14872766;1057385073;10836164;150983109;844;624;58936;0;694;43272
1;181;1572043708064;1572043711881;3817;4536533316;6731127409;200964851;15830854;1071553098;11076615;154722389;915;135;17680;0;270;3086
1;182;1572043711907;1572043715932;4025;4719983338;6854827336;221597872;17002318;1096713737;11634529;164342086;741;332;17720;0;239;2086
1;183;1572043715960;1572043719887;3927;4576973126;6794214228;221050416;15169703;1084179614;11160255;158887658;327;729;17424;0;157;453
1;184;1572043719913;1572043723805;3892;4575877834;6780568952;214223931;15697125;1081769497;11189828;158363575;461;595;17424;0;131;677
1;185;1572043723831;1572043727765;3934;4577040578;6779789870;220413101;15358976;1081788207;11249941;161769068;395;651;17672;0;136;536
2;137;1572044374832;1572044378568;3736;4262934280;6522342444;211112636;15304275;1053909748;10370286;154104596;325;731;17424;0;152;414
2;138;1572044378592;1572044382398;3806;4381899898;6618283340;224835587;16104214;1074040823;10531048;157329763;295;800;18472;0;118;298
2;139;1572044382430;1572044386495;4065;4532750748;6768702183;226946676;15605456;1103509378;11336433;164141746;941;931;80144;0;926;72328
2;140;1572044386520;1572044390242;3722;4252959706;6538891077;209612863;15116568;1057170044;10339375;153042283;949;107;17424;0;263;3239
2;141;1572044390268;1572044394009;3741;4274971250;6560799356;204777906;14771058;1062434433;10599829;153889294;752;305;17456;0;265;2174
2;142;1572044394038;1572044397748;3710;4266032838;6592778287;203186221;14001695;1068298565;10384927;154185547;403;661;17928;0;182;774
2;143;1572044397780;1572044401399;3619;4243540516;6534005663;207452434;14598516;1056626109;10289960;151990965;424;600;16896;0;210;853
2;144;1572044401425;1572044405076;3651;4243946980;6550052643;200647186;14109151;1060089165;10294307;153066564;416;624;17160;0;136;529
2;145;1572044405102;1572044408973;3871;4384862384;6620906340;202255512;15978470;1074348727;10705428;156955687;762;1004;86192;13;1671;81613
2;146;1572044408998;1572044412973;3975;4471113344;6681794482;218147930;17226036;1087144867;11030701;161234263;1195;213;41272;-13;2630;28912
2;147;1572044412999;1572044416649;3650;4184563962;6480082746;191021628;15446194;1045741879;10239105;151706276;860;180;17160;0;242;2741
2;148;1572044416675;1572044420434;3759;4372275578;6609070189;216067542;15840238;1071759979;10682657;157197875;492;564;17424;0;202;1030
2;149;1572044420459;1572044424215;3756;4319142236;6570171203;208280708;15424128;1063599070;10595056;157391365;380;692;17688;0;160;591
2;150;1572044424241;1572044427850;3609;4244624566;6560186693;203491119;14924084;1062437692;10254520;155624460;426;622;17664;0;138;706
2;151;1572044427877;1572044431769;3892;4439110144;6643376622;215874728;16759917;1078679937;11143033;161271774;312;776;17952;0;136;406
2;152;1572044431795;1572044435534;3739;4363084732;6601582964;214288232;15713469;1069980019;10657308;158197923;294;762;17424;0;136;381
2;153;1572044435561;1572044439461;3900;4391775192;6647083146;209946190;16112633;1079355819;10979043;159704911;299;805;18216;0;125;343
2;154;1572044439485;1572044443130;3645;4113588982;6415753442;198962684;14947247;1034080214;9853014;146991521;803;639;49528;0;894;27244
2;155;1572044443156;1572044446972;3816;4281291444;6565106332;207698987;15552217;1062515811;10387571;153919932;942;130;17688;0;271;3030
2;156;1572044447001;1572044450624;3623;4189279616;6524524246;201513613;15213393;1054610828;10141652;150878751;737;274;16728;0;267;2258
2;157;1572044450650;1572044454528;3878;4339656112;6621569275;199004993;15279364;1074245437;10997182;158555949;400;704;18216;0;207;734
2;158;1572044454554;1572044458405;3851;4357606374;6648756889;211762809;15393625;1079734344;10752414;158779037;482;615;18464;0;141;759
2;159;1572044458433;1572044462225;3792;4374023198;6689658446;198688852;15592996;1087982354;10888939;160805926;434;638;17688;0;119;539
2;160;1572044462251;1572044466031;3780;4398064288;6667339056;207994743;15507068;1083351375;10802952;160466031;325;747;17688;0;119;327
2;161;1572044466057;1572044469929;3872;4330072672;6594023922;206388810;16349352;1068490492;10523489;157677287;316;772;17952;0;124;364
2;162;1572044469952;1572044473645;3693;4230270868;6510000031;201908929;15386662;1051351942;10275809;156106459;769;972;81688;0;949;75234
2;163;1572044473673;1572044477619;3946;4514575208;6699500732;229714128;16530004;1089768682;11129930;166086074;990;130;18480;0;292;3368
2;164;1572044477645;1572044482258;4613;5003534756;7121367539;259022186;18270400;1175449350;12991488;181569080;899;397;21384;0;278;2708
2;165;1572044482285;1572044485910;3625;4272941120;6579699591;209004638;15313078;1065780772;10419348;155001387;369;655;16896;0;173;539
2;166;1572044485937;1572044489527;3590;4234346166;6464148140;210732664;15476888;1042432124;10275082;155761833;476;572;17504;2;166;943
2;167;1572044489555;1572044493216;3661;4299749786;6592506636;210610447;15350889;1068605840;10585371;158277505;394;632;17072;-2;116;467
2;168;1572044493242;1572044496933;3691;4353927904;6582452605;212732729;16132909;1066196359;10515655;157505977;314;742;17424;0;110;311
2;169;1572044496959;1572044500772;3813;4441321752;6645838891;217691430;16936943;1079503179;11013510;161190143;279;793;17688;0;104;234
2;170;1572044500798;1572044504417;3619;4265608708;6560711480;214496841;15145098;1062157828;10480054;155875517;704;815;61576;0;722;42553
2;171;1572044504445;1572044508192;3747;4352047424;6623362323;208898705;15529288;1074737246;10772809;159496707;916;140;17424;0;255;2870
2;172;1572044508219;1572044511964;3745;4329046876;6588272914;215730038;15942650;1067263697;10523053;157903430;842;230;17688;0;239;2607
2;173;1572044511988;1572044515555;3567;4165661926;6500205033;192491772;14518426;1049434454;10170721;152431123;393;615;16632;0;128;640
2;174;1572044515579;1572044519340;3761;4359668332;6622418416;207938469;15703202;1074438966;10703183;157797007;459;624;18240;0;163;738
2;175;1572044519368;1572044522913;3545;4210376908;6462413270;210120592;15082721;1042139272;10284184;154746322;384;608;16368;0;130;481
2;176;1572044522940;1572044526544;3604;4241505276;6540424035;215904958;14999638;1058507062;10352759;156318327;312;712;16896;0;143;456
2;177;1572044526570;1572044530458;3888;4456997626;6705348233;212961540;16416828;1090782276;10991832;162437482;332;772;18216;0;135;409
2;178;1572044530484;1572044534184;3700;4294933538;6566455313;215109217;15137211;1063710320;10654819;156178602;622;1080;74016;0;811;63161
2;179;1572044534215;1572044537952;3737;4260076038;6529626769;200183791;15422351;1055514770;10275863;152601373;892;148;17160;0;252;2621
2;180;1572044537982;1572044541728;3746;4294707968;6566893006;209204020;16075268;1063031529;10405750;155688334;893;163;17424;0;252;2836
2;181;1572044541752;1572044545474;3722;4319707110;6603376144;215832784;15378214;1070476378;10683887;158181551;506;550;17424;0;183;1137
2;182;1572044545500;1572044549299;3799;4389139016;6567970406;230309903;16612672;1062986597;10820062;158899338;392;680;17688;0;128;509
2;183;1572044549327;1572044553314;3987;4448952880;6663059504;224768340;16532834;1082347274;10876271;160465276;519;632;19448;0;144;887
2;184;1572044553338;1572044556929;3591;4192428690;6512308366;210509894;14366296;1051765228;10083867;153538720;319;705;16896;0;123;368
2;185;1572044556955;1572044560748;3793;4352750122;6685115362;191795512;14610313;1087761760;10778846;159398177;279;793;17688;0;96;238
2;186;1572044560774;1572044564617;3843;4405602268;6697100812;226277962;14239067;1090397276;10883793;162024029;626;1099;74280;0;810;64503
3;134;1572045204088;1572045208094;4006;4497875582;6692239376;189907153;15971894;1067262346;10404603;151384795;456;648;18216;0;134;595
3;135;1572045208119;1572045212031;3912;4425860352;6626351091;195770870;15384867;1053689255;10438322;151248632;355;733;17952;0;112;344
3;136;1572045212057;1572045215836;3779;4447733342;6677829064;188799854;14056876;1063745462;10287500;151485103;285;778;17944;0;103;251
3;137;1572045215862;1572045219987;4125;4654706884;6810851619;203384322;14401114;1090459204;11152162;158826341;979;742;68928;0;854;66010
3;138;1572045220011;1572045223879;3868;4497677606;6731727239;196200510;13887001;1074743136;10481309;154206789;928;144;17688;0;257;2913
3;139;1572045223911;1572045227675;3764;4424219896;6648438066;191195151;13522120;1057174106;10186437;149198225;678;346;16896;0;207;1831
3;140;1572045227701;1572045231370;3669;4309096852;6557766828;184193433;13011630;1039129244;9831956;145527260;422;628;17680;0;132;693
3;141;1572045231394;1572045235194;3800;4342735690;6604992337;186201760;13761315;1050237796;10090640;147464047;400;640;17160;0;142;598
3;142;1572045235228;1572045239107;3879;4436578066;6635929560;190054580;15369861;1055239964;10219597;147180929;1314;698;107784;17;3364;85661
3;143;1572045239139;1572045243032;3893;4469934248;6639462571;196508581;15328853;1055430280;10245139;148842578;1007;150;21752;-17;1221;14276
3;144;1572045243058;1572045246618;3560;4334349742;6581294971;180398924;13973767;1043663623;9926333;145473173;683;315;16880;0;231;2093
3;145;1572045246643;1572045250518;3875;4581823246;6726731308;189713206;15051768;1073249504;10744206;152581675;466;606;17688;0;153;771
3;146;1572045250549;1572045254895;4346;4947205328;6977977049;213189621;16648063;1124508273;12156235;165751063;406;778;19536;0;129;445
3;147;1572045254923;1572045258582;3659;4399228930;6597820340;178635865;14594609;1047164980;10238671;147713859;312;696;16632;0;124;351
3;148;1572045258608;1572045262676;4068;4733749386;6797728478;199460659;17008043;1087673445;11322590;158135615;330;815;19256;0;133;325
3;149;1572045262702;1572045266562;3860;4563627120;6701091565;188322250;16315506;1068067719;10489268;150358691;282;790;17688;0;109;254
3;150;1572045266588;1572045270255;3667;4469103362;6622947520;186825531;15533401;1052346406;10205170;147076753;720;736;56576;0;716;39170
3;151;1572045270283;1572045274219;3936;4553974038;6672890012;201862715;16824339;1062292552;10428625;149130493;948;140;17952;0;263;3153
3;152;1572045274245;1572045278113;3868;4473592278;6613346612;196204280;16514875;1050437134;10160316;146964153;855;275;18472;0;412;7759
3;153;1572045278139;1572045281773;3634;4377446460;6564824192;200945195;15350719;1040140658;10123090;148399308;415;593;16632;0;143;651
3;154;1572045281799;1572045285815;4016;4563296576;6707787462;206243127;16879664;1069449519;10547420;153576682;409;695;18216;0;185;677
3;155;1572045285840;1572045289592;3752;4470016446;6657235367;194658261;15780509;1059091278;10190912;149008516;417;608;16928;0;123;533
3;156;1572045289617;1572045293614;3997;4563443014;6690230194;202156598;17009001;1066597529;10477272;151041306;354;760;18744;0;115;362
3;157;1572045293640;1572045297435;3795;4536393886;6647047936;210459730;16405819;1056886014;10441812;151050267;321;735;17424;0;169;570
3;158;1572045297461;1572045301580;4119;4568997146;6725049363;210653484;15902610;1073210408;10697868;154754692;835;648;51712;0;612;21651
3;159;1572045301606;1572045305545;3939;4620856930;6783921674;194152866;14288581;1084594576;10776519;155516902;946;142;17952;0;268;3119
3;160;1572045305569;1572045309329;3760;4357480814;6591762516;200845723;13603780;1047409511;10115644;146725971;698;334;17424;0;200;1994
3;161;1572045309353;1572045313195;3842;4499039202;6707228407;213473645;14552473;1069353391;10633583;152497187;403;653;17424;0;161;736
3;162;1572045313219;1572045317033;3814;4499596484;6657605652;209670647;15984206;1060012322;10435109;151436680;418;606;16896;0;128;594
3;163;1572045317060;1572045320988;3928;4544180942;6662234840;208248613;16214547;1060432515;10657862;155249923;437;651;17952;0;125;582
3;164;1572045321014;1572045324794;3780;4398427974;6628229486;207966275;14775821;1053959474;10100770;150402112;322;743;17936;0;114;405
3;165;1572045324818;1572045328777;3959;4622684996;6781525337;215011136;14593252;1084388061;10895115;159410316;286;802;17952;0;104;269
3;166;1572045328802;1572045332706;3904;4472156222;6698429934;190922356;14474532;1067826528;10526501;153858518;894;553;49000;0;632;32019
3;167;1572045332733;1572045336428;3695;4391761906;6634617289;179504152;13820187;1054917759;10149088;151220009;899;148;17680;0;265;3111
3;168;1572045336452;1572045340297;3845;4446773100;6649797047;190757460;14670276;1058061222;10373455;151699880;663;393;17424;0;214;1844
3;169;1572045340323;1572045344082;3759;4445702336;6661232639;184819497;14839069;1059786290;10229568;152126298;388;636;16896;0;164;644
3;170;1572045344107;1572045348033;3926;4455894012;6660221213;194143653;15596998;1059307814;10362323;152811121;450;638;17952;0;142;714
3;171;1572045348061;1572045351910;3849;4573674694;6719016989;195242158;16196066;1071745520;10593730;155701509;421;660;18200;0;164;576
3;172;1572045351936;1572045355592;3656;4418977620;6643366272;185380897;15119172;1056185815;10135668;149537439;295;729;16896;0;106;298
3;173;1572045355617;1572045359514;3897;4598487102;6731665852;205700608;15877587;1075808075;11081276;157436192;325;747;17688;0;127;370
3;174;1572045359540;1572045363340;3800;4391936230;6590607765;192413251;16075140;1046146503;10090182;150284860;912;775;76056;15;1012;68318
3;175;1572045363367;1572045367117;3750;4484764344;6679260169;196525016;15077427;1063581767;10369689;151541663;918;152;17816;-11;254;2965
3;176;1572045367143;1572045371127;3984;4583530570;6724315390;201265033;15982753;1072801235;10814160;157156730;731;365;18336;-4;241;2103
3;177;1572045371151;1572045375102;3951;4461138624;6657934365;194694371;16029235;1060195745;10292812;151966351;418;670;17952;0;126;568
3;178;1572045375128;1572045378803;3675;4240786664;6505647949;182052502;15143284;1029610851;9574881;144088462;409;601;16696;0;135;622
3;179;1572045378831;1572045382779;3948;4453662402;6608692892;201688431;16249212;1050145719;10051463;150483743;426;687;18728;0;191;728
3;180;1572045382804;1572045386817;4013;4591986744;6713686880;207772424;16422505;1070815205;10616460;155371343;314;790;18216;0;152;459
3;181;1572045386841;1572045390732;3891;4438779892;6679264297;189488949;14285462;1063363368;10361005;152188415;299;773;17688;0;124;398
3;182;1572045390758;1572045394774;4016;4451558980;6667751421;195729851;15212863;1061470313;10330800;153132767;910;573;50808;0;642;26112
3;183;1572045394801;1572045398535;3734;4376106472;6594748201;201041935;14036670;1046887963;10316688;151084223;893;138;17416;0;257;2959
4;137;1572046046675;1572046050437;3762;4465218886;6676898167;198735232;15740368;1053666755;10648641;195306912;294;778;17688;0;105;258
4;138;1572046050462;1572046054184;3722;4237600652;6495661370;186132763;15319206;1017869216;9812880;144617948;308;787;18472;0;159;428
4;139;1572046054209;1572046058243;4034;4529538164;6710844528;196814017;16357512;1060437815;10916513;157049691;1091;784;82384;0;1048;72485
4;140;1572046058266;1572046062085;3819;4297232600;6514214735;200939366;15262516;1021980613;10003301;145923938;945;128;17720;0;282;3295
4;141;1572046062107;1572046065758;3651;4272551592;6520495318;193565602;15072413;1022332993;9973079;146603145;615;425;17160;0;199;1709
4;142;1572046065792;1572046069749;3957;4559957702;6744452005;202640525;16119817;1069349534;11017420;159657012;430;747;19784;0;218;912
4;143;1572046069778;1572046073916;4138;4408498178;6630494007;184476550;16233696;1044675603;10684932;151799502;500;684;19536;0;135;773
4;144;1572046073938;1572046077761;3823;4432146382;6654491559;206864396;15083333;1049662610;10604062;154215562;398;690;17952;0;118;483
4;145;1572046077785;1572046081612;3827;4413237776;6665679252;184515332;14999213;1051654294;10527035;154073222;315;789;18216;0;117;331
4;146;1572046081636;1572046085658;4022;4547480250;6762086716;194479072;15691880;1070754508;11094162;157839738;346;829;19792;0;138;386
4;147;1572046085682;1572046089308;3626;4231283524;6507453995;182716544;15171960;1020777982;9904394;145740247;1122;742;99080;30;2660;89179
4;148;1572046089333;1572046093200;3867;4409437688;6632368872;182804786;16048336;1044975685;10565533;152436570;1273;158;50968;-30;3341;33867
4;149;1572046093225;1572046096690;3465;4155997164;6435604843;186385578;14061381;1005512380;9640154;143912552;628;364;16368;0;196;1731
4;150;1572046096717;1572046100370;3653;4299807310;6527724936;183240234;15169870;1024456178;9984338;147090870;405;676;18200;0;148;752
4;151;1572046100397;1572046104339;3942;4477366816;6672441050;191024514;16229825;1053030886;10676439;152686037;491;630;18512;0;170;778
4;152;1572046104362;1572046108227;3865;4349056176;6591256820;189043944;15078128;1036744499;10360840;151066071;406;698;18216;0;143;491
4;153;1572046108250;1572046111977;3727;4337469470;6590337163;181232431;15637191;1036780758;10384090;150328049;288;784;17688;0;105;305
4;154;1572046112002;1572046115868;3866;4381375320;6589930464;187133374;16368860;1036769449;10435012;149915632;307;819;18992;0;151;474
4;155;1572046115895;1572046119795;3900;4385649616;6637465167;187381499;15472342;1047565859;10658861;152496866;928;798;72440;0;880;66593
4;156;1572046119820;1572046123773;3953;4591209002;6782450903;191879622;15974058;1075198420;11209332;158910191;986;134;18480;0;290;3254
4;157;1572046123813;1572046127858;4045;4529362672;6715893568;191557451;16159395;1061978486;11080041;156592048;730;438;19272;0;227;1990
4;158;1572046127883;1572046131604;3721;4270408020;6527099873;181617200;15794354;1023921923;10198801;146238530;485;664;18744;0;221;3081
4;159;1572046131635;1572046135499;3864;4512574862;6685801159;192671419;16630451;1055712638;10937453;155263191;479;625;18216;0;172;774
4;160;1572046135524;1572046139428;3904;4492052518;6686418845;186836494;16108497;1056692862;10864088;157103940;406;714;18480;0;122;479
4;161;1572046139457;1572046143093;3636;4301347172;6564035570;176427410;15637706;1030992759;10132346;146671261;299;741;17160;0;111;311
4;162;1572046143118;1572046146880;3762;4459656286;6695378711;181189488;16353046;1057490790;10687135;154143868;325;770;18472;0;164;402
4;163;1572046146906;1572046150850;3944;4415887968;6628393426;191276947;16108602;1044390040;10662320;154900214;893;930;80456;0;926;72098
4;164;1572046150875;1572046154604;3729;4296747442;6550815711;175812050;16093728;1028236717;10115291;147420907;930;126;17424;0;257;3052
4;165;1572046154628;1572046158271;3643;4276274008;6516182624;177454075;15369687;1022573780;10163738;145354173;779;278;17456;0;231;2341
4;166;1572046158294;1572046162055;3761;4292339118;6569530444;168326857;15441842;1031938205;10147697;149095007;452;645;18464;0;154;800
4;167;1572046162080;1572046166064;3984;4521269162;6690510758;177424614;16985804;1057387620;11113285;158428640;470;666;18744;0;196;892
4;168;1572046166087;1572046169914;3827;4435643666;6624632058;181776818;15830010;1044132993;10518775;153326955;449;623;17688;0;125;689
4;169;1572046169937;1572046173797;3860;4363917370;6620957410;177230662;15405056;1042209035;10778131;154142490;342;778;18480;0;145;544
4;170;1572046173821;1572046177590;3769;4371082758;6631840617;176140496;15643870;1045443260;10494974;152580037;311;784;18472;0;187;1042
4;171;1572046177615;1572046181209;3594;4267690376;6552548684;177221127;14886343;1029288182;10045370;150267945;693;944;65560;0;752;53566
4;172;1572046181232;1572046184793;3561;4270225812;6567837348;176529368;14130493;1032209692;10243659;149885706;885;124;16632;15;268;3227
4;173;1572046184818;1572046188366;3548;4191261420;6494753678;178390227;14051680;1017540149;9943034;147256191;798;225;16896;-15;226;2444
4;174;1572046188390;1572046192217;3827;4478349980;6735963847;186292394;15287013;1066160410;11154436;158421573;545;583;18984;0;209;1154
4;175;1572046192241;1572046196279;4038;4435993774;6678291360;184974464;14786864;1055789153;10811844;155023740;486;682;19272;0;143;775
4;176;1572046196304;1572046200136;3832;4364034608;6645747184;189492755;14237664;1048681628;10424874;154716287;444;660;18216;0;121;568
4;177;1572046200160;1572046204004;3844;4310905208;6619495868;176821633;14305820;1043933189;10446258;153641272;374;714;17952;0;151;535
4;178;1572046204029;1572046208260;4231;4657238232;6838545545;193515067;16743808;1087427719;11687006;165704176;377;862;20848;0;194;560
4;179;1572046208285;1572046212121;3836;4384125668;6637891046;177232802;15283687;1046691332;10566352;151478162;655;763;46128;14;604;19531
4;180;1572046212145;1572046215840;3695;4349739748;6618341254;186721190;14568706;1043337440;10483376;152952112;948;122;17688;-14;273;3302
4;181;1572046215863;1572046219690;3827;4322136842;6618236307;172562859;15251533;1042263045;10371095;152784420;793;296;17984;0;223;2260
4;182;1572046219719;1572046223499;3780;4369642760;6634591867;183138704;15095296;1046308029;10568650;154132688;442;639;18200;0;155;803
4;183;1572046223524;1572046227136;3612;4153735186;6469036801;181327811;14429674;1011766816;9636669;146338904;445;595;17160;0;131;689
4;184;1572046227166;1572046230985;3819;4291136516;6582236330;178613899;14918906;1035568712;10327789;150645295;413;691;18216;0;161;700
4;185;1572046231008;1572046234587;3579;4251755206;6560443953;174564280;14339229;1031311534;10114159;150576473;316;708;16896;0;141;469
4;186;1572046234610;1572046238375;3765;4400146832;6710999533;180199327;14393419;1062132824;10956866;156253555;316;795;18736;0;131;331
