0;63;1572109835382;1572109841605;6223;18321434442;41904743489;223040853;94165281;7361886413;142240042;323947323;511;0;1056024;0;3413;10842
0;64;1572109841605;1572109847842;6237;18324346996;41903047604;222723065;93376306;7361475734;142083198;324054788;508;0;1056000;-5;3236;11529
0;65;1572109847842;1572109854816;6974;18297944356;41901908684;220486570;94520373;7361159387;142115105;323895229;511;0;1056016;0;3224;11686
0;66;1572109854816;1572109860944;6128;18308224070;41897370030;219553914;93737185;7360035064;142099088;323929151;604;44;1067776;5;3624;21794
0;67;1572109860944;1572109867069;6125;18321929674;41898984231;219526991;94525118;7360173732;142041090;324014427;508;0;1056000;-5;3248;10221
0;68;1572109867070;1572109873205;6135;18367384730;41905753914;220102706;95414211;7362276739;142193769;323766711;511;1;1056040;5;3404;11136
0;69;1572109873205;1572109879304;6099;18287568282;41898580796;219126411;93458269;7360189334;142046765;323720029;508;0;1056000;0;3236;11866
0;70;1572109879304;1572109885450;6146;18306215694;41898782993;219512153;93301416;7360284095;142141524;323713626;513;0;1056024;-5;3262;12369
0;71;1572109885450;1572109891605;6155;18341339060;41906414697;221366945;95084381;7362299930;142138043;323849639;598;44;1068368;5;3646;20424
0;72;1572109891605;1572109897792;6187;18326812498;41899013082;221401479;94372650;7360507587;142146648;323928184;510;0;1056000;0;3292;10348
0;73;1572109897792;1572109903972;6180;18308589800;41894724896;221351542;93677531;7358939946;141973312;324013361;512;0;1056016;0;3436;11189
0;74;1572109903973;1572109910141;6168;18295326430;41906906041;221256091;93602137;7362401230;142227937;323936539;510;0;1056000;0;3201;11693
0;75;1572109910142;1572109916319;6177;18311062748;41905721327;221368891;93148030;7362232493;142142640;323892166;513;0;1056032;0;3162;11716
0;76;1572109916319;1572109922509;6190;18339337692;41898192626;221924049;95114251;7360207338;142074428;323880157;597;46;1069264;0;3644;19480
0;77;1572109922509;1572109928703;6194;18373320068;41900084345;221663881;95733081;7360561105;142029771;324043275;510;0;1056000;0;3259;10272
0;78;1572109928703;1572109934896;6193;18341658216;41910014747;221807021;95476573;7363464603;142200600;324054654;513;0;1056032;0;3468;11345
0;79;1572109934896;1572109941067;6171;18336090214;41902885868;221928586;95478053;7361374177;142118568;324116710;510;0;1056000;0;3196;11686
0;80;1572109941067;1572109947252;6185;18323800372;41905840981;221434303;93927557;7362168692;142155037;324079136;513;0;1056024;0;3149;11715
0;81;1572109947252;1572109953433;6181;18319625794;41893060871;222252474;94829965;7358528467;142060354;324041397;600;42;1067440;0;3726;22150
0;82;1572109953433;1572109959657;6224;18393443540;41896297885;222651977;95771835;7359449379;142184518;323950912;510;0;1056000;0;3282;10398
0;83;1572109959657;1572109965867;6210;18363966432;41895111950;222011506;95154163;7359313008;142094281;323820135;514;0;1056032;0;3432;11496
0;84;1572109965867;1572109972082;6215;18372777970;41898024065;222652084;95900455;7359957402;142074416;323944836;510;0;1056000;0;3159;11480
0;85;1572109972082;1572109978255;6173;18330257076;41901029396;221331302;95183089;7360968362;142095554;323811802;513;0;1056024;0;3180;11828
0;86;1572109978255;1572109984441;6186;18333712458;41900174171;220735915;95276713;7360533607;142116456;323785043;612;36;1067856;0;3643;19638
0;87;1572109984441;1572109990672;6231;18408955894;41897388224;222643834;96500734;7359895284;142202132;323824281;630;2;1047200;11;4211;25281
0;88;1572109990672;1572109996962;6290;18379168390;41908364470;223314455;95895685;7362936770;142338028;323791142;819;7;1089144;-2;6290;180805
0;89;1572109996962;1572110003170;6208;18392646818;41897563762;222003518;95952687;7359876046;142074603;323738139;521;0;1074624;-9;3313;13758
0;90;1572110003170;1572110009353;6183;18322362710;41902453770;221134098;94461410;7361199352;142092625;323691896;515;0;1056024;0;3214;12004
0;91;1572110009353;1572110015559;6206;18318230910;41903149335;221492760;94131323;7361513095;142159589;323809509;654;26;1068520;0;3743;24345
0;92;1572110015559;1572110021719;6160;18335938374;41905757084;219478984;94400262;7362221689;142231294;323850437;512;0;1056000;0;3313;10737
0;93;1572110021719;1572110027904;6185;18312880594;41895484190;221115042;94167583;7359435103;142095790;323792409;588;0;1056672;0;3811;21764
0;94;1572110027904;1572110034095;6191;18333584270;41897998383;221015518;94140020;7360147992;142144792;323681397;513;0;1056000;0;3151;11776
0;95;1572110034095;1572110040266;6171;18317594934;41908242485;221704410;94726308;7362442288;142198068;324210706;524;2;1056168;0;3182;11955
0;96;1572110040266;1572110046478;6212;18319058438;41903643319;221581813;94367938;7361697080;142187066;324267196;656;52;1073872;0;3721;25837
0;97;1572110046478;1572110053008;6530;18304293604;41901240247;221799143;94153939;7360959220;142135013;324388856;518;0;1056040;0;3272;10438
0;98;1572110053008;1572110059215;6207;18317312424;41905199686;221708365;93895849;7362103118;142235602;324327425;516;0;1056032;0;3469;11785
0;99;1572110059215;1572110065395;6180;18321430500;41900832386;221987967;93510182;7360744562;142122498;324395609;514;0;1055992;0;3123;11605
0;100;1572110065395;1572110071586;6191;18302229164;41897800860;221622861;93882058;7360126939;142115672;324393406;518;0;1056024;0;3205;12032
0;101;1572110071586;1572110077893;6307;18263693340;41896222951;220195712;92634926;7359605649;142096488;324398633;652;24;1069584;0;3754;29429
0;102;1572110077893;1572110085153;7260;18309380536;41900402944;221760278;94707838;7360591211;142152077;324367435;519;0;1056032;-5;3332;10792
0;103;1572110085153;1572110091229;6076;18191186966;41906417694;221275148;94246179;7362264927;142081432;324353095;516;0;1056000;5;3393;11618
0;104;1572110091229;1572110097276;6047;18152675816;41901719969;220989089;93737440;7361047814;142042093;324377773;517;0;1055992;0;3103;11735
0;105;1572110097276;1572110103385;6109;18175961940;41907148964;221781298;93318828;7362339343;142105450;324390491;522;0;1056032;0;3194;12095
0;106;1572110103385;1572110109472;6087;18157496298;41901383710;221155099;93765240;7361004552;141988650;324157820;629;34;1067312;0;3737;22150
0;107;1572110109472;1572110115572;6100;18181887496;41898698571;222132892;93390448;7360147367;142058519;324301824;522;0;1056064;0;3404;11117
0;108;1572110115572;1572110121620;6048;18166183882;41901809250;221859062;93936642;7361137581;142026982;324170892;518;0;1055992;0;3378;12015
0;109;1572110121620;1572110127713;6093;18186016960;41904135775;221851701;94075134;7361854959;142173057;324265170;518;0;1055992;-5;3048;11293
0;110;1572110127713;1572110133914;6201;18190576540;41903503123;221762395;93375069;7361493637;142172847;324252473;521;0;1056024;0;3201;12315
0;111;1572110133914;1572110139994;6080;18143853182;41899550397;219154470;93799031;7360530352;141988878;324242122;683;33;1074960;0;3895;38997
0;112;1572110139994;1572110146034;6040;18170507526;41898219329;218934526;94290690;7359987337;141997212;324334171;524;0;1056032;0;3355;11127
1;63;1572110671547;1572110677823;6276;18654809236;42778552167;224888001;93219226;7446341242;142420185;324361234;510;1;1055992;0;3435;11133
1;64;1572110677823;1572110684082;6259;18650885778;42776991404;225215109;93670166;7445913915;142304435;324302243;513;0;1056024;-5;3221;11493
1;65;1572110684082;1572110690307;6225;18752000414;42775755511;224656869;95911898;7445562193;142303441;324492833;511;0;1055992;5;3169;11925
1;66;1572110690307;1572110696588;6281;18681738060;42771198572;225135610;94214061;7444430696;142323118;324244164;600;53;1067232;0;3573;19141
1;67;1572110696588;1572110702786;6198;18662146174;42772810312;224384607;92650120;7444575606;142237594;324472434;514;2;1056040;-5;3225;10157
1;68;1572110702786;1572110709004;6218;18655831236;42779712109;222802681;92845612;7446707545;142365877;324473738;511;0;1056000;5;3369;10956
1;69;1572110709005;1572110715331;6326;18683025634;42772415585;222729453;93573701;7444593790;142310551;324418663;513;0;1056016;0;3265;11969
1;70;1572110715331;1572110721554;6223;18755067436;42772684283;224376760;95627016;7444707293;142298250;324500926;511;0;1056000;0;3193;12034
1;71;1572110721555;1572110727762;6207;18746065952;42780384432;223191961;95231633;7446730189;142357641;324594712;589;48;1067568;0;3541;18047
1;72;1572110727762;1572110733967;6205;18766632534;42772904293;223044785;95688547;7444924254;142318462;324463732;515;0;1056032;0;3270;10517
1;73;1572110733967;1572110740153;6186;18703436142;42768636464;222545614;94474531;7443357599;142110867;324322941;510;0;1055984;0;3399;11193
1;74;1572110740153;1572110746408;6255;18712908184;42780935006;225499823;93945652;7446856928;142392976;324622641;513;0;1056024;0;3199;11769
1;75;1572110746408;1572110752659;6251;18703261964;42779691757;225302683;94162773;7446666523;142313090;324457361;510;0;1056000;0;3158;11653
1;76;1572110752659;1572110758883;6224;18720501352;42772196999;225061431;93984758;7444652041;142267273;324420746;622;30;1068112;0;3625;19674
1;77;1572110758883;1572110765151;6268;18747529894;42774013665;227612308;96083031;7444989848;142220266;324544873;514;0;1056032;0;3223;10159
1;78;1572110765151;1572110771392;6241;18750435732;42783912161;226770300;95732047;7447882476;142379203;324514522;514;0;1056000;0;3424;11403
1;79;1572110771393;1572110777628;6235;18702116010;42776789605;225698241;93503325;7445788860;142235919;324507705;517;0;1056024;-5;3162;11755
1;80;1572110777628;1572110783850;6222;18678354364;42779747285;226456445;93631909;7446585448;142285808;324574745;514;0;1056000;5;3165;11958
1;81;1572110783850;1572110790066;6216;18705256178;42766955475;225124335;93632446;7442946326;142084174;324507783;631;34;1068048;-5;3654;22049
1;82;1572110790066;1572110796286;6220;18669150086;42770243366;225709573;93977884;7443882874;142209131;324726337;519;0;1056032;5;3300;10776
1;83;1572110796286;1572110802486;6200;18677658528;42769061951;225045367;94338707;7443750184;142167197;324620538;514;0;1056000;0;3359;11287
1;84;1572110802486;1572110808723;6237;18709654720;42771958955;226184214;95453326;7444390642;142223786;324719655;517;0;1056024;-5;3146;11863
1;85;1572110808723;1572110814926;6203;18729001472;42774975667;225985146;95667562;7445408921;142280794;324648067;514;1;1056000;5;3146;11818
1;86;1572110814926;1572110821145;6219;18756159954;42774224223;226003340;95777521;7444990568;142289724;324591848;611;48;1067600;0;3631;19443
1;87;1572110821145;1572110827370;6225;18704003936;42771305886;223462505;94271271;7444322497;142314118;324337268;517;2;1056032;0;3292;10726
1;88;1572110827370;1572110833617;6247;18718402748;42782363152;223757339;93642466;7447385878;142435294;324434022;515;0;1056000;0;3372;11574
1;89;1572110833617;1572110839824;6207;18685630274;42771424528;222673838;93627619;7444286194;142205375;324380489;517;0;1056016;0;3135;11769
1;90;1572110839825;1572110846081;6256;18705951430;42776289464;223254722;93313713;7445599473;142255495;324453408;515;0;1056000;0;3157;11899
1;91;1572110846081;1572110852346;6265;18704993524;42777110126;224197328;95200095;7445950575;142362686;324343320;596;48;1067440;0;3581;16928
1;92;1572110852346;1572110858595;6249;18715549324;42779631471;224773160;95374550;7446623943;142359232;324425341;527;2;1042064;8;3428;12549
1;93;1572110858595;1572110864893;6298;18758188770;42768596440;224997490;95999744;7443632762;142349608;324419267;880;2;1053680;19;6298;163091
1;94;1572110864893;1572110871240;6347;18705008270;42763147086;224585545;95092055;7442779202;142217448;324240781;576;6;1115296;-27;4033;57586
1;95;1572110871240;1572110877467;6227;18680853592;42771336480;224068092;93421027;7444707769;142313201;324246229;518;0;1056000;0;3161;12020
1;96;1572110877467;1572110883718;6251;18699111330;42768397558;223500791;94873604;7444249300;142291254;324082307;642;44;1069304;0;3697;20733
1;97;1572110883719;1572110890124;6405;18721751404;42765926678;223287017;95651500;7443440980;142288176;324173886;516;0;1056000;0;3399;11171
1;98;1572110890124;1572110896864;6740;18752466008;42770179683;224101280;95440678;7444698920;142405972;324215025;516;0;1056000;0;3380;11698
1;99;1572110896864;1572110903149;6285;18714030194;42765882399;223873271;94838922;7443355890;142302790;324369467;603;0;1056920;0;3480;19247
1;100;1572110903149;1572110909397;6248;18698332566;42762781952;222610385;94233311;7442721227;142349222;324226223;516;0;1056000;0;3151;11909
1;101;1572110909397;1572110915623;6226;18680155274;42761244442;223194951;93744008;7442213376;142311895;324161440;626;56;1071128;0;3685;20701
1;102;1572110915623;1572110921936;6313;18683920176;42765387789;222431727;93519926;7443174680;142258210;324259706;517;0;1056000;0;3383;10997
1;103;1572110921936;1572110928092;6156;18432325092;42771466537;221973138;93456152;7444870481;142347242;324641164;518;0;1056000;0;3287;11760
1;104;1572110928093;1572110934204;6111;18444779622;42766818898;222122325;93560226;7443663671;142242290;324735806;519;0;1056008;0;3101;11643
1;105;1572110934204;1572110940498;6294;18445010594;42772174711;223527298;93786460;7444939449;142350715;324688031;516;0;1056000;0;3071;11681
1;106;1572110940498;1572110946772;6274;18434907248;42766334221;224488982;93391205;7443593908;142320391;324877626;628;45;1068912;0;3725;20453
1;107;1572110946772;1572110952927;6155;18467121418;42763675053;223733588;94382264;7442735588;142282233;324807514;518;0;1056000;0;3367;10898
1;108;1572110952927;1572110959089;6162;18442248712;42766919523;223680738;93806779;7443766552;142309110;324815998;518;0;1055992;0;3283;11805
1;109;1572110959089;1572110965382;6293;18466877014;42769160937;224126978;93669971;7444454335;142431353;324907471;520;1;1056008;0;3187;11879
1;110;1572110965382;1572110971478;6096;18454334738;42768540669;224026983;94632508;7444104043;142345085;324755150;580;46;1056768;2;3169;13586
1;111;1572110971478;1572110977590;6112;18464897400;42764560343;223694580;94551140;7443132673;142244454;324607848;533;0;1066616;-2;3645;16610
1;112;1572110977590;1572110983782;6192;18500199032;42763264002;223646299;95393275;7442591268;142317223;324754129;518;0;1055992;0;3350;10774
2;64;1572111532128;1572111538297;6169;18376523016;42603158829;217071506;93301540;7442845215;142105364;325876718;511;0;1056000;0;3370;11339
2;65;1572111538297;1572111545217;6920;18386982164;42601539669;217989414;94579468;7442430012;142148778;325949294;512;1;1056016;-5;3203;11948
2;66;1572111545217;1572111551750;6533;18425168026;42597057480;218451816;94960283;7441320815;142185250;325931802;510;0;1055984;5;3188;11636
2;67;1572111551751;1572111557918;6167;18437561382;42598420969;217451313;95135844;7441406007;142072988;325780626;600;38;1067768;-5;3641;17583
2;68;1572111557918;1572111564104;6186;18490234678;42605410626;217869933;96624785;7443552593;142205322;325814027;512;0;1056000;5;3362;10732
2;69;1572111564105;1572111570248;6143;18472634816;42598273220;217756589;96440480;7441477075;142084452;325718351;511;0;1056000;0;3288;11531
2;70;1572111570248;1572111576425;6177;18493475002;42598405081;218218944;96646663;7441554150;142150955;325768450;514;0;1056024;-5;3174;11827
2;71;1572111576425;1572111582583;6158;18408404452;42606109588;217263369;94420582;7443578989;142134085;325743081;512;0;1056000;5;3150;11930
2;72;1572111582583;1572111588735;6152;18392379930;42598695884;217179514;93898078;7441785052;142123227;325781509;613;46;1068600;-5;3771;21703
2;73;1572111588735;1572111594857;6122;18414722310;42594429943;217090024;94274509;7440217448;141960169;325801665;512;0;1055984;5;3347;10688
2;74;1572111594857;1572111601088;6231;18418316976;42606811540;217498035;94755965;7443685118;142255683;325791913;512;0;1056000;0;3303;11506
2;75;1572111601088;1572111607246;6158;18443512342;42605609052;217552044;95808640;7443506537;142120370;325724148;514;0;1056024;0;3168;11728
2;76;1572111607247;1572111613421;6174;18449147504;42598063847;217876471;96131498;7441481492;142090799;325696282;512;0;1056000;0;3123;11757
2;77;1572111613421;1572111619621;6200;18497310422;42599947226;217730512;96722414;7441829747;142048728;325914400;634;39;1067896;0;3736;21146
2;78;1572111619621;1572111625783;6162;18408650170;42610102435;216679804;94616394;7444774888;142207554;326082152;513;1;1056000;-5;3398;10955
2;79;1572111625783;1572111631953;6170;18414827868;42602769436;216496383;94373995;7442646773;142112457;326202866;514;0;1056000;5;3339;11727
2;80;1572111631953;1572111638116;6163;18393364262;42605640850;216110776;93636606;7443419974;142150611;326145148;516;0;1056016;0;3132;11607
2;81;1572111638116;1572111644283;6167;18388844248;42592906780;216265051;94405975;7439794143;141966464;326003468;514;0;1056000;0;3169;11984
2;82;1572111644283;1572111650477;6194;18479679024;42596208524;217348840;96918056;7440728828;142109988;326089384;650;46;1073784;0;4038;39720
2;83;1572111650477;1572111656646;6169;18421300194;42594966483;219025668;95529311;7440585709;142072962;326095775;514;0;1056000;0;3388;10967
2;84;1572111656646;1572111662843;6197;18428781380;42597892644;218690073;94497939;7441226772;142080150;326206913;513;1;1056000;0;3286;11549
2;85;1572111662843;1572111669072;6229;18459432182;42600915225;219733993;95814110;7442241485;142123487;325992871;515;1;1056016;0;3123;11601
2;86;1572111669072;1572111675279;6207;18516192018;42600120589;220217236;97285192;7441823564;142099271;326194046;551;22;1062368;118;3190;13640
2;87;1572111675279;1572111681475;6196;18409847516;42597334844;219330246;95657207;7441186860;142185581;326312753;642;0;1063056;-118;3766;27579
2;88;1572111681475;1572111687674;6199;18425610552;42608278215;220063011;95312721;7444207495;142178028;326276858;514;1;1056000;0;3330;10623
2;89;1572111687674;1572111693859;6185;18504044526;42597379370;220982828;96676989;7441133748;142035177;326395010;515;0;1055992;0;3295;11700
2;90;1572111693859;1572111700086;6227;18482492444;42602179644;220699902;97027807;7442432153;142110552;326273301;516;0;1056024;0;3189;11849
2;91;1572111700086;1572111706327;6241;18504526910;42602975117;221244391;97136370;7442773906;142137101;326317139;592;49;1035808;17;3322;16283
2;92;1572111706327;1572111712543;6216;18451812734;42605556900;220605375;95608246;7443474546;142266561;326140078;535;2;1087728;-17;3667;17052
2;93;1572111712543;1572111718886;6343;18464006216;42595355988;222575610;96004674;7440709175;142250123;326541423;848;1;1067048;10;5968;93372
2;94;1572111718886;1572111725414;6528;18417729910;42597841554;218291424;94953460;7441409430;142067765;326012948;622;7;1088024;-10;4530;64903
2;95;1572111725414;1572111731587;6173;18418010376;42606038726;217831580;94735691;7443341462;142161972;326038464;515;1;1056000;0;3179;11842
2;96;1572111731587;1572111737790;6203;18442524652;42605653141;218649110;94595468;7443220436;142103525;326033979;669;35;1068912;0;3709;31396
2;97;1572111737791;1572111743948;6157;18416953190;42603353569;216901019;94861239;7442087161;142214473;325978197;522;1;1056048;0;3303;10414
2;98;1572111743948;1572111750142;6194;18451216616;42607525090;217397175;95003676;7443314057;142221800;326040500;517;0;1056000;0;3351;10900
2;99;1572111750142;1572111756270;6128;18411607254;42603197045;216969723;94269667;7441969115;142093944;326006814;598;0;1056792;-5;3534;18411
2;100;1572111756270;1572111762377;6107;18432055576;42600178353;217139637;94537496;7441353857;142077942;325957216;517;0;1056000;0;3233;12687
2;101;1572111762377;1572111768545;6168;18433042974;42598570348;217415658;95139378;7440825855;142158265;325964003;641;51;1069168;6;3678;26512
2;102;1572111768545;1572111774737;6192;18451733894;42602708617;217856089;94951301;7441792082;142166984;326016322;521;1;1056048;0;3343;10393
2;103;1572111774737;1572111780820;6083;18272768116;42608798409;217404256;94913658;7443486629;142174166;326121759;518;0;1056000;0;3372;11078
2;104;1572111780821;1572111786942;6121;18270193552;42604222407;217976898;94512714;7442295751;142069554;326219438;518;0;1056000;-6;3225;11663
2;105;1572111786942;1572111792997;6055;18287277742;42609549037;217108998;94834100;7443560963;142088452;326165096;518;0;1056000;0;3152;12039
2;106;1572111792997;1572111799092;6095;18268030562;42603768156;217147789;95126082;7442231892;142064165;326115169;609;49;1057744;11;3661;24085
2;107;1572111799092;1572111805199;6107;18284623900;42601136843;216975454;94596634;7441386131;142082827;326212043;528;1;1066608;-5;3384;11267
2;108;1572111805199;1572111811344;6145;18303125750;42604222806;217140574;95918564;7442373748;142102206;326069386;519;0;1055992;0;3408;11187
2;109;1572111811344;1572111817521;6177;18382242128;42606509883;217996624;97461913;7443075025;142216390;326195087;519;0;1056008;0;3240;11678
2;110;1572111817521;1572111823619;6098;18292772452;42605931990;216785899;95703857;7442732466;142137153;326022077;519;0;1056000;-6;3111;11753
2;111;1572111823619;1572111829700;6081;18317349362;42602024147;219831417;95747164;7441780908;142074085;326089522;608;55;1057360;13;3569;25574
2;112;1572111829700;1572111835809;6109;18290489450;42600551637;220255088;95906558;7441195865;142051186;326086781;530;1;1070496;-7;3445;11662
2;113;1572111835810;1572111841922;6112;18301570850;42601790682;220643014;96745653;7441732454;142164131;326037354;519;0;1055992;0;3368;10969
3;65;1572112392044;1572112398140;6096;18232918438;42506991025;215963394;92919998;7364278345;142002348;323670562;508;0;1056008;-5;3169;11800
3;66;1572112398140;1572112404256;6116;18243458470;42502405596;216110724;92670822;7363142042;142100610;323809709;508;0;1055984;5;3193;11941
3;67;1572112404256;1572112410351;6095;18241594196;42504100401;216087945;93141654;7363306656;142093894;323765916;596;38;1067584;-5;3721;18971
3;68;1572112410351;1572112416463;6112;18289312690;42510842649;214364253;93391673;7365398259;142252799;323547943;509;0;1056000;5;3335;10780
3;69;1572112416463;1572112422571;6108;18303556596;42503567513;214605083;94698969;7363289630;142095056;323549070;509;1;1056000;-1;3375;11503
3;70;1572112422571;1572112428708;6137;18377489536;42503859430;215038677;95898216;7363401845;142175352;323565928;511;0;1056016;1;3126;11637
3;71;1572112428709;1572112434842;6133;18280182580;42511596517;214202983;93836923;7365441712;142215545;323664814;511;0;1056000;0;3144;11800
3;72;1572112434842;1572112440982;6140;18268900430;42504074182;214264162;93633378;7363619256;142202601;323563456;631;32;1067512;0;3711;22679
3;73;1572112440982;1572112447107;6125;18235727624;42499874465;213887615;93129326;7362072040;141949933;323612548;508;0;1055984;0;3314;10549
3;74;1572112447107;1572112453249;6142;18249218900;42511982107;214252568;92990434;7365519639;142229431;323553949;508;0;1056000;0;3371;11418
3;75;1572112453249;1572112459321;6072;18297130698;42510837959;214146321;93694796;7365362611;142182215;323641917;511;0;1056016;0;3165;11872
3;76;1572112459321;1572112465393;6072;18271198616;42503318283;213774928;93363506;7363338570;142076324;323438363;508;0;1056000;0;3207;12167
3;77;1572112465394;1572112471556;6162;18338206776;42505203592;215103358;95267899;7363691027;142054285;323678925;622;32;1067648;0;3703;20228
3;78;1572112471557;1572112477665;6108;18310528096;42515059744;213899397;94559154;7366575423;142207297;323526273;509;0;1056000;0;3350;10735
3;79;1572112477665;1572112483733;6068;18288437274;42507948126;213606796;93091917;7364484491;142056676;323780676;508;0;1056000;0;3395;11505
3;80;1572112483733;1572112489830;6097;18271222706;42510946783;213438714;93489051;7365294636;142076669;323762701;511;0;1056016;-5;3069;11319
3;81;1572112489830;1572112495904;6074;18284259922;42498159755;213665185;93313402;7361652495;141944829;323851009;509;0;1056000;0;3124;11772
3;82;1572112495904;1572112501971;6067;18273688938;42501398195;213515672;93506934;7362573317;142032124;323639097;615;50;1069712;0;3821;23110
3;83;1572112501972;1572112508124;6152;18310330996;42500184960;214018013;94029386;7362434937;142011585;323719746;514;0;1056040;5;3437;11501
3;84;1572112508124;1572112514254;6130;18280046946;42503092562;213611969;93611702;7363076922;142049922;323764583;510;0;1056000;0;3374;11433
3;85;1572112514254;1572112520383;6129;18290442876;42506087831;213667250;93952872;7364084321;142130645;323693217;512;0;1056016;0;3104;11459
3;86;1572112520384;1572112526493;6109;18326767384;42505234955;214094174;95436157;7363645503;142050319;323726074;511;0;1056000;0;3095;11490
3;87;1572112526493;1572112532633;6140;18292451690;42502447761;214457054;94753610;7363006466;142147034;323545129;603;53;1069864;0;3751;20509
3;88;1572112532633;1572112538786;6153;18312917824;42513444143;214091798;93879169;7366050546;142195116;323700113;516;0;1056048;0;3310;10560
3;89;1572112538787;1572112544871;6084;18267724546;42502653082;214129265;93106188;7362998020;141978261;323662947;510;0;1055992;-5;3343;11327
3;90;1572112544871;1572112550993;6122;18306687712;42507506870;214521114;93745908;7364312810;142098315;323712726;511;0;1056016;5;3143;11594
3;91;1572112550994;1572112557131;6137;18276679748;42508230757;214357728;93962666;7364631414;142125772;323893636;512;0;1055992;0;3067;11329
3;92;1572112557131;1572112563276;6145;18285827524;42510817929;214306948;93552823;7365328928;142219610;323819185;594;40;1067280;0;3581;16643
3;93;1572112563276;1572112569337;6061;18273368760;42500580155;213469055;93609390;7362557518;142064254;323651748;518;0;1056040;-5;3370;10995
3;94;1572112569337;1572112575793;6456;18283248288;42503046624;214068307;93224081;7363261343;142041290;323570979;512;0;1056000;5;3402;11687
3;95;1572112575793;1572112581896;6103;18315476328;42511232834;213786413;93741653;7365191332;142145730;323918521;515;0;1056024;-5;3098;11537
3;96;1572112581896;1572112587989;6093;18305743822;42508289755;214258625;94919107;7364734329;142128818;323578607;797;5;1067744;12;5396;69161
3;97;1572112587989;1572112594094;6105;18362152966;42505831206;215236168;95827344;7363927599;142074050;323718315;787;55;1099672;-7;4931;52050
3;98;1572112594094;1572112600220;6126;18300549726;42510107845;214792578;94287168;7365186025;142179659;323604999;521;0;1056040;-5;3320;10849
3;99;1572112600220;1572112606315;6095;18326310696;42505738938;214030188;94490592;7363827475;142097889;323500934;514;0;1055992;5;3312;11310
3;100;1572112606315;1572112612442;6127;18275893684;42502645524;214434385;93827940;7363191924;142120697;323688233;522;0;1056056;0;3207;11996
3;101;1572112612442;1572112618553;6111;18289579432;42501127933;215296372;93708748;7362691426;142151618;323625376;514;0;1056000;0;3190;12037
3;102;1572112618554;1572112624646;6092;18293734300;42505223283;214778415;93450156;7363649453;142131073;323893239;628;34;1067440;0;3659;22232
3;103;1572112624646;1572112630743;6097;18438831874;42511379736;213721432;93930375;7365358284;142193389;323353815;600;2;1056832;0;3661;18872
3;104;1572112630743;1572112636913;6170;18423906878;42506654123;214321515;94588885;7364136025;142144493;323373180;515;0;1055992;0;3398;11624
3;105;1572112636913;1572112643083;6170;18415483408;42512040533;214444851;94378954;7365415312;142212647;323301397;519;0;1056016;0;3098;11489
3;106;1572112643083;1572112649265;6182;18432801636;42506232103;214458149;94333807;7364076730;142148439;323236061;517;0;1056000;0;3180;11938
3;107;1572112649265;1572112655400;6135;18315483044;42504959896;214542734;94007935;7363461608;142095387;324788013;624;47;1070704;0;3843;24216
3;108;1572112655400;1572112661534;6134;18221874560;42506943049;214552139;93791683;7364277154;142172801;325851118;520;0;1056024;0;3316;10677
3;109;1572112661534;1572112667658;6124;18239070586;42509198441;215050083;95352479;7364975008;142283656;325797451;516;0;1055992;0;3353;11380
3;110;1572112667658;1572112673765;6107;18287724502;42508504322;215582677;95596985;7364601871;142244453;325843336;520;1;1056024;0;3194;12150
3;111;1572112673765;1572112679802;6037;18207852282;42504554520;214351354;94084436;7363638900;142120981;325607386;517;0;1056000;-5;3184;12128
3;112;1572112679802;1572112685869;6067;18226914334;42503127399;214482062;93881164;7363067886;142088778;325760989;623;54;1074472;5;3845;27714
3;113;1572112685869;1572112691958;6089;18197028426;42504449145;214839765;94009286;7363636148;142173530;325971059;522;0;1056024;0;3347;10815
3;114;1572112691958;1572112698067;6109;18201660276;42508945966;214777019;94473228;7364892501;142207444;325880481;517;0;1056000;0;3348;11341
4;64;1572113234060;1572113240236;6176;18534759568;42798458918;227433889;97015012;7370409720;142395479;326389279;506;0;1056000;-4;3392;11451
4;65;1572113240237;1572113246430;6193;18529129516;42796022420;226940147;96103700;7369840034;142446240;326468993;507;0;1056000;0;3160;11710
4;66;1572113246430;1572113252593;6163;18498736112;42791470001;226448868;95609626;7368716797;142391042;326456882;506;0;1055984;5;3171;11795
4;67;1572113252593;1572113258764;6171;18530802968;42793124288;226718507;96040372;7368869132;142340480;326522191;586;46;1068032;0;3705;20044
4;68;1572113258765;1572113264903;6138;18525885104;42799926979;226721603;95986283;7370975497;142439466;326497189;509;0;1056000;0;3354;10965
4;69;1572113264903;1572113271121;6218;18558406604;42792634090;227423186;97369402;7368865315;142467462;326471639;508;0;1056000;0;3329;11461
4;70;1572113271121;1572113277260;6139;18555085688;42792885444;229424198;97295241;7368971151;142385138;326446463;510;0;1056016;0;3009;11076
4;71;1572113277260;1572113283470;6210;18559359984;42800673802;230893893;96833070;7371018972;142411758;326468972;508;0;1056000;-5;3108;11664
4;72;1572113283470;1572113289637;6167;18561011974;42793176029;230017188;97026411;7369207759;142434091;326424184;610;38;1067224;0;3666;16804
4;73;1572113289637;1572113295833;6196;18518655768;42788937614;230129834;96928002;7367642357;142224834;326479735;508;0;1055984;5;3343;10671
4;74;1572113295834;1572113302016;6182;18555121166;42801148331;230530656;96325825;7371130263;142501570;326454195;508;0;1056000;0;3291;11431
4;75;1572113302016;1572113308182;6166;18528068534;42799912453;228447577;96190821;7370942231;142490488;326400668;510;0;1056024;-5;3178;11983
4;76;1572113308183;1572113314388;6205;18528353964;42792392331;228686591;95812356;7368918499;142452320;326453207;508;0;1056000;1;3179;12015
4;77;1572113314388;1572113320566;6178;18517123206;42794354622;228454897;96187824;7369289758;142342446;326150985;599;40;1066680;4;3653;18082
4;78;1572113320566;1572113326778;6212;18559654466;42804161995;228529768;96316181;7372163204;142496406;326760661;508;0;1056000;0;3349;10770
4;79;1572113326778;1572113332999;6221;18518556342;42797034918;228081198;95892474;7370064088;142477147;326801855;509;0;1056000;0;3332;11531
4;80;1572113333000;1572113339150;6150;18528053350;42800005033;228138161;96079591;7370863766;142447588;326775160;512;0;1056016;0;3141;11751
4;81;1572113339150;1572113345399;6249;18606626316;42787239714;228677627;98348812;7367235053;142293634;326693140;510;0;1056000;0;3163;11946
4;82;1572113345399;1572113351641;6242;18557671348;42790478038;228591117;97482744;7368149932;142482093;326739142;614;50;1067320;0;3682;18748
4;83;1572113351641;1572113357875;6234;18536983294;42789271256;227923629;96488686;7368014287;142338939;326768261;510;0;1056000;0;3378;10818
4;84;1572113357875;1572113364056;6181;18560467540;42792173203;228401518;97254500;7368650268;142371293;326740962;510;0;1056000;0;3251;11348
4;85;1572113364056;1572113370250;6194;18618560794;42795151060;228624285;98641731;7369657135;142430030;326704283;511;0;1056008;0;3205;12202
4;86;1572113370250;1572113376443;6193;18525826558;42794304725;227952741;96585146;7369218337;142425647;326712494;514;0;1056000;0;3205;12327
4;87;1572113376443;1572113382633;6190;18511721206;42791524734;227680576;95945962;7368588031;142462958;326244402;631;25;1067320;0;3673;19448
4;88;1572113382633;1572113388814;6181;18520350682;42802531589;227891744;95588859;7371631886;142517467;326397720;516;0;1056000;0;3360;10929
4;89;1572113388814;1572113394968;6154;18493901906;42791757370;227829989;95390358;7368585434;142377640;326284993;516;0;1055992;0;3297;11803
4;90;1572113394968;1572113401156;6188;18528690640;42796599582;228018932;95665916;7369894287;142444628;326225506;518;0;1056016;0;3146;11973
4;91;1572113401156;1572113407331;6175;18516944940;42797341700;227399722;95770245;7370221653;142526865;326350890;516;0;1055992;0;3175;12154
4;92;1572113407331;1572113413550;6219;18544604932;42799933901;228364475;95566561;7370918113;142606588;326467022;587;40;1066488;0;3607;15650
4;93;1572113413550;1572113420097;6547;18529433196;42789730363;227459290;96653661;7368161868;142411831;326389578;516;0;1056000;0;3379;10942
4;94;1572113420097;1572113426381;6284;18582563764;42792149309;228492195;97399353;7368849400;142496497;326255738;617;4;1056128;6;4053;22102
4;95;1572113426381;1572113432832;6451;18566274398;42800288362;230241172;98648521;7370761084;142550418;326289565;849;9;1098912;-6;5707;37568
4;96;1572113432832;1572113439082;6250;18530458700;42797357837;228892210;97221921;7370308135;142441863;326137888;592;48;1036304;15;3345;18381
4;97;1572113439082;1572113445348;6266;18529573210;42794923129;229231530;97322690;7369513697;142444064;326135293;537;1;1087720;-15;3465;12189
4;98;1572113445348;1572113451598;6250;18518452536;42799189213;229623315;96553096;7370766835;142522771;326198724;517;0;1056000;0;3354;10911
4;99;1572113451598;1572113457863;6265;18539005102;42794825714;229751105;96308411;7369405941;142452185;326186293;580;1;1039624;8;3374;14203
4;100;1572113457863;1572113464176;6313;18499405376;42791734755;228570035;96475924;7368779173;142438483;326320895;525;0;1073024;-8;3275;13844
4;101;1572113464176;1572113471582;7406;18516071714;42790254086;229280604;98116192;7368283862;142444817;326209379;622;39;1068400;-5;3506;16742
4;102;1572113471583;1572113477841;6258;18536101454;42794307990;227190751;95904394;7369225514;142428553;326268680;531;3;1056216;5;3394;11525
4;103;1572113477841;1572113484068;6227;18513047324;42800450417;228358367;96614195;7370930047;142477557;326428977;519;0;1056000;0;3349;11276
4;104;1572113484068;1572113490289;6221;18579842324;42795734402;228389237;98497324;7369716792;142405960;326416939;517;1;1056000;0;3192;11921
4;105;1572113490289;1572113496456;6167;18546365692;42801110028;228123033;97938834;7370988984;142426265;326433155;518;0;1056000;0;3156;12085
4;106;1572113496456;1572113502847;6391;18529092286;42795321861;228177053;97429914;7369652675;142368103;326308241;614;65;1069584;0;3821;20949
4;107;1572113502847;1572113509008;6161;18554451318;42794481078;228849033;97992034;7369090077;142352049;326520544;519;3;1056048;0;3280;10763
4;108;1572113509008;1572113515220;6212;18549785742;42795987207;228565882;97798606;7369848533;142427639;326393585;514;0;1055992;0;3424;11517
4;109;1572113515220;1572113521469;6249;18605292898;42798263045;229586891;98075533;7370545626;142562626;326448866;516;0;1056000;0;3188;12078
4;110;1572113521469;1572113527660;6191;18568528346;42797588179;228951729;98040237;7370180569;142428935;326405906;514;0;1056000;0;3217;12272
4;111;1572113527660;1572113533912;6252;18585812994;42793550567;229505190;98397375;7369194761;142396032;326479441;607;44;1067216;0;3658;17720
4;112;1572113533912;1572113540041;6129;18479352568;42792193876;228124605;96570646;7368649067;142320930;326399836;519;1;1056032;0;3281;10769
4;113;1572113540041;1572113546299;6258;18499003584;42793418972;227790450;96761695;7369177392;142401818;326418422;515;0;1055992;0;3370;11534
