0;17;1572153626601;1572153637279;10678;33840040600;4077375218;1128743843;731058442;889865587;129406729;408622730;0;0;0;0;0;0
0;18;1572153637279;1572153647919;10640;33729502394;4077358186;1129036349;728554273;889861778;129440394;409549187;36;8;5264;0;92;364
0;19;1572153647919;1572153658553;10634;33711254876;4077375179;1129558597;727540137;889865548;129433810;409251751;5;0;40;0;1;5
0;20;1572153658554;1572153669204;10650;33783672482;4077359379;1129498087;729195675;889862096;129443182;409813741;0;0;0;0;0;0
0;21;1572153669205;1572153679838;10633;33707535380;4077375187;1128252324;727767717;889865556;129456469;408252553;6;6;96;0;9;28
0;22;1572153679838;1572153690497;10659;33794513274;4077361487;1129620000;729505840;889862520;129512034;408927992;23;12;5464;0;85;210
0;23;1572153690497;1572153701166;10669;33819368314;4077375214;1129525304;730212242;889865583;129417462;408865132;0;0;0;0;0;0
0;24;1572153701166;1572153711871;10705;33942229358;4077359426;1131107706;733392634;889862143;129433910;409945114;5;0;40;0;1;5
0;25;1572153711871;1572153722527;10656;33751189234;4077369658;1128678582;729787837;889863905;129417612;408715205;6;6;96;0;1;6
0;26;1572153722527;1572153733206;10679;33843765498;4077359404;1129837480;730816975;889862121;129417275;409944460;9;5;112;0;3;9
0;27;1572153733206;1572153743878;10672;33833193054;4077375224;1129953046;732070394;889865593;129430545;408429441;28;12;5200;0;103;290
0;28;1572153743878;1572153754514;10636;33718886880;4077359358;1128926096;728494451;889862075;129451749;409657272;0;0;0;0;0;0
0;29;1572153754514;1572153765173;10659;33785206650;4077371099;1127888727;728541691;889864246;129426878;408778225;10;2;96;0;3;21
0;30;1572153765173;1572153775813;10640;33716062364;4077345641;1128916363;728826756;889859022;129411198;410304299;0;0;0;0;0;0
0;31;1572153775814;1572153786463;10649;33749057342;4077345650;1130416330;729243432;889859031;129499879;410081701;6;3;96;0;1;6
0;32;1572153786463;1572153797111;10648;33749745586;4077345974;1129494766;728828576;889859103;129454376;410112299;30;18;5360;0;86;227
0;33;1572153797111;1572153807790;10679;33862433204;4077361716;1128684715;732335072;889862613;129423896;408724026;0;0;0;0;0;0
0;34;1572153807791;1572153818471;10680;33858878104;4077361509;1129223835;731608545;889862542;129437363;410073714;0;0;0;0;0;0
0;35;1572153818471;1572153829152;10681;33847123352;4077372010;1128917140;730797194;889864437;129519880;409644054;37;12;5360;0;105;302
0;36;1572153829152;1572153839801;10649;33772281416;4077375730;1128608660;730664934;889865711;129444983;409568889;0;0;0;0;0;0
0;37;1572153839801;1572153850442;10641;33750632682;4077375195;1128408584;729467490;889865564;129454155;408597093;1;0;8;0;0;0
0;38;1572153850442;1572153861097;10655;33791552102;4077359703;1128833229;729616373;889862172;129426908;408928920;10;2;96;0;2;13
0;39;1572153861097;1572153871757;10660;33792257720;4077375211;1129697647;729962717;889865580;129434556;408872198;6;3;96;0;1;6
0;40;1572153871757;1572153882420;10663;33787002012;4077369668;1130593018;729034849;889863915;129423125;410157564;18;14;5072;0;95;127
0;41;1572153882420;1572153893074;10654;33763639238;4077359453;1129539699;728346187;889862170;129418826;409727129;0;0;0;0;0;0
0;42;1572153893074;1572153903776;10702;33921157908;4077359610;1129196131;732788222;889862327;129437181;409186831;9;3;96;0;2;13
0;43;1572153903777;1572153914447;10670;33796167016;4077375400;1128522569;729622804;889865769;129403513;409387092;30;8;5072;0;99;293
0;44;1572153914447;1572153925116;10669;33803080116;4077375394;1128856720;729246707;889865763;129450723;409050656;1;0;8;0;0;0
0;45;1572153925116;1572153935790;10674;33814086034;4077359574;1128000296;730941309;889862291;129426259;409596330;4;0;40;0;1;4
0;46;1572153935791;1572153946447;10656;33748394648;4077361667;1128210848;728626564;889862700;129468639;408783541;0;0;0;0;0;0
0;47;1572153946447;1572153957105;10658;33770564894;4077375204;1130048166;729063640;889865573;129415379;408968081;30;16;5168;0;81;216
0;48;1572153957105;1572153967765;10660;33773314804;4077359611;1131140494;729359085;889862138;129417595;410353735;0;0;0;0;0;0
0;49;1572153967765;1572153978466;10701;33733816402;4077357926;1129538161;728939471;889861735;129414867;409886930;32;15;4592;0;90;654
0;50;1572153978466;1572153989143;10677;33790121886;4077359725;1129742164;729266620;889862442;129417583;409795925;0;0;0;0;0;0
0;51;1572153989143;1572153999840;10697;33884495702;4077359596;1128984908;731481784;889862313;129396920;409116880;0;0;0;0;0;0
0;52;1572153999840;1572154010516;10676;33795142096;4077375426;1128777269;729564572;889865795;129429421;409486460;33;15;5440;0;88;267
0;53;1572154010516;1572154021366;10850;33916882444;4077367403;1130025638;732696521;889864006;129492478;410224194;479;14;48720;0;1461;1929
0;54;1572154021366;1572154032041;10675;33799150234;4077361639;1128737033;730386204;889862672;129423703;409768152;2;0;16;0;1;1
0;55;1572154032041;1572154042688;10647;33715777226;4077359360;1129452007;729376390;889862077;129425134;409101803;79;11;896;0;51;1732
0;56;1572154042688;1572154053359;10671;33804540262;4077375206;1129536527;731295204;889865575;129407296;409202003;32;20;6480;0;108;358
0;57;1572154053359;1572154064047;10688;33864769934;4077361703;1130014600;734233388;889862619;129415331;410311964;0;0;0;0;0;0
0;58;1572154064047;1572154074797;10750;34072725618;4077346752;1129971658;733200733;889859297;129542541;409232279;5;0;40;0;1;5
0;59;1572154074797;1572154085479;10682;33827959392;4077345675;1128904492;730801111;889859052;129402072;409253822;0;0;0;0;0;0
0;60;1572154085479;1572154096165;10686;33847730274;4077361727;1129646182;732032848;889862624;129402802;410091313;6;6;96;0;1;6
0;61;1572154096165;1572154106862;10697;33874610042;4077361721;1130374697;732638600;889862618;129407103;410016147;42;16;5488;0;95;379
0;62;1572154106862;1572154117556;10694;33877806420;4077361715;1130395889;732233824;889862612;129437832;409219348;0;0;0;0;0;0
0;63;1572154117556;1572154128249;10693;33887455414;4077345699;1130154769;732371775;889859080;129470260;409356580;0;0;0;0;0;0
0;64;1572154128249;1572154138905;10656;33760933712;4077359691;1128957441;730350718;889862160;129423595;409558945;9;3;96;0;2;11
0;65;1572154138905;1572154149566;10661;33778381880;4077375734;1129150274;730113428;889865715;129425468;410311776;6;2;96;0;1;6
0;66;1572154149566;1572154160263;10697;33900739370;4077346026;1129258957;731360616;889859155;129406953;409262280;0;0;0;0;0;0
1;17;1572154456583;1572154467244;10661;33789511606;3994391876;1127486994;728191678;886724359;130256991;409096360;62;7;5728;0;109;659
1;18;1572154467244;1572154477915;10671;33810712558;3994374898;1126932401;728059059;886720574;130264079;410915341;2;0;16;0;9;9
1;19;1572154477915;1572154488626;10711;33923780360;3994391916;1123913920;728767549;886724399;130287560;408709521;0;0;0;0;0;0
1;20;1572154488626;1572154499299;10673;33808633956;3994376169;1125056879;725684441;886720951;130285835;409301351;44;14;5488;0;101;445
1;21;1572154499299;1572154510000;10701;33915695026;3994376128;1125815685;729475602;886720907;130283922;410146586;0;0;0;0;0;0
1;22;1572154510000;1572154520661;10661;33781835510;3994376093;1124310820;725822094;886720872;130293737;410305895;12;0;96;0;2;24
1;23;1572154520661;1572154531325;10664;33792783758;3994376088;1123317104;725746724;886720870;130303560;408567407;0;0;0;0;0;0
1;24;1572154531325;1572154542003;10678;33851477510;3994376117;1123966659;726370419;886720899;130314984;409530425;63;12;5752;0;123;641
1;25;1572154542004;1572154552667;10663;33775227842;3994402146;1124647557;724943799;886726159;130301455;409375357;0;0;0;0;0;0
1;26;1572154552667;1572154563316;10649;33736475646;3994376076;1123593267;723695737;886720858;130281115;410396451;0;0;0;0;0;0
1;27;1572154563316;1572154573967;10651;33743371226;3994391866;1124006508;723521379;886724349;130279279;409318222;48;6;5472;0;91;447
1;28;1572154573967;1572154584624;10657;33770476856;3994362115;1124008096;724713453;886717819;130276847;409142903;2;0;16;0;1;1
1;29;1572154584624;1572154595289;10665;33771035598;3994387493;1124390393;723816221;886723012;130263192;410030655;0;0;0;0;0;0
1;30;1572154595289;1572154605948;10659;33784367734;3994362119;1123908896;725439814;886717823;130291093;409360949;6;6;96;0;2;8
1;31;1572154605948;1572154616650;10702;33931875476;3994362180;1123138451;728474916;886717884;130303507;409237551;42;16;5488;0;95;375
1;32;1572154616650;1572154627339;10689;33881149966;3994362465;1124718767;726857585;886717918;130304422;410152220;0;0;0;0;0;0
1;33;1572154627340;1572154638021;10681;33868889908;3994378323;1123978686;727493144;886721390;130285888;409104097;0;0;0;0;0;0
1;34;1572154638021;1572154648702;10681;33843092876;3994377934;1124761841;727031542;886721339;130277238;409282231;45;8;5432;0;93;429
1;35;1572154648702;1572154659372;10670;33765326706;3994397851;1122873852;724035362;886724808;130269490;409395826;3;0;24;0;9;9
1;36;1572154659372;1572154670040;10668;33807621008;3994392603;1123900036;724301854;886724497;130261250;409798212;0;0;0;0;0;0
1;37;1572154670040;1572154680716;10676;33848792716;3994391893;1124666963;725914685;886724376;130257378;408820525;3;2;40;0;1;1
1;38;1572154680716;1572154691403;10687;33854231362;3994376128;1125322368;727084510;886720910;130249665;410000092;30;12;5280;0;79;247
1;39;1572154691403;1572154702068;10665;33783834104;3994376087;1124944892;724769402;886720869;130273412;409748778;0;0;0;0;0;0
1;40;1572154702068;1572154712775;10707;33909004430;3994385399;1125167218;727214336;886722541;130284233;409073588;5;0;40;0;1;5
1;41;1572154712775;1572154723470;10695;33909548864;3994391907;1125787755;729011286;886724390;130249796;409655682;2;0;16;0;0;0
1;42;1572154723470;1572154734167;10697;33919754410;3994376123;1124019367;729515090;886720905;130262094;409933790;0;0;0;0;0;0
1;43;1572154734167;1572154744868;10701;33904321772;3994391921;1123641538;728887128;886724404;130253581;408675837;34;12;5504;0;84;257
1;44;1572154744868;1572154755584;10716;33961966952;3994391921;1124780773;730382673;886724404;130284099;408961862;1;0;8;0;0;0
1;45;1572154755584;1572154766223;10639;33702048262;3994376058;1123848937;724539511;886720840;130255128;408903679;6;0;48;0;1;6
1;46;1572154766223;1572154776888;10665;33808724914;3994376097;1125392891;726028698;886720879;130274960;410527234;0;0;0;0;0;0
1;47;1572154776888;1572154787574;10686;33875915720;3994376115;1124894724;726841321;886720897;130239854;409866337;51;10;5720;0;109;555
1;48;1572154787574;1572154798241;10667;33800019956;3994376093;1124809553;725763590;886720875;130243163;408960201;7;0;56;0;1;7
1;49;1572154798241;1572154808899;10658;33739221614;3994390392;1124193016;724278489;886723978;130269159;408670070;0;0;0;0;0;0
1;50;1572154808899;1572154819582;10683;33851086668;3994391968;1125226643;726727769;886724451;130265139;409229987;5;7;96;0;1;5
1;51;1572154819582;1572154830300;10718;33858670200;3994374826;1123669023;726839351;886720692;130284743;409990842;38;10;5456;0;84;366
1;52;1572154830300;1572154840994;10694;33918532390;3994378049;1125489385;728946485;886721428;130309949;410282129;465;10;47408;0;1448;1780
1;53;1572154840994;1572154851666;10672;33848076148;3994391881;1124355263;726510329;886724364;130278444;408824886;6;0;48;0;1;6
1;54;1572154851666;1572154862337;10671;33810951560;3994376089;1124316503;726298846;886720871;130288760;410317794;2;0;16;0;1;1
1;55;1572154862338;1572154872963;10625;33650009190;3994376047;1124495881;722985449;886720829;130316710;409978435;125;18;7016;0;147;1795
1;56;1572154872963;1572154883602;10639;33696937240;3994376067;1124241349;722967998;886720849;130287801;408781864;0;0;0;0;0;0
1;57;1572154883602;1572154894257;10655;33757656158;3994391861;1123929277;724570998;886724344;130278737;408615905;1;0;8;0;0;0
1;58;1572154894257;1572154904917;10660;33725319348;3994376491;1124685614;724243114;886720980;130250676;409402945;57;16;6408;0;120;594
1;59;1572154904917;1572154915595;10678;33812485874;3994362439;1124896602;725483226;886717892;130261698;410274402;0;0;0;0;0;0
1;60;1572154915595;1572154926283;10688;33878570876;3994362785;1124771643;727273344;886717987;130284496;410443143;0;0;0;0;0;0
1;61;1572154926284;1572154936933;10649;33744573244;3994362422;1124112645;724889708;886717875;130275075;409938319;32;14;5328;0;80;224
1;62;1572154936933;1572154947605;10672;33810914622;3994378225;1123318056;726179835;886721376;130296032;408853574;0;0;0;0;0;0
1;63;1572154947605;1572154958293;10688;33858308558;3994362135;1125173096;727597487;886717839;130300984;409299954;0;0;0;0;0;0
1;64;1572154958293;1572154968976;10683;33840857470;3994392620;1125017481;726949356;886724511;130273164;410214431;41;18;5384;0;96;381
1;65;1572154968976;1572154979643;10667;33779138452;3994376088;1123985763;725581639;886720870;130265379;408994486;0;0;0;0;0;0
1;66;1572154979643;1572154990273;10630;33664830088;3994377857;1123930415;721950758;886721262;130293755;408868298;1;0;8;0;0;0
2;17;1572155287352;1572155298057;10705;33863949706;4007774879;1131548067;730315516;889867977;129994844;409791972;0;0;0;0;0;0
2;18;1572155298057;1572155308736;10679;33787762964;4007774854;1131920960;728316659;889867952;130027580;410373019;44;6;4552;0;185;519
2;19;1572155308736;1572155319548;10812;33901635518;4007790656;1131855647;729466361;889871455;130003589;409275465;1;0;8;0;0;0
2;20;1572155319548;1572155330254;10706;33898751872;4007805044;1132304500;729843801;889874583;130016085;410244737;0;0;0;0;0;0
2;21;1572155330254;1572155340960;10706;33852530024;4007804625;1133685523;730697199;889874502;129974079;411195634;61;13;5488;0;126;695
2;22;1572155340960;1572155351658;10698;33850934098;4007788845;1131605445;729213785;889871021;129986403;409407580;0;0;0;0;0;0
2;23;1572155351658;1572155362364;10706;33884566512;4007788858;1130767201;729098926;889871034;130024382;409649903;0;0;0;0;0;0
2;24;1572155362364;1572155373082;10718;33930696234;4007788869;1132152649;730428822;889871045;130036061;409407729;89;9;7064;0;242;1095
2;25;1572155373082;1572155383775;10693;33820227524;4007814211;1131118005;728712117;889876168;129994825;409104263;3;0;24;0;1;1
2;26;1572155383775;1572155394468;10693;33842908770;4007787386;1130745903;727645604;889870665;130000439;409490651;0;0;0;0;0;0
2;27;1572155394468;1572155405152;10684;33805611902;4007795609;1132234522;727501304;889872204;130002424;410384719;62;16;5808;0;134;647
2;28;1572155405152;1572155415814;10662;33752520316;4007790616;1131277839;725131010;889871415;130039311;409190833;0;0;0;0;0;0
2;29;1572155415814;1572155426495;10681;33790136048;4007784416;1131379630;725720466;889869617;129998847;409187690;0;0;0;0;0;0
2;30;1572155426495;1572155437178;10683;33834122490;4007774865;1131263957;728543890;889867963;129984014;409302029;4;0;64;0;1;4
2;31;1572155437178;1572155447850;10672;33778718556;4007775080;1129485374;726785243;889867988;129996531;409317347;8;0;64;0;1;8
2;32;1572155447850;1572155458549;10699;33861981042;4007774875;1131408906;727447951;889867973;130060261;409187122;4;8;96;0;1;2
2;33;1572155458549;1572155469232;10683;33821981276;4007775179;1131306733;728215975;889868026;129974951;410376826;60;4;5648;0;152;817
2;34;1572155469232;1572155479934;10702;33881883616;4007790657;1131613432;729988294;889871456;130034778;409585128;0;0;0;0;0;0
2;35;1572155479934;1572155490637;10703;33860532138;4007800629;1129636537;728025332;889873190;130037213;409559665;4;0;32;0;1;4
2;36;1572155490637;1572155501348;10711;33917448340;4007805368;1131651265;728736429;889874656;130014489;410281171;54;10;5648;0;135;644
2;37;1572155501348;1572155512038;10690;33857840628;4007804624;1131180632;729007786;889874501;130071730;409192919;4;0;32;0;1;2
2;38;1572155512038;1572155522687;10649;33708374150;4007788793;1131994411;725816010;889870969;130031298;409925621;6;6;96;0;1;6
2;39;1572155522687;1572155533377;10690;33849349268;4007788843;1130823982;727455599;889871019;130018868;409802673;0;0;0;0;0;0
2;40;1572155533377;1572155544066;10689;33823783208;4007798960;1131261228;727346625;889872666;130051392;409305964;68;8;5744;0;155;827
2;41;1572155544066;1572155554738;10672;33799574656;4007804418;1132354045;727559401;889874295;130050522;410133842;0;0;0;0;0;0
2;42;1572155554738;1572155565410;10672;33807860448;4007788642;1131314482;727745143;889870818;129988994;410198721;5;0;40;0;1;5
2;43;1572155565410;1572155576107;10697;33864540422;4007804436;1131561344;729989510;889874313;130021143;409052220;54;10;5584;0;135;642
2;44;1572155576107;1572155586802;10695;33874308406;4007804443;1131018515;729432023;889874320;130039591;408826168;3;0;24;0;1;1
2;45;1572155586802;1572155597487;10685;33851363922;4007788655;1131092618;728629126;889870831;130003706;409601683;5;7;96;0;1;3
2;46;1572155597488;1572155608173;10685;33849039602;4007788651;1131668307;729006219;889870827;130019076;409751984;0;0;0;0;0;0
2;47;1572155608173;1572155618849;10676;33811016092;4007788643;1130477381;727972057;889870819;130004152;409878024;71;5;5680;0;158;869
2;48;1572155618849;1572155629523;10674;33821264562;4007788648;1131096654;726302797;889870824;130067550;409263429;0;0;0;0;0;0
2;49;1572155629523;1572155640201;10678;33840850316;4007804432;1131340438;727258618;889874309;130067689;409883808;0;0;0;0;0;0
2;50;1572155640201;1572155650881;10680;33827655712;4007804426;1131552035;728175502;889874303;130073433;409528083;54;10;5504;0;112;546
2;51;1572155650881;1572155661613;10732;33856303248;4007788741;1131356627;727883208;889870917;130009099;410232146;145;2;12376;1;469;1055
2;52;1572155661614;1572155672468;10854;34084115224;4007790792;1126989924;725651612;889871591;130065312;409589349;846;60;241120;-1;2732;6296
2;53;1572155672468;1572155683237;10769;34131323010;4007804439;1127860234;728428930;889874316;130023404;409528535;5;0;40;0;1;5
2;54;1572155683237;1572155693973;10736;33991246960;4007788627;1126988205;724162175;889870803;130031969;409857778;177;30;9280;0;260;3493
2;55;1572155693973;1572155704714;10741;34016622636;4007788607;1126454907;723580815;889870802;129990811;409908610;0;0;0;0;0;0
2;56;1572155704714;1572155715468;10754;34075281494;4007788642;1126383081;724089915;889870818;130084621;408921582;0;0;0;0;0;0
2;57;1572155715468;1572155726197;10729;33989685344;4007804396;1126085684;723239095;889874273;130060030;409416254;6;0;48;0;1;6
2;58;1572155726197;1572155736925;10728;33991155710;4007790424;1126209723;722465423;889871223;130061220;409847514;2;0;16;0;0;0
2;59;1572155736925;1572155747665;10740;34026170306;4007774976;1127071002;722689092;889867826;129998248;410489806;0;0;0;0;0;0
2;60;1572155747665;1572155758395;10730;33986284274;4007775618;1126568356;723034994;889867960;130051414;409851301;60;6;5680;0;162;704
2;61;1572155758395;1572155769122;10727;33975327120;4007775285;1126258191;722554030;889867878;130015068;409024985;3;0;24;0;1;1
2;62;1572155769122;1572155779856;10734;34002034024;4007775298;1127648561;723879172;889867891;129994013;409815562;45;4;4688;0;116;532
2;63;1572155779856;1572155790610;10754;34070690086;4007790451;1126471772;725762127;889871250;130003252;410036013;2;3;40;0;0;0
2;64;1572155790610;1572155801351;10741;34024666360;4007774976;1126767032;723463993;889867820;130032178;409957286;3;0;24;0;0;0
2;65;1572155801351;1572155812100;10749;34058105470;4007790444;1127019463;724579270;889871243;130015164;409852538;4;8;96;0;1;2
2;66;1572155812100;1572155822854;10754;34064832858;4007774670;1126912018;725405735;889867768;130008659;409922116;58;4;5456;0;149;759
3;16;1572156112367;1572156123148;10781;34073236180;4077419432;1124547842;724900396;889915787;130131732;408275395;3;0;24;0;1;1
3;17;1572156123148;1572156133900;10752;33990652010;4077412134;1124979138;722473308;889914538;130184807;409178575;0;0;0;0;0;0
3;18;1572156133900;1572156144656;10756;34013685554;4077398129;1124368286;723635098;889911436;130149423;407991349;42;8;5488;0;110;421
3;19;1572156144656;1572156155405;10749;33991064460;4077413951;1123944055;723625291;889914910;130126772;407518398;1;0;8;0;0;0
3;20;1572156155405;1572156166141;10736;33916612636;4077421704;1123712610;721330329;889916184;130123403;407650476;0;0;0;0;0;0
3;21;1572156166141;1572156176878;10737;33950536320;4077398436;1126398167;721327860;889911491;130162841;410094677;38;16;5360;0;94;308
3;22;1572156176878;1572156187617;10739;33949260864;4077413938;1124564142;721257971;889914897;130147999;408059018;0;0;0;0;0;0
3;23;1572156187617;1572156198356;10739;33939103644;4077427907;1124549674;720566581;889918013;130139333;407842190;5;0;40;0;1;4
3;24;1572156198356;1572156209101;10745;33980128330;4077427706;1125191910;722003324;889917958;130169417;407735270;33;16;5528;0;106;341
3;25;1572156209101;1572156219879;10778;34073032510;4077421971;1124935592;724178667;889916276;130170282;408449973;2;1;24;0;0;0
3;26;1572156219879;1572156230623;10744;33976038578;4077411884;1124507921;722756300;889914484;130129306;408936083;6;6;96;0;1;6
3;27;1572156230623;1572156241387;10764;34042465950;4077427725;1125118064;724238132;889917977;130166392;408196219;0;0;0;0;0;0
3;28;1572156241387;1572156252146;10759;34005521964;4077422176;1124267747;723802000;889916306;130159059;407819808;41;19;5360;0;98;368
3;29;1572156252146;1572156262878;10732;33935633516;4077398107;1123933344;721689679;889911414;130196236;408546505;0;0;0;0;0;0
3;30;1572156262878;1572156273606;10728;33927813172;4077414140;1124504006;720753452;889914953;130150951;408665101;0;0;0;0;0;0
3;31;1572156273606;1572156284350;10744;33988026054;4077411890;1124648514;721637107;889914490;130159924;408247258;6;0;48;0;1;6
3;32;1572156284350;1572156295108;10758;34025663832;4077398146;1125664024;722946093;889911453;130155436;409046291;5;7;96;0;1;5
3;33;1572156295108;1572156305863;10755;34010502900;4077398145;1124694031;722398141;889911452;130131463;408651072;8;4;96;0;2;9
3;34;1572156305863;1572156316621;10758;34007179502;4077438236;1125289705;722745617;889919853;130157691;409360770;25;14;4496;0;80;218
3;35;1572156316621;1572156327402;10781;34098633756;4077428014;1124992900;725031222;889918051;130133625;407984909;0;0;0;0;0;0
3;36;1572156327402;1572156338158;10756;34011416130;4077411900;1124827699;723242158;889914500;130175438;409034195;6;0;48;0;2;8
3;37;1572156338158;1572156348920;10762;34041644116;4077411901;1124208154;724337798;889914501;130151846;408423238;36;16;5264;0;109;391
3;38;1572156348920;1572156359674;10754;34021919516;4077427729;1124852599;724742851;889917981;130182216;408636551;2;0;16;0;1;1
3;39;1572156359674;1572156370414;10740;33963497178;4077411879;1123985973;722443990;889914479;130124771;408541679;4;0;32;0;1;4
3;40;1572156370414;1572156381180;10766;34043659354;4077421745;1125437036;722957786;889916225;130159254;409540029;0;0;0;0;0;0
3;41;1572156381181;1572156391934;10753;34007655900;4077427721;1125010536;723157901;889917973;130136108;409056593;33;10;4496;0;88;234
3;42;1572156391934;1572156402672;10738;33955815972;4077411854;1125100681;721405270;889914454;130139750;408782746;4;0;32;0;1;4
3;43;1572156402672;1572156413434;10762;34046583734;4077411721;1126398840;723415749;889914321;130171503;409306006;5;7;96;0;1;3
3;44;1572156413434;1572156424208;10774;34091479610;4077411740;1125407055;724329751;889914340;130200900;409043371;0;0;0;0;0;0
3;45;1572156424208;1572156434968;10760;34035706880;4077411721;1125470348;724050962;889914321;130227132;408570093;35;21;5296;0;87;265
3;46;1572156434968;1572156445732;10764;34029377342;4077427690;1125299271;724112077;889917942;130226067;408511650;0;0;0;0;0;0
3;47;1572156445732;1572156456500;10768;34047895398;4077411902;1124349874;723869518;889914502;130213982;408534509;0;0;0;0;0;0
3;48;1572156456501;1572156467231;10730;33925890498;4077413937;1124663261;721608227;889914896;130185351;408435365;35;12;5240;0;99;300
3;49;1572156467231;1572156477977;10746;33975657956;4077427713;1124719483;721296391;889917965;130219251;408841781;3;0;24;0;0;0
3;50;1572156477977;1572156488712;10735;33953437924;4077411876;1125247773;720396938;889914476;130215788;408796181;0;0;0;0;0;0
3;51;1572156488712;1572156499468;10756;34001806118;4077412144;1126625089;721787565;889914548;130197193;409513321;4;8;96;0;9;18
3;52;1572156499468;1572156510210;10742;33974982852;4077411712;1125562795;720635108;889914312;130215184;408983803;32;12;5200;0;96;321
3;53;1572156510210;1572156520963;10753;34026099934;4077411710;1126175457;722800992;889914310;130186337;408925477;5;0;40;0;2;6
3;54;1572156520963;1572156531729;10766;34080018172;4077427608;1124877496;724710790;889917664;130202932;407909231;0;0;0;0;0;0
3;55;1572156531730;1572156542519;10789;34111439416;4077412186;1125440954;725690978;889914248;130178147;408372604;479;17;60904;0;1517;1960
3;56;1572156542520;1572156553283;10763;34073104634;4077427367;1125210852;725122876;889917619;130238162;408769629;4;0;32;0;1;4
3;57;1572156553283;1572156564036;10753;34044845750;4077414847;1124974203;723831399;889914802;130220043;409200343;0;0;0;0;0;0
3;58;1572156564037;1572156574760;10723;33927077770;4077412438;1124221475;721547515;889914304;130234229;408864492;119;20;6384;0;156;1683
3;59;1572156574760;1572156585509;10749;34018622690;4077413592;1129784935;722414774;889914551;130204469;408490922;6;0;48;0;2;8
3;60;1572156585509;1572156596267;10758;34054586724;4077397776;1125873487;721849840;889911083;130181699;409309308;0;0;0;0;0;0
3;61;1572156596267;1572156607015;10748;34005754688;4077411527;1126565743;722206325;889914127;130318236;409420118;48;22;6256;0;110;524
3;62;1572156607015;1572156617755;10740;33977145258;4077397749;1126326604;721461783;889911056;130244965;409098334;0;0;0;0;0;0
3;63;1572156617755;1572156628517;10762;34059767972;4077398419;1125637775;723201488;889911225;130221171;408889845;6;0;48;0;2;8
3;64;1572156628517;1572156639303;10786;34146339402;4077398123;1124832657;725292240;889911178;130176597;408733999;26;14;5200;0;88;249
3;65;1572156639303;1572156650082;10779;34104052108;4077427697;1126135788;724721448;889917697;130217221;409198076;2;0;16;0;0;0
4;16;1572156934297;1572156944976;10679;33841854504;4045268990;1126390435;725745687;891995980;129973972;409008316;0;0;0;0;0;0
4;17;1572156944976;1572156955618;10642;33692039232;4045266847;1127843026;723217968;891995521;129958056;410127646;6;0;80;0;10;15
4;18;1572156955618;1572156966289;10671;33800821642;4045266659;1127042270;724833277;891995469;130004293;409239319;8;4;96;0;2;9
4;19;1572156966289;1572156976974;10685;33849695434;4045266677;1128283445;726880961;891995487;129984286;409545627;8;4;96;0;2;9
4;20;1572156976975;1572156987675;10700;33930802668;4045250885;1126876548;729048783;891992043;129958432;409383930;50;8;5328;0;111;570
4;21;1572156987675;1572156998389;10714;33964381646;4045267023;1127776268;729972860;891995585;129976141;409649505;0;0;0;0;0;0
4;22;1572156998389;1572157009067;10678;33837448954;4045250850;1127136741;726985624;891992008;129968968;408981276;5;0;40;0;1;5
4;23;1572157009067;1572157019814;10747;34080174538;4045249454;1128660498;729490348;891991715;130014037;408971056;0;0;0;0;0;0
4;24;1572157019814;1572157030667;10853;34393964600;4045248575;1129452778;731857448;891991730;129941586;409544898;37;20;5624;0;111;314
4;25;1572157030667;1572157041500;10833;34346669214;4045277354;1129261313;731810655;891997485;129952642;408943608;0;0;0;0;0;0
4;26;1572157041501;1572157052328;10827;34241567610;4045249548;1127584938;727954581;891991809;129920000;409639773;0;0;0;0;0;0
4;27;1572157052329;1572157063098;10769;34101381914;4045267137;1124483725;725526160;891995751;129953356;407891303;36;17;5320;0;106;237
4;28;1572157063099;1572157073894;10795;34195335980;4045243212;1125108332;728763042;891990018;129930420;409692704;1;0;8;0;0;0
4;29;1572157073894;1572157084651;10757;34050047876;4045243491;1124447121;725911072;891990045;129956513;409871673;7;5;96;0;10;23
4;30;1572157084651;1572157095408;10757;34055677928;4045263642;1124721721;726454898;891994393;129965999;409553892;0;0;0;0;0;0
4;31;1572157095408;1572157106158;10750;34043624898;4045266715;1124739889;725619650;891995525;129956953;409515360;38;18;5360;0;107;316
4;32;1572157106158;1572157116886;10728;33974555072;4045251781;1123026317;724344643;891992149;129967615;408592938;0;0;0;0;0;0
4;33;1572157116886;1572157127596;10710;33928120940;4045282717;1124705494;723522918;891999043;129964610;408336333;0;0;0;0;0;0
4;34;1572157127596;1572157138343;10747;34056101912;4045237498;1125349573;725191336;891989068;129949030;409306708;24;18;5360;0;96;203
4;35;1572157138343;1572157149097;10754;34027307938;4045286719;1124692767;724954570;891999065;129981037;409141026;2;0;16;0;0;0
4;36;1572157149097;1572157159850;10753;34081851640;4045266722;1125336041;726434013;891995532;129944900;409110296;0;0;0;0;0;0
4;37;1572157159851;1572157170572;10721;33965547018;4045250926;1125126105;723357085;891992084;129952397;409443901;8;0;96;0;2;9
4;38;1572157170572;1572157181368;10796;34245478512;4045235860;1129715534;731854605;891988766;129942556;409254109;31;23;5360;0;83;242
4;39;1572157181368;1572157192201;10833;34349911874;4045253334;1128086310;730535120;891992653;129934235;409017954;0;0;0;0;0;0
4;40;1572157192201;1572157203050;10849;34378799872;4045263959;1128127924;731370228;891994556;129978565;409480899;0;0;0;0;0;0
4;41;1572157203050;1572157213877;10827;34348542540;4045237259;1127519990;730738447;891989081;129948870;409100485;5;0;40;0;1;5
4;42;1572157213877;1572157224736;10859;34443042208;4045259307;1128271757;733160341;891993629;129954507;409110011;8;4;96;0;10;35
4;43;1572157224736;1572157235562;10826;34352052526;4045237532;1129028554;731466552;891989145;129944708;410076029;0;0;0;0;0;0
4;44;1572157235562;1572157246378;10816;34299793140;4045237576;1128417634;729810208;891989146;129948242;409043294;33;14;4592;0;79;219
4;45;1572157246378;1572157257175;10797;34252121950;4045237238;1128252234;727951732;891989060;129953412;409265782;0;0;0;0;0;0
4;46;1572157257175;1572157268025;10850;34399628670;4045253317;1128907580;732358257;891992655;129986363;409671355;0;0;0;0;0;0
4;47;1572157268025;1572157278867;10842;34390913930;4045267344;1128029464;732152967;891995766;129947474;409156759;34;13;5320;0;77;246
4;48;1572157278867;1572157289717;10850;34418789272;4045267279;1129810291;732571500;891995722;129929531;409457230;1;0;8;0;0;0
4;49;1572157289717;1572157300557;10840;34347121960;4045251376;1129656256;730367681;891992319;129950895;409069532;5;2;56;0;9;12
4;50;1572157300557;1572157311420;10863;34447776258;4045243296;1128994021;733450563;891990083;129903940;409646763;0;0;0;0;0;0
4;51;1572157311420;1572157322278;10858;34416031916;4045237291;1128891338;732891031;891989113;129946826;409064046;39;19;5680;0;87;297
4;52;1572157322278;1572157333132;10854;34409057788;4045237289;1129195061;732744172;891989111;129937895;409892208;0;0;0;0;0;0
4;53;1572157333132;1572157343995;10863;34353515446;4045237367;1128469423;731707234;891989189;129985953;408711058;463;16;47600;0;1440;1779
4;54;1572157343995;1572157354876;10881;34514392846;4045237318;1128942262;733796167;891989140;130186479;408902152;6;0;48;0;2;6
4;55;1572157354876;1572157365702;10826;34329145710;4045237264;1128858063;730283325;891989086;129952555;409470775;85;8;928;0;46;1471
4;56;1572157365702;1572157376530;10828;34354300926;4045267015;1127953701;730621546;891995689;129951160;409564648;44;20;6448;0;142;487
4;57;1572157376530;1572157387358;10828;34368758138;4045265817;1129845757;731021717;891995459;129930397;408808990;0;0;0;0;0;0
4;58;1572157387358;1572157398187;10829;34320857728;4045258629;1128721617;730248250;891993422;129952019;409197753;4;0;32;0;1;4
4;59;1572157398188;1572157409029;10841;34323984464;4045238246;1128792951;729975567;891989378;129947299;409140240;4;0;32;0;1;3
4;60;1572157409029;1572157419845;10816;34280639400;4045251187;1130452074;728787042;891992345;129963455;409628607;0;0;0;0;0;0
4;61;1572157419845;1572157430689;10844;34334639690;4045236288;1129408323;729843707;891988942;129968085;409032647;32;8;5360;0;91;271
4;62;1572157430689;1572157441579;10890;34475288352;4045244108;1129188882;733379895;891990643;129932180;408713848;4;0;32;0;1;4
4;63;1572157441579;1572157452446;10867;34390154876;4045243947;1129843376;731637223;891990501;129933276;409429628;23;10;4432;0;87;210
4;64;1572157452446;1572157463282;10836;34372086792;4045237555;1128019350;731798577;891989162;129941500;409840479;4;0;32;0;1;4
4;65;1572157463282;1572157474137;10855;34451148128;4045237860;1128080980;732046002;891989240;129941262;408876749;3;0;24;0;1;1
