0;12;1572159591762;1572159603340;11578;36402724580;4047162497;1121558433;693280794;890605556;130186184;410146709;809;50;1381912;-1;3599;12420
0;13;1572159603340;1572159614933;11593;36429430462;4047167783;1123899274;695742053;890606451;130161606;410388034;719;0;1395696;0;3495;6174
0;14;1572159614933;1572159626538;11605;36450118662;4047162511;1120664458;697197263;890605626;130214030;409343876;716;0;1395648;0;3218;5834
0;15;1572159626538;1572159638218;11680;36683785676;4047183955;1122113364;700619148;890610091;130196182;410808402;838;48;1430776;1;3695;11863
0;16;1572159638218;1572159649780;11562;36287129664;4047167460;1122084225;692472324;890606305;130296028;410154826;720;1;1397480;-1;3365;5968
0;17;1572159649780;1572159661228;11448;35982776458;4047177830;1122500075;686827752;890608793;130229964;410729453;698;0;1360464;0;3056;5657
0;18;1572159661228;1572159672767;11539;36160220186;4047162268;1120961353;691354736;890605579;130249238;409907550;804;42;1413744;0;3815;10483
0;19;1572159672767;1572159684375;11608;36334805672;4047162969;1122638262;693807530;890605776;130195929;410462106;841;40;1425112;1;3667;13013
0;20;1572159684375;1572159695845;11470;35888668654;4047162514;1120589441;685653006;890605573;130241785;411069989;691;0;1344648;-1;3328;5961
0;21;1572159695845;1572159707435;11590;36329848242;4047162242;1122680760;694963376;890605553;130249270;410318991;713;0;1383976;0;3192;5923
0;22;1572159707435;1572159718999;11564;36297943592;4047171783;1123115709;697230653;890607202;130222519;409821702;811;42;1409520;0;3583;11166
0;23;1572159718999;1572159730544;11545;36304738432;4047162837;1123902704;700173363;890605644;130231610;410433786;720;0;1407360;0;3402;6060
0;24;1572159730544;1572159741966;11422;35774670978;4047162378;1122553774;689353763;890605437;130223323;410823365;712;0;1378128;0;3113;5758
0;25;1572159741966;1572159753463;11497;36107509660;4047162824;1123083890;695210640;890605653;130228715;410522871;829;46;1425800;0;3982;14206
0;26;1572159753463;1572159765060;11597;36254224768;4047162615;1122752599;698914507;890605674;130243334;410701489;734;1;1425032;0;3353;6175
0;27;1572159765060;1572159776633;11573;36234130934;4047162552;1123186930;700333679;890605611;130244806;410416588;813;42;1413736;9;3508;10868
0;28;1572159776633;1572159788139;11506;35957070822;4047162552;1121765141;693176667;890605654;130280369;410552166;726;0;1413248;-6;3503;6326
0;29;1572159788139;1572159799618;11479;36025619574;4047191704;1123466954;695198818;890611957;130250305;409549170;725;0;1407432;-3;3289;6107
0;30;1572159799618;1572159811184;11566;36119243388;4047162296;1124201078;698716893;890605607;130335399;410377783;809;46;1425480;0;3615;10279
0;31;1572159811184;1572159822770;11586;36229378342;4047175970;1124332589;701772471;890608627;130226152;409986261;723;0;1413224;0;3474;6217
0;32;1572159822770;1572159834280;11510;35980609672;4047172899;1122763770;695369358;890607488;130234494;410482917;723;1;1399848;1;3163;5792
0;33;1572159834280;1572159845765;11485;36014263548;4047162505;1123302398;696718840;890605564;130229278;410211687;793;56;1392736;-1;3866;12887
0;34;1572159845765;1572159857377;11612;36306247196;4047162315;1122821991;702715344;890605626;130235614;410254542;738;0;1425032;0;3242;5988
0;35;1572159857377;1572159868890;11513;36093649296;4047168689;1124501619;697910916;890606562;130261771;410639891;803;49;1425616;0;3538;9654
0;36;1572159868891;1572159880343;11452;35828531692;4047171524;1121873699;693091065;890607153;130161271;410111187;697;0;1354584;0;3476;6311
0;37;1572159880343;1572159891802;11459;35962260684;4047162462;1123417385;695666096;890605521;130175381;410494483;715;1;1376352;1;3165;5901
0;38;1572159891802;1572159903323;11521;36106427946;4047162245;1122690354;698606767;890605556;130207031;410636151;818;51;1427704;-1;3614;10610
0;39;1572159903323;1572159914833;11510;36008857314;4047175681;1123850941;698165108;890608433;130215204;409748998;708;1;1378040;0;3337;6056
0;40;1572159914834;1572159927089;12255;36033686658;4047192303;1124361469;696306137;890612043;130180490;410274165;776;1;1495400;3;3361;6270
0;41;1572159927089;1572159938794;11705;36080860134;4047160725;1124620419;699948066;890605120;130192530;410119644;802;50;1431408;0;3750;8253
0;42;1572159938794;1572159950439;11645;36414385892;4047180062;1126301265;706245829;890609166;130154817;410429226;730;2;1405680;-2;3248;5997
0;43;1572159950439;1572159962027;11588;36265052128;4047162273;1124221501;701665714;890605584;130215277;410994127;823;47;1421832;-1;3608;11320
0;44;1572159962027;1572159973654;11627;36375760862;4047176820;1124703799;704815781;890608886;130228100;410733134;712;2;1383904;0;3319;5976
0;45;1572159973654;1572159985193;11539;36041685414;4047178402;1123692011;697842050;890609113;130189162;410180887;732;2;1411528;1;3183;5856
0;46;1572159985193;1572159996729;11536;36077770336;4047162910;1123114597;696914840;890605717;130188016;409667740;819;52;1427840;-1;3695;11035
0;47;1572159996729;1572160008255;11526;36066548776;4047162238;1121803977;698286969;890605546;130196054;409981083;736;2;1413288;0;3376;6138
0;48;1572160008255;1572160019853;11598;36311965140;4047162576;1124771984;701484279;890605635;130198787;410644972;731;0;1413224;0;3168;5898
0;49;1572160019853;1572160031438;11585;36028669952;4047163260;1124908849;697451883;890606067;130218767;410532096;1016;82;1397688;16;5003;40218
0;50;1572160031438;1572160043219;11781;36399394612;4047163003;1123874298;702405406;890606043;130221225;410541141;1081;9;1501496;-15;6230;40662
0;51;1572160043219;1572160054723;11504;35988405634;4047162480;1121556566;695792131;890605539;130183527;410357737;721;0;1379840;4;3150;5986
0;52;1572160054723;1572160066352;11629;36337550618;4047162960;1124712741;703483910;890605767;130188230;411306554;869;40;1451352;-5;3679;14975
0;53;1572160066352;1572160077874;11522;36043107016;4047172175;1122151937;697232626;890607314;130213628;410362935;802;5;1390576;0;3765;9197
0;54;1572160077874;1572160089382;11508;36014516858;4047200331;1122843955;696585775;890613482;130223690;409964012;727;6;1383944;3;3178;5982
0;55;1572160089382;1572160100998;11616;36333508608;4047178334;1125428751;703579670;890609297;130225489;410817235;851;62;1445072;-3;3898;12602
0;56;1572160100998;1572160112534;11536;36201755288;4047178286;1123293386;702187319;890609084;130197683;410694503;716;3;1372176;3;3245;6052
0;57;1572160112534;1572160124066;11532;36207016398;4047162170;1124257595;700076218;890605481;130183631;410101325;719;7;1366344;-3;3051;5772
0;58;1572160124066;1572160135620;11554;36314168134;4047181985;1125098876;702535765;890609625;130201038;411878719;838;45;1402784;0;3895;13427
0;59;1572160135620;1572160147180;11560;36313662244;4047168124;1124858211;700814658;890606508;130220448;411087766;746;7;1419112;0;3373;6304
0;60;1572160147181;1572160158837;11656;36493172894;4047162666;1126174738;707996458;890605725;130231139;410658292;819;50;1423376;1;3634;9928
0;61;1572160158837;1572160170355;11518;36204943636;4047167261;1123194068;698386908;890606344;130218067;409507626;732;8;1379880;2;3380;6256
1;12;1572160433021;1572160444558;11537;36364490392;3986330007;1120115428;682938289;888088587;130069079;409689297;866;34;1356288;0;3661;24613
1;13;1572160444558;1572160456038;11480;36255607534;3986346781;1121531710;681334122;888092190;130066547;410513040;685;1;1335224;1;3225;5808
1;14;1572160456038;1572160467553;11515;36359112044;3986341200;1120987900;682614421;888090582;130056184;409616632;687;0;1332960;-1;3063;5657
1;15;1572160467553;1572160479189;11636;36732178982;3986317191;1122710400;692192403;888086230;130073507;410630403;855;38;1357912;0;3607;16270
1;16;1572160479189;1572160490771;11582;36245332200;3986326963;1120207569;685323904;888087749;130078010;409784969;705;0;1366360;0;3191;5827
1;17;1572160490771;1572160502251;11480;36279125360;3986315862;1120637499;687198780;888085403;130060053;409366810;845;38;1352352;19;3274;15847
1;18;1572160502251;1572160513770;11519;36238278502;3986316967;1120731550;687123279;888085806;130126375;410056315;733;0;1410720;-19;3709;10055
1;19;1572160513770;1572160525344;11574;36565459976;3986316357;1123090924;696456207;888085647;130046269;410515547;709;0;1378080;0;3153;5722
1;20;1572160525344;1572160536958;11614;36274669002;3986315606;1120858799;690233536;888085577;130077225;410590354;863;27;1398800;2;3776;22594
1;21;1572160536958;1572160548434;11476;36362644952;3986316224;1121041979;689811134;888085514;130059562;409727208;818;48;1383592;-2;3717;14099
1;22;1572160548434;1572160559993;11559;36542156478;3986342468;1121634915;698186709;888090854;130106820;409412201;713;0;1383944;0;3367;5996
1;23;1572160559993;1572160571654;11661;36131345182;3986330946;1121270923;691499932;888088692;130113475;410176941;728;0;1407408;3;3222;5929
1;24;1572160571654;1572160583339;11685;35731133924;3986331296;1120230463;689035017;888089084;130069172;411125327;822;44;1432664;-3;3596;12772
1;25;1572160583339;1572160594982;11643;35845721440;3986316414;1119856855;692151908;888085936;130052455;410281240;731;0;1413272;0;3463;6235
1;26;1572160594982;1572160606894;11912;36115919406;3986343215;1120446059;698408505;888091369;130079129;409437203;740;0;1442544;0;3311;6106
1;27;1572160606894;1572160618660;11766;35929425138;3986331087;1118720685;690860015;888089046;130150793;409365592;827;46;1431632;3;3877;11280
1;28;1572160618660;1572160630765;12105;36120612138;3986337788;1121527755;695137891;888090201;130041651;411657097;763;0;1476008;-2;3409;6307
1;29;1572160630765;1572160642533;11768;36148105252;3986346498;1121056019;699450072;888092663;130061503;409687933;832;44;1439152;-1;3620;11576
1;30;1572160642533;1572160654256;11723;35967254468;3986321653;1120675311;697048078;888086947;130100434;410928002;722;0;1407360;0;3459;6248
1;31;1572160654256;1572160666065;11809;36026904082;3986316436;1120161467;696797894;888085957;130083804;410052683;733;0;1419120;0;3273;6016
1;32;1572160666065;1572160678107;12042;36170274914;3986324936;1120509596;699016008;888087450;130074141;409916800;846;40;1484240;0;3882;11472
1;33;1572160678107;1572160689884;11777;36259370976;3986328848;1123437159;700616579;888088531;130105988;411251397;744;0;1440808;1;3360;6144
1;34;1572160689884;1572160701382;11498;36352566134;3986316226;1121810455;699140050;888085516;130079939;409974903;723;0;1409128;-1;3131;5762
1;35;1572160701382;1572160712800;11418;36062563998;3986326417;1121718835;692476287;888087237;130110484;410139722;795;52;1377200;1;3962;12034
1;36;1572160712800;1572160724238;11438;36243364704;3986316193;1122319229;693709575;888085483;130055141;409692222;722;2;1379848;-1;3154;5925
1;37;1572160724239;1572160735729;11490;36360952228;3986316220;1122882927;697643740;888085510;130078662;409815565;809;54;1408368;0;3484;10080
1;38;1572160735729;1572160747216;11487;36291287306;3986316213;1123205052;697396882;888085503;130107403;410659058;724;1;1395632;0;3396;6120
1;39;1572160747216;1572160758681;11465;36237082908;3986315870;1122610108;694997365;888085411;130043877;410359890;734;1;1399776;1;3193;6003
1;40;1572160758681;1572160770127;11446;36174608340;3986316179;1123766198;694035345;888085469;130041487;409545914;812;47;1380888;-1;3647;11350
1;41;1572160770128;1572160781575;11447;36159202420;3986316479;1123479425;696047673;888085518;130039774;409856673;724;0;1378080;0;3327;6139
1;42;1572160781575;1572160793092;11517;36430931342;3986316554;1122623063;699027209;888085593;130107316;410066730;730;1;1399728;1;3095;5828
1;43;1572160793092;1572160804569;11477;36277407524;3986316126;1122494918;694891993;888085458;130032509;410716573;815;55;1404096;-1;3756;11353
1;44;1572160804569;1572160816025;11456;36188561414;3986316482;1123736992;695725463;888085521;130042729;410181837;730;1;1388032;1;3175;5909
1;45;1572160816025;1572160828028;12003;36190556650;3986315142;1122056049;697124220;888085303;130099636;409815998;846;43;1468536;-1;3675;10502
1;46;1572160828028;1572160839602;11574;36579756004;3986316315;1122920905;701472848;888085586;130069049;409510004;739;3;1419088;4;3410;6238
1;47;1572160839602;1572160851078;11476;36250833042;3986316179;1122981981;694543836;888085469;130080185;410383661;740;3;1413272;-4;3180;5954
1;48;1572160851078;1572160862620;11542;36475931024;3986316586;1124390499;702717919;888085625;130059056;410382614;1299;85;1457440;8;7895;62750
1;49;1572160862620;1572160874153;11533;36456052102;3986314492;1123330727;705205548;888085136;130053894;409668831;738;6;1399760;-7;3273;6441
1;50;1572160874153;1572160885726;11573;36486591506;3986316651;1123651388;702154032;888085690;130087474;410729012;734;2;1397400;-1;3104;5807
1;51;1572160885726;1572160897311;11585;36602394910;3986337806;1125635296;704514220;888090006;130026296;410476008;905;66;1432944;3;4074;15327
1;52;1572160897311;1572160908844;11533;36443063212;3986315920;1126202680;703177582;888085461;130047065;411631995;755;9;1415480;-2;3461;6508
1;53;1572160908844;1572160920443;11599;36668808120;3986316974;1123664741;704310395;888085695;130029033;410269071;746;5;1420912;-1;3200;6076
1;54;1572160920443;1572160931947;11504;36463903982;3986332465;1125237965;700703725;888089108;130042302;409974870;841;57;1409536;0;3919;14834
1;55;1572160931947;1572160943441;11494;36333986904;3986316221;1123888816;697788125;888085553;130054145;409305865;748;5;1413264;0;3291;6149
1;56;1572160943441;1572160955045;11604;36687847104;3986316021;1124757716;708104265;888085562;130028511;410478134;836;44;1437640;0;3556;9129
1;57;1572160955045;1572160966547;11502;36341815278;3986332105;1123465810;698451565;888088980;130075899;410119120;744;7;1407400;0;3405;6158
1;58;1572160966547;1572160978085;11538;36456064366;3986348274;1124999644;700692018;888092595;130090681;411163197;743;4;1407360;0;3211;6044
1;59;1572160978085;1572160989677;11592;36622646132;3986330351;1125566940;706185070;888088676;130037247;410644160;824;61;1423560;1;3723;11373
1;60;1572160989677;1572161001308;11631;36780374312;3986316623;1126579450;712103205;888085698;130061653;410433095;760;5;1426768;-1;3334;6303
1;61;1572161001308;1572161012843;11535;36443006564;3986331697;1124906142;703721758;888088939;130027528;410028053;729;14;1378096;0;3085;5903
2;12;1572161273312;1572161284709;11397;35996923128;4018131856;1122953308;681692547;889869302;130256916;409598067;691;1;1342880;3;3076;5694
2;13;1572161284709;1572161296139;11430;36095729504;4018145917;1121647456;681920904;889872402;130267333;410336876;827;19;1366376;-3;3784;16380
2;14;1572161296139;1572161307707;11568;36519663572;4018142389;1122884049;693031384;889871295;130381793;410578679;682;0;1319472;0;3045;5582
2;15;1572161307707;1572161319075;11368;35889499540;4018132126;1121206731;677971195;889869321;130241961;409449505;802;20;1337328;0;3477;13014
2;16;1572161319076;1572161330423;11347;35809993342;4018145512;1121698198;680454358;889872248;130297640;409435761;701;0;1354656;3;3357;5981
2;17;1572161330423;1572161341876;11453;36223999848;4018132193;1121392801;686380500;889869468;130253607;409344435;703;0;1370408;-2;3120;5675
2;18;1572161341876;1572161353477;11601;36166199908;4018131420;1125089278;694900217;889869448;130262827;410405339;835;30;1401808;0;3674;13097
2;19;1572161353477;1572161364892;11415;35967511574;4018131951;1123992820;688283310;889869397;130298866;410136067;713;0;1379872;-1;3230;5892
2;20;1572161364892;1572161376244;11352;35807529884;4018132551;1122705832;684296695;889869510;130268700;410711878;705;0;1366344;0;3083;5640
2;21;1572161376244;1572161387607;11363;35834628068;4018132215;1122747066;684882141;889869410;130276080;409621391;823;24;1383648;0;3765;12880
2;22;1572161387607;1572161399011;11404;36103368078;4018132864;1124684979;692908120;889869637;130279444;410264982;823;30;1391032;0;3826;11876
2;23;1572161399011;1572161410465;11454;36130518530;4018132065;1126483776;699488915;889869511;130252728;410336888;707;0;1372200;0;3119;5750
2;24;1572161410465;1572161421771;11306;35717160264;4018132419;1123974946;689859880;889869363;130262999;409688571;827;38;1404216;0;3627;13765
2;25;1572161421771;1572161433089;11318;35723602222;4018132132;1124728966;690506718;889869327;130266585;409639235;708;0;1378040;0;3400;6117
2;26;1572161433090;1572161444682;11592;36118394690;4018141804;1123371895;693244594;889871362;130254972;410075195;715;0;1383952;0;3161;5879
2;27;1572161444682;1572161456086;11404;36019821038;4018132228;1120275627;689169779;889869423;130246115;409063872;801;36;1395688;0;3690;10914
2;28;1572161456086;1572161467469;11383;35956942342;4018132226;1121465745;688914202;889869421;130278614;409446927;722;1;1395680;0;3265;5892
2;29;1572161467469;1572161479064;11595;36068183684;4018145385;1122547460;697035876;889872954;130292608;410504551;737;0;1436680;0;3186;5886
2;30;1572161479064;1572161490780;11716;36068826084;4018148445;1123842354;696487074;889873592;130296413;409862166;822;48;1446760;1;3775;8763
2;31;1572161490781;1572161502216;11435;35881073442;4018148298;1122779678;691961778;889873445;130302971;411001417;730;0;1415024;-1;3257;5911
2;32;1572161502216;1572161513672;11456;35974498988;4018154602;1122776897;694216628;889874354;130269364;410588976;809;41;1401504;0;3536;11714
2;33;1572161513672;1572161525186;11514;36192599920;4018132500;1123743611;699165473;889869946;130263337;410787864;729;0;1419088;0;3399;6147
2;34;1572161525186;1572161536724;11538;36034501630;4018132932;1122434676;696454256;889869931;130264304;409880069;716;1;1389800;0;3241;5959
2;35;1572161536724;1572161548272;11548;36237828822;4018133529;1123191375;698420162;889870258;130250546;410476520;818;42;1440968;1;3922;10721
2;36;1572161548272;1572161559835;11563;35951219726;4018156595;1123519448;693418956;889874610;130275227;410039204;729;0;1409168;-1;3276;6015
2;37;1572161559835;1572161571510;11675;36285284954;4018131000;1122990875;701107691;889869530;130275803;410490071;738;0;1430816;0;3269;6166
2;38;1572161571510;1572161583056;11546;36215122464;4018132623;1124406084;700180082;889870069;130253185;410795512;825;36;1431064;0;3915;12082
2;39;1572161583056;1572161594673;11617;36392542686;4018132278;1125658289;696894521;889869473;130249662;410383013;742;0;1430856;0;3313;6073
2;40;1572161594673;1572161606247;11574;35966179032;4018147192;1122247964;695174207;889873056;130278212;410386276;820;42;1429176;1;3697;10562
2;41;1572161606247;1572161617935;11688;36303864038;4018178608;1125999766;703363727;889880128;130267102;411289038;747;0;1450176;-1;3621;6755
2;42;1572161617935;1572161629651;11716;36231366716;4018148545;1123492578;697635367;889873306;130264708;411113525;741;0;1430848;3;3217;5951
2;43;1572161629651;1572161641130;11479;35911981642;4018162415;1122069763;695431651;889876485;130261686;409794434;814;46;1425016;0;3831;10940
2;44;1572161641130;1572161652590;11460;35920482346;4018148999;1123378433;694741926;889873528;130254502;410575309;729;2;1405632;-2;3296;6044
2;45;1572161652590;1572161664102;11512;36105987464;4018148951;1123605136;698069805;889873480;130274929;410094199;723;1;1397400;2;3261;6221
2;46;1572161664102;1572161675708;11606;36187368594;4018177914;1124302816;696010839;889879685;130220009;409514202;821;46;1442992;-3;3924;11707
2;47;1572161675708;1572161687241;11533;36289482600;4018150948;1124471210;694385935;889873319;130243127;409426200;1014;46;1433960;7;5734;48606
2;48;1572161687241;1572161698830;11589;36209867924;4018136452;1123804306;695187430;889870352;130315447;410175639;991;8;1460552;-7;5576;23708
2;49;1572161698831;1572161710646;11815;36265371868;4018146697;1122834602;699231015;889872966;130261591;410382293;753;0;1434912;1;3221;6068
2;50;1572161710646;1572161722151;11505;36273711242;4018130681;1123958799;697879577;889869249;130263029;410718589;822;45;1416296;-1;3705;12234
2;51;1572161722151;1572161733636;11485;36010120506;4018131320;1122553559;695298427;889869599;130254867;409444381;814;3;1396520;0;3649;14545
2;52;1572161733636;1572161745130;11494;35934650186;4018133396;1124410359;697076363;889870131;130271315;410572072;721;3;1378056;0;3078;5770
2;53;1572161745130;1572161756683;11553;36093398906;4018132607;1123093809;697168647;889870072;130290374;409889668;826;63;1426712;0;3905;11845
2;54;1572161756683;1572161768203;11520;36137572958;4018133817;1124331512;700250795;889870173;130276833;411259160;736;2;1384000;3;3159;5969
2;55;1572161768203;1572161779769;11566;36161873344;4018148715;1123659100;699681006;889873607;130267230;410443735;876;48;1453864;-3;3593;13259
2;56;1572161779769;1572161791441;11672;36562682180;4018153679;1124137760;709309306;889874421;130259250;410179785;768;5;1454352;0;3605;6638
2;57;1572161791441;1572161802922;11481;35936880190;4018132728;1121770761;695024183;889869938;130304900;410549880;747;4;1424952;0;3241;6012
2;58;1572161802922;1572161814486;11564;36277635138;4018132591;1124948800;702273146;889870037;130252134;410743600;844;44;1437344;0;3673;10735
2;59;1572161814486;1572161826031;11545;36179568544;4018132862;1124295374;698905028;889870057;130285732;410630991;758;5;1425032;0;3312;6159
2;60;1572161826031;1572161837616;11585;36272442064;4018164546;1123679313;701147480;889877027;130262625;409646810;748;8;1419104;3;3226;6123
2;61;1572161837616;1572161849220;11604;36463633006;4018160927;1126923656;704032874;889876119;130253057;411136521;844;47;1431840;-3;3801;11288
3;12;1572162110525;1572162122138;11613;36579684464;4006569533;1124730278;689175899;888540647;129820022;408489395;804;40;1375808;-1;3535;11981
3;13;1572162122138;1572162133683;11545;36454170454;4006538137;1124126066;684132556;888533691;129802819;409497507;697;0;1361984;-1;3347;5924
3;14;1572162133683;1572162145326;11643;36777263928;4006573092;1124848648;688726072;888541298;129819254;408489341;701;0;1366352;0;3063;5586
3;15;1572162145326;1572162156952;11626;36679743666;4006568193;1125795850;688495275;888540445;129812959;408470807;821;35;1381064;-1;3751;15111
3;16;1572162156952;1572162168451;11499;36289092634;4006549479;1123934592;685272407;888536614;129827228;408058755;708;0;1378096;0;3270;5871
3;17;1572162168451;1572162180011;11560;36490570736;4006546983;1125222780;691489558;888536074;129790359;408701517;711;0;1389768;0;3128;5700
3;18;1572162180012;1572162191590;11578;36682087404;4006533123;1125602309;696352922;888532960;129791854;408025378;812;32;1376952;1;3842;13551
3;19;1572162191590;1572162203184;11594;36697948260;4006551761;1126339479;695976053;888536700;129779591;409675598;720;0;1403304;-1;3246;5870
3;20;1572162203184;1572162214735;11551;36481313022;4006533127;1124710948;692248621;888532928;129813301;408895732;822;52;1414232;0;3657;11615
3;21;1572162214736;1572162226308;11572;36528054484;4006554251;1126124822;693233902;888537234;129777868;408184945;713;0;1393864;1;3425;6107
3;22;1572162226308;1572162237867;11559;36510563976;4006533556;1126185512;696460174;888533161;129799127;408427346;802;52;1416592;-1;3858;9908
3;23;1572162237867;1572162249422;11555;36350145162;4006542110;1126942925;698192402;888534751;129856795;410144923;722;0;1401536;3;3147;5798
3;24;1572162249422;1572162260826;11404;35873084614;4006547571;1124084191;688305680;888536427;129919580;408568060;811;36;1408912;-3;3535;11769
3;25;1572162260826;1572162272300;11474;36278481208;4006533813;1125740968;691773467;888533378;129793778;408615877;733;0;1429048;1;3474;6187
3;26;1572162272300;1572162283816;11516;36349226238;4006543734;1125889045;694896029;888534814;129789096;408880802;745;1;1432640;-1;3281;6068
3;27;1572162283816;1572162295427;11611;36658589142;4006533203;1128287280;702841895;888533004;129799588;408804633;822;39;1449280;0;3771;10634
3;28;1572162295427;1572162306906;11479;36173197688;4006549023;1125480050;690962466;888536409;129940857;408051581;733;1;1407424;3;3347;6144
3;29;1572162306906;1572162318347;11441;36116130376;4006546726;1126471278;692227215;888535817;129786060;408063958;717;1;1395632;-3;3158;5872
3;30;1572162318347;1572162329858;11511;36377351824;4006564798;1127532520;694250379;888539885;129772574;409302821;818;47;1423480;1;3916;11459
3;31;1572162329858;1572162341351;11493;36278648670;4006548551;1126280230;695804341;888536304;129792679;408610647;725;1;1397440;-1;3214;5931
3;32;1572162341351;1572162352903;11552;36440389660;4006543411;1127919900;698533316;888534742;129932752;409371079;822;39;1431592;3;3569;10426
3;33;1572162352903;1572162364411;11508;36329885910;4006550281;1126819766;695966139;888536283;129769809;409267421;715;0;1389768;2;3468;6246
3;34;1572162364411;1572162375928;11517;36346034970;4006532982;1127137796;697170609;888533034;129788784;408723614;739;1;1424992;-5;3269;6047
3;35;1572162375928;1572162387445;11517;36443921108;4006531634;1126864611;697514045;888532789;129807195;409067847;823;37;1420648;0;3649;10772
3;36;1572162387445;1572162398938;11493;36256372574;4006558271;1126212886;694263811;888538133;129808866;408595737;731;2;1401544;0;3298;6061
3;37;1572162398938;1572162410413;11475;36278447774;4006533083;1126385957;696363439;888532884;129796127;408467742;726;1;1401496;3;3157;5840
3;38;1572162410413;1572162421863;11450;36132938042;4006532697;1125534934;695086613;888532749;129822210;408545325;805;49;1406408;-2;3796;11586
3;39;1572162421863;1572162433391;11528;36308001094;4006533529;1127432838;698172737;888533079;129830907;409528699;737;0;1403320;-1;3244;6064
3;40;1572162433391;1572162445001;11610;36431150780;4006534001;1127029645;698589297;888533377;129963211;408860675;844;29;1443544;0;3666;12377
3;41;1572162445001;1572162456547;11546;36228837558;4006533322;1125855642;696173905;888533156;129812206;408201661;731;3;1407360;0;3446;6252
3;42;1572162456547;1572162468032;11485;36339193848;4006553099;1128078443;695227909;888536868;129770594;409056872;741;3;1407424;3;3220;6039
3;43;1572162468032;1572162479551;11519;36388592948;4006548991;1128175054;699939462;888536377;129803405;408962939;839;41;1419680;-3;3703;12251
3;44;1572162479551;1572162491161;11610;36694938032;4006549402;1127284676;705324675;888536537;129775745;408740047;754;0;1434960;1;3373;6240
3;45;1572162491161;1572162502685;11524;36383053562;4006562688;1127474497;699499799;888539364;129780440;408605041;743;1;1426720;-1;3169;5900
3;46;1572162502685;1572162514335;11650;36762959724;4006551815;1130130616;706823248;888536754;129770927;409445768;839;44;1429480;1;3888;12641
3;47;1572162514335;1572162525895;11560;36475066266;4006537788;1127464144;698584647;888533633;129763301;409120483;753;3;1432632;2;3333;6300
3;48;1572162525895;1572162537458;11563;36523218234;4006548604;1128005550;702141916;888536357;129784362;408615420;850;57;1455224;-3;3799;14119
3;49;1572162537458;1572162549003;11545;36370540778;4006533623;1127830038;700191150;888533424;129800967;409297938;1114;49;1472424;4;6628;55421
3;50;1572162549003;1572162560553;11550;36407068226;4006538656;1128312690;698293192;888534014;129775945;408821557;899;11;1427408;-4;4589;16437
3;51;1572162560553;1572162572131;11578;36562841466;4006548618;1128686058;704863429;888536371;129783438;408160082;745;2;1419144;3;3201;6113
3;52;1572162572131;1572162583790;11659;36831640606;4006533550;1129586894;709263322;888533115;129767441;409799476;945;62;1460896;-2;4437;21428
3;53;1572162583790;1572162595330;11540;36449894990;4006548904;1126634647;698325259;888536406;129754521;407993148;751;2;1426720;-1;3299;6226
3;54;1572162595330;1572162606810;11480;36215858888;4006549573;1127073159;695026311;888536487;129774734;408469513;732;0;1378088;0;3161;5997
3;55;1572162606810;1572162618358;11548;36411766214;4006532141;1129003308;703611264;888532790;129799151;408971656;853;47;1436376;1;3919;12053
3;56;1572162618358;1572162630001;11643;36481323096;4006562319;1131101127;708395308;888539362;129812239;409642973;754;2;1426768;-1;3338;6201
3;57;1572162630001;1572162641505;11504;36314095718;4006538504;1127341667;698161276;888533711;129782365;409447143;823;52;1413672;0;3569;11903
3;58;1572162641505;1572162653037;11532;36351732766;4006531637;1128687153;700268837;888532541;129802415;409511761;730;4;1378080;0;3457;6312
3;59;1572162653037;1572162664640;11603;36576848268;4006533610;1129870001;704552117;888533407;129783358;410156323;755;3;1429112;1;3216;6092
3;60;1572162664640;1572162676289;11649;36827464422;4006533228;1127485598;709288414;888533029;129781481;408230674;863;46;1450816;-1;3987;13868
3;61;1572162676289;1572162687876;11587;36611018546;4006562758;1128184098;703617557;888539434;129784465;408664839;746;0;1413224;0;3351;6461
4;12;1572162949684;1572162961598;11914;36514515174;4077335777;1117015416;688174439;889844191;130258533;409472588;840;42;1414096;0;3686;13584
4;13;1572162961598;1572162973355;11757;36290498030;4077342754;1118271223;687206335;889846165;130278102;410270765;713;0;1383960;0;3315;6047
4;14;1572162973355;1572162985022;11667;36187570658;4077339274;1117775068;685008073;889845315;130295498;410874772;707;1;1378040;0;3128;5729
4;15;1572162985023;1572162996755;11732;36386795688;4077329936;1118050484;689412381;889844038;130287064;409736174;821;48;1396616;0;3770;12920
4;16;1572162996755;1572163008528;11773;36323980940;4077329820;1120529923;695723195;889843689;130268727;411228877;735;0;1425024;0;3326;6036
4;17;1572163008528;1572163020651;12123;36138308506;4077339403;1118331913;688819080;889845304;130277567;409820998;865;38;1478528;0;3839;13339
4;18;1572163020651;1572163032337;11686;36158801796;4077345426;1117782569;687226035;889846573;130272620;410808161;724;0;1411456;1;3466;6204
4;19;1572163032337;1572163044045;11708;36135013724;4077334570;1118538757;689397114;889844069;130294454;409853815;722;0;1401544;0;3234;5905
4;20;1572163044045;1572163055560;11515;36188874584;4077329611;1119989751;693577585;889843228;130270269;411073575;819;47;1403960;-1;3845;11905
4;21;1572163055561;1572163067280;11719;36235058180;4077329264;1120279786;694228817;889843133;130244439;409458036;829;34;1430624;0;3734;10189
4;22;1572163067280;1572163078646;11366;35901167130;4077328970;1121162274;690900694;889842858;130319407;409489018;704;0;1372176;0;3265;5838
4;23;1572163078647;1572163090023;11376;35931372632;4077344754;1120074911;690190051;889846362;130300510;410177007;727;2;1413256;0;3187;5916
4;24;1572163090023;1572163101401;11378;35932081316;4077328714;1121602083;694402866;889842835;130273695;409680762;827;48;1432544;0;3681;12582
4;25;1572163101401;1572163112768;11367;35842425344;4077338951;1119844255;691754025;889844602;130303247;408982371;729;1;1407400;0;3351;6141
4;26;1572163112768;1572163124179;11411;36035965280;4077344511;1121002026;695864491;889846303;130296064;409890695;729;2;1419088;0;3177;5854
4;27;1572163124179;1572163135541;11362;35986012256;4077328917;1120844703;693248286;889842867;130301935;409354024;818;46;1425328;0;3891;11214
4;28;1572163135541;1572163146962;11421;36074049234;4077328737;1121469091;698310592;889842858;130272952;409574357;734;3;1419136;0;3339;6259
4;29;1572163146962;1572163158408;11446;36199090496;4077333947;1122895428;701016133;889843483;130283359;409971148;812;52;1407992;0;3524;10718
4;30;1572163158408;1572163169788;11380;35928820406;4077328279;1123237243;696337366;889842419;130298801;409674584;719;1;1398192;2;3496;6199
4;31;1572163169788;1572163181192;11404;36052953402;4077328635;1123106155;698492792;889842523;130305636;409984381;730;1;1410696;-2;3238;5973
4;32;1572163181193;1572163192584;11391;35996721210;4077338602;1121900774;696302156;889844272;130299063;410119199;807;47;1411848;1;3616;10296
4;33;1572163192584;1572163203912;11328;35828442486;4077357514;1121359655;691770027;889848848;130314984;410331992;721;0;1385712;-1;3280;5947
4;34;1572163203912;1572163215239;11327;35779304726;4077342004;1121186490;692357766;889845434;130305259;408821414;716;3;1383904;0;3179;5872
4;35;1572163215239;1572163226615;11376;35951880376;4077342047;1123383620;696871702;889845477;130317131;410034113;816;53;1419456;0;3797;10392
4;36;1572163226615;1572163237946;11331;35774753760;4077351833;1120199554;691331962;889847143;130289857;408697315;735;3;1407424;0;3335;6397
4;37;1572163237947;1572163249372;11425;36112076978;4077342093;1123189676;698353109;889845523;130253840;409635959;822;43;1429928;1;3482;10751
4;38;1572163249372;1572163260758;11386;36005592608;4077342001;1122904727;698493656;889845468;130265898;410114688;732;1;1409128;-1;3553;6349
4;39;1572163260758;1572163272147;11389;35979640962;4077342054;1122500487;696399123;889845484;130297796;409905681;735;1;1398240;2;3195;5975
4;40;1572163272147;1572163283478;11331;35787903104;4077328553;1121075692;692471229;889842441;130272559;409598893;802;52;1399568;-2;3518;10442
4;41;1572163283478;1572163294797;11319;35749422760;4077328212;1121829295;691725245;889842352;130290231;409669663;733;0;1401536;0;3338;6025
4;42;1572163294798;1572163306218;11420;36083450612;4077328597;1122747300;698542149;889842522;130323496;410585862;735;2;1419088;0;3215;5975
4;43;1572163306218;1572163317605;11387;36007840862;4077328315;1122292582;698254420;889842455;130304420;409792597;799;51;1407968;0;3712;10629
4;44;1572163317605;1572163328939;11334;35812958018;4077328249;1121267081;693016502;889842389;130301632;410408645;725;0;1378080;0;3159;5887
4;45;1572163328939;1572163340299;11360;35899490028;4077328281;1122863957;694544713;889842421;130270278;410187199;728;1;1401496;0;3141;5845
4;46;1572163340300;1572163351652;11352;35869933642;4077328269;1122383191;695030512;889842409;130301539;410481777;837;42;1425584;0;3856;11339
4;47;1572163351652;1572163363056;11404;36040561068;4077328317;1122887215;698147709;889842457;130293806;410874874;744;1;1415664;2;3290;6201
4;48;1572163363056;1572163374411;11355;35864337754;4077328249;1120504348;695403863;889842389;130286866;410288034;790;55;1393680;1;3411;9420
4;49;1572163374411;1572163385801;11390;35954422674;4077328634;1123046651;697417093;889842584;130252159;409829074;915;44;1405488;8;4778;24483
4;50;1572163385801;1572163397261;11460;36201510592;4077328637;1124074586;701885173;889842758;130274133;409967901;1091;10;1463680;-8;7058;37846
4;51;1572163397261;1572163408955;11694;36237139994;4077357029;1120587413;694057702;889849011;130303102;409155498;772;4;1454336;-3;3252;6252
4;52;1572163408955;1572163420613;11658;36473785700;4077344645;1122195829;697847819;889846253;130299758;410722961;929;57;1463536;0;3976;17063
4;53;1572163420613;1572163432172;11559;36073383474;4077344930;1121160069;696598744;889846535;130293270;410297834;757;5;1430816;0;3454;6373
4;54;1572163432172;1572163443538;11366;35921044154;4077343128;1122898258;697575910;889845709;130310172;409682300;752;5;1395848;0;3216;6115
4;55;1572163443538;1572163454905;11367;35947200346;4077344998;1121716630;694135998;889846105;130333779;410425913;846;47;1414288;0;3734;12599
4;56;1572163454905;1572163466257;11352;35896377454;4077342038;1122623367;693824127;889845452;130291968;410828561;738;6;1395696;0;3285;6103
4;57;1572163466257;1572163477627;11370;35977290800;4077341743;1122030674;696217094;889845406;130315276;410127609;740;3;1393864;1;3121;6052
4;58;1572163477627;1572163489081;11454;36202391118;4077329033;1124143186;701268727;889842653;130294192;410096691;883;48;1427360;-1;3879;15625
4;59;1572163489081;1572163500521;11440;36145398266;4077328357;1122929348;700052966;889842478;130288240;410518505;749;11;1407424;0;3334;6341
4;60;1572163500521;1572163512008;11487;36292097898;4077334634;1123772740;703659002;889843515;130288077;410106199;874;51;1425728;0;3716;14507
4;61;1572163512008;1572163523455;11447;36150666676;4077356455;1123789746;699760798;889848727;130269750;410356790;750;9;1413224;0;3419;6178
