0;52;1572170177224;1572170183949;6725;22719557130;67507850758;2743474904;1600710;2813895583;322942;1407113584;9;0;1440;0;5;7
0;53;1572170183949;1572170190635;6686;22730793582;67507850795;2702793421;1801981;2813895620;316620;1406858029;4;0;1384;0;4;4
0;54;1572170190635;1572170197145;6510;22741950756;67507850705;2747768683;1152321;2813895530;323479;1407083341;6;0;1400;0;3;3
0;55;1572170197145;1572170203668;6523;22787957546;67507850637;2739927056;2045944;2813895462;325429;1406968307;2;0;464;0;2;2
0;56;1572170203668;1572170210433;6765;22737026468;67507850733;2725187282;1196039;2813895558;325356;1407005513;59;24;8488;0;124;700
0;57;1572170210433;1572170221087;10654;22767078816;67507861973;2651053210;10173734;2813898321;319630;1406844560;8;0;1424;0;5;7
0;58;1572170221087;1572170227606;6519;22735539896;67507850773;2743294838;867505;2813895598;317128;1407014311;7;0;1416;0;4;4
0;59;1572170227606;1572170234128;6522;22778962924;67507850650;2747734722;1501961;2813895475;296797;1406965651;4;0;1384;0;4;4
0;60;1572170234128;1572170240684;6556;22765374266;67507850675;2746445813;1807081;2813895500;322792;1407104139;53;18;9144;0;113;579
0;61;1572170240684;1572170247256;6572;22741054024;67507850694;2727792994;1193041;2813895519;323890;1406919282;7;0;968;0;12;13
0;62;1572170247257;1572170253779;6522;22747827986;67507850635;2750196833;983213;2813895460;324843;1407045370;1;0;456;0;1;1
0;63;1572170253780;1572170260289;6509;22741442530;67507850622;2753550889;1077491;2813895447;308747;1406988160;6;0;1400;0;4;4
0;64;1572170260289;1572170266816;6527;22733240980;67507850629;2740274661;1128319;2813895454;324624;1407021742;4;0;1384;0;3;3
0;65;1572170266816;1572170273326;6510;22730042558;67507850693;2687798386;1218977;2813895518;317685;1406919696;7;0;976;0;4;7
0;66;1572170273326;1572170279847;6521;22756841734;67507850847;2748454539;1114908;2813895672;303651;1406995689;42;32;8280;0;121;477
0;67;1572170279847;1572170291052;11205;22775996788;67507862203;2683489208;12539084;2813898930;315657;1406903005;11;0;2792;0;9;9
0;68;1572170291052;1572170297605;6553;22776681966;67507850680;2742333867;1431914;2813895505;325183;1406822315;0;0;0;0;0;0
0;69;1572170297605;1572170304110;6505;22728780680;67507850623;2738370018;566189;2813895448;311922;1406803386;8;0;1432;0;12;13
0;70;1572170304111;1572170310875;6764;22759090718;67507850833;2700163146;3781481;2813895658;306874;1407028657;61;18;9064;2;31;600
0;71;1572170310875;1572170317385;6510;22735895698;67507850668;2744425552;1144754;2813895493;297564;1406804790;8;0;1400;-2;102;182
0;72;1572170317385;1572170323934;6549;22752362454;67507850621;2745736671;1323072;2813895446;297876;1407026138;5;0;944;0;3;3
0;73;1572170323935;1572170330452;6517;22752158930;67507850664;2702892358;1259180;2813895489;313157;1406939123;1;0;456;0;1;1
0;74;1572170330453;1572170337033;6580;22738430550;67507850809;2653889796;1750985;2813895634;317211;1406902068;8;0;1424;0;6;9
0;75;1572170337033;1572170343584;6551;22749439388;67507850675;2692158495;1863278;2813895500;311169;1407002155;4;0;1384;0;4;4
0;76;1572170343585;1572170350218;6633;22765366820;67507850683;2740427885;1929172;2813895508;321597;1407090197;42;30;8920;0;115;365
0;77;1572170350218;1572170356852;6634;22782936752;67507850681;2734819136;2009415;2813895506;297529;1406967446;0;0;0;0;0;0
0;78;1572170356852;1572170363576;6724;22747634244;67507851227;2734461833;3250925;2813896052;307276;1407070283;490;19;51176;0;1516;2100
0;79;1572170363576;1572170370218;6642;22769168952;67507850805;2735207627;1727528;2813895630;312292;1407031142;8;0;1424;0;4;4
0;80;1572170370218;1572170376731;6513;22757265426;67507850621;2728651503;1063468;2813895446;323098;1407003888;4;0;1384;0;3;3
0;81;1572170376731;1572170383277;6546;22756211306;67507850698;2732794767;1261546;2813895523;303707;1407051207;5;0;496;0;3;3
0;82;1572170383277;1572170389799;6522;22751667056;67507850673;2730802648;1061643;2813895498;323621;1406952741;2;0;920;0;2;2
0;83;1572170389799;1572170396316;6517;22758648776;67507850678;2738490691;1289519;2813895503;324924;1406964082;127;39;10600;0;156;1840
0;84;1572170396316;1572170402975;6659;22754229064;67507850730;2665596120;1687993;2813895555;316157;1406897195;4;0;1384;0;4;4
0;85;1572170402975;1572170409486;6511;22741940390;67507850742;2638738061;1178091;2813895567;321221;1406990982;3;0;928;0;4;4
0;86;1572170409487;1572170416160;6673;22746450330;67507850699;2645155387;1517014;2813895524;323481;1406999554;4;0;480;0;2;4
0;87;1572170416160;1572170422717;6557;22720441306;67507850788;2632515921;1281320;2813895613;297711;1407034637;4;0;1384;0;4;4
0;88;1572170422717;1572170429229;6512;22739499562;67507850644;2647825545;1217618;2813895469;322110;1406983437;62;32;10920;0;145;718
0;89;1572170429229;1572170435751;6522;22752881046;67507851035;2618675664;1627799;2813895860;297147;1407067008;4;0;1384;0;4;4
0;90;1572170435751;1572170442329;6578;22748862250;67507850668;2743893990;1365590;2813895493;301972;1406963982;3;0;24;0;1;2
0;91;1572170442329;1572170448986;6657;22733525534;67507850680;2731891006;1635613;2813895505;309906;1407052136;4;0;1384;0;4;4
0;92;1572170448987;1572170455515;6528;22804440800;67507850661;2686645006;2060351;2813895486;297184;1407051816;4;0;1384;0;3;3
0;93;1572170455515;1572170462024;6509;22742501322;67507850639;2745837967;1136359;2813895464;297288;1407006229;8;0;1432;0;4;6
0;94;1572170462024;1572170468537;6513;22751334030;67507850634;2748906709;1370624;2813895459;320333;1406865267;41;24;8160;0;119;478
0;95;1572170468537;1572170475044;6507;22736041844;67507850618;2745417435;743989;2813895443;319709;1407065488;5;0;944;0;3;3
0;96;1572170475044;1572170481554;6510;22741561520;67507850622;2742928428;1093220;2813895447;323416;1406957648;4;0;1384;0;4;4
0;97;1572170481554;1572170488060;6506;22733716064;67507850641;2744446762;907796;2813895466;324042;1407095833;7;0;1416;0;4;4
0;98;1572170488060;1572170494605;6545;22772400224;67507850765;2730539189;1736145;2813895590;327589;1406945335;2;0;464;0;1;1
0;99;1572170494606;1572170501123;6517;22735607786;67507850846;2742541724;842777;2813895671;321089;1407045181;41;24;8424;0;98;423
0;100;1572170501123;1572170507718;6595;22763156088;67507850666;2688904852;2351652;2813895491;315068;1407023091;8;0;1424;0;5;6
0;101;1572170507718;1572170514264;6546;22751370676;67507850635;2635583954;1650875;2813895460;298234;1407006802;4;0;1384;0;4;4
1;54;1572170997996;1572171004514;6518;22757273894;67507850638;2726570073;1286947;2813895463;296828;1406855322;4;0;1384;0;3;3
1;55;1572171004514;1572171011344;6830;22748077208;67507861375;2725715068;2029501;2813897660;311023;1406766083;4;0;1384;0;6;6
1;56;1572171011344;1572171017979;6635;22735795104;67507850942;2635228894;2263912;2813895767;299694;1406816135;6;0;1408;0;4;4
1;57;1572171017979;1572171024596;6617;22721636900;67507850651;2641782145;1365372;2813895476;324441;1406783758;4;0;1384;0;3;3
1;58;1572171024596;1572171031099;6503;22711658968;67507850626;2635683410;721660;2813895451;326123;1406900644;53;18;8792;0;105;520
1;59;1572171031099;1572171037644;6545;22754683708;67507850654;2703770937;1610658;2813895479;307918;1406701189;4;0;1384;0;4;4
1;60;1572171037644;1572171048914;11270;22823252170;67507862092;2659380206;14849504;2813898377;316378;1406820755;7;0;1424;0;4;5
1;61;1572171048915;1572171055436;6521;22734337148;67507850708;2635198663;1130395;2813895533;325957;1406722140;4;0;1384;0;4;4
1;62;1572171055437;1572171061963;6526;22752757530;67507850978;2637339795;1379146;2813895803;314040;1406865605;8;0;1416;0;4;7
1;63;1572171061963;1572171068490;6527;22748435638;67507851018;2630172154;1391374;2813895843;312209;1406854493;54;22;9048;0;149;686
1;64;1572171068490;1572171078001;9511;22811901254;67507862115;2617446111;11890485;2813898400;304456;1406771238;6;0;1416;0;4;4
1;65;1572171078002;1572171084548;6546;22740107068;67507851006;2675439367;1386525;2813895831;320348;1406796357;4;0;1384;0;4;4
1;66;1572171084548;1572171091090;6542;22773348640;67507851001;2694845464;1720862;2813895826;296918;1406797922;9;0;1424;0;4;8
1;67;1572171091090;1572171097607;6517;22761925454;67507850659;2753639017;1259823;2813895484;297279;1406777058;41;22;9016;0;122;460
1;68;1572171097607;1572171104365;6758;22778153792;67507850663;2734005878;3831140;2813895488;324876;1406605604;4;0;1384;0;3;3
1;69;1572171104365;1572171111259;6894;22766152154;67507850867;2727390556;2036372;2813895692;316907;1406773140;5;0;1400;0;4;4
1;70;1572171111259;1572171117782;6523;22732957156;67507850688;2641673259;1249737;2813895513;325260;1406759833;4;0;1384;0;4;4
1;71;1572171117782;1572171124400;6618;22765365506;67507850763;2639166201;1867942;2813895588;310684;1406831261;10;0;1440;0;5;10
1;72;1572171124400;1572171131059;6659;22746583044;67507850703;2654468299;1581646;2813895528;326081;1406804940;52;18;8624;0;125;574
1;73;1572171131059;1572171137608;6549;22733300986;67507850735;2652541580;1134482;2813895560;318962;1406812867;4;0;936;0;2;2
1;74;1572171137608;1572171144212;6604;22718891370;67507850680;2643315566;773272;2813895505;326505;1406610372;2;0;920;0;2;2
1;75;1572171144212;1572171150714;6502;22707794932;67507850627;2639569343;623791;2813895452;325230;1406813603;8;0;1416;0;5;8
1;76;1572171150714;1572171157235;6521;22737125748;67507850631;2636645155;1240403;2813895456;325574;1406895327;4;0;1384;0;4;4
1;77;1572171157235;1572171163752;6517;22764762088;67507850636;2635987128;1722975;2813895461;326203;1406792118;54;14;7928;0;96;546
1;78;1572171163752;1572171170273;6521;22765666120;67507850690;2659880809;1634550;2813895515;319504;1406796482;7;0;1424;0;12;12
1;79;1572171170273;1572171176778;6505;22735582528;67507850625;2629270016;1284274;2813895450;323158;1406890724;4;0;1384;0;3;3
1;80;1572171176778;1572171183288;6510;22747073166;67507850636;2634615965;1452068;2813895461;326950;1406804146;8;0;1416;0;5;8
1;81;1572171183288;1572171189984;6696;22745183926;67507850856;2730001443;1748342;2813895681;323191;1406857390;4;0;1392;0;3;3
1;82;1572171189984;1572171196613;6629;22772750186;67507850822;2747918637;1488423;2813895647;324041;1406846681;46;24;8368;0;114;543
1;83;1572171196613;1572171203295;6682;22730804094;67507850699;2655253703;1699782;2813895524;310779;1406816060;6;0;960;0;3;3
1;84;1572171203295;1572171209810;6515;22751772760;67507850639;2642114555;836110;2813895464;325916;1406865042;2;0;920;0;2;2
1;85;1572171209810;1572171216320;6510;22732245844;67507850627;2628069685;894196;2813895452;325438;1406585235;8;0;1416;0;5;7
1;86;1572171216320;1572171223012;6692;22775046912;67507850755;2640566607;2620093;2813895580;316749;1406833458;4;0;1384;0;4;4
1;87;1572171223012;1572171229833;6821;22764869544;67507850863;2686921709;3213735;2813895688;317105;1406889132;51;30;9240;0;100;522
1;88;1572171229833;1572171236340;6507;22722921262;67507850667;2642656003;865968;2813895492;326058;1406769100;4;0;1384;0;3;3
1;89;1572171236340;1572171242853;6513;22750317578;67507850645;2636981539;1364126;2813895470;325912;1406889254;9;0;1424;0;5;9
1;90;1572171242853;1572171249406;6553;22746695756;67507850991;2662113394;1537453;2813895816;311056;1406840330;479;29;52456;0;1551;1991
1;91;1572171249406;1572171255911;6505;22720946466;67507850638;2642007296;967849;2813895463;297488;1406824768;4;0;1384;0;4;4
1;92;1572171255912;1572171266393;10481;22843574494;67507862318;2683259195;15877000;2813898603;319555;1406833669;5;0;1400;0;4;4
1;93;1572171266393;1572171272933;6540;22757381642;67507851218;2668273284;1380468;2813896043;310938;1406828724;4;0;1384;0;3;3
1;94;1572171272933;1572171279454;6521;22742813032;67507850992;2630825341;1154284;2813895817;310696;1406794546;134;26;10320;0;190;2256
1;95;1572171279454;1572171285992;6538;22761354302;67507850666;2600879233;1785678;2813895491;297465;1406908350;4;0;1384;0;4;4
1;96;1572171285992;1572171292729;6737;22763053304;67507850700;2614249153;1835537;2813895525;323086;1406681085;13;1;1544;0;5;14
1;97;1572171292730;1572171299245;6515;22762644504;67507850645;2639640714;1459708;2813895470;326395;1406879549;4;0;1384;0;4;4
1;98;1572171299246;1572171305772;6526;22794475570;67507850654;2618422194;1588301;2813895479;324755;1406797215;7;0;504;0;2;6
1;99;1572171305772;1572171312425;6653;22729466004;67507850662;2644033387;1427211;2813895487;304745;1406783181;54;26;10760;0;140;751
1;100;1572171312425;1572171318928;6503;22715918810;67507850615;2640924990;759918;2813895440;305070;1406684239;4;0;1384;0;4;4
1;101;1572171318929;1572171330147;11218;22777990564;67507867661;2705900761;14722339;2813899845;315167;1406444508;10;0;2800;0;7;7
1;102;1572171330147;1572171336705;6558;22744235072;67507850125;2637363787;1332272;2813895430;296901;1406727898;46;22;8736;0;124;446
1;103;1572171336706;1572171343214;6508;22745882682;67507850025;2636769733;1588054;2813895330;296773;1406772136;4;0;1384;0;4;4
2;53;1572171833112;1572171839645;6533;22730111470;67507850983;2635881931;1064504;2813895808;322050;1406737380;4;0;1384;0;4;4
2;54;1572171839645;1572171846165;6520;22725727820;67507851008;2659362208;1040141;2813895833;312994;1406850757;6;0;1416;0;4;4
2;55;1572171846165;1572171852695;6530;22759177150;67507850957;2725193313;1529293;2813895782;308140;1406812758;40;22;7992;0;108;376
2;56;1572171852695;1572171859262;6567;22767726034;67507850771;2716602722;2150424;2813895596;321711;1406820381;9;0;1424;0;6;11
2;57;1572171859262;1572171865852;6590;22743829338;67507850707;2638545460;1968061;2813895532;322516;1406774526;4;0;1384;0;3;3
2;58;1572171865852;1572171876417;10565;22840173570;67507862043;2696927675;22416021;2813898380;315214;1406888894;5;0;1400;0;4;4
2;59;1572171876418;1572171887134;10716;22784751970;67507862455;2696814525;13958725;2813898792;314575;1406699838;48;22;10240;0;109;450
2;60;1572171887134;1572171893662;6528;22764523378;67507850662;2749441382;1487593;2813895487;297038;1406909871;10;0;1440;0;5;10
2;61;1572171893662;1572171900184;6522;22757705908;67507850653;2739294317;1506990;2813895478;318470;1406726406;4;0;1384;0;4;4
2;62;1572171900184;1572171906740;6556;22787458518;67507850699;2727657911;1952256;2813895524;320990;1406857286;5;0;1400;0;4;4
2;63;1572171906740;1572171913260;6520;22763035784;67507850773;2740255326;1409599;2813895598;320262;1406559376;2;0;464;0;2;2
2;64;1572171913261;1572171919777;6516;22747940114;67507850781;2744658225;943169;2813895606;320838;1406832284;53;22;8520;0;114;563
2;65;1572171919777;1572171926292;6515;22749120378;67507850714;2739408364;1077116;2813895539;322910;1406698518;4;0;1384;0;3;3
2;66;1572171926292;1572171932815;6523;22759014944;67507850643;2727560209;1474965;2813895468;320075;1406901923;4;0;1384;0;5;5
2;67;1572171932815;1572171942084;9269;22808835984;67507861126;2719376796;11935822;2813897783;318532;1406696740;7;0;1424;0;5;5
2;68;1572171942084;1572171948597;6513;22742284804;67507850766;2745602962;967401;2813895591;312510;1406892236;4;0;1384;0;4;4
2;69;1572171948597;1572171955121;6524;22764473154;67507850885;2745266018;1395452;2813895710;322163;1406782159;43;30;8984;0;126;465
2;70;1572171955121;1572171961646;6525;22775779832;67507850847;2745082962;1796531;2813895672;323829;1406861601;4;0;1384;0;4;4
2;71;1572171961646;1572171968222;6576;22778410460;67507850883;2738433519;2004952;2813895708;321214;1406866951;7;0;1424;0;5;5
2;72;1572171968222;1572171974754;6532;22768481730;67507850933;2679104847;1725526;2813895758;324513;1406814332;4;0;1384;0;4;4
2;73;1572171974754;1572171981280;6526;22757578158;67507850880;2692416623;1338639;2813895705;297311;1406837816;47;26;8856;0;139;519
2;74;1572171981280;1572171987809;6529;22775449142;67507850712;2745142461;1813290;2813895537;314623;1406850031;4;0;1384;0;4;4
2;75;1572171987809;1572171994336;6527;22771773884;67507850693;2739674676;1650594;2813895518;313232;1406803992;4;0;1384;0;4;4
2;76;1572171994336;1572172000864;6528;22771456918;67507850691;2740988289;1456268;2813895516;319495;1406887943;6;0;968;0;4;4
2;77;1572172000864;1572172007389;6525;22756202400;67507850700;2737542069;1330342;2813895525;315643;1406799637;3;0;920;0;3;3
2;78;1572172007389;1572172014036;6647;22750238008;67507850893;2741183391;1706384;2813895718;309716;1406840967;37;26;8520;0;111;263
2;79;1572172014036;1572172020559;6523;22755802506;67507850878;2752291632;928457;2813895703;321636;1406922868;4;0;1384;0;4;4
2;80;1572172020559;1572172027085;6526;22767136778;67507850854;2744769174;1519490;2813895679;311277;1406807823;6;0;1408;0;3;3
2;81;1572172027085;1572172033608;6523;22763661686;67507850817;2745769583;1493342;2813895642;301675;1406863284;4;0;1384;0;4;4
2;82;1572172033609;1572172040133;6524;22762868906;67507850888;2741875420;1325924;2813895713;322794;1406877470;4;0;1384;0;4;4
2;83;1572172040133;1572172046668;6535;22775293798;67507850909;2741742043;1758532;2813895734;319683;1406841381;43;26;9096;0;133;390
2;84;1572172046668;1572172053376;6708;22786913062;67507851219;2743716578;3094480;2813896044;307916;1406887505;475;13;49000;0;1520;1976
2;85;1572172053376;1572172059901;6525;22765290608;67507850707;2749805041;1531567;2813895532;321269;1406825801;5;0;1400;0;4;4
2;86;1572172059901;1572172066478;6577;22780367152;67507850795;2756657587;1775021;2813895620;319750;1406816380;4;0;1384;0;5;5
2;87;1572172066478;1572172073060;6582;22773535958;67507850769;2748409635;1468860;2813895594;321942;1406907303;8;0;968;0;3;7
2;88;1572172073060;1572172079637;6577;22763960110;67507850911;2707963155;1769053;2813895736;320772;1406735790;3;0;920;0;4;4
2;89;1572172079637;1572172086205;6568;22741898488;67507850710;2650188853;1341281;2813895535;321983;1406878506;63;22;9512;0;168;872
2;90;1572172086205;1572172093071;6866;22763516124;67507850789;2698502786;3040880;2813895614;320816;1406823477;88;0;2240;0;66;1816
2;91;1572172093071;1572172099587;6516;22732918028;67507850883;2629257734;810913;2813895708;321899;1406849569;4;0;1384;0;3;3
2;92;1572172099587;1572172106108;6521;22748759612;67507850898;2661844788;1250088;2813895723;323233;1406850516;9;0;1424;0;5;9
2;93;1572172106108;1572172112630;6522;22756550172;67507850841;2731012146;1365869;2813895666;309551;1406827595;47;36;10552;0;130;491
2;94;1572172112631;1572172119148;6517;22755273986;67507850778;2746613745;1309319;2813895603;297023;1406788948;5;0;1400;0;5;5
2;95;1572172119148;1572172125669;6521;22767071370;67507850772;2760787450;1416389;2813895597;303824;1406922159;4;0;1384;0;4;4
2;96;1572172125669;1572172132189;6520;22771861484;67507850775;2725205663;1748447;2813895600;310808;1406755808;4;0;1384;0;3;3
2;97;1572172132189;1572172138707;6518;22758958296;67507850784;2756731312;1405718;2813895609;316421;1406889394;10;0;1440;0;7;13
2;98;1572172138707;1572172145226;6519;22770990740;67507850664;2740138436;1655432;2813895489;297749;1406801046;4;0;1384;0;4;4
2;99;1572172145226;1572172151747;6521;22754848688;67507850662;2749843520;1388252;2813895487;325950;1406787872;33;28;8512;0;116;315
2;100;1572172151747;1572172158263;6516;22754099416;67507850648;2743742513;973597;2813895473;326070;1406827901;3;0;928;0;3;3
2;101;1572172158263;1572172164882;6619;22741481074;67507850728;2745690531;1435885;2813895553;324722;1406769181;2;0;920;0;2;2
2;102;1572172164882;1572172171397;6515;22749804680;67507850669;2740888668;1148674;2813895494;325699;1406777166;9;0;1424;0;5;9
3;52;1572172659135;1572172666087;6952;22726268604;67507850875;2633210190;2880112;2813895700;308897;1406860597;4;0;1384;0;4;4
3;53;1572172666087;1572172673523;7436;22775732236;67507860349;2637696880;7101069;2813897427;323394;1406855415;4;0;1384;0;4;4
3;54;1572172673523;1572172680229;6706;22729929992;67507850750;2636247862;1591718;2813895575;323679;1406893137;40;24;9112;0;119;388
3;55;1572172680229;1572172686752;6523;22761834204;67507850637;2636103039;1299213;2813895462;325880;1406828285;11;0;1456;0;5;11
3;56;1572172686752;1572172693272;6520;22753312768;67507850627;2639766073;1252452;2813895452;325629;1406997323;4;0;1384;0;5;5
3;57;1572172693272;1572172703535;10263;22817868712;67507862160;2683954010;16938562;2813898469;316874;1406731595;4;0;1384;0;4;4
3;58;1572172703535;1572172710416;6881;22748389940;67507850879;2632805559;2823948;2813895704;311963;1406894412;4;0;1384;0;3;3
3;59;1572172710416;1572172717304;6888;22763969308;67507850784;2637124689;2512242;2813895609;306859;1406757551;42;30;9344;0;118;340
3;60;1572172717304;1572172725521;8217;22774316328;67507861388;2684410542;6469611;2813897736;302898;1406804132;4;0;1384;0;4;4
3;61;1572172725521;1572172732075;6554;22748290368;67507850914;2731408150;1035337;2813895739;300928;1406738305;4;0;1384;0;3;3
3;62;1572172732075;1572172738620;6545;22761044782;67507850724;2724472592;1390723;2813895549;303025;1406779810;4;0;1384;0;4;4
3;63;1572172738620;1572172745173;6553;22746376600;67507850846;2715878395;1411397;2813895671;326210;1406527017;31;24;8440;0;119;275
3;64;1572172745173;1572172751782;6609;22740250440;67507850632;2758984032;1095063;2813895457;325919;1406988844;4;0;1384;0;5;5
3;65;1572172751782;1572172758459;6677;22757643274;67507850818;2681469986;1447382;2813895643;314022;1406763335;5;0;1392;0;5;5
3;66;1572172758459;1572172764970;6511;22747863172;67507850745;2739263488;1117489;2813895570;297358;1406945070;4;0;1384;0;4;4
3;67;1572172764970;1572172771486;6516;22760803590;67507850629;2735164930;1005607;2813895454;316964;1406885310;4;0;1384;0;3;3
3;68;1572172771486;1572172781543;10057;22828491526;67507862016;2690892729;16257508;2813898344;313459;1406789714;45;24;8760;0;105;391
3;69;1572172781544;1572172788101;6557;22753820118;67507851234;2692174705;1504746;2813896059;317388;1406878369;4;0;1384;0;3;3
3;70;1572172788101;1572172794623;6522;22748647338;67507850930;2705760873;1201449;2813895755;312400;1406880477;5;0;1392;0;3;3
3;71;1572172794623;1572172801145;6522;22743879124;67507850900;2652890699;1352113;2813895725;321945;1406869415;4;0;1384;0;4;4
3;72;1572172801145;1572172807669;6524;22741001318;67507850978;2638898051;1204006;2813895803;322023;1406942205;47;24;8416;0;97;440
3;73;1572172807669;1572172814193;6524;22745796688;67507850886;2636073723;1160433;2813895711;323145;1406851508;3;0;920;0;2;2
3;74;1572172814193;1572172820721;6528;22761447888;67507850717;2725227034;1078350;2813895542;304351;1406914360;4;0;944;0;2;2
3;75;1572172820721;1572172827236;6515;22758381888;67507850625;2739995210;840584;2813895450;296818;1406884501;4;0;1384;0;2;2
3;76;1572172827237;1572172833752;6515;22761379998;67507850623;2735654231;1152887;2813895448;297102;1406904850;4;0;1384;0;4;4
3;77;1572172833752;1572172840444;6692;22773816424;67507850714;2706142762;2855927;2813895539;320859;1406937587;54;22;8808;0;109;520
3;78;1572172840444;1572172846963;6519;22752710810;67507850766;2712135559;1173565;2813895591;315847;1406757693;4;0;1384;0;4;4
3;79;1572172846963;1572172853473;6510;22748239122;67507850638;2740469518;991499;2813895463;307906;1406806971;5;0;1392;0;3;3
3;80;1572172853473;1572172859982;6509;22746261260;67507850636;2735292707;1111721;2813895461;321948;1406970115;498;23;51240;0;1553;2142
3;81;1572172859982;1572172866501;6519;22778932848;67507850627;2724269539;1546859;2813895452;296906;1406868453;10;0;1448;0;5;10
3;82;1572172866501;1572172873024;6523;22772707116;67507850629;2711329775;1331484;2813895454;299702;1406620839;4;0;1384;0;4;4
3;83;1572172873024;1572172879552;6528;22792838910;67507850637;2720926164;1704034;2813895462;311802;1406826596;2;0;464;0;1;1
3;84;1572172879552;1572172886079;6527;22765855190;67507850624;2723183220;1177320;2813895449;314222;1406871270;2;0;920;0;2;2
3;85;1572172886079;1572172892591;6512;22746371928;67507850621;2737118443;832503;2813895446;322668;1406966368;53;22;8856;0;125;592
3;86;1572172892591;1572172899111;6520;22778843204;67507850632;2736517032;1203914;2813895457;296997;1406850467;90;0;2280;0;69;1685
3;87;1572172899111;1572172905797;6686;22789870730;67507850711;2741862599;3008476;2813895536;301193;1406915577;4;0;1384;0;4;4
3;88;1572172905797;1572172912320;6523;22773106426;67507850746;2741816299;1246711;2813895571;309494;1406720805;4;0;1384;0;4;4
3;89;1572172912320;1572172918842;6522;22780569508;67507850632;2716898707;1406575;2813895457;316546;1406808137;4;0;1384;0;3;3
3;90;1572172918842;1572172925366;6524;22787133084;67507850629;2718376938;1724420;2813895454;296786;1406900155;51;36;10360;0;154;614
3;91;1572172925366;1572172931891;6525;22792223082;67507850640;2726257181;2104576;2813895465;322027;1406949599;10;0;1440;0;6;12
3;92;1572172931892;1572172938415;6523;22785278738;67507850630;2738249039;1459101;2813895455;314678;1406870527;4;0;1384;0;4;4
3;93;1572172938415;1572172944951;6536;22798917328;67507850636;2733446484;1645155;2813895461;324847;1406971781;3;0;480;0;2;2
3;94;1572172944951;1572172951586;6635;22741674670;67507850791;2672145119;1716953;2813895616;307023;1406817567;2;0;920;0;2;2
3;95;1572172951586;1572172958273;6687;22734963488;67507850828;2646967382;1504219;2813895653;297889;1406929414;11;0;1472;0;5;10
3;96;1572172958273;1572172964897;6624;22765052774;67507850680;2633900448;1154043;2813895505;321990;1406837347;40;22;9048;0;108;395
3;97;1572172964898;1572172971521;6623;22741585464;67507850801;2648390780;1258556;2813895626;321238;1406819742;4;0;1384;0;3;3
3;98;1572172971521;1572172978108;6587;22761393138;67507850768;2637827769;1980081;2813895593;316386;1406873436;4;0;1384;0;4;4
3;99;1572172978108;1572172984631;6523;22760866224;67507850676;2636360976;1230937;2813895501;325257;1406957750;4;0;1384;0;3;3
3;100;1572172984631;1572172991154;6523;22764575938;67507850639;2684674832;1367515;2813895464;315085;1406749622;68;24;9152;0;146;768
3;101;1572172991154;1572172997671;6517;22769022514;67507850636;2742921747;1230784;2813895461;322932;1406956472;4;0;1384;0;4;4
4;54;1572173492153;1572173498790;6637;22738271702;67507850743;2660952271;1123116;2813895568;319166;1406999818;4;0;960;0;3;3
4;55;1572173498790;1572173505451;6661;22742606588;67507850672;2672588499;1269592;2813895497;313551;1406941321;4;0;1384;0;3;3
4;56;1572173505451;1572173512885;7434;22745755078;67507861217;2707387522;3743899;2813897554;301114;1406972085;92;10;10080;0;170;1779
4;57;1572173512885;1572173519416;6531;22737356428;67507850917;2635599401;1585875;2813895742;310359;1406983014;4;0;1384;0;4;4
4;58;1572173519416;1572173529193;9777;22781447990;67507861932;2679058044;14756485;2813898269;307246;1406781026;9;0;2784;0;8;8
4;59;1572173529193;1572173535920;6727;22760945356;67507850899;2718012795;2168964;2813895724;318235;1406948846;3;0;928;0;3;3
4;60;1572173535920;1572173542444;6524;22766481530;67507850854;2736939062;1005892;2813895679;326258;1406865734;85;12;6992;0;172;1245
4;61;1572173542444;1572173549106;6662;22736949526;67507850641;2731711267;1876503;2813895466;321970;1406923382;4;0;1384;0;4;4
4;62;1572173549106;1572173555619;6513;22745734346;67507850624;2744632732;847751;2813895449;327514;1407077266;4;0;1384;0;5;5
4;63;1572173555619;1572173562135;6516;22759267086;67507850627;2746313460;1157251;2813895452;318597;1406995409;5;0;1400;0;4;4
4;64;1572173562135;1572173568649;6514;22749739564;67507850623;2746113607;1214824;2813895448;311768;1406940528;4;0;1384;0;4;4
4;65;1572173568649;1572173575175;6526;22789837442;67507850635;2727332180;1490276;2813895460;326566;1407017496;83;16;9176;0;166;1200
4;66;1572173575175;1572173585401;10226;22800201690;67507861324;2683351749;12780487;2813897943;320047;1406967435;4;0;1384;0;3;3
4;67;1572173585402;1572173592054;6652;22751189490;67507850872;2737154199;2191778;2813895697;310820;1406962314;7;0;1424;0;5;5
4;68;1572173592054;1572173598570;6516;22745137644;67507850809;2651143251;1559143;2813895634;304007;1407063423;4;0;1384;0;5;5
4;69;1572173598570;1572173605276;6706;22770771886;67507850869;2686222797;2372899;2813895694;310190;1406876187;8;0;1416;0;5;7
4;70;1572173605277;1572173611804;6527;22780682220;67507850660;2748722398;1641251;2813895485;309618;1407068097;89;16;9016;0;187;1532
4;71;1572173611804;1572173618326;6522;22772138446;67507850629;2744436558;1445006;2813895454;297128;1406999992;8;0;1456;0;16;17
4;72;1572173618326;1572173624841;6515;22757382956;67507850626;2745698447;1289992;2813895451;297981;1407018403;4;0;1384;0;4;4
4;73;1572173624841;1572173631365;6524;22781103284;67507850629;2746237890;1815704;2813895454;296834;1406742243;4;0;1384;0;3;3
4;74;1572173631365;1572173637971;6606;22742107706;67507850675;2748293429;1526490;2813895500;309164;1406954291;8;0;1416;0;5;8
4;75;1572173637971;1572173644487;6516;22759552224;67507850676;2747031976;1473832;2813895501;317295;1406997882;75;14;9016;0;174;1104
4;76;1572173644487;1572173651006;6519;22762092332;67507850751;2752135815;1091989;2813895576;327093;1407104534;3;0;480;0;2;2
4;77;1572173651006;1572173657528;6522;22752212512;67507850675;2743638966;875159;2813895500;327000;1406970589;2;0;920;0;2;2
4;78;1572173657528;1572173664039;6511;22738170086;67507850619;2747892047;749116;2813895444;326048;1407060109;10;0;1440;0;4;9
4;79;1572173664039;1572173670561;6522;22776801540;67507850649;2744697289;1957091;2813895474;302112;1407038165;686;84;122216;1;2282;4347
4;80;1572173670561;1572173677259;6698;22767869698;67507851119;2658530912;2111100;2813895944;303696;1407003999;309;5;136512;-1;729;2540
4;81;1572173677259;1572173683827;6568;22772130708;67507850684;2656641134;2246926;2813895509;307420;1407032877;5;0;1400;0;4;4
4;82;1572173683827;1572173690356;6529;22792328494;67507850663;2735428083;1673124;2813895488;307633;1406910479;4;0;1384;0;4;4
4;83;1572173690356;1572173696884;6528;22779681828;67507850744;2721195524;1460136;2813895569;315742;1407028139;9;0;1424;0;5;9
4;84;1572173696884;1572173703467;6583;22789923436;67507851004;2733271085;2591372;2813895829;319243;1406956417;78;34;10584;0;188;1139
4;85;1572173703467;1572173710040;6573;22735087442;67507851053;2662019054;1367577;2813895878;315235;1406990520;94;0;2472;0;263;1695
4;86;1572173710040;1572173716600;6560;22760367926;67507850748;2745205936;1316575;2813895573;323242;1407016865;3;0;928;0;3;3
4;87;1572173716600;1572173723130;6530;22799938744;67507850636;2712174950;1672528;2813895461;297149;1407030057;3;0;920;0;3;3
4;88;1572173723130;1572173729677;6547;22738166582;67507850673;2745439342;946765;2813895498;300526;1406964159;7;0;960;0;3;7
4;89;1572173729677;1572173736204;6527;22744001618;67507850672;2665280721;1051466;2813895497;322547;1407074239;4;0;1384;0;4;4
4;90;1572173736204;1572173742747;6543;22749115998;67507850643;2720629968;1266525;2813895468;318982;1406744446;85;30;10840;0;141;1244
4;91;1572173742747;1572173749471;6724;22812594608;67507850792;2691455853;2996897;2813895617;309376;1407016063;4;0;1384;0;4;4
4;92;1572173749471;1572173756050;6579;22776439898;67507850704;2733205779;2235964;2813895529;319143;1407062319;9;0;1424;0;4;7
4;93;1572173756050;1572173762578;6528;22765519828;67507850755;2721783630;1271001;2813895580;305369;1406955802;4;0;1384;0;4;4
4;94;1572173762579;1572173769096;6517;22761798434;67507850628;2756946464;1329917;2813895453;323167;1407007085;53;28;9272;0;101;566
4;95;1572173769097;1572173775610;6513;22751720784;67507850624;2768696128;1009665;2813895449;326116;1407079622;5;0;1400;0;4;4
4;96;1572173775610;1572173782127;6517;22769033318;67507850625;2761626008;1287636;2813895450;326165;1406957600;4;0;1384;0;3;3
4;97;1572173782127;1572173788664;6537;22767174008;67507850633;2732058094;1534781;2813895458;325993;1407093471;9;0;1432;0;6;10
4;98;1572173788664;1572173795176;6512;22748025232;67507850620;2749050966;1154759;2813895445;326576;1406941309;2;0;464;0;2;2
4;99;1572173795176;1572173801716;6540;22730185784;67507850618;2740360084;1126834;2813895443;326227;1407060959;4;0;944;0;2;2
4;100;1572173801717;1572173808506;6789;22737591634;67507850844;2676388782;2229941;2813895669;311091;1406987049;55;24;8888;0;100;617
4;101;1572173808506;1572173815032;6526;22754166430;67507850894;2733819019;1029464;2813895719;308383;1407012331;4;0;1384;0;3;3
4;102;1572173815032;1572173821568;6536;22764527320;67507851163;2758454517;1359675;2813895988;297950;1406981086;8;0;1416;0;5;8
4;103;1572173821568;1572173833141;11573;22809865430;67507867782;2697351749;14638875;2813899728;310933;1406549966;58;28;10312;0;129;580
