0;54;1572187612458;1572187618991;6533;22800031162;67507850633;2648995009;5343367;2813895458;302854;1406949859;435;0;844472;0;1984;3576
0;55;1572187618991;1572187625524;6533;22803268566;67507850636;2639079817;5660357;2813895461;326677;1406458858;432;0;844416;0;1937;3494
0;56;1572187625525;1572187632260;6735;22794050710;67507861070;2629853714;6119421;2813897398;322742;1406910245;570;46;872992;0;2466;16771
0;57;1572187632260;1572187638791;6531;22787103300;67507850646;2643597987;5433218;2813895471;296857;1406832932;417;0;815096;0;2073;3613
0;58;1572187638792;1572187645322;6530;22792708678;67507850633;2644563922;5245041;2813895458;324482;1406873421;437;0;844472;0;2047;3670
0;59;1572187645322;1572187656600;11278;22888093690;67507862029;2678227627;21682573;2813898366;311221;1406785689;702;0;1366312;0;3126;5718
0;60;1572187656600;1572187663284;6684;22769340940;67507850740;2710826980;4199206;2813895565;317291;1406855850;446;48;680184;3;1848;7493
0;61;1572187663284;1572187669822;6538;22832794730;67507850647;2727110119;6335012;2813895472;316860;1406811794;437;0;848512;-2;2189;3836
0;62;1572187669822;1572187676352;6530;22808542232;67507850643;2727038757;5170786;2813895468;324057;1406956837;437;0;844472;0;2095;3779
0;63;1572187676353;1572187682884;6531;22809783670;67507850641;2732122029;5310499;2813895466;300130;1406803381;431;0;840320;4;1945;3558
0;64;1572187682884;1572187689416;6532;22814482680;67507850640;2732902058;5351639;2813895466;325346;1406916184;438;0;850280;-5;1901;3473
0;65;1572187689416;1572187696627;7211;22797968036;67507861332;2734645739;6485768;2813897669;313055;1406881439;581;38;885104;0;2484;13577
0;66;1572187696627;1572187703175;6548;22786561348;67507850895;2643370138;4729058;2813895720;315892;1406869127;435;0;844416;0;2101;3677
0;67;1572187703175;1572187709709;6534;22786351692;67507850881;2650205559;4749598;2813895706;296897;1406857623;436;0;844472;0;2009;3564
0;68;1572187709709;1572187716244;6535;22789597856;67507850881;2639910008;4904776;2813895706;323928;1406922713;435;0;844416;3;1963;3497
0;69;1572187716244;1572187722777;6533;22788908152;67507850882;2648946653;4882292;2813895707;297102;1406825946;440;0;850304;-3;1972;3735
0;70;1572187722777;1572187729309;6532;22789062620;67507850878;2642302487;4866982;2813895703;298297;1406939479;562;46;854984;1;2447;11659
0;71;1572187729310;1572187735845;6535;22790824840;67507850885;2644336380;4801377;2813895710;324066;1406830506;437;0;846240;-1;2106;3706
0;72;1572187735845;1572187742379;6534;22788645206;67507850878;2643569781;4843201;2813895703;302087;1406902668;435;0;844416;0;1984;3649
0;73;1572187742379;1572187748914;6535;22790307416;67507850885;2647127912;4862327;2813895710;323500;1406847200;434;0;844416;0;1969;3551
0;74;1572187748914;1572187755445;6531;22784889210;67507850877;2644185991;4758232;2813895702;296974;1406853398;572;39;856456;0;2431;14205
0;75;1572187755445;1572187761979;6534;22783741066;67507850883;2646003870;4714924;2813895708;312879;1406878342;435;0;844416;0;2113;3684
0;76;1572187761980;1572187769818;7838;22778667128;67507861056;2659613104;7410181;2813897740;299558;1406895832;473;1;914840;0;2151;3878
0;77;1572187769818;1572187776373;6555;22791530312;67507851079;2743030294;4638196;2813895904;307297;1406868346;438;0;850280;0;1965;3570
0;78;1572187776373;1572187782928;6555;22799038070;67507851029;2725540349;4910981;2813895854;308290;1406949264;946;49;872816;5;5698;52770
0;79;1572187782928;1572187789460;6532;22780135158;67507850891;2739185354;4025817;2813895716;314967;1406867837;470;7;808256;-5;2538;7447
0;80;1572187789461;1572187795971;6510;22757845484;67507850624;2747822994;3592665;2813895449;302434;1406655977;331;0;639176;0;1470;2756
0;81;1572187795971;1572187802502;6531;22814286164;67507850644;2730000149;5784093;2813895469;325021;1406908794;429;0;826880;3;1862;3406
0;82;1572187802502;1572187809037;6535;22826078584;67507850644;2721776450;6273020;2813895469;309332;1406863714;443;0;854376;-2;1900;3540
0;83;1572187809037;1572187815567;6530;22811238852;67507850644;2728602430;5482739;2813895469;325021;1406927474;657;40;860408;2;2750;20769
0;84;1572187815567;1572187822096;6529;22807467234;67507850643;2740344873;5534354;2813895468;296669;1406890912;438;0;848512;-2;2089;3748
0;85;1572187822096;1572187828631;6535;22823157854;67507850656;2733187867;6175710;2813895481;322957;1406892235;449;1;846384;-1;1978;3628
0;86;1572187828631;1572187835164;6533;22819832996;67507850644;2734829209;5887919;2813895469;303880;1406918727;436;0;844416;3;1962;3596
0;87;1572187835164;1572187841698;6534;22823190558;67507850649;2738063756;6550602;2813895474;325701;1406883480;585;42;855912;1;2352;19922
0;88;1572187841698;1572187848230;6532;22815857708;67507850643;2718224485;5781152;2813895468;327110;1406886504;445;2;860232;-2;2313;4358
0;89;1572187848230;1572187854761;6531;22815588630;67507850639;2741391233;5714464;2813895464;325740;1406991678;442;0;847984;-2;2031;3656
0;90;1572187854761;1572187861296;6535;22826520526;67507850644;2704754047;6009490;2813895469;324693;1406834819;443;0;850336;0;1956;3634
0;91;1572187861296;1572187867829;6533;22815044196;67507850644;2742134854;5422159;2813895469;321764;1406934279;444;0;850280;0;1954;3641
0;92;1572187867829;1572187874363;6534;22825775926;67507850643;2726436700;6012127;2813895468;325789;1406907842;568;39;860968;1;2402;12675
0;93;1572187874364;1572187880896;6532;22815261736;67507850639;2733812116;5580140;2813895464;322293;1406912356;442;0;847584;2;2149;3825
0;94;1572187880896;1572187887427;6531;22811360324;67507850643;2744600765;5713647;2813895468;300902;1406889828;442;0;848880;-3;2027;3673
0;95;1572187887427;1572187893960;6533;22818646308;67507850639;2726293873;5494641;2813895464;325860;1406901581;444;0;850336;0;2053;3755
0;96;1572187893960;1572187900490;6530;22813271756;67507850641;2731446935;5446604;2813895466;325924;1406849683;445;0;850280;0;1992;3849
0;97;1572187900491;1572187907262;6771;22781505952;67507850713;2661001891;5839507;2813895538;317715;1406924670;535;42;817272;2;2355;11740
0;98;1572187907262;1572187913785;6523;22765499096;67507850709;2631275563;4076163;2813895534;325691;1406804039;405;1;771832;-2;1963;3597
0;99;1572187913786;1572187920319;6533;22796910266;67507850651;2639963231;5387813;2813895476;326530;1406939006;443;0;848568;1;2040;3705
0;100;1572187920319;1572187926879;6560;22789789408;67507850799;2637581205;4926410;2813895624;315706;1406847555;443;2;852048;-1;2008;3718
0;101;1572187926879;1572187933436;6557;22788503294;67507850792;2638793581;4786623;2813895617;312180;1406866951;502;52;809024;14;2030;6512
0;102;1572187933437;1572187946138;12701;22895903960;67507866310;2640038085;24759691;2813898997;316969;1406587649;833;3;1587448;-13;4045;7695
0;103;1572187946138;1572187957605;11467;22891758582;67507861432;2637617512;21953348;2813898249;311436;1407049837;754;2;1438504;-1;3510;6744
1;51;1572188499218;1572188506205;6987;22823750614;67507851391;2692658298;6318132;2813896216;298136;1406840491;464;0;903104;0;2045;3725
1;52;1572188506205;1572188513079;6874;22782368228;67507851102;2719544694;5214038;2813895927;305749;1406941786;604;34;880240;0;2711;17494
1;53;1572188513079;1572188519756;6677;22770168322;67507850848;2740311552;5202736;2813895673;297426;1406776588;412;0;797536;3;2005;3676
1;54;1572188519756;1572188526281;6525;22795246450;67507850634;2731306066;5565263;2813895459;297063;1406967680;393;0;768184;-3;1815;3284
1;55;1572188526281;1572188533032;6751;22807464752;67507860634;2731635297;5887488;2813897307;319655;1406685032;438;0;856144;0;1937;3531
1;56;1572188533032;1572188540054;7022;22797955334;67507851040;2696445759;6401640;2813895865;309728;1406891241;590;40;897936;0;2522;13825
1;57;1572188540054;1572188546824;6770;22814473190;67507850753;2604106227;6876597;2813895578;297049;1406850487;435;0;850280;0;2151;3769
1;58;1572188546824;1572188553790;6966;22823017986;67507850989;2734384519;7269563;2813895814;297070;1406873450;466;0;901320;1;2117;3798
1;59;1572188553790;1572188560848;7058;22801071120;67507851015;2676100518;6494876;2813895840;311638;1406774109;462;0;898960;-1;2063;3752
1;60;1572188560848;1572188567987;7139;22766353926;67507850783;2632534989;5604021;2813895608;317231;1406838648;408;0;791688;0;1852;3420
1;61;1572188567987;1572188574860;6873;22763403996;67507850872;2652743008;4815204;2813895697;301703;1406800492;522;36;765712;1;2247;10668
1;62;1572188574860;1572188581606;6746;22777643230;67507850852;2639480539;4775135;2813895677;308856;1406606933;454;0;875536;-1;2177;3850
1;63;1572188581606;1572188588462;6856;22792839202;67507850970;2720087389;4999397;2813895795;307499;1406810218;454;0;885464;0;2043;3647
1;64;1572188588462;1572188595799;7337;22787598240;67507861540;2714513361;6179489;2813897877;300938;1406819968;483;0;936512;1;2115;3869
1;65;1572188595799;1572188602478;6679;22793361736;67507851302;2734296512;5376513;2813896127;305966;1406912447;568;38;874608;-1;2464;12774
1;66;1572188602478;1572188609435;6957;22802909698;67507850924;2686424428;6143916;2813895749;300619;1406824658;462;0;899744;2;2270;3963
1;67;1572188609435;1572188616204;6769;22795855708;67507851068;2718450792;5684552;2813895893;307992;1406877439;454;0;877080;-2;2049;3660
1;68;1572188616204;1572188623459;7255;22794342418;67507850899;2705124069;5737780;2813895724;305763;1406908520;470;0;914784;0;2139;3825
1;69;1572188623459;1572188630309;6850;22795687516;67507850790;2662865772;6099298;2813895615;297537;1406802354;558;45;884192;7;2351;10865
1;70;1572188630309;1572188637679;7370;22813204596;67507850989;2663363962;6729758;2813895814;300169;1406920153;489;0;951736;-7;2473;4597
1;71;1572188637679;1572188644945;7266;22807232466;67507851018;2708735312;6457232;2813895843;305970;1406793874;488;0;942368;1;2271;4058
1;72;1572188644945;1572188651790;6845;22798474510;67507850832;2666511861;5632088;2813895657;300009;1406858856;452;0;881368;-1;2059;3685
1;73;1572188651790;1572188658754;6964;22803388286;67507851058;2686673124;5542359;2813895883;308619;1406935155;453;0;877880;1;1987;3615
1;74;1572188658754;1572188665818;7064;22790988798;67507851092;2721967922;5039958;2813895917;302776;1406852231;568;42;913432;1;2584;9790
1;75;1572188665819;1572188672770;6951;22781938696;67507850995;2688263549;4808203;2813895820;298537;1406870756;459;1;887232;-1;2143;3766
1;76;1572188672770;1572188679547;6777;22795768400;67507851339;2730131500;5207620;2813896164;304039;1406934276;452;0;881368;-1;2058;3686
1;77;1572188679547;1572188686223;6676;22808093282;67507851335;2717975436;5414060;2813896160;299480;1406869810;446;0;867872;0;1968;3540
1;78;1572188686223;1572188693069;6846;22789963440;67507850883;2679952693;5292475;2813895708;309184;1406863645;556;50;897360;0;2367;8686
1;79;1572188693069;1572188699925;6856;22800094672;67507851371;2653646641;6853184;2813896196;308570;1406878735;906;34;915248;9;6366;50221
1;80;1572188699925;1572188706450;6525;22788978232;67507850698;2728792558;4742858;2813895523;318488;1406635570;897;70;990440;-9;5655;49986
1;81;1572188706450;1572188712961;6511;22759534704;67507850625;2737058425;4541969;2813895450;326277;1406956928;359;1;680288;0;1597;2944
1;82;1572188712961;1572188719489;6528;22806918566;67507850635;2708209159;5457437;2813895460;311836;1406681213;443;0;844456;0;1944;3671
1;83;1572188719489;1572188726012;6523;22790169446;67507850636;2727262457;4822951;2813895461;309306;1406901183;449;0;842648;1;1866;3565
1;84;1572188726012;1572188732536;6524;22795846656;67507850632;2733974483;5019160;2813895457;326260;1406818751;561;56;851432;-1;2478;11662
1;85;1572188732537;1572188739061;6524;22800672540;67507850635;2737908542;5426882;2813895460;325947;1406894775;520;3;845192;0;2294;6512
1;86;1572188739061;1572188745585;6524;22798907400;67507850633;2725819129;5243748;2813895458;326769;1406932126;449;0;842648;1;1957;3671
1;87;1572188745585;1572188752110;6525;22800671372;67507850632;2734883074;5205071;2813895457;297447;1406860048;449;0;840368;-1;1900;3491
1;88;1572188752110;1572188758633;6523;22794477176;67507850634;2715879895;4967639;2813895459;326115;1406878834;563;48;841336;0;2294;11732
1;89;1572188758633;1572188765157;6524;22764218238;67507850628;2725194843;3823126;2813895453;323572;1406969075;344;4;645080;0;1671;3055
1;90;1572188765157;1572188771762;6605;22793959022;67507850651;2741992306;5322455;2813895476;297102;1406831004;431;1;809232;0;2050;3722
1;91;1572188771762;1572188778293;6531;22812334436;67507850644;2713051987;6014176;2813895469;296709;1406928569;438;1;803368;3;1853;3542
1;92;1572188778293;1572188784824;6531;22814081618;67507850649;2735268057;6016165;2813895474;296489;1406884768;446;0;844456;-3;1956;3687
1;93;1572188784824;1572188791356;6532;22813384468;67507850641;2728545821;5711857;2813895466;316678;1406810924;577;42;855504;0;2386;11622
1;94;1572188791356;1572188797889;6533;22818631562;67507850644;2743479903;6154997;2813895469;326177;1406896180;456;0;844456;0;2139;3886
1;95;1572188797889;1572188804421;6532;22811763138;67507850637;2729848906;5982106;2813895462;303338;1406652403;447;0;844416;0;2102;4197
1;96;1572188804421;1572188810953;6532;22816936502;67507850646;2738836524;6272563;2813895471;323367;1406849800;455;5;844456;0;1930;3629
1;97;1572188810953;1572188817485;6532;22816866860;67507850642;2730195065;5979774;2813895467;323169;1406986523;452;0;844416;0;1916;3590
1;98;1572188817486;1572188824016;6530;22809981792;67507850640;2731461593;5402173;2813895465;325065;1406810596;561;41;855952;0;2550;10877
1;99;1572188824016;1572188830547;6531;22808709256;67507850640;2734568204;5719207;2813895465;325513;1406722453;450;0;844456;0;2174;3995
1;100;1572188830547;1572188843239;12692;22917817976;67507866094;2717072966;24878186;2813898781;310543;1406597655;835;12;1565728;0;3631;6671
2;52;1572189376333;1572189384348;8015;22791217726;67507861520;2732299042;9250116;2813897829;320169;1406727616;497;0;967608;0;2218;4087
2;53;1572189384348;1572189390889;6541;22805703554;67507850903;2730088776;5499020;2813895728;297257;1406974200;609;32;866488;1;2688;24014
2;54;1572189390889;1572189397700;6811;22789312280;67507850743;2712886068;5805763;2813895568;321931;1407137714;428;0;828624;-1;2065;3693
2;55;1572189397700;1572189404545;6845;22780533008;67507850896;2731181382;4928199;2813895721;299867;1406917262;399;0;779912;0;1788;3270
2;56;1572189404545;1572189411451;6906;22799288898;67507861447;2756840063;5923889;2813897775;326157;1407106848;453;0;885464;0;2018;3625
2;57;1572189411451;1572189418041;6590;22759117874;67507851152;2727813034;4482165;2813895977;308183;1407004204;549;28;797104;0;2327;13270
2;58;1572189418041;1572189424582;6541;22759972120;67507851076;2735239862;3762234;2813895901;305357;1407085914;381;0;744728;0;1963;3403
2;59;1572189424582;1572189431141;6559;22799275174;67507851064;2745099393;5000967;2813895889;296871;1407023289;443;0;856176;0;2031;3653
2;60;1572189431141;1572189437705;6564;22814178854;67507851109;2739299622;5493966;2813895934;303653;1407066015;442;0;856144;0;2002;3649
2;61;1572189437705;1572189446431;8726;22785860548;67507861464;2683650613;9074300;2813898095;317087;1406906773;583;38;964776;31;2231;7497
2;62;1572189446431;1572189453012;6581;22801269680;67507851240;2751098458;5272311;2813896065;323779;1407142909;477;0;864264;-28;2417;7902
2;63;1572189453012;1572189459573;6561;22802185830;67507851159;2739289812;5291881;2813895984;323138;1406978293;445;0;856176;-3;2105;3803
2;64;1572189459573;1572189466156;6583;22787703506;67507851178;2750335885;4632285;2813896003;297380;1407109144;444;1;862008;0;1996;3632
2;65;1572189466157;1572189472722;6565;22789974098;67507851107;2736537411;4784735;2813895932;309018;1407023801;439;0;856144;0;1985;3586
2;66;1572189472722;1572189479281;6559;22790075276;67507851151;2740666461;4675839;2813895976;315942;1407084907;546;38;867792;0;2466;12040
2;67;1572189479282;1572189489322;10040;22900562674;67507860848;2734985636;22117086;2813897926;304743;1407066782;677;0;1307704;0;3263;5779
2;68;1572189489322;1572189495892;6570;22820677606;67507851147;2729272593;6286540;2813895972;297649;1407054625;443;0;860240;1;1946;3590
2;69;1572189495893;1572189502458;6565;22804041198;67507851110;2741194753;5303160;2813895935;312511;1407024471;442;0;856144;0;1999;3672
2;70;1572189502458;1572189509020;6562;22796791422;67507851110;2741306419;5039220;2813895935;312291;1407167080;515;54;852160;-1;2237;8103
2;71;1572189509020;1572189515582;6562;22811096356;67507851064;2735942858;5681807;2813895889;311703;1406989346;443;0;856144;0;2170;3869
2;72;1572189515582;1572189522139;6557;22807475848;67507850990;2740694717;5522889;2813895815;320523;1407106847;444;0;854408;1;2084;3748
2;73;1572189522139;1572189528695;6556;22801258876;67507850970;2739003652;5336355;2813895795;311605;1407077314;440;0;852048;-1;1993;3684
2;74;1572189528695;1572189535253;6558;22810525350;67507850959;2740898531;5487178;2813895784;320464;1407026135;442;0;856184;0;1963;3588
2;75;1572189535253;1572189541812;6559;22809000526;67507851028;2738862895;5402072;2813895853;322445;1407083652;534;52;861944;0;2389;9012
2;76;1572189541812;1572189548375;6563;22823527526;67507851050;2726877659;6124600;2813895875;311119;1407057794;443;0;856144;0;2161;3850
2;77;1572189548375;1572189554932;6557;22807656742;67507850992;2739058701;5606268;2813895817;322064;1407052942;445;0;856184;0;2019;3632
2;78;1572189554932;1572189561486;6554;22800702908;67507850985;2743419884;5135364;2813895810;325872;1407136786;440;0;850280;0;1967;3568
2;79;1572189561486;1572189568041;6555;22798232588;67507850957;2740679701;5014800;2813895782;323462;1407036177;442;0;856184;0;1925;3545
2;80;1572189568041;1572189574596;6555;22806208860;67507851080;2742880625;5448367;2813895905;326410;1407105895;551;43;861944;0;2444;10333
2;81;1572189574596;1572189581177;6581;22787184622;67507851257;2742288311;5803643;2813896082;301601;1407086605;657;44;861504;18;3709;40312
2;82;1572189581177;1572189588000;6823;22796382038;67507851428;2696655873;6058259;2813896250;312292;1407068024;789;12;966312;-17;5516;77801
2;83;1572189588000;1572189594654;6654;22805183356;67507850972;2631496714;6014959;2813895794;301327;1407097170;448;4;869640;4;1986;3657
2;84;1572189594654;1572189601347;6693;22810348690;67507851053;2728804403;5451484;2813895878;306332;1407018179;457;5;879640;-5;2010;3722
2;85;1572189601347;1572189607906;6559;22808612166;67507850955;2735801117;5324381;2813895780;322520;1407076864;443;0;856144;0;1960;3659
2;86;1572189607906;1572189614469;6563;22812999612;67507851073;2725547782;5302024;2813895898;324391;1407126083;645;50;875632;0;2880;19256
2;87;1572189614469;1572189621032;6563;22820669430;67507851029;2715557244;6082906;2813895854;305177;1407047342;444;0;854376;1;2151;3861
2;88;1572189621032;1572189627598;6566;22825068556;67507850972;2735506670;6505082;2813895797;304099;1407030676;454;3;856328;0;1977;3724
2;89;1572189627598;1572189634156;6558;22800449306;67507850947;2737405631;4858464;2813895772;322557;1407112402;442;0;852048;-1;1997;3625
2;90;1572189634156;1572189640715;6559;22816101236;67507850946;2724918286;5540982;2813895771;324199;1407037911;447;0;856144;0;1928;3660
2;91;1572189640715;1572189647277;6562;22800315132;67507851118;2738374009;4837690;2813895943;316922;1406974826;565;45;869384;0;2701;14266
2;92;1572189647277;1572189653832;6555;22789963878;67507850988;2744935803;4494125;2813895813;322949;1407018281;446;0;854376;1;2111;3793
2;93;1572189653832;1572189660389;6557;22800015540;67507850961;2738128188;4967979;2813895786;323814;1407096322;447;0;856184;0;1975;3699
2;94;1572189660390;1572189666947;6557;22802127868;67507850946;2740139089;4886599;2813895771;324525;1407096444;446;0;852048;-1;1950;3597
2;95;1572189666947;1572189673509;6562;22808968990;67507850995;2715193373;5214483;2813895820;323821;1407074133;558;38;868104;0;2351;10039
2;96;1572189673509;1572189680067;6558;22797665816;67507851063;2741983492;4843514;2813895888;326116;1407056588;444;0;856144;0;2208;3870
2;97;1572189680067;1572189686623;6556;22793722356;67507850968;2738141232;4498968;2813895793;325683;1407122237;449;0;856144;0;2077;3766
2;98;1572189686624;1572189693184;6560;22806302446;67507850967;2737292011;5152348;2813895792;316027;1407007919;444;0;850320;3;1995;3623
2;99;1572189693184;1572189699739;6555;22796537236;67507850945;2735585096;4538493;2813895770;324356;1407141539;450;0;856144;-3;1895;3573
2;100;1572189699740;1572189706305;6565;22803330178;67507851106;2737760914;5078239;2813895931;319418;1406982120;556;55;866400;1;2513;10414
2;101;1572189706305;1572189712871;6566;22797200514;67507851161;2739561210;4856140;2813895986;312745;1406907850;449;0;852048;2;2160;3866
3;51;1572190208184;1572190214964;6780;22806014096;67507851545;2741282488;5661235;2813896370;314334;1407034148;451;0;881368;-1;2009;3620
3;52;1572190214964;1572190222119;7155;22788100772;67507851017;2685188739;5177037;2813895842;318301;1407026768;474;0;926512;3;2134;3814
3;53;1572190222120;1572190229067;6947;22801722280;67507851160;2718329821;5839271;2813895985;314588;1406970735;600;38;915760;-3;2656;16354
3;54;1572190229067;1572190235740;6673;22755644972;67507851447;2744474805;4065478;2813896272;310159;1407159009;402;0;785776;0;2007;3486
3;55;1572190235740;1572190242484;6744;22770111382;67507851154;2728603306;4785581;2813895979;316700;1406895989;397;0;768216;0;1851;3308
3;56;1572190242484;1572190251094;8610;22786746768;67507861872;2630220040;9457130;2813898209;316365;1407031701;480;0;938240;0;2176;3884
3;57;1572190251094;1572190262743;11649;22870436012;67507861829;2717791657;23768153;2813898166;310068;1406962171;856;34;1407592;0;3812;17962
3;58;1572190262743;1572190269277;6534;22783033112;67507850667;2730558540;4316115;2813895492;296602;1407068921;439;0;850312;3;2122;3754
3;59;1572190269278;1572190275808;6530;22803054676;67507850642;2732431404;5241907;2813895467;319100;1407034252;438;0;850280;-3;1966;3575
3;60;1572190275808;1572190282340;6532;22811035912;67507850642;2711178198;5671908;2813895467;324437;1407077364;436;0;850280;0;1950;3497
3;61;1572190282340;1572190288869;6529;22801352316;67507850642;2736379837;5056761;2813895467;321733;1407003492;564;38;844368;9;2322;14763
3;62;1572190288869;1572190295397;6528;22799575934;67507850638;2736301183;5172109;2813895463;318799;1407155016;453;0;860624;-8;2379;4843
3;63;1572190295397;1572190301928;6531;22801782578;67507850705;2731771154;5164910;2813895530;313528;1406983177;439;0;846216;-1;2052;3744
3;64;1572190301928;1572190308462;6534;22803845996;67507850765;2723913814;5319914;2813895590;299695;1406909733;436;0;850280;0;1895;3469
3;65;1572190308462;1572190314995;6533;22805103786;67507850765;2738427515;5158071;2813895590;298386;1407031961;436;0;844464;3;1965;3539
3;66;1572190314995;1572190323214;8219;22789775538;67507861563;2708901479;8591471;2813897900;300492;1406724590;642;56;956272;-3;2748;22963
3;67;1572190323214;1572190329989;6775;22806405960;67507851183;2730626199;6019834;2813896008;299615;1407027102;452;0;879600;0;2172;3836
3;68;1572190329989;1572190336852;6863;22818375478;67507850999;2712327954;5820370;2813895824;305320;1407020847;461;0;891360;0;2092;3735
3;69;1572190336852;1572190343636;6784;22817283982;67507851498;2727602403;6177495;2813896323;309826;1407035701;452;0;879600;0;2060;3703
3;70;1572190343637;1572190350534;6897;22815529792;67507851478;2729096215;6007809;2813896303;316924;1407155929;590;48;908520;0;2466;12252
3;71;1572190350534;1572190357542;7008;22823614396;67507851003;2705523545;6573115;2813895828;297059;1406984221;466;0;905616;2;2255;3991
3;72;1572190357542;1572190364698;7156;22798401072;67507850956;2695170853;5519805;2813895781;303254;1407075926;482;0;929848;-2;2294;4139
3;73;1572190364698;1572190371534;6836;22779274926;67507850736;2646906889;4836218;2813895561;317341;1407049788;456;0;885464;0;2036;3741
3;74;1572190371534;1572190378390;6856;22795935570;67507850954;2724885797;4889981;2813895779;316707;1407040468;457;0;889600;1;2030;3765
3;75;1572190378390;1572190385451;7061;22792886944;67507850978;2681228925;5027353;2813895803;314094;1407038521;631;52;931544;-1;2712;15397
3;76;1572190385451;1572190392288;6837;22780022154;67507850845;2665056613;4767493;2813895670;313910;1407043404;460;0;885504;0;2230;3954
3;77;1572190392288;1572190399243;6955;22789547486;67507850986;2709841266;5009488;2813895811;316643;1407038376;600;38;900984;9;2927;27602
3;78;1572190399243;1572190406111;6868;22806786290;67507851524;2735580676;6364735;2813896349;305109;1407135168;881;8;948904;-9;6080;49757
3;79;1572190406111;1572190413006;6895;22803448730;67507851089;2736957184;5967194;2813895914;307238;1406972916;464;1;899496;2;2146;3874
3;80;1572190413006;1572190419947;6941;22790666722;67507850755;2657204065;5553887;2813895580;319052;1407083432;470;0;900792;-2;2091;3820
3;81;1572190419947;1572190426800;6853;22803987032;67507850900;2698584745;5770353;2813895725;319707;1407053382;463;0;885504;3;2006;3800
3;82;1572190426800;1572190433654;6854;22760278866;67507850796;2671340025;4601713;2813895621;310405;1407028137;596;42;829888;-2;2354;19474
3;83;1572190433654;1572190440811;7157;22809206824;67507850978;2664011442;6618702;2813895803;306696;1407052380;546;1;917304;2;2501;5906
3;84;1572190440811;1572190447451;6640;22784101540;67507851211;2644482174;5428937;2813896036;319709;1407009799;451;0;862008;-3;2055;3755
3;85;1572190447452;1572190454098;6646;22804997060;67507851237;2636766241;6788611;2813896062;318229;1407071428;450;0;860280;1;2108;4096
3;86;1572190454098;1572190460639;6541;22799123480;67507851221;2638233362;6352713;2813896046;313438;1407116383;441;0;846184;-1;1900;3518
3;87;1572190460639;1572190467604;6965;22806588314;67507851271;2698313127;6230697;2813896096;314626;1407024467;583;58;918752;0;2681;12146
3;88;1572190467604;1572190474182;6578;22813663912;67507851509;2732367875;6256956;2813896334;319578;1407073855;448;0;856184;0;2132;3818
3;89;1572190474183;1572190480968;6785;22808724586;67507851549;2735593693;5975260;2813896374;314116;1407120586;456;0;879600;0;2013;3706
3;90;1572190480969;1572190487549;6580;22810610614;67507851526;2736441619;6353896;2813896351;317509;1407032966;451;0;856184;0;2014;3775
3;91;1572190487550;1572190494241;6691;22814032562;67507851564;2736116372;6120629;2813896389;312254;1407130235;571;36;883632;1;2387;11647
3;92;1572190494241;1572190500955;6714;22764792164;67507851177;2695517501;5150614;2813896002;304845;1407007268;430;0;816904;-1;2109;3772
3;93;1572190500955;1572190508039;7084;22801413052;67507850896;2688964810;5984705;2813895721;309757;1407048528;477;0;920648;0;2185;3958
3;94;1572190508039;1572190514818;6779;22810483594;67507850691;2610725643;6021475;2813895516;298799;1406740831;457;0;862048;0;2023;3814
3;95;1572190514818;1572190521857;7039;22810630762;67507850681;2601277128;5969851;2813895506;319383;1407045813;474;0;908920;0;2056;3793
3;96;1572190521857;1572190528612;6755;22801718922;67507850842;2633618339;5768164;2813895667;308422;1407005287;581;40;884920;0;2555;13231
3;97;1572190528612;1572190535277;6665;22815437374;67507851080;2719192812;5517441;2813895905;306387;1407091871;452;0;867912;0;2139;3849
3;98;1572190535277;1572190542047;6770;22809765128;67507851115;2724358407;5548447;2813895940;315998;1406972146;463;0;879600;0;2032;3752
3;99;1572190542047;1572190548774;6727;22785673960;67507850695;2632629428;4846836;2813895520;296800;1407111979;461;0;867912;0;2001;3722
3;100;1572190548774;1572190555536;6762;22793875218;67507850971;2696415691;5227502;2813895796;315693;1406953125;572;39;885400;0;2447;11381
4;51;1572191066812;1572191073342;6530;22800641734;67507850645;2732876493;4934179;2813895470;296710;1406867608;433;0;844456;0;1992;3610
4;52;1572191073342;1572191079972;6630;22797328556;67507850677;2688224696;4956094;2813895502;303922;1406721932;535;46;862136;0;2415;12726
4;53;1572191079972;1572191086495;6523;22786416224;67507850646;2745570317;4599707;2813895471;321004;1406932632;432;0;844416;0;2155;3823
4;54;1572191086495;1572191093121;6626;22757402812;67507850755;2628247041;4422062;2813895580;325385;1406909641;416;0;803408;0;1920;3569
4;55;1572191093121;1572191102828;9707;22812238806;67507861404;2657881132;16129684;2813897732;317385;1406857980;573;0;1120024;3;2610;4750
4;56;1572191102828;1572191109478;6650;22755700744;67507850879;2678371265;4160274;2813895704;311547;1406816944;502;46;813304;-2;2319;10490
4;57;1572191109478;1572191118771;9293;22828236610;67507861225;2684238301;14538438;2813897553;316465;1406812176;567;0;1098376;-1;2728;4855
4;58;1572191118771;1572191125371;6600;22767759030;67507850641;2644564045;5021478;2813895466;323737;1407049786;405;0;785776;0;1802;3229
4;59;1572191125371;1572191131927;6556;22787438662;67507860645;2631251797;5461661;2813897276;319467;1406805773;431;0;838552;0;1983;3586
4;60;1572191131928;1572191138478;6550;22807962174;67507850733;2733466570;5876515;2813895558;319976;1407037459;546;38;849744;0;2238;9403
4;61;1572191138478;1572191145108;6630;22787800888;67507850698;2680420313;5506263;2813895523;315607;1406937958;442;0;858704;2;2142;3814
4;62;1572191145108;1572191151729;6621;22781837664;67507850671;2628855594;5406937;2813895496;305213;1406975113;414;0;794984;-2;1982;3599
4;63;1572191151729;1572191158255;6526;22781579098;67507850627;2641718639;5217599;2813895452;322969;1406617915;438;0;848512;1;1915;3534
4;64;1572191158255;1572191164778;6523;22780313278;67507850629;2629385023;4766421;2813895454;322022;1406974700;430;0;834496;-1;1931;3507
4;65;1572191164778;1572191171301;6523;22774630812;67507850633;2633477288;4472962;2813895458;323909;1406633794;560;36;855696;0;2549;12231
4;66;1572191171301;1572191177828;6527;22778886274;67507850628;2629347011;4756051;2813895453;315673;1406963704;434;0;844416;3;2150;3843
4;67;1572191177828;1572191184352;6524;22777775652;67507850631;2642017266;4776311;2813895456;320517;1406880332;440;0;847016;-1;2032;3649
4;68;1572191184352;1572191190875;6523;22776950460;67507850626;2633417586;4594968;2813895451;296618;1406947380;438;0;847720;-2;1957;3558
4;69;1572191190875;1572191199929;9054;22779181194;67507861264;2634599050;10117931;2813897926;316809;1406860636;604;40;956000;3;2474;10033
4;70;1572191199929;1572191206485;6556;22803630500;67507850802;2744948929;5792667;2813895627;323524;1407005292;434;1;842648;-2;2153;3770
4;71;1572191206485;1572191213012;6527;22797975920;67507850649;2733292765;5357835;2813895474;322446;1406996859;440;0;846224;-1;2026;3640
4;72;1572191213012;1572191219745;6733;22804160334;67507850717;2713616895;6385294;2813895542;314216;1406921005;450;1;873736;0;2013;3716
4;73;1572191219745;1572191226382;6637;22787780302;67507850779;2683495610;5389996;2813895604;301981;1406945681;444;0;862048;0;2029;3900
4;74;1572191226382;1572191232910;6528;22779930028;67507850710;2640839820;5179907;2813895535;321918;1407059311;526;48;856336;0;2381;8929
4;75;1572191232911;1572191239444;6533;22792183224;67507850728;2625814004;5637351;2813895553;299146;1406906812;435;0;846768;2;2128;3747
4;76;1572191239444;1572191246075;6631;22802701356;67507850678;2735425582;5551159;2813895503;323636;1407005300;442;0;847960;-2;2029;3704
4;77;1572191246075;1572191252698;6623;22776988128;67507850634;2642751807;5105553;2813895459;324034;1406958532;443;0;862008;0;2046;3713
4;78;1572191252698;1572191259221;6523;22779664308;67507850631;2641246014;5300138;2813895456;296496;1406954370;438;0;844464;0;1885;3492
4;79;1572191259221;1572191265751;6530;22788667690;67507850638;2639380728;5776213;2813895463;321062;1406938557;529;50;862072;0;2413;8105
4;80;1572191265751;1572191272280;6529;22790356326;67507850638;2639194164;5453084;2813895463;322001;1406956535;439;0;844448;0;2079;3649
4;81;1572191272280;1572191278807;6527;22785309252;67507850637;2639162938;5222731;2813895462;319990;1406981568;439;0;848512;1;1946;3501
4;82;1572191278807;1572191285335;6528;22787204770;67507850653;2638576084;5572631;2813895478;319830;1407042058;650;47;843800;3;3625;22990
4;83;1572191285335;1572191292006;6671;22761063032;67507850659;2634524070;5310332;2813895484;312040;1406857874;700;9;801800;-4;4046;19783
4;84;1572191292006;1572191298534;6528;22785573804;67507850632;2627927525;5644245;2813895457;301011;1406961954;438;0;844416;0;2042;3756
4;85;1572191298534;1572191305061;6527;22777621184;67507850683;2641603222;5073345;2813895508;323258;1407006736;436;1;836816;1;1894;3497
4;86;1572191305061;1572191311591;6530;22794033482;67507850641;2632978614;5626325;2813895466;319814;1406966094;440;0;846184;-1;1908;3540
4;87;1572191311591;1572191318124;6533;22793470944;67507850638;2623229845;5614422;2813895463;322574;1406841686;632;51;858160;3;2401;15024
4;88;1572191318124;1572191324651;6527;22781380538;67507850631;2646690813;5179940;2813895456;325590;1406734301;441;0;850280;-3;2367;4617
4;89;1572191324651;1572191331172;6521;22762678376;67507850626;2613238976;4193291;2813895451;303497;1406794333;399;1;768184;3;1854;3351
4;90;1572191331172;1572191337701;6529;22791023838;67507850632;2643262781;5498073;2813895457;318795;1407013181;424;1;809272;-3;1909;3538
4;91;1572191337702;1572191344228;6526;22781705534;67507850630;2654073036;4776675;2813895455;320776;1406967435;441;3;850280;3;1942;3540
4;92;1572191344228;1572191350744;6516;22751149048;67507850625;2639953561;3718008;2813895450;320573;1406971909;472;48;745800;0;1977;6665
4;93;1572191350744;1572191357268;6524;22778285484;67507850631;2640918260;5427652;2813895456;320694;1407039498;410;1;785776;-3;1991;3506
4;94;1572191357268;1572191363793;6525;22772090850;67507850628;2639450303;4914048;2813895453;315334;1406828379;399;2;766416;1;1795;3337
4;95;1572191363793;1572191370317;6524;22772693100;67507850630;2633921844;4702706;2813895455;297997;1407023307;446;1;846216;-1;1983;3600
4;96;1572191370317;1572191376844;6527;22785027910;67507850638;2637240301;5145620;2813895463;319561;1406904628;442;1;848512;1;1952;3595
4;97;1572191376844;1572191383370;6526;22782117400;67507850630;2631987171;5032450;2813895455;319937;1407011991;546;50;857320;-1;2494;10176
4;98;1572191383370;1572191389886;6516;22751679028;67507850617;2633728439;3770333;2813895442;315750;1406980995;347;5;668496;0;1692;3041
4;99;1572191389886;1572191396413;6527;22785080908;67507850630;2637346946;4946494;2813895455;319334;1406985187;450;0;850312;0;1986;3655
4;100;1572191396413;1572191402943;6530;22788750764;67507850633;2637093118;5272172;2813895458;306901;1406825039;442;2;844416;0;1995;3656
