0;13;1572263346153;1572263357682;11529;39942733728;6764435315;1849407937;1687886364;492712093;17149786;2239956436;5215;422;918488;-2;4923;48043
0;14;1572263357682;1572263369239;11557;39847183444;6764416762;1749673538;1693905654;492709860;17146142;2239907598;5171;174;894480;-1;5115;17784
0;15;1572263369239;1572263380358;11119;38552517348;6764427452;2045664908;1604884923;492710052;17154906;2244683730;5031;76;857520;0;3795;12151
0;16;1572263380358;1572263391868;11510;39862197208;6764410262;1778210701;1691614612;492708367;17148312;2240074167;5093;545;918640;11;5961;50894
0;17;1572263391868;1572263403027;11159;38588713084;6764402584;2011422321;1600884762;492706717;17150940;2242938449;5065;66;862008;-8;4645;16008
0;18;1572263403027;1572263414685;11658;40499077386;6764399071;2015014035;1700367612;492706361;17146692;2240625082;5294;395;929248;2;4897;45578
0;19;1572263414685;1572263426250;11565;40178956618;6764456679;1926961042;1693824714;492714636;17145043;2240556119;5228;109;896120;-5;5494;21429
0;20;1572263426250;1572263437781;11531;39981096980;6764409639;1750920073;1695688499;492708038;17154933;2240447225;5236;44;886560;7;4749;16029
0;21;1572263437781;1572263448925;11144;38557154454;6764446019;2268952018;1573799533;492713961;17153015;2243405247;4994;378;875576;-3;5227;59056
0;22;1572263448925;1572263460196;11271;39059552426;6764439327;2051677325;1592869787;492712995;17153444;2242322560;5101;32;861880;-1;4587;16058
0;23;1572263460196;1572263471238;11042;38089193794;6764393540;1846162073;1571632941;492705396;17150640;2244320286;4914;431;859352;6;4469;68320
0;24;1572263471238;1572263482154;10916;37802266856;6764438133;2135466280;1541189748;492713175;17151661;2244309019;4933;34;838656;-9;5265;21111
0;25;1572263482154;1572263493755;11601;40247975198;6764483190;1942854209;1677688808;492719722;17150026;2241119764;5271;52;893640;1;4671;16171
0;26;1572263493755;1572263505297;11542;40012554432;6764459477;1937593955;1671231808;492715645;17152720;2240376196;4918;496;885104;0;4885;63942
0;27;1572263505298;1572263517033;11735;40541910136;6764422439;2006660704;1700312839;492710875;17148624;2240172469;4872;41;824912;1;4763;16536
0;28;1572263517033;1572263528697;11664;40287211092;6764446743;2029743862;1693756598;492714764;17151973;2240892865;5289;25;892752;2;4626;16607
0;29;1572263528697;1572263540216;11519;39952052032;6764393349;1822421083;1686675300;492705457;17149489;2240216448;5231;404;912352;4;5747;69842
0;30;1572263540216;1572263551612;11396;39404587072;6764462752;2171833186;1641494873;492716342;17148131;2243124847;5171;39;874664;-8;4838;16968
0;31;1572263551612;1572263563140;11528;39941406880;6764447694;1802269861;1674315844;492714205;17152654;2240676371;5163;505;898592;33;4771;79776
0;32;1572263563140;1572263574150;11010;38172648708;6764420009;2448732309;1523615692;492709337;17145349;2244126115;4827;211;857200;-30;5830;30892
0;33;1572263574150;1572263585278;11128;38626314946;6764449802;1924936247;1593693709;492713360;17153102;2244755712;5007;42;847440;-3;4634;17213
0;34;1572263585279;1572263596855;11576;40005667320;6764408020;1904356326;1678852566;492707804;17148283;2240422696;5174;421;902184;4;4714;61236
0;35;1572263596855;1572263607809;10954;38013477026;6764432422;1944239364;1548531221;492710793;17154445;2242497126;4977;21;838608;-3;4940;17127
0;36;1572263607810;1572263619252;11442;39707456334;6764427831;1978705241;1647123806;492710873;17157357;2240172139;5207;12;876792;5;4656;17059
0;37;1572263619252;1572263630577;11325;39242251132;6764431623;1853779923;1626283491;492711143;17152766;2243300591;5105;459;892408;-6;5397;75957
0;38;1572263630577;1572263641962;11385;39542741762;6764416142;1761275570;1644160299;492708905;17151506;2240440253;5186;23;874352;1;4905;17054
0;39;1572263641962;1572263653359;11397;39567293560;6764428532;1751298132;1647011667;492710586;17154903;2240518934;5185;29;875312;4;4186;14199
0;40;1572263653359;1572263664481;11122;38568701156;6764402599;2096646850;1577887951;492706606;17150685;2244515019;4951;590;882640;-5;6319;113181
0;41;1572263664481;1572263675956;11475;39818735782;6764463936;1975094160;1646561764;492715779;17151266;2241220316;5212;47;882888;1;4861;17844
0;42;1572263675956;1572263687405;11449;39725778020;6764494019;1939922571;1643271822;492721107;17144659;2240088320;5165;495;904184;-1;5266;90717
0;43;1572263687405;1572263698937;11532;39680333476;6764438586;1951694546;1655249140;492713429;17151481;2240323303;5279;10;887616;0;5120;19071
0;44;1572263698937;1572263710376;11439;39585787088;6764394324;1734842201;1657718295;492705577;17152629;2240900070;5231;22;882232;1;4699;16077
0;45;1572263710376;1572263721780;11404;39559176544;6764401980;1755059364;1647012452;492706630;17151258;2242299051;4927;704;902504;4;5926;123991
0;46;1572263721780;1572263733001;11221;38617807964;6764454179;1968897419;1576560733;492716083;17153411;2245410984;5070;21;854504;0;5141;18968
0;47;1572263733001;1572263744373;11372;38956789012;6764455693;1850179937;1620160844;492715768;17147902;2243478009;5150;21;868248;-5;4656;17228
0;48;1572263744374;1572263755807;11433;39648473502;6764406362;1736484493;1662196019;492707380;17145661;2240635107;5162;414;898144;4;5667;69123
0;49;1572263755807;1572263767311;11504;39660263148;6764381181;1947339768;1646015186;492703859;17148654;2240845844;4129;1772;934728;8;7608;240642
0;50;1572263767311;1572263778363;11052;38059982698;6764440269;2176772307;1520367058;492712371;17154568;2243278674;4508;715;865592;-11;5536;24983
0;51;1572263778363;1572263789858;11495;39796697958;6764438813;2135864224;1639319470;492712481;17143611;2240516216;5191;65;883008;1;3692;11636
0;52;1572263789858;1572263800961;11103;38434048568;6764410000;2131493586;1569164259;492708002;17148126;2240883941;4927;592;886680;0;5737;88937
0;53;1572263800961;1572263812029;11068;38314956368;6764426980;1956308942;1580913440;492710621;17144537;2243454604;5089;43;849232;-2;5118;25945
0;54;1572263812029;1572263823410;11381;39446479874;6764454897;1764442106;1649947642;492714788;17147118;2240968619;5199;11;874336;3;4166;13970
0;55;1572263823410;1572263834928;11518;39626249090;6764399313;1979879219;1661055562;492709438;17148392;2240395476;5307;471;924968;-2;5867;80958
0;56;1572263834928;1572263846332;11404;39525250378;6764467874;1790179812;1647623911;492717542;17154617;2240554739;5213;27;880000;-1;4813;17041
0;57;1572263846332;1572263857202;10870;37718434970;6764460276;2253170503;1522856063;492714761;17145041;2244782240;4640;720;830512;26;4916;137135
0;58;1572263857202;1572263868390;11188;38594525490;6764455955;2057430431;1579597114;492716201;17150716;2240541900;4958;190;887208;-20;5803;28354
0;59;1572263868390;1572263879594;11204;38810969906;6764488355;2417604856;1580769189;492721498;17152304;2244734228;5064;28;855184;-3;4702;16766
0;60;1572263879594;1572263890661;11067;38082992736;6764411827;2379749657;1527191106;492708776;17155655;2242978922;4813;664;876008;-3;5481;102865
0;61;1572263890662;1572263902022;11360;39413132890;6764438635;1771832878;1651039281;492712939;17144613;2240574976;5175;35;874536;0;5095;18315
0;62;1572263902022;1572263913453;11431;39448251730;6764502556;1741342064;1656949115;492725186;17158073;2240469495;5224;12;878864;0;4373;15302
1;12;1572264176072;1572264187542;11470;39798627932;6764408955;1774588581;1662801054;492707864;17145574;2240729338;5235;333;869272;19;4580;64220
1;13;1572264187542;1572264199051;11509;39779621652;6764423396;1770304910;1664488848;492710606;17151400;2241332188;5057;200;909112;-19;5908;33701
1;14;1572264199051;1572264210659;11608;40017486750;6764469226;1828729860;1682702495;492718016;17148521;2240645151;5127;51;869464;1;4929;18507
1;15;1572264210659;1572264222137;11478;39678060110;6764445385;1818563680;1669076988;492714953;17150755;2240455629;4512;337;773048;-1;4012;67769
1;16;1572264222137;1572264232874;10737;36827616262;6764461844;2119156321;1498552437;492715229;17153081;2246181947;4706;17;793464;5;4791;17991
1;17;1572264232874;1572264244338;11464;39700535642;6764422205;1914947586;1665491398;492710828;17148082;2240617414;5191;14;874128;-5;4588;15801
1;18;1572264244338;1572264255858;11520;39924324296;6764444551;2030725353;1675204494;492713694;17148566;2240374266;5249;410;905216;0;5720;90714
1;19;1572264255858;1572264267629;11771;39837334868;6764413946;1827541281;1676576690;492708984;17151796;2240781302;5335;11;897824;6;4971;17429
1;20;1572264267629;1572264278521;10892;37743337022;6764459273;1938429504;1556495871;492714854;17145226;2249499160;4848;21;817448;-6;4122;14230
1;21;1572264278521;1572264290155;11634;39826432464;6764418079;1878363643;1673549105;492710193;17147825;2244172408;5239;392;906168;0;6107;66270
1;22;1572264290156;1572264301989;11833;39935726750;6764412107;1905627988;1682353957;492710112;17147645;2240915906;5285;432;923120;0;5801;89614
1;23;1572264301989;1572264313710;11721;39910950404;6764457497;1745325459;1675641135;492715851;17153197;2240473134;5237;53;887488;1;5245;19648
1;24;1572264313710;1572264325603;11893;40215584952;6764466073;1793987041;1685633275;492719143;17152763;2240417687;5321;38;900176;0;4010;13908
1;25;1572264325603;1572264337210;11607;40047852852;6764423562;1938876104;1677099369;492711425;17149844;2240765181;5251;427;911648;3;5529;81115
1;26;1572264337210;1572264348877;11667;39969306458;6764449813;1779956237;1676371163;492714614;17157405;2240852571;5223;41;883552;7;5074;18173
1;27;1572264348877;1572264360842;11965;39833629972;6764425368;1818205203;1674393725;492710676;17151075;2241960820;4982;26;841040;-9;4199;14683
1;28;1572264360842;1572264372132;11290;38925834968;6764454516;1877588975;1606474447;492714529;17152969;2245500797;5021;394;878792;-1;5739;66577
1;29;1572264372132;1572264383647;11515;39968307526;6764429582;1926379022;1663380910;492711398;17148701;2240713071;5161;30;871448;-1;4867;17801
1;30;1572264383647;1572264395166;11519;39905872086;6764425446;1921725052;1673728546;492710987;17149257;2240836545;5164;385;898816;4;5114;58794
1;31;1572264395166;1572264406662;11496;39893667800;6764465153;1780539649;1674927904;492717183;17155584;2240839773;5101;84;869408;5;5338;19582
1;32;1572264406662;1572264418311;11649;40004093148;6764458854;1719604632;1679739087;492716152;17154308;2240645824;5216;46;884184;-5;4864;18040
1;33;1572264418312;1572264429349;11037;38026191728;6764437808;2064314249;1561696606;492712225;17146839;2245736512;4830;395;841088;-4;5452;65378
1;34;1572264429349;1572264441082;11733;39881187574;6764437394;1749035894;1675849681;492712495;17147052;2240803550;5146;28;868592;12;5166;18883
1;35;1572264441083;1572264452444;11361;38813316126;6764401906;1943638206;1600067371;492707189;17152560;2241502012;5078;43;859704;-12;4390;16552
1;36;1572264452444;1572264464333;11889;39977166368;6764432447;1945845657;1667456407;492712497;17152331;2240868440;4835;584;871088;3;5870;78972
1;37;1572264464333;1572264475508;11175;38741133142;6764404019;2145161565;1571051729;492706867;17143353;2246427294;4984;12;838688;-3;4775;17755
1;38;1572264475508;1572264486962;11454;39759380504;6764423918;1896933016;1646777602;492710322;17152981;2240492477;5161;407;891880;0;5358;65824
1;39;1572264486962;1572264498810;11848;39843329628;6764413103;1985183616;1656648692;492710282;17150283;2240465159;5334;18;898040;9;5425;20187
1;40;1572264498810;1572264510589;11779;39875747614;6764409921;1956910645;1661515394;492709784;17153293;2240623623;5308;0;891744;-9;4773;17688
1;41;1572264510589;1572264522143;11554;39537945954;6764404635;1808031885;1643990295;492706978;17142953;2240921649;4900;355;835216;0;5340;74904
1;42;1572264522143;1572264533537;11394;39371041820;6764405559;1824872854;1628829011;492707837;17152227;2242905754;5055;24;852472;4;4853;17403
1;43;1572264533537;1572264544723;11186;38796385090;6764434907;1979080036;1577932976;492711447;17150668;2242825639;4986;20;840544;-4;4446;16870
1;44;1572264544723;1572264556155;11432;39641998548;6764442688;1776211080;1643782674;492713236;17144365;2240742418;5175;423;894704;0;6002;86840
1;45;1572264556155;1572264567642;11487;39859200850;6764417123;1970897526;1645721860;492709031;17150177;2240930546;5158;23;869768;0;4922;17696
1;46;1572264567642;1572264579084;11442;39738651570;6764388296;1899549153;1641826220;492704389;17143215;2240357143;5103;436;892384;2;5198;73975
1;47;1572264579085;1572264590554;11469;39850609188;6764396828;2009705680;1642182804;492705731;17153802;2240357743;5143;29;868096;-2;5160;18224
1;48;1572264590554;1572264602457;11903;39874128474;6764431078;2054708542;1649295669;492712407;17153156;2240789342;5318;42;900208;0;4921;17215
1;49;1572264602457;1572264613759;11302;39101410188;6764414640;2245465338;1595543458;492708544;17150778;2243206190;4167;1736;925000;8;7705;112081
1;50;1572264613759;1572264625049;11290;38737596292;6764509695;1949662210;1603144724;492723879;17151556;2244346772;4576;676;867528;-5;6010;27921
1;51;1572264625049;1572264636241;11192;38695280674;6764428647;2089980105;1575789975;492711020;17152081;2241200028;5022;11;844920;-3;4381;15763
1;52;1572264636241;1572264647750;11509;39515930614;6764490435;1930285246;1644338000;492720709;17148206;2240626552;5064;526;902040;0;5399;88452
1;53;1572264647750;1572264659127;11377;39471737144;6764397478;1929974402;1630741284;492705977;17152876;2240362915;5115;93;862008;0;5394;31911
1;54;1572264659127;1572264670981;11854;39870440368;6764420100;1918882104;1664664600;492713571;17146824;2240298216;5183;11;872120;0;4567;16675
1;55;1572264670981;1572264682528;11547;39554557834;6764461083;1754419482;1642177631;492716290;17142275;2240905526;5023;371;864208;7;5480;69601
1;56;1572264682528;1572264694004;11476;39696047602;6764386809;1728248467;1649668561;492704471;17152787;2240973127;5147;25;868760;-4;4968;18245
1;57;1572264694004;1572264705549;11545;39469135862;6764458092;1769639741;1653536016;492717569;17149297;2240704464;5217;379;894248;5;4978;65415
1;58;1572264705549;1572264716938;11389;38846228030;6764496119;2044081392;1606176519;492722831;17154309;2243603736;5068;30;857840;-4;5198;20642
1;59;1572264716938;1572264728422;11484;39464270996;6764465038;1759668597;1650878343;492717247;17149807;2240699631;5159;17;868944;0;4835;18142
1;60;1572264728422;1572264739675;11253;38673336582;6764411578;1912610742;1589318366;492708249;17153972;2245002341;4984;464;881336;-4;5598;74378
1;61;1572264739676;1572264751099;11423;39655738754;6764390882;1940999754;1638598567;492704838;17146673;2241052476;5064;72;862208;0;4957;17775
2;13;1572265049783;1572265061104;11321;39278462928;6764382114;2030924690;1608279260;492703181;17144758;2241940542;5099;51;867640;-12;5365;20402
2;14;1572265061104;1572265072706;11602;40031054968;6764406847;1898231487;1679905213;492708860;17148835;2240495123;5182;67;881688;0;4507;15409
2;15;1572265072706;1572265084396;11690;40465564546;6764432060;2040485573;1678701307;492712239;17152345;2240764526;5176;411;901432;6;5349;61859
2;16;1572265084396;1572265095978;11582;40166192422;6764406847;2134332070;1672919655;492707731;17156945;2240947653;5169;40;875112;-6;5052;18342
2;17;1572265095978;1572265107586;11608;40313894636;6764426228;2017255763;1676411294;492711189;17151533;2240518469;5178;34;875320;0;4740;17182
2;18;1572265107586;1572265119185;11599;40186550662;6764442493;2091238342;1677016227;492713266;17145145;2240566280;5151;444;904208;10;6121;76711
2;19;1572265119185;1572265130190;11005;38193557514;6764437450;2110489147;1563290343;492711148;17150599;2245964979;4918;13;828096;-10;4765;17259
2;20;1572265130190;1572265141752;11562;39995296502;6764421187;2064167007;1683207372;492710166;17147445;2240154933;5113;470;896944;4;5255;78278
2;21;1572265141752;1572265153248;11496;39871311258;6764398482;1965232029;1686514731;492706108;17144840;2240491045;5121;45;868504;-4;5282;18602
2;22;1572265153249;1572265164825;11576;39862801502;6764407605;2006742799;1686129162;492708476;17145101;2240741433;5082;507;900872;6;5959;111385
2;23;1572265164825;1572265175815;10990;37623675276;6764419493;1933525573;1553201992;492708910;17153783;2245105142;4829;50;818464;-5;4964;18353
2;24;1572265175816;1572265186976;11160;37995137090;6764437298;2083911245;1570595723;492713729;17151565;2243985880;4917;40;832776;-1;3976;14167
2;25;1572265186977;1572265199004;12027;40085236006;6764459478;2093535498;1681326840;492717105;17148156;2240565149;5291;539;932352;6;5637;89747
2;26;1572265199004;1572265210669;11665;39384664204;6764421137;1972775054;1638569623;492710991;17151687;2240193589;5214;31;880520;-6;4990;17625
2;27;1572265210670;1572265222534;11864;39960376806;6764404652;1960982930;1671380298;492707531;17149977;2240186744;4933;22;832136;0;4254;14593
2;28;1572265222534;1572265234031;11497;39894491094;6764468203;1766506496;1670145604;492716763;17150099;2240791931;5064;418;889736;4;6079;79520
2;29;1572265234031;1572265245541;11510;39904059496;6764434812;1859776081;1669479394;492712016;17150869;2240829299;5145;32;868936;-4;4939;18001
2;30;1572265245542;1572265257017;11475;39806079918;6764452422;1726419451;1668935798;492714346;17151678;2240922491;5127;353;889536;0;4802;45886
2;31;1572265257017;1572265268570;11553;39953669858;6764452842;1948439608;1667563638;492714913;17149905;2240417267;5160;15;868280;7;5010;17349
2;32;1572265268571;1572265279542;10971;38076412078;6764413783;1932801606;1562056563;492708661;17146526;2243586460;4863;9;818496;-7;4457;16433
2;33;1572265279542;1572265291287;11745;39897798140;6764426125;1756747213;1688234775;492712605;17147529;2240103930;5076;458;897176;0;5663;60977
2;34;1572265291287;1572265302881;11594;39880387202;6764429181;2144028438;1668068755;492714460;17148395;2240381979;5152;33;870008;0;5045;17957
2;35;1572265302881;1572265314370;11489;39864365892;6764467377;1776607186;1681406345;492716621;17151419;2240830996;5131;9;863056;1;4459;17120
2;36;1572265314370;1572265326288;11918;40027649226;6764453028;1877465718;1687396683;492715618;17148350;2240068514;5121;414;897792;-1;6082;52076
2;37;1572265326288;1572265338176;11888;39501415294;6764387076;1940559601;1658469570;492704884;17149474;2240382949;5315;14;894472;0;5032;18167
2;38;1572265338176;1572265349777;11601;39795474478;6764430558;1850407937;1663311584;492711458;17150345;2240770433;5098;408;901168;0;5388;53514
2;39;1572265349777;1572265361198;11421;39500387746;6764397449;1864291093;1650115880;492706591;17152571;2240649265;5085;18;856504;1;5287;19559
2;40;1572265361198;1572265372645;11447;39504825854;6764438317;1876058204;1646544558;492713202;17146844;2240607324;5009;14;843864;-1;4440;16122
2;41;1572265372645;1572265384169;11524;39524196258;6764416255;1833755913;1645612046;492708267;17150454;2240677135;4857;442;861296;8;5078;59548
2;42;1572265384169;1572265395158;10989;38124344316;6764435281;1952406352;1566577461;492711285;17146437;2244914020;4879;35;824504;-7;4831;17216
2;43;1572265395158;1572265406648;11490;39811229046;6764415910;2134003268;1646771329;492709105;17150334;2240685945;5118;29;864072;4;4599;17296
2;44;1572265406649;1572265418195;11546;39035569006;6764437950;1924400650;1622549884;492716153;17158774;2240436715;5161;381;898320;-5;5858;65111
2;45;1572265418195;1572265429811;11616;39805408756;6764407688;2204899195;1648707504;492708148;17150350;2240359935;5200;11;874808;0;5032;18905
2;46;1572265429811;1572265441190;11379;39521818940;6764440154;1803525690;1648743798;492712906;17148521;2240190470;4943;427;875408;0;5205;63838
2;47;1572265441190;1572265452675;11485;39838320952;6764411883;1969524957;1652622145;492708536;17151627;2240529331;5129;12;862888;4;5015;17973
2;48;1572265452675;1572265464163;11488;39801243522;6764423773;1975574915;1658864234;492709923;17150201;2241097382;5136;9;864360;-4;4778;17664
2;49;1572265464163;1572265475581;11418;39595268182;6764395217;1842986744;1659829980;492705610;17154223;2241034606;5096;419;889784;2;5530;60755
2;50;1572265475582;1572265487034;11452;39337846676;6764432836;1831890175;1647608808;492711858;17150353;2242864364;5103;17;859208;-2;5107;18722
2;51;1572265487034;1572265498426;11392;39432572790;6764403264;1792931182;1656793415;492706866;17155282;2240237659;5029;268;857176;124;4613;58099
2;52;1572265498426;1572265510022;11596;39484998616;6764405342;1773904850;1657777450;492707880;17149901;2241011747;2579;3513;1108152;-124;10626;155355
2;53;1572265510023;1572265521314;11291;39183617094;6764399873;1956994793;1607894990;492706050;17148278;2240656865;5043;15;848944;0;4747;17360
2;54;1572265521314;1572265532610;11296;39156138872;6764453508;1818528423;1612868585;492714835;17148140;2241051122;4799;403;839776;1;4353;69983
2;55;1572265532610;1572265543866;11256;38946335850;6764458260;1909716944;1606916933;492715031;17149392;2240730007;4441;69;744072;-1;4495;24828
2;56;1572265543866;1572265555101;11235;38912534076;6764451263;1830399840;1605203384;492714298;17148226;2240697496;5022;1;843864;0;4918;18144
2;57;1572265555101;1572265566309;11208;38893996164;6764408907;1766126941;1604738729;492707575;17142638;2240563495;4594;279;785816;5;3951;49117
2;58;1572265566309;1572265577525;11216;38894674042;6764441683;1774803896;1602692976;492712649;17149459;2242271060;4983;17;839040;-4;5157;19151
2;59;1572265577525;1572265588747;11222;38915600660;6764435948;1855963239;1603293749;492713162;17150421;2241139744;4994;4;839664;-1;4383;16220
2;60;1572265588747;1572265599984;11237;39028281124;6764441873;2014469029;1601643436;492712936;17150670;2240998402;4965;446;874560;2;5687;68163
2;61;1572265599984;1572265611223;11239;38972832222;6764449340;1903185880;1602501508;492714029;17154884;2241044925;5017;9;843728;-2;5019;19057
2;62;1572265611223;1572265622506;11283;39140582426;6764478347;2021148109;1602406864;492718695;17153793;2240416401;5039;2;846264;0;4435;16928
3;13;1572265917820;1572265929437;11617;39697056462;6764447243;1777694522;1678350579;492714535;17158054;2240709434;5233;512;934896;-1;5604;60313
3;14;1572265929437;1572265940913;11476;39744250232;6764402846;1775690595;1678753462;492707196;17150460;2240346768;5321;18;896672;0;4911;17282
3;15;1572265940913;1572265952393;11480;39791994860;6764423404;1717138068;1680003408;492710385;17153421;2240806276;5393;159;904072;90;3878;23232
3;16;1572265952394;1572265964052;11658;40128029336;6764428889;1802062561;1686527363;492712311;17156690;2241001658;5249;276;931568;-90;5890;45986
3;17;1572265964052;1572265975690;11638;40001320024;6764429143;2022313743;1680297199;492711479;17150328;2240772015;5397;21;909944;0;4768;16881
3;18;1572265975690;1572265987226;11536;39974019922;6764423852;2032693445;1674855529;492710434;17152543;2240329097;5305;452;932560;0;5186;74936
3;19;1572265987226;1572265998762;11536;39917243442;6764454102;1836831392;1682653097;492714939;17146784;2240692563;5331;14;897656;0;5061;18621
3;20;1572265998763;1572266010277;11514;39836687066;6764397485;1983691015;1679538139;492706095;17148766;2240701220;5282;20;890600;0;4287;14983
3;21;1572266010277;1572266021794;11517;39938897724;6764461629;2043686071;1682283204;492715900;17146296;2240875983;5198;452;922144;0;5715;63449
3;22;1572266021794;1572266033271;11477;39814080572;6764421023;2031141442;1679265950;492710262;17149763;2240495805;5186;401;911896;1;6167;66196
3;23;1572266033272;1572266044790;11518;39956784622;6764453240;2019005914;1677133954;492714248;17148031;2240225130;5323;7;894640;-1;4991;18700
3;24;1572266044790;1572266056309;11519;39882325352;6764453604;2163317140;1674266452;492716218;17149381;2240853821;5276;19;889424;0;3545;11623
3;25;1572266056309;1572266067814;11505;39878747038;6764422370;2037565038;1673842339;492710424;17145822;2240204832;5204;459;922240;0;5749;56877
3;26;1572266067814;1572266079352;11538;40011785012;6764418059;2200932702;1673847036;492709333;17153581;2241033373;5333;8;896496;7;5065;18680
3;27;1572266079352;1572266090625;11273;38869198940;6764410588;1973929347;1608289080;492708284;17155624;2242501017;5262;151;879520;96;3873;23689
3;28;1572266090625;1572266102108;11483;39842141626;6764409384;1894191184;1676920486;492707368;17147544;2240640403;5180;236;909536;-103;5936;42185
3;29;1572266102108;1572266113586;11478;39802181426;6764428260;1942672330;1676543473;492711087;17150267;2240258651;5321;6;893976;0;4834;17093
3;30;1572266113587;1572266125076;11489;39724142528;6764408417;1815952817;1676740478;492708389;17153958;2240927503;5016;684;926240;0;5413;92657
3;31;1572266125076;1572266136546;11470;39762054640;6764434002;1979741238;1675393139;492711747;17149475;2240373158;5292;4;888792;1;5477;21223
3;32;1572266136546;1572266148074;11528;39944466018;6764422292;1906020350;1676325235;492710336;17146764;2240528001;5321;5;894768;-1;4446;15652
3;33;1572266148074;1572266159654;11580;39783295012;6764441929;1795959438;1681992639;492714906;17149178;2240535679;5005;477;891296;3;4928;78104
3;34;1572266159654;1572266170991;11337;39250060672;6764419604;1822236467;1648934892;492709347;17145202;2242622457;4887;30;824824;-3;4562;16422
3;35;1572266170991;1572266182489;11498;39867022800;6764391711;1914017234;1676916045;492704926;17143558;2241123258;5301;6;891272;0;4159;14146
3;36;1572266182489;1572266194027;11538;39934545464;6764469716;1953638894;1676395656;492717037;17149938;2241006388;5170;559;924664;9;6366;73810
3;37;1572266194027;1572266205188;11161;38663661454;6764383936;2051704313;1608991398;492703322;17151876;2244269241;5117;18;861584;-8;4704;16539
3;38;1572266205188;1572266216670;11482;39806991688;6764417327;2069334627;1666404795;492709262;17151715;2240735967;5215;532;921336;-1;5061;86229
3;39;1572266216670;1572266228104;11434;39610717026;6764428583;1978832978;1663847231;492710660;17149716;2240446958;5260;17;886536;0;5117;17815
3;40;1572266228104;1572266239939;11835;39997087484;6764414066;1743994127;1673713499;492710438;17149438;2240952660;5448;11;916312;3;4654;16385
3;41;1572266239939;1572266251566;11627;39744177962;6764476736;2016367475;1664079104;492718703;17148961;2240987401;5341;384;925144;1;5547;66237
3;42;1572266251566;1572266262695;11129;38549492520;6764404780;2110783341;1592191923;492706950;17151626;2244687674;5083;12;855160;-4;4840;17462
3;43;1572266262695;1572266273874;11179;38549318926;6764429133;1918245089;1605523990;492711029;17148456;2243859833;5107;12;859856;0;3850;12524
3;44;1572266273875;1572266285326;11451;39633540038;6764449513;1747288685;1669676247;492714223;17146046;2240383893;5196;516;916024;1;6279;92046
3;45;1572266285326;1572266296752;11426;39630670408;6764395717;1726631099;1669711503;492705703;17144496;2240565914;5277;13;887920;0;4836;17390
3;46;1572266296752;1572266308181;11429;39650721902;6764432825;1730947159;1668686884;492711739;17147606;2240286650;5172;530;918640;0;5329;84435
3;47;1572266308181;1572266319611;11430;39629165002;6764395259;1760440190;1666435867;492705476;17149455;2240735082;5259;29;887976;-1;4953;17002
3;48;1572266319611;1572266331073;11462;39669369022;6764439079;1760638092;1668610160;492712338;17151809;2240701781;5253;28;886568;0;4862;18304
3;49;1572266331073;1572266342565;11492;39560198106;6764446906;1725451186;1669370720;492715049;17145223;2240117710;5192;579;919320;163;5487;71972
3;50;1572266342565;1572266353597;11032;37339017032;6764381859;2197408961;1530052442;492703706;17149652;2248104670;3758;1935;924856;-163;7609;156405
3;51;1572266353597;1572266365074;11477;39601779636;6764391630;2022130833;1646295832;492705479;17147728;2240495979;5293;5;890064;5;4425;15525
3;52;1572266365074;1572266376265;11191;38617207320;6764456933;1869592505;1598287205;492715804;17150836;2245568789;5043;530;895264;0;4677;74560
3;53;1572266376265;1572266387917;11652;39619171740;6764391097;1897281320;1640953145;492704868;17147813;2242238239;5388;62;902064;-4;5581;28478
3;54;1572266387917;1572266399358;11441;39703399870;6764458488;2236117815;1645788456;492715515;17143800;2240698719;5206;24;878336;-1;4468;15244
3;55;1572266399358;1572266410866;11508;39658629408;6764396358;2162246934;1639758237;492705802;17153500;2240714841;5013;390;871936;5;5088;63180
3;56;1572266410866;1572266421938;11072;37904030316;6764407352;1878741743;1568129690;492708283;17150758;2244439795;4517;71;769576;-5;4208;13412
3;57;1572266421938;1572266433405;11467;39390376162;6764401290;1827294580;1637455306;492706750;17152365;2240594348;5231;47;885424;0;4099;13651
3;58;1572266433405;1572266444927;11522;39429098428;6764424809;1772764458;1654553909;492711496;17152623;2240724236;5318;363;917560;1;5988;63515
3;59;1572266444927;1572266456441;11514;39523449030;6764400727;1833472014;1633052606;492707513;17150666;2240460446;5273;47;893760;-1;4673;16300
3;60;1572266456441;1572266467555;11114;38048908160;6764471428;2037093158;1543147916;492717363;17149289;2244192081;5056;368;878544;0;4883;59558
3;61;1572266467555;1572266478714;11159;38232769318;6764389890;2017931176;1560910055;492705789;17149545;2247034888;5100;26;860208;0;5023;18189
3;62;1572266478714;1572266490275;11561;39367613448;6764467840;1771427727;1631868586;492717269;17148607;2240958082;5334;10;897648;1;4490;15282
4;10;1572266735935;1572266747198;11263;37505419072;6764500160;1902777144;1570411219;492723492;17147159;2247259660;5215;461;924408;-6;5289;55731
4;11;1572266747198;1572266759192;11994;39688077900;6764405028;1711113546;1683887649;492709026;17152304;2240268803;5583;18;940664;1;4991;17060
4;12;1572266759193;1572266771051;11858;39431231634;6764444567;1705228582;1681563973;492713713;17151471;2239872691;5275;350;895696;17;4138;50012
4;13;1572266771051;1572266782454;11403;37752240832;6764412324;1972114954;1565363310;492709988;17146493;2243574465;5326;111;934288;-18;5719;26810
4;14;1572266782454;1572266794493;12039;39850682042;6764412734;1732183369;1674968421;492709983;17150003;2239944065;5698;18;960144;0;4797;16092
4;15;1572266794493;1572266806411;11918;39924284730;6764421632;1856278338;1668175518;492710766;17147689;2240382349;5551;453;978744;9;4782;60431
4;16;1572266806411;1572266818051;11640;38046325566;6764401738;1917754738;1556327054;492707643;17146783;2242008217;5473;20;922680;-8;4855;16547
4;17;1572266818051;1572266830008;11957;39742975944;6764426560;1767480966;1669043162;492712506;17153903;2240499653;5688;3;956088;-1;4292;13556
4;18;1572266830008;1572266842016;12008;40030830858;6764401018;2036349719;1660000023;492707258;17152705;2240245096;5522;534;979888;6;6292;71874
4;19;1572266842016;1572266853638;11622;38490220608;6764396923;1970785965;1575463015;492706520;17151035;2245316507;5427;14;913624;-3;4549;14820
4;20;1572266853638;1572266865965;12327;39883967706;6764459936;1776219228;1677300845;492717229;17146835;2240423854;5762;416;1002088;2;5094;53288
4;21;1572266865965;1572266877778;11813;38033919362;6764407705;2037206840;1567043222;492707543;17151347;2245839599;5524;17;930888;-4;5292;18277
4;22;1572266877778;1572266889797;12019;39885185492;6764395058;1867375848;1676828226;492706542;17152159;2240365591;5519;442;977296;-1;6383;69160
4;23;1572266889797;1572266901917;12120;40086747982;6764423363;1814151254;1678079983;492711160;17147009;2240268095;5715;4;960000;0;3862;11682
4;24;1572266901917;1572266914378;12461;40025634572;6764414630;1879918977;1681561751;492711218;17150043;2240640142;5721;506;1011152;0;5770;74133
4;25;1572266914378;1572266926040;11662;37577403788;6764456024;2111054675;1518626183;492716851;17152995;2242251393;5459;24;920184;0;5265;19491
4;26;1572266926040;1572266938537;12497;39656145510;6764456721;1991123141;1648554331;492717020;17155091;2240485628;5868;13;988008;0;4311;14049
4;27;1572266938537;1572266950296;11759;40182211980;6764433247;1963759852;1681056793;492712883;17152170;2240251485;5387;482;948800;0;6263;92459
4;28;1572266950297;1572266962276;11979;40099503126;6764442767;2045674528;1674654669;492715037;17158962;2240473971;5644;3;947736;1;4706;15854
4;29;1572266962276;1572266974542;12266;39981362846;6764405685;1753292634;1679892894;492708504;17151142;2240441520;5417;688;1000144;0;5486;74354
4;30;1572266974542;1572266986467;11925;40107393258;6764438257;1894695323;1669150072;492712940;17150979;2240227234;5477;23;923592;-1;4914;16500
4;31;1572266986467;1572266998578;12111;40299057532;6764404957;2090098202;1665898650;492708523;17150595;2240118981;5704;19;960664;0;4242;13235
4;32;1572266998578;1572267010531;11953;40016822450;6764426623;2043624602;1666868229;492712251;17147515;2240128820;5308;407;926744;0;5426;66823
4;33;1572267010531;1572267022148;11617;39899934412;6764385580;1808369148;1680772709;492704086;17149853;2240748445;5328;23;897624;5;4704;16223
4;34;1572267022148;1572267033607;11459;38426489710;6764407374;1976622607;1563830705;492707516;17151055;2240688541;5250;437;907368;-2;4444;75170
4;35;1572267033607;1572267045899;12292;40008485266;6764418551;1776716194;1670579328;492711389;17148909;2240280261;5788;17;975104;-1;5517;20324
4;36;1572267045899;1572267057862;11963;40085484790;6764470874;1750132518;1676954246;492719147;17151749;2240423902;5646;14;950080;-2;4701;16148
4;37;1572267057862;1572267069654;11792;39634648470;6764425346;2033500247;1651613255;492711093;17146742;2240493123;5446;402;944976;0;5078;67522
4;38;1572267069654;1572267081696;12042;39682957826;6764378213;1921957545;1639907554;492703786;17149599;2240680474;5666;21;954776;0;5096;18076
4;39;1572267081696;1572267093252;11556;38218864278;6764407361;2085468016;1554334079;492708592;17151229;2243062007;5396;159;909048;165;3932;23906
4;40;1572267093252;1572267105302;12050;39727019604;6764467381;1904671438;1654908798;492718815;17152435;2240464472;5281;602;974192;-165;6261;95198
4;41;1572267105303;1572267117106;11803;39622130430;6764456126;1730666222;1645134704;492715704;17151332;2240257863;5509;37;930928;1;4450;14176
4;42;1572267117107;1572267129345;12238;39623734240;6764461156;1955138861;1646033663;492717380;17147007;2240071828;5724;317;976512;-1;4653;66503
4;43;1572267129345;1572267140994;11649;39705716160;6764396579;1981635391;1662583049;492709000;17149749;2239938177;4845;17;816176;1;4440;15172
4;44;1572267140994;1572267153071;12077;39761725118;6764478062;2009642862;1633771433;492719879;17151668;2240569999;5657;22;954072;-1;4479;14584
4;45;1572267153072;1572267164904;11832;39706055318;6764387450;1744985551;1642082210;492704915;17150238;2240215073;5461;344;935736;0;5224;60111
4;46;1572267164904;1572267177094;12190;39736601584;6764448949;1821894813;1648879093;492716755;17153677;2240137973;5670;83;965432;0;4961;16857
4;47;1572267177094;1572267189344;12250;39700700038;6764401431;2042738439;1654200162;492707643;17154968;2240625268;5698;369;980416;1;4377;60712
4;48;1572267189344;1572267201327;11983;39699439620;6764459987;1791877668;1664354570;492716956;17149601;2240877087;4288;1991;998840;2;7945;76773
4;49;1572267201327;1572267213117;11790;38512069946;6764483436;2052312803;1574774352;492720894;17155116;2241097971;5517;21;929960;-3;4476;14934
4;50;1572267213117;1572267224960;11843;39306216214;6764386436;1805607126;1620792698;492705062;17155127;2240159944;5267;758;969008;0;5163;109288
4;51;1572267224960;1572267236852;11892;39218599132;6764458671;1764730717;1640422644;492716603;17153556;2240956934;5624;70;943360;8;5460;27181
4;52;1572267236852;1572267247717;10865;36860788484;6764388078;2039715980;1478632991;492704168;17147122;2247755577;4538;93;775664;-8;3807;12422
4;53;1572267247717;1572267259649;11932;39425026050;6764414527;1927384368;1640372358;492710514;17147608;2240262660;5185;794;951488;0;6220;136600
4;54;1572267259649;1572267271561;11912;39703737422;6764385487;2139791024;1619950748;492704750;17145281;2240699678;5561;65;944208;0;5104;18002
4;55;1572267271561;1572267283783;12222;39665395778;6764408191;2196392165;1632981742;492708781;17152067;2240919363;5788;207;963816;151;3748;41295
4;56;1572267283783;1572267295872;12089;39599162148;6764442950;1910608625;1646169998;492714433;17150099;2242412678;5374;550;987272;-150;6683;78025
4;57;1572267295872;1572267308010;12138;39631802492;6764428929;2039130723;1636021822;492711692;17150176;2240488035;5653;66;960792;3;4820;15685
4;58;1572267308010;1572267319814;11804;39468356076;6764473024;1799052607;1637281719;492719543;17150540;2240696767;5197;831;965424;-4;6133;134795
4;59;1572267319814;1572267331753;11939;39443502642;6764482881;1749938814;1641468432;492721152;17150703;2240527584;5569;67;946048;7;5031;16602
