0;10;1572242588503;1572242600226;11723;40673251736;6764508444;2061941898;1515346440;492724327;17150968;2250400039;978;2065;50256;0;431;1454
0;11;1572242600226;1572242612038;11812;41000637318;6764414894;1946951795;1542840193;492709273;17149186;2252833618;875;2170;50272;0;421;1082
0;12;1572242612038;1572242624347;12309;41134268344;6764394359;1864659033;1541761294;492705986;17145707;2255323009;1238;2106;64768;0;586;3231
0;13;1572242624347;1572242636315;11968;41135306112;6764441778;2127983114;1550473554;492714234;17151906;2247868869;920;2219;51792;0;367;976
0;14;1572242636315;1572242648110;11795;40638299920;6764403051;1784664518;1556933271;492707266;17149800;2249587684;619;1877;41184;0;338;1222
0;15;1572242648110;1572242659969;11859;40030012674;6764443545;1876019992;1510662750;492713284;17149096;2251991735;1256;1997;62256;2;627;4010
0;16;1572242659969;1572242672060;12091;41544157066;6764419547;2124506078;1568131948;492709999;17152959;2248666294;920;2237;52120;-2;405;1004
0;17;1572242672060;1572242683735;11675;40443133836;6764420016;1996918127;1518656390;492710901;17149796;2250148948;1236;1925;60688;0;559;3171
0;18;1572242683735;1572242695840;12105;40874656984;6764433080;1820916105;1543877105;492712488;17144798;2253089376;939;2216;52056;0;393;983
0;19;1572242695840;1572242708054;12214;41975442380;6764408055;1857435225;1561882670;492708603;17146333;2245411743;953;2215;52272;0;398;1105
0;20;1572242708054;1572242720357;12303;42163921226;6764449994;1919286748;1613081841;492715583;17152862;2248108645;1373;2068;70912;1;798;5944
0;21;1572242720358;1572242731992;11634;40292265466;6764438544;1975628340;1525492455;492713485;17148924;2249539394;872;2140;49848;-1;394;992
0;22;1572242731992;1572242744224;12232;41669727724;6764461136;1984382335;1579737392;492717871;17152301;2249375158;1082;2089;53048;0;473;1828
0;23;1572242744224;1572242756350;12126;40464098706;6764425443;2139009585;1517922929;492711045;17144383;2248638378;1381;2032;70672;0;978;7252
0;24;1572242756350;1572242768241;11891;40819188226;6764436966;1841738503;1548348927;492714339;17151267;2248692537;905;2183;50952;0;447;1086
0;25;1572242768241;1572242780654;12413;41812229564;6764486593;1910789116;1579520577;492721269;17144916;2250055914;1203;2036;66648;0;660;5272
0;26;1572242780654;1572242792118;11464;39716869100;6764441686;1773490770;1496194422;492712695;17144582;2249715366;679;1869;42032;0;271;825
0;27;1572242792118;1572242803784;11666;40529085496;6764399378;2192129618;1498442875;492706340;17149073;2245314763;861;2198;50448;0;479;1289
0;28;1572242803784;1572242815562;11778;40903061430;6764414732;1854960104;1535198992;492709154;17152174;2251009105;1246;1901;60992;0;604;3091
0;29;1572242815562;1572242827154;11592;40261645178;6764393938;1956853845;1515186974;492705475;17147470;2250665858;882;2145;49944;0;411;1120
0;30;1572242827154;1572242838728;11574;40181192316;6764417736;1830740631;1509392430;492709348;17156477;2248924274;1118;2011;60608;0;616;3321
0;31;1572242838728;1572242850225;11497;39911641422;6764416982;1993127317;1496390388;492709588;17156286;2249603629;943;2053;49424;0;416;1176
0;32;1572242850225;1572242861894;11669;40506785456;6764414107;1854212150;1528802226;492708798;17149717;2251017061;756;2030;46000;0;368;875
0;33;1572242861894;1572242873781;11887;40898868456;6764409633;2107373147;1543852763;492708370;17142246;2247246235;1291;1934;62376;0;686;4825
0;34;1572242873781;1572242885674;11893;40480788550;6764402987;2189363516;1523105541;492707156;17149901;2251459490;907;2201;51272;0;466;1213
0;35;1572242885674;1572242897737;12063;41416936608;6764473105;1886933414;1580767044;492718030;17148808;2246793854;841;1996;55592;0;535;3078
0;36;1572242897737;1572242909326;11589;40239166580;6764433864;1876341715;1513534881;492711456;17145128;2252032239;1154;1870;49896;0;432;1709
0;37;1572242909326;1572242920960;11634;40383144918;6764445648;1927895534;1514450527;492713750;17155059;2247758767;888;2156;50216;0;535;1264
0;38;1572242920960;1572242932846;11886;40341243210;6764386477;1959023084;1517269185;492704705;17151957;2253235654;1249;1976;62840;0;513;2903
0;39;1572242932846;1572242944475;11629;40334875274;6764437898;1801999481;1499058235;492712953;17145580;2253472664;918;2111;49960;0;464;1218
0;40;1572242944475;1572242956335;11860;40287415492;6764388128;2086322109;1506797772;492704819;17146068;2250181477;640;1954;42784;0;319;873
0;41;1572242956335;1572242967932;11597;40269865708;6764384890;2101256293;1509898523;492703732;17147926;2250163074;1199;1960;60728;0;651;3548
0;42;1572242967933;1572242979449;11516;39977552976;6764434640;2038812145;1498208303;492711652;17151195;2249138616;843;2169;49688;0;439;1129
0;43;1572242979449;1572242991041;11592;39841614420;6764438417;2222098105;1482791750;492712326;17146283;2248641949;1204;1919;60864;0;536;2957
0;44;1572242991041;1572243003116;12075;40007336976;6764408043;2195731696;1487488404;492707788;17147666;2246680218;875;2153;49960;0;414;1171
0;45;1572243003116;1572243015033;11917;40533006180;6764416432;2164331053;1504654093;492709732;17146216;2252137920;1580;2012;102216;0;2566;10734
0;46;1572243015033;1572243027266;12233;40250613272;6764429273;1924717206;1505244196;492711421;17147552;2250586586;974;2244;53088;0;531;1415
0;47;1572243027266;1572243039416;12150;40305400648;6764400036;2103124907;1517405836;492707010;17149756;2252293904;1110;2195;64304;0;705;4024
0;48;1572243039416;1572243051318;11902;40124610162;6764404762;1842465222;1522373128;492707555;17146977;2251927600;1073;1888;48296;0;507;3161
0;49;1572243051318;1572243063184;11866;40379216934;6764434267;2288938048;1512745697;492711577;17146278;2250681861;908;2196;51216;0;479;1165
0;50;1572243063184;1572243074869;11685;40129134702;6764444942;2214738260;1509267852;492713772;17151674;2249818043;1267;1950;61632;0;632;4443
0;51;1572243074869;1572243086463;11594;40163134452;6764461737;2089520642;1525834103;492716492;17148449;2249863645;698;1896;42784;0;291;895
0;52;1572243086463;1572243098114;11651;39457553098;6764448597;2318959781;1469064479;492713707;17146316;2248963142;861;2119;49160;0;371;1080
0;53;1572243098114;1572243110066;11952;39928665898;6764414758;1916929040;1506337404;492709105;17150194;2251925940;1281;1971;61880;0;614;3510
0;54;1572243110067;1572243121860;11793;40172756582;6764424706;2055417635;1505691136;492710215;17153049;2250208654;898;2174;50688;0;502;1451
0;55;1572243121860;1572243133926;12066;41910521436;6764432552;2032315106;1591620587;492711724;17143062;2244126249;1202;2044;62440;0;651;3232
0;56;1572243133927;1572243145509;11582;40168834438;6764382290;1840513787;1501748294;492703509;17149384;2251211837;902;2107;49592;1;458;1349
0;57;1572243145510;1572243157502;11992;41610743140;6764463956;1944618177;1584865334;492716414;17152104;2244459227;977;2148;51592;-1;375;1137
0;58;1572243157502;1572243168762;11260;38966375956;6764406128;2052788124;1459632365;492707354;17153578;2248791825;1224;1827;58768;0;581;2958
0;59;1572243168762;1572243180194;11432;39649461192;6764403711;1960727783;1496042875;492707923;17149489;2250288140;871;2110;49216;0;468;1127
1;11;1572243462950;1572243474713;11763;40801931902;6764421590;1872591498;1534913272;492710083;17147723;2253145567;846;2371;53064;0;448;1066
1;12;1572243474713;1572243486556;11843;41073726962;6764413354;2136252304;1530051824;492708781;17156340;2254836690;1437;2199;74240;0;684;7137
1;13;1572243486556;1572243498114;11558;40066087814;6764405493;1950808389;1487213948;492707141;17145754;2250434021;968;2330;54448;0;433;1200
1;14;1572243498114;1572243509943;11829;40977756052;6764421125;1871756458;1532320170;492710491;17154105;2253553479;988;2388;55704;0;443;1112
1;15;1572243509943;1572243522070;12127;42074572876;6764402497;2058613718;1578243975;492707184;17149257;2247793625;1621;2105;75176;0;985;16678
1;16;1572243522070;1572243534239;12169;42235516998;6764404505;1945704172;1583362537;492707575;17147743;2246248632;1015;2521;58344;0;436;978
1;17;1572243534239;1572243546294;12055;41823424406;6764463902;1811368478;1575833511;492717158;17154090;2248203187;1413;2271;73056;0;653;7324
1;18;1572243546294;1572243558060;11766;40805243036;6764412284;1946753662;1530019390;492708575;17156594;2251893569;1009;2372;55768;0;506;1504
1;19;1572243558060;1572243570002;11942;41380888332;6764452718;2210947726;1531594987;492714654;17153372;2250846253;1046;2410;57024;0;443;1114
1;20;1572243570002;1572243581799;11797;40718658466;6764451626;1822900807;1530742900;492716208;17148718;2253789817;1489;2108;72192;0;706;11203
1;21;1572243581799;1572243593402;11603;40105943478;6764437104;1797944026;1515140425;492713555;17150727;2253636734;1048;2472;69840;4;517;3206
1;22;1572243593402;1572243605283;11881;41063645662;6764431995;2075482764;1545646557;492713369;17153751;2252450515;1283;2165;57104;-4;690;2626
1;23;1572243605283;1572243617191;11908;41167647302;6764410151;2082912173;1553599359;492709440;17153121;2252791216;1060;2401;57088;0;503;1490
1;24;1572243617191;1572243628930;11739;40494116306;6764419884;1801451030;1532799547;492711597;17147788;2248592857;1517;2072;72248;0;719;6176
1;25;1572243628930;1572243640998;12068;40509739036;6764463017;1974064538;1522701549;492716819;17145213;2252759886;836;2306;51816;0;404;1120
1;26;1572243640998;1572243652811;11813;40972692480;6764445319;1994632454;1537926379;492713323;17153717;2248167698;1004;2404;56232;0;439;1181
1;27;1572243652811;1572243664545;11734;40703808076;6764448897;2000684244;1523579510;492713770;17153579;2252360719;1400;2145;72480;0;840;9431
1;28;1572243664546;1572243676016;11470;39783250044;6764407946;1932975602;1486006759;492707524;17144982;2250251660;957;2392;55240;0;498;1141
1;29;1572243676017;1572243687656;11639;40368674712;6764436990;1839999471;1519304026;492712539;17149091;2249981950;1409;2135;72288;0;656;5072
1;30;1572243687656;1572243699268;11612;40266530046;6764454277;1984161779;1507539230;492715383;17147412;2251530505;1103;2270;55472;3;460;1501
1;31;1572243699268;1572243710953;11685;40527195526;6764480213;2087322756;1520396616;492718827;17147545;2252385102;1008;2392;56264;-3;452;1158
1;32;1572243710953;1572243722492;11539;40024478690;6764417388;1988075261;1504963813;492709465;17153097;2251259774;1233;2018;66776;0;626;5777
1;33;1572243722492;1572243733977;11485;38843519438;6764413510;1955992614;1463661205;492708447;17148765;2248976979;636;2105;45216;0;321;833
1;34;1572243733978;1572243745656;11678;40485596622;6764404343;1805277571;1529675044;492707288;17147675;2252292462;1034;2358;55968;0;459;1379
1;35;1572243745656;1572243757448;11792;40798110936;6764424945;1855410713;1542330573;492711184;17157055;2251500205;1378;2176;68872;0;621;3490
1;36;1572243757448;1572243769168;11720;40613453932;6764448728;1868912801;1532892074;492714785;17150125;2250534288;1009;2404;56296;0;428;1148
1;37;1572243769168;1572243780764;11596;40084591124;6764413323;1955497047;1507189491;492709141;17153162;2248966528;1576;1986;71856;0;754;14565
1;38;1572243780764;1572243792408;11644;40379411990;6764473810;1854659327;1522497949;492718613;17147006;2250746652;1044;2348;55968;0;457;1358
1;39;1572243792408;1572243804045;11637;40322135314;6764422178;1799135537;1520865153;492710569;17147104;2250327676;974;2343;54712;0;414;1100
1;40;1572243804045;1572243815939;11894;41245353612;6764443974;1908464793;1560239432;492713820;17151802;2247597430;1392;2214;72264;0;646;5508
1;41;1572243815939;1572243828013;12074;41796547558;6764393869;2103004861;1578042573;492706074;17148162;2248300619;1004;2521;58144;0;450;1060
1;42;1572243828014;1572243839707;11693;40457656310;6764394771;2053002925;1516314761;492706254;17148777;2251057570;1371;2209;71192;0;906;11514
1;43;1572243839707;1572243851292;11585;40112559468;6764431784;2119759994;1500681752;492711518;17144901;2247646084;1255;2057;54648;0;551;2365
1;44;1572243851292;1572243862844;11552;40017402362;6764445743;1945257099;1504501696;492713198;17149047;2250732691;974;2359;54976;0;434;1039
1;45;1572243862844;1572243874406;11562;40047102996;6764440121;1791405853;1507595467;492712300;17151892;2250352736;1332;2216;72096;7;629;5456
1;46;1572243874406;1572243886214;11808;40934254184;6764438364;2166451794;1529254700;492712932;17150393;2249529351;1043;2393;56824;-7;513;1268
1;47;1572243886214;1572243897685;11471;39736885846;6764440132;1910573971;1486894764;492712935;17145661;2250696852;1047;2281;54912;0;464;1432
1;48;1572243897685;1572243909273;11588;40144608658;6764468239;1959988597;1501129054;492717089;17153131;2251668027;1582;1995;73280;0;844;9262
1;49;1572243909273;1572243921040;11767;40149723330;6764447136;2007039059;1499711002;492714583;17153875;2250867018;2081;2342;316912;0;5566;32159
1;50;1572243921040;1572243932571;11531;40030295476;6764432361;1949141113;1476866440;492711641;17153728;2251421815;979;2302;54128;0;518;1259
1;51;1572243932571;1572243944016;11445;39736315278;6764480281;1870541401;1465022092;492718679;17147661;2248725729;1164;2132;54384;0;440;2014
1;52;1572243944016;1572243955577;11561;40062392408;6764441505;1834909527;1485641749;492712551;17151183;2251133786;1490;2156;75984;0;979;10260
1;53;1572243955577;1572243967272;11695;40435307068;6764452624;2053923050;1512373669;492714860;17150212;2248025258;914;2383;54400;0;437;1125
1;54;1572243967273;1572243978786;11513;39862711858;6764414990;2151615423;1495790628;492709332;17147732;2252781578;1315;2242;72984;0;650;8277
1;55;1572243978786;1572243990491;11705;40226715262;6764388373;2100523584;1510135531;492704854;17144588;2249303994;1117;2291;56232;0;503;1576
1;56;1572243990492;1572244002032;11540;40018175578;6764422613;1942550193;1501527379;492709284;17149132;2249293652;983;2377;55448;0;452;1156
1;57;1572244002032;1572244013611;11579;40149736178;6764429753;1846868555;1513533742;492710684;17149527;2250290820;1545;2027;72456;0;843;6718
1;58;1572244013611;1572244025043;11432;39638549590;6764472087;1980451258;1485118010;492717964;17152616;2250863304;962;2350;54648;0;469;1168
1;59;1572244025043;1572244036494;11451;39717734004;6764438905;1948200333;1487813946;492713185;17147314;2247650619;977;2351;54912;0;393;957
1;60;1572244036494;1572244048047;11553;40059720754;6764440772;2000574595;1498281631;492713348;17147952;2248272569;1409;2096;70616;0;707;4977
2;11;1572244315534;1572244327956;12422;42418109124;6764436481;2050014923;1634802854;492712899;17156683;2251438706;849;2447;54384;0;351;1025
2;12;1572244327956;1572244339634;11678;40501648154;6764440040;1908355501;1531670331;492712742;17149103;2253335087;1273;2124;69816;0;621;6137
2;13;1572244339635;1572244351468;11833;41018882646;6764422368;1915910673;1551738186;492710424;17145604;2256426327;1016;2409;56528;0;458;1219
2;14;1572244351468;1572244363282;11814;40970011482;6764512465;2021357644;1550694069;492724790;17151923;2253862195;1021;2403;56496;0;378;1045
2;15;1572244363282;1572244375119;11837;40772504580;6764417368;2000289558;1543095878;492709774;17153876;2256673096;1459;2021;72184;0;874;8655
2;16;1572244375119;1572244386949;11830;41015919138;6764452707;2176437553;1532316679;492714507;17146220;2249581449;918;2521;56592;1;379;944
2;17;1572244386949;1572244398982;12033;41737112418;6764457394;1766165728;1571432953;492716144;17147784;2249439217;1335;2311;73968;-1;702;6939
2;18;1572244398982;1572244411019;12037;41729443622;6764464163;1935571481;1544524921;492716840;17150139;2250558302;1067;2427;57648;0;511;1411
2;19;1572244411019;1572244422787;11768;40826740806;6764414469;1796589351;1516590770;492708242;17147806;2250111607;1014;2378;55976;0;412;1081
2;20;1572244422787;1572244434465;11678;40521295520;6764415109;2098076314;1515224913;492709020;17144192;2253701356;1513;2065;72872;0;678;5804
2;21;1572244434465;1572244446211;11746;40745962072;6764400104;1940632300;1529734936;492706610;17148253;2254119430;939;2405;55176;0;446;1151
2;22;1572244446211;1572244457976;11765;40764313542;6764420654;1796036378;1547754337;492710570;17149747;2254202950;1324;2193;70216;0;765;5037
2;23;1572244457977;1572244469579;11602;40244757066;6764476154;1867838469;1512773670;492718776;17146409;2247124180;960;2421;55768;0;410;1154
2;24;1572244469579;1572244481410;11831;40923704078;6764490932;1931326451;1527998534;492721958;17153939;2251622048;1516;2047;71712;0;870;11580
2;25;1572244481410;1572244493163;11753;40784029236;6764424019;1947258467;1520945906;492710494;17147431;2251356749;1063;2303;55512;0;440;1232
2;26;1572244493163;1572244504889;11726;40612845550;6764429660;2027429172;1532680800;492711530;17146302;2253724967;1005;2372;55736;0;411;1151
2;27;1572244504889;1572244517094;12205;41733694850;6764428564;1767520794;1594528577;492711068;17153366;2246168379;1314;2201;72136;0;696;7722
2;28;1572244517094;1572244528838;11744;40717077578;6764457244;1863438202;1520130278;492715328;17149149;2255393105;964;2401;55504;0;416;935
2;29;1572244528838;1572244540761;11923;41296247606;6764429115;1857584359;1528028703;492711702;17153461;2252815942;1371;2273;73608;0;654;9336
2;30;1572244540762;1572244552466;11704;40598506452;6764413330;2040006831;1497320439;492708740;17156571;2251300253;1253;2140;56000;0;502;2058
2;31;1572244552466;1572244564173;11707;40607080448;6764399361;1799099048;1501977927;492706393;17149288;2252948476;995;2402;56032;0;446;1126
2;32;1572244564173;1572244575838;11665;40454338314;6764414718;1929997754;1496190418;492709238;17151125;2253213946;1420;2141;72680;0;647;6870
2;33;1572244575838;1572244587394;11556;39921206320;6764401616;1839062613;1511823919;492706809;17148596;2250389308;794;2183;48904;4;361;1076
2;34;1572244587394;1572244599060;11666;40436495946;6764421769;2085466099;1516081819;492710527;17153087;2250971612;1000;2348;55440;-4;419;1101
2;35;1572244599060;1572244610707;11647;40312050218;6764457418;2000729446;1515135861;492715650;17147986;2249201159;1321;2147;67664;0;551;4692
2;36;1572244610707;1572244622270;11563;40066835626;6764422668;1962763212;1498003401;492709841;17150674;2252787013;966;2383;55240;0;421;1040
2;37;1572244622270;1572244633937;11667;40418407714;6764410958;1976466908;1515594778;492708433;17153229;2250929545;1467;2092;70416;0;878;15018
2;38;1572244633937;1572244645688;11751;40376151080;6764412288;1828941728;1517748743;492708915;17147369;2251966799;1089;2319;56232;0;469;1328
2;39;1572244645688;1572244657275;11587;40164828490;6764427062;2049811078;1518147681;492710588;17149119;2252260116;990;2375;55504;0;508;1399
2;40;1572244657275;1572244668983;11708;40595330806;6764433650;2084991463;1524442368;492711894;17145209;2250610941;1434;2138;71472;0;708;8061
2;41;1572244668984;1572244680564;11580;40155134528;6764473845;2253065856;1504879725;492718117;17149674;2252767410;959;2406;55504;0;415;1006
2;42;1572244680564;1572244692167;11603;40213795576;6764417315;2212707176;1509886373;492709922;17153836;2249308423;1032;2286;54648;2;483;1541
2;43;1572244692168;1572244704209;12041;41732620290;6764398427;1781510555;1588321699;492707086;17149751;2249499353;1506;2151;71912;-2;770;10897
2;44;1572244704209;1572244715931;11722;40632140034;6764409190;1873345259;1513571444;492708495;17146887;2249992423;1005;2392;56032;0;407;1054
2;45;1572244715931;1572244727643;11712;40605659868;6764391526;1877853054;1508581351;492705364;17147668;2254693403;1462;2131;71344;0;732;11712
2;46;1572244727643;1572244739435;11792;40941838008;6764397879;1846089541;1519895961;492706142;17142395;2248207316;1024;2405;56560;0;457;1153
2;47;1572244739435;1572244751005;11570;40169778912;6764381025;1958955483;1459930625;492703149;17145957;2248957732;994;2366;55440;0;451;1161
2;48;1572244751005;1572244762563;11558;40075736808;6764395605;1835103138;1481473197;492705567;17145676;2253116615;1799;2049;113728;0;2344;17258
2;49;1572244762563;1572244774143;11580;40159210556;6764436675;1829821507;1483633757;492711796;17145192;2250912841;1102;2424;77136;0;1348;3257
2;50;1572244774143;1572244785555;11412;39538608794;6764432059;1839441377;1472906554;492711324;17145022;2249304402;1002;2279;54136;0;442;1401
2;51;1572244785556;1572244797618;12062;41874649382;6764399200;1772695981;1562237304;492706562;17153477;2245285788;1430;2179;69768;0;743;10473
2;52;1572244797618;1572244809065;11447;39699933830;6764432809;1790672022;1475444229;492711429;17152763;2247444822;1012;2400;55728;0;585;2674
2;53;1572244809065;1572244820588;11523;39952812838;6764407245;1893793323;1506381730;492707829;17148179;2248918168;1004;2293;54392;0;460;1398
2;54;1572244820588;1572244832049;11461;39704032634;6764397918;1867130364;1500640222;492706503;17148571;2252102755;1502;2019;70600;0;743;15142
2;55;1572244832050;1572244844145;12095;41953781820;6764426071;1918877392;1557939838;492710499;17145704;2247752091;954;2470;56496;0;466;1191
2;56;1572244844145;1572244855666;11521;39938575064;6764441408;2094650807;1487703276;492712893;17149854;2251934490;1383;2089;69312;0;715;9996
2;57;1572244855666;1572244867290;11624;40268886194;6764392935;2216791770;1491092261;492705360;17149102;2249053434;957;2400;55304;4;497;1240
2;58;1572244867290;1572244879352;12062;41850038746;6764451447;1866563243;1554922224;492715286;17152105;2249785200;1018;2415;56704;-4;447;1146
2;59;1572244879353;1572244890973;11620;40335073250;6764472412;2052298853;1483455601;492718620;17151412;2249601502;1612;1953;72160;0;1008;27276
2;60;1572244890973;1572244902427;11454;39757103488;6764399767;2014282461;1462727243;492706397;17144621;2249251170;960;2373;54976;0;434;1251
3;11;1572245174164;1572245186162;11998;41637833440;6764467814;1954101131;1553970828;492717326;17145927;2248263352;807;2267;50728;0;404;1001
3;12;1572245186162;1572245198073;11911;41338402624;6764460347;1973598210;1537173360;492716652;17152513;2253438020;1322;2115;65256;0;607;3844
3;13;1572245198074;1572245209840;11766;40825812830;6764432281;1937129273;1514819553;492711625;17150116;2251369255;947;2303;53632;0;504;1334
3;14;1572245209840;1572245221643;11803;40958823356;6764400192;1968710483;1521145921;492706548;17145125;2251419439;1165;2208;64416;0;631;3800
3;15;1572245221643;1572245233577;11934;41395084204;6764460837;2044741927;1573366404;492716467;17146599;2251351676;1154;2178;54944;0;444;1623
3;16;1572245233578;1572245245338;11760;40809537188;6764419701;2135216678;1539380777;492709844;17145917;2251514753;956;2309;53888;0;440;1016
3;17;1572245245338;1572245257263;11925;41386325372;6764439797;1904275315;1561024762;492713741;17149022;2248275970;1336;2112;67688;0;686;3983
3;18;1572245257263;1572245268811;11548;40055033716;6764430073;1791129955;1503339993;492711500;17148597;2250032342;921;2295;53064;0;386;935
3;19;1572245268811;1572245280482;11671;40517946134;6764472098;2090893026;1505226002;492717505;17152401;2249394365;1028;2221;53624;0;514;1719
3;20;1572245280482;1572245292095;11613;40314160648;6764474440;1991444002;1502327854;492718192;17149485;2250754433;1314;2023;65520;0;823;7446
3;21;1572245292095;1572245303613;11518;39898547704;6764390265;2159931879;1477602183;492704689;17153898;2249480466;1029;2320;64352;0;576;3424
3;22;1572245303613;1572245315345;11732;40732923104;6764455304;1974203690;1517620580;492715431;17151440;2251830916;1192;2056;53592;0;540;2136
3;23;1572245315345;1572245327321;11976;41585599604;6764407502;2135963405;1554500757;492707780;17148410;2247505342;970;2378;55208;0;422;1092
3;24;1572245327321;1572245338988;11667;40480870018;6764468432;1825903956;1512359880;492717861;17139801;2250393764;1440;2058;72256;0;879;8301
3;25;1572245338988;1572245351090;12102;42039821810;6764444318;2050005627;1578309447;492714327;17148522;2245340920;1162;2219;55744;0;515;1577
3;26;1572245351090;1572245362930;11840;40683763736;6764411659;2127839630;1532375402;492708928;17147915;2252302500;866;2270;51744;0;403;1064
3;27;1572245362930;1572245374645;11715;40595090636;6764394007;1965916452;1533858915;492705932;17154208;2252733679;1296;2148;71176;0;703;6907
3;28;1572245374645;1572245386455;11810;40928406738;6764405919;2242527297;1521408056;492708038;17146872;2247743154;927;2341;53888;0;438;1130
3;29;1572245386455;1572245397965;11510;39897150630;6764461451;2055513475;1484277678;492716395;17147460;2248898115;1002;2185;52584;0;472;1385
3;30;1572245397966;1572245409731;11765;40751602344;6764420820;2100690490;1527433710;492710491;17150677;2252968575;1364;2037;66320;0;770;9169
3;31;1572245409731;1572245421834;12103;41923021810;6764397816;1794625777;1592949836;492707029;17149754;2245361571;1006;2370;55704;0;497;1204
3;32;1572245421834;1572245433433;11599;40203094652;6764435175;1842411624;1514858768;492712767;17145275;2250211680;1244;2053;65432;0;666;5279
3;33;1572245433433;1572245444923;11490;39687025678;6764419790;1906480259;1485688407;492709636;17150303;2248614131;735;2086;46504;0;343;992
3;34;1572245444924;1572245456560;11636;40354349192;6764430996;1768107863;1490828240;492711589;17151186;2249012083;948;2302;53632;0;432;1219
3;35;1572245456561;1572245468426;11865;41112436818;6764471796;1989767023;1518792735;492717720;17156900;2249048733;1358;2068;67128;0;660;4445
3;36;1572245468426;1572245480402;11976;41505516122;6764461582;1742409676;1556123577;492716319;17149982;2248147210;944;2420;55472;0;552;1278
3;37;1572245480402;1572245492003;11601;40220647064;6764383590;1846950108;1508974089;492703805;17150962;2253145895;1228;2136;65088;0;637;5669
3;38;1572245492003;1572245503602;11599;40222991386;6764400528;2025956319;1499024843;492706436;17149400;2250425215;1112;2140;53624;0;488;1678
3;39;1572245503602;1572245515299;11697;40539573844;6764358865;1856605747;1513702138;492699660;17148957;2250581573;973;2291;53856;0;453;1098
3;40;1572245515299;1572245526928;11629;40329222154;6764461711;1954286142;1507809542;492716719;17148408;2250784697;1386;1996;66024;0;734;7801
3;41;1572245526928;1572245538482;11554;40064687528;6764439340;2047179912;1483824826;492712246;17150510;2250132094;951;2285;53360;0;420;1168
3;42;1572245538482;1572245550496;12014;41660628858;6764426009;2087802918;1565424249;492711234;17150458;2244862804;989;2389;55744;0;418;1010
3;43;1572245550496;1572245562105;11609;40257218604;6764417941;1925438123;1502711051;492709029;17152966;2251243225;1368;2029;66272;0;664;5831
3;44;1572245562105;1572245574140;12035;41747514334;6764434699;1833460943;1576016846;492712141;17155708;2243803712;997;2383;55736;0;452;1153
3;45;1572245574140;1572245585699;11559;40089325320;6764470448;1842668921;1504338551;492717005;17156215;2250244086;1281;2077;65408;0;633;5238
3;46;1572245585699;1572245597735;12036;41762556568;6764422583;1953020795;1575258646;492710475;17148785;2245283213;1051;2329;55736;0;559;1744
3;47;1572245597735;1572245609246;11511;39857196270;6764379398;2074492681;1482796139;492702791;17147205;2249223462;939;2279;53104;0;388;978
3;48;1572245609246;1572245620799;11553;40065177358;6764411208;1864244240;1500099366;492707787;17147206;2249964452;1292;2054;65560;0;692;4440
3;49;1572245620799;1572245632257;11458;39668184962;6764452495;1873474466;1486754044;492714301;17147748;2250704292;1548;2090;102880;0;3304;15296
3;50;1572245632257;1572245643687;11430;39639187902;6764404885;1790856684;1484532344;492707053;17147115;2249796862;983;2219;52840;0;461;1151
3;51;1572245643687;1572245655117;11430;39677930316;6764419591;1839999744;1485869688;492708737;17151606;2249428610;1014;2170;52536;0;479;1537
3;52;1572245655117;1572245666546;11429;39682830222;6764442886;1910030421;1485235806;492712790;17151413;2247636991;1427;1946;68272;0;724;10671
3;53;1572245666547;1572245678071;11524;40007967404;6764431178;1988627257;1499641075;492711516;17145893;2249659718;1000;2294;53848;0;701;2752
3;54;1572245678071;1572245689651;11580;40197809744;6764440814;1956631140;1499301729;492713109;17152175;2250508364;1020;2216;53360;0;511;1390
3;55;1572245689651;1572245701141;11490;39886958370;6764383319;1973023766;1492677040;492703463;17151058;2249115113;1368;2033;68688;0;709;7056
3;56;1572245701141;1572245712625;11484;39863270600;6764418654;1966493743;1491497597;492709387;17148611;2249905497;957;2244;52832;0;448;1175
3;57;1572245712625;1572245724166;11541;40050465668;6764425533;2136973698;1496092427;492710534;17150596;2248696484;1430;1988;68360;0;842;13474
3;58;1572245724167;1572245735668;11501;39929075136;6764410737;1992906815;1494183462;492708291;17150122;2249303904;977;2224;52832;0;434;1107
3;59;1572245735668;1572245747152;11484;39779641070;6764422489;1825146236;1491035480;492711048;17149828;2249788747;947;2253;52800;0;415;1132
3;60;1572245747152;1572245758639;11487;39846844578;6764446884;1872056659;1493475051;492713746;17142555;2249786006;1303;2056;68696;0;684;4662
4;11;1572246025485;1572246037345;11860;40935312976;6764420862;1928013751;1534785091;492709901;17146643;2251527725;918;2202;51480;0;436;1150
4;12;1572246037345;1572246049133;11788;40546880122;6764443729;1827266908;1516221180;492713850;17143884;2252001694;1233;1997;61968;0;673;4271
4;13;1572246049133;1572246060971;11838;40683334350;6764408842;2018788770;1549723952;492708536;17148200;2254624399;879;2210;50984;0;456;1223
4;14;1572246060971;1572246072989;12018;41677270960;6764431869;1953249432;1592535130;492712580;17150681;2248168394;1001;2167;52272;0;462;1356
4;15;1572246072989;1572246084725;11736;40584092602;6764442259;1865748907;1546393384;492714211;17147314;2254117767;1243;1981;62032;0;642;4357
4;16;1572246084726;1572246096851;12125;42036382342;6764463284;1829931647;1619216318;492717485;17151456;2247895308;942;2242;52536;0;486;1248
4;17;1572246096852;1572246109087;12235;42337562676;6764430029;2135812944;1626745023;492713059;17149261;2246205507;1266;2103;64024;0;594;4302
4;18;1572246109087;1572246121252;12165;42197157980;6764405513;2013912018;1614464626;492708294;17154398;2246653984;942;2263;52864;0;497;1280
4;19;1572246121252;1572246132894;11642;40354437376;6764410806;1795543369;1538952667;492708377;17152340;2254477752;976;2064;50160;0;431;1250
4;20;1572246132894;1572246144731;11837;40951918870;6764416872;1878681986;1555925532;492709881;17143757;2254519979;1241;1992;62144;0;661;3451
4;21;1572246144732;1572246156797;12065;41473521682;6764457035;2028227255;1567959141;492715598;17148076;2247271529;1029;2265;62344;0;586;3365
4;22;1572246156797;1572246168935;12138;41787875158;6764410388;2028068651;1560394899;492708912;17148649;2244665446;1161;2023;52536;0;542;1963
4;23;1572246168936;1572246181129;12193;41560258676;6764401602;2090638699;1558837248;492706601;17149218;2247009562;924;2281;52864;0;411;1095
4;24;1572246181129;1572246193407;12278;42416900098;6764406633;1852428802;1619891499;492709573;17153824;2246618023;1555;1918;71720;0;939;10213
4;25;1572246193407;1572246205265;11858;40859229602;6764411494;2223480723;1517880840;492708766;17149485;2250165173;781;2009;46008;0;495;1269
4;26;1572246205265;1572246216973;11708;40658298124;6764405766;1763756963;1513252775;492707029;17148432;2253971755;897;2159;50424;0;444;1173
4;27;1572246216973;1572246228909;11936;41453743500;6764400992;1974980245;1539399300;492706869;17149819;2248925095;1296;1967;67160;0;711;5765
4;28;1572246228909;1572246240759;11850;40786833604;6764444012;2245510143;1507880659;492714034;17149053;2250330822;911;2198;51280;0;477;1233
4;29;1572246240759;1572246252799;12040;41669365060;6764450948;2011412803;1582498017;492715260;17150927;2247297741;1122;2170;63624;0;610;2946
4;30;1572246252799;1572246264549;11750;40749941594;6764416046;1967540980;1543890242;492709867;17150103;2252989974;1048;2029;50760;0;459;1627
4;31;1572246264549;1572246276639;12090;41940956742;6764461522;2127257554;1596847066;492716524;17150561;2245813306;913;2271;52536;0;400;990
4;32;1572246276639;1572246288438;11799;40694807906;6764470273;2100371944;1547448648;492717915;17150246;2254273675;1010;1836;55976;0;534;3252
4;33;1572246288439;1572246300025;11586;40086984502;6764427565;1890426465;1500065561;492711241;17150548;2249623612;842;1995;46784;0;488;1377
4;34;1572246300025;1572246311668;11643;40375202956;6764447908;1798568198;1497017334;492714119;17148274;2250962347;912;2129;50168;0;456;1134
4;35;1572246311668;1572246323347;11679;40494679136;6764418832;1773717494;1506121350;492709958;17146655;2252454305;1286;1902;61000;0;660;4194
4;36;1572246323347;1572246335013;11666;40457538196;6764432906;2002348811;1499165498;492712289;17150979;2252194757;904;2157;50488;0;509;1160
4;37;1572246335013;1572246346702;11689;40543645784;6764465129;2131836536;1502168121;492716897;17149826;2249686155;1168;2028;61456;0;534;3511
4;38;1572246346702;1572246358488;11786;40534587360;6764408593;1785420048;1511099506;492708195;17143232;2246092691;949;2160;51288;0;557;1481
4;39;1572246358488;1572246370309;11821;40664642992;6764426141;1842007918;1531313618;492710706;17150870;2246709463;905;2188;51112;0;459;1095
4;40;1572246370309;1572246382093;11784;40891224480;6764401993;1816706427;1549549270;492707199;17148182;2247869046;1303;1929;62816;0;764;4515
4;41;1572246382093;1572246393739;11646;40398234602;6764396861;1822705120;1531848268;492705782;17147281;2251404713;864;2181;50224;0;432;1082
4;42;1572246393739;1572246405457;11718;40661593928;6764442631;2025199993;1525737853;492712814;17144035;2251576097;1127;2089;61456;0;553;4580
4;43;1572246405457;1572246417093;11636;40369371278;6764424615;1959079940;1523559899;492710657;17153710;2251256968;1040;2005;50224;0;502;1620
4;44;1572246417093;1572246428603;11510;39960896858;6764422737;2242991037;1485085216;492709698;17150419;2246435857;897;2127;49896;0;440;1049
4;45;1572246428603;1572246440205;11602;40276037858;6764380248;2078425198;1517461373;492703067;17151614;2249770571;1290;1864;60088;0;741;6120
4;46;1572246440206;1572246451996;11790;40940861706;6764444770;2100136304;1544309900;492713192;17150868;2245954854;930;2179;51280;0;521;1267
4;47;1572246451996;1572246463640;11644;40356916164;6764396832;1912580370;1522068106;492706050;17142093;2251140416;1583;1976;103304;0;3144;14307
4;48;1572246463640;1572246475256;11616;40277283092;6764424966;1950914826;1513723881;492710688;17147705;2254191541;930;2111;50192;0;480;1198
4;49;1572246475256;1572246486821;11565;40079806704;6764414387;2017399538;1503841192;492708579;17147848;2252979499;892;2137;49960;0;430;1131
4;50;1572246486821;1572246498465;11644;40392174434;6764414330;1999507885;1516537932;492708788;17146852;2251312266;1337;1944;62960;0;642;6504
4;51;1572246498465;1572246510072;11607;40290838754;6764463457;2050343185;1508562708;492716057;17147541;2247207448;878;2167;50224;0;458;1029
4;52;1572246510073;1572246522118;12045;41810837892;6764450396;1788028559;1590441309;492714717;17146601;2244056825;1139;2165;65072;0;589;5151
4;53;1572246522118;1572246534163;12045;41833077634;6764394931;1812482183;1591428850;492705874;17147231;2244009400;1033;1976;49640;0;405;1357
4;54;1572246534164;1572246545953;11789;40718104104;6764396937;2022597152;1542998171;492706202;17152895;2247051428;672;2037;44680;0;309;817
4;55;1572246545953;1572246557803;11850;41128955550;6764405525;1975536322;1557552867;492707291;17150429;2247986638;1331;1901;61600;0;741;4663
4;56;1572246557803;1572246569265;11462;39790321262;6764397261;2098798788;1491766051;492705762;17146966;2247498209;867;2141;49632;0;483;1191
4;57;1572246569265;1572246580877;11612;40273127932;6764455352;1955338865;1488320232;492715031;17147817;2251578956;901;2144;50224;0;402;1031
4;58;1572246580877;1572246592438;11561;40126219228;6764456514;2043661365;1482468968;492715286;17146540;2251960758;1212;1933;60728;0;646;3476
4;59;1572246592438;1572246603986;11548;40084896702;6764431856;1800398712;1488638789;492712702;17147408;2250188853;879;2152;49976;0;450;1047
4;60;1572246603986;1572246615444;11458;39365437026;6764406258;2105600128;1472240430;492707867;17149121;2249563641;1229;1913;60208;1;658;3646
