0;17;1572267056712;1572267067399;10687;36981816644;6764409871;1828461454;1501383245;492707777;17152320;2248790904;4279;8612;934184;130;9885;1327811
0;18;1572267067399;1572267078191;10792;37274309540;6764448479;2005458287;1480721817;492713565;17151977;2247381487;1830;16435;1290936;26;10792;1540570
0;19;1572267078191;1572267089113;10922;37469236914;6764372322;1956728826;1507679434;492701802;17153662;2249605298;1558;19969;1637864;-18;10922;1566562
0;20;1572267089113;1572267099913;10800;37465957316;6764457631;1733441437;1583491900;492714684;17153021;2244968324;2807;10701;1230888;-88;10800;1568310
0;21;1572267099913;1572267110761;10848;37312933694;6764411748;1889555681;1481761577;492707906;17148561;2247101826;2360;13943;1147264;92;10848;1696588
0;22;1572267110761;1572267121776;11015;38161204936;6764465996;2086492607;1557453901;492716945;17155697;2244503395;2750;8479;936464;2;11015;1577514
0;23;1572267121776;1572267132637;10861;37362721592;6764396676;2257794437;1507895914;492705749;17152986;2249397807;1659;19486;1507544;5;10860;1545926
0;24;1572267132637;1572267143132;10495;36333770678;6764426173;1810586716;1486304009;492710291;17143469;2249329115;1854;19038;1762840;-18;10496;1597006
0;25;1572267143133;1572267154158;11025;38216776332;6764411314;2051268489;1554674176;492708393;17147982;2242456805;2648;9859;1061000;8;11026;1590069
0;26;1572267154158;1572267165138;10980;37976348350;6764435013;1960142653;1551455985;492712616;17146507;2244235072;1844;16211;1293888;13;10980;1562153
0;27;1572267165138;1572267175897;10759;37046080296;6764422111;2040874094;1496621461;492710153;17146561;2248217159;1803;17685;1595856;-7;10759;1611036
0;28;1572267175897;1572267186539;10642;36829507108;6764421318;2044134268;1471005538;492709286;17145671;2247978479;2673;9834;1047304;-17;10642;1522583
0;29;1572267186539;1572267197306;10767;37392921254;6764435607;1932069454;1542180105;492711602;17151685;2241189655;1816;15511;1322312;-22;10767;1197018
0;30;1572267197306;1572267207900;10594;36647832884;6764414750;1837895709;1464247548;492708328;17147865;2246865049;2360;13900;1352536;39;10594;1123312
0;31;1572267207900;1572267218553;10653;36464965548;6764463558;2032182359;1466642270;492715973;17154535;2247803329;2477;11031;963472;-12;10652;1525679
0;32;1572267218553;1572267229118;10565;36466783540;6764454304;1942536133;1478654822;492714262;17151846;2247409779;1424;17632;1477232;16;10566;1507034
0;33;1572267229119;1572267239637;10518;36444901644;6764418048;1891513156;1486767126;492708640;17150060;2245929408;2535;15243;1466320;-12;10519;1416371
0;34;1572267239637;1572267250461;10824;37410409134;6764421350;1826079619;1502633038;492709813;17150766;2244794714;2253;12242;1064776;-10;10824;1539733
0;35;1572267250461;1572267260957;10496;36373226010;6764424050;2111851687;1454185496;492709653;17145000;2247472857;1414;16945;1440232;7;10496;1499961
0;36;1572267260957;1572267271631;10674;36855442694;6764403077;2234925305;1469812483;492706634;17146174;2245811696;1968;19728;1695840;7;10674;1636289
0;37;1572267271631;1572267282078;10447;36234903128;6764428197;2035098585;1461813488;492709715;17147713;2245633629;2718;9337;946376;2;10447;1498157
0;38;1572267282078;1572267292510;10432;36119187908;6764457064;1859098309;1474895177;492715161;17151011;2244620730;1497;14560;1331000;7;10432;1486645
0;39;1572267292510;1572267303028;10518;36312862602;6764452950;1988573147;1466879823;492714244;17154818;2245254811;1868;17681;1506920;-21;10517;1586545
0;40;1572267303028;1572267313509;10481;36342080706;6764442636;1827959200;1476857673;492712433;17147529;2245174610;2758;9289;1016296;26;10481;1503880
0;41;1572267313509;1572267323996;10487;36361936852;6764435054;1986588983;1468096183;492710776;17145496;2245454675;1571;15981;1346800;-2;10488;1490142
0;42;1572267323996;1572267334433;10437;35886312214;6764421064;2183285483;1463523634;492708316;17150185;2244548028;2446;11884;1244816;-5;10437;1324884
0;43;1572267334433;1572267344950;10517;36463101566;6764444605;1848241851;1463548536;492712030;17149208;2244880752;2269;12467;1041304;2;10517;1506626
0;44;1572267344950;1572267355467;10517;36381504356;6764434418;1846971803;1470673338;492711310;17145734;2244188053;1499;18179;1468784;21;10517;1499916
0;45;1572267355467;1572267366012;10545;36485294734;6764446217;1781742868;1452358773;492712771;17145904;2244657449;2018;19020;1787728;-24;10545;1635479
0;46;1572267366012;1572267376296;10284;35688816262;6764438165;1968110348;1468248045;492710826;17150311;2243485449;2703;8722;839720;-15;10284;1470698
0;47;1572267376296;1572267386706;10410;36118087068;6764451692;2025668944;1433563294;492713053;17146193;2244209769;1766;15983;1363592;-4;10410;1089032
0;48;1572267386706;1572267397213;10507;36207551634;6764468022;1860326030;1439462321;492716127;17147096;2244540849;2369;13420;1340152;8;10507;1482087
0;49;1572267397213;1572267407900;10687;36842068802;6764440028;2277865472;1472307822;492712649;17148769;2244323475;2497;11614;999080;0;10687;1532652
0;50;1572267407901;1572267418256;10355;35741137552;6764432025;2154162433;1437213465;492710510;17147645;2244053359;1462;17768;1453208;-7;10356;1478771
0;51;1572267418256;1572267428552;10296;35579726814;6764464093;1802657779;1440012431;492715213;17145508;2243163310;1998;17190;1579080;14;10296;1670203
0;52;1572267428552;1572267439063;10511;36458213048;6764422570;2241345884;1474630783;492709243;17155562;2243797979;2619;6550;807304;11;10510;1513273
0;53;1572267439063;1572267449635;10572;36171687172;6764429324;1968671765;1464927348;492711027;17147264;2243773789;1816;14336;1248488;-24;10573;1507756
0;54;1572267449635;1572267460153;10518;36443028902;6764415418;1895897586;1471372251;492707436;17151433;2243747588;1541;18697;1507920;-2;10518;1503888
0;55;1572267460153;1572267470351;10198;35156336888;6764429315;1863363748;1439911541;492710720;17157628;2243990273;2557;12093;1267096;6;10198;1509473
0;56;1572267470351;1572267480854;10503;36292031614;6764503338;1783514716;1471465965;492722066;17149785;2244023466;2342;11464;1005104;14;10503;1514633
0;57;1572267480855;1572267491380;10525;36402533758;6764409283;1959025750;1473806472;492706495;17152699;2244126062;1435;16762;1416064;-17;10526;1499074
0;58;1572267491380;1572267502086;10706;36616877672;6764410675;1848085169;1480061025;492707716;17148898;2244071337;2422;14615;1419720;12;10705;1593314
0;59;1572267502086;1572267512513;10427;35978952572;6764470839;2024141356;1482479030;492719731;17150970;2243396247;2166;11807;1018216;10;10427;1498333
0;60;1572267512513;1572267522940;10427;36118901894;6764436891;1917678918;1472376059;492711386;17149648;2243594208;1642;15418;1397288;-7;10428;1486501
0;61;1572267522940;1572267533301;10361;35813343312;6764485041;1833516031;1442138130;492718984;17144278;2244687017;2451;13353;1393264;3;10361;1565514
0;62;1572267533301;1572267543907;10606;36771604092;6764390112;2252652149;1465585550;492704099;17147915;2243436313;2185;11932;1057336;-9;10606;1518723
0;63;1572267543907;1572267554296;10389;36007699388;6764413396;1781866608;1448353053;492708881;17148687;2244147034;1676;16986;1374696;-2;10389;1484010
0;64;1572267554296;1572267564551;10255;35596965472;6764406482;2086298260;1450467117;492706717;17152693;2242721077;2374;12130;1309640;0;10255;1441093
0;65;1572267564551;1572267575112;10561;36360892222;6764428692;1811642917;1452089678;492710637;17147915;2243742515;2262;12405;1030112;10;10561;1510243
0;66;1572267575112;1572267585646;10534;36381323900;6764446598;1890235970;1480224315;492713022;17150462;2243496928;1510;18126;1465920;-17;10534;1507081
1;17;1572267906465;1572267917052;10587;36546590644;6764510907;2011392263;1479170556;492725613;17145108;2247965055;2566;10671;930112;-5;10586;1523325
1;18;1572267917052;1572267927890;10838;37117051918;6764479882;2001122593;1514993052;492718989;17150778;2248773244;1630;17854;1481632;-42;10838;1326312
1;19;1572267927890;1572267938850;10960;37823694254;6764446164;2115809035;1540023568;492713567;17150923;2245483530;2897;12261;1196752;48;10960;1474064
1;20;1572267938850;1572267949407;10557;36553988464;6764447864;2067758659;1467432204;492714337;17153119;2248730703;1968;14844;1231864;-16;10557;1496937
1;21;1572267949407;1572267960191;10784;37304573880;6764446601;1899069690;1533667973;492714042;17152777;2242575768;1505;18122;1639776;9;10784;1538721
1;22;1572267960191;1572267970862;10671;36875749250;6764490566;1919293741;1477532445;492722740;17153741;2249069904;2624;13994;1401192;17;10672;1612218
1;23;1572267970863;1572267981783;10920;37756977510;6764427292;1904800024;1542604292;492710644;17147219;2244780591;2339;12779;1072296;-11;10920;1649559
1;24;1572267981783;1572267992328;10545;36621628512;6764496282;1989807414;1477889557;492722306;17155384;2248551192;2510;9655;939064;-14;10545;1507804
1;25;1572267992328;1572268003525;11197;38739259086;6764467830;1751307424;1633740764;492718394;17154316;2241540202;1641;19321;1748352;23;11197;1593537
1;26;1572268003525;1572268014054;10529;36327257910;6764515948;1998862690;1460779200;492724626;17150100;2247354659;2636;12350;1271496;-29;10530;1577843
1;27;1572268014054;1572268025060;11006;37708511642;6764442828;1840886773;1559285483;492714614;17150734;2244550529;2129;13807;1162496;15;11006;1569412
1;28;1572268025060;1572268035769;10709;37074011410;6764497341;1935644695;1514652880;492721762;17149100;2247741506;1531;17225;1485016;6;10709;1532021
1;29;1572268035769;1572268046315;10546;36502242852;6764483318;1884241909;1510889088;492720179;17150490;2244717295;2559;13901;1353928;-12;10546;1600747
1;30;1572268046315;1572268056897;10582;36709911646;6764445994;2210818140;1483592286;492713749;17149388;2247677255;2279;9671;947872;-6;10581;1515135
1;31;1572268056897;1572268067984;11087;38479700578;6764477104;1789653228;1590597501;492719548;17150743;2241137413;1684;17663;1482952;17;11087;1577058
1;32;1572268067984;1572268078518;10534;36554626338;6764435771;1776539410;1466247736;492711979;17152101;2247727242;2659;12689;1318984;-17;10535;1659266
1;33;1572268078518;1572268089109;10591;36802425568;6764459641;1926412533;1517372919;492715323;17148422;2244439937;2160;12504;1123000;18;10590;1517491
1;34;1572268089109;1572268099855;10746;37209018340;6764464779;1961832777;1516850339;492717256;17150595;2243511472;1707;15944;1424296;-11;10746;1520962
1;35;1572268099855;1572268110849;10994;37967819760;6764415953;1964654416;1536281613;492708788;17148206;2242474962;2924;12822;1331816;-6;10995;1686738
1;36;1572268110850;1572268121761;10911;37873427256;6764429360;1914789323;1559063224;492710528;17145722;2241350060;2116;13974;1218344;-4;10911;1560943
1;37;1572268121761;1572268132276;10515;36487899520;6764434999;1914103600;1479984165;492711915;17151188;2245599611;1761;16981;1398736;158;10516;1567246
1;38;1572268132277;1572268142763;10486;36406695780;6764416611;1824382554;1485206120;492708982;17148178;2245077311;2387;12470;1324904;-148;10486;1580754
1;39;1572268142763;1572268153138;10375;35903008336;6764421324;1905062875;1465636852;492708229;17145472;2245614052;2392;10235;928904;8;10375;1484463
1;40;1572268153138;1572268163776;10638;36747681554;6764470542;1997366800;1471305592;492717765;17148868;2246337797;1624;17084;1464072;16;10638;1515368
1;41;1572268163776;1572268174694;10918;37895939872;6764505976;1762349951;1535866791;492723365;17146381;2242858422;2890;12479;1266200;-15;10918;1660911
1;42;1572268174694;1572268184902;10208;35451946300;6764470618;1830659913;1462038737;492716814;17150560;2244155159;1893;13325;1159216;-4;10209;1453717
1;43;1572268184902;1572268195676;10774;36851068096;6764458603;1850497311;1483334637;492715821;17150624;2244850526;1748;16407;1495592;152;10773;1559574
1;44;1572268195676;1572268206330;10654;36448842330;6764471537;2232481020;1456920938;492717842;17154412;2244949174;2820;12004;1192600;-137;10655;1592139
1;45;1572268206330;1572268216659;10329;35718910658;6764467603;2110924362;1440496120;492716624;17148038;2245335491;1895;13620;1172880;-7;10328;1472586
1;46;1572268216659;1572268226972;10313;35725531466;6764446196;1804895993;1455010548;492713249;17155275;2244277295;1663;16058;1402208;121;10313;1490844
1;47;1572268226972;1572268237310;10338;35830358590;6764486398;1820477792;1457766356;492719029;17150083;2243771606;2475;11037;1230040;-120;10339;1530157
1;48;1572268237310;1572268247725;10415;36140099050;6764450581;1825658017;1475285253;492713701;17152693;2242815597;2185;12009;1050144;-9;10414;1487929
1;49;1572268247725;1572268258187;10462;35845699248;6764434889;1924587185;1450307973;492711638;17151424;2244752869;1782;16332;1365704;148;10462;1552601
1;50;1572268258187;1572268268886;10699;37067509008;6764486531;2551265900;1482730685;492719964;17149245;2242338006;2688;12127;1281904;-147;10700;1600521
1;51;1572268268886;1572268278940;10054;34906986408;6764488792;1935526794;1439849155;492721894;17151916;2243300078;2254;9685;864656;3;10053;1628168
1;52;1572268278940;1572268289420;10480;36222044908;6764479977;2109813678;1472106965;492719211;17149875;2243411427;2145;9422;1032248;10;10480;1501294
1;53;1572268289420;1572268299865;10445;36065375374;6764447024;1926244499;1468291107;492714296;17149521;2244206791;2133;13212;1164024;-19;10445;1493165
1;54;1572268299865;1572268310392;10527;36528632206;6764415285;1928630198;1473501020;492707649;17155167;2243578989;2680;13070;1238992;7;10527;1450311
1;55;1572268310392;1572268320857;10465;36276510938;6764461039;1841216206;1488493328;492716147;17148334;2243736128;2055;13317;1113344;3;10465;1483513
1;56;1572268320857;1572268331414;10557;36184978136;6764517715;1836834788;1463414634;492725101;17153541;2244156962;1654;16382;1431680;-17;10557;1508982
1;57;1572268331414;1572268341763;10349;35828430076;6764443140;1861212304;1446478825;492713818;17150392;2245025683;2067;16190;1611984;10;10349;1546784
1;58;1572268341763;1572268352242;10479;36345289932;6764416295;1935570222;1459837667;492708176;17151932;2243377563;2484;11235;957888;12;10480;1499260
1;59;1572268352242;1572268362729;10487;36396450230;6764430783;1869043121;1454521775;492712200;17154575;2244016995;1626;16850;1374128;6;10487;1494975
1;60;1572268362729;1572268372874;10145;35213308570;6764421730;1950042743;1423086931;492708955;17145820;2243474517;1882;14995;1530784;-28;10144;1522575
1;61;1572268372874;1572268383544;10670;36595222076;6764430050;2143341713;1468703046;492711165;17151854;2244277679;2830;10396;968432;18;10671;1528488
1;62;1572268383544;1572268394086;10542;36555298522;6764486319;1832210176;1465231145;492720277;17151781;2243999403;1572;15421;1392000;-3;10541;1504984
1;63;1572268394086;1572268404586;10500;36371054406;6764469611;2133250362;1436554110;492719790;17149572;2244290927;2167;16526;1515880;-1;10500;1578063
1;64;1572268404586;1572268414881;10295;35754709566;6764442749;1932210734;1464863450;492713471;17156103;2242847204;2635;9688;834624;-10;10296;1476057
1;65;1572268414882;1572268425290;10408;36129344982;6764463071;1771551971;1458396240;492716320;17152101;2243978565;1615;14091;1347584;17;10408;1485577
1;66;1572268425290;1572268435738;10448;36192631164;6764436201;1869271825;1455487959;492711301;17158487;2243350633;2109;16214;1530512;-24;10448;1561529
2;17;1572268760586;1572268771191;10605;36552694466;6764395450;1911668678;1488476909;492706459;17156444;2246050465;2487;12323;1006824;-23;10605;1518102
2;18;1572268771191;1572268781526;10335;35739286418;6764426575;1946687228;1463674991;492709809;17148663;2246086815;1521;16671;1404208;19;10335;1469993
2;19;1572268781526;1572268792404;10878;37534735142;6764406862;1957023944;1505682134;492707212;17151262;2249661041;2880;11925;1267368;-24;10878;1719880
2;20;1572268792404;1572268803207;10803;37042233050;6764412175;2004150034;1502816008;492707850;17155863;2248785622;2072;14135;1169168;8;10803;1543368
2;21;1572268803207;1572268814044;10837;37464369274;6764393411;2002669726;1521570158;492704871;17147357;2247102023;1594;18384;1519024;15;10837;1555187
2;22;1572268814044;1572268824634;10590;36707682080;6764398026;1818024424;1491002975;492705749;17150816;2248320095;2385;14553;1464608;-16;10590;1650738
2;23;1572268824634;1572268835607;10973;37262263956;6764461157;1805319106;1593497498;492716966;17149034;2240998438;2730;10752;987816;6;10973;1793316
2;24;1572268835608;1572268846129;10521;36496922466;6764387975;2035774304;1465363940;492704243;17147050;2247556582;2310;10656;1065528;-2;10522;1499452
2;25;1572268846129;1572268856763;10634;36891561342;6764438307;1867624468;1488235040;492711787;17153430;2247463339;1583;18685;1591336;-10;10634;1505827
2;26;1572268856763;1572268867442;10679;36974025500;6764415624;1954839509;1478066447;492708481;17145781;2248714888;2153;20049;1729592;0;10679;1688645
2;27;1572268867442;1572268877616;10174;35334030130;6764380263;1954192112;1451279346;492701843;17150296;2244814319;2736;7986;827968;20;10174;1457450
2;28;1572268877616;1572268888173;10557;36605810872;6764412154;1981083547;1472945798;492707457;17145740;2247234917;1621;14514;1361152;-12;10557;1512689
2;29;1572268888173;1572268898665;10492;36365609774;6764435653;1857450281;1475377567;492711503;17148546;2246654548;1964;17837;1526368;-8;10492;1601917
2;30;1572268898665;1572268909383;10718;37134671198;6764419697;2113832322;1493889575;492708632;17144662;2247468483;2693;9187;1024040;27;10718;1529611
2;31;1572268909383;1572268919700;10317;35825647170;6764463935;1915242335;1467748347;492714740;17144176;2245574540;1745;15064;1223648;-17;10317;1469092
2;32;1572268919700;1572268930147;10447;36216848914;6764408886;1834328364;1477566649;492707247;17145750;2246472148;2026;16078;1469208;2;10447;1630986
2;33;1572268930148;1572268940820;10672;36561179548;6764459264;2065021637;1491749012;492714824;17152984;2245843036;2681;10074;1134400;8;10673;1533301
2;34;1572268940820;1572268951657;10837;37549746862;6764459000;1833214216;1541902642;492715144;17149280;2242289256;1803;16180;1335688;-11;10837;1550861
2;35;1572268951657;1572268962221;10564;36286627716;6764430361;1982609798;1462250442;492710271;17151788;2245993031;2301;15072;1414752;-12;10564;1615597
2;36;1572268962221;1572268972712;10491;36285791136;6764438582;1878734758;1486006761;492712673;17148485;2245358992;2476;9148;896944;21;10491;1499407
2;37;1572268972712;1572268983312;10600;36800856506;6764411071;2201903321;1479200111;492707201;17145445;2245651786;1721;15602;1273856;-16;10600;1509428
2;38;1572268983312;1572268993923;10611;36700115338;6764462848;2001241160;1480054537;492715460;17147653;2245091633;1978;20858;1760232;10;10611;1602175
2;39;1572268993923;1572269004367;10444;36168343188;6764386727;1992380348;1465306617;492703771;17149331;2245333807;2766;7607;899072;-10;10444;1498181
2;40;1572269004368;1572269014540;10172;35181278214;6764412929;2034993387;1456009494;492708551;17149381;2244414274;1466;14863;1291592;6;10173;1449543
2;41;1572269014541;1572269025176;10635;36850594180;6764393247;2227876062;1474559955;492704219;17151875;2244107045;1955;17797;1549568;-1;10636;1591032
2;42;1572269025176;1572269035639;10463;36237471998;6764483004;2028386992;1462724272;492718406;17155302;2244686299;2673;10737;1041728;-4;10463;1472270
2;43;1572269035639;1572269046210;10571;36627624440;6764455712;2032757229;1479700262;492714137;17149396;2243772502;1565;15376;1282912;-5;10571;1516858
2;44;1572269046211;1572269056664;10453;36192698324;6764450974;2056955430;1475816053;492713336;17153645;2243733778;1745;16963;1476264;22;10454;1581203
2;45;1572269056664;1572269066867;10203;35410706118;6764427767;1818325846;1429003308;492709390;17150277;2244640942;2242;9812;1107400;-1;10203;1457435
2;46;1572269066867;1572269077294;10427;36162703792;6764430775;2006000592;1459980794;492709950;17147425;2243751816;2073;13378;1103776;7;10427;1494437
2;47;1572269077294;1572269087841;10547;36462135046;6764418411;2104215686;1474729107;492708815;17150635;2243864234;1916;16498;1411440;-17;10547;1603962
2;48;1572269087841;1572269098120;10279;35571755652;6764408053;1910061334;1432608901;492706609;17141334;2244355208;2591;8910;1063488;1;10279;1480584
2;49;1572269098120;1572269108274;10154;35218459888;6764443284;2173678033;1442462704;492711438;17146247;2243234823;1829;13931;1195896;-2;10153;1455936
2;50;1572269108274;1572269118729;10455;36215390520;6764443572;1976132735;1466063305;492711926;17146273;2244175624;2001;16765;1428544;4;10456;1558817
2;51;1572269118729;1572269129219;10490;36314107398;6764418737;1970062002;1457360613;492708665;17149624;2244096433;2720;10055;1097944;0;10490;1501369
2;52;1572269129219;1572269139669;10450;36286399810;6764422854;2080494266;1461406587;492709137;17154473;2243938276;1609;15177;1331680;-81;10449;1194026
2;53;1572269139669;1572269150238;10569;36593651408;6764448803;2113873740;1479855249;492713583;17151971;2243851807;2342;11725;1104672;96;10569;1459567
2;54;1572269150238;1572269160711;10473;36342665582;6764444190;1849606055;1480981921;492712245;17151002;2243728283;2607;7642;742344;-23;10474;1510331
2;55;1572269160711;1572269171253;10542;36498492696;6764419957;1849963927;1483178091;492708968;17158009;2243621724;1612;18301;1510600;17;10542;1513585
2;56;1572269171253;1572269181828;10575;36540453680;6764395158;2059355178;1456847888;492704991;17151612;2243644195;2534;14186;1394912;-14;10575;1628710
2;57;1572269181828;1572269192300;10472;36354919216;6764420512;1950828644;1468856823;492708787;17145477;2243559823;2167;11935;1049680;-7;10471;1501549
2;58;1572269192300;1572269202598;10298;35751935274;6764412400;1815183457;1470389259;492707047;17153351;2242925091;1492;15393;1345896;12;10299;1464591
2;59;1572269202598;1572269213159;10561;36623903484;6764468927;1999002847;1466559106;492717304;17153174;2244090612;2477;14156;1416448;-1;10561;1570611
2;60;1572269213159;1572269223505;10346;35912660980;6764449510;2107654887;1442079671;492713903;17155429;2244525151;2140;11415;1030000;4;10346;1484572
2;61;1572269223506;1572269233978;10472;36346100962;6764410545;1949675882;1462047995;492706755;17150407;2243885222;1663;16743;1364064;-5;10473;1496172
2;62;1572269233978;1572269244275;10297;35676527004;6764447911;2076208274;1453263833;492713023;17147250;2243341396;2417;14225;1417752;-8;10297;1561935
2;63;1572269244275;1572269254734;10459;36280914590;6764498847;1816876759;1476505141;492722476;17144153;2243420924;2115;9680;1042528;1;10459;1498748
2;64;1572269254734;1572269265088;10354;35866807198;6764433296;1839738811;1450118176;492710937;17144803;2244055510;1783;17457;1312536;14;10354;1479038
2;65;1572269265088;1572269275617;10529;36463331516;6764464151;1996339802;1466894388;492715466;17147810;2243681566;2451;13979;1452360;-5;10529;1616696
2;66;1572269275617;1572269285922;10305;35764497844;6764443686;1930995723;1458795842;492711748;17143805;2243551170;2448;10217;915240;-15;10305;1480603
3;17;1572269597645;1572269608685;11040;38193534446;6764436657;2037576422;1554150055;492712788;17150808;2243452851;3203;10506;977744;110;11041;1539026
3;18;1572269608685;1572269619216;10531;36545154588;6764452560;1973187893;1455107387;492713313;17149663;2246708407;1508;15949;1344424;-10;10530;1498394
3;19;1572269619216;1572269630034;10818;37193410940;6764440742;2184012956;1492919435;492712076;17147239;2248682292;1847;21110;1760904;19;10819;1613163
3;20;1572269630035;1572269640945;10910;37581801308;6764404751;2069196106;1535891987;492707495;17149418;2241982346;2503;10585;1171232;5;10911;1557219
3;21;1572269640945;1572269651881;10936;37911419084;6764422503;2097999208;1514689854;492709523;17148444;2242538152;1962;15182;1259096;-10;10935;1558764
3;22;1572269651881;1572269662646;10765;37292565672;6764500964;2029059997;1511278055;492722166;17151120;2248546133;1881;17431;1534384;16;10766;1652854
3;23;1572269662647;1572269673323;10676;37044565254;6764427543;2136882561;1488943146;492710171;17146110;2249067649;2615;11293;1182000;-29;10676;1623401
3;24;1572269673323;1572269683487;10164;35284554088;6764523482;2223175051;1465566411;492727795;17152781;2247150631;2232;10502;998472;-85;10165;1437911
3;25;1572269683487;1572269694590;11103;38409083736;6764434864;1983689087;1550407863;492712469;17145842;2245596483;1870;17434;1390840;108;11103;1558720
3;26;1572269694590;1572269705302;10712;37032746846;6764454105;1882317217;1483218283;492715463;17150139;2248980089;2256;16882;1634536;-13;10711;1461846
3;27;1572269705302;1572269716117;10815;37017600660;6764496083;1963269094;1479969520;492723167;17148722;2249597888;2688;10592;925688;0;10816;1547116
3;28;1572269716117;1572269726526;10409;36140874310;6764490208;2153985619;1467457391;492720635;17149376;2247612408;1407;15503;1370024;-72;10408;1465950
3;29;1572269726526;1572269737051;10525;36471655852;6764461608;1938717380;1459072865;492716677;17151188;2247311228;3008;13606;1351792;90;10488;639054
3;30;1572269737051;1572269747955;10904;37838698966;6764437007;1805981158;1538654238;492712046;17150289;2246071912;2466;11630;976632;-2;10903;1552025
3;31;1572269747955;1572269758513;10558;36470335428;6764444818;1812927191;1474903634;492713585;17153600;2246667882;1471;16881;1385456;-17;10558;1511282
3;32;1572269758513;1572269769014;10501;36296795740;6764460593;1759109262;1475487871;492716555;17152134;2246398085;1747;20087;1696376;-4;10502;1590150
3;33;1572269769015;1572269779436;10421;36039099024;6764450236;2203205685;1455612338;492715357;17151152;2246733373;2342;8065;995376;-6;10421;1494359
3;34;1572269779436;1572269789905;10469;36061462866;6764443890;2180028947;1460333335;492714688;17155970;2248032805;1897;13727;1171456;23;10469;1497215
3;35;1572269789905;1572269800426;10521;36431763980;6764405142;1959591684;1483524158;492706268;17153146;2245094693;1803;17972;1494552;-6;10521;1587355
3;36;1572269800426;1572269811198;10772;37003402014;6764466493;2060989695;1486267227;492717949;17150498;2245718839;2675;11046;1091976;13;10773;1544787
3;37;1572269811199;1572269821598;10399;36048573986;6764525155;2024707291;1456878825;492725825;17148807;2245436908;1562;14965;1335616;-11;10399;1480624
3;38;1572269821598;1572269832196;10598;36602457690;6764434541;1843228752;1467199800;492712576;17152247;2245905387;1858;18420;1569144;-9;10599;1608084
3;39;1572269832196;1572269842692;10496;36427263676;6764461394;1835425630;1462242086;492716203;17153063;2245262560;2714;9095;964272;6;10495;1501077
3;40;1572269842692;1572269853312;10620;36867891384;6764442904;1815042360;1482939401;492713406;17147787;2244860879;1512;15593;1342304;-8;10621;1507759
3;41;1572269853313;1572269863623;10310;35701771572;6764406070;1883053681;1449082582;492706302;17148270;2244148259;1872;18167;1520208;22;10310;1537385
3;42;1572269863623;1572269873999;10376;35933223474;6764465282;2066170536;1439110951;492717682;17149081;2245101689;2422;7476;982976;-20;10376;1489336
3;43;1572269873999;1572269884381;10382;36040450400;6764420309;2053765614;1458567791;492708717;17154266;2245101797;1980;14630;1178016;-26;10383;1333150
3;44;1572269884381;1572269894962;10581;36564695228;6764480517;2009307699;1457380274;492719341;17154027;2244510133;2368;13846;1334456;34;10580;1381582
3;45;1572269894962;1572269905499;10537;36527460848;6764429075;1949788605;1470375573;492711075;17151776;2244642065;2368;11577;989528;2;10538;1500961
3;46;1572269905499;1572269915684;10185;35180156934;6764464469;2141599883;1429799450;492716592;17154689;2244263702;1448;15679;1400840;4;10184;1452138
3;47;1572269915684;1572269926327;10643;36813473242;6764488947;2047706952;1441919217;492720155;17147441;2243927427;1998;20326;1750504;-16;10644;1627916
3;48;1572269926327;1572269936918;10591;36638878850;6764484182;2096639107;1474717729;492719927;17152685;2243715368;2759;8990;943112;-6;10591;1514427
3;49;1572269936919;1572269947410;10491;36213763350;6764489822;1816733436;1473453250;492721021;17150373;2244078719;1495;15958;1359984;9;10491;1494993
3;50;1572269947410;1572269957589;10179;35280034658;6764464322;2055025777;1437782192;492716257;17151769;2244326553;2124;15163;1476736;0;10180;1430506
3;51;1572269957590;1572269968114;10524;36438474432;6764478575;1817280627;1475575344;492718870;17151272;2244209345;2698;10361;889488;-10;10525;1509117
3;52;1572269968114;1572269978568;10454;36245785968;6764502668;2015653779;1462874050;492722305;17151652;2244068257;1911;12400;1077184;11;10454;1620239
3;53;1572269978569;1572269988953;10384;35937859266;6764466142;1826863678;1474076650;492717653;17155073;2243965905;2378;8174;950696;9;10385;1489734
3;54;1572269988953;1572269999409;10456;36299670042;6764426683;1871913935;1467141082;492710366;17153444;2243670344;1740;16697;1314816;-11;10455;1493768
3;55;1572269999409;1572270009879;10470;36236642864;6764431679;1820698066;1475867197;492711391;17153253;2243496793;1931;18838;1730648;-1;10470;1612135
3;56;1572270009879;1572270020321;10442;36167701956;6764438534;2008866115;1468087267;492712226;17155512;2243569744;2762;7053;861144;0;10443;1497158
3;57;1572270020321;1572270030798;10477;36361076328;6764484347;2105396505;1460485281;492719581;17148002;2244258088;1680;15990;1296720;17;10477;1489393
3;58;1572270030798;1572270041476;10678;36725862000;6764463224;2091084735;1478997153;492717979;17152151;2243746240;1981;17669;1549608;-2;10678;1641027
3;59;1572270041476;1572270051781;10305;35672198980;6764460262;2084630806;1468912140;492716745;17156856;2243083398;2831;7325;872408;-15;10305;1480261
3;60;1572270051781;1572270061994;10213;35379432626;6764491542;1799162082;1441777945;492721019;17146530;2244382082;1580;13325;1258464;-4;10213;1463666
3;61;1572270061995;1572270072432;10437;36162393250;6764412574;1963238296;1456843208;492707712;17143781;2243339570;2051;17680;1438952;9;10437;1634136
3;62;1572270072432;1572270082936;10504;36430479472;6764442817;1973570956;1478650864;492713487;17154546;2243541545;2695;8380;955600;-8;10505;1507003
3;63;1572270082936;1572270093262;10326;35840569830;6764466535;2107408201;1448955255;492718207;17149533;2243058641;1595;15032;1282928;7;10326;1478185
3;64;1572270093263;1572270103674;10411;35517734484;6764474330;1827561020;1444712335;492718596;17154469;2244474124;2003;15790;1477680;6;10411;1569065
3;65;1572270103674;1572270114088;10414;35897603854;6764408921;1985961921;1465374597;492708472;17149708;2243090974;2528;8608;978000;1;10415;1486876
3;66;1572270114089;1572270124697;10608;36698041554;6764437285;2085289787;1471600418;492712017;17153692;2244014052;2117;16554;1250544;-15;10609;1190855
4;16;1572270422884;1572270433929;11045;38236496406;6764490979;1859467913;1575958465;492720774;17156282;2240830257;2796;12304;1263240;-23;11045;1667447
4;17;1572270433929;1572270444871;10942;37981267674;6764435228;1891477549;1568019991;492711499;17153144;2241783938;2088;14287;1219088;-6;10942;1556399
4;18;1572270444871;1572270455762;10891;37792486608;6764469824;1949173875;1519452628;492716664;17145907;2240832593;1964;16231;1390448;29;10891;1622362
4;19;1572270455762;1572270466336;10574;36248528140;6764461621;1872662096;1524327573;492714844;17151220;2242158479;2410;11812;1219184;-10;10574;1519286
4;20;1572270466337;1572270476964;10627;36894556824;6764471265;2172595955;1502155739;492716268;17148120;2248657138;2116;12164;1133920;-4;10628;1519629
4;21;1572270476964;1572270487752;10788;37340119186;6764462058;1860142095;1525191799;492715798;17148651;2245210202;1997;16347;1403920;3;10788;1630458
4;22;1572270487753;1572270498615;10862;37391275980;6764416608;1981626222;1518454131;492710716;17146014;2244775857;2623;13504;1245064;3;10863;1559982
4;23;1572270498615;1572270509149;10534;36372693110;6764430041;1945769093;1484513907;492710513;17149728;2247399211;2382;10890;1062744;5;10534;1664631
4;24;1572270509149;1572270519893;10744;37163275372;6764423285;1866359009;1528168118;492711197;17154939;2246685925;2223;12943;1174952;-14;10744;1552220
4;25;1572270519893;1572270530532;10639;36703252440;6764409716;1905683100;1467453541;492707883;17150470;2247807817;1535;20893;1759936;-7;10639;1520272
4;26;1572270530532;1572270541341;10809;37281516246;6764383892;1916151088;1500902655;492703416;17152624;2245021419;2771;11830;1284744;9;10809;1615641
4;27;1572270541341;1572270551870;10529;36451792990;6764413092;2060168097;1485309122;492708111;17146257;2247913071;2034;13780;1141760;14;10529;1505840
4;28;1572270551870;1572270562644;10774;37334173774;6764482597;2074258795;1500948090;492718877;17148668;2241973094;1600;16542;1471856;1;10774;1529671
4;29;1572270562644;1572270573309;10665;36708999146;6764387484;1795695287;1482637811;492704039;17139919;2248849737;2509;13153;1340824;-17;10665;1613383
4;30;1572270573309;1572270583864;10555;36652280774;6764403043;1956255801;1477769055;492705887;17152438;2247242802;2180;12374;1093536;-2;10555;1516262
4;31;1572270583864;1572270594465;10601;36592276234;6764452210;1840167556;1483857158;492714413;17157199;2249054714;1737;17118;1453176;-65;10601;964459
4;32;1572270594465;1572270605238;10773;36658163698;6764398901;2207350718;1469140032;492706218;17152891;2248224338;2991;9295;979896;58;10773;1452913
4;33;1572270605238;1572270615868;10630;36485489790;6764435923;1949624349;1475452503;492711447;17150311;2247694760;1859;15911;1266024;44;10630;1515730
4;34;1572270615868;1572270626551;10683;36861675580;6764464222;2151620798;1474326237;492716696;17147453;2248582458;1511;21330;1804784;-27;10683;1529953
4;35;1572270626552;1572270637362;10810;37436703004;6764440958;1964428886;1515837675;492712012;17144611;2244891344;2973;11573;1172824;-17;10811;1551561
4;36;1572270637362;1572270647734;10372;36012151658;6764409037;1824231682;1484041383;492706085;17148345;2244946317;1771;14276;1188464;22;10372;1477365
4;37;1572270647734;1572270658281;10547;36453861080;6764396280;1812330250;1480267545;492705081;17153536;2247180600;1496;16841;1513320;-16;10547;1502941
4;38;1572270658281;1572270669234;10953;37859062754;6764444781;2064863335;1542511972;492713981;17151499;2242260849;2699;12001;1214600;20;10953;1636499
4;39;1572270669234;1572270679806;10572;36447950124;6764472635;1934333280;1484112221;492717763;17150362;2246072486;1911;14492;1225064;-19;10572;1513188
4;40;1572270679807;1572270690256;10449;36179863172;6764452644;1826398544;1482358149;492713776;17150180;2245539363;1770;17067;1450584;160;10450;1543391
4;41;1572270690256;1572270700983;10727;37084803292;6764393167;1818820878;1535030114;492704731;17150941;2241569465;2342;11432;1288664;-148;10727;1562670
4;42;1572270700983;1572270711478;10495;36018632890;6764417638;1899723501;1450955323;492708419;17144757;2245723833;2297;12277;1081808;-21;10495;1504835
4;43;1572270711478;1572270722172;10694;37014768114;6764448906;2069016249;1497852666;492712758;17150703;2244629978;2015;16397;1404528;65;10694;1640421
4;44;1572270722172;1572270732863;10691;37048736912;6764415874;2190948300;1500305971;492707720;17144874;2244598544;2443;12193;1245848;-39;10691;1535587
4;45;1572270732863;1572270743015;10152;35268781270;6764467814;1797265759;1473992477;492715549;17148891;2241759560;1979;13115;1149600;-24;10152;1448797
4;46;1572270743015;1572270753477;10462;36299114658;6764420504;1838751285;1463420515;492708720;17153264;2244722219;1906;15899;1390944;153;10462;1594137
4;47;1572270753477;1572270763957;10480;36369112314;6764428443;1846046339;1466612663;492710216;17149062;2244638770;2831;11552;1205688;-126;10480;1537232
4;48;1572270763957;1572270774354;10397;36097797886;6764449077;1989187829;1459309973;492712863;17146512;2243050757;1979;12908;1155320;-27;10397;1481692
4;49;1572270774355;1572270784770;10415;35744716742;6764426693;1824380580;1449315750;492709681;17152466;2243963251;1590;16347;1417912;151;10416;1508597
4;50;1572270784770;1572270795293;10523;36143036862;6764484727;2059438275;1445387975;492718702;17149370;2244427580;2713;11541;1223904;-152;10523;1606743
4;51;1572270795293;1572270805669;10376;35940632244;6764459708;1799179051;1450420307;492714529;17150884;2243521300;2172;12254;1045368;4;10376;1477479
4;52;1572270805669;1572270816261;10592;36636660818;6764423307;1951210292;1464832875;492709548;17147831;2243673058;1705;15573;1362368;142;10592;1598737
4;53;1572270816262;1572270826636;10374;35765094546;6764412168;1829814015;1441277952;492707487;17153239;2244976898;2238;12350;1282104;-137;10375;1705538
4;54;1572270826636;1572270836772;10136;35065328518;6764407850;1965324351;1473159044;492708390;17150988;2243210763;2514;10066;885096;14;10136;1451314
4;55;1572270836772;1572270847216;10444;36157649126;6764428043;1961541290;1458235164;492710408;17152896;2244336185;1788;14167;1319840;140;10444;1566569
4;56;1572270847216;1572270857715;10499;36316986518;6764433869;1837181898;1471171998;492711172;17143167;2243977327;2489;11924;1194104;-136;10499;1538698
4;57;1572270857715;1572270867969;10254;35593135892;6764466998;2115206324;1429506248;492715784;17151353;2243987676;2177;12304;1048288;-28;10254;1468614
4;58;1572270867969;1572270878315;10346;35832914174;6764414874;1847223789;1484600401;492708267;17148683;2243532318;1613;17026;1444624;186;10346;1467729
4;59;1572270878315;1572270888736;10421;36073850382;6764397864;1830740541;1451162840;492706385;17151036;2244925459;2700;10022;1214016;-165;10422;1584508
4;60;1572270888737;1572270899311;10574;36379750604;6764444997;1890537470;1471488668;492712957;17147720;2243492529;2048;13691;1134888;-70;10574;1333155
4;61;1572270899311;1572270910025;10714;36489694882;6764452077;2013405833;1460344228;492714419;17147665;2243725987;1861;17376;1409976;214;10714;1464430
4;62;1572270910025;1572270920495;10470;36287075936;6764440379;1811039676;1469495850;492711734;17149958;2243327350;2995;7903;918448;-149;10470;1592535
4;63;1572270920495;1572270930841;10346;35922066446;6764429019;1983195633;1458171215;492711156;17147269;2243489839;1628;14023;1238400;4;10346;1472367
4;64;1572270930841;1572270941239;10398;35963423720;6764452068;1839521917;1440117794;492714275;17148936;2243497552;1652;20534;1690648;-20;10398;1496832
4;65;1572270941239;1572270951750;10511;36068532770;6764435349;1934274983;1440005137;492711485;17151475;2244152007;2820;10602;1161080;3;10512;1630637
