0;55;1572314834681;1572314841431;6750;17347899580;34296032636;368772215;137430671;5782031236;209675190;392156189;2987;15;505048;2;2385;8295
0;56;1572314841431;1572314848223;6792;17362847644;34295310062;369979596;138261920;5782003638;209669492;392010748;3003;3;505720;-2;1784;5430
0;57;1572314848223;1572314855040;6817;17340485846;34298403299;364496603;137248353;5782719072;209644902;392320456;2830;563;536688;1;3273;68121
0;58;1572314855040;1572314861858;6818;17361711472;34291871750;369193615;138085393;5781110090;209782110;392248787;2988;13;504880;3;2937;10356
0;59;1572314861858;1572314868482;6624;17335094066;34298281518;369933921;136812155;5782516697;209724221;392180402;3004;9;505984;-3;2715;9591
0;60;1572314868483;1572314875655;7172;17354718364;34297623443;367023000;138515253;5782446237;209611464;392228741;3004;0;505384;0;2413;8045
0;61;1572314875655;1572314883131;7476;17326792944;34298573625;360609706;136985534;5782451194;209627737;392403293;3097;310;535352;5;2855;52857
0;62;1572314883131;1572314890686;7555;17334617960;34297682846;360412584;136937141;5782401875;209594011;392178773;3000;9;505928;-6;2590;8768
0;63;1572314890686;1572314897570;6884;17359180708;34297908299;365350804;138027849;5782553459;209626689;392341568;2989;19;505000;0;2884;10225
0;64;1572314897570;1572314904413;6843;17362493594;34299272950;367969902;137980322;5782744432;209697988;392418372;2993;11;505384;0;2345;7691
0;65;1572314904413;1572314911208;6795;17359828948;34304951391;371578756;137662503;5783979361;209627721;392671977;2998;7;505232;1;1908;5762
0;66;1572314911208;1572314918119;6911;17351360218;34300948938;365879169;136590504;5783185775;209617173;392461247;2871;560;536832;-1;3607;77686
0;67;1572314918119;1572314924690;6571;17351685798;34299470958;371586392;137119814;5782714318;209696640;392462889;2966;37;505216;1;3159;11531
0;68;1572314924691;1572314931262;6571;17371775982;34296342327;372640353;139415138;5782140567;209749872;392245428;2997;12;505160;-1;2652;9196
0;69;1572314931262;1572314938167;6905;17359533590;34299249369;369686701;138117251;5782675748;209715140;392520850;2996;4;504288;1;2331;7939
0;70;1572314938167;1572314945032;6865;17363596624;34295325153;366293410;137514762;5781732388;209764769;392154836;3004;438;536408;0;3269;54174
0;71;1572314945032;1572314951854;6822;17339727084;34294790563;366074697;137040562;5781688585;209717267;392467745;2988;16;505384;0;2815;9638
0;72;1572314951854;1572314958613;6759;17340976844;34296211758;365413833;137647120;5782213230;209732485;392290749;3004;5;505448;0;2753;9513
0;73;1572314958613;1572314965218;6605;17369177912;34293735341;370540816;139001073;5781527550;209787633;392058475;2994;10;505384;0;2363;8256
0;74;1572314965218;1572314971837;6619;17356359404;34298113330;371177578;138413475;5782512517;209770613;392310158;2991;5;504040;8;2130;7136
0;75;1572314971837;1572314978679;6842;17367359190;34297907661;365774269;138996634;5782455745;209688146;392451619;2882;539;537616;-8;3504;63141
0;76;1572314978679;1572314985545;6866;17349601356;34301353608;368003789;137764671;5783335440;209681107;392507345;2975;29;504984;0;2891;9772
0;77;1572314985545;1572314992369;6824;17339557578;34295643420;365312925;137522268;5782077102;209715044;392341505;3007;4;505632;-1;2538;8889
0;78;1572314992369;1572314999042;6673;17386643162;34292086692;367545375;139841136;5781270017;209789024;392237192;2200;1387;546592;18;4639;121487
0;79;1572314999042;1572315005805;6763;17353918284;34293197644;363172726;137905688;5781463839;209718041;392071096;2477;752;536360;-17;4072;22535
0;80;1572315005805;1572315012456;6651;17339369238;34306629124;368695403;137244335;5784425717;209642268;392613109;2997;8;505416;0;2825;10046
0;81;1572315012456;1572315019244;6788;17356414446;34296775047;368975690;137888004;5782144562;209702820;392228484;3004;4;504544;0;2237;7526
0;82;1572315019244;1572315025889;6645;17378422340;34296591217;371771958;140127299;5782183576;209663588;392167119;2984;343;514424;39;2280;47090
0;83;1572315025889;1572315032675;6786;17347246376;34297504246;369380583;137035572;5782549899;209619355;392439288;2930;113;527896;-39;3475;17586
0;84;1572315032675;1572315039491;6816;17357522440;34294955695;366687284;137527604;5781983673;209734113;392304262;3063;23;506184;0;3042;21060
0;85;1572315039491;1572315046080;6589;17355767082;34298144689;370626354;137646430;5782592092;209698821;392349080;2991;10;504744;4;2586;9205
0;86;1572315046080;1572315052636;6556;17328711384;34301247679;371225507;136104017;5783310558;209683818;392397347;3009;2;505632;-1;2340;8281
0;87;1572315052637;1572315059434;6797;17351676162;34297507722;367286138;137378531;5782457154;209764135;392175933;2877;536;537176;-3;3371;61131
0;88;1572315059434;1572315066275;6841;17363073214;34300389965;368697305;139326863;5782928947;209704624;392382033;2999;5;504936;0;2862;9579
0;89;1572315066276;1572315073116;6840;17344684660;34292046007;367839121;137089057;5781099118;209828296;392239511;2990;7;504208;7;2724;9600
0;90;1572315073116;1572315080060;6944;17362159692;34302180219;368724941;138307815;5783489820;209583131;392636106;3016;0;506624;-7;2212;7790
0;91;1572315080060;1572315087005;6945;17355917024;34299361492;368175014;137632186;5782730530;209689720;392506610;3035;230;510792;80;2058;37611
0;92;1572315087006;1572315093557;6551;17341686988;34301594117;370228438;136551190;5783314909;209719822;392442831;2810;278;528792;-80;3402;23637
0;93;1572315093557;1572315100194;6637;17330081886;34299442324;368298898;136547940;5782942641;209710036;392393431;2994;15;505616;-1;2813;9941
0;94;1572315100195;1572315107014;6819;17364072730;34301058451;368024565;138750658;5783081855;209686484;392288125;2993;3;503328;4;2430;8495
0;95;1572315107014;1572315113956;6942;17361627814;34301888040;370723880;138889591;5783260745;209708019;392746839;3001;5;504944;3;2350;7765
0;96;1572315113956;1572315120846;6890;17357254238;34297273801;369226783;137839075;5782495769;209658391;392525378;3039;269;536848;-7;2609;25625
0;97;1572315120846;1572315127625;6779;17348600088;34298456424;368744922;136747713;5782753316;209646882;392683208;2997;8;505232;1;2961;10317
0;98;1572315127625;1572315134212;6587;17333926066;34298414314;370978852;136073933;5782545931;209692052;392415807;2994;8;505048;2;2753;9839
0;99;1572315134212;1572315140794;6582;17344077008;34298072059;372891210;136658783;5782684563;209729306;392302736;3004;2;505720;-2;2141;7368
0;100;1572315140794;1572315147644;6850;17375519860;34300041323;370601360;140163928;5782875911;209698794;392215090;3005;3;504544;0;1896;5638
0;101;1572315147644;1572315154574;6930;17364527374;34294859448;367567088;138136122;5782004446;209757710;392184481;2962;377;534376;0;3378;52529
0;102;1572315154574;1572315161360;6786;17337235302;34299628071;366513667;136661578;5783034449;209642190;392587649;2992;13;505096;2;2914;9833
0;103;1572315161360;1572315168308;6948;17328163592;34300478570;367773514;135876944;5783016128;209664592;392409767;3002;4;505720;-2;2452;8347
0;104;1572315168309;1572315174837;6528;17344687872;34290536481;369883682;137389087;5780896350;209798479;392016251;3008;1;505448;0;2280;9002
1;55;1572315681282;1572315688144;6862;17376482438;34271831026;367047030;137822772;5772189792;210383370;390948924;2992;16;506056;-4;2282;7573
1;56;1572315688145;1572315695362;7217;17372867332;34271149962;365437554;137599671;5772192263;210411241;390816423;3039;349;534976;0;3231;49009
1;57;1572315695362;1572315702262;6900;17369185212;34274248678;365749974;137150407;5772897621;210411473;391206353;3004;0;505384;0;2984;10232
1;58;1572315702263;1572315709029;6766;17381574772;34267853734;368608238;138015916;5771360879;210498011;391039382;2997;9;504792;1;2612;8796
1;59;1572315709029;1572315715880;6851;17416031064;34274095762;367446101;140604772;5772692498;210385204;390909716;3001;1;504624;-1;2269;7391
1;60;1572315715880;1572315722768;6888;17387691442;34273202376;366586815;138067876;5772511576;210324777;390929372;3047;336;501656;28;2283;56117
1;61;1572315722768;1572315729581;6813;17383192306;34274258061;366984713;137470190;5772570337;210422269;391114000;2758;271;539152;-25;3435;35420
1;62;1572315729582;1572315736450;6868;17377453630;34273445864;367262769;137507383;5772539336;210401268;390966674;2996;15;505920;-3;3047;10708
1;63;1572315736450;1572315743079;6629;17378310504;34273733151;371058416;138121604;5772716177;210312572;391003759;3000;3;505216;1;2515;9489
1;64;1572315743079;1572315749902;6823;17389420374;34274987596;369055820;138941647;5772866096;210354729;391085464;3000;3;504928;0;2428;8327
1;65;1572315749902;1572315756850;6948;17411521416;34280818714;366260931;139748667;5774178857;210320454;391462672;2826;627;533384;0;3682;101846
1;66;1572315756850;1572315763703;6853;17378228598;34276563707;367543281;137108883;5773269991;210392235;391187421;3004;0;505384;0;2974;10226
1;67;1572315763703;1572315770511;6808;17368727502;34275267226;368460111;136766321;5772868393;210411086;391286871;3006;2;505264;1;2744;9754
1;68;1572315770511;1572315777331;6820;17378256484;34271779057;369137416;137745637;5772119171;210391755;391089565;3005;0;505552;-1;2252;7547
1;69;1572315777331;1572315783969;6638;17377967112;34275037829;371928839;138318037;5772846770;210383264;391231493;3007;1;505600;-1;1983;6209
1;70;1572315783969;1572315790723;6754;17384925034;34271261366;368864472;138183205;5771954781;210465729;391030590;3113;305;535640;4;3309;57390
1;71;1572315790723;1572315797557;6834;17412383546;34270805369;369659872;140383760;5771941449;210442048;391105617;2989;23;504816;-4;2910;9799
1;72;1572315797558;1572315804444;6886;17414381994;34271810904;368835233;139211557;5772275684;210497076;391178674;2993;10;505216;1;2536;8525
1;73;1572315804444;1572315811316;6872;17378862530;34269494818;367734537;137743517;5771684810;210457014;390729065;2995;10;505552;-1;2233;7656
1;74;1572315811317;1572315818080;6763;17368734364;34273904750;365386509;136470924;5772662749;210474781;390911068;2798;685;537184;1;3562;128664
1;75;1572315818080;1572315824650;6570;17375053682;34273752399;369058509;137192328;5772642548;210438233;391277020;2992;13;505552;-1;3000;10596
1;76;1572315824650;1572315831417;6767;17382422302;34276952383;368932108;137839237;5773429183;210380435;391446837;2997;9;504792;1;2871;10336
1;77;1572315831417;1572315838277;6860;17391642640;34271352862;368357908;138746304;5772189589;210434248;390953807;2998;3;504456;0;2136;7172
1;78;1572315838277;1572315845110;6833;17384247886;34267620748;369008030;137992700;5771297494;210482075;391179802;2991;18;505616;-1;2066;8062
1;79;1572315845110;1572315852019;6909;17416654922;34269067742;365250702;138866699;5771661953;210482375;391003492;2847;640;538440;6;3670;98803
1;80;1572315852019;1572315858862;6843;17409058542;34282399286;368130725;138173554;5774565846;210381169;391440208;2999;14;506256;-5;3000;10260
1;81;1572315858862;1572315865575;6713;17379281258;34272450322;367614133;137442161;5772249389;210455132;391084135;2998;7;505552;-1;2492;8315
1;82;1572315865575;1572315872477;6902;17429084632;34272568926;369672422;140959953;5772433642;210359973;391149527;2984;15;503832;1;2397;8302
1;83;1572315872477;1572315879413;6936;17401680724;34273187138;364585327;138050200;5772642142;210337193;391256525;2792;626;534928;-1;3586;96375
1;84;1572315879413;1572315886383;6970;17395880144;34270649728;366136299;137572050;5772093742;210465854;391138117;2992;12;505384;0;2743;9596
1;85;1572315886383;1572315893138;6755;17382661596;34273778292;367302407;137444127;5772692077;210417720;391091430;2992;16;505264;1;2806;9965
1;86;1572315893138;1572315899791;6653;17368764440;34276981552;371465488;137276193;5773432097;210378981;391211850;2987;8;503872;9;2234;7523
1;87;1572315899791;1572315906888;7097;17449948908;34273117329;364979552;140524161;5772527805;210420805;390851284;1881;1897;569832;-9;6091;112257
1;88;1572315906888;1572315913798;6910;17417131612;34276009116;369261462;138566189;5773009033;210420046;391168453;2992;12;505384;0;3022;10453
1;89;1572315913798;1572315920705;6907;17398117302;34267671410;367704375;137348941;5771177658;210568724;391038792;3005;3;505416;0;2609;9240
1;90;1572315920705;1572315927499;6794;17386204870;34277919025;366989610;137507929;5773619515;210385375;391456821;3001;3;505384;0;2123;7166
1;91;1572315927500;1572315935067;7567;17378196186;34275088883;362281273;137105636;5772853089;210480549;391178399;3096;414;530808;10;3037;67735
1;92;1572315935068;1572315941840;6772;17384794218;34277457813;367211366;137816476;5773535448;210411300;391523564;2989;20;512320;-6;2993;12497
1;93;1572315941840;1572315948445;6605;17422542372;34275195843;370393816;140205678;5773068487;210420284;391306688;2995;9;504960;-3;2911;10366
1;94;1572315948446;1572315955338;6892;17383799082;34277042788;366340847;136889077;5773335920;210445656;391253637;3007;13;505928;-2;2265;7566
1;95;1572315955338;1572315962157;6819;17364055356;34277511459;366982619;136216488;5773350214;210405116;391579020;2997;9;505448;0;2434;7931
1;96;1572315962157;1572315969006;6849;17384553026;34273011117;369502185;137402656;5772655842;210384265;391289528;2994;480;539648;1;3463;86080
1;97;1572315969007;1572315975916;6909;17400083484;34274154013;368158141;138222170;5772858872;210404099;391349698;2993;4;503624;5;3012;10806
1;98;1572315975916;1572315982802;6886;17403692896;34274276403;364773341;138861320;5772725158;210392223;391173951;2998;12;505472;-3;2446;8118
1;99;1572315982803;1572315989617;6814;17386183262;34273524424;365642356;137524794;5772693111;210394847;391263084;3000;7;505752;-2;2294;8555
1;100;1572315989618;1572315996543;6925;17393916298;34275788618;366139926;138258411;5773010173;210419695;391058030;3082;310;536744;0;2611;43113
1;101;1572315996543;1572316003115;6572;17417273086;34270604918;371562166;139448939;5772133173;210480047;391019532;3001;3;505384;0;3019;11233
1;102;1572316003115;1572316009743;6628;17398903512;34275459820;370521584;138132263;5773224549;210387651;391381971;3000;0;504424;3;2921;10359
1;103;1572316009743;1572316016695;6952;17393637876;34276383289;366969842;138400689;5773227437;210421687;391182181;3007;2;505160;-4;2073;6625
1;104;1572316016695;1572316023505;6810;17391301730;34266389476;367529633;137693457;5771083670;210467050;391018784;2993;10;505216;1;2573;9522
2;54;1572316560172;1572316567056;6884;17370906260;33850803601;366858243;138579829;5741325695;206605499;389645818;3001;4;505552;-1;2234;7088
2;55;1572316567056;1572316573947;6891;17372891714;33848437851;365666972;138418143;5740830097;206597796;389300398;2960;417;521144;23;3015;65416
2;56;1572316573947;1572316581062;7115;17343722666;33848777983;362278116;137117007;5740871735;206506824;389290940;2892;136;518352;-23;3065;14271
2;57;1572316581062;1572316588698;7636;17319099328;33852079811;356213906;135823544;5741535612;206378381;389485224;3007;1;505704;1;2588;7734
2;58;1572316588698;1572316595573;6875;17407548610;33844575326;367557551;140062758;5740056107;206670755;389540510;2995;10;505416;0;2305;7944
2;59;1572316595573;1572316602408;6835;17394836974;33851070130;367003412;139542512;5741345232;206596429;389437655;3003;5;505440;0;2113;7126
2;60;1572316602408;1572316609867;7459;17346973940;33850271544;360084745;137199663;5741121366;206387527;389284823;3013;422;537272;0;3327;68189
2;61;1572316609868;1572316616851;6983;17341177886;33850239358;365799157;137025784;5741168222;206620494;389625342;2962;42;504752;4;2967;10405
2;62;1572316616851;1572316623715;6864;17366916956;33849918297;366083460;137859635;5741125181;206587285;389478917;3007;1;506056;-4;2477;7796
2;63;1572316623715;1572316630610;6895;17361321798;33850754168;366850193;138440201;5741240467;206573242;389477011;3004;0;505384;0;2324;7858
2;64;1572316630610;1572316637475;6865;17369783812;33851488669;365466190;137649388;5741353077;206578954;389525371;2833;612;539320;-1;3444;78260
2;65;1572316637475;1572316644258;6783;17364582708;33857084892;366657122;138861335;5742537687;206570312;390057173;2993;8;504880;3;2869;9834
2;66;1572316644258;1572316651056;6798;17373269854;33853706251;367897628;138446102;5741848990;206603875;389751752;2992;16;505296;-2;2759;9540
2;67;1572316651056;1572316657984;6928;17387953950;33851668892;367766410;139883941;5741459594;206567019;389730926;3004;1;505552;-1;2232;7585
2;68;1572316657984;1572316664881;6897;17397586884;33848252055;366503418;139955037;5740808121;206571902;389617626;3005;2;505272;1;1971;6434
2;69;1572316664882;1572316671606;6724;17352555082;33850831893;363787039;137381949;5741332747;206577683;389698019;2818;630;536288;3;3781;84027
2;70;1572316671606;1572316678421;6815;17363040364;33847511872;367886764;138082318;5740610469;206686194;389531124;2982;27;505744;-2;2898;10000
2;71;1572316678422;1572316685254;6832;17349387320;33847604731;368375043;137152820;5740737607;206650037;389564021;3002;2;505384;0;2521;8943
2;72;1572316685254;1572316691865;6611;17375481170;33849521553;370458370;138601527;5740919488;206695747;389549819;3004;1;505552;-1;2461;8485
2;73;1572316691865;1572316698714;6849;17347229878;33846169546;367066053;137025096;5740340976;206652256;389275440;3132;301;536008;3;2812;62146
2;74;1572316698714;1572316705511;6797;17354404318;33850853295;366910128;137337393;5741211259;206661283;389625647;3006;2;506056;-4;2978;10628
2;75;1572316705511;1572316712221;6710;17351013322;33850359212;367387523;137361616;5741147273;206656551;389733569;2989;19;505440;0;2796;9856
2;76;1572316712221;1572316719017;6796;17357723190;33854147673;368538504;137439993;5741918574;206584184;389889388;3001;2;505216;1;2106;6554
2;77;1572316719017;1572316725854;6837;17374541806;33848846497;368007986;138308971;5740773127;206632629;389468778;3005;0;504784;4;1852;5608
2;78;1572316725854;1572316732453;6599;17391000386;33845131949;368265854;139622163;5740071466;206709817;389629346;2884;561;538160;-3;3771;82969
2;79;1572316732453;1572316739310;6857;17401581590;33846333358;367922772;140255083;5740296209;206652970;389513418;2997;12;505744;-2;2982;10682
2;80;1572316739310;1572316746227;6917;17399048052;33859262126;366722522;140163542;5742885379;206536144;389879434;3002;390;532696;6;3189;74493
2;81;1572316746227;1572316753207;6980;17396786074;33849383417;359499730;139785676;5740938572;206622135;389370850;1846;1576;552096;-5;5512;60567
2;82;1572316753207;1572316759796;6589;17381707048;33849580213;368691069;139155835;5741014022;206592961;389616074;2998;11;505472;0;2888;11170
2;83;1572316759796;1572316766511;6715;17378115740;33850606781;366570801;138934481;5741212477;206528614;389670334;3001;3;505384;0;2717;9939
2;84;1572316766511;1572316773455;6944;17365967956;33848375467;365070061;137787313;5740728462;206594687;389550607;3007;2;505592;-1;1925;6099
2;85;1572316773455;1572316780333;6878;17372452692;33850583251;365766292;138075235;5741226653;206568168;389462540;2790;629;536720;1;3423;78673
2;86;1572316780333;1572316787100;6767;17366931410;33854127534;366224776;138058449;5741890824;206600074;389699980;3001;91;506408;-1;3194;21805
2;87;1572316787100;1572316793889;6789;17358622112;33850540788;365235477;137518040;5741213694;206643490;389518272;2991;14;505416;0;3010;11471
2;88;1572316793889;1572316800626;6737;17367725796;33852727204;368768979;137734742;5741697734;206630404;389561870;3002;4;505240;1;2277;8090
2;89;1572316800627;1572316807392;6765;17362937726;33845004021;368166085;137416251;5740042589;206748501;389481903;2986;12;504376;6;2559;8926
2;90;1572316807392;1572316814136;6744;17360695020;33855444895;364842431;137357008;5742149255;206489121;389887073;2858;604;539152;-7;3859;88077
2;91;1572316814136;1572316820934;6798;17366652696;33852139715;368272169;137847957;5741586120;206617941;389827180;2997;11;505296;1;2915;10205
2;92;1572316820934;1572316827834;6900;17376100356;33854225225;366650712;138928687;5741906282;206612972;389800060;2998;7;505416;0;2616;8624
2;93;1572316827834;1572316834709;6875;17340792446;33852925273;364833867;136561415;5741674613;206568630;389679697;3006;1;505408;0;1895;6145
2;94;1572316834709;1572316841558;6849;17366079938;33853446354;365893913;137842446;5741734108;206599694;389547455;2810;535;535288;0;3099;49241
2;95;1572316841558;1572316848328;6770;17375140698;33853713352;367029897;137856490;5741864139;206610214;390098703;3001;5;504816;1;2875;9718
2;96;1572316848328;1572316855084;6756;17370854138;33850686078;368267681;138520747;5741226788;206580322;389760486;2996;9;505256;-2;2829;10373
2;97;1572316855084;1572316861927;6843;17346155902;33852066452;367560596;137231558;5741511155;206563284;389801470;3000;2;504416;6;2214;7142
2;98;1572316861927;1572316868778;6851;17368146860;33850948615;367748292;137959815;5741338630;206569778;389645913;3005;4;506224;-5;2501;8682
2;99;1572316868778;1572316875626;6848;17355379890;33851346227;365791689;138076697;5741421276;206562478;389719906;3092;296;535376;1;3044;53368
2;100;1572316875626;1572316882331;6705;17381633026;33852479239;366373554;138717362;5741666843;206650044;389613599;2977;34;505672;-1;2982;10354
2;101;1572316882331;1572316889187;6856;17392498492;33848629656;365553615;139052211;5740725005;206641831;389457433;2999;3;504920;0;2484;8504
2;102;1572316889187;1572316895995;6808;17385268134;33852908603;367100070;139734902;5741710568;206563219;389743761;3000;8;505424;0;1996;6860
2;103;1572316895995;1572316902684;6689;17384943430;33853049718;368276617;139278806;5741695751;206610054;389696741;2890;549;537952;-1;3328;68846
3;52;1572317416363;1572317423420;7057;17842563348;34253016273;368042253;138000845;5936860528;209824333;394249892;2997;8;505552;-1;2603;8908
3;53;1572317423420;1572317430149;6729;17844582674;34249639060;373129363;138287568;5935567829;209939689;394228749;2975;29;505384;0;2470;8487
3;54;1572317430149;1572317437181;7032;17839418508;34248753273;367221569;137818411;5935602251;209786967;393968461;2871;559;537600;0;3469;66755
3;55;1572317437182;1572317444220;7038;17834515536;34245395689;368584016;137767103;5934740938;209825930;393809463;2982;19;504880;3;3015;10091
3;56;1572317444220;1572317450936;6716;17850526772;34245781063;371864749;138987844;5934664221;209888468;393822322;3003;8;505760;-2;2811;10241
3;57;1572317450936;1572317457689;6753;17851105078;34249522347;371660769;138928728;5935755189;209831962;394069127;2999;6;505552;-1;2319;8384
3;58;1572317457689;1572317464996;7307;17855741308;34239207820;367715411;139525585;5933172272;209892496;393941367;2924;376;524256;27;2479;30243
3;59;1572317464996;1572317471910;6914;17863187746;34248464984;367381699;139935967;5935567855;209804418;393873235;2901;125;514000;-23;3094;15063
3;60;1572317471910;1572317478883;6973;17848921210;34247178775;367924158;138896033;5935254376;209774974;393964569;2979;32;505464;-3;2919;10047
3;61;1572317478883;1572317485949;7066;17876912184;34247819804;369935905;139758554;5935274769;209875420;394128398;2994;10;505384;0;2576;9125
3;62;1572317485949;1572317492955;7006;17838352124;34247673902;369944615;138152936;5935100887;209863402;393808571;2990;15;505128;-1;2500;8719
3;63;1572317492955;1572317500002;7047;17836567858;34248655616;366600683;137599302;5935620048;209768673;393940337;3099;321;537304;4;3346;58070
3;64;1572317500002;1572317507064;7062;17849263872;34249787524;368978945;138893259;5935818399;209788192;394045692;2996;12;506056;-4;2876;9569
3;65;1572317507064;1572317514054;6990;17835220132;34257239169;368882350;137752184;5938009504;209744864;394484772;3002;7;505272;1;2700;9882
3;66;1572317514055;1572317520804;6749;17861019354;34252750894;373816984;139836637;5936601282;209897081;394146130;3004;1;505552;-1;2324;8462
3;67;1572317520805;1572317527820;7015;17861232368;34249732945;369122100;139500170;5935787692;209813683;394185252;3148;250;535000;0;2498;47374
3;68;1572317527820;1572317534835;7015;17855412954;34244995532;368536830;139172004;5934526615;209768920;394054770;3000;3;505216;1;3071;10231
3;69;1572317534835;1572317541570;6735;17864422760;34248498617;371951992;139927344;5935582455;209913080;394269789;3009;2;505608;-1;3004;11445
3;70;1572317541570;1572317548455;6885;17860199272;34244295767;369669722;139233790;5934165475;209954232;393939953;2993;10;505216;1;2447;8433
3;71;1572317548455;1572317555305;6850;17839201844;34243230276;371180196;138218930;5934070185;209876623;394065013;2997;11;505624;-1;2682;9915
3;72;1572317555305;1572317562375;7070;17838190794;34245904427;368752126;137599860;5934777040;209864056;393965311;2874;596;537712;1;4016;105217
3;73;1572317562375;1572317569456;7081;17834642994;34242109132;370520190;138023621;5933717522;209906145;393688161;2996;8;505384;0;2825;9833
3;74;1572317569456;1572317576517;7061;17848975668;34248227148;369847414;138287307;5935293355;209878978;394082767;3007;0;504936;3;2619;8850
3;75;1572317576517;1572317583461;6944;17824233486;34248208377;369354288;137907565;5935400561;209836815;394165597;3002;5;505888;-3;1999;6885
3;76;1572317583461;1572317590493;7032;17885895126;34252772253;367588600;140161871;5936741472;209761509;394254213;2877;605;537864;0;3515;86458
3;77;1572317590494;1572317597568;7074;17862571042;34245257171;367057658;139324375;5934788254;209802786;393902006;2994;5;504544;5;2820;9496
3;78;1572317597568;1572317604598;7030;17860269352;34240179405;369028713;139367797;5933227158;209836979;394143381;3002;11;505968;-6;2774;9737
3;79;1572317604598;1572317611791;7193;17863366304;34241989655;366204525;139611686;5933725666;209849320;393863925;2523;1019;534952;15;4173;132982
3;80;1572317611791;1572317618643;6852;17879660926;34260673243;366219406;140885363;5938678883;209841173;394165159;2230;1088;547336;-14;4783;41470
3;81;1572317618644;1572317625490;6846;17841378266;34245714231;369327554;138458219;5934903129;209921011;393958174;3002;2;505384;0;2967;10760
3;82;1572317625490;1572317632577;7087;17855997684;34246975411;368643983;139594190;5935012903;209752656;394089546;3006;3;505424;0;2474;8562
3;83;1572317632577;1572317639683;7106;17879048018;34249117490;370381530;140135160;5935666230;209719271;394116821;3005;0;505552;-1;1878;5688
3;84;1572317639684;1572317646781;7097;17875857918;34244489140;369790398;140228320;5934544642;209837265;394065086;3110;414;534840;16;3460;69072
3;85;1572317646781;1572317653813;7032;17856203690;34248033504;370862187;139014200;5935584216;209866595;394046133;3016;4;511768;-16;3310;13936
3;86;1572317653813;1572317660656;6843;17851704700;34252488409;369189232;138601265;5936683066;209825813;394108081;3001;2;505216;1;2869;10792
3;87;1572317660656;1572317667678;7022;17842056728;34247665321;368342537;137811108;5935239474;209819705;393993487;2998;3;503928;9;2294;7618
3;88;1572317667678;1572317674561;6883;17852738526;34251378956;370414971;138846532;5936195575;209903613;394128717;3011;2;506896;-9;2650;9484
3;89;1572317674561;1572317681365;6804;17848750974;34239401383;370209231;138289312;5932820292;210037989;393878494;2923;418;536608;0;3630;33364
3;90;1572317681365;1572317688087;6722;17819810708;34254770781;369024430;136909178;5937309761;209795032;394363887;3001;3;505384;0;2904;10593
3;91;1572317688088;1572317695019;6931;17867470802;34249901054;370256458;139681877;5936062227;209869145;394263612;3009;0;505424;0;2673;9720
3;92;1572317695020;1572317701749;6729;17882018534;34253316815;374021851;141737413;5936753945;209896132;394274572;2996;0;503752;7;1933;6401
3;93;1572317701749;1572317708565;6816;17861375886;34250620312;371017909;139252747;5936084482;209865144;394064773;2872;417;534336;-8;3217;31532
3;94;1572317708566;1572317715519;6953;17855794160;34251921580;369971036;139038375;5936370092;209819640;394012027;3001;0;504752;1;3085;11215
3;95;1572317715519;1572317722370;6851;17840836898;34252429455;367512386;138356692;5936628640;209855949;394562675;3002;2;505384;0;2782;10035
3;96;1572317722370;1572317729333;6963;17849806992;34248037847;367217719;138921513;5935489362;209755675;394237749;3007;2;505424;0;2469;9526
3;97;1572317729334;1572317736192;6858;17842152650;34249701475;371372789;138844449;5936033511;209851303;394236888;3078;181;519904;28;2665;18812
3;98;1572317736192;1572317743224;7032;17856931646;34248317084;367604897;138767525;5935680639;209756678;394174507;2767;272;519288;-28;3431;21383
3;99;1572317743224;1572317750052;6828;17864795790;34248597289;370872585;139523221;5935670878;209892801;394134233;3002;2;505384;0;2985;10797
3;100;1572317750052;1572317757019;6967;17860354908;34250408304;369805239;139213912;5936195533;209824947;393934666;3007;2;505424;0;2502;8520
3;101;1572317757019;1572317764021;7002;17852444920;34244733032;369967952;138945762;5934541873;209899566;393766857;2999;0;504544;5;2096;7290
4;54;1572318273145;1572318279897;6752;17356933622;34385052651;369944575;138311908;5782531120;209018969;392216375;2984;19;504928;0;2097;6594
4;55;1572318279898;1572318286771;6873;17369426988;34382803547;366828400;139744327;5782174882;208980413;391911356;2974;28;503784;5;2323;7700
4;56;1572318286771;1572318294203;7432;17325128252;34381956668;360004577;136647784;5782101209;208851930;391719699;2875;558;535912;-6;3446;70111
4;57;1572318294204;1572318301601;7397;17326361076;34384725541;361372160;137287879;5782655196;208888731;392031766;3005;3;505264;1;2740;9124
4;58;1572318301601;1572318308480;6879;17350426986;34378518187;366231005;138151644;5781206634;209081348;392094711;2990;14;505384;0;2282;7317
4;59;1572318308481;1572318315222;6741;17345401374;34384953722;369665072;138003430;5782614101;209013983;391929128;3003;4;505432;0;2019;6784
4;60;1572318315222;1572318322851;7629;17305862092;34384011361;359365555;136085492;5782413372;208833383;391860911;3052;309;533376;-1;3079;49471
4;61;1572318322851;1572318329603;6752;17349456962;34385046332;364780826;138074771;5782470425;209036576;392210314;2985;21;504360;1;3009;11184
4;62;1572318329603;1572318336509;6906;17371474346;34384075591;365232511;139761966;5782363179;208977377;391923282;2994;9;505088;-1;2513;8468
4;63;1572318336509;1572318343368;6859;17362577836;34384275795;366330623;137832939;5782501099;208934597;392199220;2996;8;505384;0;2244;7497
4;64;1572318343368;1572318350256;6888;17376848314;34385869005;365654783;138524257;5782809835;208986223;392054907;2911;496;538904;0;3475;61573
4;65;1572318350256;1572318357071;6815;17358427786;34391399978;368501254;137603079;5783977640;208935984;392541612;2992;9;504880;3;2793;9457
4;66;1572318357071;1572318363655;6584;17346960508;34387529253;368640160;137529337;5783254560;209005739;392258570;2985;15;504072;8;2893;10112
4;67;1572318363655;1572318370640;6985;17355614804;34385984535;368374044;138731029;5782735877;208951164;392252084;3008;4;506144;-10;2126;6612
4;68;1572318370641;1572318377518;6877;17361968870;34382604995;368644374;138495117;5782034516;208975278;392226298;3004;2;504984;0;2165;6957
4;69;1572318377518;1572318384394;6876;17342926236;34385427808;366140550;137757622;5782530261;208981810;392292115;2826;512;533376;-1;3455;61592
4;70;1572318384395;1572318391254;6859;17365616096;34381875060;366467248;138514232;5781767081;209064677;392070544;2992;16;505416;0;3113;12629
4;71;1572318391254;1572318397974;6720;17347481144;34381314298;366883493;137434014;5781717240;209039515;392197490;2980;23;505216;1;2658;9672
4;72;1572318397974;1572318404651;6677;17353704540;34382616305;369163124;137768860;5782180666;209058664;392092875;2991;14;505552;-1;2310;7910
4;73;1572318404651;1572318411289;6638;17406537706;34380108545;369826417;141653440;5781484442;209098758;391666286;2822;547;535512;1;3265;59109
4;74;1572318411289;1572318418197;6908;17350768480;34384467715;366490903;137820905;5782452120;209071491;392153048;2998;6;505384;0;2644;9146
4;75;1572318418197;1572318425074;6877;17364963476;34384425634;365893369;138386229;5782485163;209008312;392302061;2994;8;504256;7;2985;11346
4;76;1572318425074;1572318431866;6792;17358423552;34387704337;368197100;138178791;5783285057;209004630;392371673;3011;1;506728;-8;2222;7668
4;77;1572318431866;1572318438499;6633;17351442124;34382168286;370018800;137967937;5782112239;209079811;392102665;3003;3;505264;1;2203;7320
4;78;1572318438499;1572318445284;6785;17374417122;34378517427;364665940;139025603;5781247302;209042497;392195268;2827;583;536712;3;3763;76086
4;79;1572318445284;1572318452052;6768;17356913182;34379698115;366663165;138307404;5781499397;209055062;392021526;3004;2;505592;-4;2990;10427
4;80;1572318452052;1572318458877;6825;17362226852;34393032510;367467483;138156578;5784398293;208947022;392351071;3007;2;505432;0;2567;8541
4;81;1572318458877;1572318465806;6929;17372257490;34383189822;368215657;138918655;5782129028;209035809;392102280;2985;18;505216;1;2295;7741
4;82;1572318465806;1572318472602;6796;17357231024;34383216072;366889732;138306847;5782262129;208958838;392142175;2995;406;538192;0;3112;52602
4;83;1572318472602;1572318479507;6905;17340179538;34383902199;364361226;137761180;5782507392;208907565;392191954;2380;1052;541848;6;4472;43595
4;84;1572318479507;1572318486374;6867;17385447422;34381419798;368041028;139933494;5781970248;209054847;392075227;2613;642;531952;-4;4070;17931
4;85;1572318486374;1572318493362;6988;17362437238;34384696272;365223121;138790776;5782636209;208982622;392176625;3005;5;505984;-3;2241;8460
4;86;1572318493362;1572318500219;6857;17363563190;34387646345;368579716;138259412;5783276969;209015509;392307343;3000;7;505288;1;2418;7782
4;87;1572318500219;1572318507029;6810;17355544724;34383926151;368778747;138186873;5782435411;209069855;392087480;2998;6;505384;0;1941;6458
4;88;1572318507029;1572318513650;6621;17348206618;34386895844;367387338;137341236;5782966496;209036037;392156667;2864;539;537784;0;3534;62152
4;89;1572318513650;1572318520461;6811;17362416798;34378563223;368713470;138813106;5781131752;209173691;392029543;3016;72;505360;0;3247;17228
4;90;1572318520461;1572318527361;6900;17370873994;34388842318;370326915;139594721;5783606020;208941921;392419803;2999;3;504920;0;2428;8014
4;91;1572318527361;1572318534328;6967;17364391156;34386012132;367733832;138226104;5782816285;209027704;392386164;3005;2;505432;0;2331;7516
4;92;1572318534328;1572318540917;6589;17371222934;34387914857;371025546;138862248;5783242803;209057649;392383185;2938;463;538016;-1;3286;63566
4;93;1572318540917;1572318548032;7115;17332065150;34385630741;365725707;136882126;5782802323;209019894;392259045;2989;16;504488;6;2813;9428
4;94;1572318548032;1572318554991;6959;17327754208;34387423327;364363411;136534490;5783045583;208972907;392033987;3005;2;505888;-3;2447;7530
4;95;1572318554991;1572318561802;6811;17373044284;34388303662;369550821;139231008;5783242776;209032998;392600427;2998;9;504848;-2;2279;8129
4;96;1572318561802;1572318568742;6940;17371938626;34383700545;367142874;139373196;5782502656;208974837;392397674;3062;209;514112;63;1973;22670
4;97;1572318568742;1572318575554;6812;17351621120;34385012206;366326580;137501718;5782788034;208969339;392261406;2771;306;525672;-64;3304;31899
4;98;1572318575554;1572318582411;6857;17369917986;34384967249;367085995;138444182;5782580730;208969933;392277352;2989;15;505384;0;2859;10396
4;99;1572318582411;1572318589152;6741;17359076610;34384250565;368837265;138184782;5782546285;209013195;392252373;2998;5;505216;1;2364;7704
4;100;1572318589152;1572318595864;6712;17332537606;34386500957;368533535;137126872;5782877742;209051700;392078933;3001;6;505432;0;2281;9002
4;101;1572318595864;1572318602812;6948;17383120912;34381461772;368118776;139616281;5782052720;209071229;391901841;2980;307;533136;0;3194;26479
4;102;1572318602812;1572318609697;6885;17364515256;34385879348;367301979;138108733;5782933600;208988462;392443248;3005;3;505416;0;3072;10992
4;103;1572318609697;1572318616550;6853;17348265310;34387047006;367433122;137714029;5783060320;208980840;392249028;3002;5;505616;-1;2601;8433
