0;29;1572318275813;1572318283746;7933;18144895184;33986798495;361067408;149927421;5899335741;208955588;394696075;856;2358;1539688;8;7933;1137039
0;30;1572318283746;1572318299741;15995;17981261012;33984025650;356861227;142293580;5898586763;208809353;394394417;1924;4632;3061360;-8;15994;2146426
0;31;1572318299741;1572318307275;7534;18074461864;33980139462;360727699;147381355;5897637191;209055023;394131146;805;1896;1289344;-9;7535;1079907
0;32;1572318307275;1572318314406;7131;17996537576;33991430902;358175242;144070703;5900653880;208926573;394635514;750;2202;1364008;18;7130;1020715
0;33;1572318314406;1572318321648;7242;17973507536;33980770092;358576955;142781797;5897841394;209040845;394343926;774;2105;1376504;-1;7242;1040721
0;34;1572318321648;1572318330032;8384;17852029258;33974394638;356866178;136254714;5896186733;208832779;393875850;1070;2447;1549000;-17;8385;1254755
0;35;1572318330033;1572318345397;15364;17963464634;33981905195;355352951;141199770;5897923086;209050087;394369311;1709;4272;2721208;-11;15365;2101574
0;36;1572318345397;1572318352627;7230;18107223242;34017630153;360702581;149684428;5896947175;209167287;394378849;803;2165;1383776;15;7230;1035756
0;37;1572318352628;1572318359318;6690;18099771986;34163584756;354858697;139108617;5900685440;208816886;394569521;887;1940;1264184;-12;6691;979879
0;38;1572318359318;1572318366798;7480;18252850650;34167699148;358127358;147421008;5901644990;208792036;394803403;845;1911;1244792;19;7479;1074491
0;39;1572318366798;1572318375519;8721;18065048222;34151927357;353699496;138100731;5897111914;208948163;394367880;918;2588;1594344;-22;8722;1249612
0;40;1572318375519;1572318391639;16120;18097781714;34151778805;354987007;140149868;5897243273;208856110;394368634;1931;4524;2952384;-14;16120;2122052
0;41;1572318391639;1572318398816;7177;18217762178;34161255109;356722754;146407393;5899684830;209090206;394911354;761;1893;1204504;24;7176;1017984
0;42;1572318398816;1572318405506;6690;18118689060;34152595604;353128702;139273593;5897361633;208835860;394535410;685;1986;1203776;19;6691;958817
0;43;1572318405506;1572318412793;7287;18293867598;34153679157;357358742;149963660;5897819687;209111985;394547898;782;2128;1427736;-14;7287;1044112
0;44;1572318412794;1572318421690;8896;18049755452;34162004631;352207784;137322031;5900269454;208775235;394563376;1125;2738;1676384;-8;8897;1297474
0;45;1572318421691;1572318437667;15976;18119234808;34161424099;353671578;140518689;5899757453;208813471;394490278;1760;4243;2837176;-15;15977;2166559
0;46;1572318437667;1572318444686;7019;18259621692;34157829125;358573809;148174608;5898780168;209107443;394748618;770;2166;1355312;26;7018;987551
0;47;1572318444686;1572318452136;7450;18133374762;34157138780;357157696;141932770;5898528203;208914237;394437968;1052;2146;1353600;-13;7451;1103461
0;48;1572318452136;1572318458898;6762;18156290046;34152540958;357084284;143576571;5897301158;209097198;394301410;785;1665;1167744;15;6762;970979
0;49;1572318458898;1572318468216;9318;18005333930;34149800770;353922550;135862998;5896718625;208875938;394148522;969;2772;1630520;-4;9318;1333682
0;50;1572318468216;1572318483362;15146;18123628240;34157575320;353797731;140337957;5898840561;208914964;394541593;1867;4311;2734792;-25;15146;1934413
0;51;1572318483362;1572318490737;7375;18248808494;34143889530;359292791;147827143;5895174585;209130880;394221714;800;1929;1245384;33;7374;1046658
0;52;1572318490737;1572318497464;6727;18090987458;34160518955;356312020;138934297;5899694379;208923329;394467638;704;1919;1221088;2;6728;965091
0;53;1572318497465;1572318504631;7166;18158745912;34157341217;356370051;140448032;5898490519;208843386;394539121;786;2175;1415616;-18;7167;1029286
0;54;1572318504631;1572318512726;8095;18278104854;34156283545;360406945;148205772;5898449890;208996780;394732920;1061;2303;1508216;3;8094;1188056
0;55;1572318512726;1572318528966;16240;18100985976;34153016673;355314652;139867791;5897637611;208858964;394107867;1784;4603;2930584;13;16240;2322070
0;56;1572318528966;1572318535953;6987;18263665454;34153425922;360856950;148003240;5897565294;209093417;394227643;768;2050;1347176;0;6988;1004737
0;57;1572318535954;1572318542762;6808;18088410412;34157150726;353752772;139187080;5898678349;208811250;394353879;969;1930;1241256;-21;6809;1014109
0;58;1572318542762;1572318549973;7211;18275236392;34146727267;357501144;148924404;5896008462;209102893;394431393;839;1966;1352520;25;7211;1031553
0;59;1572318549974;1572318559756;9782;18046542722;34155918746;354065944;136910099;5898408020;208835075;394140849;1254;2519;1522704;-5;9783;1485503
0;60;1572318559756;1572318577661;17905;18144336150;34154824070;355768453;142493573;5898150391;208865376;394500839;2111;4452;2874016;-18;17904;2492841
0;61;1572318577661;1572318584789;7128;18217555150;34155702435;357932871;145600220;5898306076;209125128;394607085;832;2157;1416032;0;7128;1024501
0;62;1572318584789;1572318592283;7494;18275678188;34155343353;358335717;146866355;5898027707;208948668;394390567;1031;2230;1368376;20;7494;1116566
0;63;1572318592283;1572318599132;6849;18218729720;34156091725;359204018;144688098;5898442076;208979597;394309988;848;1559;1147392;-12;6850;984423
0;64;1572318599132;1572318608461;9329;18088447642;34157159095;355466467;138353084;5898590464;208782417;394234602;986;2809;1648184;8;9328;1339873
0;65;1572318608461;1572318623979;15518;18271204748;34164713169;358777343;146235980;5900828667;208926753;394902679;1951;4369;2839592;-1;15519;2054715
0;66;1572318623980;1572318631156;7176;18292520018;34160413063;358363404;149327718;5899516077;209038023;394669326;767;1785;1216488;1;7177;1031461
0;67;1572318631156;1572318637827;6671;18092476074;34157442712;351882794;138277452;5898716752;208808239;394430189;713;1962;1240096;-9;6671;958796
0;68;1572318637827;1572318645349;7522;18320926362;34152768177;359028308;148915495;5897485151;208934705;394636146;792;2284;1411296;8;7522;1078564
0;69;1572318645349;1572318653218;7869;18131050880;34156313234;353464323;139857591;5898560633;208875404;394625339;1069;2411;1429744;-19;7868;1186678
0;70;1572318653218;1572318670351;17133;18152198104;34151837205;354034551;141231385;5897003921;208934856;394276903;1876;4639;3114896;25;17134;2390559
0;71;1572318670351;1572318677566;7215;18253096952;34150948794;357242687;146744776;5896994516;209090055;394526283;762;2010;1329672;-22;7214;1035607
0;72;1572318677566;1572318684562;6996;18136181174;34153439024;354858207;140780811;5897633312;208891785;394278178;985;2115;1289376;10;6997;1037550
0;73;1572318684562;1572318691633;7071;18293087228;34149785827;359127019;148418499;5896641519;209102286;394120510;807;1686;1250640;-7;7071;1012769
0;74;1572318691633;1572318700980;9347;18069386758;34155976133;354672965;137294537;5898254400;208867177;394268453;999;2773;1648072;-7;9347;1338289
0;75;1572318700980;1572318715364;14384;18168645296;34155971952;357411174;141229276;5898366389;208960636;394563153;1775;4288;2670080;20;14384;2027080
0;76;1572318715364;1572318722652;7288;18390349216;34160715683;362782626;153134162;5899799274;209021581;394856017;845;1734;1234680;-12;7287;1045044
0;77;1572318722652;1572318729343;6691;18116684626;34152752911;354678730;139165678;5897634684;208911682;394238912;723;1910;1205560;13;6692;961162
0;78;1572318729343;1572318737618;8275;18146001426;34147740233;354885623;141576166;5896111010;208913577;394419329;884;2542;1565184;-20;8275;1185100
1;28;1572319110790;1572319117797;7007;17777208492;34706265613;356493873;145715824;6033246734;204399156;394506390;733;1958;1174800;3;7007;1009673
1;29;1572319117797;1572319127255;9458;17607867910;34701685709;354584518;138120194;6032051497;204266439;394463993;1249;2808;1642192;10;9458;1476841
1;30;1572319127255;1572319136415;9160;17550598096;34699558399;353922401;135480030;6031438183;204173930;394227946;1055;2670;1613984;1;9160;1315198
1;31;1572319136415;1572319149980;13565;17725965558;34695869485;355798075;142658111;6030469733;204397851;394094219;1473;3831;2566120;-4;13565;1887133
1;32;1572319149980;1572319156887;6907;17745468968;34706651434;357332255;144229077;6033420274;204544492;394546431;949;1749;1255608;-20;6907;1013896
1;33;1572319156887;1572319163662;6775;17656572342;34696717800;354342352;138984149;6030766530;204217802;394225802;710;1893;1123680;26;6775;969699
1;34;1572319163662;1572319172563;8901;17717031088;34690038629;354623724;143485569;6028854176;204458812;394056324;927;2764;1625824;1;8901;1276530
1;35;1572319172563;1572319180525;7962;17608269556;34697468452;352590913;136946629;6030554465;204361973;394058124;861;2309;1518144;-28;7962;1141667
1;36;1572319180525;1572319195400;14875;17807553570;34733304901;357487963;146673435;6029764625;204575330;394256439;1824;4275;2746512;17;14875;2063347
1;37;1572319195400;1572319202151;6751;17874048102;34879231723;355651530;140952972;6033468571;204359305;394231583;737;1860;1195128;-1;6751;968744
1;38;1572319202151;1572319209306;7155;18034428664;34882251717;358617943;148752715;6034545393;204372788;394367126;747;2111;1341864;-11;7155;1027736
1;39;1572319209306;1572319217712;8406;17815371724;34867228194;355027467;139529954;6029860690;204413846;394041132;1083;2492;1549384;18;8406;1224538
1;40;1572319217712;1572319227209;9497;17772900470;34867701148;355457080;137444057;6030206438;204226559;393958429;1043;2364;1682336;-19;9497;1360494
1;41;1572319227209;1572319242450;15241;17986567528;34876186550;359385875;147375336;6032462673;204552428;394570177;1633;4341;2734024;12;15241;2028474
1;42;1572319242450;1572319249360;6910;17849508714;34868208105;357367220;141980423;6030242280;204554566;394239611;977;1865;1279720;0;6910;1027168
1;43;1572319249360;1572319256341;6981;17827282258;34869080154;353808829;141569276;6030537269;204358707;393796465;785;1834;1168312;-17;6981;999900
1;44;1572319256341;1572319265106;8765;17814248838;34877115784;356159817;140093181;6033029220;204268223;394179643;905;2659;1563760;23;8766;1263811
1;45;1572319265106;1572319272816;7710;17689773180;34876178123;353049356;135279737;6032407648;204144282;393856965;822;2408;1471960;-22;7709;1105871
1;46;1572319272816;1572319287792;14976;17883063894;34872716566;354843295;142257251;6031570152;204423567;394207546;1831;4210;2758664;11;14977;2052588
1;47;1572319287793;1572319294912;7119;18045695922;34871838819;362249826;148656946;6031331727;204692121;394127368;743;1811;1215144;-7;7119;1020720
1;48;1572319294912;1572319301472;6560;17778914210;34867736933;355282587;137494677;6030151612;204299219;393738330;687;2010;1225872;17;6561;941927
1;49;1572319301473;1572319309302;7829;17908577686;34865778881;356122365;144890553;6029651554;204531781;393900052;1035;2405;1450360;-8;7829;1167760
1;50;1572319309302;1572319317931;8629;17697052448;34872556514;353907596;134799914;6031602187;204145607;393831849;977;2421;1580440;15;8629;1240479
1;51;1572319317931;1572319333249;15318;17859253192;34860190970;357284544;143677867;6027942727;204602545;393869133;1640;4335;2724424;-1;15318;2186898
1;52;1572319333249;1572319340387;7138;17808135380;34875745061;354487932;139688186;6032373125;204414508;394134147;995;2178;1313632;-6;7138;1070544
1;53;1572319340387;1572319347563;7176;17943640608;34872239435;358947742;146757332;6031375012;204625270;394336630;806;1768;1283448;-5;7176;1033746
1;54;1572319347563;1572319355859;8296;17764347644;34871502018;352717468;137060892;6031228701;204289601;393873166;886;2298;1474248;10;8297;1190539
1;55;1572319355860;1572319364352;8492;17892510824;34868499527;356159246;142724993;6030420806;204356080;393731438;909;2735;1626704;-13;8492;1217388
1;56;1572319364352;1572319379111;14759;17907700956;34868680478;358506618;143984079;6030539903;204597359;393740835;1815;4072;2692304;-14;14759;2047224
1;57;1572319379111;1572319386174;7063;17991285664;34872327331;359734429;148123211;6031475116;204684370;394087278;767;1828;1229560;1;7063;1010576
1;58;1572319386174;1572319392727;6553;17798372068;34863094579;356789734;138000151;6028810052;204297819;393646649;699;1969;1234224;5;6554;939188
1;59;1572319392728;1572319400602;7874;17918105938;34871365592;357876665;144441027;6031120431;204379210;393748226;870;2541;1550432;-6;7874;1129342
1;60;1572319400602;1572319409801;9199;17789189398;34870624255;355428801;138764713;6030968824;204202714;393786111;1193;2713;1694440;12;9199;1419248
1;61;1572319409801;1572319425070;15269;17876695958;34870775785;355736404;143292304;6030896499;204463541;394061242;1680;4112;2655672;-12;15269;2100458
1;62;1572319425070;1572319431840;6770;17865142978;34870199933;356785676;142220167;6030827005;204520796;393820855;752;2050;1296760;16;6770;971233
1;63;1572319431840;1572319438906;7066;17791435754;34871345964;355746068;138300690;6031252403;204235395;393896308;1004;1888;1222368;8;7066;1044923
1;64;1572319438906;1572319447106;8200;17867479416;34872566115;356419083;143654449;6031503167;204408904;394050492;866;2051;1415904;-2;8200;1176306
1;65;1572319447106;1572319456323;9217;17745759946;34879785128;354156906;136359673;6033598709;204158067;394478559;1244;2478;1448216;-23;9217;1387885
1;66;1572319456323;1572319473214;16891;17950933016;34875461075;358753853;146170848;6032460169;204491208;394385838;1958;4168;2788312;5;16891;2425319
1;67;1572319473214;1572319479903;6689;17945175214;34872482910;355043325;142249405;6031452196;204327045;394034314;753;2000;1295344;15;6689;959220
1;68;1572319479903;1572319487345;7442;18005753680;34867952817;357406836;146923820;6030168672;204467196;394041270;957;2195;1345960;-12;7442;1089161
1;69;1572319487345;1572319495927;8582;17791378376;34871588384;354060159;138506631;6031195725;204442244;394111924;1033;2131;1497512;-2;8582;1237247
1;70;1572319495927;1572319505299;9372;17860019838;34866923131;353492745;139339875;6029760029;204325576;393791564;982;2707;1643648;11;9373;1346454
1;71;1572319505300;1572319519812;14512;17971919640;34866469030;358351892;147308785;6029671960;204540682;394177927;1860;4198;2684192;3;14512;1901997
1;72;1572319519812;1572319526514;6702;17936901394;34869364265;357897778;143867421;6030576579;204585478;393928197;722;1684;1153640;-18;6702;961473
1;73;1572319526514;1572319533096;6582;17806480470;34865167608;354686421;138819866;6029366695;204323562;393457328;710;2048;1218448;26;6582;945250
1;74;1572319533096;1572319541642;8546;17916149976;34871315327;355725906;144648843;6031100341;204501140;394138584;898;2603;1617912;1;8546;1228731
1;75;1572319541642;1572319550162;8520;17743100118;34870988864;352432607;136256913;6031127498;204209177;393990931;1078;2674;1621136;-4;8520;1245990
1;76;1572319550162;1572319566772;16610;17938423006;34875750268;355957684;144854080;6032501453;204328560;394246699;1816;4134;2961904;-15;16611;2266474
1;77;1572319566773;1572319573522;6749;17925339216;34869015099;355307308;142881006;6030600390;204519510;393813440;745;1959;1287552;-7;6749;969214
2;30;1572319952518;1572319961380;8862;16948366638;33793074447;357401517;134900873;5787010543;206498844;396133267;997;2570;1652208;-5;8862;1271256
2;31;1572319961380;1572319976039;14659;17010460000;33790607842;358594413;137793487;5786448735;206606047;396004146;1562;4365;2624720;9;14660;2020018
2;32;1572319976039;1572319983209;7170;17179518948;33798397538;359333474;147360119;5788101103;206684958;396508322;930;2044;1321792;-20;7170;1043280
2;33;1572319983209;1572319989513;6304;16987428062;33790395263;355470102;136976060;5786551586;206549098;396157033;719;1665;1139152;17;6304;904639
2;34;1572319989514;1572319997840;8326;17095384258;33785890841;357554092;143256950;5785470257;206640049;396007809;854;2312;1408824;-21;8327;1191257
2;35;1572319997841;1572320006699;8858;16971487636;33792514481;354781955;136320244;5786642921;206710789;396118430;935;2957;1698416;25;8859;1271699
2;36;1572320006700;1572320021080;14380;17149704872;33829046451;358297013;141446622;5786147489;206665357;395791482;1798;4150;2714304;-29;14381;1983125
2;37;1572320021081;1572320027766;6685;17313488402;33970571113;359886695;145478511;5788148743;206633733;396387946;704;1787;1106440;28;6685;954117
2;38;1572320027766;1572320034279;6513;17175794196;33971954049;354729826;138004393;5788814818;206425573;396332339;685;1881;1188168;-13;6513;936307
2;39;1572320034279;1572320042102;7823;17271940452;33963000751;358004678;143916429;5786033498;206661283;396080389;822;2429;1479192;12;7824;1122433
2;40;1572320042102;1572320050951;8849;17219127580;33962221956;357087897;137997332;5786174545;206551748;395959879;1127;2570;1654272;3;8848;1287322
2;41;1572320050951;1572320067209;16258;17327157506;33969096131;358852392;142741782;5787631341;206651536;396526893;1748;4328;2820992;-54;16259;2234114
2;42;1572320067210;1572320074200;6990;17336177970;33962972601;358513322;147461661;5786369760;206725708;396343512;774;2197;1336152;37;6991;966914
2;43;1572320074200;1572320081024;6824;17195707136;33963773178;353855911;138038512;5786561629;206635501;395772442;976;1820;1207352;-9;6823;1009003
2;44;1572320081024;1572320087983;6959;17397960644;33968785647;359099673;148284936;5787768083;206509798;396172441;731;1895;1181192;5;6960;996953
2;45;1572320087983;1572320096548;8565;17220572104;33969143771;357612384;138240051;5787625912;206544551;396134357;872;2666;1548080;-8;8565;1226817
2;46;1572320096548;1572320111923;15375;17168152118;33966104952;356455519;136807941;5786989109;206570505;396158962;1825;4572;2914808;-61;15375;2133526
2;47;1572320111923;1572320118852;6929;17339870602;33965944903;360788690;147000235;5786943519;206739927;396238831;807;1874;1146640;78;6928;938155
2;48;1572320118852;1572320125290;6438;17211411626;33962590692;357585363;138490365;5786166822;206690664;395948124;676;1857;1145432;-4;6439;923547
2;49;1572320125290;1572320132284;6994;17218476712;33961054945;356248909;140331549;5785844994;206638068;396008626;733;2125;1341144;3;6994;1002271
2;50;1572320132284;1572320140513;8229;17252069122;33966613735;358208636;141609044;5786994959;206611807;396100101;1100;2526;1524568;-11;8228;1221248
2;51;1572320140513;1572320149683;9170;17177788118;33957189804;357185427;136564747;5785045233;206678972;395754471;1021;2479;1672880;8;9171;1318348
2;52;1572320149683;1572320164662;14979;17350947914;33968656394;358580742;146839888;5787588254;206633749;396335393;1628;4403;2741960;17;14979;2094389
2;53;1572320164662;1572320171761;7099;17226880034;33966254248;356819851;139025701;5786860636;206631312;396338042;996;2116;1323192;-13;7099;1044294
2;54;1572320171761;1572320178684;6923;17344997538;33965815194;359875708;146778831;5786833890;206676457;396125955;790;1654;1173152;-14;6922;992915
2;55;1572320178684;1572320187153;8469;17163776498;33963504826;355618688;135925661;5786371894;206586591;395903409;878;2506;1499296;18;8469;1217740
2;56;1572320187153;1572320195465;8312;17240563008;33962875080;355997162;139241416;5786450541;206591705;395753148;883;2543;1585024;-19;8313;1189185
2;57;1572320195465;1572320210645;15180;17426698116;33965532437;360128047;148634503;5787078535;206639570;396222098;1870;4040;2720400;2;15180;2037293
2;58;1572320210645;1572320217199;6554;17311803708;33959756140;359132837;143582425;5785441807;206740210;395852351;673;1759;1122856;-1;6554;939891
2;59;1572320217199;1572320223643;6444;17255550492;33965402734;358030010;140000523;5786755132;206566277;395612930;685;2083;1231552;19;6444;924435
2;60;1572320223643;1572320231778;8135;17319380524;33964745820;357116634;145355836;5786710281;206627671;396022340;905;2566;1587512;-5;8135;1166870
2;61;1572320231778;1572320241210;9432;17147774168;33965873197;357746700;135420965;5786757389;206604464;396049577;1211;2610;1745432;-3;9432;1379990
2;62;1572320241210;1572320256108;14898;17333669398;33964685680;358537904;145684560;5786560850;206648176;396062461;1596;4168;2635680;0;14898;2036989
2;63;1572320256108;1572320263053;6945;17316407672;33965091354;357069799;141892948;5786862106;206561019;395908702;765;2100;1334552;8;6944;993644
2;64;1572320263053;1572320270204;7151;17402144566;33966315681;360105743;148648007;5786983287;206625280;396017637;986;1935;1237416;-2;7151;1045908
2;65;1572320270204;1572320278081;7877;17203045388;33971398167;356179809;137203161;5788189150;206517976;396448786;1016;1953;1245632;-7;7877;1188335
2;66;1572320278081;1572320297141;19060;17192913864;33967923269;357351522;136938583;5787562179;206526226;396303533;2256;4705;3097928;-48;19061;2673817
2;67;1572320297141;1572320304058;6917;17359012516;33966609798;359211212;147768786;5787012153;206654045;396128006;808;2213;1371752;43;6916;899669
2;68;1572320304058;1572320310730;6672;17240347658;33963267026;358160812;140073373;5786179125;206541218;395951485;903;2012;1190128;5;6673;992855
2;69;1572320310730;1572320317445;6715;17351467090;33966057593;358840465;146431037;5786737178;206695260;396180347;757;1790;1226752;11;6715;963010
2;70;1572320317445;1572320326990;9545;17174578308;33962831524;357198524;135867343;5785955978;206614674;395809718;1050;2582;1585352;-21;9545;1368199
2;71;1572320326990;1572320335893;8903;17300599814;33962535385;357801359;142718098;5786052641;206603260;396027667;947;2934;1669936;16;8903;1281497
2;72;1572320335893;1572320350135;14242;17353088128;33963616761;359656857;144721078;5786534757;206710200;396040611;1863;3525;2577520;-17;14242;1969400
2;73;1572320350136;1572320357062;6926;17280713738;33961358442;358149541;142158427;5785768854;206726088;395627501;737;1884;1235648;-2;6927;994865
2;74;1572320357062;1572320363693;6631;17225063356;33965354837;357324206;139679413;5786832488;206627065;395921723;708;2224;1244064;28;6631;952801
2;75;1572320363693;1572320371567;7874;17313973122;33965173899;357245177;144177749;5786782604;206687652;396260312;833;2472;1512472;-1;7874;1132082
2;76;1572320371567;1572320380140;8573;17180446486;33968128423;356485358;136309753;5787611624;206522255;396201975;1073;2639;1659320;-2;8573;1246511
2;77;1572320380140;1572320394729;14589;17334036442;33963178663;358935895;144896109;5786459871;206665790;395928981;1626;4009;2560928;-18;14589;2090464
2;78;1572320394730;1572320401236;6506;17283943112;33959589769;358267621;140981402;5785439737;206705645;395989243;715;2045;1246264;21;6507;934102
2;79;1572320401236;1572320408343;7107;17360645672;33961047455;359836692;143516235;5785881347;206656259;395937594;972;2152;1322976;-3;7107;1042369
3;31;1572320793429;1572320807899;14470;17623538820;34633451704;359057599;148382653;6026217647;201642226;395054286;1698;3214;2685984;11;14471;2100935
3;32;1572320807899;1572320815308;7409;17466579184;34643974992;355051656;139369094;6029088460;201392348;395291731;819;2233;1345904;13;7408;1063546
3;33;1572320815308;1572320822362;7054;17444280604;34634307149;352845845;138788350;6026473679;201413978;395172358;770;3247;1224248;1;7055;1011480
3;34;1572320822362;1572320829313;6951;17625046124;34627618836;359294461;148524389;6024524038;201772788;395030038;892;1951;1274912;-24;6951;1034284
3;35;1572320829314;1572320839089;9775;17387084958;34634873840;352552247;136470683;6026200563;201500084;395185255;1083;2648;1653240;8;9775;1404132
3;36;1572320839089;1572320852796;13707;17579485364;34670729756;358044441;147439949;6025558499;201762219;395078466;1472;3079;2719552;0;13708;1966650
3;37;1572320852796;1572320859859;7063;17561385014;34816687763;355013782;137007757;6029140728;201385923;395273669;925;2145;1295624;1;7062;1041460
3;38;1572320859859;1572320867842;7983;17628925782;34819482303;357540917;141099620;6030056101;201368156;395420285;929;3164;1219104;2;7983;1142379
3;39;1572320867842;1572320875017;7175;17668244604;34804739993;357207643;142867130;6025610197;201706786;395165762;726;2087;1307360;10;7176;1032336
3;40;1572320875018;1572320883342;8324;17508065522;34804854269;354689411;135388894;6025699902;201361245;394951875;864;2680;1562664;0;8324;1194278
3;41;1572320883342;1572320897650;14308;17708218820;34813705217;358977395;143978184;6028194338;201521487;395770558;1721;2900;2878288;-27;14308;2077190
3;42;1572320897650;1572320904890;7240;17676291686;34805604096;358838405;142083367;6025851662;201659569;395470356;843;2172;1255800;21;7240;1040652
3;43;1572320904890;1572320913252;8362;17573189114;34806395297;354072320;138008019;6026123746;201454719;395100591;927;3712;1475064;1;8363;1200048
3;44;1572320913253;1572320920417;7164;17712335436;34814438825;356714647;145851804;6028622061;201664939;395382343;964;2108;1312840;4;7164;1056738
3;45;1572320920417;1572320928183;7766;17513666812;34813900380;352161710;135729948;6028194305;201287037;395192049;898;1977;1365952;-2;7766;1114720
3;46;1572320928183;1572320943000;14817;17664282748;34810318497;356763244;142341885;6027316581;201500974;395323377;1615;4382;2719432;-36;14817;1845927
3;47;1572320943000;1572320949975;6975;17675572490;34809362203;359403745;143306880;6027056837;201781375;395267441;916;2509;1320048;20;6975;1003034
3;48;1572320949975;1572320957025;7050;17734626132;34804982969;359002537;146435250;6025708399;201681890;395221104;838;1749;1180752;-5;7050;1010047
3;49;1572320957025;1572320963642;6617;17622534048;34803138087;355608819;140875086;6025266388;201645022;395164104;710;2024;1187360;26;6617;948631
3;50;1572320963642;1572320971688;8046;17522130140;34810013287;354418367;136317968;6027288406;201348788;395150765;847;2490;1512064;-15;8046;1156738
3;51;1572320971688;1572320987207;15519;17763635602;34797619855;358096975;146489626;6023560582;201718188;394985687;1821;4006;2977840;10;15520;2318788
3;52;1572320987208;1572320993741;6533;17599152148;34813386483;356388256;138578179;6028149611;201331552;395141879;718;1153;1210112;-13;6534;938281
3;53;1572320993741;1572321002418;8677;17688782716;34809701241;357129399;143109850;6027105246;201470055;395403298;960;3386;1561880;0;8676;1245158
3;54;1572321002418;1572321009175;6757;17603520030;34808936383;354757359;138953504;6026934325;201509121;395059825;755;2399;1231304;14;6757;971149
3;55;1572321009175;1572321016504;7329;17696244192;34805976493;357121625;143635424;6026147036;201454774;394983538;1001;2316;1348768;6;7329;1081301
3;56;1572321016504;1572321032527;16023;17740423062;34805884296;360346887;144662082;6026061265;201590965;395020736;1755;3816;2823912;-27;16023;2304046
3;57;1572321032527;1572321039467;6940;17712128262;34810080255;358525780;145847729;6027249462;201601389;395245474;744;1653;1440464;24;6941;993668
3;58;1572321039468;1572321047065;7597;17587273296;34800370067;358039723;138661177;6024395212;201485194;394857078;1033;2843;1359944;-2;7597;1125489
3;59;1572321047065;1572321053665;6600;17638664712;34808908286;356666292;139551445;6026883895;201369182;395078423;778;1874;1054592;-7;6601;947395
3;60;1572321053665;1572321061993;8328;17747071318;34807993398;360632589;146330130;6026579282;201548115;395213537;882;2606;1525496;-18;8327;1190339
3;61;1572321061993;1572321070212;8219;17587023198;34808409293;355355943;137982107;6026694541;201373928;395023005;895;2588;1586072;1;8219;1177394
3;62;1572321070212;1572321084968;14756;17794336920;34807803736;359455553;148242639;6026591000;201651204;395205280;1897;2782;2831152;13;14756;2163264
3;63;1572321084968;1572321093087;8119;17551768432;34808895620;353730344;136420336;6026973416;201371511;395070101;885;3026;1426112;11;8120;1163445
3;64;1572321093088;1572321100214;7126;17715478086;34809877654;359324371;143938050;6027138034;201464231;395201090;1090;2146;878768;-7;7126;1105196
3;65;1572321100214;1572321109804;9590;17702258954;34817289388;358716976;143509015;6029331338;201431083;395529339;1128;2361;1480656;4;9590;1384578
3;66;1572321109804;1572321125117;15313;17695955112;34812806662;355882670;141369794;6028057139;201327016;395199548;1684;4056;3008936;-16;15313;2195199
3;67;1572321125117;1572321132209;7092;17858655176;34810084109;361532876;150038041;6027208828;201727098;395555074;1034;1282;1379616;5;7092;1058898
3;68;1572321132209;1572321140819;8610;17535740260;34805605155;357409939;135481083;6025971884;201347163;395076395;974;2446;1434768;-10;8611;1234214
3;69;1572321140819;1572321148988;8169;17789550894;34809256686;360381341;147600718;6027028987;201612615;395448740;915;3479;1422240;17;8168;1173058
3;70;1572321148988;1572321155672;6684;17756537082;34804499554;359148135;144793367;6025537315;201736682;395003853;727;2122;1296400;10;6684;959746
3;71;1572321155672;1572321163542;7870;17715525536;34804054363;357825677;141027701;6025432244;201343664;394999475;1145;2308;1470320;-6;7870;1196119
3;72;1572321163542;1572321179105;15563;17788165208;34806766530;361014727;147966010;6026211602;201704107;395266592;1713;3033;2869104;-17;15563;2239536
3;73;1572321179105;1572321186049;6944;17571283960;34802798451;357079544;136164279;6025154802;201451017;394704916;747;3291;1272456;22;6945;996964
3;74;1572321186050;1572321193720;7670;17726239454;34808737183;358800522;145529102;6026744280;201566380;395167351;1198;2072;1269936;-16;7670;1163430
3;75;1572321193720;1572321200990;7270;17701066718;34808432396;357748959;143874713;6026754490;201702872;395388877;759;1872;1219776;9;7270;1045727
3;76;1572321200990;1572321209797;8807;17565719170;34813256701;353724924;137103297;6028189770;201304742;395422712;924;2685;1601536;4;8807;1264189
3;77;1572321209797;1572321223947;14150;17800817130;34806338287;360671865;150143042;6026179286;201765077;395281948;1820;3055;2784848;6;14150;2079627
3;78;1572321223947;1572321232381;8434;17570978090;34801231642;354978308;136426646;6024649534;201515782;395245679;949;2150;1410680;-21;8435;1210542
3;79;1572321232381;1572321240158;7777;17720802560;34802837040;357468509;144297492;6025112450;201556117;395063952;838;3229;1318104;-5;7776;1115220
3;80;1572321240158;1572321246936;6778;17700516736;34819871779;356702259;144046253;6029957445;201632987;395411600;736;1966;1299760;0;6778;972363
4;30;1572321632937;1572321647848;14911;17545630592;34550543772;357595616;148160588;6027101921;202283908;394570114;1771;3972;2578112;0;14910;2002113
4;31;1572321647848;1572321654312;6464;17374127020;34546774473;353004729;138492328;6026124461;202188111;394161852;706;2027;1210568;-2;6464;930173
4;32;1572321654312;1572321661338;7026;17575406416;34557859080;356980168;146865747;6029261894;202179633;394883076;757;2136;1368200;-21;7027;1009732
4;33;1572321661338;1572321669405;8067;17410687756;34547703680;353723525;140108262;6026410314;202247292;394463950;1002;2366;1429888;7;8066;1189897
4;34;1572321669405;1572321679549;10144;17297575424;34540925574;352014495;135241766;6024420698;202063650;394128302;1109;2580;1754672;15;10145;1456498
4;35;1572321679550;1572321693480;13930;17547893884;34548335133;355138809;147069553;6026168891;202553472;394541928;1539;4154;2618816;-3;13931;1772380
4;36;1572321693481;1572321700329;6848;17445577522;34584221064;353399834;140678603;6025410179;202321482;394261080;1007;1883;1202880;4;6848;1009579
4;37;1572321700329;1572321707455;7126;17810578106;34730031389;358291461;149460101;6029063631;202255682;395059241;735;1896;1175128;1;7126;1020425
4;38;1572321707455;1572321715667;8212;17524542352;34733204291;351568436;137141684;6030152571;202028734;394799548;849;2509;1524056;-17;8213;1181433
4;39;1572321715667;1572321723876;8209;17524843404;34718292852;354126531;137264121;6025631568;202175533;394546326;856;2564;1592312;8;8208;1177546
4;40;1572321723876;1572321738194;14318;17712344050;34718454509;356781133;146174949;6025742450;202401104;394666887;1758;4178;2631920;11;14319;2003636
4;41;1572321738195;1572321745184;6989;17748630306;34727080955;358193984;145756275;6028135512;202410215;395055144;754;1881;1211640;-5;6989;1005116
4;42;1572321745184;1572321752140;6956;17757842322;34719151963;359046675;144643975;6025865949;202190484;394816406;743;2148;1332320;-7;6956;997895
4;43;1572321752140;1572321760330;8190;17751556000;34720143387;356297134;145509538;6026234553;202463247;394462828;1167;2346;1508000;-7;8190;1220822
4;44;1572321760330;1572321769482;9152;17529578476;34727808225;355080004;136528314;6028563962;201974658;394605311;1025;2493;1691912;-1;9153;1309046
4;45;1572321769483;1572321783370;13887;17578436208;34727162345;353005220;138984968;6028080935;202163560;394705139;1469;3894;2477936;3;13887;1990994
4;46;1572321783370;1572321790731;7361;17772851560;34723884612;357199958;148780403;6027363023;202366910;394874946;969;2086;1331232;-5;7361;1078855
4;47;1572321790731;1572321797264;6533;17621615124;34723023562;354874276;139656074;6027133601;202244622;394547485;756;1817;1172808;12;6533;935853
4;48;1572321797264;1572321806512;9248;17640506356;34718527756;356553059;140989419;6025761088;202197505;394536777;985;2582;1621016;-19;9249;1326158
4;49;1572321806513;1572321814845;8332;17704107314;34716388239;355800054;144516253;6025135111;202382332;394449018;884;2739;1593520;12;8333;1198488
4;50;1572321814845;1572321830293;15448;17653129662;34723638790;356703759;143357792;6027346179;202241557;394668181;1971;4280;2830208;0;15448;2043117
4;51;1572321830293;1572321837029;6736;17637128354;34711042988;354206677;142053378;6023516621;202453493;394308335;737;1867;1130312;-2;6736;966318
4;52;1572321837030;1572321844107;7077;17693747884;34726925397;357206728;146715054;6028189068;202361896;394899312;757;2126;1331368;11;7077;1015536
4;53;1572321844107;1572321851127;7020;17542416694;34723050397;354235693;137271269;6027025140;202185823;394620824;977;2078;1278888;-13;7020;1045086
4;54;1572321851127;1572321859688;8561;17571155772;34722438771;354578804;138587433;6026932632;202103762;394568517;964;2375;1580584;-4;8561;1225169
4;55;1572321859688;1572321874520;14832;17590246002;34719589585;355334670;140775199;6026185838;202274854;394371561;1573;4146;2650280;-5;14832;2129770
4;56;1572321874520;1572321881683;7163;17730178534;34719479123;358652683;147364366;6026094650;202484862;394393744;806;2152;1371296;162;7164;1068116
4;57;1572321881684;1572321888128;6444;17511380014;34723527675;353363661;136218550;6027220566;202042411;394504080;997;1775;1125152;-154;6445;987183
4;58;1572321888128;1572321896551;8423;17591448458;34713936580;353783618;140780585;6024422038;202249226;394414955;904;2354;1437520;-8;8422;1207451
4;59;1572321896551;1572321905316;8765;17569565248;34722261856;352520294;138303504;6026800419;202172027;394249037;921;2760;1641296;7;8765;1260029
4;60;1572321905316;1572321921121;15805;17627536738;34721533635;355986777;141252977;6026611333;202093587;394464483;2033;4348;2895856;-10;15806;2111224
4;61;1572321921122;1572321928304;7182;17780682416;34721974623;358923486;147331475;6026715777;202495009;394619792;780;1875;1214568;19;7182;1023611
4;62;1572321928304;1572321935351;7047;17716313644;34721190087;356174258;146000090;6026533420;202331707;394473362;770;2133;1347504;-2;7047;1011653
4;63;1572321935351;1572321941913;6562;17638389940;34722465779;354668429;140983961;6027000822;202214844;394412029;968;1676;1039864;11;6562;1031456
4;64;1572321941913;1572321953379;11466;17575768934;34723445213;355032117;137465075;6027168892;202089696;394450603;1414;2762;1802560;-6;11467;1653094
4;65;1572321953380;1572321968167;14787;17722221242;34730890269;357303469;144260264;6029372946;202157132;395002397;1596;4422;2702280;11;14787;2020565
4;66;1572321968167;1572321975187;7020;17721393568;34726207773;358748251;145202655;6028000440;202368042;394706459;1064;1789;1185496;-3;7020;1048501
4;67;1572321975187;1572321982151;6964;17701518004;34723782131;357934372;143800808;6027354438;202141240;394686761;724;1796;1160464;-20;6965;1000579
4;68;1572321982151;1572321990215;8064;17657331542;34718996627;356544679;142351308;6025912653;202244963;394553931;842;2405;1451584;-7;8064;1156119
4;69;1572321990216;1572321999003;8787;17533866496;34722534058;354307797;136967189;6026922754;202098879;394568669;965;2705;1710112;29;8787;1263638
4;70;1572321999003;1572322014562;15559;17721986474;34718189063;355462126;145251992;6025635286;202428867;394507235;1972;4330;2851256;-9;15560;2145831
4;71;1572322014563;1572322021637;7074;17716018578;34717744076;358069813;146114733;6025530073;202441371;394551452;767;1964;1253352;1;7074;1014579
4;72;1572322021637;1572322028170;6533;17589829756;34720183004;353610780;138559136;6026173758;202160804;394428358;692;1948;1239552;-20;6533;935715
4;73;1572322028170;1572322035242;7072;17839075554;34716188383;359347122;150109418;6025113580;202557513;394351214;985;2085;1295808;3;7072;1066940
4;74;1572322035242;1572322044560;9318;17536859642;34722146518;351659715;136452094;6026685749;202116375;394416583;1045;2408;1647776;11;9318;1337317
4;75;1572322044560;1572322060440;15880;17648448318;34722022798;354304574;141711767;6026808406;202277781;394655718;1731;4603;2908568;-15;15880;2066861
4;76;1572322060440;1572322067698;7258;17756455614;34726600221;357829010;146962677;6028111425;202386282;394890381;1063;2020;1272128;29;7258;1066729
4;77;1572322067698;1572322074174;6476;17560530184;34719711054;353586097;137634568;6026113189;202115548;394328670;681;1713;1078312;-9;6476;929594
4;78;1572322074174;1572322081582;7408;17762558852;34714569411;358217950;147947936;6024561629;202430110;394718329;793;2230;1376712;7;7408;1061854
4;79;1572322081582;1572322089722;8140;17552138104;34716338066;354829533;137124708;6025103996;202135033;394350837;896;2595;1570240;0;8141;1167849
