0;17;1572330684135;1572330691345;7210;10244578516;13847740825;103924964;10819727;2215173692;218162219;164782144;1278;4614;844904;9;7210;1031991
0;18;1572330691345;1572330700829;9484;10275064338;13847720711;104099882;11550489;2215168327;218192966;164152350;1269;9897;1541472;-11;9484;1351665
0;19;1572330700829;1572330709559;8730;10277944480;13847753676;105565425;11836403;2215176388;218567525;164942225;1203;10631;1644720;13;8730;1243610
0;20;1572330709559;1572330718498;8939;10265599888;13847672048;102840100;10924148;2215155475;218003718;165119849;1525;10261;1678128;-5;8939;1392654
0;21;1572330718498;1572330730481;11983;10178873990;13847770876;104483267;8898596;2215190811;218114334;164864714;2302;9374;1407536;137;11984;1760820
0;22;1572330730482;1572330740683;10201;10263305936;13847899660;101733611;10702130;2215215459;218056135;164659857;1536;9027;1461616;-123;10201;1508399
0;23;1572330740683;1572330753701;13018;10206267240;13847751853;100251324;9664660;2215184192;217560291;164618261;2208;10245;1701144;-31;13018;1876254
0;24;1572330753701;1572330762211;8510;10184166344;13847716024;101342813;8835525;2215173980;218104332;164065092;1203;10079;1549704;183;8510;1215185
0;25;1572330762211;1572330776855;14644;10269994780;13847064698;105719260;11547901;2215072652;218783431;164710066;2785;13488;2306952;-153;14644;2076123
0;26;1572330776855;1572330785375;8520;10281741648;13846846054;102052820;11587340;2215028388;218408517;164090351;1284;5936;1122288;-4;8520;1213285
0;27;1572330785375;1572330796900;11525;10259233996;13846798587;102466163;10410554;2215011682;218248752;164904695;1866;10229;1678112;-15;11526;1710029
0;28;1572330796901;1572330806914;10013;10227015154;13846699007;102579054;9507286;2214991986;218169438;164034407;1673;9566;1568384;-7;10013;1434715
0;29;1572330806914;1572330818674;11760;10160685748;13846694055;101433082;7376337;2214992196;217752918;164505961;1776;10126;1557832;16;11760;1674494
0;30;1572330818674;1572330826486;7812;10232815296;13846700432;102196704;10361700;2214992587;218225173;163775239;1470;9872;1128128;5;7812;1200890
0;31;1572330826486;1572330836419;9933;10192697270;13846707750;102690934;9343571;2214994748;217291722;164307032;1587;9442;1611944;-18;9934;1418377
0;32;1572330836420;1572330848741;12321;10260064006;13846795603;105315446;10702482;2215023959;218114259;163882031;1900;10158;1627832;20;12322;1762394
0;33;1572330848742;1572330859845;11103;10224742518;13846728505;104584957;8944295;2215004759;218057013;164289803;1795;10427;1676576;-10;11103;1666682
0;34;1572330859845;1572330868883;9038;10231501296;13846760991;102485909;9918842;2215012698;218229581;163741731;1644;9345;1281760;-9;9038;1290770
0;35;1572330868883;1572330880714;11831;10251281960;13846767839;103152467;10907530;2215017173;217990077;164746273;1743;10211;1592952;17;11831;1696684
0;36;1572330880714;1572330891277;10563;10271606328;13846699113;104229423;11594735;2214991757;218057467;164030914;1856;11692;1709952;-2;10564;1579474
0;37;1572330891278;1572330900798;9520;10288210616;13846691596;104301749;11762101;2214991972;218117497;164076972;1580;7473;1434760;-11;9520;1358023
0;38;1572330900798;1572330913217;12419;10206704802;13846694365;101407250;9455389;2214990618;217514108;163949088;1884;10762;1629392;4;12419;1779184
0;39;1572330913217;1572330921852;8635;10244358786;13846695306;104558251;10854978;2214992887;218459973;164005896;1666;9014;1216848;-9;8635;1317024
0;40;1572330921852;1572330931735;9883;10237525694;13846805312;103494943;10640146;2215026901;218138419;163568246;1642;9471;1559600;22;9883;1406020
0;41;1572330931735;1572330944189;12454;10269798994;13846814052;106229044;11219240;2215032535;218171780;164171757;1933;9965;1647488;-11;12454;1784631
0;42;1572330944189;1572330955059;10870;10208307298;13846722915;104176333;8697029;2214999821;217751383;163803582;1777;10519;1648584;12;10870;1614569
0;43;1572330955059;1572330963576;8517;10278059674;13846747025;106885154;11460047;2215010547;218335074;164566412;1739;8924;1061512;-9;8517;1213821
0;44;1572330963576;1572330975448;11872;10259031202;13846780056;105097738;10980603;2215019471;218000869;163695787;1680;10087;1630600;-16;11873;1690457
0;45;1572330975449;1572330987215;11766;10276420678;13846719153;104445978;11506152;2215000758;218183913;164256210;2057;12244;1907496;3;11766;1772383
0;46;1572330987215;1572330997307;10092;10267573516;13846817448;102759524;11529592;2215031304;218159602;163562095;1904;7240;1350456;17;10093;1442692
0;47;1572330997307;1572331008124;10817;10238428558;13846809239;103274707;10345481;2215031520;218255286;164066257;1556;10975;1465312;-20;10816;1542542
0;48;1572331008124;1572331017727;9603;10217636406;13846709581;101020168;10135217;2214995428;217594364;163715251;1831;9303;1526016;-5;9603;1497982
0;49;1572331017727;1572331028096;10369;10241320672;13846787537;103896183;11008667;2215024142;218042993;164610789;1767;8841;1508088;27;10369;1481829
0;50;1572331028096;1572331040413;12317;10242677158;13846740608;103932921;10725454;2215005882;217982433;164312277;1841;10283;1632016;-17;12317;1762973
0;51;1572331040413;1572331054192;13779;10206898398;13846694500;103050613;9252088;2214992295;217932178;164497668;2404;12114;1668840;9;13779;2267975
0;52;1572331054192;1572331064075;9883;10250162286;13846697538;103273469;10614986;2214991593;218437381;163551345;1856;6924;1172184;1;9883;1411363
0;53;1572331064075;1572331074737;10662;10217562238;13846720624;102554342;9902249;2215001265;218067499;163934675;1524;9735;1515264;-19;10662;1518780
0;54;1572331074737;1572331083979;9242;10266924838;13847015990;103215362;11126017;2215104138;218157501;164312244;1664;10405;1635632;26;9242;1442720
0;55;1572331083979;1572331096820;12841;10186384960;13846812559;99971645;8667810;2215032277;217379083;164030187;2369;8902;1545024;-27;12841;1839074
0;56;1572331096820;1572331106295;9475;10231091912;13846705838;102008080;9978161;2214993929;218181524;163880887;1400;10053;1257832;8;9475;1354426
0;57;1572331106295;1572331116676;10381;10206730790;13846792645;104067872;9291479;2215025409;218252989;164389804;1803;10273;1692336;-5;10381;1587372
0;58;1572331116676;1572331128672;11996;10254123558;13846732264;104971126;11199596;2215003141;218206397;164273319;2193;8980;1441976;16;11996;1711647
0;59;1572331128672;1572331139989;11317;10205831722;13846693530;104793817;8907361;2214992202;217820924;164444223;2032;10069;1592512;-2;11318;1737249
0;60;1572331139990;1572331148773;8783;10249693626;13846750545;102439065;10972426;2215009095;218475644;163855409;1589;10194;1382760;12;8783;1251641
0;61;1572331148773;1572331161046;12273;10227603534;13846779647;103535227;10100581;2215021529;218025990;164334840;1919;9870;1601696;1;12273;1750211
0;62;1572331161046;1572331171780;10734;10175746816;13846726023;99005516;8729153;2214999906;217371061;163330899;1886;9978;1538520;-2;10734;1618574
0;63;1572331171780;1572331182038;10258;10235928308;13846816861;103918749;10099126;2215033134;218011799;164159706;1688;9014;1638568;-20;10258;1469171
0;64;1572331182038;1572331193618;11580;10238589742;13846812088;104149261;10342903;2215030395;218225858;163859655;1923;10932;1441960;-2;11580;1656343
0;65;1572331193618;1572331203321;9703;10260779990;13846712760;105224925;11348966;2214998549;218119641;164641039;1858;9164;1442472;7;9703;1505551
0;66;1572331203321;1572331213718;10397;10259696670;13846790803;102290198;11444517;2215022623;218333296;164551577;1730;9570;1682824;-2;10398;1483547
1;17;1572331509783;1572331521017;11234;10238802902;13847653510;120678094;9221756;2215177555;218255629;162894225;1553;10513;1690120;155;11233;1607296
1;18;1572331521017;1572331529608;8591;10202576652;13847682195;116441413;8540833;2215180238;216843260;162424786;1542;9633;1573816;-153;8591;1303536
1;19;1572331529608;1572331539769;10161;10261028336;13847561217;120334483;10293299;2215150807;218016101;162591303;1993;9678;1144952;23;10162;1453230
1;20;1572331539769;1572331550838;11069;10256018200;13847584882;120552162;9885054;2215156596;217896862;162497868;1511;10077;1599208;-6;11068;1578620
1;21;1572331550838;1572331560898;10060;10273833850;13847678626;124294632;10369435;2215190533;218017950;162570529;1828;10548;1679192;-10;10061;1514900
1;22;1572331560898;1572331573642;12744;10261186746;13847708333;123894054;10056835;2215179474;217777106;163111570;2243;9153;1498960;4;12743;1820499
1;23;1572331573642;1572331585166;11524;10289753398;13847561441;124994222;11282777;2215150976;218437317;162626792;1977;10418;1564384;8;11524;1722190
1;24;1572331585166;1572331594893;9727;10281984738;13847659141;123886220;11327946;2215171718;218150664;162164198;1562;8812;1566384;-26;9727;1391912
1;25;1572331594893;1572331607877;12984;10244097446;13846942224;119308923;9804216;2215046783;217463171;161746467;2278;10449;1643056;15;12985;1986481
1;26;1572331607877;1572331620753;12876;10186400874;13846789057;119044745;8078131;2215025411;217279658;161619172;2227;9284;1616352;-16;12875;1837086
1;27;1572331620753;1572331629625;8872;10222203432;13846832206;121614668;8673704;2215039128;218130408;162214190;1370;13413;1506072;7;8872;1260508
1;28;1572331629625;1572331637591;7966;10253115720;13846649453;120597346;10215197;2214991779;218137638;162024237;1418;6567;1363584;-5;7966;1212673
1;29;1572331637591;1572331649965;12374;10301611372;13846658262;123445579;11640441;2214996762;218142606;163095561;2191;9511;1526888;18;12375;1770762
1;30;1572331649965;1572331660886;10921;10264276982;13846766889;120635438;10443378;2215031313;218120674;161944698;1505;10153;1616088;-2;10920;1561098
1;31;1572331660886;1572331670231;9345;10231971124;13846663628;124074119;9111153;2214997676;217746243;162360488;1698;9878;1575920;12;9346;1400275
1;32;1572331670232;1572331680229;9997;10243603966;13846662094;121948233;10182214;2214993806;217989081;161693128;1798;8991;1148248;-6;9997;1430021
1;33;1572331680229;1572331691041;10812;10235320072;13846845222;122621638;9879861;2215054936;217316166;162621430;1518;9928;1562992;-15;10813;1539448
1;34;1572331691041;1572331700511;9470;10238470022;13846705385;119723174;9480084;2215010742;218225604;162310736;1637;10370;1665008;2;9470;1409489
1;35;1572331700511;1572331712754;12243;10218349178;13846646234;119858310;8611675;2214993195;218148972;162162470;2229;9225;1496272;12;12242;1749045
1;36;1572331712754;1572331722905;10151;10271697432;13846681867;122001691;10684339;2215002290;218113726;162288350;1505;11227;1441040;-1;10152;1444014
1;37;1572331722905;1572331731779;8874;10298864090;13846667767;125430572;11479983;2214999633;217975214;162415688;1530;9246;1522304;-5;8874;1348185
1;38;1572331731780;1572331745101;13321;10287943144;13846644537;126831122;10827085;2214991195;218025737;162567786;2386;9358;1634456;-17;13321;1899793
1;39;1572331745101;1572331755861;10760;10246662228;13846652737;126215432;9556841;2214994367;217831984;163107979;1848;9560;1525744;14;10761;1591392
1;40;1572331755861;1572331764801;8940;10237384366;13846647361;121165184;9107302;2214991429;218119195;161993664;1451;10167;1466280;-6;8940;1278565
1;41;1572331764801;1572331775687;10886;10229411744;13846649446;121332254;9108422;2214993674;218249520;161904995;1885;8603;1338816;4;10885;1549142
1;42;1572331775687;1572331793645;17958;10250261712;13846717564;122081832;9697042;2215014719;217987109;162351035;2909;16299;2900624;3;17958;2685339
1;43;1572331793645;1572331809405;15760;10262316786;13846716808;123625646;10768400;2215016759;218700236;161921398;2598;10909;2122648;-15;15761;2130817
1;44;1572331809405;1572331816318;6913;10290931326;13846649458;123810433;11756287;2214992525;218773465;162370577;1004;6061;964064;21;6912;980823
1;45;1572331816318;1572331824996;8678;10239378580;13846652079;118756133;9359162;2214994094;218374766;162167594;1691;7414;1378224;-8;8679;1426949
1;46;1572331824997;1572331840771;15774;10240261880;13846650048;117704439;9545959;2214992102;218273301;162307517;2590;12901;2055872;4;15775;2252449
1;47;1572331840772;1572331847849;7077;10195215624;13846642580;118912462;8607816;2214992067;217670836;162370745;1000;5599;1089376;-8;7077;1013113
1;48;1572331847849;1572331857387;9538;10244190886;13846649516;122646842;9590717;2214992184;218249237;162799890;1957;13015;1505264;13;9539;1486821
1;49;1572331857387;1572331874392;17005;10242803010;13846649772;123986012;9527410;2214993712;218105854;162014684;2662;11170;2344792;-2;17005;2440518
1;50;1572331874392;1572331881238;6846;10318248802;13846649407;123215007;12302717;2214992032;218483806;161980065;974;5847;1015824;-7;6845;970439
1;51;1572331881238;1572331891229;9991;10259143184;13846652001;124657458;9672960;2214994626;218251477;162086455;1953;10218;1643464;4;9992;1544996
1;52;1572331891229;1572331903782;12553;10243706458;13846649252;124016805;8969045;2214991500;217741583;162223875;2228;10108;1538360;12;12553;1797239
1;53;1572331903782;1572331912074;8292;10287991324;13846677053;126116697;11229896;2215002608;218572070;162270137;1218;9166;1191976;-2;8292;1182225
1;54;1572331912074;1572331921186;9112;10274239292;13846759319;122286979;10569554;2215028833;218457915;162144392;1558;10539;1605816;-23;9111;1404775
1;55;1572331921186;1572331945623;24437;10279253808;13846650284;120896645;11812135;2214994285;218560053;162212936;4102;15754;3382040;25;24437;3431389
1;56;1572331945623;1572331952580;6957;10281209624;13846764155;119483255;11395017;2215030560;218682561;162081171;1483;3758;796272;4;6958;1089866
1;57;1572331952580;1572331965714;13134;10264951356;13846669428;121039951;10335329;2215000032;217837909;162339091;1980;9807;1593328;-30;13134;1882882
1;58;1572331965715;1572331976568;10853;10282916656;13846736837;120861937;11216255;2215020651;218069988;162312729;1539;9937;1564272;1;10854;1552336
1;59;1572331976568;1572331992629;16061;10279311186;13846699059;120409841;11240765;2215010402;218378996;162116293;2544;16687;2870400;13;16060;2281849
1;60;1572331992629;1572331999481;6852;10304393840;13846650888;120245517;12268011;2214992437;218605982;162149502;1256;4434;790336;-2;6853;975431
1;61;1572331999481;1572332009450;9969;10292188532;13846648324;121504603;11652207;2214993689;218164321;162797847;1420;7903;1378096;-11;9969;1421726
1;62;1572332009450;1572332021160;11710;10245581682;13846657723;119151793;10508656;2214993492;217416485;162364159;2134;11460;1713144;-2;11710;1772183
1;63;1572332021160;1572332031055;9895;10249139848;13846656898;122532415;10750357;2214995543;217253458;162213096;1559;8345;1545832;10;9895;1413137
1;64;1572332031055;1572332043177;12122;10228372224;13846763882;123029990;8860693;2215030393;217861433;161904144;1890;10490;1589936;-3;12121;1734142
1;65;1572332043177;1572332050796;7619;10287496968;13846662523;123769992;11451371;2214998344;218345076;162333187;1530;8536;1069256;5;7620;1215095
1;66;1572332050797;1572332061029;10232;10291037760;13846650121;122846330;11555508;2214992384;218308223;162258888;1614;9915;1707256;-14;10232;1459373
2;17;1572332366534;1572332376002;9468;10269289308;13848048953;108509378;10772922;2215261185;218165812;163365814;1733;12185;1451264;-5;9469;1420796
2;18;1572332376002;1572332387800;11798;10234614162;13847672517;110330731;9417926;2215137024;218163017;164099517;2117;8217;1478376;-3;11798;1688617
2;19;1572332387800;1572332398518;10718;10250607732;13847679659;110290135;10305649;2215138668;218203728;163621744;1504;9773;1601720;0;10717;1530352
2;20;1572332398518;1572332408483;9965;10275772584;13847676016;109276686;10387640;2215137314;218088335;163767941;1742;10542;1678552;0;9966;1495857
2;21;1572332408483;1572332419201;10718;10303429656;13847683726;112722574;11715712;2215139579;217886794;163770103;2071;9541;1274096;20;10717;1535082
2;22;1572332419201;1572332430130;10929;10295097874;13847869089;112258524;11351951;2215179225;217956411;163896996;1540;10378;1579400;-5;10929;1557036
2;23;1572332430130;1572332439854;9724;10247419530;13847677873;107340321;10358064;2215137940;217678880;163304860;1739;10839;1700000;-8;9725;1455080
2;24;1572332439854;1572332452189;12335;10223572036;13847713758;107732322;9889036;2215152998;217950788;164008699;2318;7236;1519376;8;12334;1844322
2;25;1572332452189;1572332464219;12030;10227113266;13847093972;106395475;9397223;2215059226;218090910;164306868;2009;11509;1594104;8;12031;1716640
2;26;1572332464219;1572332472631;8412;10225653412;13846865133;106774629;9278791;2215015545;218467238;163497849;1213;8242;1369512;2;8412;1196047
2;27;1572332472631;1572332481206;8575;10243692442;13846827869;108257608;9678858;2214999592;218375752;164260014;1515;9420;1430792;-10;8574;1284302
2;28;1572332481206;1572332491068;9862;10271707506;13846724595;108423312;10385833;2214980816;218257490;163641522;1588;9627;1632016;12;9863;1407424
2;29;1572332491068;1572332503076;12008;10236102778;13846735134;109127641;9683378;2214984352;217972540;164356275;1958;9969;1588872;-6;12008;1716117
2;30;1572332503076;1572332512183;9107;10274231846;13846835615;108920324;11147209;2215019036;218253287;163373814;1729;10827;1214488;-13;9107;1380062
2;31;1572332512183;1572332522696;10513;10242721250;13846740101;109022493;10124287;2214985801;218290833;164237359;1768;9599;1681864;-7;10513;1504538
2;32;1572332522696;1572332534760;12064;10232426060;13846734923;109715045;9735472;2214982523;218002797;163290712;1905;10266;1593712;15;12063;1723893
2;33;1572332534760;1572332545159;10399;10232114496;13846812956;109375098;9924830;2215009938;217895306;164029377;1743;10068;1583040;8;10400;1593339
2;34;1572332545160;1572332554550;9390;10207334938;13846842418;105283915;8914275;2215019987;217513916;163427291;1705;9212;1429128;-9;9391;1348869
2;35;1572332554551;1572332565297;10746;10264167628;13846795700;109124629;10896328;2215004565;218159555;163550187;1562;9427;1431784;6;10746;1528978
2;36;1572332565297;1572332576317;11020;10257079766;13846753971;111539459;10262750;2214990572;218152567;163887693;1877;10428;1635840;-5;11021;1642664
2;37;1572332576318;1572332586291;9973;10269163310;13846822158;107963647;11358857;2215013782;218266216;163657862;1646;9282;1583344;-13;9973;1426213
2;38;1572332586291;1572332598849;12558;10215515318;13846727496;108665323;8523521;2214981309;217896304;163750096;1944;10093;1617576;8;12558;1793756
2;39;1572332598849;1572332607933;9084;10278926768;13846840114;108357381;11149587;2215020154;218549552;164058886;1669;10446;1232952;19;9084;1365586
2;40;1572332607933;1572332618753;10820;10268391408;13846738264;110240199;10345534;2214985693;218199676;164324037;1934;8787;1471080;-14;10821;1548675
2;41;1572332618753;1572332630280;11527;10231383474;13846816562;107240699;10007097;2215011344;217401100;163578264;1651;10107;1631264;13;11527;1650042
2;42;1572332630280;1572332640560;10280;10273053188;13846841268;109589308;10440625;2215019976;218088954;164298295;1750;10539;1709592;-12;10279;1548998
2;43;1572332640560;1572332650443;9883;10272069148;13846846420;110594767;11040000;2215021275;217979066;164045258;1877;9860;1219216;11;9884;1413703
2;44;1572332650443;1572332661730;11287;10267691192;13846841685;110241273;10590747;2215020025;217941810;163864781;1567;9872;1576624;1;11286;1611779
2;45;1572332661730;1572332672749;11019;10242537436;13846845419;109338391;9613112;2215020925;218047733;163833659;1937;11168;1736512;-25;11019;1683579
2;46;1572332672749;1572332691924;19175;10244559244;13846841971;109009917;9647022;2215020328;218150270;163842237;3039;14175;2646432;1;19175;2743803
2;47;1572332691924;1572332703393;11469;10289726242;13846840529;109523356;12049780;2215020258;218478697;163128227;2065;8070;1795640;22;11470;1721250
2;48;1572332703394;1572332710467;7073;10272885872;13846843320;112876327;11308176;2215020989;218502420;164128960;1418;4255;832680;-10;7073;1012476
2;49;1572332710467;1572332721785;11318;10244855916;13846747771;109904421;10163915;2214988824;218183501;164356145;1544;10084;1602560;-6;11319;1612490
2;50;1572332721785;1572332730859;9074;10220543850;13846721496;109465063;9020224;2214980250;218024143;164476951;1626;10219;1552928;16;9073;1399408
2;51;1572332730859;1572332739664;8805;10245801412;13846785862;111235984;10097978;2215001489;218199016;164234292;1563;10291;1473336;-26;8806;1269955
2;52;1572332739665;1572332751573;11908;10234793742;13846793048;111648527;9663811;2215004458;217985563;164088705;1795;10673;1578480;29;11909;1695856
2;53;1572332751573;1572332763923;12350;10224357078;13846725469;109411715;10128995;2214980968;218022177;163702310;2144;8542;1471376;-8;12350;1999629
2;54;1572332763924;1572332776428;12504;10231811838;13846735640;110903784;9191288;2214984918;218045540;163747232;2165;9750;1668976;4;12505;1784592
2;55;1572332776428;1572332787349;10921;10215391218;13846847166;105485116;9196018;2215021609;217349178;163335234;1870;10488;1416712;-18;10921;1609331
2;56;1572332787349;1572332795765;8416;10290553040;13846844238;109356583;11670833;2215020853;218416526;163642629;1458;8853;1327432;22;8416;1201610
2;57;1572332795765;1572332808576;12811;10266622180;13846844726;108998145;11215228;2215020839;218143705;163879205;1965;10007;1674496;-12;12811;1833765
2;58;1572332808576;1572332818793;10217;10264897044;13846838120;109059104;11069786;2215019329;217945832;163754929;1814;9250;1490016;1;10217;1514913
2;59;1572332818793;1572332829351;10558;10240745432;13846775369;107468856;9227173;2214997579;217895914;163375381;1717;10449;1741792;-12;10557;1511813
2;60;1572332829351;1572332839489;10138;10228706126;13846723494;108383215;9313413;2214980665;218288737;164324152;1724;8984;1224312;4;10139;1449050
2;61;1572332839489;1572332850315;10826;10231997404;13846724251;108014306;9370750;2214981059;218200960;164124972;1856;9610;1435152;3;10825;1659304
2;62;1572332850315;1572332860777;10462;10209334262;13846753459;105616478;8942858;2214989631;217156339;163211761;1676;10073;1734272;-11;10463;1492024
2;63;1572332860777;1572332873202;12425;10229685056;13846834296;109230790;9088198;2215017920;218120245;164416362;1942;9927;1621136;11;12424;1779703
2;64;1572332873202;1572332883912;10710;10274418726;13846715282;110633651;11781402;2214979267;218300625;164411146;1958;11511;1476896;-13;10711;1591862
2;65;1572332883912;1572332894584;10672;10277874108;13846726629;110685867;11744340;2214981541;218190899;163537584;1924;8665;1498576;28;10671;1533810
2;66;1572332894584;1572332906521;11937;10297527606;13846822728;112498870;11370217;2215013214;218126223;164564096;1687;9841;1627344;-24;11938;1704738
3;17;1572333202866;1572333213651;10785;10195391554;13847719609;110267121;9450437;2215145305;217063143;163261154;1476;10789;1486920;-4;10785;1535233
3;18;1572333213651;1572333222879;9228;10190148256;13847776887;111733925;9366244;2215164218;217807515;163955366;1629;9859;1554752;22;9228;1387835
3;19;1572333222879;1572333235410;12531;10169549846;13847752238;112533767;8225315;2215165128;217600159;164166457;2248;8796;1544512;-6;12531;1792916
3;20;1572333235410;1572333246566;11156;10176896712;13847696546;114807858;8495021;2215145517;217626187;164439702;1559;10113;1628688;-22;11156;1588699
3;21;1572333246566;1572333255971;9405;10158504216;13847793323;113157552;7769135;2215177793;217452402;163599831;1849;10694;1498016;12;9405;1450787
3;22;1572333255971;1572333265651;9680;10204386322;13848087207;115209363;9717866;2215233607;218154075;164071819;1684;8522;1126992;-12;9680;1385292
3;23;1572333265651;1572333276939;11288;10209720870;13847013588;113126394;9097070;2215034032;217481989;163021140;1529;8894;1650032;15;11288;1614875
3;24;1572333276939;1572333286210;9271;10178245460;13846797807;111902430;8768034;2214994570;217078043;163960960;1615;10990;1626080;-7;9271;1389103
3;25;1572333286210;1572333299233;13023;10163847524;13846879573;112393422;7551246;2215021386;217621999;163756746;2456;9527;1575840;13;13023;1917524
3;26;1572333299233;1572333316078;16845;10206030282;13846860118;116021237;9704450;2215015249;217754771;163849101;2323;15644;2714424;-14;16845;2408748
3;27;1572333316078;1572333323026;6948;10209933300;13846823792;112339230;9963908;2215000004;218156514;163184083;1410;7519;1150576;7;6948;1065358
3;28;1572333323026;1572333333684;10658;10216545640;13846747568;113633204;9405791;2214990261;217743945;164095906;1851;6817;1397048;12;10658;1521092
3;29;1572333333684;1572333345272;11588;10245474372;13846840305;113409906;10142402;2215020833;217372270;163275624;1571;10067;1618176;-3;11588;1650417
3;30;1572333345272;1572333353653;8381;10251540818;13846832104;114420122;11065441;2215019297;217814192;163922668;1649;11019;1191968;-8;8381;1302668
3;31;1572333353653;1572333363301;9648;10249913648;13846731206;113432890;10835481;2214984640;217679835;163760303;1665;8159;1452368;0;9648;1382687
3;32;1572333363301;1572333375685;12384;10229119452;13846828985;114931464;10393707;2215015544;217532199;163740283;1821;10281;1671656;7;12384;1772454
3;33;1572333375685;1572333387322;11637;10206435286;13846750977;112905620;9193214;2214991396;217414933;163217307;2003;11629;1750840;-8;11637;1775113
3;34;1572333387322;1572333396346;9024;10199140688;13846713417;111550467;9651307;2214979629;216904718;163957445;1627;8091;1276960;7;9024;1291974
3;35;1572333396346;1572333407765;11419;10248834124;13846773075;113682283;10639362;2214998509;217554855;163520625;1589;9878;1565776;-21;11419;1626979
3;36;1572333407765;1572333418749;10984;10224773324;13846771399;113642832;9766045;2214998635;217523456;164403915;1969;11332;1644824;19;10984;1646036
3;37;1572333418749;1572333428504;9755;10212818552;13846742244;110453588;9462627;2214988433;217567752;163433185;1607;8126;1497696;-6;9755;1391461
3;38;1572333428505;1572333441085;12580;10193030880;13846817836;111673300;8525423;2215013585;217285527;164516340;1910;11070;1644792;10;12581;1794825
3;39;1572333441086;1572333456521;15435;10258237546;13846717492;112048104;11439838;2214981021;218149030;163328977;2566;12823;2461096;-3;15436;2333184
3;40;1572333456522;1572333465156;8634;10194504312;13846718062;112662507;9323334;2214981065;217460408;164313311;1465;5133;1013792;7;8635;1234410
3;41;1572333465156;1572333476629;11473;10183583804;13846817041;112835863;9322174;2215012812;216950048;163740802;1555;10133;1612120;-19;11473;1628879
3;42;1572333476629;1572333485505;8876;10185792930;13846751839;114973850;8004142;2214992457;217465945;164198048;1615;10392;1476936;-2;8876;1375118
3;43;1572333485505;1572333495440;9935;10251562134;13846719363;115549424;10667832;2214981037;217963485;163391102;1848;9281;1153264;9;9935;1418985
3;44;1572333495440;1572333506618;11178;10264649282;13846716235;114605853;10576441;2214979836;217592188;164314891;1512;9772;1592096;-8;11178;1588079
3;45;1572333506618;1572333516240;9622;10239763582;13846748247;110855181;10127687;2214990486;217744338;163051414;1733;10557;1644800;12;9622;1499937
3;46;1572333516240;1572333532538;16298;10215638834;13846821479;111981739;9451206;2215015201;217728647;163628193;2702;12399;2115592;-14;16298;2334509
3;47;1572333532538;1572333539298;6760;10260902922;13846713591;110999505;11002218;2214979731;217844305;163035379;1025;6726;900800;-2;6760;960401
3;48;1572333539298;1572333548992;9694;10206871680;13846716566;115719481;9641305;2214980102;216842980;163629387;1693;9988;1612544;14;9694;1459757
3;49;1572333548992;1572333561581;12589;10233915260;13846719600;115727887;9703187;2214980900;217633589;163439240;2164;9603;1581656;12;12589;1800131
3;50;1572333561581;1572333572252;10671;10205869098;13846717271;116227323;8973570;2214980298;217465798;164687820;1831;9607;1470936;0;10671;1658719
3;51;1572333572252;1572333581902;9650;10241322424;13846787574;110541619;10787837;2215003924;217769937;163320021;1621;11219;1499264;-21;9650;1375269
3;52;1572333581903;1572333593770;11867;10227115456;13846783535;111717728;9695313;2215002750;217412793;164453233;1873;9640;1537744;16;11868;1694133
3;53;1572333593770;1572333604135;10365;10241550330;13846713798;110229022;10224442;2214980035;217563410;163396895;1742;8462;1441808;-16;10365;1562817
3;54;1572333604135;1572333616635;12500;10217238264;13846715973;111643432;10248811;2214979779;217174310;163965700;2086;10653;1755456;4;12500;1788725
3;55;1572333616635;1572333628301;11666;10188319752;13846726593;109522953;9226141;2214982762;216943806;162806169;1949;10362;1505512;3;11666;1670361
3;56;1572333628301;1572333638416;10115;10239140016;13846713866;112436393;10268146;2214979897;217830356;163806145;1741;8849;1399464;-15;10115;1486228
3;57;1572333638416;1572333649036;10620;10257096264;13846719840;116896051;10915349;2214981373;217514209;164040446;1781;9447;1606192;17;10620;1515471
3;58;1572333649036;1572333661370;12334;10252975852;13846810463;115592277;10373046;2215011585;217683430;164215350;1971;10244;1649256;13;12334;1762448
3;59;1572333661370;1572333671753;10383;10218335016;13846839802;112760528;9525736;2215020632;217397267;163264485;1804;10900;1562944;-4;10383;1548496
3;60;1572333671753;1572333680820;9067;10235825962;13847091885;111248143;10787500;2215114433;217915041;164677195;1768;7949;1085672;-7;9067;1287908
3;61;1572333680820;1572333701337;20517;10240968520;13846715042;109599282;10822672;2214979993;217685432;163211716;3098;17218;3035056;7;20517;3025586
3;62;1572333701337;1572333708097;6760;10264015934;13846726294;111343903;11795785;2214982476;217829723;164072375;1293;3506;941104;-5;6760;956794
3;63;1572333708097;1572333718945;10848;10256558692;13846719896;111627282;10758719;2214981142;217677942;163193684;1568;9779;1443280;0;10848;1545564
3;64;1572333718945;1572333726522;7577;10232537020;13846711756;110330548;10330872;2214979190;217910039;163395920;1073;8614;1204368;-17;7577;1074344
3;65;1572333726522;1572333736197;9675;10247883810;13846721667;112420733;10740731;2214981647;217816108;162930647;1654;11246;1770752;1;9675;1479525
3;66;1572333736197;1572333754002;17805;10256268444;13846817546;114871422;11303457;2215014314;217573015;163936866;2870;12086;2438448;1;17805;2551851
4;17;1572334056104;1572334064212;8108;10203077432;13847568090;109780188;10457705;2215163384;217271562;164125295;1692;9609;1037200;69;8108;1310109
4;18;1572334064212;1572334073874;9662;10163440038;13847588668;109499770;8937879;2215175277;217242887;165375638;1496;10006;1663968;-82;9662;1386998
4;19;1572334073874;1572334086481;12607;10195642382;13847582260;109899865;9994631;2215169738;216997991;163797600;2193;9494;1625840;-17;12607;1795616
4;20;1572334086481;1572334098035;11554;10133886718;13847473204;109255372;7590129;2215139755;217115524;165555643;1894;10545;1666416;9;11554;1702174
4;21;1572334098035;1572334106788;8753;10164763820;13847570109;108473052;9180077;2215172759;217410269;164071542;1573;9485;1277384;-5;8754;1254312
4;22;1572334106788;1572334118486;11698;10154963424;13847604370;109886345;8516079;2215164529;217195139;165907763;1740;10345;1574144;20;11697;1669677
4;23;1572334118486;1572334128099;9613;10142007092;13847455328;106696136;9104911;2215133589;216637859;163595215;1645;9397;1506336;-5;9613;1442114
4;24;1572334128099;1572334138731;10632;10164993624;13847554323;108603133;9213331;2215157615;216608539;165044690;1945;9527;1689936;0;10633;1558626
4;25;1572334138731;1572334151083;12352;10166116948;13846910163;109626982;8487282;2215054395;216930941;164206282;1972;10386;1613432;-18;12351;1760624
4;26;1572334151083;1572334159325;8242;10225885990;13846743678;111654139;10800055;2215031280;217610465;165274055;1193;9683;1154352;24;8242;1170967
4;27;1572334159325;1572334167973;8648;10182631884;13846726308;108560719;9830279;2215022439;217537699;163651319;1347;9966;1549024;111;8648;1326790
4;28;1572334167973;1572334177386;9413;10162754276;13846566108;107147636;9106864;2214984196;217271775;165035077;1535;9991;1633976;-124;9414;1345466
4;29;1572334177387;1572334190470;13083;10184768740;13846656250;107281482;9520970;2215014049;217010096;164166461;2219;9486;1645952;-9;13084;1872111
4;30;1572334190471;1572334208298;17827;10224786902;13846535334;108825506;11029426;2214974938;217373757;165309443;3007;17743;2716304;-2;17828;2634731
4;31;1572334208298;1572334214974;6676;10172661398;13846551113;106483563;9470704;2214978562;217339537;163750090;1169;3750;919336;19;6675;953627
4;32;1572334214974;1572334225485;10511;10206669324;13846551982;107996803;10247201;2214977863;217242468;164879974;1419;8433;1469024;-10;10511;1508524
4;33;1572334225485;1572334235942;10457;10173899040;13846542222;106396214;9369377;2214977007;216446089;164040492;1901;10350;1616280;15;10457;1598576
4;34;1572334235942;1572334244871;8929;10198585888;13846538570;109243288;10484794;2214975416;216728466;164910357;1722;9556;1214104;-26;8929;1275367
4;35;1572334244871;1572334256342;11471;10204263098;13846544421;111418094;10692830;2214977419;217027996;164218716;1575;10341;1589128;27;11472;1640499
4;36;1572334256342;1572334266823;10481;10195189782;13846573811;111647097;9981689;2214986535;217091394;165282284;1794;10533;1650688;-6;10481;1605343
4;37;1572334266824;1572334276777;9953;10175528400;13846664063;108961230;9620558;2215016863;216993832;163487988;1664;8017;1484368;2;9954;1421557
4;38;1572334276778;1572334289090;12312;10140455842;13846618871;109567248;8266385;2215002764;216897557;165113935;1857;11188;1664912;0;12313;1756455
4;39;1572334289090;1572334296783;7693;10178866252;13846545542;108081177;9857677;2214976997;217667469;163911189;1558;8196;1005352;-7;7692;1253732
4;40;1572334296783;1572334307907;11124;10201264258;13846541499;109114437;10567524;2214976419;217472754;165319030;1747;9587;1708720;-16;11125;1596160
4;41;1572334307907;1572334320164;12257;10203812834;13846539588;106072473;10533125;2214975816;216264057;163638450;1789;10230;1637528;3;12257;1752098
4;42;1572334320164;1572334337350;17186;10226958068;13846542088;109110816;11720257;2214977176;217772427;164816567;3162;14349;2549256;1;17185;2451347
4;43;1572334337350;1572334345133;7783;10217234906;13846593245;107724302;10409943;2214993614;217399895;163851970;1192;5380;998472;0;7784;1118528
4;44;1572334345133;1572334355444;10311;10245334650;13846661307;109372738;11406500;2215015937;217079530;165312727;1378;9893;1500392;-2;10310;1465528
4;45;1572334355444;1572334364956;9512;10204252002;13846661584;107861125;10679996;2215016369;217385075;163310718;1687;10954;1738952;11;9512;1498312
4;46;1572334364956;1572334378289;13333;10184470170;13846654101;110285254;8764045;2215014349;216948371;165341498;2273;9212;1612016;0;13333;1904352
4;47;1572334378289;1572334387207;8918;10209245932;13846546302;107655517;10386095;2214977315;217023165;163586122;1295;9919;1165904;17;8918;1268331
4;48;1572334387207;1572334397086;9879;10170514176;13846538018;107197745;9288040;2214975105;216472709;164817328;1637;10585;1670480;-12;9880;1474771
4;49;1572334397087;1572334409769;12682;10183632860;13846633057;108649292;9310894;2215006639;217007790;164089727;2246;8974;1558872;-6;12682;1813112
4;50;1572334409769;1572334420667;10898;10204580794;13846660853;107852397;9856401;2215015765;216930336;164891306;1836;9746;1539968;17;10899;1659189
4;51;1572334420668;1572334430431;9763;10238819984;13846660866;108254993;11352816;2215016011;217137494;164070486;1694;10957;1482960;-29;9764;1395311
4;52;1572334430431;1572334444675;14244;10225819268;13846617029;109990017;10812480;2215001827;216973217;165142008;2391;10092;1587544;24;14243;2143111
4;53;1572334444675;1572334456451;11776;10211193572;13846540901;109145581;10125101;2214976324;216905677;163648608;2024;9043;1533008;-8;11776;1680959
4;54;1572334456451;1572334465850;9399;10169764174;13846540305;110135032;8606759;2214975542;216498540;165525792;1363;10574;1615968;-2;9399;1345166
4;55;1572334465850;1572334474070;8220;10189767926;13846542690;105466289;9864454;2214976754;216722673;163089061;1621;10490;1291256;14;8220;1240998
4;56;1572334474070;1572334485302;11232;10222713410;13846541565;108728697;10688022;2214976001;216996441;165280359;1894;8083;1422400;-1;11233;1601695
4;57;1572334485302;1572334496029;10727;10224860778;13846543588;107248856;10931176;2214976730;217218940;163408141;1513;9704;1569512;0;10726;1534418
4;58;1572334496029;1572334505243;9214;10227506590;13846537559;108876160;10353249;2214975276;217482669;165211083;1764;10108;1561624;-9;9214;1418456
4;59;1572334505243;1572334518187;12944;10204432604;13846543122;107846264;9439146;2214976354;216948682;163926290;2299;9076;1627872;5;12944;1846846
4;60;1572334518187;1572334527267;9080;10253204488;13846543035;109948992;11998289;2214976469;217519111;165332927;1378;10314;1161304;-1;9081;1296463
4;61;1572334527268;1572334536882;9614;10249721950;13846544454;110374965;11947709;2214976769;217485216;164102099;1729;10456;1669120;-17;9615;1465134
4;62;1572334536882;1572334549818;12936;10202077478;13846541934;108106108;10566238;2214976068;216278683;165189377;2267;9072;1576760;5;12936;1855107
4;63;1572334549819;1572334560923;11104;10179168472;13846539098;109305602;9755851;2214975485;216770084;163832787;1839;9458;1535632;9;11105;1669733
4;64;1572334560923;1572334580666;19743;10210116822;13846656368;113174336;10234750;2215014530;217236625;165334301;3176;16306;2719232;-4;19743;2828614
4;65;1572334580667;1572334587699;7032;10246718584;13846560749;111914048;11943941;2214982983;217609656;163453251;1006;4962;1139504;-13;7032;1000954
4;66;1572334587699;1572334597335;9636;10210977784;13846627700;111087737;10016659;2215005070;217445119;164738590;1733;10126;1535528;20;9636;1464993
