0;48;1572365279930;1572365286534;6604;9969743590;13846743673;104080321;6271175;2214979904;218015509;162643124;1061;9487;922952;-23;6604;942468
0;49;1572365286534;1572365297242;10708;9970247144;13846828628;105258604;5852160;2215010609;218111504;162355671;2307;15098;1655064;-10;10709;1535616
0;50;1572365297242;1572365303929;6687;9968370898;13846769532;104933726;6265749;2214989398;217953791;162611079;1408;7412;692392;21;6687;952855
0;51;1572365303929;1572365310494;6565;9952929938;13846731560;104342227;5815404;2214978160;217383161;162304144;1073;9426;862592;14;6565;931216
0;52;1572365310494;1572365317172;6678;9968068970;13846737195;104784064;6225752;2214977572;217925976;162670126;1020;9882;951424;-15;6678;957801
0;53;1572365317172;1572365323955;6783;9958384644;13846762506;105537694;6053418;2214988421;217386361;163320614;1526;10650;1072432;-9;6782;1098084
0;54;1572365323955;1572365330811;6856;9963498294;13846857767;102848056;6663464;2215018151;217374871;162886821;1467;7609;857720;8;6857;979656
0;55;1572365330811;1572365337459;6648;9950479036;13846852340;103821139;6120972;2215019829;216955609;162580518;1113;8889;814216;7;6648;948533
0;56;1572365337459;1572365344366;6907;9939975796;13846742858;102884982;4050781;2214980131;217277161;163163473;1052;9949;930744;3;6907;986597
0;57;1572365344366;1572365351147;6781;9973005960;13846733042;103905686;6250928;2214979398;218176028;163155219;1034;11158;1045688;-10;6780;967451
0;58;1572365351147;1572365358177;7030;9970864870;13846822824;102939361;6082716;2215007853;218041864;162401699;1489;11201;1129672;-3;7030;1093652
0;59;1572365358177;1572365364776;6599;9963091830;13846784758;102369561;6470027;2214996708;217789128;162576718;1422;5576;724328;18;6599;942335
0;60;1572365364776;1572365373056;8280;9964892010;13846735832;103101973;6411199;2214978695;217762086;162567725;1328;10857;1026256;-15;8281;1182107
0;61;1572365373056;1572365380133;7077;9967195160;13846732258;104094917;6187958;2214979428;217840033;162944854;1100;11030;993488;19;7077;1004486
0;62;1572365380133;1572365391396;11263;9969681248;13846757444;101766471;6319749;2214985379;218130962;162563234;2394;14879;1656536;-6;11263;1569284
0;63;1572365391397;1572365398070;6673;9960008018;13846852929;102920331;5892820;2215019423;217875448;162165894;1259;7993;745984;-11;6674;959397
0;64;1572365398070;1572365404714;6644;9970563672;13846732766;105183621;6185095;2214978424;217970702;163210897;1038;9539;867072;17;6644;945663
0;65;1572365404714;1572365411357;6643;9963785914;13846733846;101653869;5816139;2214979570;218022138;162609090;1026;10160;957984;-14;6643;953976
0;66;1572365411357;1572365418139;6782;9969310262;13846735106;103072387;6381116;2214978493;217759452;162651986;1422;10578;1069656;-4;6781;1091710
0;67;1572365418139;1572365424825;6686;9959857638;13846805478;104701704;6003533;2215003723;217635822;162293851;1438;7362;843480;2;6686;961256
0;68;1572365424825;1572365436684;11859;9972725640;13846855918;105156261;6240579;2215018337;218216326;162665756;1831;14350;1503256;-70;11860;1525184
0;69;1572365436684;1572365443274;6590;9970391538;13846812885;105146049;5836758;2215006249;218170141;162267814;1216;9918;990128;-33;6590;467455
0;70;1572365443275;1572365450108;6833;9977034538;13846739154;105188504;6475735;2214979330;218058640;162376447;2201;9135;955040;103;6735;379509
0;71;1572365450108;1572365456673;6565;9960642972;13846731965;102251152;5797203;2214979359;218001892;162549491;1371;7071;649872;5;6565;933536
0;72;1572365456673;1572365463467;6794;9963349374;13846732852;102819450;6021058;2214977608;218172112;162408905;1093;9611;890648;-3;6793;967070
0;73;1572365463467;1572365470133;6666;9967546436;13846732825;103518014;5899097;2214979929;217970148;162715100;1014;10114;941400;14;6667;947260
0;74;1572365470133;1572365480751;10618;9970388326;13846740748;103973982;6317006;2214979720;218081919;162240642;2003;13299;1557424;-11;10618;1572527
0;75;1572365480751;1572365487424;6673;9968022396;13846732631;105402396;6023705;2214979491;217945815;162239371;1482;6231;518864;4;6672;958362
0;76;1572365487424;1572365494074;6650;9969592188;13846800083;104636923;6170225;2214999513;218074781;162399510;1041;8762;834888;-14;6650;945868
0;77;1572365494074;1572365500705;6631;9969159298;13846803907;103942579;5852147;2215003250;217968349;162558739;993;9522;906288;3;6632;945045
0;78;1572365500705;1572365507358;6653;9973410088;13846765078;105059514;6320839;2214988062;217940376;162175795;994;11033;1041232;-11;6653;952653
0;79;1572365507358;1572365514373;7015;9968093644;13846834619;106392082;6101051;2215013749;217962747;162856848;1629;11076;1059320;21;7015;1128085
0;80;1572365514373;1572365521416;7043;9965766696;13846731001;107343008;6490783;2214977523;217584241;162673264;1456;5949;770536;-15;7043;999534
0;81;1572365521417;1572365529385;7968;9946715886;13846734704;105295208;4010395;2214980125;217122882;163095100;1199;10698;1011368;19;7969;1133417
0;82;1572365529385;1572365536565;7180;9977455310;13846738845;107405701;6457115;2214979447;217904709;162944264;1116;10403;990792;-27;7180;1022549
0;83;1572365536565;1572365543175;6610;9951271816;13846732880;104439406;5872484;2214979609;217262164;162566432;1482;9286;978824;14;6610;1059015
0;84;1572365543175;1572365550340;7165;9952881466;13846737408;102454761;6153432;2214978753;217368946;162238010;1339;10634;1052960;9;7165;1016930
0;85;1572365550340;1572365558497;8157;9976150216;13846736489;105465627;6401887;2214981031;217905739;162738859;1504;9344;912144;4;8157;1169207
0;86;1572365558497;1572365565840;7343;9977007382;13846735191;103217705;6784851;2214978286;217927273;162726936;1181;10436;995520;2;7343;1043669
0;87;1572365565840;1572365578011;12171;9974429606;13846745183;107454137;6082975;2214983986;217881971;163059944;2705;15155;1671200;-4;12170;1648675
0;88;1572365578011;1572365584792;6781;9970675070;13846735317;105437679;6268827;2214978772;218038561;162773573;1261;8079;739456;-12;6782;969271
0;89;1572365584792;1572365593914;9122;9971523330;13846726958;104086080;6333273;2214978314;218083640;161897568;1473;12019;1204392;11;9122;1133649
0;90;1572365593914;1572365600648;6734;9972268514;13846736186;104440941;5918129;2214978612;218254541;162326475;1180;10131;1074592;-93;6734;763823
0;91;1572365600648;1572365607418;6770;9971162564;13846829523;104872050;6371315;2215012004;218023301;162625358;1740;9582;964192;83;6756;416340
0;92;1572365607418;1572365614004;6586;9964677828;13846775337;106405537;5721836;2214991263;217858101;162716263;1349;7002;638456;-4;6585;938269
0;93;1572365614004;1572365620303;6299;9948474602;13846732953;104558317;4510982;2214979847;217386399;162662332;973;8689;803144;19;6300;899264
0;94;1572365620304;1572365626935;6631;9976380750;13846737610;106222081;6439166;2214978947;217896603;162874715;994;9659;915768;-21;6632;949766
0;95;1572365626935;1572365634989;8054;9971445220;13846732866;106197417;5947853;2214979337;218234778;162196612;1181;13682;1338264;-4;8054;1156081
0;96;1572365634989;1572365641662;6673;9965411478;13846741473;103298395;6080897;2214980000;218002140;162414587;1505;8519;920456;22;6673;1011113
0;97;1572365641662;1572365648173;6511;9966898196;13846728573;102297242;6232578;2214978713;217843781;163270928;1248;7551;694496;0;6510;929081
1;48;1572366140516;1572366147528;7012;9954114874;13846587961;103355710;6395639;2214958947;217992177;164205270;1489;10323;1095288;-5;7012;1092244
1;49;1572366147529;1572366154123;6594;9940393064;13846672675;100592207;6074960;2214986840;217963534;162896634;1405;6677;669144;3;6595;939082
1;50;1572366154123;1572366160933;6810;9948314732;13846707935;103660342;6236145;2214998123;217895963;163986140;1091;8757;874952;-16;6810;974625
1;51;1572366160933;1572366167758;6825;9909251702;13846649597;98734949;4158443;2214978727;217046317;162491260;1040;10093;932840;15;6824;975589
1;52;1572366167758;1572366174542;6784;9946635148;13846588610;103808634;5961998;2214958641;218051611;163842192;1044;11807;1095856;6;6784;969704
1;53;1572366174542;1572366181592;7050;9942811554;13846583050;100541632;6611034;2214956939;217610702;162905952;1600;10018;1127872;-17;7051;1087439
1;54;1572366181592;1572366188385;6793;9939762490;13846582103;102964694;6067299;2214956919;217393251;164029575;1312;6919;703352;2;6793;974541
1;55;1572366188385;1572366196032;7647;9944894244;13846584455;101341591;6830758;2214957501;217689293;162614567;1156;10033;988016;-4;7647;1084390
1;56;1572366196032;1572366203353;7321;9943033912;13846590451;103688338;5850055;2214958431;217737068;163774617;1123;11271;1011992;13;7320;1044914
1;57;1572366203353;1572366210133;6780;9942876962;13846584098;102650624;5818343;2214957471;217668666;163090431;1345;10809;1063888;-14;6781;1035009
1;58;1572366210133;1572366216594;6461;9930597632;13846665714;104375108;4736460;2214984161;217194477;164382196;1309;7691;899304;3;6461;925795
1;59;1572366216594;1572366224812;8218;9950029502;13846640029;102063408;6806088;2214976594;217822501;163185784;1342;10155;969608;2;8217;1172818
1;60;1572366224812;1572366232046;7234;9946796040;13846587548;104606955;6029418;2214958275;217839246;163813981;1176;10785;1000696;8;7235;1029804
1;61;1572366232046;1572366238938;6892;9945757688;13846585414;101717587;6519038;2214957635;217878472;162990514;1114;11543;1063496;0;6891;987144
1;62;1572366238938;1572366245852;6914;9935549514;13846593423;102132982;5650901;2214959448;217347851;164380533;1567;9151;1013784;14;6915;1056450
1;63;1572366245853;1572366253720;7867;9951837858;13846579094;101126464;6708729;2214956252;217937872;162659674;1463;8518;863640;-21;7867;1127153
1;64;1572366253720;1572366261357;7637;9934987414;13846587918;104748310;4165870;2214958258;217447702;165574544;1222;10239;989824;12;7638;1101059
1;65;1572366261357;1572366268407;7050;9949243876;13846585230;100882130;6518813;2214957430;218011298;162653894;1148;11281;1030776;11;7049;1007021
1;66;1572366268407;1572366275459;7052;9947252290;13846674614;104605489;5910074;2214986821;218053150;164111474;1556;10695;1131856;-3;7053;1093947
1;67;1572366275459;1572366283134;7675;9949780864;13846704025;101569846;6734904;2214997289;217736651;163093668;1611;7089;781824;-11;7674;1096289
1;68;1572366283134;1572366295810;12676;9956631330;13846651177;105889501;6410374;2214980173;217964930;163943186;2106;16603;1739920;-67;12677;1294683
1;69;1572366295810;1572366302613;6803;9950877178;13846585360;105292896;6033945;2214957361;218101937;163069592;1749;10048;999776;19;6689;511576
1;70;1572366302613;1572366309419;6806;9952283596;13846588179;106006962;6264046;2214958583;217968535;164329464;1482;6751;644472;43;6805;957579
1;71;1572366309419;1572366316018;6599;9942987776;13846583435;102186378;5911649;2214956845;218119542;162374624;1052;9157;847736;4;6600;933445
1;72;1572366316018;1572366322575;6557;9939165496;13846581178;104784228;5886144;2214956716;217626461;164954365;989;9215;888528;6;6557;932271
1;73;1572366322575;1572366329231;6656;9941779188;13846582167;100769032;5872475;2214956732;218034174;162652274;1025;11738;1119024;-12;6656;954722
1;74;1572366329231;1572366335636;6405;9933221690;13846682331;103346977;4744456;2214989014;217577529;163990461;1528;10065;988352;9;6405;1020967
1;75;1572366335636;1572366342201;6565;9946858528;13846631329;100627486;6461422;2214973079;217940878;162554735;1306;6517;778664;6;6565;934754
1;76;1572366342201;1572366349433;7232;9945865582;13846643341;104370343;6138914;2214976678;217614824;164443618;1181;8752;871248;-24;7232;1028823
1;77;1572366349433;1572366356791;7358;9940812522;13846665983;99959454;6506101;2214984564;217523722;162836396;1158;11455;1023600;25;7358;1049381
1;78;1572366356791;1572366363823;7032;9956644032;13846586976;104186237;6451127;2214958331;217990134;164888577;1392;8360;857824;7;7032;1209170
1;79;1572366363823;1572366374099;10276;9954337524;13846582448;101304376;7193064;2214957107;217718776;163729495;1970;10354;1127248;-3;10275;1467505
1;80;1572366374099;1572366382051;7952;9939544074;13846581811;104311424;5035799;2214957278;217410542;164152711;1245;10280;1007728;-29;7953;1132581
1;81;1572366382051;1572366389193;7142;9938507328;13846588955;101127319;5605742;2214958167;217394359;163554220;1151;11306;1039656;1;7141;1012306
1;82;1572366389193;1572366395815;6622;9950390560;13846679677;104586823;6330548;2214988965;217863617;163999294;1417;9965;1031080;20;6622;1066645
1;83;1572366395815;1572366403674;7859;9936078764;13846625214;104845181;6239741;2214970979;217279935;162892083;1635;7795;850408;-3;7860;1129376
1;84;1572366403674;1572366416912;13238;9957283220;13846589157;108000187;6229998;2214958610;218128674;164462163;2029;17022;1773288;-81;13238;1601570
1;85;1572366416912;1572366423621;6709;9949973146;13846584206;104617769;6574449;2214957290;218017786;162806415;1662;9482;972872;64;6708;526553
1;86;1572366423621;1572366430262;6641;9948781786;13846616842;104389483;5888913;2214967745;217884498;164119528;1390;7421;648616;19;6642;943579
1;87;1572366430262;1572366436901;6639;9946054506;13846700564;102124739;6342635;2214994863;218070485;162996777;1113;9278;878928;-17;6639;947793
1;88;1572366436902;1572366446842;9940;9950832502;13846582683;104740166;6361841;2214957189;217869621;164717300;2020;12868;1496704;-99;9802;950015
1;89;1572366446842;1572366453589;6747;9950988722;13846584803;101990926;6683280;2214957402;218007288;162961514;2347;9213;941544;196;6341;252730
1;90;1572366453589;1572366460173;6584;9944119130;13846587701;102795122;5930743;2214958009;217828155;164251169;1569;6845;674760;-96;6584;941188
1;91;1572366460173;1572366466773;6600;9945857406;13846584507;100122367;6513700;2214957142;217951932;162919161;1069;9053;814640;19;6599;940679
1;92;1572366466773;1572366473273;6500;9930797506;13846653416;102823440;4956579;2214979791;217305416;164047155;991;9268;886640;0;6501;922491
1;93;1572366473274;1572366479896;6622;9933703344;13846650657;100800525;5710131;2214979688;217211295;162841261;1008;10425;1016032;-23;6623;945932
1;94;1572366479896;1572366486986;7090;9947946520;13846618946;102757714;5944065;2214968684;218119465;164067456;1409;12027;1135600;31;7090;1083781
1;95;1572366486986;1572366493556;6570;9948087556;13846682421;101935740;6275268;2214989860;218120310;162626868;1453;6665;760256;-13;6570;939997
1;96;1572366493556;1572366500324;6768;9941579022;13846595897;103083754;5731746;2214959818;218057853;163857394;1039;8601;879536;-15;6767;960555
1;97;1572366500324;1572366512497;12173;9950632044;13846698794;102863140;6175493;2214996153;218160775;162922382;1902;16474;1759344;-96;12174;1192888
2;48;1572367005866;1572367012530;6664;9936310758;13846724324;99552161;6021408;2214977759;218279455;163149252;1569;10308;991408;34;6664;1048648
2;49;1572367012530;1572367019107;6577;9942452248;13846719100;101298554;6154823;2214973778;218416442;162699469;1433;7285;857472;-21;6577;943247
2;50;1572367019107;1572367025683;6576;9939751102;13846715482;100620635;5737675;2214974981;218132970;162900487;1172;8336;755168;12;6576;938424
2;51;1572367025683;1572367033002;7319;9921390288;13846719784;100285579;4406835;2214973643;217519591;163304378;1163;10238;998392;-7;7319;1040662
2;52;1572367033002;1572367039744;6742;9943666238;13846766689;101798390;6239362;2214991198;218468885;162899669;1103;11345;1042072;-5;6742;965362
2;53;1572367039744;1572367046343;6599;9911405932;13846840391;98541523;5553572;2215013898;217145083;162724734;1331;10655;1063040;1;6598;1027283
2;54;1572367046343;1572367053054;6711;9932308460;13846822618;97951406;6667061;2215010810;217509637;163315334;1486;6233;798672;-6;6712;963656
2;55;1572367053054;1572367061260;8206;9941594936;13846722487;101102300;6420026;2214975278;218176090;163039154;1361;10910;1010416;15;8206;1167662
2;56;1572367061260;1572367068589;7329;9939119068;13846717577;98496623;6547718;2214975534;218145866;162837471;1169;10690;1005344;-18;7329;1044376
2;57;1572367068589;1572367079302;10713;9936777812;13846718345;99347205;6153044;2214974162;217952106;162967102;2273;13838;1526552;12;10713;1474827
2;58;1572367079302;1572367086110;6808;9933370026;13846802160;101667674;5920285;2215003265;218073160;163292415;1213;8551;761248;-22;6808;976931
2;59;1572367086110;1572367092705;6595;9940488694;13846770932;101022856;6353625;2214991359;218396190;162948762;1056;9358;871216;15;6595;946194
2;60;1572367092705;1572367099803;7098;9935081292;13846765568;99902599;5895643;2214991657;218257673;162911705;1079;11692;1104968;10;7098;1012646
2;61;1572367099803;1572367106444;6641;9935465710;13846809217;100196553;5877714;2215003657;218070388;163209593;1406;10433;1080992;2;6641;1062274
2;62;1572367106444;1572367113008;6564;9935283502;13847036591;102346336;5513854;2215090520;218196138;163058816;1457;7252;814312;-14;6563;940379
2;63;1572367113008;1572367119682;6674;9943934002;13846840651;102365460;6181706;2215014270;218430633;162761564;1115;8438;770760;6;6675;949998
2;64;1572367119683;1572367126623;6940;9925837156;13846710328;101828137;5783968;2214973919;217745617;162956174;1062;9533;944760;-6;6941;991316
2;65;1572367126624;1572367133570;6946;9946751072;13846717768;102587885;6607366;2214973731;218174775;163072558;1065;11541;1044712;-3;6947;994243
2;66;1572367133571;1572367140483;6912;9939319380;13846720804;100830215;5866584;2214975541;218455087;162625538;1463;11117;1102224;10;6913;1061680
2;67;1572367140483;1572367147423;6940;9943720258;13846798707;103216577;6265600;2214999950;218554464;163223864;1499;6196;789816;5;6940;994733
2;68;1572367147423;1572367155283;7860;9925014738;13846835936;101805747;4801219;2215014784;217774510;163204610;1240;10524;992608;-24;7860;1116974
2;69;1572367155283;1572367162593;7310;9936584654;13846798498;103751213;5908687;2215000103;217776794;162912003;1105;10655;991704;14;7309;1040977
2;70;1572367162593;1572367174171;11578;9939149436;13846743931;102327523;6420898;2214983818;218186114;163208011;2372;15047;1632840;11;11578;1708400
2;71;1572367174171;1572367180862;6691;9941954972;13846832519;100532987;6414569;2215011415;218292417;162914756;1253;8067;742136;-4;6691;955990
2;72;1572367180862;1572367187469;6607;9938516088;13846709770;100079836;5937272;2214973701;218387941;163170555;1034;9260;851880;-9;6608;943485
2;73;1572367187469;1572367194099;6630;9946726398;13846720525;101041048;6350709;2214974386;218423404;162808393;1026;10370;966704;3;6630;949274
2;74;1572367194099;1572367200882;6783;9926679868;13846817233;100555228;4636450;2215008069;218042096;162860342;1477;10574;1082184;-6;6783;1047376
2;75;1572367200882;1572367207533;6651;9942368736;13846756903;103278272;6294414;2214986507;218280512;162708792;1510;7389;825688;2;6651;949935
2;76;1572367207533;1572367214139;6606;9933580996;13846717643;101709638;5725311;2214975573;218075300;162850444;1046;8251;804008;12;6605;946169
2;77;1572367214139;1572367221375;7236;9946862178;13846720076;102295855;6650970;2214974395;218299639;162791674;1081;9924;980456;-25;7237;1028172
2;78;1572367221375;1572367228345;6970;9938010052;13846716454;101915404;6209317;2214975066;218252651;162604330;1066;11771;1045760;3;6970;997811
2;79;1572367228345;1572367235348;7003;9943956486;13846732234;101891891;6334514;2214978502;218254973;162936827;1502;10650;1145368;20;7002;1081800
2;80;1572367235348;1572367242915;7567;9936047520;13846830994;99522400;6102305;2215014069;218172518;162790058;1558;7262;767920;-22;7568;1082249
2;81;1572367242915;1572367255668;12753;9950700664;13846843738;100440139;6466339;2215014798;218509052;162542093;2093;16496;1732728;-53;12752;1319763
2;82;1572367255668;1572367264278;8610;9946624782;13846733711;101065565;6367039;2214980836;218421995;163061632;2053;7660;811792;62;8611;1230156
2;83;1572367264278;1572367270894;6616;9939728034;13846811729;100114227;5991461;2215004680;218295012;162722168;1223;7891;681760;16;6616;949527
2;84;1572367270894;1572367277516;6622;9930652966;13846837061;98841477;6104548;2215015298;217956264;162977560;1036;9328;863904;-11;6622;943827
2;85;1572367277517;1572367284137;6620;9935925172;13846784025;98559215;5859271;2214995435;218423980;162750773;992;11904;1122248;14;6621;953785
2;86;1572367284137;1572367290703;6566;9937204132;13846716469;99907173;5711606;2214974803;218035915;163067849;1413;10501;1039848;-14;6565;1070183
2;87;1572367290703;1572367297884;7181;9921658052;13846754481;99319616;5712361;2214984328;217265755;163227240;1475;6999;798560;11;7181;1025144
2;88;1572367297884;1572367304987;7103;9942264930;13846829450;101402033;6183229;2215013321;218050847;163585434;1079;8925;897600;-21;7104;1013730
2;89;1572367304987;1572367312290;7303;9944931036;13846715378;100833975;6739314;2214973412;217992853;162884465;1100;10515;983840;20;7303;1041684
2;90;1572367312290;1572367319448;7158;9940588120;13846716584;100932895;6325598;2214975857;217931107;163328648;1121;11828;1118744;136;7158;1037598
2;91;1572367319449;1572367326081;6632;9946071734;13846815057;102638259;6379424;2215005876;218507168;162907108;1611;8467;942416;-141;6633;1001874
2;92;1572367326081;1572367333783;7702;9944906216;13846755160;103092327;6139926;2214988378;218331152;163392831;1384;8949;895080;-4;7701;1100338
2;93;1572367333783;1572367345623;11840;9949697352;13846722260;103366982;6202142;2214975153;218486971;163201653;1828;16545;1663296;-16;11840;1630631
2;94;1572367345623;1572367352521;6898;9943827130;13846716417;102276475;6280985;2214975153;218264240;162868408;1681;9448;1012144;29;6899;843288
2;95;1572367352521;1572367359058;6537;9941446746;13846747062;99545260;6017211;2214983285;218280096;162515228;1336;7126;639472;-24;6537;926647
2;96;1572367359058;1572367365616;6558;9940012880;13846828737;99195172;6139568;2215011441;218487498;162727835;1003;8782;822568;21;6558;930652
2;97;1572367365616;1572367372203;6587;9943247072;13846714043;99362341;6073438;2214972706;218368621;162935666;1011;9604;903816;-9;6587;943462
3;48;1572367858381;1572367865798;7417;9979618300;13846770519;116254928;6410886;2214980964;217899251;165361565;1192;12376;1138144;0;7417;1056243
3;49;1572367865798;1572367873059;7261;9968079628;13846775087;114579228;6368206;2214982235;217444272;163449687;1783;9808;1086976;26;7262;1126787
3;50;1572367873059;1572367879768;6709;9981784502;13846770905;116201263;6210509;2214980842;218258283;164766749;1338;7011;740608;-26;6708;960198
3;51;1572367879768;1572367887302;7534;9972168212;13846775085;116021744;5565368;2214981561;217799782;163548786;1195;10769;982232;21;7534;1071529
3;52;1572367887302;1572367894391;7089;9966848848;13846770066;116345483;5486940;2214981160;217332990;164807791;1145;11137;1025640;7;7090;1005476
3;53;1572367894392;1572367901359;6967;9973077062;13846803150;114063973;6478068;2214990975;217883657;163558223;1466;10890;1104936;-22;6967;1072744
3;54;1572367901359;1572367908004;6645;9968693704;13846875333;112152407;5832196;2215015411;217959462;164246727;1350;7076;845912;-6;6645;950422
3;55;1572367908004;1572367915929;7925;9976617708;13846773640;113257736;6565918;2214981678;217764923;163980534;1421;10156;954208;19;7926;1133678
3;56;1572367915930;1572367923264;7334;9977042276;13846769957;113389308;6447635;2214980289;217740276;164935682;1194;10270;991688;-10;7335;1043997
3;57;1572367923265;1572367930357;7092;9976047870;13846771653;112911372;6256018;2214980839;218038113;163240815;1142;11891;1082736;22;7092;1014129
3;58;1572367930357;1572367937269;6912;9963123366;13846770979;117216836;4827714;2214980692;217442158;164949460;1723;8916;1026040;-21;6912;1083452
3;59;1572367937269;1572367945303;8034;9972841272;13846896855;116075156;6566594;2215024478;217527051;163465277;1509;8703;867600;-2;8034;1151168
3;60;1572367945303;1572367952683;7380;9978261668;13846838604;116802183;6027976;2215003532;218105470;164753843;1217;9852;971872;-1;7381;1055495
3;61;1572367952684;1572367959742;7058;9978924654;13846775300;117548678;6447692;2214982635;218005014;163625041;1170;11444;1032792;18;7058;1010234
3;62;1572367959742;1572367966512;6770;9979021014;13846770035;116571247;5883579;2214980714;218182925;164969935;1598;10774;1074424;-4;6770;1077044
3;63;1572367966512;1572367974538;8026;9979400030;13847075446;114789658;6496115;2215090939;218188358;163581463;1627;7492;846432;6;8026;1142749
3;64;1572367974538;1572367982075;7537;9945917704;13846882439;113968710;4195816;2215018363;217331480;164161604;1226;9838;971832;-3;7538;1079551
3;65;1572367982075;1572367989318;7243;9974713430;13846895493;114651616;6366052;2215021861;217840522;163483781;1186;10614;1006296;-1;7242;1030687
3;66;1572367989318;1572367996274;6956;9973909116;13846889374;114531909;5841961;2215020182;218251821;164725773;1549;10935;1087064;-21;6957;1076624
3;67;1572367996275;1572368002974;6699;9972918068;13846816183;113153691;6360738;2214995561;218119189;163061885;1426;6985;829896;14;6699;951982
3;68;1572368002974;1572368011536;8562;9985959956;13846830921;116003668;6541680;2215000899;218148046;165051443;1417;10640;1028800;-9;8562;1225360
3;69;1572368011536;1572368018933;7397;9978919836;13846852323;113073658;6978798;2215007415;217951696;163218209;1206;10575;989336;10;7397;1057004
3;70;1572368018933;1572368028312;9379;9963920234;13846768928;113187790;5155994;2214979877;217957986;164207620;1843;15089;1500248;9;9379;1413856
3;71;1572368028312;1572368035003;6691;9975441970;13846783569;114049478;6174612;2214984801;218263827;163554319;1498;6191;680040;-25;6691;955095
3;72;1572368035003;1572368041652;6649;9975181798;13846883552;114879434;5913299;2215018858;218205508;164430617;1094;8892;834720;26;6650;946571
3;73;1572368041652;1572368048359;6707;9978410150;13846780633;115568260;6503811;2214983970;217911857;163652399;1085;9573;932032;3;6707;953051
3;74;1572368048360;1572368055262;6902;9971241696;13846875941;114270126;6081601;2215015431;217614689;164900787;1113;11375;1071312;-25;6902;980381
3;75;1572368055262;1572368062397;7135;9957026990;13846894168;115484771;6120381;2215021306;217299662;163028939;1629;9499;1049952;18;7135;1096433
3;76;1572368062397;1572368070332;7935;9987310456;13846827054;119633753;6177742;2215000002;218059952;165147752;1707;6454;729432;-22;7935;1283461
3;77;1572368070332;1572368081378;11046;9955166804;13846772262;115165182;4617494;2214980759;217472462;163939727;1964;10591;1123816;17;11047;1581983
3;78;1572368081378;1572368089629;8251;9975625638;13846770180;115352045;5994026;2214980269;218123505;164878581;1338;11309;1025280;6;8250;1175988
3;79;1572368089629;1572368096457;6828;9979822554;13846771706;115692212;6417719;2214980964;218090362;163565104;1177;11983;1137248;-13;6828;981030
3;80;1572368096457;1572368103085;6628;9969039724;13846762467;113208413;5776995;2214979113;217977815;164861809;1486;9012;1009648;7;6628;1022102
3;81;1572368103085;1572368110751;7666;9978260792;13846888705;116504346;6503088;2215020139;217998307;163757038;1600;8150;793408;0;7666;1098132
3;82;1572368110751;1572368118486;7735;9972893686;13846790390;116575667;5554769;2214986986;217713663;164807077;1238;10282;1003128;10;7735;1099764
3;83;1572368118486;1572368125499;7013;9967289184;13846774491;115464461;5163142;2214981162;217653714;163643601;1121;10366;982688;-1;7013;999038
3;84;1572368125499;1572368132526;7027;9972406046;13846768975;114935640;6111237;2214980200;217859730;164506861;1546;11156;1100616;-27;7028;1101627
3;85;1572368132526;1572368139972;7446;9950758334;13846827089;112707826;5731246;2214998920;217034111;162990551;1563;6996;843616;5;7445;1054406
3;86;1572368139972;1572368148089;8117;9984930948;13846852970;115275999;6434268;2215008470;218143093;164886076;1340;10462;1007320;4;8117;1156540
3;87;1572368148089;1572368155449;7360;9977115860;13846810826;114493201;6680578;2214992254;217753925;163416483;1190;10548;993336;-6;7360;1049907
3;88;1572368155449;1572368162556;7107;9967853766;13846888812;114104065;6036031;2215020931;217415622;164591765;1499;11292;1061440;22;7107;1088828
3;89;1572368162556;1572368168910;6354;9958754608;13846887069;116719368;4441447;2215019616;217668423;163263051;1340;7432;905384;4;6354;908502
3;90;1572368168910;1572368177147;8237;9985939370;13846779426;117636414;6652778;2214984180;218141368;164507149;1467;10371;993400;-27;8237;1174572
3;91;1572368177147;1572368189473;12326;9985245724;13846870688;116371366;6560201;2215013756;218362896;163770244;2037;16507;1729888;-79;12326;1239658
3;92;1572368189473;1572368196225;6752;9978390586;13846888352;114687589;6044221;2215019941;218267018;164396188;1838;8321;834640;97;6752;699047
3;93;1572368196225;1572368202898;6673;9974154834;13846891926;110953550;6382611;2215020911;218285487;163485395;1296;8048;734208;-16;6674;952203
3;94;1572368202898;1572368209522;6624;9971683638;13846843131;113048117;5602002;2215004971;217950777;164385120;1013;9010;845504;11;6623;941803
3;95;1572368209522;1572368215990;6468;9955642910;13846776016;111205413;5316003;2214981512;217454324;162958241;1025;10444;964760;1;6468;922529
3;96;1572368215990;1572368222684;6694;9976053418;13846776949;111592752;5883873;2214981814;218302596;164462573;1073;12000;1168224;15;6694;950923
3;97;1572368222684;1572368229782;7098;9974277328;13846768995;113396259;6432638;2214980248;218169521;163168759;1785;8199;939776;-1;7098;1104073
4;48;1572368719003;1572368726330;7327;9971378498;13846666830;110146327;6416695;2214994508;217858958;163717701;1267;12035;1139736;118;7327;1069255
4;49;1572368726330;1572368732957;6627;9943778074;13846653119;104232919;4810073;2214989999;217251037;162335218;1514;8093;930360;-124;6627;1028742
4;50;1572368732957;1572368741051;8094;9975843324;13846721844;108561331;6648101;2215013826;218223652;163111556;1481;8816;874424;-7;8094;1160224
4;51;1572368741052;1572368748579;7527;9972729436;13846770653;105961138;6659417;2215029485;218079914;162563814;1215;10277;999808;1;7528;1073331
4;52;1572368748579;1572368755694;7115;9971817520;13846736534;106987110;6870083;2215018497;218076428;163209749;1108;11420;1012288;13;7114;1013220
4;53;1572368755694;1572368762385;6691;9980514740;13846678857;107490824;6369904;2214998144;218646919;161645130;1578;10117;1100968;-21;6691;1051936
4;54;1572368762385;1572368770314;7929;9979585158;13846770035;109566456;6830691;2215029652;217722767;163295821;1607;7776;841456;-5;7929;1130165
4;55;1572368770314;1572368777675;7361;9973504696;13846772642;107943020;5919829;2215029961;218124453;162870843;1209;10165;973320;15;7361;1048903
4;56;1572368777675;1572368784694;7019;9969410856;13846652630;109280324;5354492;2214989960;217860826;163554284;1149;10786;995136;13;7019;1003052
4;57;1572368784694;1572368791646;6952;9970447748;13846652297;107365898;6257703;2214989392;218307429;161749493;1605;10117;1028280;-10;6952;1119294
4;58;1572368791646;1572368798452;6806;9972716150;13846728455;110985281;6688542;2215015925;217740610;163376818;1359;7881;908072;-17;6807;968382
4;59;1572368798452;1572368806942;8490;9980589930;13846705078;109589115;6776919;2215008170;218417224;162042877;1451;10737;1002568;21;8490;1211283
4;60;1572368806943;1572368814314;7371;9983106678;13846653932;111501813;6719090;2214989799;218357901;163091579;1178;10190;993512;-17;7372;1049959
4;61;1572368814314;1572368821284;6970;9976754510;13846681626;109853639;6605610;2214999454;218353089;161800161;1438;11015;1058288;142;6970;1099217
4;62;1572368821284;1572368827837;6553;9955712406;13846776931;109600218;4365297;2215030403;217580130;164111925;1346;8962;953248;-123;6553;955614
4;63;1572368827838;1572368842406;14568;9987606544;13846766063;109816016;6858752;2215029002;218452717;162448200;2496;15915;1757032;-141;14569;2004129
4;64;1572368842406;1572368849049;6643;9991579350;13846651500;112181175;6304976;2214990093;218786868;163150209;1332;9707;911640;62;6642;488255
4;65;1572368849049;1572368856111;7062;9982601956;13846652404;106742170;7158298;2214989658;218365013;161713597;1945;8506;869168;71;7063;759687
4;66;1572368856111;1572368862700;6589;9977144622;13846649667;109661872;6121218;2214988919;218596479;164073540;1257;7915;724560;-9;6589;937794
4;67;1572368862700;1572368869197;6497;9964167850;13846652490;106377244;5538689;2214989488;218073503;161840493;1000;8935;851136;-8;6497;924448
4;68;1572368869197;1572368875642;6445;9967048138;13846651308;109643917;5024653;2214989851;217845513;163628152;1008;10978;1009480;16;6445;916837
4;69;1572368875642;1572368882303;6661;9973858746;13846651224;106898239;6605456;2214989275;218368541;161790857;1073;11615;1145256;8;6660;961176
4;70;1572368882303;1572368888970;6667;9975119748;13846649697;111205375;6648281;2214989093;218164947;163526150;1740;7658;852440;-22;6667;1087847
4;71;1572368888970;1572368895834;6864;9976583690;13846648097;110379184;6574238;2214989156;218415810;162905524;1245;7795;775144;5;6865;980177
4;72;1572368895834;1572368903125;7291;9961646430;13846649073;107751300;6320001;2214988777;217648524;163072054;1071;9758;928200;17;7291;1039969
4;73;1572368903125;1572368910214;7089;9968520548;13846651608;107495269;6602098;2214989243;218234828;162140017;1099;10833;1018032;-11;7089;1005873
4;74;1572368910214;1572368916602;6388;9959177862;13846741860;109291479;4710298;2215019044;218009014;163378262;1462;9514;994368;8;6388;1018655
4;75;1572368916602;1572368923518;6916;9970252838;13846701651;109364418;5871390;2215006008;218217684;161865119;1340;8759;955616;4;6916;986517
4;76;1572368923518;1572368931949;8431;9985781690;13846702869;112652913;7285574;2215006942;218089689;163576485;1378;10358;983008;-2;8430;1200414
4;77;1572368931949;1572368939848;7899;9977677814;13846735134;106648046;6808208;2215017828;218350327;161687228;1517;8832;877544;1;7899;1347374
4;78;1572368939848;1572368950078;10230;9984438490;13846669182;108703234;7525837;2214996026;218417329;163336607;1850;9974;1099808;-22;10231;1458710
4;79;1572368950078;1572368958698;8620;9982797596;13846769783;106383715;7335451;2215029078;218573174;161873751;1423;10771;1026568;17;8620;1231287
4;80;1572368958699;1572368969801;11102;9980851562;13846644263;109026965;6434820;2214987715;218452567;162832939;2349;14893;1592424;-15;11103;1306851
4;81;1572368969801;1572368976403;6602;9980620736;13846654341;107602151;6556264;2214989898;218656022;162659149;1378;7189;638536;3;6602;942734
4;82;1572368976403;1572368982776;6373;9942668328;13846648696;105164277;5649847;2214988553;217209579;163044076;990;8729;823144;8;6373;911822
4;83;1572368982776;1572368989427;6651;9976090794;13846653367;106294876;6864816;2214989822;218374730;161872048;967;9603;921632;-7;6651;943360
4;84;1572368989427;1572368996051;6624;9974551370;13846705605;108541090;6138967;2215007934;218456179;163274031;979;11259;1059568;-4;6624;946304
4;85;1572368996051;1572369002921;6870;9972342244;13846728322;107139083;6699557;2215015562;218176876;162038962;1387;9829;1119424;-5;6870;1058819
4;86;1572369002921;1572369010293;7372;9958119946;13846675439;108337071;4823401;2214997694;217956909;163302368;1525;7956;764216;17;7372;1052529
4;87;1572369010293;1572369017907;7614;9964306550;13846771111;105419011;6040144;2215027887;217869720;162450520;1171;10242;977792;13;7614;1086987
4;88;1572369017907;1572369024997;7090;9971756200;13846644716;108900106;6309010;2214987986;218302141;163248694;1095;10947;1011232;-7;7090;1012982
4;89;1572369024997;1572369032108;7111;9972402688;13846654663;105902882;6829894;2214990514;218288325;161950234;1493;11534;1136904;-19;7111;1079525
4;90;1572369032108;1572369038941;6833;9975709442;13846650803;108493803;6137942;2214989541;218599460;163345375;1461;6114;788184;11;6833;979620
4;91;1572369038941;1572369047211;8270;9975739518;13846736436;107009058;7103982;2215018211;218148346;162485210;1364;10781;1010424;12;8269;1178301
4;92;1572369047211;1572369054470;7259;9966874982;13846701027;107941252;5858770;2215006482;217807632;163399419;1173;10471;988928;-15;7259;1036510
4;93;1572369054470;1572369061778;7308;9937918364;13846652632;104806487;5023961;2214989792;217056690;161984321;1554;11891;1096408;15;7309;1100319
4;94;1572369061778;1572369068388;6610;9981192180;13846679210;110229278;6293751;2214998930;218461562;163113849;1414;7683;933712;-6;6610;941952
4;95;1572369068388;1572369076389;8001;9981374972;13846751861;108537350;6922218;2215023090;218243716;161998855;1342;9904;937344;2;8001;1141009
4;96;1572369076389;1572369083855;7466;9979331556;13846656437;109962544;6370174;2214990375;218433064;163203687;1221;10309;995000;-4;7466;1068494
4;97;1572369083855;1572369090699;6844;9978710764;13846645579;109048051;6446292;2214988295;218373911;162639428;1112;11122;1046584;-17;6844;976096
