0;35;1554727496918;1554727505417;8499;21541817032;25140579439;840775598;385624235;1844545419;62728773;503504461;3;0;48;0;9;18
0;36;1554727505417;1554727513903;8486;21544693816;25140553720;840590543;385548464;1844532474;62733672;503495925;28;6;4240;0;93;214
0;37;1554727513903;1554727522393;8490;21551106866;25140544642;840572664;385560039;1844550636;62705191;503491698;0;0;0;0;0;0
0;38;1554727522393;1554727530892;8499;21535142642;25140501845;837983789;385696395;1844536220;62722585;503502448;0;0;0;0;0;0
0;39;1554727530892;1554727539400;8508;21555231950;25140529326;840053527;386207463;1844546106;62730747;503516115;2;0;64;0;1;2
0;40;1554727539400;1554727547900;8500;21547589726;25140715286;840749619;385636148;1844572878;62738982;503493134;26;8;4048;0;89;180
0;41;1554727547900;1554727556404;8504;21619999302;25140429166;840494532;385423491;1844517594;62754159;503431956;0;0;0;0;0;0
0;42;1554727556404;1554727564915;8511;21538725190;25140497574;838536237;385642105;1844523204;62731782;503470297;2;0;64;0;9;9
0;43;1554727564915;1554727573424;8509;21545559158;25140388522;833434260;386119015;1844519323;62740770;503501942;0;0;0;0;0;0
0;44;1554727573424;1554727581904;8480;21529009182;25140507125;833541302;386361164;1844532832;62744703;503498087;35;4;4480;0;118;293
0;45;1554727581904;1554727590398;8494;21535381790;25140545287;833554630;386369306;1844542446;62729178;503487778;0;0;0;0;0;0
0;46;1554727590398;1554727598890;8492;21529362210;25140485567;833467508;386195170;1844529649;62737498;503434788;0;0;0;0;0;0
0;47;1554727598890;1554727607377;8487;21529824884;25140702369;833602002;386217751;1844563028;62721242;503519321;0;0;0;0;0;0
0;48;1554727607377;1554727615871;8494;21547233194;25140713688;833252216;386211665;1844568094;62729773;503528444;25;12;4504;0;111;180
0;49;1554727615871;1554727624380;8509;21551932788;25140651191;833059514;386195570;1844549408;62724840;503509771;0;0;0;0;0;0
0;50;1554727624380;1554727632890;8510;21558979478;25140588158;834322160;386377134;1844556672;62732483;503420214;0;0;0;0;0;0
0;51;1554727632890;1554727641401;8511;21585960132;25140785386;841110289;387018006;1844570925;62731448;503401674;2;0;64;0;1;1
0;52;1554727641401;1554727649882;8481;21546002560;25140596569;840508647;385584019;1844562291;62737545;503514791;16;8;4048;0;72;99
0;53;1554727649882;1554727658367;8485;21550501112;25140501824;840622066;385640688;1844542997;62734185;503584717;1;0;8;0;0;0
0;54;1554727658367;1554727666857;8490;21547848000;25140469745;840656176;385569276;1844529319;62729543;503496581;0;0;0;0;0;0
0;55;1554727666857;1554727675351;8494;21565711100;25140717425;840703084;385479087;1844555815;62744258;503494560;4;0;80;0;10;19
0;56;1554727675351;1554727683822;8471;21537473386;25140482104;834516689;386268721;1844529483;62742845;503442073;22;12;4432;0;93;151
0;57;1554727683823;1554727692310;8487;21535151548;25140538483;833832642;386345805;1844544100;62734716;503472016;0;0;0;0;0;0
0;58;1554727692310;1554727700802;8492;21534595434;25140643297;833685295;386343340;1844551970;62726180;503496062;0;0;0;0;0;0
0;59;1554727700802;1554727709290;8488;21542000992;25140685938;834168075;386311134;1844559629;62722683;503581328;2;0;64;0;1;1
0;60;1554727709290;1554727717770;8480;21541847108;25140575741;833836983;386338486;1844551209;62751389;503455494;32;10;4616;0;135;252
0;61;1554727717770;1554727726265;8495;21529583108;25140553874;838445239;383766711;1844541081;62726801;502921910;0;0;0;0;0;0
0;62;1554727726265;1554727734757;8492;21541172296;25140551810;840794656;385559941;1844529378;62687342;503489240;0;0;0;0;0;0
0;63;1554727734757;1554727743247;8490;21543373246;25140447980;840710070;385409198;1844517066;62694767;503526619;0;0;0;0;0;0
0;64;1554727743248;1554727751757;8509;21627631306;25140496899;841294762;386268963;1844531553;62680978;503519741;28;10;4448;0;74;172
0;65;1554727751758;1554727760263;8505;21607453668;25140519144;837733694;386724371;1844520243;62695135;503547596;0;0;0;0;0;0
0;66;1554727760264;1554727768763;8499;21579424880;25140365098;841186585;387191294;1844507764;62696977;503452382;1;0;8;0;0;0
0;67;1554727768763;1554727777260;8497;21582748424;25140378214;841335745;387116603;1844511186;62694465;503474908;0;0;0;0;0;0
0;68;1554727777260;1554727785747;8487;21584591820;25140510599;841300674;387158047;1844527903;62697713;503473165;26;8;4448;0;85;146
0;69;1554727785747;1554727794249;8502;21584570504;25140398538;841671654;387396041;1844515485;62683860;503585373;0;0;0;0;0;0
0;70;1554727794250;1554727802750;8500;21583702972;25140465324;841390135;387242258;1844535470;62689626;503538662;443;16;46832;0;1336;1671
0;71;1554727802750;1554727811236;8486;21591278912;25140510666;841201787;387094599;1844527166;62694995;503573689;2;0;72;0;1;1
0;72;1554727811236;1554727819740;8504;21580691284;25140552363;841142211;387114829;1844534782;62687546;503442304;0;0;0;0;0;0
0;73;1554727819740;1554727828243;8503;21539838878;25140437198;837190088;386068192;1844522895;62695701;503502131;81;2;840;0;63;3192
0;74;1554727828243;1554727836762;8519;21627868264;25140629674;834031911;386429615;1844546577;62707919;503512891;45;10;6224;0;110;468
0;75;1554727836762;1554727845244;8482;21574050620;25140331812;838981158;386797858;1844494216;62692546;503526941;0;0;0;0;0;0
0;76;1554727845244;1554727853754;8510;21579634390;25140469822;841243856;387233526;1844532194;62693263;503510392;0;0;0;0;0;0
0;77;1554727853754;1554727862258;8504;21584347270;25140428604;841445075;387344740;1844517516;62711049;503553482;2;0;64;0;0;0
0;78;1554727862258;1554727870759;8501;21584826880;25140642151;841649194;387269180;1844551055;62689978;503528107;15;12;4120;0;66;86
0;79;1554727870759;1554727879270;8511;21603602188;25140424609;841399490;387065433;1844517454;62673714;503508121;0;0;0;0;0;0
0;80;1554727879270;1554727887772;8502;21572974162;25140601433;839879288;387074417;1844542348;62701873;503527032;2;0;64;0;9;9
0;81;1554727887773;1554727896259;8486;21522288364;25140609499;833478618;386202745;1844537553;62710213;503494362;0;0;0;0;0;0
0;82;1554727896260;1554727904725;8465;21532200304;25140374766;838712235;385692672;1844520834;62694860;503445675;29;8;4312;0;101;221
0;83;1554727904725;1554727913219;8494;21579516276;25140352217;840185595;387039780;1844508719;62700461;503489235;0;0;0;0;0;0
0;84;1554727913219;1554727921711;8492;21544182962;25140578948;840861058;385673519;1844536077;62704468;503460710;2;0;64;0;9;9
1;35;1554728307209;1554728315709;8500;21588101368;25140571439;835562914;386448724;1844543915;62721763;503454032;2;0;64;0;1;1
1;36;1554728315709;1554728324206;8497;21560098422;25140536627;833869089;386306957;1844529407;62727730;503552762;20;8;4240;0;82;122
1;37;1554728324207;1554728332707;8500;21562934910;25140553183;833517826;386229622;1844552325;62717945;503373155;0;0;0;0;0;0
1;38;1554728332707;1554728341197;8490;21561074870;25140492062;833677968;386084530;1844534669;62710326;503325805;0;0;0;0;0;0
1;39;1554728341197;1554728349712;8515;21586464416;25140440215;837687993;386515108;1844530054;62712382;503305016;2;0;64;0;9;9
1;40;1554728349712;1554728358231;8519;21582269544;25140640538;840810180;385829917;1844559250;62720040;503440546;14;10;4112;0;85;102
1;41;1554728358231;1554728366729;8498;21576440494;25140412961;840445730;385292148;1844514275;62721360;503387820;0;0;0;0;0;0
1;42;1554728366729;1554728375245;8516;21581040370;25140527840;840507127;385275119;1844529021;62718878;503570340;2;0;64;0;9;10
1;43;1554728375245;1554728383754;8509;21570976152;25140427533;840606222;385455409;1844526813;62717974;503457302;0;0;0;0;0;0
1;44;1554728383754;1554728392270;8516;21575418348;25140436953;840756212;385420342;1844519835;62736164;503430191;18;10;4216;0;89;115
1;45;1554728392270;1554728400770;8500;21573807968;25140538567;836586003;385905699;1844541445;62709235;503389082;0;0;0;0;0;0
1;46;1554728400770;1554728409272;8502;21561831442;25140483515;834027544;385972546;1844528451;62722117;503445704;1;0;8;0;0;0
1;47;1554728409272;1554728417782;8510;21578289292;25140647867;840630953;385415485;1844553469;62732869;503485991;0;0;0;0;0;0
1;48;1554728417782;1554728426276;8494;21573300764;25140712182;840613172;385314378;1844567812;62718004;503485550;19;10;4376;0;83;112
1;49;1554728426276;1554728434790;8514;21574818872;25140689856;840123390;385532047;1844556580;62700438;503387926;0;0;0;0;0;0
1;50;1554728434790;1554728443306;8516;21580478854;25140583557;833779785;386042547;1844555457;62726895;503387978;0;0;0;0;0;0
1;51;1554728443306;1554728451827;8521;21579768856;25140743674;833288791;386082323;1844563384;62716910;503435074;2;0;64;0;1;1
1;52;1554728451827;1554728460325;8498;21586438720;25140597791;837864139;385360805;1844562373;62713840;503463262;14;8;3984;0;78;94
1;53;1554728460325;1554728468824;8499;21564260882;25140503077;834221308;385913098;1844543246;62723825;503369271;1;0;8;0;0;0
1;54;1554728468825;1554728477329;8504;21568519118;25140493331;840503294;385345725;1844533625;62705340;503427737;0;0;0;0;0;0
1;55;1554728477330;1554728485833;8503;21577251232;25140646881;833994122;386125209;1844543019;62742317;503310524;4;0;80;0;10;19
1;56;1554728485833;1554728494328;8495;21576462540;25140495683;833859634;386212355;1844531029;62718401;503422020;20;12;4304;0;98;149
1;57;1554728494328;1554728502810;8482;21567532450;25140590625;834722175;386148248;1844553564;62728731;503455521;0;0;0;0;0;0
1;58;1554728502810;1554728511303;8493;21563763460;25140664247;833859245;386173689;1844555702;62713623;503544035;0;0;0;0;0;0
1;59;1554728511303;1554728519801;8498;21572999274;25140593539;833492932;386080545;1844542167;62713651;503389914;2;0;64;0;1;1
1;60;1554728519802;1554728528318;8516;21581402158;25140495089;833255106;386003239;1844536322;62710722;503399351;16;14;4232;1;60;101
1;61;1554728528318;1554728536802;8484;21575198910;25140576671;833222170;384588799;1844543828;62730306;502882372;3;0;16;-1;34;35
1;62;1554728536802;1554728545304;8502;21569446510;25140527242;835230213;386062025;1844525627;62704666;503431781;2;0;64;0;9;9
1;63;1554728545304;1554728553808;8504;21560722718;25140476914;833577921;386132295;1844523308;62697509;503518300;0;0;0;0;0;0
1;64;1554728553808;1554728562307;8499;21600038766;25140492071;838510454;386675273;1844530181;62697316;503491761;32;4;4488;0;95;243
1;65;1554728562308;1554728570806;8498;21569903782;25140502707;833405755;386108232;1844516727;62696508;503436495;0;0;0;0;0;0
1;66;1554728570806;1554728579313;8507;21584683070;25140416896;833113307;385823712;1844516852;62699520;503408110;0;0;0;0;0;0
1;67;1554728579313;1554728587821;8508;21597751530;25140390264;839090161;386490711;1844513057;62704532;503440498;0;0;0;0;0;0
1;68;1554728587821;1554728596325;8504;21572365780;25140497777;838723895;385940005;1844525643;62703914;503593578;439;16;46384;0;1310;1620
1;69;1554728596325;1554728604812;8487;21609618702;25140411232;840793043;387005711;1844518019;62709424;503444260;1;0;8;0;0;0
1;70;1554728604812;1554728613317;8505;21615305694;25140467545;841353665;386836983;1844535287;62706541;503418752;0;0;0;0;0;0
1;71;1554728613317;1554728621828;8511;21606714324;25140504960;840851490;386644844;1844525739;62712952;503344126;111;20;6288;0;269;2965
1;72;1554728621828;1554728630322;8494;21625286838;25140539228;841008068;386588722;1844532536;62727999;503372005;0;0;0;0;0;0
1;73;1554728630322;1554728638825;8503;21563378458;25140402155;834266822;386232823;1844516458;62696657;503489066;0;0;0;0;0;0
1;74;1554728638825;1554728647318;8493;21559400980;25140548584;834225321;386218112;1844531559;62706142;503567071;0;0;0;0;0;0
1;75;1554728647319;1554728655877;8558;21569939260;25140391601;833533577;386178344;1844505091;62702426;503446869;24;14;5024;0;108;267
1;76;1554728655877;1554728664368;8491;21592803736;25140527683;836448811;386228314;1844542315;62702675;503318852;0;0;0;0;0;0
1;77;1554728664368;1554728672876;8508;21584616056;25140457127;841226736;386075381;1844522325;62707892;503440097;0;0;0;0;0;0
1;78;1554728672876;1554728681390;8514;21569741138;25140554138;841137698;385605166;1844534657;62695545;503533647;15;10;4624;0;109;119
1;79;1554728681390;1554728689895;8505;21560021626;25140379621;834828752;386099115;1844509620;62702079;503543714;0;0;0;0;0;0
1;80;1554728689895;1554728698387;8492;21570823144;25140537777;833407553;385931115;1844530689;62701547;503460257;1;0;8;0;0;0
1;81;1554728698387;1554728706890;8503;21580032970;25140613064;833183017;385874065;1844538387;62727452;503362046;0;0;0;0;0;0
1;82;1554728706890;1554728715389;8499;21573957180;25140353910;833515839;386169934;1844516802;62705595;503450958;26;6;4432;0;111;206
1;83;1554728715390;1554728723927;8537;21671735862;25140295190;833893254;386236982;1844498454;62708713;503482313;0;0;0;0;0;0
1;84;1554728723927;1554728732411;8484;21580346870;25140529751;834269668;386202398;1844526875;62722856;503561703;1;0;8;0;0;0
2;35;1554729120868;1554729129381;8513;21561005082;25140603576;835233493;385876548;1844549770;63033705;503295967;21;10;4312;0;81;125
2;36;1554729129381;1554729137897;8516;21572737788;25140533604;837327635;385522780;1844528818;63065589;503347871;0;0;0;0;0;0
2;37;1554729137897;1554729146397;8500;21570540488;25140454053;839722060;385162250;1844534483;62976870;503285100;0;0;0;0;0;0
2;38;1554729146397;1554729154878;8481;21552810394;25140551611;834440041;385669485;1844545771;63030915;503384445;0;0;0;0;0;0
2;39;1554729154878;1554729163375;8497;21569968022;25140472053;832673312;385967687;1844535819;62998247;503328227;27;8;4248;0;99;179
2;40;1554729163376;1554729171869;8493;21578900156;25140653307;834839787;386263972;1844561429;63012568;503409733;0;0;0;0;0;0
2;41;1554729171869;1554729180373;8504;21573839504;25140453424;834725463;386331936;1844522357;63022255;503297336;0;0;0;0;0;0
2;42;1554729180374;1554729188845;8471;21567859928;25140556609;832987521;385870952;1844534226;63031337;503365997;2;0;72;0;1;1
2;43;1554729188845;1554729197336;8491;21559255272;25140409297;833024496;386030114;1844523522;63028655;503399107;18;14;4176;0;85;127
2;44;1554729197336;1554729205833;8497;21563070252;25140433326;832873249;385828769;1844519324;63026955;503324638;0;0;0;0;0;0
2;45;1554729205833;1554729214316;8483;21559002984;25140544545;833042368;386011319;1844542364;63063073;503317617;0;0;0;0;0;0
2;46;1554729214316;1554729222804;8488;21551263816;25140540434;833197754;385921826;1844538771;63038863;503320784;3;0;72;0;9;19
2;47;1554729222804;1554729231302;8498;21557829144;25140661626;833050881;386042744;1844556187;63027535;503346018;18;10;4176;0;80;116
2;48;1554729231302;1554729239809;8507;21595774398;25140698159;837543779;386411221;1844565252;63031598;503415396;0;0;0;0;0;0
2;49;1554729239809;1554729248308;8499;21569709602;25140657920;833664846;386131412;1844550698;63032705;503453767;2;0;64;0;1;1
2;50;1554729248308;1554729256809;8501;21569734130;25140495643;832634902;385936862;1844539179;63063875;503325631;0;0;0;0;0;0
2;51;1554729256809;1554729265307;8498;21565861480;25140659727;832645604;385808405;1844547960;63040175;503216545;17;10;4184;0;76;102
2;52;1554729265307;1554729273820;8513;21609946180;25140583006;836500817;386358311;1844559687;63044647;503409522;0;0;0;0;0;0
2;53;1554729273820;1554729282323;8503;21566327658;25140542817;833906098;386146875;1844550848;63008988;503427503;2;0;64;0;9;9
2;54;1554729282323;1554729290819;8496;21588302410;25140508364;836607997;386401769;1844536011;63053216;503443290;0;0;0;0;0;0
2;55;1554729290819;1554729299339;8520;21616386678;25140488205;840796732;387132268;1844514410;63014914;503371278;22;8;4616;0;87;121
2;56;1554729299339;1554729307853;8514;21599276646;25140256422;840730487;386877719;1844487692;63001600;503319260;0;0;0;0;0;0
2;57;1554729307853;1554729316365;8512;21589105264;25140309417;838750323;386572644;1844502162;63012772;503259558;0;0;0;0;0;0
2;58;1554729316365;1554729324872;8507;21564248472;25140431831;835411244;385834742;1844513358;63001723;503312553;2;0;64;0;1;2
2;59;1554729324872;1554729333364;8492;21554458004;25140407242;834275394;386243750;1844508240;63025751;503431292;14;8;3984;0;81;102
2;60;1554729333364;1554729341884;8520;21572412062;25140307786;840208098;385774617;1844502237;63008951;503348320;1;0;8;0;0;0
2;61;1554729341884;1554729350392;8508;21552805868;25140333116;838049529;383685825;1844499496;63013276;502827038;0;0;0;0;0;0
2;62;1554729350392;1554729358890;8498;21563372910;25140345252;839944278;385073946;1844492597;63008024;503233542;4;0;80;0;1;4
2;63;1554729358890;1554729367390;8500;21553468708;25140291449;840140908;385457957;1844489599;62976594;503405513;20;14;4432;0;93;143
2;64;1554729367390;1554729375896;8506;21552428166;25140313964;834413992;386240117;1844497675;62973889;503479775;0;0;0;0;0;0
2;65;1554729375896;1554729384393;8497;21603124476;25140330291;841113806;387096675;1844485339;62993421;503530247;0;0;0;0;0;0
2;66;1554729384393;1554729392915;8522;21615316060;25140371749;840490121;386715196;1844508733;62983648;503337124;2;0;64;0;1;1
2;67;1554729392915;1554729401433;8518;21608756718;25140329406;841035415;387293809;1844502029;62962354;503352854;438;18;46712;0;1356;1598
2;68;1554729401433;1554729409953;8520;21581094244;25140459630;840609516;385953330;1844518199;63035423;503391879;0;0;0;0;0;0
2;69;1554729409953;1554729418453;8500;21560702570;25140384266;840201323;385338439;1844513199;63015562;503468624;78;1;808;0;64;1840
2;70;1554729418453;1554729426959;8506;21558572868;25140452657;840261758;385299431;1844532795;63003405;503513487;25;18;6096;0;108;201
2;71;1554729426960;1554729435475;8515;21571129452;25140495644;836907921;386105328;1844523782;62999932;503420044;0;0;0;0;0;0
2;72;1554729435475;1554729443984;8509;21610996358;25140536235;840687705;386869580;1844531974;62969293;503420903;0;0;0;0;0;0
2;73;1554729443984;1554729452501;8517;21578475880;25140442012;840297198;386205351;1844523827;63001154;503385385;2;0;64;0;1;1
2;74;1554729452501;1554729461010;8509;21580276060;25140538681;838331753;386428429;1844529580;63016091;503355728;27;8;4336;0;92;162
2;75;1554729461010;1554729469515;8505;21565603206;25140273739;840587873;385452895;1844483835;62978494;503347272;1;0;8;0;1;1
2;76;1554729469515;1554729478015;8500;21566005290;25140537545;840009742;385210607;1844544534;63015571;503434821;2;0;64;0;9;9
2;77;1554729478015;1554729486515;8500;21559719114;25140325601;835855652;385664328;1844498672;62960090;503342696;0;0;0;0;0;0
2;78;1554729486516;1554729495028;8512;21562696784;25140340420;832948785;385960392;1844495842;62982234;503334744;21;14;4312;0;80;130
2;79;1554729495028;1554729503526;8498;21607118306;25140234746;841027219;387006587;1844483232;62972229;503352632;0;0;0;0;0;0
2;80;1554729503526;1554729512044;8518;21617106020;25140357585;840260180;386556690;1844501479;62970462;503307631;2;0;64;0;9;9
2;81;1554729512044;1554729520565;8521;21601828434;25140423043;840597096;386898459;1844503733;63001342;503400577;0;0;0;0;0;0
2;82;1554729520565;1554729529086;8521;21605788392;25140182446;840857435;387114289;1844485497;62958764;503439497;25;4;4312;0;100;180
2;83;1554729529086;1554729537587;8501;21574700904;25140259009;837525642;386177330;1844491579;63003375;503387884;0;0;0;0;0;0
2;84;1554729537587;1554729546093;8506;21552963986;25140523256;833234580;385962297;1844525862;63051568;503291448;2;0;64;0;9;9
3;35;1554729932398;1554729940900;8502;21510156202;25140552872;833083476;386040592;1844540466;62678626;503376455;2;0;64;0;1;2
3;36;1554729940900;1554729949378;8478;21516222648;25140575587;833411504;386109926;1844536694;62677705;503520487;32;4;4112;0;98;266
3;37;1554729949378;1554729957870;8492;21534808302;25140505041;832951185;385878006;1844543883;62662462;503464512;0;0;0;0;0;0
3;38;1554729957870;1554729966353;8483;21518055678;25140511596;833414301;386222646;1844538274;62661198;503427315;0;0;0;0;0;0
3;39;1554729966354;1554729974841;8487;21557890902;25140507959;839540089;386692161;1844542212;62659368;503432644;3;0;72;0;10;20
3;40;1554729974842;1554729983326;8484;21567800068;25140730052;839882755;386808401;1844575542;62661616;503457248;28;8;4304;0;85;221
3;41;1554729983326;1554729991819;8493;21533507588;25140475739;832912858;386016473;1844526174;62660914;503461282;0;0;0;0;0;0
3;42;1554729991819;1554730000307;8488;21530384648;25140550000;832753136;386001435;1844533022;62673547;503437792;2;0;64;0;1;1
3;43;1554730000308;1554730008801;8493;21549858420;25140452160;834716743;385541982;1844531112;62684803;503540940;0;0;0;0;0;0
3;44;1554730008801;1554730017279;8478;21566409710;25140526951;839978282;386861526;1844536554;62663146;503425201;31;10;4480;0;106;249
3;45;1554730017279;1554730025783;8504;21573269666;25140606570;840880221;386978840;1844553808;62651555;503440158;0;0;0;0;0;0
3;46;1554730025783;1554730034282;8499;21569783770;25140541192;840715744;386839844;1844539047;62663035;503417215;0;0;0;0;0;0
3;47;1554730034282;1554730042779;8497;21582263412;25140586966;840516415;386658028;1844542423;62658565;503445755;0;0;0;0;0;0
3;48;1554730042779;1554730051255;8476;21534054212;25140627998;834913548;386019460;1844552425;62672232;503411750;35;8;4440;0;101;282
3;49;1554730051255;1554730059747;8492;21530689788;25140626320;832827141;386060964;1844544928;62652734;503450513;0;0;0;0;0;0
3;50;1554730059747;1554730068235;8488;21534836918;25140518386;832660940;386090303;1844543254;62672998;503394886;0;0;0;0;0;0
3;51;1554730068235;1554730076724;8489;21545836120;25140649492;833493637;386102193;1844545774;62677071;503456242;4;0;80;0;1;4
3;52;1554730076724;1554730085203;8479;21535003796;25140581147;832795606;386087464;1844559276;62661114;503456764;30;10;4432;0;95;247
3;53;1554730085203;1554730093700;8497;21527083734;25140545069;832879493;386144964;1844551013;62657677;503559146;0;0;0;0;0;0
3;54;1554730093700;1554730102196;8496;21528744922;25140526789;832842480;385998232;1844539772;62663493;503394760;0;0;0;0;0;0
3;55;1554730102196;1554730110692;8496;21530438376;25140639354;835804507;386388681;1844541952;62678102;503449825;2;0;72;0;1;1
3;56;1554730110692;1554730119185;8493;21565991712;25140441811;839710669;386798356;1844521175;62668091;503425069;30;8;4176;0;91;243
3;57;1554730119185;1554730127697;8512;21542981674;25140594809;840037829;385052469;1844554143;62679876;503433490;1;0;8;0;0;0
3;58;1554730127697;1554730136193;8496;21525697610;25140689489;838199726;385663702;1844560656;62675061;503508508;0;0;0;0;0;0
3;59;1554730136194;1554730144694;8500;21523961232;25140587689;833160024;385948359;1844541204;62655977;503509216;2;0;64;0;9;9
3;60;1554730144694;1554730153171;8477;21515043844;25140528177;832919976;385914529;1844542430;62672373;503370651;1;0;8;0;1;1
3;61;1554730153171;1554730161666;8495;21525976616;25140536188;830577110;384034679;1844536061;62672090;502894541;24;6;4240;0;86;168
3;62;1554730161666;1554730170154;8488;21531082674;25140603571;833898891;386168086;1844539698;62636748;503522983;2;0;64;0;9;9
3;63;1554730170154;1554730178636;8482;21562323608;25140565745;841162311;387001621;1844539735;62629858;503568806;0;0;0;0;0;0
3;64;1554730178636;1554730187140;8504;21554888266;25140609987;841094055;386556473;1844551601;62632912;503480888;1;0;8;0;0;0
3;65;1554730187140;1554730195643;8503;21545892184;25140515024;836475645;386248541;1844519100;62644787;503448984;22;10;4304;0;83;150
3;66;1554730195643;1554730204156;8513;21566719084;25140389322;840733876;386750421;1844511855;62644962;503377645;2;0;64;0;10;11
3;67;1554730204156;1554730212655;8499;21548260304;25140389019;839378349;386300165;1844512784;62646986;503503377;443;12;46032;0;1260;1585
3;68;1554730212655;1554730221137;8482;21524533114;25140527284;836458574;385702928;1844530900;62633631;503532550;1;0;8;0;0;0
3;69;1554730221137;1554730229656;8519;21540194680;25140413379;833247216;385984597;1844518379;62630897;503466877;79;2;856;0;51;2932
3;70;1554730229656;1554730238159;8503;21521667718;25140439383;837465524;385907934;1844530474;62650317;503359944;0;0;0;0;0;0
3;71;1554730238159;1554730246632;8473;21511823522;25140565099;833301897;386141121;1844536866;62654257;503505733;49;20;6480;0;133;466
3;72;1554730246632;1554730255123;8491;21512370584;25140610596;833359366;386240121;1844545474;62638680;503497476;0;0;0;0;0;0
3;73;1554730255124;1554730263622;8498;21513132266;25140428346;833202996;386120240;1844521239;62645331;503503022;3;0;72;0;1;3
3;74;1554730263622;1554730272124;8502;21519605176;25140643660;837391812;385584115;1844549111;62650215;503509202;0;0;0;0;0;0
3;75;1554730272125;1554730280615;8490;21536220560;25140379807;839390683;385314249;1844502996;62656485;503545246;30;14;4424;0;91;209
3;76;1554730280615;1554730289107;8492;21520419126;25140522679;840335332;385300621;1844541600;62645404;503379498;0;0;0;0;0;0
3;77;1554730289107;1554730297592;8485;21512371022;25140327982;834540093;386162827;1844498955;62648231;503472002;0;0;0;0;0;0
3;78;1554730297592;1554730306085;8493;21520832014;25140589206;833763094;386153738;1844541162;62645423;503504181;2;0;64;0;0;0
3;79;1554730306085;1554730314574;8489;21565993464;25140437002;840567579;386536280;1844520156;62635084;503430307;0;0;0;0;0;0
3;80;1554730314574;1554730323084;8510;21564466012;25140610079;841168432;387101327;1844544067;62631669;503462277;31;4;3992;0;102;254
3;81;1554730323084;1554730331600;8516;21568373848;25140708522;840896530;386947646;1844555789;62633353;503483438;0;0;0;0;0;0
3;82;1554730331600;1554730340085;8485;21563134638;25140409715;840847968;386909930;1844527225;62645164;503412897;2;0;64;0;9;9
3;83;1554730340085;1554730348596;8511;21570051388;25140360179;840710508;386735134;1844510162;62658232;503411065;0;0;0;0;0;0
3;84;1554730348596;1554730357096;8500;21562187682;25140512912;841001686;386928031;1844523926;62648741;503484479;33;12;4184;0;84;251
4;35;1554730744108;1554730752620;8512;21574160558;25140546298;841415563;386968167;1844539234;62701520;503376452;4;0;80;0;39;48
4;36;1554730752620;1554730761112;8492;21573344710;25140561363;841399029;386836061;1844533875;62700429;503473998;34;12;4496;0;103;307
4;37;1554730761112;1554730769618;8506;21592328360;25140606756;841187119;386662501;1844562219;62723141;503466777;0;0;0;0;0;0
4;38;1554730769618;1554730778114;8496;21573928126;25140576327;841464028;386916259;1844550055;62679455;503403351;0;0;0;0;0;0
4;39;1554730778114;1554730786604;8490;21558350510;25140472718;838965088;386594821;1844535854;62687848;503348674;2;0;64;0;0;0
4;40;1554730786604;1554730795098;8494;21530745414;25140714783;833450964;385954778;1844572673;62677904;503421423;32;8;4048;0;99;265
4;41;1554730795098;1554730803568;8470;21537867586;25140494709;832958335;385649590;1844529612;62673210;503396193;0;0;0;0;0;0
4;42;1554730803568;1554730812066;8498;21537375858;25140523949;832324318;385270920;1844528184;62696701;503199435;2;0;64;0;9;9
4;43;1554730812066;1554730820559;8493;21538031690;25140409462;833164485;385984101;1844523239;62681473;503535851;0;0;0;0;0;0
4;44;1554730820559;1554730829038;8479;21570382370;25140453380;841101045;386950222;1844523186;62707497;503484920;40;14;4768;0;120;361
4;45;1554730829038;1554730837550;8512;21573077384;25140545577;841423731;387019293;1844542604;62696848;503418496;0;0;0;0;0;0
4;46;1554730837550;1554730846054;8504;21574364666;25140481538;841120654;386721478;1844527963;62683198;503363864;0;0;0;0;0;0
4;47;1554730846054;1554730854560;8506;21568293110;25140593966;841287826;386783774;1844543708;62682103;503471716;0;0;0;0;0;0
4;48;1554730854560;1554730863051;8491;21571750828;25140649960;841360727;386951300;1844556251;62699498;503438897;2;0;64;0;1;2
4;49;1554730863051;1554730871550;8499;21572858384;25140606717;841357390;386959797;1844541263;62657242;503440264;24;10;4048;0;81;161
4;50;1554730871550;1554730880044;8494;21569572070;25140540022;841384779;386895620;1844547239;62678336;503423424;0;0;0;0;0;0
4;51;1554730880044;1554730888534;8490;21591902770;25140655865;841174605;386741165;1844546940;62681909;503403039;2;0;64;0;9;10
4;52;1554730888534;1554730897048;8514;21575048530;25140582159;841409362;387026151;1844559456;62674081;503429567;0;0;0;0;0;0
4;53;1554730897048;1554730905561;8513;21570469240;25140509797;841349212;386973838;1844544437;62682102;503505157;30;10;4360;0;104;220
4;54;1554730905561;1554730914072;8511;21573322372;25140579314;841381045;386908631;1844549173;62653102;503410299;0;0;0;0;0;0
4;55;1554730914072;1554730922565;8493;21560797178;25140677262;838419634;386564390;1844549025;62695376;503395729;0;0;0;0;0;0
4;56;1554730922565;1554730931066;8501;21569990944;25140442001;841537441;386948450;1844521283;62688557;503405463;0;0;0;0;0;0
4;57;1554730931066;1554730939575;8509;21574925160;25140544238;841541990;386845987;1844544863;62667698;503503238;20;10;4112;0;75;112
4;58;1554730939576;1554730948083;8507;21570508806;25140633202;841205877;386923478;1844550184;62685927;503454469;1;0;8;0;1;1
4;59;1554730948083;1554730956576;8493;21569226780;25140583213;841473315;386907523;1844540297;62675890;503470990;0;0;0;0;0;0
4;60;1554730956576;1554730965091;8515;21575666548;25140524410;841433571;386923805;1844541595;62689942;503396422;4;0;80;0;9;18
4;61;1554730965091;1554730973599;8508;21570839350;25140527892;838899789;384873625;1844535089;62687267;502931099;20;8;4304;0;84;134
4;62;1554730973599;1554730982102;8503;21564395932;25140509671;841521282;386849582;1844522361;62631206;503435232;0;0;0;0;0;0
4;63;1554730982102;1554730990591;8489;21569486660;25140481243;841647993;386940011;1844524254;62652491;503551578;0;0;0;0;0;0
4;64;1554730990591;1554730999098;8507;21567565008;25140562117;841586694;386950140;1844542970;62657370;503516170;2;0;64;0;1;2
4;65;1554730999098;1554731007613;8515;21571045502;25140475810;841381777;386820671;1844511747;62633070;503444143;34;8;4368;0;113;319
4;66;1554731007613;1554731016095;8482;21550032452;25140356529;839552495;386648384;1844505723;62649951;503431428;1;0;8;0;0;0
4;67;1554731016095;1554731024591;8496;21535835996;25140348155;837523710;386625897;1844505219;62644803;503512697;0;0;0;0;0;0
4;68;1554731024591;1554731033102;8511;21569845528;25140517239;841377312;386857535;1844529056;62652054;503422776;2;0;64;0;9;9
4;69;1554731033103;1554731041611;8508;21571808206;25140485163;841436543;386924562;1844531595;62658583;503498834;136;12;14184;1;476;985
4;70;1554731041611;1554731050113;8502;21530015122;25140545785;834325229;386077049;1844550010;62651507;503477273;346;8;36640;-1;993;1103
4;71;1554731050113;1554731058604;8491;21521504636;25140544380;833840973;385999167;1844533191;62667387;503469471;2;0;64;0;9;9
4;72;1554731058604;1554731067103;8499;21513725464;25140628206;833903961;386177084;1844548646;62639594;503415815;0;0;0;0;0;0
4;73;1554731067104;1554731075608;8504;21519347924;25140275275;833774540;386069516;1844493361;62643537;503448598;146;14;7088;0;190;2721
4;74;1554731075608;1554731084078;8470;21514738704;25140482562;833710066;386006683;1844519374;62656379;503408984;0;0;0;0;0;0
4;75;1554731084078;1554731092561;8483;21522410420;25140355303;833232019;385679790;1844498701;62661987;503421739;0;0;0;0;0;0
4;76;1554731092561;1554731101053;8492;21521388274;25140489758;834611853;386228768;1844535577;62669118;503436854;0;0;0;0;0;0
4;77;1554731101053;1554731109542;8489;21514215878;25140313203;833896006;386188853;1844496231;62627039;503414684;50;4;4640;0;130;485
4;78;1554731109542;1554731118019;8477;21506983476;25140558459;833919833;386106447;1844535543;62645444;503460009;0;0;0;0;0;0
4;79;1554731118019;1554731126495;8476;21510372428;25140420105;833660258;385829282;1844517075;62663340;503469825;0;0;0;0;0;0
4;80;1554731126496;1554731134975;8479;21513849710;25140614144;833659199;385881079;1844544762;62659295;503477661;2;0;64;0;1;1
4;81;1554731134975;1554731143463;8488;21521360388;25140706630;834291715;386095314;1844555508;62666266;503446489;44;4;4112;0;125;450
4;82;1554731143464;1554731151936;8472;21514007098;25140353262;833907693;386147022;1844516877;62639767;503490297;1;0;8;0;0;0
4;83;1554731151937;1554731160402;8465;21507891012;25140259531;833745557;385959975;1844491800;62672797;503416867;0;0;0;0;0;0
4;84;1554731160402;1554731168884;8482;21508400990;25140552340;829950415;382670117;1844531106;62666335;502443659;4;0;80;0;10;19
5;35;1554731556454;1554731564942;8488;21540100802;25140616488;833706538;386156043;1844552230;62818571;503489282;3;0;72;0;9;18
5;36;1554731564942;1554731573424;8482;21555614178;25140577226;833320244;386091257;1844536976;62803350;503581510;24;6;4112;0;92;173
5;37;1554731573424;1554731581932;8508;21546110162;25140577243;833101662;385967896;1844556781;62799438;503358005;0;0;0;0;0;0
5;38;1554731581933;1554731590440;8507;21564996430;25140589952;835590267;386262877;1844552571;62804004;503391584;0;0;0;0;0;0
5;39;1554731590440;1554731598945;8505;21593927644;25140515036;841376506;386936665;1844543637;62804494;503392340;2;0;64;0;1;2
5;40;1554731598945;1554731607455;8510;21590175298;25140710072;840754982;386599445;1844571886;62799703;503313946;24;6;3856;0;87;152
5;41;1554731607455;1554731615959;8504;21548388784;25140508896;834213249;385980395;1844532262;62822103;503390060;0;0;0;0;0;0
5;42;1554731615959;1554731624467;8508;21551244982;25140599223;833189020;385940822;1844542033;62804233;503378400;2;0;64;0;9;9
5;43;1554731624467;1554731632974;8507;21550322262;25140432954;839719732;385486178;1844527721;62808495;503440752;0;0;0;0;0;0
5;44;1554731632974;1554731641457;8483;21539395622;25140435692;835159681;385061675;1844519543;62807699;503093052;29;4;4160;0;100;197
5;45;1554731641457;1554731649956;8499;21535992654;25140621988;833980155;386363100;1844556605;62808739;503607482;0;0;0;0;0;0
5;46;1554731649956;1554731658450;8494;21537552372;25140578124;833807591;386179666;1844545789;62822707;503546653;0;0;0;0;0;0
5;47;1554731658450;1554731666948;8498;21534132176;25140686627;833749050;386150177;1844560800;62801228;503390069;0;0;0;0;0;0
5;48;1554731666949;1554731675428;8479;21530637374;25140612836;833682008;386010590;1844549484;62814179;503272188;22;8;4168;1;44;104
5;49;1554731675428;1554731683932;8504;21536407732;25140606940;833842860;386126284;1844540926;62794245;503343778;3;0;16;-1;44;45
5;50;1554731683933;1554731692435;8502;21540376304;25140509584;833538736;385944811;1844541424;62812299;503347484;0;0;0;0;0;0
5;51;1554731692435;1554731700923;8488;21536847338;25140725198;835354721;386020303;1844559837;62802263;503484846;2;0;64;0;1;2
5;52;1554731700923;1554731709434;8511;21549210326;25140562761;839339371;385508299;1844556081;62801296;503482887;24;6;3856;0;96;178
5;53;1554731709434;1554731717926;8492;21538281642;25140511996;836252836;385867518;1844544875;62802613;503419267;1;0;8;0;0;0
5;54;1554731717926;1554731726415;8489;21538807388;25140507543;834131793;385840529;1844535952;62798054;503275307;0;0;0;0;0;0
5;55;1554731726415;1554731734898;8483;21553342418;25140643800;833567280;385856697;1844542673;62842958;503328132;4;0;80;0;9;18
5;56;1554731734898;1554731743389;8491;21539526584;25140378787;833541820;386010610;1844509791;62802424;503374863;18;8;4112;0;92;127
5;57;1554731743390;1554731751894;8504;21559879568;25140460359;832901373;385729814;1844529386;62817953;503380203;0;0;0;0;0;0
5;58;1554731751894;1554731760395;8501;21543736202;25140642235;839324983;385470600;1844551833;62811996;503366037;2;0;64;0;1;1
5;59;1554731760395;1554731768875;8480;21550672078;25140610897;840752791;385297791;1844545043;62831684;503467018;0;0;0;0;0;0
5;60;1554731768875;1554731777401;8526;21637289352;25140479897;840813747;385342646;1844533563;62801348;503367098;28;8;4168;0;88;163
5;61;1554731777401;1554731785892;8491;21547387370;25140521892;838473017;383525328;1844533698;62803135;502961514;0;0;0;0;0;0
5;62;1554731785892;1554731794389;8497;21549190762;25140439650;839977355;385727727;1844509601;62772049;503496037;0;0;0;0;0;0
5;63;1554731794389;1554731802892;8503;21548159126;25140482006;839640535;386329561;1844524178;62772674;503492702;0;0;0;0;0;0
5;64;1554731802892;1554731811370;8478;21565203020;25140447463;838425782;386756903;1844522028;62772057;503505345;2;0;64;0;1;1
5;65;1554731811370;1554731819861;8491;21531221082;25140492961;833791077;386135164;1844514941;62776154;503374074;12;10;3920;0;74;85
5;66;1554731819861;1554731828356;8495;21576850754;25140346707;836898461;386422406;1844503957;62769263;503345565;189;8;25896;1;620;823
5;67;1554731828356;1554731836862;8506;21609174570;25140331313;838363277;386204468;1844502029;62786030;503415916;246;8;21328;-1;678;761
5;68;1554731836863;1554731845348;8485;21542761652;25140437996;840810858;385251396;1844514660;62779177;503453620;2;0;64;0;9;9
5;69;1554731845348;1554731853888;8540;21552148138;25140461320;840643127;385107521;1844527065;62778186;503395807;79;2;816;0;67;2889
5;70;1554731853888;1554731862380;8492;21536095438;25140457938;837064101;385701569;1844533868;62778061;503383801;25;18;6096;0;115;174
5;71;1554731862380;1554731870868;8488;21533750678;25140501241;834071155;386231909;1844524935;62771898;503445056;0;0;0;0;0;0
5;72;1554731870868;1554731879338;8470;21524172932;25140518471;833535466;385863147;1844528663;62763144;503334733;0;0;0;0;0;0
5;73;1554731879338;1554731887845;8507;21547266190;25140422576;838255880;385714050;1844520172;62775397;503558195;2;0;64;0;1;2
5;74;1554731887845;1554731896355;8510;21571109888;25140562876;841112522;385763249;1844534175;62802953;503575476;16;8;3984;0;78;104
5;75;1554731896355;1554731904847;8492;21587730090;25140486724;841449004;386980562;1844522527;62775978;503422022;1;0;8;0;0;0
5;76;1554731904847;1554731913350;8503;21584770670;25140570685;841393865;386914409;1844550379;62763867;503369103;0;0;0;0;0;0
5;77;1554731913350;1554731921852;8502;21585289554;25140439536;841525997;386930691;1844518972;62780196;503382767;2;0;64;0;9;9
5;78;1554731921852;1554731930358;8506;21577345402;25140499533;841042124;386689592;1844524839;62771416;503368751;17;12;4120;0;74;100
5;79;1554731930359;1554731938837;8478;21558396646;25140410339;841055779;385896070;1844515221;62772070;503506332;0;0;0;0;0;0
5;80;1554731938838;1554731947324;8486;21544326626;25140495790;836254868;385661960;1844523163;62783776;503401335;2;0;64;0;9;10
5;81;1554731947324;1554731955827;8503;21542240286;25140643578;833285766;385922979;1844543870;62787187;503454063;0;0;0;0;0;0
5;82;1554731955827;1554731964313;8486;21543630206;25140344788;833118900;385947330;1844515286;62775368;503338758;27;8;4584;0;110;171
5;83;1554731964314;1554731972797;8483;21577764422;25140291972;839356368;386156744;1844497792;62769400;503356662;0;0;0;0;0;0
5;84;1554731972797;1554731981290;8493;21548428350;25140543865;833092768;385882263;1844529571;62781000;503398621;0;0;0;0;0;0
6;35;1554732368041;1554732376542;8501;21548913654;25140610018;835866728;385777335;1844552238;62806587;503498484;2;0;64;0;9;9
6;36;1554732376542;1554732385029;8487;21545436372;25140621680;833806730;386101371;1844546501;62795863;503500055;27;4;3408;0;89;188
6;37;1554732385029;1554732393510;8481;21559759264;25140488055;833482238;385908145;1844541996;62801161;503430879;0;0;0;0;0;0
6;38;1554732393510;1554732402010;8500;21547549868;25140498163;833417927;385941015;1844537079;62780517;503314403;0;0;0;0;0;0
6;39;1554732402010;1554732410511;8501;21557459034;25140478975;833541763;385806706;1844538534;62796605;503334998;3;0;72;0;10;19
6;40;1554732410511;1554732419014;8503;21565953460;25140627309;838207451;386602090;1844557846;62800652;503485075;32;12;4368;0;93;265
6;41;1554732419014;1554732427500;8486;21531618494;25140393702;833814848;386044549;1844512577;62799400;503464152;0;0;0;0;0;0
6;42;1554732427500;1554732436002;8502;21539558412;25140513787;833977207;386093265;1844527337;62795284;503446497;2;0;64;0;1;1
6;43;1554732436002;1554732444507;8505;21543689336;25140435334;833585878;385933916;1844529142;62800663;503360160;0;0;0;0;0;0
6;44;1554732444507;1554732453014;8507;21545749980;25140521730;833572317;385800843;1844536943;62790193;503363628;0;0;0;0;0;0
6;45;1554732453014;1554732461500;8486;21538362526;25140594578;833933491;386168973;1844552978;62795650;503455325;26;10;4240;0;95;187
6;46;1554732461501;1554732469998;8497;21552596358;25140559545;833429167;385853426;1844543759;62791172;503457217;2;0;64;0;9;9
6;47;1554732469998;1554732478499;8501;21561440308;25140680130;833202277;385839681;1844560957;62798827;503430732;0;0;0;0;0;0
6;48;1554732478499;1554732487007;8508;21562276158;25140654109;838971756;385782501;1844558499;62788288;503311632;3;0;48;0;9;18
6;49;1554732487007;1554732495486;8479;21544944644;25140592942;840722920;385192121;1844540121;62794272;503352129;32;8;4304;0;94;261
6;50;1554732495486;1554732504004;8518;21549713880;25140502726;840940983;385250879;1844542075;62792318;503389805;0;0;0;0;0;0
6;51;1554732504004;1554732512517;8513;21544507374;25140672981;839107411;385797339;1844551833;62803835;503617042;2;0;64;0;1;1
6;52;1554732512517;1554732521007;8490;21557898202;25140504234;833348140;385940594;1844546559;62789980;503450816;0;0;0;0;0;0
6;53;1554732521007;1554732529501;8494;21562730948;25140509662;836885474;386343314;1844545770;62795616;503403906;34;8;4424;0;99;254
6;54;1554732529501;1554732537992;8491;21539420734;25140513201;833771758;386104855;1844538139;62793275;503380138;0;0;0;0;0;0
6;55;1554732537992;1554732546482;8490;21547884646;25140648128;833530133;386085925;1844544962;62815663;503392900;0;0;0;0;0;0
6;56;1554732546482;1554732554949;8467;21549642778;25140472823;833729977;385915754;1844528651;62792743;503465911;0;0;0;0;0;0
6;57;1554732554949;1554732563436;8487;21558811870;25140479088;833384533;385903626;1844534173;62808546;503431318;38;4;4384;0;92;301
6;58;1554732563436;1554732571934;8498;21560126016;25140633126;833332257;385865652;1844551035;62797346;503428019;0;0;0;0;0;0
6;59;1554732571934;1554732580410;8476;21554067016;25140586649;833298653;385967953;1844542355;62792422;503352370;0;0;0;0;0;0
6;60;1554732580410;1554732588917;8507;21549122288;25140540884;833341436;385885510;1844546365;62799464;503308325;2;0;64;0;1;1
6;61;1554732588917;1554732597414;8497;21545094294;25140526550;831733791;384465346;1844536094;62805690;503062371;29;6;4208;0;119;243
6;62;1554732597414;1554732605916;8502;21549185214;25140614460;833731261;385767384;1844542970;62775042;503497091;1;0;8;0;0;0
6;63;1554732605917;1554732614408;8491;21548410392;25140535733;833799600;386025726;1844535512;62779509;503562659;0;0;0;0;0;0
6;64;1554732614409;1554732622900;8491;21550153048;25140516890;833631635;385926930;1844535966;62766794;503447725;4;0;80;0;10;22
6;65;1554732622900;1554732631392;8492;21567766196;25140585012;837846502;386554238;1844533390;62775030;503400378;31;10;4592;0;105;245
6;66;1554732631392;1554732639887;8495;21587086084;25140395043;841811810;386947399;1844514298;62787014;503404483;0;0;0;0;0;0
6;67;1554732639887;1554732648366;8479;21550532648;25140373860;840214344;385620265;1844511643;62798496;503393726;445;8;45792;0;1335;1630
6;68;1554732648366;1554732656859;8493;21577122898;25140506766;833512836;386387406;1844528464;62783273;503475090;518;47;205472;0;1750;6460
6;69;1554732656859;1554732665344;8485;21544653812;25140402283;833623753;385991762;1844517728;62790263;503471266;1;0;8;0;0;0
6;70;1554732665344;1554732673828;8484;21543497346;25140517993;833558459;385953998;1844546022;62768252;503384816;0;0;0;0;0;0
6;71;1554732673828;1554732682329;8501;21554435958;25140491508;835091603;386127222;1844524796;62774966;503302395;133;24;8384;0;408;10326
6;72;1554732682329;1554732690817;8488;21531553232;25140521429;833631434;385679320;1844530584;62765586;503376285;0;0;0;0;0;0
6;73;1554732690817;1554732699315;8498;21547724192;25140396148;833382589;385861173;1844516827;62771628;503372478;0;0;0;0;0;0
6;74;1554732699315;1554732707810;8495;21556193360;25140525127;833838004;386157007;1844528483;62791589;503514078;0;0;0;0;0;0
6;75;1554732707810;1554732716296;8486;21554722410;25140355750;839137492;385936757;1844499867;62771737;503418778;30;14;4848;1;77;201
6;76;1554732716296;1554732724793;8497;21542647042;25140492466;839366807;385350841;1844537512;62787385;503359022;3;0;16;-1;39;40
6;77;1554732724793;1554732733295;8502;21580882836;25140365279;841303164;386888492;1844507068;62772499;503445896;0;0;0;0;0;0
6;78;1554732733295;1554732741804;8509;21586652026;25140601654;841514417;386829292;1844544647;62774005;503610756;0;0;0;0;0;0
6;79;1554732741804;1554732750296;8492;21591297600;25140422686;841564108;386888367;1844518882;62769928;503402684;26;12;4640;0;86;146
6;80;1554732750296;1554732758795;8499;21579265886;25140498058;841722320;386930798;1844525084;62782197;503342702;0;0;0;0;0;0
6;81;1554732758795;1554732767295;8500;21586366596;25140699169;841588226;386904977;1844555364;62779645;503322003;0;0;0;0;0;0
6;82;1554732767295;1554732775802;8507;21601025580;25140405261;841282621;386647533;1844527778;62767657;503349868;2;0;72;0;1;1
6;83;1554732775802;1554732784284;8482;21588011286;25140263388;841798754;387020392;1844493642;62782881;503454295;24;8;4048;0;106;191
6;84;1554732784284;1554732792786;8502;21580990292;25140486144;841549368;386886936;1844520617;62791270;503492917;1;0;8;0;1;1
7;35;1554733179518;1554733188025;8507;21589080006;25140562505;833418079;385954061;1844542335;62633994;503367491;3;0;48;0;9;18
7;36;1554733188025;1554733196512;8487;21613119636;25140565906;834234087;386096348;1844534810;62636563;503446662;20;12;4496;0;101;149
7;37;1554733196512;1554733205042;8530;21609094124;25140519251;834008452;386106781;1844546405;62622509;503445029;0;0;0;0;0;0
7;38;1554733205042;1554733213561;8519;21616942208;25140493255;834946447;386063749;1844534721;62625090;503517726;0;0;0;0;0;0
7;39;1554733213561;1554733222086;8525;21611529842;25140498863;835067178;386249838;1844540342;62641024;503441555;2;0;64;0;1;1
7;40;1554733222086;1554733230591;8505;21606876384;25140719639;833982205;385988336;1844573621;62617736;503489175;14;8;3984;0;71;88
7;41;1554733230591;1554733239113;8522;21617294506;25140493513;835823448;386382873;1844529422;62624795;503431985;0;0;0;0;0;0
7;42;1554733239113;1554733247636;8523;21604691056;25140576982;833252209;385900284;1844537953;62624084;503374990;2;0;64;0;9;9
7;43;1554733247636;1554733256161;8525;21638699858;25140467839;839389979;386879831;1844534138;62620390;503556114;0;0;0;0;0;0
7;44;1554733256161;1554733264679;8518;21643636556;25140547773;841036671;386995022;1844540405;62633661;503498127;17;14;4480;0;101;131
7;45;1554733264679;1554733273203;8524;21596066836;25140627325;833389630;385978295;1844557638;62623910;503384845;0;0;0;0;0;0
7;46;1554733273203;1554733281724;8521;21626865682;25140590044;837847259;386626828;1844548012;62636823;503512529;0;0;0;0;0;0
7;47;1554733281724;1554733290233;8509;21595665482;25140663854;833377572;386125642;1844556628;62643918;503484012;0;0;0;0;0;0
7;48;1554733290233;1554733298744;8511;21634573168;25140705200;837921852;386510217;1844566504;62636165;503490260;18;10;4048;0;71;97
7;49;1554733298744;1554733307282;8538;21648011008;25140679475;841025929;386975930;1844554644;62624129;503505595;0;0;0;0;0;0
7;50;1554733307282;1554733315831;8549;21725304576;25140453349;841035496;387012146;1844531529;62613118;503506560;0;0;0;0;0;0
7;51;1554733315831;1554733324359;8528;21647727330;25140645797;841112012;387082051;1844545451;62638275;503481849;4;0;80;0;10;30
7;52;1554733324359;1554733332881;8522;21647402334;25140590684;840785382;386831106;1844561335;62621929;503454759;20;12;4432;0;97;146
7;53;1554733332881;1554733341385;8504;21594067512;25140511325;834729668;386064295;1844544917;62602876;503405967;0;0;0;0;0;0
7;54;1554733341385;1554733349893;8508;21590225522;25140525020;833119249;385849188;1844539120;62626539;503408751;0;0;0;0;0;0
7;55;1554733349893;1554733358379;8486;21582672504;25140629858;833620671;386109007;1844540418;62623663;503482749;2;0;64;0;1;1
7;56;1554733358379;1554733366888;8509;21589974548;25140456304;833574147;386113178;1844524057;62639919;503503409;16;8;3984;0;75;101
7;57;1554733366888;1554733375415;8527;21662569106;25140486297;833717140;386207040;1844533962;62620496;503447624;1;0;8;0;0;0
7;58;1554733375415;1554733383908;8493;21582309840;25140679524;833542535;386012992;1844558469;62625082;503391273;2;0;64;0;9;9
7;59;1554733383908;1554733392412;8504;21637785898;25140606921;840545342;385925747;1844544521;62629030;503438978;0;0;0;0;0;0
7;60;1554733392412;1554733400927;8515;21596733034;25140493307;840549299;385353116;1844536035;62633029;503545218;19;10;4248;0;88;129
7;61;1554733400927;1554733409447;8520;21608196808;25140603257;838420299;383641093;1844548781;62628863;503054145;0;0;0;0;0;0
7;62;1554733409447;1554733417962;8515;21624383390;25140615957;840616138;385292456;1844542033;62598746;503524022;2;0;64;0;9;10
7;63;1554733417962;1554733426485;8523;21625677534;25140573348;840209148;385450078;1844541072;62583516;503456953;0;0;0;0;0;0
7;64;1554733426485;1554733435000;8515;21626589158;25140608258;833666990;386050895;1844551424;62593927;503478243;21;8;4312;0;83;133
7;65;1554733435000;1554733443498;8498;21619633718;25140578424;833535774;386184630;1844530733;62595281;503536167;0;0;0;0;0;0
7;66;1554733443498;1554733452018;8520;21660555328;25140446686;840402831;386796511;1844522299;62603566;503552706;2;0;64;0;9;9
7;67;1554733452018;1554733460534;8516;21605719480;25140286749;833505854;385992511;1844494172;62604842;503429544;1;0;8;0;0;0
7;68;1554733460534;1554733469047;8513;21599019102;25140466493;833184266;385879383;1844519722;62613096;503455615;16;10;4304;0;110;140
7;69;1554733469047;1554733477546;8499;21643987540;25140403041;839345346;386787684;1844516378;62607457;503470918;440;14;58112;0;1375;1727
7;70;1554733477546;1554733486062;8516;21641008556;25140448597;838811816;386605797;1844532047;62591062;503422347;0;0;0;0;0;0
7;71;1554733486062;1554733494576;8514;21654538230;25140493199;841301961;386988137;1844523724;62576704;503490743;1;0;8;0;1;1
7;72;1554733494576;1554733503094;8518;21661356722;25140554486;841144656;386959413;1844535406;62591633;503526177;0;0;0;0;0;0
7;73;1554733503094;1554733511603;8509;21675936574;25140328050;841045178;386885885;1844502974;62584896;503471870;99;18;6208;0;139;1381
7;74;1554733511603;1554733520133;8530;21658663898;25140552774;841016008;386791490;1844532143;62594872;503516984;0;0;0;0;0;0
7;75;1554733520133;1554733528652;8519;21624540194;25140396700;835566725;386133816;1844506234;62589627;503477935;1;0;8;0;0;0
7;76;1554733528652;1554733537182;8530;21666428908;25140465098;840962992;386781045;1844531339;62609202;503470403;37;14;5840;0;117;347
7;77;1554733537182;1554733545701;8519;21658228526;25140422412;841081967;386936452;1844516240;62597617;503528708;0;0;0;0;0;0
7;78;1554733545701;1554733554223;8522;21657026070;25140584207;841029593;386934509;1844540566;62580041;503573668;1;0;8;0;1;1
7;79;1554733554223;1554733562749;8526;21643573192;25140434792;838107204;386626176;1844519696;62598824;503474434;0;0;0;0;0;0
7;80;1554733562749;1554733571251;8502;21639514100;25140531534;838632762;386641124;1844529718;62600822;503443790;22;8;3760;0;88;135
7;81;1554733571251;1554733579773;8522;21653899042;25140628362;841110023;386827885;1844541221;62581257;503446142;0;0;0;0;0;0
7;82;1554733579773;1554733588298;8525;21655195084;25140324739;840800679;386756886;1844511792;62598249;503440940;1;0;8;0;0;0
7;83;1554733588298;1554733596816;8518;21655800400;25140279318;841119424;387057907;1844495178;62591379;503538165;0;0;0;0;0;0
7;84;1554733596816;1554733605323;8507;21653625730;25140518743;841011105;386938918;1844524954;62610199;503504511;2;0;64;0;9;10
8;35;1554733992804;1554734001295;8491;21540219646;25140552603;833356461;386000380;1844540488;62964588;503272982;0;0;0;0;0;0
8;36;1554734001295;1554734009776;8481;21547604764;25140556936;833824611;385758729;1844533014;62912418;503328839;20;8;4112;0;84;133
8;37;1554734009776;1554734018267;8491;21543883224;25140541407;833506327;386210040;1844550548;62889316;503431165;2;0;64;0;9;9
8;38;1554734018268;1554734026763;8495;21549751840;25140511002;833108837;385976051;1844537959;62908156;503404036;0;0;0;0;0;0
8;39;1554734026763;1554734035265;8502;21562432962;25140438666;833385983;386024931;1844529329;62978449;503432832;0;0;0;0;0;0
8;40;1554734035265;1554734043751;8486;21568044034;25140654171;832707099;385948293;1844561188;62972688;503337486;18;14;4304;0;79;121
8;41;1554734043751;1554734052257;8506;21583513464;25140424950;835211368;386071448;1844516424;62959849;503302226;2;0;64;0;9;10
8;42;1554734052257;1554734060744;8487;21541423124;25140586427;833377293;386113177;1844539688;62935086;503388042;0;0;0;0;0;0
8;43;1554734060745;1554734069233;8488;21541446046;25140495250;833742414;386185311;1844539123;62952919;503478834;0;0;0;0;0;0
8;44;1554734069233;1554734077703;8470;21541997926;25140517613;832980759;385871405;1844534880;62919994;503376531;21;14;4440;0;82;127
8;45;1554734077703;1554734086200;8497;21541897770;25140535477;833275905;385999240;1844540707;62943968;503295066;0;0;0;0;0;0
8;46;1554734086200;1554734094693;8493;21543041680;25140573029;833312482;386023660;1844544839;62923803;503351797;0;0;0;0;0;0
8;47;1554734094693;1554734103209;8516;21636684474;25140698127;833391218;386027507;1844562848;62919529;503348514;0;0;0;0;0;0
8;48;1554734103209;1554734111697;8488;21557027896;25140694078;833011216;386042854;1844564536;62921416;503378061;28;10;4176;0;93;184
8;49;1554734111697;1554734120198;8501;21558507898;25140588696;832896541;385992910;1844537891;62945473;503428683;0;0;0;0;0;0
8;50;1554734120198;1554734128690;8492;21557513930;25140510326;834067879;386184197;1844541529;62975514;503342689;1;0;8;0;0;0
8;51;1554734128691;1554734137171;8480;21558264662;25140688719;835872558;386312694;1844553304;62902312;503323348;2;0;64;0;9;9
8;52;1554734137172;1554734145663;8491;21543397920;25140453229;833213794;386073058;1844536134;62892234;503332953;20;12;4240;0;87;126
8;53;1554734145663;1554734154161;8498;21538224118;25140307198;834569398;386252413;1844507686;62898940;503407769;0;0;0;0;0;0
8;54;1554734154161;1554734162663;8502;21533754474;25140310075;833122402;386009242;1844500145;62917359;503408580;0;0;0;0;0;0
8;55;1554734162663;1554734171148;8485;21538301352;25140453951;833398057;386152330;1844508278;62926958;503424862;3;0;72;0;9;11
8;56;1554734171148;1554734179654;8506;21551731892;25140276133;834772741;386292878;1844491324;62911228;503321006;19;12;3664;0;82;119
8;57;1554734179655;1554734188152;8497;21535813074;25140296684;834028132;386180846;1844499841;62916395;503333452;0;0;0;0;0;0
8;58;1554734188152;1554734196655;8503;21536992900;25140418372;833619254;386253134;1844510853;62932232;503365123;0;0;0;0;0;0
8;59;1554734196655;1554734205169;8514;21558634480;25140414671;832915720;385943598;1844509602;62917552;503413848;3;0;64;0;1;2
8;60;1554734205169;1554734213670;8501;21550686240;25140321061;832721395;385992371;1844504656;62918951;503303514;19;12;3600;0;78;114
8;61;1554734213670;1554734222179;8509;21543656340;25140327249;830764191;384342153;1844498403;62886677;502924791;0;0;0;0;0;0
8;62;1554734222179;1554734230683;8504;21545808672;25140328958;835678674;385705500;1844489610;62895472;503313270;3;0;72;0;9;9
8;63;1554734230683;1554734239166;8483;21538860094;25140294449;835003976;385971775;1844490120;62889982;503341994;0;0;0;0;0;0
8;64;1554734239166;1554734247725;8559;21542567180;25140330611;833045162;386019756;1844500718;62872457;503376694;25;18;5832;0;146;181
8;65;1554734247725;1554734256241;8516;21558222322;25140292856;835406628;386291810;1844478616;62886017;503439680;0;0;0;0;0;0
8;66;1554734256241;1554734264728;8487;21560382246;25140144857;838911399;386020408;1844467285;62880278;503370889;0;0;0;0;0;0
8;67;1554734264728;1554734273233;8505;21543510924;25140120175;840554440;385270333;1844463736;62897704;503302556;0;0;0;0;0;0
8;68;1554734273233;1554734281734;8501;21540628446;25140242848;839796757;385187821;1844478970;62872767;503201529;14;6;3792;0;73;83
8;69;1554734281735;1554734290249;8514;21559725100;25140204194;833984266;386022674;1844480331;62886795;503333891;1;0;8;0;0;0
8;70;1554734290249;1554734298747;8498;21589068472;25140267379;841088279;386908515;1844498945;62894819;503357698;0;0;0;0;0;0
8;71;1554734298748;1554734307256;8508;21579973256;25140578078;840383425;386608184;1844539064;62908954;503512499;437;22;47088;0;1278;1594
8;72;1554734307256;1554734315772;8516;21589667656;25140494435;839853589;386903500;1844524030;62887139;503366222;0;0;0;0;0;0
8;73;1554734315772;1554734324279;8507;21557956602;25140338064;833434613;385916737;1844504913;62905388;503292912;1;0;8;0;1;1
8;74;1554734324279;1554734332770;8491;21557433776;25140584810;832708613;385903430;1844538413;62870311;503274889;0;0;0;0;0;0
8;75;1554734332770;1554734341298;8528;21574415620;25140404825;836466024;386457727;1844507567;62881572;503491773;105;12;6136;0;174;1608
8;76;1554734341298;1554734349804;8506;21598219168;25140576951;840249425;386691295;1844551481;62901170;503448293;0;0;0;0;0;0
8;77;1554734349804;1554734358298;8494;21550939550;25140432791;834639677;386281664;1844518235;62893185;503411429;1;0;8;0;1;1
8;78;1554734358299;1554734366787;8488;21554016646;25140647198;835374148;386323253;1844551819;62917439;503286237;4;0;80;0;1;2
8;79;1554734366787;1554734375299;8512;21549770820;25140448606;833323381;386062509;1844522200;62880171;503362806;32;12;6192;0;126;315
8;80;1554734375299;1554734383815;8516;21551865482;25140569369;832990927;385931033;1844536888;62870663;503331525;0;0;0;0;0;0
8;81;1554734383815;1554734392329;8514;21556810502;25140641862;833099101;386142722;1844543584;62893320;503466800;0;0;0;0;0;0
8;82;1554734392329;1554734400826;8497;21551176800;25140354818;833043122;386086755;1844516971;62889707;503367753;3;0;72;0;1;2
8;83;1554734400827;1554734409343;8516;21566702732;25140301780;834577761;386048926;1844499560;62876354;503328820;12;12;4304;0;87;100
8;84;1554734409343;1554734417850;8507;21558572430;25140512391;835325317;386297935;1844523822;62915673;503304046;0;0;0;0;0;0
9;35;1554734805069;1554734813566;8497;21530228574;25140554464;833422075;386036016;1844540624;62791182;503488836;3;0;72;0;1;3
9;36;1554734813566;1554734822070;8504;21530823232;25140534781;833123176;385920324;1844529143;62772356;503379614;21;8;3728;0;78;121
9;37;1554734822070;1554734830545;8475;21528304002;25140514240;833441937;386165740;1844545177;62753512;503420183;0;0;0;0;0;0
9;38;1554734830545;1554734839027;8482;21528520228;25140584087;833440948;386151550;1844551448;62754404;503433191;0;0;0;0;0;0
9;39;1554734839027;1554734847508;8481;21531132752;25140525837;833785262;386172478;1844545599;62748062;503513526;3;0;72;0;1;1
9;40;1554734847508;1554734855988;8480;21533625994;25140655651;833064013;385978989;1844561885;62766028;503468886;25;8;3536;0;75;154
9;41;1554734855988;1554734864488;8500;21557708110;25140416211;832715088;385886903;1844514836;62762298;503481249;0;0;0;0;0;0
9;42;1554734864488;1554734872961;8473;21546278792;25140590832;832790377;386004552;1844540414;62763316;503408165;2;0;72;0;1;1
9;43;1554734872962;1554734881454;8492;21544934132;25140467588;833043680;386136487;1844534049;62770141;503426306;0;0;0;0;0;0
9;44;1554734881454;1554734889949;8495;21543075406;25140458873;833102251;386074590;1844524028;62761514;503436820;3;0;48;0;9;18
9;45;1554734889949;1554734898444;8495;21578546106;25140628221;839476730;386600576;1844557737;62767669;503566106;23;10;3920;0;62;130
9;46;1554734898444;1554734906928;8484;21578397770;25140563312;840476643;387002355;1844543118;62778157;503543248;0;0;0;0;0;0
9;47;1554734906928;1554734915434;8506;21575661584;25140679237;840186160;386983229;1844559383;62759384;503461235;0;0;0;0;0;0
9;48;1554734915434;1554734923941;8507;21583607634;25140709093;841174285;387030404;1844567239;62756629;503393277;2;0;64;0;0;0
9;49;1554734923941;1554734932428;8487;21552014986;25140684915;838126804;386185308;1844555701;62754795;503431398;17;8;3408;0;58;79
9;50;1554734932428;1554734940910;8482;21540183730;25140497058;840082339;385337142;1844539463;62775704;503453389;1;0;8;0;0;0
9;51;1554734940911;1554734949408;8497;21556276872;25140712615;839948681;385043985;1844557490;62759601;503436574;4;0;80;0;9;18
9;52;1554734949408;1554734957905;8497;21551256078;25140596967;834672660;386178019;1844562269;62775516;503407385;0;0;0;0;0;0
9;53;1554734957905;1554734966398;8493;21578312068;25140490927;841111209;387046418;1844540952;62769874;503418773;27;8;3728;0;80;195
9;54;1554734966398;1554734974918;8520;21573980540;25140502351;840720778;386861292;1844535275;62765168;503313951;0;0;0;0;0;0
9;55;1554734974918;1554734983438;8520;21579426340;25140616814;840756886;386735820;1844538072;62765332;503409829;3;0;72;0;1;2
9;56;1554734983438;1554734991938;8500;21559710500;25140545459;837482498;386532991;1844540337;62758544;503468635;0;0;0;0;0;0
9;57;1554734991938;1554735000422;8484;21548743856;25140578245;833231863;386149427;1844551245;62784184;503549571;37;16;4360;0;99;278
9;58;1554735000422;1554735008927;8505;21546006502;25140627345;833783378;386182015;1844548995;62776471;503396122;0;0;0;0;0;0
9;59;1554735008927;1554735017431;8504;21541732206;25140571963;838180341;385483702;1844538299;62761776;503418017;0;0;0;0;0;0
9;60;1554735017431;1554735025943;8512;21548697136;25140539994;835909000;385831730;1844544066;62773285;503413581;2;0;64;0;1;1
9;61;1554735025943;1554735034429;8486;21551240456;25140559971;830758267;384217697;1844540644;62763921;503049106;27;8;3536;0;68;167
9;62;1554735034429;1554735042932;8503;21557438886;25140516275;833289311;386096297;1844523835;62742167;503444678;1;0;8;0;0;0
9;63;1554735042932;1554735051436;8504;21558516804;25140509359;833059113;386000551;1844529053;62734159;503462965;0;0;0;0;0;0
9;64;1554735051436;1554735059916;8480;21549224342;25140499033;832915277;385978642;1844531480;62736179;503382633;2;0;64;0;9;9
9;65;1554735059916;1554735068432;8516;21589457708;25140536454;839986099;386539440;1844522987;62724946;503388962;35;6;3728;0;80;299
9;66;1554735068432;1554735076951;8519;21578551508;25140321392;841334546;386970826;1844499411;62735373;503505446;1;0;8;0;0;0
9;67;1554735076951;1554735085466;8515;21585854866;25140302580;841231240;387066833;1844496767;62725955;503577762;0;0;0;0;0;0
9;68;1554735085466;1554735093961;8495;21589768834;25140520414;841558469;387312670;1844529608;62743267;503512842;440;9;44496;1;1276;1696
9;69;1554735093961;1554735102476;8515;21590786892;25140410533;840868453;386833841;1844517997;62735495;503413487;9;7;2000;-1;65;83
9;70;1554735102477;1554735110993;8516;21583287894;25140453833;840988961;386781353;1844532883;62732289;503343983;0;0;0;0;0;0
9;71;1554735110993;1554735119516;8523;21588624340;25140499435;841108211;386935691;1844524769;62733587;503469924;80;1;832;0;40;1217
9;72;1554735119516;1554735128015;8499;21585656452;25140544274;841189535;387037809;1844533307;62737098;503525842;40;16;6448;0;102;399
9;73;1554735128015;1554735136510;8495;21540497338;25140375822;834043925;386067415;1844511573;62718061;503564403;0;0;0;0;0;0
9;74;1554735136510;1554735145007;8497;21536214428;25140542242;833363476;386176089;1844530376;62733711;503418587;0;0;0;0;0;0
9;75;1554735145007;1554735153515;8508;21542904002;25140360770;833435341;386074071;1844499550;62734028;503444291;2;0;64;0;1;1
9;76;1554735153515;1554735162006;8491;21567460764;25140538964;836330719;386549820;1844544653;62734735;503380993;0;0;0;0;0;0
9;77;1554735162006;1554735170512;8506;21579724618;25140385526;841312625;386919489;1844509230;62740732;503510860;19;10;4120;0;58;90
9;78;1554735170512;1554735179012;8500;21567174750;25140504835;840833278;386307393;1844525804;62731282;503529492;0;0;0;0;0;0
9;79;1554735179012;1554735187506;8494;21576463854;25140434580;840419082;385163625;1844519294;62729907;503385103;2;0;64;0;9;9
9;80;1554735187506;1554735196016;8510;21543538080;25140519199;838684412;385540015;1844527376;62747850;503384836;22;10;3736;0;75;130
9;81;1554735196017;1554735204523;8506;21563833248;25140637878;840307125;386353941;1844542989;62739731;503418767;0;0;0;0;0;0
9;82;1554735204523;1554735213032;8509;21562474134;25140379006;839334408;386337415;1844521457;62740803;503568013;2;0;64;0;9;9
9;83;1554735213032;1554735221544;8512;21586479892;25140238752;840709871;386595468;1844487875;62745813;503455594;0;0;0;0;0;0
9;84;1554735221544;1554735230047;8503;21592910024;25140589974;841105942;386895444;1844537915;62737442;503431875;36;12;4680;0;88;267
