0;45;1570267914232;1570267921699;7467;25286873398;72443535908;1873971121;76478886;16011906833;29018229;933201638;5;0;1392;0;4;4
0;46;1570267921724;1570267929210;7486;25357607040;72439780838;1922372542;76624772;16011521530;29060465;930969671;28;16;6648;0;71;196
0;47;1570267929235;1570267936743;7508;25338181594;72441511876;1923751902;77836344;16011621649;29023649;934830870;4;0;1384;0;3;3
0;48;1570267936766;1570267944234;7468;25281367300;72440990765;1894099566;76881903;16011681306;28926907;933748109;4;0;1384;0;4;4
0;49;1570267944258;1570267951737;7479;25281647620;72439403237;1886039725;77698179;16011457295;28880637;932700123;6;0;1408;0;4;4
0;50;1570267951761;1570267959221;7460;25268766624;72440594853;1856029066;77188764;16011556524;28924807;934585037;4;0;1384;0;4;4
0;51;1570267959247;1570267966758;7511;25284021726;72440857568;1876844319;76842936;16011487125;28978109;934843058;44;8;7096;0;94;396
0;52;1570267966789;1570267974251;7462;25262899468;72442509041;1860980441;76903467;16011809604;28948631;935118502;4;0;1384;0;3;3
0;53;1570267974275;1570267981736;7461;25283341220;72434309731;1859296593;76902530;16010743667;28930793;936056865;5;0;1392;0;3;3
0;54;1570267981760;1570267989233;7473;25316845446;72445955594;1903546617;76907831;16012337153;28968294;932912398;4;0;1384;0;3;3
0;55;1570267989259;1570267996729;7470;25261309528;72442185277;1869553077;76838762;16012125174;28965655;932458529;5;0;1400;0;5;5
0;56;1570267996754;1570268004222;7468;25303009464;72439667400;1909625103;77364747;16011378749;28872877;932636492;20;16;6776;0;81;124
0;57;1570268004246;1570268011731;7485;25333474262;72440220706;1918803594;77278594;16011579208;28943418;932128476;5;0;1392;0;3;3
0;58;1570268011755;1570268019210;7455;25279757942;72439199093;1874967232;77047731;16011297073;28917212;934787795;4;0;1384;0;3;3
0;59;1570268019235;1570268026708;7473;25276568572;72442035449;1873683672;77101078;16011845483;28868282;933168525;4;0;1384;0;4;4
0;60;1570268026732;1570268034206;7474;25285221408;72442096631;1857135965;76730276;16011817362;29014186;933415278;4;0;1384;0;5;5
0;61;1570268034230;1570268041745;7515;25280599486;72436860606;1882516693;78748753;16011187881;28956922;931981862;38;8;6864;0;85;289
0;62;1570268041769;1570268049240;7471;25300573162;72438343292;1897990666;76568709;16011325897;28842416;931982365;4;0;1384;0;4;4
0;63;1570268049266;1570268056757;7491;25279110578;72439493838;1873445707;76545491;16011441439;29010696;935574366;4;0;1384;0;4;4
0;64;1570268056782;1570268064257;7475;25298486968;72444275336;1905256020;76559335;16012211621;28973796;936431001;4;0;1384;0;3;3
0;65;1570268064281;1570268071765;7484;25302088642;72439704296;1912946729;76363930;16011488045;28965832;932770839;25;14;6912;0;93;147
0;66;1570268071789;1570268079256;7467;25294238952;72440664297;1869176868;77129176;16011570719;28951779;934288584;4;0;1384;0;3;3
0;67;1570268079281;1570268086752;7471;25263932710;72436208778;1873413129;77104998;16010884054;28895904;931947673;5;0;1400;0;3;3
0;68;1570268086776;1570268094246;7470;25285431356;72437883606;1889720354;76852680;16011225225;28964195;934508297;4;0;1384;0;3;3
0;69;1570268094270;1570268101732;7462;25273264008;72438089963;1909522316;76823884;16011285564;28890953;930262567;26;10;6336;0;148;423
0;70;1570268101757;1570268109233;7476;25328212130;72440556838;1907776443;77417040;16011373517;28958903;932716101;4;0;1384;0;3;3
0;71;1570268109257;1570268116727;7470;25299140610;72438627696;1906747305;77061225;16011368142;28860858;929498333;4;0;1384;0;3;3
0;72;1570268116751;1570268124238;7487;25270859972;72440457351;1861324386;76782617;16011773138;29010659;931290978;4;0;1384;0;4;4
0;73;1570268124262;1570268131730;7468;25281458258;72438354667;1870535878;76484210;16011248578;29033759;932740646;34;10;6736;0;108;357
0;74;1570268131755;1570268139227;7472;25316897276;72438675826;1921634416;77477623;16011154033;28906465;933238097;4;0;1384;0;4;4
0;75;1570268139253;1570268146729;7476;25315761834;72440690804;1921500596;77472754;16011581440;28898613;931860678;4;0;1384;0;3;3
0;76;1570268146752;1570268154225;7473;25313377946;72440827185;1902735140;76870741;16011740062;29017172;933429219;4;0;1384;0;3;3
0;77;1570268154249;1570268161708;7459;25247954032;72438363689;1859400509;76763822;16011172136;28914962;932411773;30;12;6840;0;89;243
0;78;1570268161732;1570268169237;7505;25319065668;72445651204;1911736744;77236226;16012454199;29011480;936775021;6;0;1408;0;12;13
0;79;1570268169263;1570268176778;7515;25363104232;72446617701;1921537648;77639274;16012583282;29087238;932932938;4;0;1384;0;3;3
0;80;1570268176802;1570268184265;7463;25302913980;72440823425;1907699135;76711653;16011671770;28910673;930374431;4;0;1384;0;4;4
0;81;1570268184289;1570268191763;7474;25311536594;72437082517;1907638556;76676334;16010937722;28927847;933191369;4;0;1384;0;5;5
0;82;1570268191788;1570268199263;7475;25298166352;72441026880;1874527510;78178383;16011498605;28987191;933694794;30;16;7120;0;89;165
0;83;1570268199289;1570268206767;7478;25282290166;72437517751;1868954574;77674560;16011260176;28924847;931744282;4;0;1384;0;3;3
0;84;1570268206791;1570268214251;7460;25270797776;72439649568;1870368547;76682451;16011747326;28902437;931965674;4;0;1384;0;3;3
0;85;1570268214276;1570268221742;7466;25257247662;72440769062;1867779146;76409862;16011572485;28914056;931446701;4;0;1384;0;4;4
0;86;1570268221766;1570268229261;7495;25295880868;72445584031;1882159470;76516032;16012159636;28919729;930573719;6;0;1408;0;12;12
0;87;1570268229287;1570268236757;7470;25293608670;72442183208;1907547110;76018912;16011628120;28880023;931942629;28;12;6840;0;136;290
0;88;1570268236781;1570268244260;7479;25289284150;72437388796;1890953501;76606619;16011008425;28863929;932941099;4;0;1384;0;4;4
0;89;1570268244285;1570268251740;7455;25249500026;72438767472;1861960696;77072352;16011176557;28902407;932722169;4;0;1384;0;3;3
0;90;1570268251764;1570268259239;7475;25305405032;72441200111;1908346081;76572983;16011467524;28944047;933387181;5;0;1392;0;6;6
0;91;1570268259266;1570268266757;7491;25333460538;72442151088;1920520790;77074693;16011833339;28891364;932638412;34;14;6776;0;79;264
0;92;1570268266781;1570268274245;7464;25281390368;72439052476;1888041563;76847343;16011170885;28911493;931184618;5;0;1400;0;3;3
0;93;1570268274270;1570268281749;7479;25302276544;72440169881;1918961337;76904847;16011394988;28874385;929973153;4;0;1384;0;4;4
0;94;1570268281773;1570268289233;7460;25253021838;72439205219;1857961298;76348163;16011432836;28856601;933818430;5;0;1392;0;3;3
1;48;1570268742842;1570268750131;7289;24637032070;72899226973;1897956327;78226217;16126845753;29431059;930868755;4;0;1384;0;4;4
1;49;1570268750158;1570268757444;7286;24619785966;72900950350;1903548238;77046128;16127487647;29429864;932051025;4;0;1384;0;3;3
1;50;1570268757470;1570268764755;7285;24638441262;72902329740;1894700213;77205858;16127369576;29499102;927708974;43;8;6848;0;94;382
1;51;1570268764782;1570268772097;7315;24660228404;72900471377;1899369597;77635129;16127202653;29435688;932313171;4;0;1384;0;4;4
1;52;1570268772124;1570268779405;7281;24640168150;72900151177;1895353702;77896547;16127015068;29552312;932470064;5;0;1408;0;4;4
1;53;1570268779431;1570268786709;7278;24655872786;72900443593;1900274726;76996706;16127102087;29521311;931543559;4;0;1384;0;3;3
1;54;1570268786735;1570268794016;7281;24641634428;72895594431;1900998084;78022349;16126507786;29502400;934067821;39;10;6784;0;81;316
1;55;1570268794044;1570268801325;7281;24632301232;72896772743;1902950690;77943485;16126884215;29484067;934494331;4;0;1384;0;3;3
1;56;1570268801351;1570268808627;7276;24653405532;72899589637;1907459439;77735456;16127224242;29491257;932757237;5;0;1400;0;4;4
1;57;1570268808653;1570268815933;7280;24660428570;72899379207;1916451587;77560649;16127104684;29423425;932903540;4;0;1384;0;4;4
1;58;1570268815959;1570268823229;7270;24637381010;72897886280;1898216128;77256432;16126701061;29481227;929359477;35;12;6912;0;82;276
1;59;1570268823256;1570268830544;7288;24670937504;72898761205;1916478451;77324076;16126978137;29461498;931055611;4;0;1384;0;3;3
1;60;1570268830570;1570268837869;7299;24662397818;72896985111;1921582924;77940406;16126708592;29492014;934173016;4;0;1384;0;3;3
1;61;1570268837895;1570268845215;7320;24637828062;72897490751;1903944657;77865372;16126964552;29513697;931190671;4;0;1384;0;3;3
1;62;1570268845241;1570268852518;7277;24655588962;72899690520;1900976655;78075939;16126887207;29603318;933458835;6;0;1408;0;4;4
1;63;1570268852546;1570268859845;7299;24664351298;72898207890;1898602141;77955552;16126865446;29552424;931507701;30;12;6776;0;77;219
1;64;1570268859872;1570268867171;7299;24663185050;72898631676;1912646492;77695921;16127045801;29516782;932685104;4;0;1392;0;3;3
1;65;1570268867197;1570268874477;7280;24604761106;72899662866;1863178514;77388855;16127079281;29601227;932777539;4;0;1384;0;3;3
1;66;1570268874503;1570268881771;7268;24610350716;72897537437;1869989742;77323665;16126892181;29542708;931254483;5;0;1392;0;4;4
1;67;1570268881798;1570268889066;7268;24575459636;72895099896;1863812188;77683096;16126406118;29413507;932060258;38;14;6712;0;162;422
1;68;1570268889092;1570268896357;7265;24569318730;72897128480;1852283812;77143642;16126675465;29497437;933210141;5;0;1400;0;4;4
1;69;1570268896383;1570268903653;7270;24633128030;72894723577;1911001420;77172789;16126248926;29498407;932935669;4;0;1384;0;5;5
1;70;1570268903679;1570268910954;7275;24594999400;72898570579;1866923102;77037169;16126758285;29511014;932047006;4;0;1384;0;3;3
1;71;1570268910981;1570268918249;7268;24637166098;72900550174;1898482711;77067729;16126988469;29549123;929093509;5;0;1392;0;5;5
1;72;1570268918276;1570268925566;7290;24637788350;72898046772;1901320541;77138253;16126946762;29579203;930709285;24;14;6776;0;77;181
1;73;1570268925596;1570268932880;7284;24638227664;72896698132;1890504895;77595096;16126671232;29531087;931105283;5;0;1400;0;3;3
1;74;1570268932906;1570268940190;7284;24643670690;72899337463;1901814582;77318316;16126931255;29520439;931394307;4;0;1384;0;4;4
1;75;1570268940217;1570268947486;7269;24608773186;72899071605;1870394901;78342789;16127055112;29400621;934020639;5;0;1392;0;4;4
1;76;1570268947513;1570268954787;7274;24637317938;72895376216;1901326788;77457109;16126667028;29445744;931211520;4;0;1384;0;3;3
1;77;1570268954814;1570268962095;7281;24647603054;72900055613;1901609652;77548780;16127040035;29518441;928522217;32;12;6712;0;97;208
1;78;1570268962121;1570268969383;7262;24586318678;72901070604;1870347533;77553318;16127203006;29474319;930831237;4;0;1384;0;4;4
1;79;1570268969410;1570268976684;7274;24646487030;72897462110;1900015941;77458815;16126685602;29442802;930370246;6;0;1408;0;4;4
1;80;1570268976711;1570268983979;7268;24605856252;72896975927;1869390757;77063913;16126639829;29516288;930683861;4;0;1384;0;3;3
1;81;1570268984006;1570268991281;7275;24629729880;72898423026;1894835456;77688891;16126890075;29466498;932844512;4;0;1384;0;3;3
1;82;1570268991307;1570268998571;7264;24587257604;72898591015;1855544265;77652928;16126798294;29503382;933062719;30;14;6840;0;93;249
1;83;1570268998601;1570269005904;7303;24698346522;72895092724;1902194577;81926285;16126325505;29508953;931594702;455;21;49728;0;1429;1801
1;84;1570269005931;1570269013210;7279;24645615118;72901203304;1905036427;77769451;16127155181;29565352;932532063;4;0;1384;0;4;4
1;85;1570269013237;1570269020528;7291;24654890206;72898734405;1900255649;77694004;16126879457;29450929;931561718;5;0;1400;0;3;3
1;86;1570269020554;1570269027831;7277;24616754860;72897850170;1900979741;77263554;16126803532;29464473;931473045;4;0;1384;0;4;4
1;87;1570269027859;1570269035143;7284;24670357446;72895682357;1912818798;77820010;16126443792;29513401;931032924;109;25;9096;0;127;1258
1;88;1570269035169;1570269042442;7273;24625493690;72899509893;1899379270;76990374;16126852284;29428177;931321514;4;0;1384;0;3;3
1;89;1570269042468;1570269049738;7270;24636016786;72895135373;1900625834;76905091;16126324204;29438651;929872449;4;0;1384;0;5;5
1;90;1570269049765;1570269057039;7274;24634242156;72899113258;1891359519;77259917;16126905119;29428758;931801295;4;0;1384;0;3;3
1;91;1570269057067;1570269064349;7282;24607560802;72897146878;1867334560;76628984;16126509994;29473629;932531572;4;0;1384;0;3;3
1;92;1570269064375;1570269071641;7266;24590672106;72898098763;1847927973;76867012;16126808568;29398808;934728493;41;26;8472;0;100;387
1;93;1570269071667;1570269078938;7271;24625428574;72893683297;1899381606;76704705;16126329391;29403000;932098749;4;0;1384;0;3;3
1;94;1570269078964;1570269086242;7278;24655354924;72897202802;1912681490;77358071;16126824385;29453881;932452375;4;0;1384;0;4;4
1;95;1570269086269;1570269093561;7292;24600909334;72895151784;1869519549;77476165;16126378912;29493666;930515765;4;0;1384;0;4;4
1;96;1570269093590;1570269100862;7272;24609143880;72895416892;1873713634;77185131;16126448849;29411981;932301182;28;16;6608;0;85;172
1;97;1570269100888;1570269108166;7278;24641040646;72895762037;1897595812;76973492;16126493480;29482371;928298716;4;0;1384;0;3;3
2;56;1570269589154;1570269595823;6669;22493027472;66764520445;1867797417;77689833;13146298959;28884903;928710945;4;0;1384;0;3;3
2;57;1570269595847;1570269602527;6680;22523164208;66765119148;1870990529;77884845;13146391370;28910332;928678450;4;0;1384;0;5;5
2;58;1570269602551;1570269609229;6678;22508903366;66767979763;1868599034;77628369;13146845685;29046153;928740338;28;12;6712;0;68;179
2;59;1570269609255;1570269615919;6664;22494488786;66765650130;1869859405;77425039;13146632824;28901143;928021437;5;0;1392;0;3;3
2;60;1570269615944;1570269622621;6677;22495267988;66762682724;1871564009;77668128;13146202713;28892944;930413546;4;0;1384;0;3;3
2;61;1570269622645;1570269629350;6705;22476748326;66763259866;1871637723;77210160;13146249729;28904616;928337453;5;0;1408;0;5;5
2;62;1570269629374;1570269636080;6706;22612058498;66763492910;1913531542;78330419;13146131759;28875521;928226185;4;0;1384;0;4;4
2;63;1570269636107;1570269642796;6689;22484448512;66764570516;1870447625;77351050;13146382142;28932114;929147639;5;0;1392;0;2;2
2;64;1570269642820;1570269649515;6695;22542513150;66767251637;1903734838;77382061;13147307049;28857186;924872611;29;16;6936;0;83;194
2;65;1570269649540;1570269656220;6680;22531030542;66764041817;1903592554;77619910;13146267003;28868561;926857896;4;0;1384;0;3;3
2;66;1570269656244;1570269662918;6674;22527722328;66766127040;1868028939;77857876;13146532224;28946367;927918452;4;0;1384;0;4;4
2;67;1570269662943;1570269669616;6673;22498773010;66765561611;1867327671;77246326;13146645018;28906648;928255306;4;0;1384;0;3;3
2;68;1570269669642;1570269676323;6681;22545752598;66763849149;1903215209;77510562;13146334111;28819172;927950370;24;16;6808;0;74;113
2;69;1570269676348;1570269683033;6685;22562201542;66760748132;1896727755;77787326;13145911525;28790620;925486510;4;0;1384;0;3;3
2;70;1570269683057;1570269689732;6675;22519779928;66765419823;1867211241;78122929;13146622844;28919242;928743153;4;0;1384;0;3;3
2;71;1570269689758;1570269696428;6670;22512440654;66763117678;1877270113;77796488;13146445066;28860252;928708053;4;0;1384;0;4;4
2;72;1570269696452;1570269703140;6688;22517987924;66762507313;1901308002;77956339;13146031643;28849363;927757147;5;0;1392;0;4;4
2;73;1570269703164;1570269709854;6690;22547256836;66762944967;1904848016;77969417;13146374019;28919319;926673718;28;16;6712;0;79;199
2;74;1570269709878;1570269716570;6692;22583096624;66763453278;1921528074;78023114;13146219424;28896669;929194132;4;0;1384;0;3;3
2;75;1570269716595;1570269723254;6659;22489516172;66765250542;1871620208;77533485;13146468910;28966189;928857306;5;0;1400;0;4;4
2;76;1570269723279;1570269729933;6654;22468633938;66764436695;1871787351;77337050;13146331726;28941678;930297566;4;0;1384;0;3;3
2;77;1570269729958;1570269736640;6682;22515751788;66763444903;1868596791;77407110;13146287586;28842484;928992198;5;0;1392;0;3;3
2;78;1570269736664;1570269743333;6669;22500640496;66762824814;1872522239;78641080;13146199775;28927598;927554663;34;12;6840;0;81;270
2;79;1570269743359;1570269750055;6696;22584729488;66764301389;1900697701;79275236;13146366513;28891064;926595445;5;0;1400;0;6;6
2;80;1570269750078;1570269756778;6700;22573913370;66766016457;1901097273;77754473;13146659210;28899881;926611856;4;0;1384;0;4;4
2;81;1570269756802;1570269763491;6689;22555242744;66760818811;1899339545;77419453;13145895091;28935326;927651447;4;0;1384;0;3;3
2;82;1570269763515;1570269770200;6685;22506259306;66765998671;1874072709;77867342;13146887644;28929547;929825685;5;0;1392;0;3;3
2;83;1570269770225;1570269776899;6674;22509714396;66764798118;1860365207;77866394;13146474088;28984880;928636952;38;14;6840;0;83;327
2;84;1570269776923;1570269783643;6720;22625489038;66767835054;1899565840;77874011;13146699597;28939526;923145242;4;0;1384;0;4;4
2;85;1570269783667;1570269790372;6705;22596364958;66767188558;1865528328;76997047;13146910478;28970560;926132095;4;0;1384;0;6;6
2;86;1570269790397;1570269797097;6700;22550497598;66765712465;1914091462;77825904;13146565092;28868371;926926273;6;0;1416;0;4;4
2;87;1570269797123;1570269803833;6710;22583730994;66764861908;1910703242;79609997;13146408244;28920218;927941386;4;0;1384;0;3;3
2;88;1570269803858;1570269810523;6665;22484413326;66762015998;1872431965;77753102;13146021609;28916739;929031825;38;16;6776;0;89;333
2;89;1570269810547;1570269817228;6681;22536583506;66761583744;1897236027;77669182;13146031433;28993641;928752339;4;0;1384;0;4;4
2;90;1570269817252;1570269823934;6682;22525058704;66760564589;1867407147;82369167;13145884738;28898778;928533942;473;23;49656;0;1387;1861
2;91;1570269823960;1570269830639;6679;22507648204;66763210066;1906051666;77202794;13146327430;28841275;925794255;5;0;1392;0;4;4
2;92;1570269830664;1570269837346;6682;22565088546;66764362137;1897361043;77763095;13146434460;29022654;924205920;4;0;1384;0;3;3
2;93;1570269837371;1570269844053;6682;22543972712;66764647861;1910065152;77669155;13146522690;28855190;927924182;5;0;1408;0;5;5
2;94;1570269844078;1570269850752;6674;22493088354;66767025439;1873761231;77094890;13146657841;28993933;928466667;36;22;7616;0;84;315
2;95;1570269850778;1570269857489;6711;22589675968;66765035143;1913899872;77622527;13146423856;28858905;927961348;79;0;2168;0;41;1149
2;96;1570269857514;1570269864182;6668;22499455414;66764085715;1868256349;76444141;13146280220;28874329;928002504;4;0;1384;0;3;3
2;97;1570269864206;1570269870881;6675;22528602854;66765419736;1866846256;76801741;13146515722;28857480;926185965;4;0;1384;0;4;4
2;98;1570269870906;1570269877568;6662;22479303910;66761465639;1901960450;77487716;13145974971;28792665;924781433;4;0;1384;0;4;4
2;99;1570269877594;1570269884309;6715;22544822432;66764847070;1867223998;77272173;13146528256;28869770;927073138;53;24;8664;0;121;568
2;100;1570269884334;1570269891020;6686;22540979420;66764936255;1885280739;76875497;13146337418;28830091;926227887;6;0;1416;0;4;5
2;101;1570269891045;1570269897713;6668;22491657554;66762960410;1856928343;76959817;13146245078;28885372;928858986;4;0;1384;0;5;5
2;102;1570269897737;1570269904429;6692;22559192336;66761663693;1912290584;76808044;13146046959;28918219;927235328;4;0;1384;0;3;3
2;103;1570269904455;1570269911123;6668;22500095040;66763870233;1869857551;77543042;13146170358;28857247;928967351;4;0;1384;0;3;3
2;104;1570269911147;1570269917809;6662;22481199136;66762358896;1867719869;78336339;13146073278;28820834;929615609;27;20;6976;0;77;179
2;105;1570269917833;1570269924520;6687;22570010498;66760233378;1914995200;77195321;13145807468;28863492;928905347;4;0;1384;0;3;3
3;58;1570270411176;1570270417733;6557;22119227030;65120212596;1871737219;77228367;12432608531;28925854;929145065;4;0;1384;0;3;3
3;59;1570270417761;1570270424340;6579;22182978368;65122352113;1903600675;77654125;12432736616;28756894;931127601;33;16;7128;0;72;238
3;60;1570270424367;1570270430942;6575;22159065612;65121371609;1890822733;78025793;12432675576;28934562;930441270;5;0;1392;0;3;3
3;61;1570270430968;1570270437571;6603;22095500862;65119659477;1852323905;78109298;12432428591;28809184;930073956;4;0;1384;0;5;5
3;62;1570270437597;1570270444186;6589;22215918304;65117221192;1893050584;80749225;12432233974;28959780;931082578;4;0;1384;0;3;3
3;63;1570270444213;1570270450797;6584;22164084216;65122742581;1900206783;77561876;12432851348;28860640;930051731;4;0;1384;0;3;3
3;64;1570270450824;1570270457398;6574;22123817270;65123490492;1873802089;77799312;12432947302;28867993;931231896;6;0;1416;0;4;4
3;65;1570270457425;1570270463998;6573;22115746536;65120421008;1867201649;77406137;12432485634;28857871;933292246;26;18;7096;0;78;200
3;66;1570270464024;1570270470599;6575;22170881538;65122101653;1904412457;77341325;12432759347;28886833;932177344;4;0;1384;0;4;4
3;67;1570270470627;1570270477215;6588;22192902864;65118404035;1914452136;77549114;12432120909;28861388;929663128;4;0;1384;0;3;3
3;68;1570270477241;1570270483827;6586;22210165320;65118793455;1900226058;78106671;12432323908;28843168;931404683;4;0;1384;0;3;3
3;69;1570270483854;1570270490416;6562;22148858168;65118651457;1857415482;77685488;12432312520;28911600;933485821;5;0;1392;0;3;3
3;70;1570270490443;1570270497033;6590;22218278102;65117130027;1917371334;77406880;12432054214;28818501;934406861;28;12;7032;0;81;211
3;71;1570270497061;1570270503633;6572;22123516802;65116670000;1875238660;77970932;12432072179;28844737;931839814;5;0;1408;0;4;4
3;72;1570270503659;1570270510242;6583;22154764744;65119243669;1890728708;77385345;12432416601;28854307;928807699;4;0;1384;0;4;4
3;73;1570270510268;1570270516844;6576;22129963286;65119913112;1870008218;77776400;12432541571;28803516;931591858;5;0;1392;0;3;3
3;74;1570270516871;1570270523412;6541;22077311306;65117340789;1873073843;77837648;12432210033;28875698;931016029;4;0;1384;0;5;5
3;75;1570270523440;1570270530016;6576;22158777262;65115127851;1870875420;79980167;12431824696;28921806;934149039;32;14;6968;0;93;279
3;76;1570270530042;1570270536631;6589;22192622544;65124062101;1906934263;77930228;12433381589;28991894;934574637;4;0;1384;0;4;4
3;77;1570270536657;1570270543248;6591;22224681370;65121032742;1914327304;78016991;12432552341;28924537;935853559;4;0;1384;0;4;4
3;78;1570270543275;1570270549844;6569;22179430422;65116733259;1878236517;79652189;12431915537;28878172;932203013;6;0;1416;0;4;4
3;79;1570270549872;1570270556430;6558;22128877484;65118191183;1891116736;77247180;12432253456;28808653;932759391;4;0;1384;0;3;3
3;80;1570270556457;1570270563045;6588;22182222088;65121758918;1904720630;77900913;12432719132;28888017;931291772;24;18;7032;0;78;177
3;81;1570270563071;1570270569660;6589;22208769706;65119437491;1915591409;78553798;12432392811;28924023;933803405;4;0;1384;0;3;3
3;82;1570270569687;1570270576247;6560;22143527416;65119099609;1872206622;77999222;12432396486;28837274;932779119;4;0;1384;0;4;4
3;83;1570270576275;1570270582837;6562;22137535576;65118795687;1872611842;77376794;12432425174;28955848;932045350;5;0;1392;0;4;4
3;84;1570270582864;1570270589434;6570;22130036578;65121039563;1870433480;77537130;12432685286;28937126;931689733;4;0;1384;0;4;4
3;85;1570270589460;1570270596025;6565;22107773622;65118032891;1874815858;78063464;12432284774;28836264;933477671;29;18;6928;0;89;232
3;86;1570270596051;1570270602642;6591;22170243080;65117989354;1898395680;77997270;12432202696;28848306;931018824;4;0;1384;0;3;3
3;87;1570270602670;1570270609254;6584;22214486482;65117102006;1855968370;86100010;12432130162;28894756;931414730;457;17;49632;0;1349;1660
3;88;1570270609280;1570270615866;6586;22184764240;65116262908;1900653990;77711508;12432023219;28791629;933520260;4;0;1384;0;3;3
3;89;1570270615897;1570270622482;6585;22173577136;65120505805;1901946746;78639646;12432931448;28822074;932626921;4;0;1384;0;5;5
3;90;1570270622508;1570270629103;6595;22193001560;65118693137;1894238153;78247284;12432252415;28828734;932686306;4;0;1384;0;3;3
3;91;1570270629130;1570270635724;6594;22235770362;65118294380;1912908221;79202376;12432300003;28917118;933490958;30;20;7672;0;105;208
3;92;1570270635751;1570270642316;6565;22147735428;65120135325;1874748366;78034058;12432429502;28886462;931436878;83;0;2200;0;47;1563
3;93;1570270642343;1570270648910;6567;22143575304;65119580889;1886639313;78889780;12432453860;28899386;932846056;4;0;1384;0;4;4
3;94;1570270648937;1570270655489;6552;22113953948;65119600316;1868857702;77935160;12432424383;28866438;933282936;4;0;1384;0;4;4
3;95;1570270655517;1570270662091;6574;22118753990;65121268495;1863277156;78564529;12432811993;28915033;932001827;4;0;1384;0;3;3
3;96;1570270662117;1570270668711;6594;22219164030;65122515398;1898540940;78449814;12432786484;28904332;929551080;28;26;8184;0;90;217
3;97;1570270668737;1570270675303;6566;22117068274;65118972949;1854146087;79232871;12432316957;28728231;930438489;5;0;1392;0;4;4
3;98;1570270675331;1570270681920;6589;22145070782;65119295486;1865186869;77896155;12432464025;28821976;932416960;4;0;1384;0;4;4
3;99;1570270681948;1570270688536;6588;22145807936;65122210045;1869508540;79415534;12432770782;28899196;932917169;5;0;1400;0;3;3
3;100;1570270688563;1570270695142;6579;22179037682;65117341068;1900730419;77334791;12432074271;28799886;931181511;4;0;1384;0;2;2
3;101;1570270695168;1570270701733;6565;22109527812;65116896448;1867586339;79297756;12432030311;28779640;931833423;25;18;6848;0;77;164
3;102;1570270701760;1570270708326;6566;22141115350;65118650408;1893322301;78176633;12432239072;28874202;932154980;4;0;1384;0;4;4
3;103;1570270708354;1570270714913;6559;22130339674;65118775152;1865521580;78092995;12432354056;28811063;929781558;4;0;1384;0;4;4
3;104;1570270714940;1570270721531;6591;22223718792;65120191905;1910211154;77625755;12432422150;28862124;932237734;4;0;1384;0;3;3
3;105;1570270721558;1570270728142;6584;22153992696;65116896928;1870291480;79541172;12431939276;28853477;934439725;4;0;1384;0;5;5
3;106;1570270728168;1570270734747;6579;22192299592;65120285104;1899919163;78587949;12432770460;28831386;931519303;6;0;1416;0;3;3
3;107;1570270734775;1570270741343;6568;22150866690;65120216368;1853901654;77068216;12432902947;28816409;930912946;37;14;7256;0;90;312
4;43;1570271176732;1570271184424;7692;25993480256;72264508832;1863773365;77791899;16060677957;28930761;944272346;5;0;1392;0;4;4
4;44;1570271184450;1570271192111;7661;25990564636;72263565576;1870025486;78087406;16060499366;29007087;944361063;4;0;1384;0;3;3
4;45;1570271192138;1570271199817;7679;26014856262;72264290007;1916696020;77159323;16060557213;28931091;944764695;5;0;1400;0;3;3
4;46;1570271199843;1570271207502;7659;25973476942;72268412087;1871216343;77127313;16061293896;28969547;944775495;28;12;6712;0;101;251
4;47;1570271207530;1570271215221;7691;26010147032;72263142923;1880787270;77895276;16060411884;28911463;944041192;5;0;1392;0;4;4
4;48;1570271215248;1570271222937;7689;26060253502;72266361526;1912846724;77857377;16060729053;28997153;945218307;4;0;1384;0;4;4
4;49;1570271222964;1570271230644;7680;26034667878;72267740383;1869547077;79450002;16060979515;29046388;942711628;4;0;1384;0;4;4
4;50;1570271230670;1570271238344;7674;25994418744;72264816726;1868288299;77358681;16060560662;29070750;943854636;4;0;1384;0;4;4
4;51;1570271238376;1570271246091;7715;26021493422;72266722540;1879079861;77863786;16060899039;29012065;944899485;26;12;6736;0;88;198
4;52;1570271246117;1570271253794;7677;26015242432;72267444286;1883797732;77795055;16061234696;28967526;944573048;4;0;1384;0;3;3
4;53;1570271253821;1570271261490;7669;26017211972;72265575433;1887130054;77905767;16060838829;29012126;944432318;4;0;1384;0;3;3
4;54;1570271261517;1570271269203;7686;25999747598;72265535040;1884095502;78020988;16060874410;28963085;942096309;4;0;1384;0;4;4
4;55;1570271269230;1570271276909;7679;26041445782;72262454528;1925645923;77684084;16060341486;28862434;943390518;5;0;1392;0;4;4
4;56;1570271276935;1570271284604;7669;26034537354;72264721309;1929763459;77372846;16060553218;28964106;943606186;32;14;6648;0;91;254
4;57;1570271284630;1570271292293;7663;26010704314;72265325783;1913745958;77449101;16060790605;28925982;942326803;5;0;1400;0;4;4
4;58;1570271292320;1570271299986;7666;25998584562;72264835753;1874976136;77309553;16060777480;28932207;944834358;4;0;1384;0;4;4
4;59;1570271300014;1570271307682;7668;26025287962;72262910236;1878736648;78517948;16060361428;28935968;944223487;29;14;6784;0;77;194
4;60;1570271307708;1570271315389;7681;26043175444;72262369952;1916980609;79169196;16060371583;28919215;944845280;4;0;1384;0;3;3
4;61;1570271315415;1570271323130;7715;26033913058;72261059014;1931309130;77895071;16060191356;28929906;944646634;4;0;1384;0;3;3
4;62;1570271323157;1570271330821;7664;25993655748;72265014329;1879819298;77380751;16060652025;29091556;943520294;4;0;1384;0;4;4
4;63;1570271330848;1570271338532;7684;25988735402;72264754408;1912974300;76641908;16060790405;28784951;940556203;41;16;7088;0;87;324
4;64;1570271338559;1570271346238;7679;26003329854;72266905889;1869109372;79473880;16061018111;29028692;944019785;4;0;1384;0;4;4
4;65;1570271346264;1570271353944;7680;26017359140;72262747298;1918155448;79033908;16060374787;28964844;943697031;4;0;1384;0;3;3
4;66;1570271353970;1570271361640;7670;26004942132;72260470472;1892338190;78847740;16060076980;28860985;941785840;4;0;1384;0;3;3
4;67;1570271361668;1570271369343;7675;25996279368;72265796078;1881353259;77056127;16060820831;28915812;942054401;5;0;1392;0;3;3
4;68;1570271369369;1570271377041;7672;26015583634;72265286291;1879437106;77820904;16060937007;29002113;945607623;24;16;6776;0;90;191
4;69;1570271377067;1570271384738;7671;26015704814;72268153805;1917216063;77523342;16061205269;28920700;945025906;5;0;1400;0;5;5
4;70;1570271384764;1570271392439;7675;26008710830;72263183421;1916059871;77457555;16060348849;28917798;945673756;4;0;1384;0;4;4
4;71;1570271392467;1570271400142;7675;26007491438;72261983621;1882114733;79077806;16060486014;29036693;944400827;5;0;1392;0;3;3
4;72;1570271400168;1570271407836;7668;25974768166;72261482173;1871168237;78380340;16060363000;28954571;944941337;4;0;1384;0;4;4
4;73;1570271407862;1570271415535;7673;25997913254;72266719124;1867549891;77771391;16060772681;28885289;944668520;38;14;6776;0;85;330
4;74;1570271415561;1570271423219;7658;25966558002;72260216055;1869956942;78142974;16060065977;28869082;943521537;203;15;27496;0;668;986
4;75;1570271423247;1570271431008;7761;26021117034;72265684594;1915055994;78753437;16060963035;28811394;942511696;261;7;23376;0;719;876
4;76;1570271431034;1570271438710;7676;26032548396;72262220828;1915322997;79779792;16060438027;28915130;943536032;4;0;1384;0;5;5
4;77;1570271438736;1570271446412;7676;26012799122;72266434235;1912162590;77696053;16060815351;28959094;944250062;4;0;1384;0;3;3
4;78;1570271446438;1570271454096;7658;25980551810;72268170842;1864706269;77656877;16061137267;28891404;942905558;32;24;7800;0;85;265
4;79;1570271454124;1570271461787;7663;26004756274;72263251962;1875800185;77467695;16060373960;29006510;942882487;82;0;2184;0;40;1164
4;80;1570271461814;1570271469486;7672;26018110602;72264017457;1912935917;77685494;16060554136;28998749;944305850;4;0;1384;0;3;3
4;81;1570271469513;1570271477173;7660;25973930564;72264962659;1873410724;77036417;16060632958;28886860;943863470;5;0;1400;0;3;3
4;82;1570271477199;1570271484859;7660;25949643172;72260629516;1866108560;77660034;16060031239;28873961;944418178;4;0;1384;0;6;6
4;83;1570271484889;1570271492566;7677;26022369422;72264941346;1881062682;79447406;16060876463;28982349;943553610;35;20;8192;0;90;228
4;84;1570271492593;1570271500257;7664;25989471680;72266662003;1880787081;77040629;16060703927;28907481;945343789;4;0;1384;0;3;3
4;85;1570271500285;1570271507957;7672;25985311848;72264173397;1878341349;77609560;16060725428;28995993;943394678;5;0;1416;0;19;19
4;86;1570271507985;1570271515669;7684;26006785674;72263232807;1878911426;79189046;16060392121;28867912;941990382;4;0;1384;0;4;4
4;87;1570271515697;1570271523356;7659;25995595796;72259598836;1871271245;78645404;16060066860;28826321;945209462;6;0;1408;0;4;4
4;88;1570271523382;1570271531046;7664;26006553826;72263636927;1881349591;80190469;16060523076;28944416;944220643;28;20;7032;0;77;195
4;89;1570271531072;1570271538734;7662;25981236112;72264318665;1878310750;77047257;16060518705;28955722;943675808;4;0;1384;0;3;3
4;90;1570271538761;1570271546420;7659;25971525214;72263522149;1864491119;76935305;16060530092;28889526;942996730;4;0;1384;0;5;5
4;91;1570271546448;1570271554132;7684;26039332140;72260099216;1899274749;78110498;16059939697;28811111;944607000;5;0;1392;0;3;3
4;92;1570271554159;1570271561829;7670;26030913196;72262569818;1913222165;77096524;16060522974;28835675;944234891;4;0;1384;0;3;3
