0;82;1570434449545;1570434456925;7380;16248873484;73611081964;1290836344;3546593;12802098224;542374;798120669;519;0;1010376;-16;2724;9339
0;83;1570434456925;1570434461617;4692;16244303100;73611072184;1305079080;2298377;12802096491;522307;798371765;322;0;627448;0;1347;2544
0;84;1570434461618;1570434466366;4748;16247345010;73611072459;1254033887;2699717;12802096766;522290;798164818;329;0;631600;1;1401;2689
0;85;1570434466366;1570434471865;5499;16243728736;73611072496;1341082907;2708723;12802096803;528841;798286699;378;1;734768;-1;1605;3035
0;86;1570434471865;1570434476713;4848;16239739286;73611072493;1304571120;2313386;12802096800;529977;798170367;331;0;645040;0;1634;2917
0;87;1570434476713;1570434481460;4747;16243340960;73611072497;1291828770;2371781;12802096804;517987;798536757;487;44;647216;0;2206;19169
0;88;1570434481460;1570434486907;5447;16243677198;73611072186;1281469773;2590129;12802096493;534254;798389977;373;0;727136;0;1708;3106
0;89;1570434486907;1570434491655;4748;16244582982;73611072184;1277800117;2475890;12802096491;516272;798426415;326;0;633312;0;1366;2610
0;90;1570434491655;1570434496301;4646;16240138742;73611072434;1299318138;2252742;12802096741;518778;798580831;323;0;621648;0;1366;2627
0;91;1570434496301;1570434500948;4647;16242102004;73611072170;1287242096;2330045;12802096743;517263;798635625;317;0;615720;0;1320;2517
0;92;1570434500948;1570434505595;4647;16242155732;73611071543;1291091613;2372820;12802096489;517503;798457760;318;1;619816;1;1490;2687
0;93;1570434505595;1570434510241;4646;16241579616;73611072493;1287315100;2378215;12802096800;521472;798487934;318;0;617488;-1;1474;2629
0;94;1570434510241;1570434514887;4646;16241025838;73611072337;1315604950;2204481;12802096644;518018;798509694;464;54;628856;3;2203;21518
0;95;1570434514888;1570434519534;4646;16242686296;73611072237;1305511173;2328874;12802096544;518476;798603375;319;0;621584;-3;1360;2543
0;96;1570434519534;1570434524282;4748;16243417756;73611072399;1295969245;2309621;12802096706;524775;798384873;325;0;631544;1;1334;2543
0;97;1570434524282;1570434529129;4847;16242580008;73611072182;1310412123;2267094;12802096489;519471;798595635;500;48;645472;10;2376;26705
0;98;1570434529129;1570434534272;5143;16241437412;73611072208;1298020945;2422691;12802096515;518868;798413655;741;12;726336;-11;4768;32095
0;99;1570434534272;1570434538921;4649;16250197850;73611072482;1295184360;2505606;12802096789;520087;798379263;320;0;619816;1;1350;2551
0;100;1570434538921;1570434543568;4647;16243168680;73611072493;1286039893;2499324;12802096800;522855;798485810;319;1;617488;-1;1332;2542
0;101;1570434543569;1570434548216;4647;16245298236;73611072492;1313176414;2249157;12802096799;520645;798506650;318;2;615720;3;1468;2663
0;102;1570434548216;1570434552865;4649;16247520648;73611072497;1235264047;2555612;12802096804;517139;798502972;321;1;621584;-3;1513;2729
0;103;1570434552865;1570434557512;4647;16243462578;73611072259;1285181902;2551275;12802096566;515653;798518791;321;3;615784;3;1501;2729
0;104;1570434557512;1570434562162;4650;16253164862;73611072473;1218121091;3037115;12802096780;518298;798492432;446;64;611608;10;1834;13005
0;105;1570434562162;1570434566808;4646;16240381248;73611072487;1296481650;2294167;12802096794;515359;798510623;332;3;645040;-12;1789;6377
0;106;1570434566808;1570434571457;4649;16245092084;73611072496;1292400030;2357222;12802096803;518899;798500403;396;2;616504;0;1553;5220
0;107;1570434571457;1570434576103;4646;16241056498;73611072372;1293193659;2230128;12802096679;516133;798590705;321;4;623352;-1;1357;2583
0;108;1570434576103;1570434580751;4648;16246313958;73611072183;1284497911;2441450;12802096490;514801;798571572;318;3;615720;0;1346;2569
0;109;1570434580751;1570434585398;4647;16243582444;73611072183;1297500507;2360158;12802096490;515457;798607550;320;5;619816;1;1415;2590
0;110;1570434585398;1570434590046;4648;16245299112;73611072184;1286675780;2458219;12802096491;517407;798590820;323;3;617552;-1;1597;2941
0;111;1570434590046;1570434594693;4647;16243742898;73611072183;1294539850;2334320;12802096490;513244;798598968;445;61;632552;2;2080;15201
0;112;1570434594693;1570434599338;4645;16237571186;73611072180;1301223643;2339432;12802096487;515343;798585414;320;3;619296;-2;1446;2641
0;113;1570434599338;1570434603985;4647;16244653646;73611072183;1285198369;2383962;12802096490;516792;798526224;320;3;621584;0;1320;2491
0;114;1570434603985;1570434608632;4647;16244719346;73611072183;1290710565;2360919;12802096490;519746;798510917;321;3;621584;0;1306;2496
0;115;1570434608633;1570434613779;5146;16242769954;73611072182;1287023495;2486219;12802096489;519264;798516491;355;4;686088;0;1431;2723
0;116;1570434613779;1570434618542;4763;16240321680;73611072395;1277631611;2286225;12802096702;524037;798299747;329;6;633376;0;1581;2875
0;117;1570434618542;1570434623204;4662;16240217728;73611072404;1275676814;2272789;12802096711;519857;798525850;388;41;629200;72;1529;5135
0;118;1570434623204;1570434627871;4667;16248737120;73611072550;1241815586;2675788;12802096857;521350;798568303;396;3;631904;-71;2027;12683
0;119;1570434627871;1570434632534;4663;16242453718;73611072429;1282202348;2430206;12802096736;521948;798349081;322;1;621584;0;1352;2519
0;120;1570434632534;1570434637197;4663;16240870786;73611072409;1286035901;2332704;12802096716;521644;798363237;321;3;621584;0;1304;2439
0;121;1570434637197;1570434641860;4663;16244379896;73611072414;1283797492;2311445;12802096721;509542;798162409;323;1;623352;-1;1302;2504
0;122;1570434641860;1570434646522;4662;16240087934;73611072404;1304526337;2137361;12802096711;519013;798150502;321;4;621584;0;1370;2556
0;123;1570434646522;1570434651384;4862;16238975998;73611072411;1288673733;2330262;12802096718;537294;798161541;341;4;649200;1;1679;3116
0;124;1570434651384;1570434656748;5364;16239709064;73611072478;1285470974;2431924;12802096785;526513;798214416;491;54;728544;0;2214;13409
0;125;1570434656748;1570434662011;5263;16240979702;73611072438;1291339163;2412193;12802096745;525291;798399209;366;3;703680;0;1576;2912
0;126;1570434662011;1570434667172;5161;16238756706;73611073914;1290070816;2293771;12802097050;523866;798372726;356;1;687856;-1;1483;2803
0;127;1570434667172;1570434671835;4663;16242542486;73611087241;1297809942;2204943;12802100049;520640;798572723;321;3;621584;0;1320;2479
0;128;1570434671835;1570434676496;4661;16238415212;73611072406;1289875900;2180810;12802096713;517841;798544750;322;2;621584;0;1331;2524
0;129;1570434676497;1570434681159;4662;16240983644;73611072414;1288308366;2291740;12802096721;517660;798560899;325;3;621648;0;1642;2971
0;130;1570434681159;1570434685821;4662;16237371166;73611072444;1290346973;2204608;12802096751;515470;798553560;433;53;635296;0;1949;11326
0;131;1570434685821;1570434690483;4662;16239825426;73611072472;1290279084;2236171;12802096779;515775;798571667;321;3;621584;0;1494;2668
1;92;1570435285721;1570435290368;4647;16240933858;73611072298;1298389013;2177415;12802096605;518829;798440100;319;0;621584;0;1377;2571
1;93;1570435290368;1570435295015;4647;16241915416;73611072473;1289418437;2278986;12802096780;516968;798492823;322;0;621640;0;1384;2692
1;94;1570435295015;1570435299664;4649;16244190826;73611072360;1294704170;2343998;12802096667;515412;798397539;319;0;621584;0;1313;2501
1;95;1570435299664;1570435304311;4647;16242969390;73611072216;1289528449;2348969;12802096523;518722;798510615;319;1;621584;0;1489;2692
1;96;1570435304311;1570435308957;4646;16239667746;73611072415;1292668500;2200447;12802096722;516999;798583158;317;0;617488;2;1550;2750
1;97;1570435308957;1570435313604;4647;16242084776;73611072181;1287893477;2283181;12802096488;518383;798610479;443;42;634464;0;1989;13128
1;98;1570435313604;1570435318251;4647;16240940866;73611072196;1289055274;2286545;12802096503;522211;798641153;319;0;621584;0;1407;2589
1;99;1570435318252;1570435322900;4648;16242156462;73611072460;1286652828;2285236;12802096767;517578;798381253;319;0;621584;-3;1313;2479
1;100;1570435322900;1570435327547;4647;16243942626;73611072502;1291805192;2323255;12802096809;515124;798570762;323;0;621648;0;1450;3202
1;101;1570435327547;1570435332197;4650;16245551692;73611072491;1307424583;2435847;12802096798;523321;798306382;320;0;621584;3;1340;2544
1;102;1570435332197;1570435336843;4646;16240792676;73611072495;1291965371;2243205;12802096802;519356;798618740;319;1;621584;-3;1561;2758
1;103;1570435336843;1570435341490;4647;16241507200;73611072275;1285105714;2499089;12802096582;517730;798520554;461;42;615360;10;1835;15324
1;104;1570435341490;1570435346138;4648;16246032178;73611072454;1289883292;2323132;12802096761;517028;798488728;329;0;640944;-10;1770;5146
1;105;1570435346138;1570435350785;4647;16241269366;73611072486;1307717595;2103925;12802096793;519266;798492458;316;0;615720;3;1342;2532
1;106;1570435350785;1570435355433;4648;16243061516;73611072496;1287805152;2269627;12802096803;517987;798551140;323;0;621648;-3;1368;2631
1;107;1570435355433;1570435360081;4648;16241476686;73611072392;1288638190;2294813;12802096699;516012;798317383;318;0;619816;1;1305;2483
1;108;1570435360081;1570435364727;4646;16240003546;73611072181;1293723674;2286350;12802096488;513127;798101086;317;1;617488;-1;1401;2608
1;109;1570435364727;1570435369374;4647;16240891372;73611072181;1294211431;2228631;12802096488;522831;798583925;318;0;619816;1;1495;2655
1;110;1570435369374;1570435374021;4647;16243214524;73611072182;1285229956;2375866;12802096489;519674;798646037;555;72;622208;11;2718;26357
1;111;1570435374021;1570435378670;4649;16246272932;73611072183;1285062182;2381546;12802096490;522025;798446269;725;6;676432;-7;4647;30844
1;112;1570435378670;1570435383315;4645;16235805316;73611072179;1315044748;2048828;12802096486;519861;798580835;334;5;623488;-5;1426;3184
1;113;1570435383316;1570435387963;4647;16238805470;73611072183;1293454010;2198794;12802096490;517135;798320175;327;1;621648;0;1365;2648
1;114;1570435387963;1570435392609;4646;16240032454;73611072181;1294102246;2230493;12802096488;517243;798642010;321;1;621584;0;1303;2464
1;115;1570435392609;1570435397257;4648;16240231306;73611072181;1286590414;2314310;12802096488;517858;798391372;320;2;615720;0;1472;2673
1;116;1570435397257;1570435401905;4648;16243720852;73611072181;1289342404;2325529;12802096488;522551;798506949;321;1;621584;0;1545;2763
1;117;1570435401905;1570435406551;4646;16238175334;73611072181;1291313505;2230235;12802096488;510796;798514404;320;1;615720;0;1534;2781
1;118;1570435406551;1570435411197;4646;16240148816;73611072181;1289620559;2207405;12802096488;511003;798569622;480;63;640288;0;2219;27269
1;119;1570435411197;1570435415845;4648;16245245676;73611072183;1285367187;2323064;12802096490;514542;798520999;321;1;615720;3;1388;2626
1;120;1570435415845;1570435420494;4649;16242604974;73611072183;1303954094;2456613;12802096490;514497;798310397;402;2;610768;-3;1618;6767
1;121;1570435420494;1570435425143;4649;16248540166;73611072184;1263122331;2777713;12802096491;512771;798152001;320;1;615720;0;1313;2539
1;122;1570435425143;1570435429791;4648;16245860482;73611072182;1281832339;2513533;12802096489;516996;798198076;321;1;621584;0;1331;2531
1;123;1570435429791;1570435434438;4647;16237782302;73611072181;1323636761;2119255;12802096488;515735;798554846;322;3;619816;1;1558;2839
1;124;1570435434438;1570435439084;4646;16240414390;73611072181;1289598470;2227070;12802096488;519264;798141186;428;65;619208;3;2058;11902
1;125;1570435439084;1570435443732;4648;16241094020;73611072182;1290175157;2231536;12802096489;517154;798146504;327;1;629216;-4;1586;3042
1;126;1570435443732;1570435448380;4648;16241040146;73611073687;1285283579;2305713;12802096823;519223;798603614;322;2;615784;0;1351;2552
1;127;1570435448380;1570435453026;4646;16237560236;73611087008;1305649804;2109294;12802099816;517597;798545801;323;1;621584;0;1325;2579
1;128;1570435453026;1570435457672;4646;16239968506;73611072180;1300622155;2151258;12802096487;521844;798544362;320;2;619816;1;1329;2515
1;129;1570435457672;1570435462317;4645;16235278548;73611071853;1311580965;2098629;12802096426;516163;798557225;321;3;617488;-1;1384;2594
1;130;1570435462317;1570435466964;4647;16243542294;73611071424;1288611514;2324052;12802096370;517841;798534721;320;3;615720;5;1513;2757
1;131;1570435466964;1570435471612;4648;16240722888;73611072181;1286981544;2318290;12802096488;520658;798592410;490;46;635008;-5;2099;22614
1;132;1570435471612;1570435476260;4648;16239548610;73611072180;1293334908;2269527;12802096487;521368;798303317;323;2;621584;0;1447;2692
1;133;1570435476260;1570435480907;4647;16240114360;73611072182;1287468643;2290244;12802096489;515388;798601808;322;5;615784;0;1311;2476
1;134;1570435480907;1570435485554;4647;16242653154;73611072181;1293576939;2300738;12802096488;518440;798588649;323;2;621584;0;1316;2557
1;135;1570435485554;1570435490200;4646;16240001794;73611072180;1288424656;2257577;12802096487;520350;798521356;318;5;615720;3;1276;2431
1;136;1570435490200;1570435494846;4646;16239941642;73611072181;1355365673;2103158;12802096488;517260;798531222;323;3;621584;-3;1494;2707
1;137;1570435494846;1570435499493;4647;16239175580;73611072186;1305740773;2198509;12802096493;517291;798527901;321;5;619816;1;1515;2664
1;138;1570435499494;1570435504140;4646;16239466996;73611072180;1367182119;2026168;12802096487;514975;798509769;469;46;631520;-1;2117;17880
1;139;1570435504140;1570435508784;4644;16232240580;73611072179;1380229438;1827854;12802096486;517578;798518809;320;5;619816;1;1367;2545
1;140;1570435508784;1570435513431;4647;16243350012;73611072182;1288709205;2378535;12802096489;516087;798501753;325;3;617552;2;1369;2757
1;141;1570435513431;1570435518078;4647;16241511142;73611072181;1290977759;2269629;12802096488;519656;798587503;321;6;621584;-3;1330;2519
2;92;1570436109897;1570436114544;4647;16244731756;73611072293;1285251838;2367595;12802096600;515406;798557741;319;0;621584;0;1329;2498
2;93;1570436114544;1570436119191;4647;16242997860;73611072479;1283529941;2298548;12802096786;518693;798499745;322;0;621640;0;1353;2564
2;94;1570436119192;1570436123839;4647;16243321980;73611072352;1296693304;2295082;12802096659;516757;798479105;317;0;618088;2;1329;2543
2;95;1570436123839;1570436128486;4647;16242248734;73611072222;1304632800;2265199;12802096529;528479;798513532;318;1;619216;1;1423;2615
2;96;1570436128486;1570436133134;4648;16242617968;73611072409;1293169158;2201148;12802096716;515466;798637769;319;0;621584;-3;1562;2766
2;97;1570436133134;1570436137781;4647;16243283874;73611072181;1290030530;2285164;12802096488;514966;798600060;455;50;634528;0;2178;15413
2;98;1570436137781;1570436142428;4647;16241079712;73611072195;1287941680;2263777;12802096502;517372;798581829;319;0;621584;0;1420;2604
2;99;1570436142428;1570436147076;4648;16244879070;73611072462;1287812817;2350365;12802096769;514352;798587146;318;0;619816;1;1315;2468
2;100;1570436147076;1570436151823;4747;16242127992;73611072496;1285983305;2352388;12802096803;517667;798639040;329;0;633376;0;1411;2696
2;101;1570436151823;1570436156971;5148;16244833664;73611072490;1285078409;2487668;12802096797;523236;798278667;354;0;687856;-1;1450;2744
2;102;1570436156971;1570436161918;4947;16242709948;73611072494;1287328084;2350329;12802096801;520008;798361607;337;1;656768;0;1628;2892
2;103;1570436161918;1570436166564;4646;16238529238;73611072268;1295060599;2293346;12802096575;518383;798515686;457;44;615360;10;1854;15228
2;104;1570436166564;1570436171211;4647;16242106676;73611072462;1289454493;2300786;12802096769;518312;798340559;326;0;635080;-10;1716;4389
2;105;1570436171211;1570436175857;4646;16240738364;73611072487;1289816339;2292168;12802096794;517526;798497467;318;0;619816;1;1315;2479
2;106;1570436175857;1570436180705;4848;16244657296;73611072496;1287796633;2385321;12802096803;521750;798495964;336;0;646872;-1;1399;2623
2;107;1570436180705;1570436185351;4646;16238260014;73611072381;1287823171;2230571;12802096688;519084;798308853;316;0;615720;0;1309;2493
2;108;1570436185351;1570436189997;4646;16240139910;73611072182;1289400810;2317268;12802096489;518531;798355822;319;1;621584;0;1427;2600
2;109;1570436189997;1570436194644;4647;16240684344;73611072181;1292209888;2299245;12802096488;509594;798592205;316;0;615720;0;1521;2679
2;110;1570436194644;1570436199290;4646;16242707320;73611072182;1305207028;2259392;12802096489;512646;798582033;492;50;629592;3;2300;27700
2;111;1570436199291;1570436203937;4646;16239490794;73611072181;1295649599;2306002;12802096488;514385;798604924;319;0;621584;-3;1429;2605
2;112;1570436203937;1570436208583;4646;16241785038;73611072181;1284113048;2312601;12802096488;508547;798641772;316;0;615720;0;1306;2453
2;113;1570436208583;1570436213230;4647;16242631546;73611072183;1326686337;2196986;12802096490;515938;798576106;322;0;619880;1;1347;2566
2;114;1570436213230;1570436217878;4648;16245246114;73611072182;1278401201;2388114;12802096489;510344;798589816;317;0;617488;-1;1322;2491
2;115;1570436217878;1570436222524;4646;16239566860;73611072180;1286819017;2382887;12802096487;510796;798453475;316;1;615720;3;1522;2706
2;116;1570436222524;1570436227271;4747;16243678512;73611072183;1288190615;2414263;12802096490;514743;798566276;326;0;633312;-3;1534;2787
2;117;1570436227271;1570436231917;4646;16239244930;73611072180;1280002738;2349210;12802096487;516434;798514626;500;36;629112;3;2060;19293
2;118;1570436231917;1570436236564;4647;16243472068;73611072180;1282002775;2387638;12802096487;515990;798506588;319;0;621584;-3;1356;2517
2;119;1570436236564;1570436241211;4647;16241552606;73611072182;1287889988;2341819;12802096489;521831;798529357;426;42;609016;60;1609;16826
2;120;1570436241211;1570436245859;4648;16245205818;73611072183;1285953732;2433941;12802096490;517244;798410673;697;1;670848;-54;4642;39395
2;121;1570436245860;1570436250507;4647;16245087412;73611072181;1283445576;2484790;12802096488;516170;798473044;454;10;636776;-6;2458;11679
2;122;1570436250507;1570436255154;4647;16243179630;73611072182;1283688456;2344390;12802096489;514078;798562084;318;1;615720;3;1317;2487
2;123;1570436255154;1570436259801;4647;16242349620;73611072183;1285150276;2339712;12802096490;518047;798538311;322;1;621584;-3;1422;2670
2;124;1570436259801;1570436264448;4647;16243817942;73611072181;1300596152;2294905;12802096488;519331;798619581;321;1;621584;0;1569;2737
2;125;1570436264448;1570436269094;4646;16241165706;73611072182;1299650050;2260328;12802096489;519240;798540387;322;0;621584;0;1545;2731
2;126;1570436269094;1570436273740;4646;16239165798;73611073684;1323078991;2075238;12802096820;537638;798560689;504;49;611224;59;1986;21475
2;127;1570436273740;1570436278388;4648;16245682508;73611087011;1282719367;2403205;12802099819;518020;798537821;381;2;643320;-59;2125;20016
2;128;1570436278388;1570436283034;4646;16242423496;73611072182;1287549471;2322804;12802096489;519853;798618011;322;0;621584;0;1347;2577
2;129;1570436283034;1570436287681;4647;16240887284;73611071855;1294849687;2251055;12802096428;515934;798549589;330;5;621768;0;1385;2752
2;130;1570436287681;1570436292328;4647;16244486768;73611071422;1291701351;2375566;12802096368;516307;798549588;321;0;619816;1;1361;2640
2;131;1570436292328;1570436296975;4647;16243298474;73611072182;1283753296;2388918;12802096489;522911;798593972;321;5;621584;0;1395;2596
2;132;1570436296975;1570436301621;4646;16242211942;73611072181;1322424186;2136461;12802096488;518446;798602184;320;0;617488;-1;1542;2716
2;133;1570436301622;1570436306269;4647;16244389970;73611072182;1288038598;2380945;12802096489;529846;798597518;494;56;636640;0;2274;23440
2;134;1570436306269;1570436310917;4648;16245543370;73611072183;1283901877;2371277;12802096490;516743;798570924;322;0;621584;0;1509;2734
2;135;1570436310917;1570436315564;4647;16244439172;73611072182;1282646710;2425484;12802096489;517511;798501023;321;4;621584;0;1330;2509
2;136;1570436315564;1570436320211;4647;16243760710;73611072181;1281554024;2391074;12802096488;518745;798374660;319;0;615720;3;1326;2548
2;137;1570436320211;1570436324858;4647;16242423934;73611072181;1284306656;2389281;12802096488;518376;798515047;321;6;621584;-3;1309;2489
2;138;1570436324858;1570436329505;4647;16242654030;73611072184;1278855332;2364735;12802096491;518548;798565251;322;1;621584;0;1498;2721
2;139;1570436329505;1570436334151;4646;16242753602;73611072183;1288312054;2402416;12802096490;517105;798524787;325;6;621648;0;1569;2861
2;140;1570436334152;1570436338951;4799;16240998244;73611072182;1290997487;2324346;12802096489;520858;798297036;473;44;653176;0;2117;16598
2;141;1570436338951;1570436343598;4647;16243700266;73611072182;1285633743;2368286;12802096489;520386;798404387;321;7;621584;0;1385;2575
3;90;1570436936741;1570436941403;4662;16237366348;73610992249;1301290117;2285419;12802096836;515175;798579142;319;0;621584;0;1324;2472
3;91;1570436941403;1570436946065;4662;16239333552;73610993084;1286984186;2260330;12802097032;517438;798591092;319;0;621584;3;1311;2466
3;92;1570436946065;1570436950727;4662;16240218458;73610992893;1304167231;2231377;12802096841;520281;798497734;324;1;627504;-3;1338;2517
3;93;1570436950727;1570436955390;4663;16238482956;73610993049;1288050327;2299274;12802096997;523542;798371175;319;1;621584;0;1390;2558
3;94;1570436955390;1570436960053;4663;16243068670;73610992937;1290731450;2285373;12802096885;517254;798505239;321;0;625680;1;1537;2708
3;95;1570436960053;1570436964717;4664;16239559852;73610992908;1300061236;2230299;12802096856;519441;798525432;452;46;636168;-1;2129;14707
3;96;1570436964717;1570436969378;4661;16235412138;73610993048;1297729367;2138528;12802096996;518531;798514365;319;0;621584;0;1477;2716
3;97;1570436969378;1570436974041;4663;16243492216;73610992776;1287245611;2386289;12802096724;517903;798536457;322;0;627448;0;1337;2527
3;98;1570436974041;1570436978704;4663;16243826118;73610992787;1286856938;2411552;12802096735;520764;798521373;322;1;621648;0;1369;2601
3;99;1570436978704;1570436983367;4663;16241754232;73610993043;1287437066;2305477;12802096991;520103;798525393;322;0;627448;0;1350;2555
3;100;1570436983367;1570436988029;4662;16238577418;73610993075;1290399100;2289161;12802097023;516236;798508172;319;1;621584;0;1507;2707
3;101;1570436988029;1570436992691;4662;16239361438;73610993075;1285722849;2281987;12802097023;519462;798599567;320;0;621584;3;1500;2693
3;102;1570436992691;1570436997356;4665;16240334382;73610993186;1290568333;2259322;12802097134;517077;798578755;453;56;640456;-3;2145;15371
3;103;1570436997356;1570437002018;4662;16237234218;73610992873;1310107204;2317566;12802096821;515759;798612093;320;0;623840;2;1375;2541
3;104;1570437002018;1570437006681;4663;16240231744;73610993064;1289128538;2294940;12802097012;516930;798592568;321;0;625192;-2;1316;2459
3;105;1570437006681;1570437011343;4662;16238593332;73610993076;1302199014;2136970;12802097024;516364;798589816;322;1;621648;0;1377;2650
3;106;1570437011343;1570437016007;4664;16244476694;73610993199;1298546259;2600709;12802097147;515575;798578735;440;71;591152;30;1988;39452
3;107;1570437016008;1570437020681;4673;16237125594;73610993406;1292198177;2241432;12802097354;518570;798534376;686;0;698656;-25;4674;82529
3;108;1570437020681;1570437025345;4664;16239226680;73610992868;1294475713;2238567;12802096816;517906;798521738;408;10;631984;-5;2224;10223
3;109;1570437025345;1570437030010;4665;16244303100;73610992768;1278748491;2443040;12802096716;519911;798325043;324;0;627448;0;1365;2574
3;110;1570437030010;1570437034670;4660;16234940996;73610992772;1306286872;2114613;12802096720;518717;798524760;321;1;621584;0;1414;2617
3;111;1570437034670;1570437039333;4663;16240182104;73610992765;1290808071;2275712;12802096713;518039;798381953;324;2;621680;0;1592;2908
3;112;1570437039333;1570437043996;4663;16238391268;73610992757;1292112621;2280928;12802096705;527376;798523916;324;3;625680;1;1572;2808
3;113;1570437043996;1570437048658;4662;16239265954;73610992764;1287240807;2299516;12802096712;520300;798454376;323;0;623352;-1;1554;2777
3;114;1570437048658;1570437053322;4664;16238672464;73610992924;1294136979;2264066;12802096872;515570;798611122;480;69;640288;3;2088;19238
3;115;1570437053322;1570437057985;4663;16239014396;73610992816;1285613538;2323507;12802096764;516888;798617200;405;3;628240;-3;1698;6463
3;116;1570437057985;1570437062649;4664;16242369330;73610992773;1285923741;2415756;12802096721;529912;798603383;321;3;621584;0;1305;2465
3;117;1570437062649;1570437067311;4662;16238585010;73610992768;1284948267;2302049;12802096716;519823;798586480;326;1;627448;0;1339;2571
3;118;1570437067312;1570437071973;4661;16238827078;73610992780;1291231701;2257581;12802096728;519155;798541557;325;5;621648;0;1378;2666
3;119;1570437071974;1570437076636;4662;16239901054;73610992763;1294490944;2268585;12802096711;520195;798615312;324;2;625680;1;1580;2873
3;120;1570437076636;1570437081300;4664;16239086082;73610992842;1293215405;2262533;12802096790;521308;798588490;448;68;637320;-1;2109;14339
3;121;1570437081300;1570437085962;4662;16237668714;73610992841;1286201474;2308569;12802096789;519452;798565836;322;2;621584;3;1539;2778
3;122;1570437085962;1570437090624;4662;16239582190;73610992777;1289970258;2322424;12802096725;520247;798579021;324;5;627448;-3;1350;2523
3;123;1570437090624;1570437095286;4662;16238163070;73610992770;1279218044;2315774;12802096718;516893;798555652;322;2;621584;3;1340;2592
3;124;1570437095286;1570437099949;4663;16241026276;73610992768;1288620002;2299895;12802096716;522455;798580965;324;6;627448;-3;1327;2510
3;125;1570437099949;1570437104613;4664;16240179330;73610992775;1286245581;2302635;12802096723;517873;798592465;326;3;621648;3;1437;2674
3;126;1570437104613;1570437109275;4662;16239677090;73610994270;1286235394;2348306;12802097047;516890;798582406;324;5;627448;-3;1530;2666
3;127;1570437109275;1570437113942;4667;16244341352;73611007683;1295783855;2455549;12802100132;518870;798365229;443;53;634272;0;2182;17267
3;128;1570437113942;1570437118604;4662;16238546612;73610992801;1303438072;2239903;12802096749;519626;798567547;324;4;625680;1;1429;2668
3;129;1570437118604;1570437123265;4661;16234763460;73610992445;1293882509;2201909;12802096659;518202;798349163;322;5;623352;-1;1377;2599
3;130;1570437123265;1570437127929;4664;16240352632;73610992017;1291811491;2354396;12802096604;520493;798536736;325;3;627448;0;1321;2545
3;131;1570437127929;1570437132592;4663;16240771944;73610992767;1294236310;2224712;12802096715;518159;798551085;325;8;621648;0;1371;2611
3;132;1570437132592;1570437137254;4662;16239013666;73610992755;1290702404;2359902;12802096703;519525;798502667;324;4;625680;1;1582;2790
3;133;1570437137254;1570437141915;4661;16237106614;73610992795;1297927952;2220958;12802096743;518759;798616328;453;63;609576;18;1846;14608
3;134;1570437141916;1570437146579;4663;16237938376;73610992867;1284536792;2328283;12802096815;516188;798562915;343;4;652688;-19;1964;9048
3;135;1570437146579;1570437151242;4663;16244422528;73610992775;1288713924;2497707;12802096723;517533;798549783;321;7;621584;0;1352;2568
3;136;1570437151242;1570437155903;4661;16236091476;73610992772;1286480763;2352045;12802096720;517523;798573327;324;4;625680;1;1350;2542
3;137;1570437155904;1570437160567;4663;16241138988;73610992772;1296584737;2275130;12802096720;528763;798614426;322;7;623352;-1;1349;2526
3;138;1570437160567;1570437165229;4662;16238989138;73610992770;1303001980;2388906;12802096718;518170;798570150;327;3;621648;3;1408;2677
3;139;1570437165229;1570437169892;4663;16237341966;73610992755;1311307715;2352170;12802096703;524480;798559835;324;8;627448;-3;1536;2689
4;89;1570437762407;1570437767070;4663;16243260222;73611072099;1295571799;2283010;12802096672;517688;798580133;319;0;621584;0;1337;2499
4;90;1570437767070;1570437771732;4662;16240408988;73611071888;1300768370;2213073;12802096834;517254;798558555;322;0;621640;0;1337;2496
4;91;1570437771732;1570437776394;4662;16241179284;73611072718;1287469128;2293655;12802097025;520912;798559995;319;0;621584;0;1339;2538
4;92;1570437776394;1570437781057;4663;16242740462;73611072527;1267490853;2374743;12802096834;516870;798473896;319;1;621584;0;1377;2573
4;93;1570437781057;1570437785819;4762;16239796372;73611072695;1289850767;2303312;12802097002;517051;798392386;326;0;635080;-1;1563;2738
4;94;1570437785819;1570437790482;4663;16237720106;73611072654;1292089500;2233429;12802096961;516664;798573544;452;44;634496;0;2162;26695
4;95;1570437790482;1570437795144;4662;16242053240;73611072509;1319952389;2309451;12802096816;523027;798638041;319;0;621584;0;1493;2698
4;96;1570437795145;1570437799806;4661;16240741576;73611072650;1296155364;2233260;12802096957;524923;798591659;319;0;621584;0;1339;2542
4;97;1570437799807;1570437804469;4662;16240738802;73611072415;1294890659;2318431;12802096722;519501;798383883;323;0;621648;0;1330;2539
4;98;1570437804469;1570437809131;4662;16240488558;73611072427;1283127195;2265049;12802096734;521075;798590259;319;0;621584;0;1255;2380
4;99;1570437809131;1570437813791;4660;16236664380;73611072676;1302777539;2367093;12802096983;518257;798643384;319;1;621584;0;1507;2714
4;100;1570437813791;1570437818454;4663;16240416142;73611072715;1290927797;2248574;12802097022;523499;798494821;319;0;621584;0;1537;2746
4;101;1570437818454;1570437823119;4665;16239917844;73611072817;1287034908;2315078;12802097124;518987;798511569;437;44;634400;0;2036;13332
4;102;1570437823119;1570437827781;4662;16240509436;73611072741;1290524518;2262682;12802097048;521694;798491090;320;0;621584;0;1372;2569
4;103;1570437827781;1570437832443;4662;16242078644;73611072510;1283488368;2492659;12802096817;520037;798567771;319;0;621584;0;1349;2528
4;104;1570437832444;1570437837105;4661;16239120392;73611072700;1289022469;2258793;12802097007;522964;798297810;323;0;621648;0;1332;2568
4;105;1570437837106;1570437841766;4660;16236706574;73611072707;1307984901;2067817;12802097014;522169;798548648;319;1;621584;0;1347;2542
4;106;1570437841767;1570437846431;4664;16238466750;73611072841;1284866616;2259117;12802097148;522483;798504632;494;42;601408;20;2590;58823
4;107;1570437846431;1570437851105;4674;16239964856;73611073061;1315663492;2447508;12802097368;519476;798441731;706;7;684848;-10;4674;56651
4;108;1570437851106;1570437855770;4664;16242358672;73611072452;1285785435;2381039;12802096759;527133;798601095;355;4;639832;-9;1812;5884
4;109;1570437855770;1570437860431;4661;16238771744;73611072415;1298814451;2239830;12802096722;525435;798596107;323;2;623352;-1;1321;2528
4;110;1570437860431;1570437865093;4662;16239573722;73611072414;1289066445;2315118;12802096721;520478;798601388;324;2;621648;0;1368;2629
4;111;1570437865094;1570437869755;4661;16240181812;73611072404;1292777684;2312712;12802096711;520340;798504140;321;1;621584;0;1467;2690
4;112;1570437869755;1570437874418;4663;16238994540;73611072407;1289236405;2272783;12802096714;519400;798596832;320;2;621584;0;1572;2732
4;113;1570437874418;1570437879082;4664;16238681078;73611072513;1293700348;2224811;12802096820;518996;798507955;508;59;625952;6;2216;17141
4;114;1570437879082;1570437883834;4752;16236904550;73611072299;1252356982;2359740;12802096606;521179;798318711;323;1;627448;-3;1606;3529
4;115;1570437883834;1570437888476;4642;16227512516;73611072187;1236541771;2176027;12802096494;519908;798604431;321;1;621584;-3;1306;2487
4;116;1570437888476;1570437893120;4644;16234170408;73611072192;1229295756;2342014;12802096499;517473;798507316;319;1;619816;1;1318;2529
4;117;1570437893120;1570437897764;4644;16232630692;73611072187;1224892264;2386860;12802096494;519471;798508695;334;1;617768;-1;1403;2926
4;118;1570437897764;1570437902408;4644;16234252460;73611072192;1226654272;2355256;12802096499;520279;798324512;317;2;615720;0;1561;2745
4;119;1570437902408;1570437907051;4643;16231527516;73611072190;1241417141;2244601;12802096497;520051;798414068;441;63;599128;22;1858;13535
4;120;1570437907051;1570437911695;4644;16233302438;73611072188;1232368858;2350968;12802096495;518200;798589979;339;2;652688;-19;1922;8816
4;121;1570437911695;1570437916338;4643;16231163684;73611072189;1219359039;2284303;12802096496;517751;798542315;321;1;621584;-3;1357;2588
4;122;1570437916338;1570437920983;4645;16236782202;73611072191;1244970049;2377422;12802096498;515091;798556770;317;2;615720;0;1297;2438
4;123;1570437920983;1570437925626;4643;16232648066;73611072188;1225843783;2464849;12802096495;522157;798590969;322;2;615784;3;1328;2554
4;124;1570437925626;1570437930270;4644;16232745448;73611072190;1238414208;2275668;12802096497;517053;798555372;319;5;619816;-2;1406;2620
4;125;1570437930270;1570437934913;4643;16231743596;73611072187;1233047587;2280580;12802096494;516681;798550918;319;1;617488;-1;1574;2805
4;126;1570437934913;1570437939556;4643;16231215076;73611073693;1229439283;2291366;12802096829;524515;798552888;458;52;629240;0;2018;16762
4;127;1570437939556;1570437944200;4644;16232958462;73611087017;1243564833;2219381;12802099825;515990;798596480;321;2;619792;1;1501;2676
4;128;1570437944200;1570437948843;4643;16231393196;73611072188;1259008568;2241525;12802096495;522688;798548186;319;5;617512;-1;1309;2453
4;129;1570437948843;1570437953486;4643;16230378350;73611071863;1230198349;2318501;12802096436;518750;798547567;317;4;615720;0;1290;2460
4;130;1570437953486;1570437958130;4644;16233796794;73611071433;1234469188;2305705;12802096379;518265;798535096;324;2;619880;1;1309;2512
4;131;1570437958130;1570437962774;4644;16232769538;73611072187;1246625076;2166514;12802096494;518251;798582553;319;4;617488;-1;1517;2681
4;132;1570437962774;1570437967418;4644;16234012290;73611072188;1226391586;2451458;12802096495;520081;798569766;318;2;615720;0;1519;2671
4;133;1570437967418;1570437972062;4644;16234908584;73611072189;1232659119;2322747;12802096496;524449;798519449;465;44;631792;2;2124;17442
4;134;1570437972062;1570437976706;4644;16232645730;73611072187;1234745081;2270832;12802096494;516855;798510818;320;2;619416;-2;1368;2545
4;135;1570437976706;1570437981350;4644;16230519532;73611072189;1229853539;2305020;12802096496;517151;798522454;317;6;615720;0;1315;2499
4;136;1570437981350;1570437986195;4845;16235729980;73611072193;1233848066;2393400;12802096500;517427;798534675;333;3;645040;0;1390;2642
4;137;1570437986195;1570437990837;4642;16229792744;73611072188;1225261377;2312836;12802096495;520855;798520616;322;9;615784;0;1357;2515
4;138;1570437990837;1570437995482;4645;16234580230;73611072189;1234019329;2349358;12802096496;516830;798575713;320;4;619816;1;1539;2733
