0;92;1570433731619;1570433736248;4629;16181585004;73610991883;1228867960;526071;12802096470;516687;798546025;403;0;844800;0;2789;10156
0;93;1570433736248;1570433740875;4627;16181200732;73610992832;1226888609;512545;12802096780;520354;798519891;405;0;844824;0;2712;9842
0;94;1570433740875;1570433745503;4628;16183723028;73610992677;1249609817;501198;12802096625;522190;798595023;401;0;842432;1;2733;10265
0;95;1570433745503;1570433750131;4628;16182479254;73610992579;1250949504;506861;12802096527;518227;798605322;400;0;836608;4;2713;10183
0;96;1570433750131;1570433754758;4627;16181188614;73610992735;1231595521;514963;12802096683;517683;798584412;405;0;844808;-5;2712;10232
0;97;1570433754758;1570433759385;4627;16179827018;73610992521;1226107767;540347;12802096469;519112;798519249;466;50;856560;0;3472;26323
0;98;1570433759385;1570433764012;4627;16183400660;73610992537;1235954223;529968;12802096485;516292;798530175;397;0;834232;5;2730;9702
0;99;1570433764012;1570433768641;4629;16180192310;73610992823;1229577423;523679;12802096771;518663;798509062;402;0;844800;0;2753;10153
0;100;1570433768642;1570433773268;4626;16179338940;73610992837;1224753615;499640;12802096785;521048;798349827;406;0;844816;0;2654;9634
0;101;1570433773268;1570433777895;4627;16180621988;73610992829;1230579712;511426;12802096777;518804;798497359;403;0;844792;-5;2744;10315
0;102;1570433777895;1570433782522;4627;16178505864;73610992834;1226822086;515258;12802096782;520081;798505835;398;0;834240;5;2658;9886
0;103;1570433782522;1570433787149;4627;16181831598;73610992599;1266346562;468733;12802096547;518779;798514994;405;0;844824;0;2677;9994
0;104;1570433787149;1570433791776;4627;16179892280;73610992815;1227887340;485100;12802096763;518170;798570856;476;44;856008;-5;3426;22634
0;105;1570433791776;1570433796403;4627;16181060280;73610992827;1234600253;506062;12802096775;516655;798586235;404;0;844800;0;2700;9737
0;106;1570433796403;1570433801031;4628;16181019108;73610992836;1230952558;493167;12802096784;521525;798584248;375;0;779088;1;2562;9494
0;107;1570433801031;1570433805657;4626;16177647968;73610992712;1228842935;457664;12802096660;520359;798598316;399;0;836608;4;2719;10140
0;108;1570433805657;1570433810284;4627;16180860260;73610992522;1227652490;514669;12802096470;517684;798585575;403;0;844800;-5;2740;10347
0;109;1570433810284;1570433814910;4626;16179195130;73610992521;1223546135;519734;12802096469;519786;798614247;402;0;844800;0;2742;10181
0;110;1570433814910;1570433819537;4627;16179475596;73610992520;1236757305;491409;12802096468;516840;798461542;491;36;837472;9;3176;21493
0;111;1570433819537;1570433824263;4726;16179589184;73610992523;1232988788;552884;12802096471;519146;798325873;670;34;802904;47;4710;173325
0;112;1570433824264;1570433829391;5127;16181135762;73610992526;1217924919;641145;12802096474;533283;798148750;641;10;982776;-15;5127;340966
0;113;1570433829391;1570433834017;4626;16177703156;73610992523;1229643571;494292;12802096471;513765;798524978;440;1;916168;-40;3588;50495
0;114;1570433834017;1570433838643;4626;16177858500;73610992522;1216286178;513010;12802096470;520894;798567494;398;1;836608;-1;2641;9760
0;115;1570433838643;1570433843369;4726;16178863418;73610992519;1236231600;479203;12802096467;525362;798365494;409;0;855360;0;2793;10510
0;116;1570433843369;1570433847996;4627;16179115998;73610992521;1223914388;513999;12802096469;523149;798509680;407;1;844824;0;2694;10075
0;117;1570433847996;1570433852622;4626;16179048984;73610992519;1234967051;490931;12802096467;518249;798049556;399;1;834240;5;2772;10498
0;118;1570433852622;1570433857249;4627;16178280002;73610992527;1224461321;466753;12802096475;517254;798599805;507;45;859792;-4;3664;38123
0;119;1570433857249;1570433861874;4625;16177786814;73610992522;1226679050;519191;12802096470;518891;798533911;469;1;816304;9;2742;11948
0;120;1570433861875;1570433866501;4626;16179600864;73610992519;1231607697;524313;12802096467;517521;798592838;409;0;855352;-5;3042;15249
0;121;1570433866501;1570433871128;4627;16179835486;73610992522;1252589864;477827;12802096470;519235;798549178;400;1;834240;0;2676;9888
0;122;1570433871128;1570433875754;4626;16179616048;73610992521;1235885139;507282;12802096469;541423;798572762;404;1;844800;-5;2691;10040
0;123;1570433875754;1570433880381;4627;16180281224;73610992519;1237257050;525173;12802096467;518990;798556564;401;1;834264;0;2664;9893
0;124;1570433880381;1570433885009;4628;16179764238;73610992521;1232001954;510529;12802096469;520306;798569413;480;51;827800;18;2721;13355
0;125;1570433885009;1570433889636;4627;16180939392;73610992522;1236875684;520012;12802096470;518032;798542123;418;0;863560;-17;3430;21987
0;126;1570433889636;1570433894363;4727;16179672404;73610994026;1248847688;519044;12802096803;520466;798556554;408;1;847184;4;2749;9930
0;127;1570433894363;1570433898990;4627;16179899434;73611007350;1236961448;517958;12802099799;526504;798547067;403;1;842432;-4;2734;10069
0;128;1570433898990;1570433903616;4626;16179312514;73610992520;1231351179;500305;12802096468;517218;798169171;399;1;834240;0;2673;10011
0;129;1570433903616;1570433908643;5027;16179645394;73610992521;1227797883;610183;12802096469;529218;798161882;430;1;899968;4;2924;10911
0;130;1570433908643;1570433917689;9046;16186813118;73611002993;1245472416;1633585;12802098416;566225;798381630;875;40;1648072;0;5870;32353
0;131;1570433917689;1570433922325;4636;16182158784;73610992521;1243143194;526286;12802096469;521936;798413870;403;1;842432;-4;2724;9633
0;132;1570433922325;1570433926952;4627;16179800446;73610992520;1226958311;536545;12802096468;529411;798141760;403;1;836632;-1;2720;10182
0;133;1570433926952;1570433931579;4627;16179092346;73610992194;1225652691;525963;12802096408;520585;798551689;397;0;834240;5;2774;10298
0;134;1570433931579;1570433936205;4626;16177460650;73610991762;1230910831;501281;12802096349;527963;798545969;404;1;842432;-4;2783;10515
0;135;1570433936205;1570433940831;4626;16180274216;73610992522;1238324627;507093;12802096470;516728;798535488;402;1;836624;-1;2702;10177
0;136;1570433940832;1570433945458;4626;16179738834;73610992521;1208659329;623464;12802096469;516365;798566021;399;1;834240;5;2715;10298
0;137;1570433945458;1570433950286;4828;16181257672;73610992523;1227881612;571912;12802096471;547294;798392578;516;39;887696;-5;3573;26310
0;138;1570433950286;1570433955014;4728;16178086844;73610992522;1226827423;515816;12802096470;520018;798358500;409;0;853016;1;2737;9811
0;139;1570433955014;1570433959941;4927;16182064468;73610992523;1242096195;576179;12802096471;522342;798350065;425;1;887040;0;2874;10674
0;140;1570433959941;1570433965068;5127;16178468634;73610992521;1233921612;544151;12802096469;528053;798153682;441;1;921088;-1;2970;11078
0;141;1570433965068;1570433969995;4927;16182076148;73610992523;1230548770;602442;12802096471;524893;798428927;427;0;887056;5;2872;10811
1;91;1570434559257;1570434563907;4650;16187297546;73611072676;1282949216;483460;12802096983;537352;798587020;404;0;844800;-5;2722;9686
1;92;1570434563907;1570434568557;4650;16188537670;73611072467;1315356555;516269;12802096774;518724;798483406;403;0;844800;0;2722;10018
1;93;1570434568557;1570434573208;4651;16194417966;73611072642;1296171096;614729;12802096949;515958;798569695;406;0;834376;0;2725;9898
1;94;1570434573209;1570434577858;4649;16189615004;73611072511;1283068092;488868;12802096818;515889;798425373;403;0;842432;1;2705;10142
1;95;1570434577859;1570434582508;4649;16188775504;73611072363;1301270848;461951;12802096670;516961;798591973;400;0;836608;4;2708;10170
1;96;1570434582508;1570434587158;4650;16188037182;73611072571;1290434916;470580;12802096878;517901;798502392;404;0;844800;0;2755;10401
1;97;1570434587158;1570434591810;4652;16189794000;73611072411;1299451220;483676;12802096718;516889;798517512;467;48;855848;-5;3451;23589
1;98;1570434591810;1570434596460;4650;16188843394;73611072382;1275122564;520137;12802096689;521812;798507164;401;0;844800;0;2710;9656
1;99;1570434596460;1570434601110;4650;16187570566;73611072625;1283158175;502622;12802096932;518344;798435723;407;0;844824;1;2721;10047
1;100;1570434601110;1570434605759;4649;16187924908;73611072648;1284940478;457338;12802096955;534996;798503503;395;0;823688;-1;2665;9867
1;101;1570434605759;1570434610409;4650;16187614074;73611072640;1281702106;496806;12802096947;519894;798425151;404;0;844800;0;2807;10655
1;102;1570434610409;1570434615059;4650;16187365144;73611072649;1286597686;483010;12802096956;522918;798565567;402;0;842432;1;2684;9990
1;103;1570434615059;1570434619709;4650;16192155404;73611072447;1289014279;585002;12802096754;522635;798601882;454;46;827784;4;2934;14671
1;104;1570434619709;1570434624361;4652;16187269514;73611072694;1286411599;493509;12802097001;518146;798583499;409;0;855360;-5;2878;9915
1;105;1570434624361;1570434629011;4650;16188975086;73611072660;1305101272;439437;12802096967;515875;798588224;404;0;844800;0;2802;10242
1;106;1570434629012;1570434633661;4649;16188904130;73611072665;1282794061;483020;12802096972;517446;798566356;402;0;834280;5;2790;10308
1;107;1570434633661;1570434638311;4650;16186283868;73611072547;1294641622;462731;12802096854;518819;798596561;404;0;844800;0;2663;9941
1;108;1570434638311;1570434642960;4649;16186330880;73611072340;1289052995;484216;12802096647;519185;798597981;401;0;844800;0;2741;10257
1;109;1570434642960;1570434647608;4648;16187984768;73611072317;1293198448;509701;12802096624;516932;798513627;374;0;781440;0;2573;9776
1;110;1570434647608;1570434652260;4652;16185175144;73611072404;1290493639;470290;12802096711;518616;798335429;487;46;858320;0;3457;26651
1;111;1570434652260;1570434656914;4654;16188033386;73611072692;1291246500;481262;12802096999;529630;798384811;629;40;772080;51;4334;152670
1;112;1570434656914;1570434661571;4657;16187686782;73611072654;1287763813;478433;12802096961;517113;798520589;606;8;863448;-3;4657;320114
1;113;1570434661571;1570434666223;4652;16188786162;73611072362;1284794529;500026;12802096669;515932;798509966;425;1;880424;-53;3230;62214
1;114;1570434666223;1570434670872;4649;16187768688;73611072332;1285251273;504320;12802096639;520150;798520194;404;0;844800;0;2745;10345
1;115;1570434670872;1570434675521;4649;16184256220;73611072346;1285208932;490435;12802096653;522523;798602400;405;0;844800;0;2688;10037
1;116;1570434675521;1570434680171;4650;16187960532;73611072330;1289844915;507879;12802096637;519682;798587449;404;1;844800;0;2686;10095
1;117;1570434680171;1570434684819;4648;16184825474;73611072333;1290238942;469951;12802096640;516539;798594843;397;1;834240;5;2643;9900
1;118;1570434684819;1570434689471;4652;16187699922;73611072417;1288322608;474947;12802096724;516813;798521436;499;49;861552;1;3627;38619
1;119;1570434689471;1570434694120;4649;16186578788;73611072394;1293360553;480650;12802096701;516647;798604553;470;0;803464;-1;2773;12724
1;120;1570434694120;1570434698770;4650;16187861252;73611072339;1293419880;470799;12802096646;538253;798591722;404;1;844800;-5;2707;10027
1;121;1570434698770;1570434703420;4650;16187442962;73611072334;1289104709;486632;12802096641;515981;798564000;400;1;834240;5;2709;10158
1;122;1570434703420;1570434708069;4649;16186467974;73611072334;1274805794;497688;12802096641;518870;798564669;402;1;844800;0;2792;10471
1;123;1570434708069;1570434712719;4650;16187718172;73611072333;1287684543;509363;12802096640;516663;798544016;404;0;844800;0;2728;10199
1;124;1570434712719;1570434717370;4651;16189174376;73611072397;1281555616;490049;12802096704;520534;798568771;513;45;833768;7;3176;26599
1;125;1570434717370;1570434722022;4652;16190913090;73611072383;1265875102;517635;12802096690;522496;798555146;416;1;869816;-12;3118;15556
1;126;1570434722022;1570434726672;4650;16190088920;73611073864;1291606942;534615;12802097000;515686;798561016;407;1;842456;1;2778;10142
1;127;1570434726673;1570434731322;4649;16188963990;73611087177;1286856761;514816;12802099985;518360;798546476;398;1;836608;4;2700;9854
1;128;1570434731323;1570434735972;4649;16185161858;73611072338;1284240893;497538;12802096645;518297;798569210;404;0;844800;0;2671;9932
1;129;1570434735972;1570434740622;4650;16188089450;73611072008;1291091600;475660;12802096581;521123;798539336;406;1;844800;-5;2692;10051
1;130;1570434740622;1570434745271;4649;16185996248;73611071578;1284697390;474057;12802096524;518926;798618764;399;1;834232;5;2672;10066
1;131;1570434745271;1570434749922;4651;16187326162;73611072413;1290580402;464971;12802096720;522165;798492868;496;41;860880;1;3591;39228
1;132;1570434749922;1570434754573;4651;16185258802;73611072365;1250299193;525775;12802096672;517251;798353404;403;1;844800;-6;2693;9498
1;133;1570434754573;1570434759223;4650;16185405386;73611072360;1257729572;533535;12802096667;519797;798596203;408;0;844864;0;2904;10972
1;134;1570434759223;1570434763872;4649;16186937656;73611072337;1282060560;510304;12802096644;515129;798546071;405;1;844800;0;2681;9967
1;135;1570434763872;1570434768522;4650;16187595094;73611072338;1290799463;496947;12802096645;516202;798563635;404;1;844800;0;2751;10347
1;136;1570434768522;1570434773172;4650;16187154612;73611072340;1284124557;503462;12802096647;524699;798553783;405;1;844808;0;2684;9950
1;137;1570434773172;1570434777821;4649;16187181914;73611072336;1295988267;488584;12802096643;519937;798613743;403;1;841440;6;2704;10191
1;138;1570434777821;1570434782473;4652;16184442662;73611072415;1284787946;468323;12802096722;551457;798346395;477;42;848848;-1;3485;27184
1;139;1570434782473;1570434787124;4651;16187486762;73611072364;1294431197;470695;12802096671;522984;798569387;408;1;844832;0;2717;9776
1;140;1570434787124;1570434791773;4649;16186009972;73611072343;1290350239;486441;12802096650;521185;798560916;404;1;844800;0;2767;10209
2;90;1570435380082;1570435384712;4630;16189487838;73610991997;1295871003;500054;12802096584;516478;798596219;479;38;845584;0;3410;25545
2;91;1570435384712;1570435389341;4629;16186405486;73610992835;1286977713;475609;12802096783;516717;798567729;398;0;834240;-5;2687;9675
2;92;1570435389341;1570435393971;4630;16189833420;73610992644;1276453675;539733;12802096592;515139;798441587;400;0;831912;1;2716;9962
2;93;1570435393971;1570435398600;4629;16186891228;73610992811;1287673910;500596;12802096759;516988;798570909;398;0;836608;-1;2692;9914
2;94;1570435398600;1570435403230;4630;16191236334;73610992699;1297775147;514385;12802096647;517624;798423948;398;0;834240;0;2746;10322
2;95;1570435403230;1570435407860;4630;16189100208;73610992559;1315280911;466484;12802096507;515555;798507005;397;0;834240;0;2675;9911
2;96;1570435407860;1570435412489;4629;16188451238;73610992757;1292330715;509683;12802096705;515990;798506519;464;37;828560;8;3130;21091
2;97;1570435412490;1570435417119;4629;16189704502;73610992523;1292260518;543634;12802096471;515655;798508497;401;0;840696;-3;2901;11739
2;98;1570435417119;1570435421748;4629;16185782650;73610992537;1314289926;473078;12802096485;538818;798510139;397;0;834240;-5;2677;9672
2;99;1570435421748;1570435426377;4629;16188843394;73610992802;1314216468;491577;12802096750;519366;798510681;401;0;834272;0;2790;10228
2;100;1570435426377;1570435431007;4630;16187581516;73610992835;1291544417;484624;12802096783;517646;798500183;398;0;834232;0;2671;10011
2;101;1570435431007;1570435435636;4629;16187400330;73610992832;1284534268;489264;12802096780;522739;798504406;397;0;834240;0;2631;9725
2;102;1570435435636;1570435440267;4631;16188037474;73610992836;1304607474;499550;12802096784;517664;798571024;398;0;834240;5;2636;9903
2;103;1570435440267;1570435444896;4629;16188860914;73610992617;1273177270;560675;12802096565;525115;798596861;487;32;845448;-5;3428;24318
2;104;1570435444896;1570435449526;4630;16190361356;73610992805;1320736241;473114;12802096753;515878;798574330;397;0;834240;0;2717;9687
2;105;1570435449527;1570435454156;4629;16188128724;73610992828;1308911408;450920;12802096776;521971;798583871;397;0;831872;1;2648;9708
2;106;1570435454156;1570435458785;4629;16188208732;73610992837;1285884312;512653;12802096785;515424;798564516;397;0;826088;4;2727;9972
2;107;1570435458785;1570435463415;4630;16189904814;73610992732;1288809382;528403;12802096680;516227;798591580;367;0;770880;0;2497;9306
2;108;1570435463415;1570435468143;4728;16184056200;73610992523;1279471616;512627;12802096471;516886;798551483;408;0;855360;-5;2725;10123
2;109;1570435468143;1570435472972;4829;16186884220;73610992523;1293147097;503300;12802096471;523658;798116994;493;42;849840;19;2851;14232
2;110;1570435472972;1570435477701;4729;16184651588;73610992524;1289239715;492088;12802096472;518045;798326541;427;0;893504;-19;3424;24135
2;111;1570435477701;1570435482330;4629;16187623272;73610992522;1292813875;534637;12802096470;519653;798473726;485;40;786960;29;3179;33090
2;112;1570435482330;1570435487059;4729;16186522578;73610992523;1288098457;528367;12802096471;521330;798101683;648;0;816096;5;4729;241214
2;113;1570435487059;1570435491688;4629;16188198220;73610992524;1286074410;555002;12802096472;520815;798249308;548;7;910784;-28;4617;177553
2;114;1570435491688;1570435496317;4629;16187186148;73610992523;1289438202;501748;12802096471;517563;798100959;400;0;834240;-1;2744;10382
2;115;1570435496317;1570435500945;4628;16186296716;73610992522;1295292521;488883;12802096470;516243;798191774;399;0;834240;0;2656;9956
2;116;1570435500945;1570435505575;4630;16189880286;73610992523;1296995494;512933;12802096471;529190;798592813;403;0;844800;-5;2711;10156
2;117;1570435505575;1570435510203;4628;16185981794;73610992527;1293049720;501307;12802096475;517940;798589031;399;0;834240;0;2619;9928
2;118;1570435510203;1570435515033;4830;16188717250;73610992522;1284001422;548691;12802096470;525615;798396497;503;38;871088;9;3317;27632
2;119;1570435515033;1570435519661;4628;16186262406;73610992525;1289652827;516682;12802096473;518403;798609012;483;0;853480;-9;3374;20176
2;120;1570435519661;1570435524290;4629;16185907188;73610992522;1291879541;499854;12802096470;525326;798142616;399;0;834240;5;2650;9657
2;121;1570435524290;1570435528918;4628;16186679966;73610992522;1292561902;509217;12802096470;518018;798143959;398;0;834240;0;2717;9962
2;122;1570435528918;1570435533647;4729;16187527788;73610992524;1297774539;517020;12802096472;517984;798151816;420;0;855552;0;2789;10714
2;123;1570435533647;1570435538377;4730;16185208870;73610992523;1293135266;499463;12802096471;530592;798356102;409;0;855360;0;2750;10289
2;124;1570435538377;1570435543163;4786;16193291576;73610992525;1303837437;495691;12802096473;524075;798149836;415;0;865912;-5;2801;10572
2;125;1570435543163;1570435547792;4629;16188656952;73610992525;1381081565;435056;12802096473;521049;798144343;476;64;848216;0;3462;26665
2;126;1570435547792;1570435552423;4631;16188728784;73610994027;1281293819;522504;12802096804;525201;798596674;398;0;834240;0;2730;9790
2;127;1570435552423;1570435557254;4831;16189437614;73611007352;1299256796;536650;12802099801;530264;798125337;418;0;874112;1;2830;10395
2;128;1570435557254;1570435562183;4929;16186672666;73610992524;1294941100;485797;12802096472;522504;798395290;426;0;889400;-1;2897;10889
2;129;1570435562183;1570435566811;4628;16184455802;73610992196;1293041360;498725;12802096410;517778;798554972;401;0;834264;5;2698;10066
2;130;1570435566811;1570435571542;4731;16191692730;73610991764;1297039664;529117;12802096351;520055;798578698;410;0;855352;0;2714;10152
2;131;1570435571542;1570435576171;4629;16185528172;73610992523;1292483769;499149;12802096471;517611;798396911;480;44;839504;3;3139;20385
2;132;1570435576172;1570435580900;4728;16185642052;73610992522;1288156416;500758;12802096470;518866;798157176;414;0;861840;-2;3062;12754
2;133;1570435580900;1570435585628;4728;16186582000;73610992522;1288073689;506394;12802096470;524930;798341096;414;0;863552;-5;2801;10205
2;134;1570435585628;1570435590557;4929;16186819980;73610992522;1288349473;547304;12802096470;527961;798589828;425;0;889408;-1;2860;10497
2;135;1570435590557;1570435595286;4729;16187236956;73610992522;1312748269;537221;12802096470;531809;798410679;412;0;855376;0;2839;10729
2;136;1570435595286;1570435599916;4630;16190465892;73610992525;1339605563;562147;12802096473;517009;798085728;399;0;834240;5;2674;10012
2;137;1570435599916;1570435604547;4631;16189457762;73610992522;1322941927;478247;12802096470;516446;798358581;398;0;834240;0;2750;10392
2;138;1570435604547;1570435609375;4828;16186745666;73610992522;1287872280;549076;12802096470;540172;798149958;482;42;887456;0;3619;28889
2;139;1570435609375;1570435614004;4629;16185542626;73610992522;1284629558;504891;12802096470;517974;798197228;403;0;842432;-4;2693;9604
3;93;1570436204092;1570436208744;4652;16187945786;73611072666;1282374271;467733;12802096973;523882;798199760;406;0;855360;-5;2723;9661
3;94;1570436208744;1570436213395;4651;16190959226;73611072517;1297733290;488063;12802096824;546307;798398853;407;0;844832;0;2690;9848
3;95;1570436213396;1570436218045;4649;16185750530;73611072368;1293232862;467546;12802096675;517380;798530230;403;0;844800;5;2748;10244
3;96;1570436218045;1570436222796;4751;16185260700;73611072565;1303490564;471080;12802096872;520545;798375735;413;0;865920;0;2800;10508
3;97;1570436222796;1570436227446;4650;16187032848;73611072338;1289270687;485508;12802096645;549224;798324981;407;0;852992;-4;2746;10262
3;98;1570436227446;1570436232197;4751;16188893180;73611072388;1280113921;529038;12802096695;518524;798496119;486;38;860944;8;3113;19634
3;99;1570436232198;1570436236848;4650;16186107646;73611072655;1283160804;471518;12802096962;515307;798507825;412;0;863352;-9;3099;14098
3;100;1570436236848;1570436241499;4651;16187232868;73611072669;1282447665;488025;12802096976;518837;798503242;403;0;844800;5;2728;9868
3;101;1570436241499;1570436246149;4650;16185812288;73611072660;1285394837;451861;12802096967;516135;798495195;407;0;844824;-5;2782;10346
3;102;1570436246149;1570436250799;4650;16185350344;73611072647;1281027286;461018;12802096954;517372;798292255;403;0;844800;5;2715;10199
3;103;1570436250799;1570436255450;4651;16189206204;73611072432;1286174226;541448;12802096739;516336;798515557;405;0;855360;-5;2715;10075
3;104;1570436255450;1570436260099;4649;16185472984;73611072604;1280866804;483752;12802096911;519492;798577105;403;0;844792;0;2675;10025
3;105;1570436260099;1570436264753;4654;16191470226;73611072715;1285721421;588179;12802097022;518415;798574821;499;44;860144;3;3706;39966
3;106;1570436264753;1570436269403;4650;16187537570;73611072690;1283791515;478111;12802096997;515981;798579704;406;0;848896;-2;2730;9682
3;107;1570436269404;1570436274054;4650;16188755794;73611072548;1290970860;481473;12802096855;517722;798584845;405;0;847168;-1;2740;10193
3;108;1570436274054;1570436278704;4650;16185883244;73611072358;1285537668;502101;12802096665;514989;798587914;405;0;844840;6;2735;10066
3;109;1570436278704;1570436283354;4650;16185601318;73611072340;1280088551;477693;12802096647;517210;798528421;407;0;852992;-5;2760;10325
3;110;1570436283354;1570436288104;4750;16187695250;73611072348;1283660209;538143;12802096655;520742;798521881;415;0;868288;-1;2780;10359
3;111;1570436288104;1570436292754;4650;16184494492;73611072348;1288526189;486274;12802096655;519094;798528417;414;42;849920;85;2695;10413
3;112;1570436292754;1570436297404;4650;16186928750;73611072418;1282079041;482216;12802096725;529481;798431489;458;0;789072;-80;3336;27994
3;113;1570436297404;1570436302054;4650;16185771846;73611072355;1293005243;483752;12802096662;516620;798532016;404;0;852984;-4;2723;9723
3;114;1570436302054;1570436306704;4650;16185838276;73611072364;1284813890;491706;12802096671;518691;798514811;409;0;847200;-1;2813;10328
3;115;1570436306704;1570436311357;4653;16186813118;73611072613;1294561719;479221;12802096920;516841;798535238;577;44;767984;56;4012;108712
3;116;1570436311358;1570436316014;4656;16185032648;73611072755;1282265785;449100;12802097062;523256;798513202;646;7;803040;33;4656;343461
3;117;1570436316014;1570436320670;4656;16188153982;73611072315;1286037688;540146;12802096622;517572;798406194;493;0;1028224;-84;4630;218990
3;118;1570436320670;1570436325320;4650;16185606428;73611072331;1287614996;472325;12802096638;522768;798195412;407;0;852992;-4;2738;10253
3;119;1570436325321;1570436330071;4750;16186704932;73611072333;1289734711;506840;12802096640;518732;798396202;415;0;865920;0;2783;10444
3;120;1570436330071;1570436334821;4750;16186599374;73611072343;1282867997;520482;12802096650;520665;798373027;416;0;865912;0;2698;10235
3;121;1570436334821;1570436339672;4851;16185428454;73611072377;1282914435;498735;12802096684;528307;798343700;508;54;870608;9;3154;23646
3;122;1570436339672;1570436344423;4751;16185343482;73611072397;1282192596;471654;12802096704;532832;798159369;424;0;887040;-10;3293;19348
3;123;1570436344423;1570436349073;4650;16187104826;73611072354;1287942066;472380;12802096661;517256;798147859;405;0;844800;5;2743;9966
3;124;1570436349073;1570436353724;4651;16184732326;73611072386;1279798346;468031;12802096693;526453;798576173;490;0;853824;-4;3240;23011
3;125;1570436353724;1570436358376;4652;16190248644;73611072344;1270726152;550944;12802096651;518593;798558753;407;0;847160;-1;2705;10184
3;126;1570436358376;1570436363026;4650;16186072898;73611073834;1366404078;464505;12802096970;519825;798150574;406;0;844800;5;2787;10582
3;127;1570436363026;1570436367677;4651;16188834926;73611087163;1301044037;482300;12802099971;527165;798525874;409;0;844832;0;2748;10553
3;128;1570436367677;1570436372330;4653;16187640938;73611072449;1291236903;472861;12802096756;521251;798501707;512;46;869104;-5;3537;28971
3;129;1570436372330;1570436376980;4650;16187960240;73611072366;1302716448;448915;12802096673;517503;798375347;403;0;844792;5;2717;9688
3;130;1570436376980;1570436381631;4651;16185986320;73611072341;1316246875;437550;12802096648;516870;798545350;410;0;852992;-4;2755;10233
3;131;1570436381631;1570436386282;4651;16189814148;73611072351;1314552480;440015;12802096658;516117;798574026;408;0;847168;-1;2845;10593
3;132;1570436386282;1570436390933;4651;16187290246;73611072334;1294075891;486790;12802096641;521416;798535907;406;0;844800;5;2679;10005
3;133;1570436390933;1570436395583;4650;16187356676;73611072003;1281781661;502554;12802096576;521741;798561603;403;0;844800;0;2710;10125
3;134;1570436395584;1570436400234;4650;16186821440;73611071588;1292063146;478050;12802096534;519490;798559569;411;0;855384;-5;2688;9970
3;135;1570436400234;1570436404886;4652;16187875852;73611072409;1284086415;506424;12802096716;519441;798587134;494;46;856048;0;3451;24656
3;136;1570436404886;1570436409536;4650;16185919452;73611072362;1282888932;482315;12802096669;516790;798559183;410;0;852992;1;2784;10137
3;137;1570436409536;1570436414187;4651;16187173884;73611072355;1288799906;496449;12802096662;516276;798559146;408;0;847176;-1;2749;10057
3;138;1570436414187;1570436418837;4650;16186279050;73611072336;1293206550;474880;12802096643;535393;798559184;403;0;844800;6;2717;10157
3;139;1570436418837;1570436423487;4650;16186165900;73611072333;1289665077;485849;12802096640;520918;798537562;403;0;844800;-1;2726;10232
3;140;1570436423487;1570436428138;4651;16187175052;73611072339;1285549667;497280;12802096646;518528;798142989;411;0;855360;-5;2705;10068
3;141;1570436428138;1570436432790;4652;16186863196;73611072411;1285671064;500523;12802096718;521825;798356460;507;45;850448;9;3459;30660
3;142;1570436432790;1570436437441;4651;16185649060;73611072376;1280899596;475224;12802096683;515393;798568023;414;0;861144;-8;2809;10582
4;93;1570437030608;1570437035238;4630;16189230002;73611072453;1287801867;520304;12802096760;522924;798568834;399;0;834240;0;2682;9662
4;94;1570437035239;1570437039871;4632;16191888954;73611072345;1296803316;494454;12802096652;518679;797951546;398;0;823712;-5;2707;10050
4;95;1570437039871;1570437044499;4628;16186697340;73611072197;1312820503;477506;12802096504;519388;798581621;399;0;834240;5;2668;9972
4;96;1570437044499;1570437049129;4630;16188157194;73611072399;1290279320;490002;12802096706;515700;798377151;397;0;834240;0;2692;10114
4;97;1570437049129;1570437053758;4629;16190346610;73611072166;1301119043;538175;12802096473;517544;798600552;397;0;834240;0;2665;9857
4;98;1570437053758;1570437058388;4630;16188453136;73611072180;1285635654;533755;12802096487;516716;798526275;486;36;832880;6;3148;22056
4;99;1570437058388;1570437063019;4631;16188538108;73611072441;1285298614;531526;12802096748;520084;798230517;407;0;851264;-8;2962;12730
4;100;1570437063019;1570437067649;4630;16188774190;73611072478;1286203625;518100;12802096785;515461;798286191;397;0;830136;2;2712;9881
4;101;1570437067649;1570437072279;4630;16187990462;73611072474;1283673227;512294;12802096781;512091;798421639;405;0;842464;-4;2703;9865
4;102;1570437072279;1570437076910;4631;16191511252;73611072478;1289225895;571148;12802096785;517846;798270174;363;0;762688;4;2477;9229
4;103;1570437076910;1570437081539;4629;16189947592;73611072261;1316195975;498782;12802096568;515478;798515491;399;0;834232;0;2694;10079
4;104;1570437081540;1570437086170;4630;16189814878;73611072445;1287421326;526145;12802096752;525980;798570961;399;0;834240;0;2616;9816
4;105;1570437086170;1570437090799;4629;16189034362;73611072468;1304626717;453101;12802096775;537440;798568709;465;36;845576;0;3367;22880
4;106;1570437090799;1570437095430;4631;16188619284;73611072478;1285263202;506591;12802096785;524747;798373118;397;0;834240;-5;2690;9540
4;107;1570437095430;1570437100060;4630;16188617532;73611072375;1293172564;513565;12802096682;523334;798585463;396;0;827776;3;2668;9890
4;108;1570437100060;1570437104688;4628;16185925876;73611072164;1292532007;504217;12802096471;519822;798588983;401;0;830184;-3;2677;9832
4;109;1570437104689;1570437109318;4629;16188086968;73611072165;1298999114;483930;12802096472;510386;798607306;398;0;831872;1;2681;10029
4;110;1570437109318;1570437113947;4629;16184858616;73611072165;1291510816;486885;12802096472;514911;798397353;397;0;834240;0;2671;9960
4;111;1570437113947;1570437118577;4630;16188886756;73611072165;1291464221;520982;12802096472;533818;798173486;393;0;826048;4;2649;9912
4;112;1570437118577;1570437123206;4629;16188121862;73611072163;1293533154;518892;12802096470;521317;798509340;479;44;845840;0;3466;26753
4;113;1570437123206;1570437127836;4630;16190969008;73611072167;1290409457;511537;12802096474;517642;798515711;399;0;834240;0;2675;9642
4;114;1570437127836;1570437132465;4629;16188003894;73611072165;1294499146;515866;12802096472;521888;798512359;403;0;834272;0;2776;10278
4;115;1570437132465;1570437137093;4628;16187172278;73611072163;1285976112;512733;12802096470;518857;798521301;397;0;834232;0;2692;10047
4;116;1570437137093;1570437141722;4629;16187658166;73611072165;1296872734;499413;12802096472;520943;798510849;401;0;842432;-4;2720;10200
4;117;1570437141722;1570437146350;4628;16185556058;73611072164;1282188523;540628;12802096471;517289;798592514;395;0;826048;4;2628;9803
4;118;1570437146350;1570437150979;4629;16191100992;73611072165;1292621734;538378;12802096472;516764;798516661;584;42;747656;57;3896;124797
4;119;1570437150980;1570437155609;4629;16188336482;73611072165;1295684463;538492;12802096472;517181;798417920;641;7;803400;16;4630;356754
4;120;1570437155609;1570437160238;4629;16187657728;73611072165;1290364419;508660;12802096472;519683;798563546;469;0;982080;-77;4282;169455
4;121;1570437160238;1570437164867;4629;16187521510;73611072164;1290736786;510474;12802096471;514694;798554912;396;0;815520;4;2723;10150
4;122;1570437164867;1570437169496;4629;16191121870;73611072166;1298058622;546776;12802096473;515407;798546984;396;0;823672;-5;2633;9910
4;123;1570437169496;1570437174124;4628;16185573432;73611072166;1290447854;487455;12802096473;519161;798543052;396;0;823680;0;2644;9990
4;124;1570437174124;1570437178754;4630;16189021806;73611072164;1277591716;508500;12802096471;526777;798360502;393;0;821312;1;2583;9647
4;125;1570437178754;1570437183384;4630;16187672036;73611072164;1280534169;524301;12802096471;518621;798551013;482;44;827792;4;3405;26905
4;126;1570437183384;1570437188013;4629;16190320622;73611073670;1286123300;506318;12802096806;523135;798561076;396;0;823672;0;2577;9157
4;127;1570437188014;1570437192644;4630;16187738904;73611086992;1291396004;489991;12802099800;517648;798335553;396;0;823672;-5;2675;9841
4;128;1570437192644;1570437197274;4630;16187764746;73611072166;1289492628;498820;12802096473;520505;798142338;475;0;822144;1;3089;19196
4;129;1570437197274;1570437201903;4629;16188954792;73611071840;1309809510;506800;12802096413;516739;798539438;388;0;815488;4;2650;9929
4;130;1570437201903;1570437206535;4632;16190874984;73611071407;1313095255;488319;12802096353;520370;798550523;396;0;823680;-5;2669;10105
4;131;1570437206535;1570437211164;4629;16185481744;73611072163;1286594018;479830;12802096470;523648;798476505;466;54;805056;17;2706;13057
4;132;1570437211164;1570437215792;4628;16186899696;73611072165;1293976812;511539;12802096472;517767;798602932;413;0;855376;-17;3270;20815
4;133;1570437215792;1570437220424;4632;16189442578;73611072164;1281510142;559457;12802096471;526087;798558315;387;0;813112;7;2646;9532
4;134;1570437220424;1570437225053;4629;16187848404;73611072164;1291609197;480823;12802096471;517332;798551470;397;0;823712;-2;2742;9997
4;135;1570437225053;1570437229681;4628;16186660110;73611072166;1284124558;511959;12802096473;515142;798540813;396;0;823680;-5;2630;9923
4;136;1570437229681;1570437234310;4629;16189317456;73611072165;1285218290;540546;12802096472;522127;798600609;395;0;821312;1;2644;10016
4;137;1570437234310;1570437238939;4629;16187146144;73611072163;1287622271;529700;12802096470;516743;798552862;390;0;815488;4;2608;9800
4;138;1570437238939;1570437243568;4629;16188978152;73611072164;1303045329;503126;12802096471;516597;798558994;495;34;835288;0;3329;24374
4;139;1570437243568;1570437248197;4629;16187613198;73611072165;1284031425;533250;12802096472;519955;798549781;396;0;823680;-5;2603;9163
4;140;1570437248197;1570437252826;4629;16188770832;73611072164;1288626407;528134;12802096471;519398;798597798;396;0;823680;0;2670;9885
4;141;1570437252826;1570437257455;4629;16186683762;73611072165;1291724013;514088;12802096472;517879;798351029;399;0;823704;0;2715;10030
4;142;1570437257456;1570437262085;4629;16189982924;73611072165;1294686085;489584;12802096472;516341;798567962;393;0;821312;1;2623;9835
