0;5;1570292303252;1570292315848;12596;42070179882;57249098375;2077885613;891824859;11120122686;86595005;753798803;1197;47;2324584;5;8173;39356
0;6;1570292316159;1570292328472;12313;41243485542;57277088177;2069189495;895626130;11125838145;86482265;752983882;1074;0;2268024;-4;7337;27415
0;7;1570292328834;1570292341402;12568;42211551536;57247764793;2063397356;892252743;11119898212;86403041;746764740;1098;1;2312680;0;7604;28925
0;8;1570292341713;1570292354016;12303;41175042932;57299749140;2059148222;897000313;11133394769;86439372;748024595;1141;49;2190048;-1;7763;39681
0;9;1570292354326;1570292366932;12606;42159623570;57248187985;2068486212;889749461;11120127753;86801801;749160242;1102;0;2323224;0;7586;28487
0;10;1570292367243;1570292379595;12352;41221652994;57275406210;2072122542;892818731;11125432692;86580854;748590348;1163;48;2282936;0;8077;39152
0;11;1570292379956;1570292392580;12624;42047247662;57246104625;2075273677;890124584;11119594516;86562880;747832020;1102;0;2323224;5;7598;28453
0;12;1570292392889;1570292405262;12373;41527862152;57297785723;2081056429;893128458;11133399779;86348707;747077985;1172;42;2293392;0;7978;38745
0;13;1570292405574;1570292418151;12577;42017720184;57247012960;2076258820;889539521;11119816674;86524382;746176396;1102;1;2323224;0;7572;27820
0;14;1570292418463;1570292430793;12330;41359000304;57276230826;2072108037;892326912;11125844263;86347003;748326337;1083;0;2280984;-5;7296;27270
0;15;1570292431157;1570292443671;12514;42008343042;57247139509;2071594444;895531230;11119950737;86335326;751585499;1213;28;2324848;0;8213;42240
0;16;1570292443981;1570292456294;12313;41276252176;57274388301;2076021064;893054383;11125319361;86225619;748021151;1073;0;2259880;5;7365;27600
0;17;1570292456606;1570292469135;12529;42069665962;57246643940;2079290594;894980299;11119784099;86208071;749554893;1234;36;2314128;-5;8324;45761
0;18;1570292469446;1570292481783;12337;41334026420;57273697443;2078019537;891615554;11125185828;86316980;750389188;1075;0;2270400;5;7346;27440
0;19;1570292482142;1570292494774;12632;42158382716;57266622452;2076286434;891622330;11126968491;86591063;753479637;1257;38;2350992;-5;8489;58530
0;20;1570292495086;1570292507420;12334;41279418770;57273976552;2072469178;897342750;11125239095;86322980;755076374;1080;0;2270432;5;7473;28072
0;21;1570292507731;1570292520303;12572;42064439600;57245247867;2089836453;891771358;11119450927;86428960;756750757;1236;44;2326184;-5;8450;54989
0;22;1570292520614;1570292532976;12362;41290673180;57273186727;2076409896;893422107;11125051933;86472224;755462648;1089;0;2280984;0;7396;27647
0;23;1570292533337;1570292545909;12572;42054766662;57247353342;2068200662;890495762;11120167565;86440960;749606923;1059;0;2225816;1;7298;27410
0;24;1570292546221;1570292558586;12365;41494318068;57273148531;2074515880;893404683;11125046779;86448546;749218064;1177;48;2253896;-1;7808;37665
0;25;1570292558898;1570292571504;12606;42293186268;57245590583;2090276395;888550848;11119674826;86265083;748595250;1106;0;2312656;0;7501;28284
0;26;1570292571816;1570292584177;12361;41299135048;57273336009;2084827062;892485546;11125122412;86548799;749570971;1190;42;2294136;5;8228;45666
0;27;1570292584537;1570292597120;12583;42232745334;57244498810;2088394544;894498512;11119311368;86208502;755852767;1113;0;2333776;0;7713;29812
0;28;1570292597432;1570292609832;12400;41403659222;57273436958;2089784459;894711720;11125148767;86453843;754983952;1213;36;2314144;-5;8179;41087
0;29;1570292610145;1570292622626;12481;41852401464;57244486383;2067030656;892492658;11119263172;86177127;751534041;1094;0;2291520;5;7548;27974
0;30;1570292622936;1570292635218;12282;41202982222;57274250511;2085688035;894158354;11125453335;86223394;755917139;1082;0;2268032;-4;7361;27725
0;31;1570292635577;1570292648108;12531;42074083046;57244134033;2093079542;893738308;11119204905;86271995;753451129;1211;44;2327648;-1;8027;37523
0;32;1570292648419;1570292660848;12429;41222452344;57273524387;2088061398;893599217;11125161428;86457952;751598380;1098;0;2291560;5;7474;28175
0;33;1570292661162;1570292673715;12553;41954663952;57267545061;2085762919;890523112;11127398926;86597469;752180018;1215;47;2335960;-5;8093;39855
0;34;1570292674029;1570292686381;12352;41457545632;57272688920;2084549386;894148946;11124969889;86344990;748729650;1092;1;2280984;0;7372;27650
0;35;1570292686742;1570292699315;12573;42221044164;57243660859;2064008110;888604078;11119107839;86185297;747889450;1112;3;2323232;0;7638;28851
0;36;1570292699626;1570292711990;12364;41472852710;57274717659;2083302001;895512190;11125462427;86135068;749077283;1235;44;2291472;1;8118;48579
0;37;1570292712302;1570292724868;12566;42056256008;57244397506;2064129837;892531169;11119251597;86401193;748959655;1110;2;2321688;1;7597;28711
0;38;1570292725179;1570292737550;12371;41514072452;57274051755;2077011944;895160100;11125426486;86229664;752378251;1221;34;2287208;3;8232;55177
0;39;1570292737911;1570292750519;12608;42363921808;57245050115;2081502815;895678769;11119572941;86276737;756326641;1116;2;2331416;-4;7494;28281
0;40;1570292750830;1570292763184;12354;41434845990;57296256360;2069746318;892403816;11133018423;86313426;757667180;1226;40;2285592;-1;8026;43717
0;41;1570292763496;1570292776032;12536;42105076364;57244225203;2064348241;894743300;11119317837;86404252;754596356;1109;3;2310304;1;7521;27734
0;42;1570292776344;1570292788671;12327;41348465382;57273985060;2065745572;901385488;11125400191;86340989;754481993;1583;48;2189360;65;10778;531751
0;43;1570292789033;1570292801611;12578;42242497550;57243781652;2069414720;887081386;11119152295;86263489;745435979;1142;4;2388944;-66;8331;106312
0;44;1570292801922;1570292814301;12379;41545935346;57273132515;2078265800;891206147;11125090472;86306977;744426672;1248;36;2274256;10;8058;63561
0;45;1570292814613;1570292827180;12567;42202558520;57243437985;2075783665;888100844;11119054367;86243299;744049777;1199;3;2334600;-10;8145;36214
0;46;1570292827490;1570292839812;12322;41363290076;57274128183;2077358062;890429485;11125445371;86296554;743254385;1087;4;2259880;5;7312;27851
0;47;1570292840171;1570292852768;12597;42284564822;57245791588;2090039375;894124336;11119762688;86224542;754911422;1253;39;2337392;-5;8416;53239
0;48;1570292853080;1570292865388;12308;41286736290;57272828795;2075600125;891958392;11125041600;86240111;754019501;1079;3;2249280;5;7264;27429
0;49;1570292865700;1570292878243;12543;41944077492;57243460706;2085854791;888689784;11119089779;86456913;754839414;1248;31;2304152;-5;8282;64374
0;50;1570292878557;1570292890940;12383;41483101472;57272437902;2105266069;894660050;11124909800;86252836;758514627;1087;2;2259856;0;7238;27088
0;51;1570292891301;1570292903927;12626;42400152876;57265346260;2104789462;893685823;11126736759;86342513;753137850;1112;3;2312656;0;7511;28557
0;52;1570292904238;1570292916626;12388;41372754818;57294121850;2084479929;891848836;11132496407;86505214;748880586;1214;46;2272552;5;8195;56588
0;53;1570292916938;1570292929540;12602;42137564868;57267786263;2086220508;891725337;11127561203;86431366;750267196;1110;6;2302112;-5;7479;28416
0;54;1570292929853;1570292942260;12407;41606381536;57293876161;2089397143;894414304;11132445687;86311862;752482088;1261;39;2274160;0;8266;69297
1;5;1570293125795;1570293138409;12614;42166490972;55503350615;2057863143;884698563;10826854427;85735451;715806857;1198;40;2356496;0;8347;43674
1;6;1570293138721;1570293150967;12246;41058452880;55530327271;2048087628;885962461;10830432549;85643141;712791361;1054;0;2217632;0;7293;27155
1;7;1570293151333;1570293163903;12570;42185795530;55502552891;2049256288;881628091;10826677681;85428945;720798557;1107;0;2333776;5;7492;27982
1;8;1570293164216;1570293176655;12439;41685650192;55556791145;2052209330;884736147;10838031879;85586666;723736014;1160;42;2240504;-5;7897;40231
1;9;1570293176970;1570293189580;12610;42312550394;55502197502;2055833005;884991061;10826670779;85438294;720362387;1111;0;2344328;0;7593;28388
1;10;1570293189895;1570293202235;12340;41394708546;55529780060;2061810736;888505947;10830381132;85538855;723055340;1166;38;2261520;5;7932;44681
1;11;1570293202598;1570293215154;12556;42174097280;55500989905;2068133664;886001891;10826451253;85384346;720260437;1114;0;2342008;-4;7578;28274
1;12;1570293215469;1570293227796;12327;41361033938;55548571342;2065355417;887793504;10837009356;85460079;721190736;1178;46;2285328;9;7933;43737
1;13;1570293228109;1570293240719;12610;42261534198;55502356610;2062150275;884625402;10826775731;85351272;718341326;1119;0;2354928;-10;7709;29020
1;14;1570293241034;1570293253369;12335;41378912514;55528521943;2056120874;888160020;10830137321;85490108;720809687;1087;0;2291536;5;7410;27873
1;15;1570293253736;1570293266283;12547;42081244784;55502810434;2050172546;885026146;10826971852;85384738;717449118;1214;54;2357432;-5;8332;42397
1;16;1570293266597;1570293279026;12429;41484928954;55529089971;2061359134;885303214;10830361240;85468357;723345004;1095;0;2312640;5;7485;27977
1;17;1570293279340;1570293291870;12530;42042095614;55499977555;2056434847;886085000;10826252045;85387184;719858703;1236;54;2361416;-5;8227;48159
1;18;1570293292184;1570293304630;12446;41548274850;55527892409;2065983786;886662641;10830079537;85784547;722631858;1103;0;2320872;1;7530;27865
1;19;1570293304997;1570293317515;12518;42022611184;55517864660;2048436789;886118942;10832517292;85349166;717581714;1209;48;2346752;0;8320;48636
1;20;1570293317829;1570293330276;12447;41711069230;55527982898;2064248088;887628031;10830147050;85420885;722700241;1097;0;2304496;4;7504;28143
1;21;1570293330594;1570293343155;12561;42090910422;55499866573;2042502445;884324944;10826275783;85484993;716895994;1114;0;2344336;-5;7597;28472
1;22;1570293343470;1570293355885;12415;41475520568;55528810824;2058109322;888423873;10830411688;85682699;720001608;1180;40;2314832;5;8260;48142
1;23;1570293356251;1570293368859;12608;42119512114;55500590215;2061723405;884844853;10826569035;85551636;721471063;1072;0;2249312;0;7409;27847
1;24;1570293369175;1570293381530;12355;41404381192;55553831173;2049761646;885362305;10837525671;85358939;721067168;1210;36;2312080;-4;8093;40525
1;25;1570293381844;1570293394512;12668;42281820752;55502887892;2060589892;884919167;10827185923;85529561;721608895;1129;0;2367848;-1;7675;28858
1;26;1570293394826;1570293407234;12408;41640180974;55526960270;2064169398;887078637;10829862162;85405652;719877032;1181;52;2314648;5;8154;44991
1;27;1570293407599;1570293420159;12560;42165784624;55499215191;2054534863;884921343;10826114883;85341094;711459613;1121;0;2354920;-5;7779;28705
1;28;1570293420473;1570293432847;12374;41340509258;55528004078;2063831025;886325891;10830165951;85530452;717049441;1097;0;2312624;0;7412;27907
1;29;1570293433164;1570293445689;12525;42012365196;55500553387;2060109523;886626531;10826570632;85564583;716540715;1197;48;2335624;5;8291;40769
1;30;1570293446003;1570293458416;12413;41448147320;55526844059;2060033568;885960323;10829843307;85575986;717062496;1108;0;2323248;-5;7511;28175
1;31;1570293458783;1570293471305;12522;42002041536;55503289264;2043303853;884520923;10827258472;85298448;720236545;1224;55;2365880;1;8291;46470
1;32;1570293471621;1570293483972;12351;41417291096;55528112877;2056244427;888703297;10830169744;85400302;722720867;1098;1;2302120;0;7446;27619
1;33;1570293484288;1570293496895;12607;42144900346;55517538896;2059722125;882943648;10832459590;85544940;723428626;1115;0;2346688;4;7669;28900
1;34;1570293497209;1570293509565;12356;41432484002;55528758829;2057334710;887547985;10830334778;85394463;721894228;1193;42;2314896;-5;8239;42872
1;35;1570293509934;1570293522463;12529;41987041350;55526965025;2039213402;882830377;10834131118;85497835;713864597;1110;0;2323248;0;7509;28429
1;36;1570293522777;1570293535140;12363;41456282878;55556057889;2053119702;886571119;10838115605;85474273;716197860;1199;46;2314904;0;8250;48197
1;37;1570293535456;1570293548039;12583;42268401892;55499881325;2042651166;882099266;10826269005;85443515;712031827;1115;1;2331472;1;7627;28680
1;38;1570293548354;1570293560837;12483;41871025078;55526693441;2064606252;886715824;10829812668;86948465;715952260;1212;62;2333648;6;8201;44630
1;39;1570293561202;1570293573807;12605;42145844528;55502252501;2046886800;882488551;10827004402;85462658;718356011;1132;0;2369376;-7;7771;28556
1;40;1570293574223;1570293586606;12383;41520112180;55545494546;2058228996;887413525;10836262131;85305941;720769885;1110;0;2333752;0;7547;28509
1;41;1570293586921;1570293599458;12537;42084066672;55499531883;2037147797;883677698;10826265380;85309869;719189770;1206;58;2339104;0;8189;49125
1;42;1570293599775;1570293612140;12365;41490814068;55528574467;2043182490;888152517;10830296935;85345381;719668763;1065;0;2228200;0;7287;27436
1;43;1570293612504;1570293625175;12671;42328536080;55503734804;2062076678;886575268;10827627878;85644318;717346073;1371;80;2330296;40;9133;94675
1;44;1570293625491;1570293637969;12478;41636918604;55527288290;2072901982;892011681;10829991412;85753695;719039057;1479;8;2437392;-35;11415;504156
1;45;1570293638283;1570293650880;12597;42126351192;55500102712;2062194862;885945398;10826485546;85486458;720512260;1126;2;2354896;0;7601;28652
1;46;1570293651196;1570293663436;12240;41050291626;55526862624;2052143315;887614941;10829856386;85414138;718795684;1214;48;2288488;0;8320;62415
1;47;1570293663801;1570293676292;12491;41904884376;55499465789;2050738563;885500407;10826200838;85363369;719189526;1189;2;2313528;-5;7905;36691
1;48;1570293676606;1570293688908;12302;41279142684;55526758968;2072146527;885910600;10829838554;85373005;721782718;1213;70;2288784;10;8154;53616
1;49;1570293689224;1570293701711;12487;41929424932;55498790765;2058833783;884585438;10826037361;85538711;721777308;1115;7;2320864;-9;7633;29217
1;50;1570293702027;1570293714390;12363;41441504174;55528064573;2075428215;887137780;10830280808;85445739;723048403;1097;1;2283328;4;7379;27995
1;51;1570293714754;1570293727419;12665;42344553010;55517061974;2075731056;882539440;10832373061;85615907;719462802;1248;53;2401016;-5;8542;52069
1;52;1570293727735;1570293740137;12402;41416589420;55546973365;2079331189;885873560;10836802238;85633951;719190443;1107;0;2312640;5;7571;28682
1;53;1570293740452;1570293752959;12507;41986364056;55517094246;2060427379;885510216;10832379719;85383872;716768640;1197;48;2313240;-4;8284;46838
1;54;1570293753275;1570293765687;12412;41615302574;55545310695;2072179581;883038128;10836262871;85432130;719192597;1113;0;2304576;4;7651;28913
2;5;1570293946657;1570293959360;12703;42461404548;56910978841;2035681718;883458092;10870138164;90372132;712534063;1240;44;2348408;-4;8426;52314
2;6;1570293959675;1570293972188;12513;41952468988;56936871194;2041921407;887105552;10874038888;90352198;714229390;1089;0;2281096;0;7518;27691
2;7;1570293972554;1570293985233;12679;42569832616;56908784552;2026368549;885364501;10869524179;90195742;715014245;1104;0;2325584;4;7523;28250
2;8;1570293985549;1570293998069;12520;41974420088;56936958811;2026526199;885391100;10874088311;90056422;717018475;1197;40;2301456;-4;8094;40601
2;9;1570293998384;1570294011107;12723;42609744198;56909564663;2025704535;883476967;10869952252;90133287;714627765;1074;0;2262216;-1;7299;27248
2;10;1570294011422;1570294023928;12506;41937855410;56937112148;2022956403;884059083;10874380117;90075430;715274953;1182;48;2291232;1;7750;31659
2;11;1570294024292;1570294036995;12703;42528173560;56907729604;2037448136;877906249;10869521286;90217817;709949834;1113;0;2336176;4;7643;28759
2;12;1570294037309;1570294049817;12508;41919953620;56956696682;2036895849;881183169;10881317894;90080162;708855533;1180;46;2287000;-2;7878;42425
2;13;1570294050130;1570294062997;12867;42602126794;56907746291;2037907282;879889670;10869429876;90312212;714671941;1129;0;2371936;-3;7832;28805
2;14;1570294063313;1570294075782;12469;41850551644;56935007974;2038203689;882588373;10873751490;90054685;714791296;1084;0;2280976;5;7380;27745
2;15;1570294076148;1570294088874;12726;42745063714;56906160796;2033640022;878545944;10869042621;90047282;715360639;1244;42;2345968;0;8239;43331
2;16;1570294089188;1570294101628;12440;41712232996;56934802137;2025313471;882797434;10873770932;90102644;713912202;1082;0;2280960;0;7409;27788
2;17;1570294101944;1570294114596;12652;42494779272;56905382109;2023886943;880694627;10868905930;90155749;715139359;1225;40;2325624;0;8103;41670
2;18;1570294114911;1570294127460;12549;42096910438;56935580927;2047979778;881000104;10874116065;90284316;718047479;1093;0;2291568;0;7435;27832
2;19;1570294127824;1570294140558;12734;42738659278;56926620434;2042785959;880070900;10876396988;90039432;718928165;1217;44;2357856;0;8289;41884
2;20;1570294140872;1570294153438;12566;42133267796;56933619878;2048347860;883419256;10873507756;90166725;720841510;1104;0;2312680;0;7436;27946
2;21;1570294153752;1570294166487;12735;42600653800;56905169044;2059491491;880948210;10868860345;90281815;719959067;1197;54;2315856;17;7718;33551
2;22;1570294166804;1570294179366;12562;41969768820;56934247318;2055337388;884751659;10873720440;90393744;721466165;1121;0;2352528;-21;8115;38690
2;23;1570294179730;1570294192366;12636;42313155272;56906301841;2039429591;874118126;10869285085;90242074;711517574;865;0;1808160;-1;6340;23253
2;24;1570294192682;1570294205163;12481;41886217400;56933387083;2046453556;883390330;10873467974;90096768;715662811;1158;55;2253128;0;8010;43881
2;25;1570294205478;1570294218194;12716;42675728460;56904692491;2039976292;878890526;10868769986;90111997;712897357;1113;0;2333784;5;7571;28458
2;26;1570294218508;1570294231007;12499;41889390856;56933288740;2034117878;884117993;10873446052;90142014;713752223;1186;48;2324064;-4;8259;46078
2;27;1570294231371;1570294244088;12717;42508672924;56904834642;2048753540;876404857;10868854603;90304746;712607926;1116;0;2333800;0;7619;28472
2;28;1570294244402;1570294256949;12547;42119804260;56933548599;2045516582;879679782;10873511596;90193229;712194661;1102;0;2304448;-1;7422;28025
2;29;1570294257262;1570294270002;12740;42764446820;56905224294;2048098668;879448297;10868870536;90266906;718115902;1202;50;2345880;0;8291;43111
2;30;1570294270317;1570294282816;12499;41862222738;56934808968;2032817479;879251510;10873935243;90197984;713979186;1103;0;2302112;0;7508;28488
2;31;1570294283179;1570294295914;12735;42593757490;56907788596;2041424828;876774841;10869774976;90408626;711756161;1201;46;2325472;5;8252;46062
2;32;1570294296228;1570294308736;12508;41963465124;56933631445;2021534913;875886963;10873511394;90202618;711209136;1108;0;2310304;-4;7416;27833
2;33;1570294309051;1570294321746;12695;42524860382;56926261922;2042066319;877072272;10876335689;90231448;716725111;1234;51;2316248;0;8251;46647
2;34;1570294322060;1570294334580;12520;41997643870;56935541977;2049197437;882500147;10874170899;90058735;715212813;1100;1;2283416;-1;7511;27753
2;35;1570294334944;1570294347605;12661;42523218028;56904875909;2038274318;882566205;10868873649;90108663;720386702;1116;0;2333760;0;7393;27958
2;36;1570294347919;1570294360442;12523;42016473344;56934771683;2044818353;881762157;10873929017;90050203;720519329;1198;46;2295072;5;7729;37733
2;37;1570294360756;1570294373424;12668;42522082878;56905073758;2042808852;882928159;10868836486;90122947;719178999;1120;0;2333792;0;7582;28567
2;38;1570294373740;1570294386238;12498;41953053864;56956227311;2049524099;885281739;10881130932;90290011;720818569;1184;42;2314848;0;8128;39447
2;39;1570294386601;1570294399249;12648;42473498604;56904365794;2045049929;884890821;10868719376;90114658;715860056;1121;0;2331424;-4;7571;28510
2;40;1570294399564;1570294412078;12514;41956568522;56954952966;2046016419;881927753;10881028600;90148154;718707490;1183;54;2304512;22;7386;30021
2;41;1570294412391;1570294425138;12747;42834871672;56904246606;2047106892;881127273;10868697039;90112094;717432431;1142;0;2344072;-22;8096;35923
2;42;1570294425453;1570294438015;12562;42004201168;56933182140;2055792003;884021242;10873431879;90352954;719678372;1101;0;2293936;4;7418;28035
2;43;1570294438380;1570294451117;12737;42717053030;56905922521;2024859776;885570298;10869216737;90191304;713670731;1696;72;2284912;26;11091;176360
2;44;1570294451432;1570294463926;12494;41923211902;56933288111;2030563454;884251302;10873451933;90228083;714564052;1182;6;2357880;-26;8573;99341
2;45;1570294464240;1570294476976;12736;42711671616;56905991944;2021696136;875825234;10869272549;90290626;713985176;1124;0;2344360;-5;7550;28548
2;46;1570294477291;1570294489851;12560;42020879478;56933694658;2032512695;880968311;10873570925;90368690;713238215;1300;53;2309656;5;8584;61250
2;47;1570294490215;1570294502890;12675;42571953266;56904326786;2042059267;880794815;10868715157;90072268;719686042;1122;0;2344312;-5;7626;28876
2;48;1570294503205;1570294515663;12458;41799743790;56933121984;2032223542;884845573;10873423331;90050955;715085301;1206;52;2305264;0;8185;44177
2;49;1570294515979;1570294528617;12638;42407377832;56904897758;2034947421;881671779;10868913614;90383552;713554202;1121;0;2323240;6;7594;28685
2;50;1570294528932;1570294541358;12426;41681312386;56933021316;2026210639;882904264;10873399490;90094239;715266949;1187;50;2290384;1;7938;45514
2;51;1570294541723;1570294554437;12714;42677988686;56925725643;2041550064;882506815;10876238308;90006181;717640098;1129;0;2348248;-2;7842;29707
2;52;1570294554750;1570294567306;12556;42152662874;56956067225;2058170137;883114772;10881443722;90087394;719457681;1110;0;2312688;0;7497;28388
2;53;1570294567621;1570294580416;12795;42969883274;56926081329;2058323546;882097628;10876353402;90086475;719803123;1222;47;2366864;0;8556;50706
2;54;1570294580729;1570294593273;12544;41936220940;56954476090;2046053627;879707584;10880936800;90244554;715778476;1092;0;2280960;-5;7458;28238
3;4;1570294764164;1570294776946;12782;42682365328;58459284936;2050674677;887161382;11147115725;94803352;713006004;1118;0;2357248;-1;7609;28474
3;5;1570294777258;1570294790308;13050;43451504862;58430196648;2052205545;885695267;11141973422;94629106;710883360;1225;44;2390576;5;8424;41368
3;6;1570294790619;1570294803352;12733;42730719944;58458484475;2042410648;883304405;11146882561;94653922;709581232;1121;0;2354912;-5;7713;28906
3;7;1570294803715;1570294816660;12945;43405707436;58429614712;2031574749;885094329;11141877865;94838289;714321426;1230;40;2396576;1;8381;41707
3;8;1570294816972;1570294829702;12730;42612132612;58458248096;2050294660;886959745;11146855392;94714576;710443287;1082;0;2272800;4;7416;27270
3;9;1570294830013;1570294842965;12952;43459843652;58429088400;2041937354;882600747;11141794560;94657723;715626130;1137;0;2386608;-5;7683;28805
3;10;1570294843278;1570294855954;12676;42560394446;58457636487;2033989212;888111322;11146736591;94708668;712262024;1238;42;2346400;5;8590;61640
3;11;1570294856316;1570294869187;12871;43270596408;58428181264;2048471059;882125472;11141626985;94674196;712918968;1134;0;2386568;0;7728;28963
3;12;1570294869499;1570294882251;12752;42472431928;58475217130;2046900007;884100561;11153032663;94510796;717132011;1244;50;2358416;0;8503;52618
3;13;1570294882563;1570294895437;12874;43123038734;58430452347;2043714187;882047748;11142264118;94532297;716655688;1138;2;2376072;-5;7836;29538
3;14;1570294895751;1570294908392;12641;42444766826;58457236823;2033223817;883827257;11146770441;94602711;714175851;1243;32;2346752;0;8262;44346
3;15;1570294908757;1570294921620;12863;43162354052;58427690730;2033016131;880002681;11141560731;94592502;712075763;1139;0;2365680;5;7762;28631
3;16;1570294921932;1570294934677;12745;42622725788;58457200577;2061084736;883533146;11146838374;94834244;715726603;1130;0;2365464;-5;7686;29080
3;17;1570294934989;1570294947912;12923;43350719018;58426627701;2048721890;886501077;11141372534;94781718;714050038;1232;56;2399536;0;8455;46481
3;18;1570294948223;1570294960900;12677;42545073206;58458634015;2034632855;884893975;11147421238;94736117;712402306;1116;0;2333776;5;7597;28598
3;19;1570294961262;1570294974235;12973;43589371494;58444296241;2038188347;878180272;11147670227;94597950;713069147;1263;48;2421400;-5;8422;43435
3;20;1570294974547;1570294987232;12685;42533894278;58455125430;2025454727;885182409;11146309131;94707729;709577247;1124;0;2344352;0;7606;28899
3;21;1570294987545;1570295000504;12959;43548619244;58429164052;2028274377;885191933;11142257717;94726196;712389820;1245;54;2409824;0;8542;58258
3;22;1570295000818;1570295013525;12707;42657836160;58454948664;2036482619;885717425;11146274860;94767577;714416613;1106;0;2310296;1;7551;28353
3;23;1570295013888;1570295026770;12882;43213838908;58426028719;2035471946;885338412;11141272233;94756080;714284212;1263;42;2366080;1;8478;52224
3;24;1570295027083;1570295039790;12707;42563805006;58456562996;2043962740;883887633;11146805035;94845941;713197204;1127;0;2348248;-2;7606;28259
3;25;1570295040102;1570295053015;12913;43390716886;58426072773;2042618259;884817492;11141270637;94703206;712839267;1142;0;2386576;0;7731;29297
3;26;1570295053326;1570295066049;12723;42714834998;58457078616;2044657273;884010984;11146844377;94895649;714508492;1216;44;2358160;5;8337;44683
3;27;1570295066409;1570295079422;13013;43617030464;58426097896;2048358902;880032902;11141273630;94747407;717111270;1161;0;2418264;1;7815;29481
3;28;1570295079734;1570295092510;12776;42761415276;58455368099;2042611495;884326781;11146367749;94880311;712629075;1217;46;2367552;-1;8238;40778
3;29;1570295092822;1570295105833;13011;43691189704;58426443904;2050371523;881012873;11141344484;94694282;711916708;1158;1;2418272;-5;7849;29625
3;30;1570295106143;1570295118896;12753;42763838584;58456380461;2042476792;884369194;11146737219;94746650;709744966;1218;42;2343680;1;8019;40244
3;31;1570295119257;1570295132193;12936;43331557832;58426645195;2031225514;880087237;11141430966;94727725;710679706;1153;0;2399512;5;7805;29064
3;32;1570295132504;1570295145247;12743;42633302466;58457450005;2040343906;884680018;11146983275;94801310;715426210;1136;0;2365448;-1;7601;28798
3;33;1570295145563;1570295158541;12978;43444841714;58444011106;2048068478;885770976;11147632450;94758212;717951811;1228;50;2371312;0;8349;53017
3;34;1570295158854;1570295171525;12671;42568644906;58454758514;2051312703;885466394;11146251342;94667059;714589713;1132;1;2354920;-5;7637;29043
3;35;1570295171887;1570295184751;12864;43169613172;58425713451;2041499079;880130821;11141209095;94918516;715265768;1243;48;2399128;5;8533;45580
3;36;1570295185062;1570295197751;12689;42561299208;58479272812;2037900903;888322082;11154379675;97512048;716247689;1136;0;2354912;0;7629;28885
3;37;1570295198062;1570295210964;12902;43341681764;58426546035;2044291666;882153595;11141355637;94721095;717659132;1229;44;2405728;-3;8538;45927
3;38;1570295211277;1570295224023;12746;42841740534;58454925462;2063984884;887649299;11146317301;94844562;717716760;1123;1;2337696;3;7568;28222
3;39;1570295224385;1570295237427;13042;43524610712;58425730264;2051152327;883718130;11141212673;94650800;714818364;1162;0;2428792;-5;7802;29493
3;40;1570295237742;1570295250472;12730;42742045748;58473033207;2046876357;887751787;11152673571;94657443;713017607;1226;58;2366824;5;8278;42213
3;41;1570295250784;1570295263742;12958;43467685312;58427446114;2050683387;878614577;11141659766;94779583;712698392;1149;0;2386648;0;7826;29990
3;42;1570295264054;1570295276841;12787;42799894452;58456140854;2057421992;887237995;11146708097;94879558;712738422;1238;36;2388688;-5;8438;45743
3;43;1570295277203;1570295290148;12945;43495688112;58429116998;2058738437;882545107;11142166983;94685102;711058539;1230;54;2328752;30;8110;48132
3;44;1570295290461;1570295303247;12786;42863166472;58454667314;2062783256;890978548;11146232303;94736902;716975756;1588;6;2469032;-25;12330;711482
3;45;1570295303560;1570295316478;12918;43393162678;58425542542;2036858451;879045971;11141185457;94680974;716131374;1156;0;2397168;0;7761;29627
3;46;1570295316792;1570295329496;12704;42613216516;58457739535;2046661002;880834815;11147262924;94787607;715459981;1324;50;2345104;7;8720;59454
3;47;1570295329860;1570295342711;12851;43103631392;58426374888;2037587155;878631166;11141380236;94733356;712778310;1158;0;2411568;-12;7837;32146
3;48;1570295343023;1570295355755;12732;42575242062;58454675416;2047448974;886402677;11146238261;94821011;714115792;1252;52;2347680;5;8530;50307
3;49;1570295356067;1570295368869;12802;42989829356;58425947560;2042291500;884564730;11141301461;94657087;714160292;1135;0;2363056;-4;7668;28859
3;50;1570295369182;1570295381810;12628;42387012146;58456820363;2030164238;886937289;11146800403;94747900;711287909;1123;0;2325608;4;7579;28844
3;51;1570295382171;1570295395136;12965;43485537462;58443867450;2047418138;881261201;11147652987;94634852;711291037;1319;54;2436728;-5;8718;62499
3;52;1570295395450;1570295408211;12761;42780820866;58472677907;2047026398;883829581;11152603291;94786954;713509688;1147;0;2365472;0;7650;29247
3;53;1570295408525;1570295421462;12937;43440894604;58443512442;2040119241;881981506;11147544058;94608940;712961241;1295;34;2399384;5;8517;54131
4;5;1570295603412;1570295616022;12610;42317724342;56488527943;2043202959;882901544;10863288963;90637270;713066290;1196;36;2287328;-2;7886;44674
4;6;1570295616333;1570295628745;12412;41533642876;56514837460;2036793756;880424336;10868674501;90654668;711156868;1051;0;2213528;2;7297;26698
4;7;1570295629105;1570295641813;12708;42552412918;56489107586;2044550807;879944326;10863560385;90598303;717565043;1103;0;2323224;0;7482;28056
4;8;1570295642124;1570295654646;12522;41867341644;56535937651;2058440462;882428287;10875767953;92856583;723742706;1231;24;2241416;0;8156;77354
4;9;1570295654957;1570295667685;12728;42694852270;56508311096;2061232910;883358479;10870097158;92683859;720659306;1100;0;2323200;-5;7523;28064
4;10;1570295667997;1570295680384;12387;41553794380;56510859415;2043918760;886506432;10867530272;90614524;718607939;1239;34;2199192;5;8335;98440
4;11;1570295680745;1570295693450;12705;42679391746;56484675777;2050851602;881372999;10862335189;90452463;714016532;1105;0;2323256;-5;7519;28106
4;12;1570295693760;1570295706245;12485;41888010572;56528602560;2053941019;884082674;10873784840;90591674;714252075;1071;0;2259848;0;7341;27470
4;13;1570295706557;1570295719344;12787;42885314088;56485339592;2068895839;879992495;10862527417;90496603;715912615;1317;46;2357432;1;8640;88431
4;14;1570295719656;1570295732196;12540;41917668136;56512185655;2051648996;882648602;10868101603;90709308;717114588;1088;0;2293904;-1;7431;27868
4;15;1570295732559;1570295745260;12701;42466805964;56484642670;2035638009;878631975;10862355709;90654998;720726341;1280;42;2347856;0;8430;70020
4;16;1570295745572;1570295758001;12429;41634960452;56509482670;2034763671;886269232;10867316851;90601568;720777420;1075;0;2260016;0;7367;27471
4;17;1570295758313;1570295770942;12629;42383835332;56484934473;2030723700;868744596;10862626393;90389791;719008302;1213;20;2167000;0;7893;64876
4;18;1570295771254;1570295783809;12555;41948826726;56509398938;2046045325;880411305;10867344265;90531924;718328405;1080;0;2270448;5;7439;27646
4;19;1570295784168;1570295796896;12728;42484986614;56505021858;2052239529;881749986;10869567979;90708014;712847421;1303;26;2358048;-5;8519;90310
4;20;1570295797207;1570295809621;12414;41580856356;56508718676;2051213957;880022689;10867175525;90585887;709704226;1059;0;2228192;5;7254;26942
4;21;1570295809932;1570295822609;12677;42569491560;56483301046;2061370587;880101400;10862119081;90479973;714454614;1085;0;2291520;-5;7392;27724
4;22;1570295822919;1570295835386;12467;41812644934;56531059649;2047219925;885208458;10874699212;92727966;711109586;1258;32;2294240;5;8173;72581
4;23;1570295835747;1570295848400;12653;42505458442;56482659628;2036543258;880005263;10862002935;90484805;714847815;1064;0;2238744;-5;7355;27587
4;24;1570295848712;1570295861242;12530;42032272150;56508421291;2054132121;884070453;10867128767;90548549;714234506;1248;24;2262176;5;8288;74628
4;25;1570295861552;1570295874257;12705;42687677684;56482668138;2043117452;878272607;10862011572;90485096;712717278;1076;0;2259872;-5;7263;27166
4;26;1570295874567;1570295887039;12472;41847629016;56508259267;2038406601;875925526;10867097790;90561619;713551460;1195;44;2241048;0;7759;37517
4;27;1570295887401;1570295900087;12686;42413063218;56484340365;2047688420;881289433;10862571163;90605724;720058889;1114;0;2327328;3;7597;27675
4;28;1570295900399;1570295912851;12452;41672925708;56508501731;2041309622;878199180;10867143055;90521884;717907266;1069;0;2245184;-3;7202;27106
4;29;1570295913164;1570295925896;12732;42345037876;56483393743;2039461200;875125251;10862184047;90457402;718710175;1192;44;2238744;1;7981;51375
4;30;1570295926208;1570295938567;12359;41411943554;56508311805;2028822143;874332893;10867107855;90471003;719759570;1000;0;2090896;0;6776;25454
4;31;1570295938929;1570295951680;12751;42642717568;56484390052;2047122283;879351726;10862538514;90686261;715221070;1233;42;2357016;0;8207;44190
4;32;1570295951993;1570295964504;12511;41858359578;56511132673;2046732251;882629278;10868051034;90748527;715082334;1096;1;2291560;0;7428;27860
4;33;1570295964815;1570295977621;12806;42535777678;56500935308;2049450075;879676459;10868350406;91304719;714870958;1105;0;2315000;4;7562;28555
4;34;1570295977931;1570295990346;12415;41664528080;56509799494;2028681530;882981350;10867638575;90795632;710822656;1174;40;2230416;0;7572;33567
4;35;1570295990707;1570296003282;12575;42207695530;56482383571;2043289204;879772439;10861951755;90491839;712421998;1111;0;2310312;-4;7422;28135
4;36;1570296003593;1570296015935;12342;41398980214;56508331901;2045716930;884926517;10867108430;90563626;715176952;1182;42;2241952;0;7859;43759
4;37;1570296016248;1570296028819;12571;42206954580;56483515083;2046726145;879894568;10862215801;90468984;714393905;1099;1;2293928;-1;7502;28243
4;38;1570296029132;1570296041507;12375;41510649920;56507946244;2050383237;886967125;10867033111;90553855;716390540;1186;54;2270368;1;8050;41623
4;39;1570296041868;1570296054576;12708;42663762300;56482456640;2049643756;883579088;10861965208;90465050;718634869;1112;0;2315048;4;7573;28040
4;40;1570296054885;1570296067344;12459;41636660476;56527959081;2059061065;882079257;10873915730;90753702;719479859;1085;0;2270392;0;7267;27578
4;41;1570296067655;1570296080333;12678;42587059740;56482206797;2051465892;883135362;10861928147;90480659;718712221;1199;50;2323408;-4;8250;46198
4;42;1570296080643;1570296093101;12458;41814711564;56509796378;2056649797;883239122;10867641172;90519014;720110229;1079;1;2251672;4;7360;27747
4;43;1570296093461;1570296106217;12756;42849411228;56482366387;2047956036;877964071;10861952713;90601135;710260310;1337;86;2290896;27;8878;75283
4;44;1570296106529;1570296118998;12469;41811154712;56508955389;2034587555;885250406;10867267971;90611406;712508735;1488;8;2373704;-32;11241;495069
4;45;1570296119308;1570296131942;12634;42421979292;56484436222;2046019415;870433268;10862647363;91439271;716583994;1014;2;2112040;5;6906;26109
4;46;1570296132252;1570296144850;12598;42268532854;56508166999;2062494160;884171327;10867092633;90623765;712640718;1158;54;2226064;-5;7962;50814
4;47;1570296145211;1570296157898;12687;42547311094;56483068651;2039723462;881571315;10862132016;90524419;709398997;1210;24;2334752;5;8065;49939
4;48;1570296158210;1570296170611;12401;41566025530;56508117864;2057069216;882888354;10867076547;90866907;713951248;1189;70;2254088;0;8119;49135
4;49;1570296170922;1570296183628;12706;42666147794;56506411732;2047487078;879260533;10870009975;92708126;710861690;1121;2;2323272;-5;7600;28406
4;50;1570296183938;1570296196282;12344;41377927890;56507833094;2032582610;881396335;10867016351;90484244;713679960;1059;3;2207040;0;7230;27677
4;51;1570296196644;1570296209332;12688;42600506340;56523373322;2030376662;873066789;10875900913;92592616;717665496;1166;47;2231112;5;7837;38726
4;52;1570296209645;1570296222235;12590;42147873782;56527756831;2053815670;882599458;10873890321;90707508;720829425;1112;0;2312688;-5;7547;28574
4;53;1570296222546;1570296235360;12814;42930096814;56500492824;2044263175;879753037;10868275396;90581442;722524931;1230;49;2347728;0;8223;43986
4;54;1570296235671;1570296248269;12598;42276158872;56527450423;2054491651;881655937;10873820178;90523310;723456681;1057;2;2196552;0;7147;26997
