0;83;1570417590773;1570417595838;5065;17693749636;64068022517;1347727284;832320200;13367709031;23545055;670792803;0;0;0;0;0;0
0;84;1570417595838;1570417600926;5088;17777566776;64068023367;1348199635;834957989;13367709881;23547836;670709893;0;0;0;0;0;0
0;85;1570417600926;1570417606025;5099;17812497860;64068022579;1350198386;830486289;13367709093;23545498;670734092;29;14;5048;0;74;222
0;86;1570417606025;1570417611109;5084;17763843506;64068022400;1347282792;838165539;13367708914;23541772;670716547;0;0;0;0;0;0
0;87;1570417611109;1570417621022;9913;18136247020;64068033446;1347393403;877784333;13367711004;23558978;670779219;0;0;0;0;0;0
0;88;1570417621022;1570417626136;5114;17700106476;64068022801;1346183514;836813064;13367709901;23549554;670735774;0;0;0;0;0;0
0;89;1570417626136;1570417631229;5093;17796882138;64068022415;1347205115;838635164;13367708929;23545139;670760834;0;0;0;0;0;0
0;90;1570417631229;1570417636302;5073;17728196876;64068023493;1346422924;840150457;13367710007;23539270;670728876;38;4;4280;0;100;371
0;91;1570417636302;1570417641381;5079;17744796346;64068023502;1346181119;843312839;13367710016;23547243;670733934;0;0;0;0;0;0
0;92;1570417641381;1570417646455;5074;17730826920;64068022401;1345431772;842826498;13367708915;23544148;670764508;0;0;0;0;0;0
0;93;1570417646455;1570417651533;5078;17743675212;64068023489;1346274434;841637382;13367710003;23544083;670736592;0;0;0;0;0;0
0;94;1570417651533;1570417656613;5080;17744485804;64068023499;1345852177;846457732;13367710013;23540924;670740947;0;0;0;0;0;0
0;95;1570417656613;1570417661704;5091;17785779276;64068027311;1347355372;833437434;13367710569;23542336;670737606;0;0;0;0;0;0
0;96;1570417661704;1570417666776;5072;17724979328;64068023496;1345865450;841810857;13367710010;23539765;670721953;34;10;4344;0;89;297
0;97;1570417666777;1570417671861;5084;17767204280;64068023504;1346219618;839148503;13367710018;23541227;670768257;0;0;0;0;0;0
0;98;1570417671861;1570417676938;5077;17742468814;64068023500;1346389003;840915098;13367710014;23540860;670738118;0;0;0;0;0;0
0;99;1570417676939;1570417682030;5091;17793159868;64068023512;1346534862;843785771;13367710026;23540122;670741035;0;0;0;0;0;0
0;100;1570417682030;1570417687092;5062;17687116126;64068023482;1344516583;844326834;13367709996;23542919;670723232;0;0;0;0;0;0
0;101;1570417687092;1570417692185;5093;17796573202;64068023513;1346017469;844664052;13367710027;23542889;670700217;0;0;0;0;0;0
0;102;1570417692185;1570417697261;5076;17728522164;64068027181;1346170676;839504239;13367710439;23548833;670711551;26;6;4280;0;78;183
0;103;1570417697261;1570417702347;5086;17772335888;64068022977;1346915517;837549419;13367709491;23546686;670772921;0;0;0;0;0;0
0;104;1570417702347;1570417707416;5069;17714139996;64068022916;1345241924;840531278;13367709430;23542861;670733711;0;0;0;0;0;0
0;105;1570417707416;1570417712511;5095;17803992776;64068023002;1344764837;853758182;13367709516;23544289;670743022;462;14;47952;0;1443;1820
0;106;1570417712511;1570417717597;5086;17773311168;64068022919;1345885650;843925902;13367709433;23543775;670749169;0;0;0;0;0;0
0;107;1570417717597;1570417722665;5068;17709702764;64068022982;1345116845;844504139;13367709496;23549328;670753452;0;0;0;0;0;0
0;108;1570417722665;1570417727757;5092;17793757884;64068022914;1346110242;842855447;13367709428;23542987;670747613;3;0;40;0;1;2
0;109;1570417727757;1570417732847;5090;17775235448;64068026901;1347287716;836932536;13367710159;23542766;670762813;0;0;0;0;0;0
0;110;1570417732848;1570417737925;5077;17741768306;64068023498;1346807788;837270919;13367710012;23540434;670732782;0;0;0;0;0;0
0;111;1570417737925;1570417742975;5050;17647360764;64068023472;1344358001;845154302;13367709986;23541433;670743052;120;15;5944;0;161;1848
0;112;1570417742975;1570417748043;5068;17700835892;64068023486;1345594510;843843420;13367710000;23545338;670759158;0;0;0;0;0;0
0;113;1570417748043;1570417753128;5085;17767244284;64068022820;1345904865;843931794;13367709920;23542206;670702590;0;0;0;0;0;0
0;114;1570417753128;1570417758194;5066;17702742944;64068023487;1345396322;843848735;13367710001;23546526;670734481;3;0;40;0;1;1
0;115;1570417758194;1570417763240;5046;17631478592;64068023466;1343400042;851136688;13367709980;23544124;670736879;0;0;0;0;0;0
0;116;1570417763240;1570417768324;5084;17751138586;64068025872;1345432201;843313889;13367709716;23547199;670751368;0;0;0;0;0;0
0;117;1570417768324;1570417773426;5102;17829936830;64068023036;1347979980;832317849;13367709550;23546589;670770235;41;24;6608;0;120;452
0;118;1570417773427;1570417778520;5093;17791534742;64068023037;1347212605;840932673;13367709551;23542253;670765530;0;0;0;0;0;0
0;119;1570417778520;1570417783600;5080;17746233570;64068023025;1346126410;841119887;13367709539;23545669;670810023;0;0;0;0;0;0
0;120;1570417783600;1570417788655;5055;17663772916;64068023004;1343824050;849725097;13367709518;23543821;670747657;3;0;40;0;1;2
0;121;1570417788655;1570417793747;5092;17787612014;64068023036;1346587129;842115169;13367709550;23543646;670737335;0;0;0;0;0;0
0;122;1570417793747;1570417798848;5101;17824404014;64068023048;1347555974;839485128;13367709562;23543629;670756151;0;0;0;0;0;0
0;123;1570417798848;1570417803912;5064;17687260374;64068025955;1344510535;843778723;13367709799;23547104;670704168;25;8;4304;0;72;193
0;124;1570417803912;1570417809016;5104;17826247410;64068022478;1347848516;832284080;13367708992;23543426;670736217;0;0;0;0;0;0
0;125;1570417809016;1570417814076;5060;17682024960;64068022380;1344340078;844966260;13367708894;23546085;670759298;0;0;0;0;0;0
0;126;1570417814076;1570417819145;5069;17711840204;64068023895;1345285789;842571244;13367709238;23542808;670783725;3;0;40;0;1;2
0;127;1570417819145;1570417824226;5081;17752922122;64068037664;1346189718;843568698;13367712342;23546947;670763051;0;0;0;0;0;0
0;128;1570417824226;1570417829296;5070;17713105878;64068022391;1344885327;844877867;13367708905;23545203;670764885;0;0;0;0;0;0
0;129;1570417829296;1570417834395;5099;17815077388;64068022421;1347342944;840618501;13367708935;23541342;670820995;21;10;4304;0;61;154
0;130;1570417834395;1570417839467;5072;17709472376;64068026501;1344944656;845442143;13367709759;23544523;670717658;0;0;0;0;0;0
0;131;1570417839467;1570417844542;5075;17734182438;64068023495;1346275261;836998143;13367710009;23541133;670734870;0;0;0;0;0;0
0;132;1570417844542;1570417849605;5063;17692441330;64068022429;1344990881;843521959;13367708943;23543877;670754846;0;0;0;0;0;0
1;82;1570418415109;1570418420190;5081;17755728242;64068022876;1348778253;844596016;13367709390;23509718;670741513;0;0;0;0;0;0
1;83;1570418420190;1570418425250;5060;17678652360;64068022855;1347530619;847927907;13367709369;23514073;670752733;0;0;0;0;0;0
1;84;1570418425250;1570418430333;5083;17759472704;64068022878;1347812245;849044374;13367709392;23513654;670735327;0;0;0;0;0;0
1;85;1570418430333;1570418435406;5073;17725410466;64068022866;1348116938;849046549;13367709380;23509268;670748142;0;0;0;0;0;0
1;86;1570418435407;1570418440495;5088;17780567368;64068022900;1348554489;849493446;13367709414;23514314;670722745;61;126;4584;0;96;826
1;87;1570418440495;1570418450215;9720;18128026344;64068034106;1348125283;876108982;13367711645;23526853;670779146;0;0;0;0;0;0
1;88;1570418450215;1570418455343;5128;17793980534;64068022202;1346873633;837355359;13367709302;23514982;670736887;0;0;0;0;0;0
1;89;1570418455343;1570418460436;5093;17797750546;64068023043;1346913851;841613673;13367709557;23508413;670763226;0;0;0;0;0;0
1;90;1570418460436;1570418465504;5068;17709594140;64068022866;1345777090;840998012;13367709380;23512034;670730029;0;0;0;0;0;0
1;91;1570418465504;1570418470581;5077;17742331720;64068023028;1345122213;844722830;13367709542;23512394;670730588;26;10;4288;0;75;178
1;92;1570418470582;1570418475635;5053;17659199320;64068022856;1344305017;849411673;13367709370;23515317;670740985;0;0;0;0;0;0
1;93;1570418475635;1570418480713;5078;17743294298;64068023018;1345964004;845605459;13367709532;23509681;670741914;0;0;0;0;0;0
1;94;1570418480713;1570418485794;5081;17755654950;64068022886;1346008083;844831125;13367709400;23513480;670749442;0;0;0;0;0;0
1;95;1570418485794;1570418490892;5098;17811742894;64068026892;1347796857;837811364;13367710150;23513994;670730884;0;0;0;0;0;0
1;96;1570418490893;1570418495949;5056;17671246510;64068022957;1344965901;843595589;13367709471;23508681;670735949;5;8;2560;14;5;20
1;97;1570418495950;1570418501052;5102;17823158196;64068022949;1347976802;837113566;13367709463;23511946;670778753;21;0;1784;-14;60;145
1;98;1570418501052;1570418506152;5100;17820703790;64068022989;1347858790;838290731;13367709503;23513819;670744485;0;0;0;0;0;0
1;99;1570418506152;1570418511238;5086;17772438526;64068022943;1346322112;843849025;13367709457;23513441;670735572;0;0;0;0;0;0
1;100;1570418511238;1570418516313;5075;17732636882;64068022953;1345365468;848705482;13367709467;23510184;670725756;0;0;0;0;0;0
1;101;1570418516313;1570418521388;5075;17736698310;64068022945;1345644635;846893972;13367709459;23513890;670715382;0;0;0;0;0;0
1;102;1570418521389;1570418526467;5078;17733707354;64068027496;1346375358;841230139;13367710754;23508386;670751164;28;10;4720;0;90;203
1;103;1570418526467;1570418531554;5087;17775135292;64068023510;1344395344;856386023;13367710024;23510406;670725054;468;16;47960;0;1453;1850
1;104;1570418531554;1570418536653;5099;17818392610;64068023522;1347407064;836535258;13367710036;23507937;670723166;0;0;0;0;0;0
1;105;1570418536653;1570418541691;5038;17603767500;64068023462;1343947743;848418217;13367709976;23511327;670726947;0;0;0;0;0;0
1;106;1570418541691;1570418546748;5057;17669275656;64068023477;1343891362;848831081;13367709991;23511211;670732671;0;0;0;0;0;0
1;107;1570418546748;1570418551841;5093;17797651412;64068023515;1346240508;843620164;13367710029;23513043;670734082;0;0;0;0;0;0
1;108;1570418551842;1570418556927;5085;17772022280;64068023508;1346515123;845041050;13367710022;23508304;670743178;0;0;0;0;0;0
1;109;1570418556928;1570418562025;5097;17797456210;64068026914;1347532244;834713536;13367710172;23512575;670709646;124;159;7504;0;262;2877
1;110;1570418562025;1570418567100;5075;17732073760;64068023495;1346074466;841595067;13367710009;23513170;670733680;0;0;0;0;0;0
1;111;1570418567100;1570418572162;5062;17682199868;64068023482;1345019218;843062473;13367709996;23514339;670796094;0;0;0;0;0;0
1;112;1570418572162;1570418577217;5055;17665817938;64068023479;1344318319;846478157;13367709993;23510079;670745750;0;0;0;0;0;0
1;113;1570418577218;1570418582282;5064;17694729734;64068022802;1344678913;847981888;13367709902;23511654;670696383;0;0;0;0;0;0
1;114;1570418582282;1570418587370;5088;17775498394;64068023508;1346827738;843927185;13367710022;23513850;670734786;0;0;0;0;0;0
1;115;1570418587370;1570418592437;5067;17705437520;64068023492;1344860896;846920757;13367710006;23510584;670734707;68;130;6440;0;187;847
1;116;1570418592437;1570418597500;5063;17683333120;64068025855;1343951617;848363671;13367709699;23510732;670712474;0;0;0;0;0;0
1;117;1570418597500;1570418602569;5069;17712921772;64068022999;1345121102;841377315;13367709513;23511445;670752835;0;0;0;0;0;0
1;118;1570418602569;1570418607654;5085;17767709586;64068023033;1346649155;839114619;13367709547;23513779;670759736;0;0;0;0;0;0
1;119;1570418607654;1570418612715;5061;17676671286;64068023006;1345174492;845428671;13367709520;23514744;670726290;0;0;0;0;0;0
1;120;1570418612715;1570418617798;5083;17762991012;64068023032;1345896200;843154503;13367709546;23512509;670745872;0;0;0;0;0;0
1;121;1570418617798;1570418622884;5086;17772614602;64068023037;1346180816;844412386;13367709551;23510228;670744570;58;129;5864;0;130;464
1;122;1570418622884;1570418627956;5072;17725530770;64068023020;1345545409;846349208;13367709534;23514542;670732890;0;0;0;0;0;0
1;123;1570418627957;1570418633032;5075;17727228750;64068026554;1346215241;837127469;13367709812;23512905;670705050;0;0;0;0;0;0
1;124;1570418633033;1570418638092;5059;17679943584;64068022856;1344597850;845502840;13367709370;23511084;670729903;0;0;0;0;0;0
1;125;1570418638092;1570418643170;5078;17741013778;64068022890;1345532080;841207840;13367709404;23511801;670720649;0;0;0;0;0;0
1;126;1570418643170;1570418648258;5088;17780475972;64068024526;1346683134;839948142;13367709869;23507566;670722417;0;0;0;0;0;0
1;127;1570418648259;1570418653333;5074;17733697426;64068038153;1345085847;847297970;13367712831;23512693;670740094;57;128;5800;0;81;389
1;128;1570418653333;1570418658420;5087;17769825418;64068023020;1346381933;843533767;13367709534;23509029;670741736;0;0;0;0;0;0
1;129;1570418658420;1570418663478;5058;17673054574;64068022863;1343865347;849965991;13367709377;23516599;670763837;0;0;0;0;0;0
1;130;1570418663478;1570418668565;5087;17765477976;64068025915;1345839040;844373429;13367709759;23512311;670694574;0;0;0;0;0;0
1;131;1570418668566;1570418673635;5069;17707596714;64068023491;1344982608;842353171;13367710005;23510950;670730938;0;0;0;0;0;0
2;83;1570419239584;1570419244667;5083;17757353368;64068022863;1365107289;848674873;13367709377;23734860;670788128;0;0;0;0;0;0
2;84;1570419244667;1570419249744;5077;17740618556;64068022872;1364348863;850417844;13367709386;23736143;670769236;0;0;0;0;0;0
2;85;1570419249744;1570419254848;5104;17832008424;64068023040;1365722245;848585256;13367709554;23734946;670781852;0;0;0;0;0;0
2;86;1570419254848;1570419259939;5091;17790487046;64068023021;1364539928;853517538;13367709535;23733808;670783696;0;0;0;0;0;0
2;87;1570419259939;1570419268903;8964;18122759248;64068033956;1365972538;877044254;13367711503;23748676;670807094;72;123;5128;0;167;1663
2;88;1570419268903;1570419273998;5095;17699809950;64068022791;1365309197;846226088;13367709891;23736635;670746015;0;0;0;0;0;0
2;89;1570419273998;1570419279075;5077;17741566388;64068022389;1364712857;849542874;13367708903;23738664;670789147;0;0;0;0;0;0
2;90;1570419279075;1570419284162;5087;17771525004;64068022395;1365497258;846559610;13367708909;23740187;670771237;0;0;0;0;0;0
2;91;1570419284162;1570419289253;5091;17789797050;64068022401;1366037427;847682135;13367708915;23738708;670791445;0;0;0;0;0;0
2;92;1570419289253;1570419294352;5099;17811456734;64068023533;1365718208;847976000;13367710047;23738597;670770186;32;10;4408;0;124;332
2;93;1570419294353;1570419299403;5050;17645999314;64068023459;1363195431;855452624;13367709973;23737142;670752254;0;0;0;0;0;0
2;94;1570419299403;1570419304470;5067;17706824520;64068023477;1364190320;853754543;13367709991;23740745;670762902;0;0;0;0;0;0
2;95;1570419304471;1570419309555;5084;17760768600;64068026867;1365423335;844333051;13367710125;23737671;670755313;0;0;0;0;0;0
2;96;1570419309555;1570419314651;5096;17806638880;64068022880;1366206622;843931071;13367709394;23737188;670761669;0;0;0;0;0;0
2;97;1570419314651;1570419319734;5083;17760503464;64068022866;1365390015;847990098;13367709380;23735438;670793469;0;0;0;0;0;0
2;98;1570419319734;1570419324829;5095;17799745198;64068022897;1366004888;847272993;13367709411;23736433;670770599;22;8;4280;0;73;158
2;99;1570419324829;1570419329908;5079;17747178774;64068022864;1364422091;850460383;13367709378;23736317;670762127;0;0;0;0;0;0
2;100;1570419329909;1570419335001;5092;17793400476;64068022879;1365115234;850050522;13367709390;23740571;670749004;0;0;0;0;0;0
2;101;1570419335001;1570419340076;5075;17733013562;64068022940;1364522504;852035991;13367709451;23732728;670777962;0;0;0;0;0;0
2;102;1570419340076;1570419345143;5067;17699669644;64068027475;1364346735;848441702;13367710733;23734639;670720314;0;0;0;0;0;0
2;103;1570419345143;1570419350230;5087;17773273500;64068023498;1365490827;846566066;13367710012;23740119;670780078;0;0;0;0;0;0
2;104;1570419350230;1570419355338;5108;17835938744;64068023654;1366681148;845998619;13367710168;23742299;670778263;154;18;18792;1;549;929
2;105;1570419355338;1570419360426;5088;17758440776;64068023837;1363912368;861224925;13367710351;23743172;670804894;337;6;33216;-1;983;1108
2;106;1570419360426;1570419365491;5065;17696228278;64068023474;1364305833;852258465;13367709988;23735957;670745823;0;0;0;0;0;0
2;107;1570419365491;1570419370583;5092;17793117090;64068023501;1366187116;848146526;13367710015;23737425;670757355;0;0;0;0;0;0
2;108;1570419370583;1570419375652;5069;17712723650;64068023479;1363867658;854557704;13367709993;23736107;670730844;0;0;0;0;0;0
2;109;1570419375653;1570419380749;5096;17798779992;64068026718;1366123989;843554491;13367709976;23741040;670736004;0;0;0;0;0;0
2;110;1570419380749;1570419385828;5079;17745323260;64068022912;1365050511;846638876;13367709426;23740473;670787977;99;137;2048;0;77;2388
2;111;1570419385828;1570419390921;5093;17794106678;64068023039;1366054707;844207930;13367709553;23738686;670771771;41;24;6288;0;93;474
2;112;1570419390921;1570419395996;5075;17733716260;64068022861;1364927419;849054130;13367709375;23739067;670777330;0;0;0;0;0;0
2;113;1570419395997;1570419401085;5088;17780396110;64068022337;1365401670;849814618;13367709437;23734540;670772801;0;0;0;0;0;0
2;114;1570419401085;1570419406165;5080;17749202480;64068022868;1365139031;851000298;13367709382;23738181;670737794;0;0;0;0;0;0
2;115;1570419406165;1570419411230;5065;17697089094;64068022991;1363112285;855231059;13367709505;23735949;670760267;0;0;0;0;0;0
2;116;1570419411230;1570419416331;5101;17812661672;64068025908;1366394899;847946492;13367709752;23739004;670708878;34;119;1240;0;10;207
2;117;1570419416331;1570419421413;5082;17755005104;64068023013;1365262587;845524642;13367709527;23736033;670781387;23;8;4496;0;77;190
2;118;1570419421413;1570419426502;5089;17776855610;64068023024;1366075044;845462351;13367709538;23738875;670775806;0;0;0;0;0;0
2;119;1570419426502;1570419431611;5109;17852574860;64068023045;1367400956;843001250;13367709559;23735985;670782935;0;0;0;0;0;0
2;120;1570419431611;1570419436683;5072;17720262798;64068023007;1364604683;851640002;13367709521;23733339;670783645;0;0;0;0;0;0
2;121;1570419436683;1570419444402;7719;18006111234;64068033549;1366204968;867462285;13367711517;23743228;670802018;0;0;0;0;0;0
2;122;1570419444402;1570419449546;5144;17868448418;64068023157;1367004676;847793680;13367709671;23739367;670804200;74;134;6504;0;199;737
2;123;1570419449546;1570419454627;5081;17743886328;64068026546;1365142299;845293656;13367709804;23737779;670738589;0;0;0;0;0;0
2;124;1570419454627;1570419459697;5070;17713767842;64068022871;1364700223;847896730;13367709385;23742275;670762958;0;0;0;0;0;0
2;125;1570419459697;1570419464768;5071;17721853322;64068022991;1364663971;849273212;13367709505;23737294;670776824;0;0;0;0;0;0
2;126;1570419464769;1570419469871;5102;17828056934;64068024404;1367105455;843187607;13367709747;23736024;670801196;0;0;0;0;0;0
2;127;1570419469871;1570419474954;5083;17760818386;64068038272;1364943874;850872014;13367712950;23739054;670778354;0;0;0;0;0;0
2;128;1570419474954;1570419480052;5098;17812137970;64068022919;1365898320;848853410;13367709433;23739428;670770336;61;125;5864;0;83;451
2;129;1570419480053;1570419485147;5094;17797469934;64068023019;1365303353;850543317;13367709534;23736950;670768609;0;0;0;0;0;0
2;130;1570419485147;1570419490233;5086;17752836566;64068025826;1363607118;855671229;13367709670;23745082;670783199;0;0;0;0;0;0
2;131;1570419490233;1570419495308;5075;17732771348;64068023484;1365416781;844946134;13367709998;23738170;670782339;0;0;0;0;0;0
2;132;1570419495308;1570419500378;5070;17710817766;64068023477;1364265698;849982942;13367709991;23734758;670741258;0;0;0;0;0;0
3;80;1570420060192;1570420065276;5084;17751334664;64068026561;1348350366;842821613;13367709819;23720116;670713846;0;0;0;0;0;0
3;81;1570420065276;1570420070348;5072;17720129646;64068022873;1348374348;844325610;13367709387;23723296;670786760;0;0;0;0;0;0
3;82;1570420070348;1570420079819;9471;18107490860;64068033163;1349631905;872820280;13367711476;23731894;670787725;0;0;0;0;0;0
3;83;1570420079819;1570420084936;5117;17751414380;64068022880;1348442613;850642433;13367709394;23729010;670747934;32;10;4472;0;80;254
3;84;1570420084936;1570420090020;5084;17760662458;64068022348;1349030432;845547503;13367709448;23717052;670748202;0;0;0;0;0;0
3;85;1570420090020;1570420095097;5077;17737663224;64068022871;1348747010;846889390;13367709387;23720518;670736849;0;0;0;0;0;0
3;86;1570420095097;1570420100191;5094;17793544432;64068023043;1349307853;845008230;13367709557;23720167;670780408;0;0;0;0;0;0
3;87;1570420100191;1570420105250;5059;17673286568;64068022857;1346963962;851340279;13367709371;23721100;670744224;0;0;0;0;0;0
3;88;1570420105250;1570420110308;5058;17665542582;64068027004;1347425157;845655138;13367710262;23718515;670758035;0;0;0;0;0;0
3;89;1570420110308;1570420115375;5067;17701398868;64068022904;1348333572;844994623;13367709418;23719967;670774243;34;8;4344;0;82;281
3;90;1570420115375;1570420120427;5052;17648042730;64068022954;1346577167;850250152;13367709468;23720260;670743846;0;0;0;0;0;0
3;91;1570420120427;1570420125519;5092;17788219812;64068022940;1348690568;845113506;13367709454;23721970;670732351;0;0;0;0;0;0
3;92;1570420125519;1570420130590;5071;17714594202;64068022867;1348344876;847291732;13367709381;23721250;670768139;0;0;0;0;0;0
3;93;1570420130590;1570420135689;5099;17814220952;64068022985;1350033148;843347561;13367709499;23721653;670744345;0;0;0;0;0;0
3;94;1570420135689;1570420140770;5081;17749196202;64068022945;1349124832;846529737;13367709459;23723001;670758175;0;0;0;0;0;0
3;95;1570420140770;1570420145830;5060;17672814696;64068026855;1347723463;846086772;13367710113;23725573;670719438;24;10;4344;0;79;177
3;96;1570420145831;1570420150911;5080;17746903710;64068022875;1349046528;844798529;13367709389;23718556;670815561;0;0;0;0;0;0
3;97;1570420150911;1570420155960;5049;17638598428;64068022847;1346719182;850107854;13367709361;23719983;670767896;0;0;0;0;0;0
3;98;1570420155960;1570420161019;5059;17673257660;64068022857;1347377952;848758447;13367709371;23720834;670758061;0;0;0;0;0;0
3;99;1570420161019;1570420166078;5059;17674772264;64068022855;1346961596;851082955;13367709369;23720642;670729507;0;0;0;0;0;0
3;100;1570420166078;1570420171136;5058;17668743924;64068022886;1346889575;853065233;13367709400;23720211;670745681;0;0;0;0;0;0
3;101;1570420171136;1570420176188;5052;17647169504;64068023002;1346189587;856301056;13367709516;23720986;670791626;36;10;4536;0;84;301
3;102;1570420176188;1570420181246;5058;17664988074;64068027161;1347186945;847336585;13367710419;23722394;670712132;0;0;0;0;0;0
3;103;1570420181247;1570420186347;5100;17817069850;64068023036;1350044865;841027266;13367709550;23720278;670818377;0;0;0;2;11;22
3;104;1570420186347;1570420191431;5084;17762572722;64068022887;1348069256;860191370;13367709401;23718238;670736000;469;16;48048;-2;1445;1892
3;105;1570420191432;1570420196486;5054;17656363270;64068023000;1347447235;849627562;13367709514;23722698;670736878;0;0;0;0;0;0
3;106;1570420196486;1570420201542;5056;17662765078;64068022166;1346663022;851258620;13367709266;23717158;670736762;0;0;0;0;0;0
3;107;1570420201542;1570420206628;5086;17766784238;64068023032;1349019357;847890950;13367709546;23717798;670727057;3;0;40;0;1;1
3;108;1570420206628;1570420211685;5057;17665819982;64068022862;1347352015;849452741;13367709376;23724212;670723970;0;0;0;0;0;0
3;109;1570420211685;1570420216750;5065;17685503556;64068026152;1347512094;846467329;13367709996;23724114;670705858;0;0;0;0;0;0
3;110;1570420216750;1570420221822;5072;17721094852;64068023494;1348266002;844509115;13367710008;23720440;670741911;125;12;6344;0;166;2074
3;111;1570420221823;1570420226888;5065;17695597850;64068023487;1348140831;845447319;13367710001;23720811;670766610;0;0;0;0;0;0
3;112;1570420226888;1570420231949;5061;17680143604;64068023485;1347266151;848856632;13367709999;23721987;670732403;0;0;0;0;0;0
3;113;1570420231949;1570420237023;5074;17724569068;64068023499;1348009040;848214966;13367710013;23723779;670769212;2;1;40;0;1;1
3;114;1570420237023;1570420242098;5075;17730151524;64068023498;1348285655;849731236;13367710012;23727445;670732587;0;0;0;0;0;0
3;115;1570420242098;1570420247156;5058;17668418928;64068023479;1347232501;850562626;13367709993;23720900;670730124;0;0;0;0;0;0
3;116;1570420247156;1570420252229;5073;17712016572;64068025966;1347986807;847469905;13367709810;23717893;670702087;43;20;5904;0;93;467
3;117;1570420252229;1570420257272;5043;17616571262;64068023465;1347411346;845929161;13367709979;23717282;670748880;0;0;0;0;0;0
3;118;1570420257272;1570420262340;5068;17706127808;64068023490;1347514201;846363899;13367710004;23719242;670741917;0;0;0;0;0;0
3;119;1570420262341;1570420267433;5092;17789051428;64068023514;1349468449;841516303;13367710028;23719148;670759775;3;0;40;0;9;10
3;120;1570420267433;1570420272491;5058;17671791674;64068023481;1346037040;855353923;13367709995;23717659;670731083;0;0;0;0;0;0
3;121;1570420272491;1570420277554;5063;17686725722;64068023485;1347134306;848389026;13367709999;23725203;670742369;0;0;0;0;0;0
3;122;1570420277554;1570420282603;5049;17636665534;64068023472;1346245386;853156394;13367709986;23721441;670743472;21;10;4240;0;62;154
3;123;1570420282603;1570420287672;5069;17694510296;64068025844;1347685469;845482832;13367709688;23722914;670732632;0;0;0;0;0;0
3;124;1570420287672;1570420292745;5073;17721810544;64068022409;1348604345;841681797;13367708923;23720287;670763155;0;0;0;0;0;0
3;125;1570420292745;1570420297813;5068;17703878970;64068023470;1347462478;845572454;13367709984;23718758;670750251;0;0;0;0;0;0
3;126;1570420297813;1570420302888;5075;17730705156;64068024998;1348132845;845234132;13367710341;23722595;670751174;3;0;40;0;9;9
3;127;1570420302889;1570420307950;5061;17680846010;64068037669;1346422120;854326200;13367712347;23722928;670730835;0;0;0;0;0;0
3;128;1570420307950;1570420313042;5092;17790143362;64068022417;1348857938;848036036;13367708931;23724102;670754192;21;12;4240;0;76;182
3;129;1570420313043;1570420318143;5100;17815895718;64068023501;1349467741;845915161;13367710015;23720607;670792354;0;0;0;0;0;0
4;80;1570420875570;1570420880639;5069;17699751404;64068026541;1348287225;833384325;13367709799;23532070;670708838;0;0;0;0;0;0
4;81;1570420880639;1570420890005;9366;18059605488;64068033080;1350216728;851665380;13367711320;23550264;670794087;0;0;0;0;0;0
4;82;1570420890005;1570420895117;5112;17767132448;64068023015;1349318778;832359331;13367709529;23532924;670780610;0;0;0;0;0;0
4;83;1570420895117;1570420900199;5082;17754901736;64068022889;1349524784;832580272;13367709403;23533500;670763693;0;0;0;0;0;0
4;84;1570420900199;1570420905266;5067;17697722004;64068023017;1348033187;839222705;13367709531;23530671;670764771;37;150;5160;0;112;1320
4;85;1570420905266;1570420910348;5082;17754668282;64068022884;1349278872;834656639;13367709398;23533548;670743327;0;0;0;0;0;0
4;86;1570420910348;1570420915425;5077;17736532308;64068023012;1348554596;836278937;13367709526;23529811;670746433;0;0;0;0;0;0
4;87;1570420915425;1570420925190;9765;18135249256;64068033699;1349427294;870020071;13367711434;23549540;670786047;0;0;0;0;0;0
4;88;1570420925190;1570420930266;5076;17702355314;64068022330;1348638239;828774582;13367709430;23532927;670731837;0;0;0;0;0;0
4;89;1570420930266;1570420935357;5091;17785841180;64068023061;1350118340;831119348;13367709575;23530113;670741205;26;16;4472;0;112;259
4;90;1570420935357;1570420940440;5083;17758096946;64068022876;1349570543;832285846;13367709390;23531462;670763022;0;0;0;0;0;0
4;91;1570420940441;1570420945531;5090;17784530392;64068023033;1350228053;832276094;13367709547;23535326;670745432;0;0;0;0;0;0
4;92;1570420945531;1570420950608;5077;17738175100;64068022875;1348934945;835575751;13367709389;23535094;670742757;0;0;0;0;0;0
4;93;1570420950608;1570420955676;5068;17705121430;64068023005;1347896668;838312197;13367709519;23533245;670746740;0;0;0;0;0;0
4;94;1570420955676;1570420960757;5081;17749473894;64068022882;1348788283;835354716;13367709396;23533813;670754951;0;0;0;0;0;0
4;95;1570420960757;1570420965833;5076;17724578558;64068026882;1349466396;829886870;13367710140;23535490;670742091;21;15;4472;0;75;162
4;96;1570420965833;1570420970912;5079;17745259458;64068022872;1349891843;830996522;13367709386;23534549;670742870;0;0;0;0;0;0
4;97;1570420970912;1570420975978;5066;17699917698;64068022859;1347869105;834724617;13367709373;23530534;670762375;0;0;0;0;0;0
4;98;1570420975979;1570420981065;5086;17771003346;64068022881;1349830697;832614174;13367709395;23534308;670739261;0;0;0;0;0;0
4;99;1570420981065;1570420986146;5081;17750554002;64068022874;1348675417;835600274;13367709388;23535525;670723815;0;0;0;0;0;0
4;100;1570420986146;1570420991206;5060;17678898808;64068022936;1347020467;838249289;13367709450;23534559;670712042;0;0;0;0;0;0
4;101;1570420991206;1570420996301;5095;17797910270;64068022979;1349877472;835019954;13367709493;23537696;670753861;31;11;4280;0;90;269
4;102;1570420996301;1570421001395;5094;17789699230;64068027509;1351313730;827355160;13367710767;23532464;670696254;0;0;0;0;0;0
4;103;1570421001395;1570421006460;5065;17697477600;64068022481;1348368125;832319313;13367708995;23532938;670783527;0;0;0;0;0;0
4;104;1570421006460;1570421011545;5085;17764932082;64068023400;1350164804;830638923;13367709914;23533358;670746226;0;0;0;0;0;0
4;105;1570421011545;1570421016607;5062;17683787618;64068022490;1347938664;836411845;13367709004;23536380;670736812;0;0;0;0;0;0
4;106;1570421016607;1570421021688;5081;17739138408;64068022581;1347361982;842961784;13367709095;23536984;670758903;197;6;25672;1;655;1015
4;107;1570421021688;1570421026794;5106;17823390774;64068022708;1348977537;843545609;13367709222;23535974;670804776;279;7;22512;-1;808;883
4;108;1570421026795;1570421031873;5078;17743695068;64068022398;1348291652;836966473;13367708912;23539206;670748847;0;0;0;0;0;0
4;109;1570421031873;1570421036938;5065;17685486620;64068026697;1347966911;833149743;13367709955;23531765;670716907;0;0;0;0;0;0
4;110;1570421036938;1570421042022;5084;17762727482;64068022890;1350343390;826880988;13367709404;23534262;670718560;0;0;0;0;0;0
4;111;1570421042022;1570421047095;5073;17722876490;64068023012;1349110022;832312883;13367709526;23535699;670732767;0;0;0;0;0;0
4;112;1570421047095;1570421052171;5076;17732690172;64068022870;1349017015;834955916;13367709384;23531452;670751758;0;0;0;0;0;0
4;113;1570421052171;1570421057249;5078;17738806258;64068022391;1348593366;837750772;13367709491;23532313;670740746;105;19;5896;0;132;1980
4;114;1570421057249;1570421062308;5059;17670935530;64068022852;1347483233;840858161;13367709366;23533983;670704557;0;0;0;0;0;0
4;115;1570421062308;1570421067406;5098;17804285944;64068023030;1350236908;833783856;13367709544;23535184;670736701;0;0;0;0;0;0
4;116;1570421067406;1570421072510;5104;17820620862;64068025893;1350454970;832238760;13367709737;23536478;670674931;0;0;0;0;0;0
4;117;1570421072510;1570421077602;5092;17786115952;64068023017;1351314736;825479121;13367709531;23532279;670732437;0;0;0;0;0;0
4;118;1570421077602;1570421082687;5085;17767884932;64068022902;1349905932;831433278;13367709416;23532388;670729843;0;0;0;0;0;0
4;119;1570421082688;1570421087741;5053;17653122654;64068022979;1347271313;837451954;13367709493;23539996;670752907;31;24;5712;0;86;322
4;120;1570421087741;1570421092832;5091;17784561782;64068022920;1349693892;835838666;13367709434;23533674;670723354;2;1;40;0;1;1
4;121;1570421092832;1570421097901;5069;17707592042;64068022973;1347733625;837275708;13367709487;23530729;670734906;0;0;0;0;0;0
4;122;1570421097901;1570421102968;5067;17704347338;64068022907;1348636599;837000153;13367709421;23531755;670768652;0;0;0;0;0;0
4;123;1570421102968;1570421108061;5093;17781170494;64068026590;1348890611;832938862;13367709848;23532363;670679371;0;0;0;0;0;0
4;124;1570421108061;1570421113123;5062;17684859550;64068022513;1349597651;828572555;13367709027;23532368;670765603;0;0;0;0;0;0
4;125;1570421113123;1570421118194;5071;17702946030;64068023358;1348442637;836522953;13367709872;23533676;670746423;17;10;4240;0;58;126
4;126;1570421118194;1570421123272;5078;17737946172;64068024042;1349070305;834666278;13367709385;23534021;670725095;2;1;40;0;9;9
4;127;1570421123272;1570421128364;5092;17789882314;64068038637;1350752449;832338317;13367713315;23531693;670750233;0;0;0;0;0;0
4;128;1570421128364;1570421133451;5087;17764414220;64068023502;1349621786;836190324;13367710016;23532671;670716145;0;0;0;0;0;0
4;129;1570421133451;1570421138550;5099;17813172818;64068022561;1350734900;832776845;13367709075;23532051;670759150;0;0;0;0;0;0
