0;53;1570298700497;1570298707291;6794;23021696976;66141666301;1895231404;124731037;12617814216;29019981;931599048;5;0;1408;0;4;4
0;54;1570298707314;1570298714161;6847;23151880504;66146630376;1893085771;140144860;12618527571;29145895;930852466;4;0;1384;0;4;4
0;55;1570298714187;1570298721050;6863;23171665110;66141284186;1860541243;160433490;12617553280;29024790;931362099;25;14;6800;0;102;200
0;56;1570298721073;1570298727901;6828;23118677914;66139548496;1896997792;149441727;12617182590;29008051;932385857;4;0;1384;0;3;3
0;57;1570298727925;1570298734764;6839;23143405788;66141725279;1873401500;157293368;12617535814;29118362;933246936;6;0;1416;0;4;4
0;58;1570298734788;1570298741632;6844;23118994588;66137881099;1866800666;155809843;12617019477;28964323;930562660;4;0;1384;0;3;3
0;59;1570298741657;1570298748548;6891;23293993546;66138601548;1873663329;163714457;12617033336;29051643;930926793;6;0;1400;0;3;3
0;60;1570298748572;1570298755344;6772;22909888278;66142895159;1869133982;118688188;12617612736;29012186;932399411;33;14;7800;0;95;269
0;61;1570298755367;1570298762307;6940;23313348328;66143502010;1901259698;166480733;12617809500;29092164;931574562;4;0;1384;0;3;3
0;62;1570298762330;1570298769090;6760;22911456172;66139808344;1857083382;127993463;12617305604;29048920;931493974;6;0;1408;0;3;3
0;63;1570298769114;1570298775962;6848;23098725262;66143381008;1871521782;140411987;12618014977;29000065;932240167;4;0;1384;0;2;2
0;64;1570298776001;1570298782808;6807;22997510032;66145259925;1896581969;121710233;12618048462;29085707;932878201;34;16;7968;0;105;262
0;65;1570298782831;1570298789669;6838;23072680030;66140927476;1857893936;138338427;12617340512;29080233;934903405;4;0;1384;0;4;4
0;66;1570298789693;1570298796533;6840;23167370958;66140040276;1895292159;153312962;12617131955;28944326;932241658;5;0;1392;0;4;4
0;67;1570298796558;1570298803470;6912;23375732668;66142729327;1897253051;170644322;12617524550;28975181;931314825;4;0;1384;0;3;3
0;68;1570298803493;1570298810336;6843;23176238706;66140308954;1894032581;156766471;12616980449;29090859;931725073;7;0;1408;0;6;6
0;69;1570298810359;1570298817171;6812;23057854168;66139053034;1853909901;143210467;12617017787;29031455;930106743;33;16;7672;0;84;268
0;70;1570298817194;1570298824048;6854;23178459220;66142746129;1870329750;156333473;12618097782;29076952;930030975;4;0;1384;0;2;2
0;71;1570298824072;1570298830934;6862;23214315068;66139523478;1873861530;159757140;12617059375;29047082;934754519;5;0;1400;0;2;2
0;72;1570298830957;1570298837830;6873;23228186382;66146329163;1874555754;161743371;12618873974;29044815;931687000;4;0;1384;0;4;4
0;73;1570298837854;1570298844698;6844;23114606266;66138622276;1899770903;139241973;12617189106;29000362;932800707;7;0;1416;0;5;6
0;74;1570298844721;1570298851525;6804;23020130104;66139179687;1859157086;130990442;12617075563;29036871;933647753;4;0;1384;0;3;3
0;75;1570298851550;1570298858331;6781;22948162762;66151658844;1875530643;123511942;12619331292;29127911;932788295;29;16;7216;0;96;163
0;76;1570298858354;1570298865197;6843;23138333164;66153029045;1895708151;129923730;12619237996;29160422;934038735;4;0;1384;0;4;4
0;77;1570298865221;1570298872082;6861;23220499044;66140045366;1863187112;161960698;12617206045;29011495;933821860;7;0;1408;0;14;14
0;78;1570298872106;1570298878944;6838;23097851160;66140547463;1870164302;134196847;12617428594;29075753;931866828;4;0;1384;0;3;3
0;79;1570298878968;1570298885772;6804;23053294588;66141056867;1865137544;134058624;12617237224;28970189;931500547;32;18;7808;0;88;200
0;80;1570298885796;1570298893224;7428;23262377684;66140224157;1897366088;154242179;12617246828;28975447;931692850;4;0;1384;0;5;5
0;81;1570298893247;1570298900060;6813;23067572950;66143852294;1908740519;127890433;12617629925;29050040;931359380;4;0;1384;0;1;1
0;82;1570298900083;1570298907784;7701;23421329052;66141741271;1905460664;180186470;12617670768;28983925;931788605;472;25;50976;0;1454;1845
0;83;1570298907809;1570298914575;6766;22895281270;66143407141;1867987040;113095510;12617701397;29038314;931983729;4;0;1384;0;3;3
0;84;1570298914598;1570298922131;7533;23088788794;66143031327;1892339303;133009707;12618165248;29057671;932189228;4;0;1384;0;3;3
0;85;1570298922154;1570298928986;6832;23071051692;66143782654;1858661716;152524788;12617961662;29046604;933497382;4;0;1384;0;4;4
0;86;1570298929010;1570298935855;6845;23126459568;66145917978;1894163243;134766127;12618346364;29102423;931595921;52;14;8552;0;107;502
0;87;1570298935880;1570298942963;7083;23169522268;66139214613;1894189929;154344902;12617013765;29009379;933831138;4;0;1384;0;3;3
0;88;1570298942988;1570298949847;6859;23175347814;66139744110;1872382214;141500211;12617151159;28963129;932500767;61;0;2056;0;29;746
0;89;1570298949870;1570298956646;6776;22922710144;66140881275;1872752007;115490933;12617449418;29118280;930086627;4;0;1384;0;4;4
0;90;1570298956670;1570298963524;6854;23146472810;66140709857;1890284454;138151732;12617400948;29030967;931711810;7;0;1408;0;4;4
0;91;1570298963549;1570298971434;7885;23318253198;66141046636;1905507689;162698078;12617263751;29032345;931717941;46;30;9304;0;128;453
0;92;1570298971458;1570298978358;6900;23336844400;66140667640;1907352181;149042914;12617224888;28997520;930655197;6;0;1408;0;4;4
0;93;1570298978382;1570298985201;6819;23081338998;66140823391;1906777614;124801944;12617291181;29025695;932623374;4;0;1384;0;4;4
0;94;1570298985224;1570298992164;6940;23183597690;66138370714;1877556605;157764540;12616840738;28998986;938767589;4;0;1384;0;4;4
0;95;1570298992189;1570298999037;6848;23082074984;66138317015;1860310786;137598766;12616928394;29060784;932445750;6;0;1400;0;3;3
0;96;1570298999060;1570299005843;6783;22922072270;66139969830;1849792127;117741126;12617097261;28958067;931000660;31;20;7800;0;81;232
0;97;1570299005867;1570299012801;6934;23435734872;66141208604;1870346793;166534677;12617292954;28965987;930364849;6;0;1416;0;3;3
0;98;1570299012824;1570299019681;6857;23040012092;66148893016;1870558321;130615826;12619020626;29200989;933952604;4;0;1384;0;4;4
0;99;1570299019706;1570299026576;6870;23180698568;66139054719;1872107043;157757307;12617143139;28952668;931355324;7;0;1408;0;6;6
0;100;1570299026600;1570299033449;6849;23173692028;66139110928;1895834323;149784376;12617102447;28915816;932492897;4;0;1384;0;4;4
0;101;1570299033473;1570299040700;7227;23074487072;66141180369;1886410647;130181216;12617232290;29013397;933294611;38;18;7680;0;102;352
0;102;1570299040723;1570299047498;6775;22949818548;66137150647;1907177319;116008693;12616766480;28944250;932919306;4;0;1384;0;4;4
1;54;1570299534800;1570299541592;6792;22943935478;65122931446;1868274308;130955428;12436777891;28325547;934932108;4;0;1384;0;4;4
1;55;1570299541617;1570299548508;6891;22979272296;65120818935;1891925768;129856656;12436332650;28310031;935711955;6;0;1416;0;4;4
1;56;1570299548531;1570299555335;6804;23025493560;65119060952;1900025269;132313192;12436137504;28352019;936729006;4;0;1384;0;2;2
1;57;1570299555358;1570299562280;6922;23047496636;65120794001;1862243756;147587173;12436330035;28399626;932585439;36;18;8080;0;103;226
1;58;1570299562304;1570299569105;6801;22979906082;65119786680;1863774057;132988078;12436306843;28407800;934725585;4;0;1384;0;5;5
1;59;1570299569130;1570299575912;6782;22950808574;65120717286;1884216283;133553776;12436433075;28254548;931339690;6;0;1432;0;7;7
1;60;1570299575935;1570299582738;6803;22992580196;65119757512;1890837110;124565147;12436225571;28350734;931939322;4;0;1384;0;3;3
1;61;1570299582762;1570299589547;6785;22981212928;65119216126;1892928130;133980848;12436168965;28323225;936301727;8;0;1416;0;12;13
1;62;1570299589570;1570299596340;6770;22919064670;65118727629;1889820931;118535389;12436149285;28327051;934346078;39;22;8184;0;105;391
1;63;1570299596364;1570299603179;6815;22965351342;65122753371;1898124255;133174275;12436635251;28279471;933783643;4;0;1384;0;4;4
1;64;1570299603203;1570299610005;6802;22966155218;65123714575;1890457268;121980372;12436971248;28373531;933091452;4;0;1384;0;5;5
1;65;1570299610028;1570299616818;6790;22969753096;65117568631;1890428124;130189972;12435942265;28302719;931186061;4;0;1384;0;3;3
1;66;1570299616842;1570299623629;6787;22979151408;65119860357;1883423502;124529077;12436269267;28466901;931228157;8;0;1432;0;4;5
1;67;1570299623654;1570299630415;6761;22830918776;65123301027;1856550652;132375600;12436930885;28395510;929441344;32;12;6968;0;91;274
1;68;1570299630439;1570299637530;7091;23084154900;65120381440;1906884731;133563202;12436395958;28369796;934652650;5;0;1392;0;4;4
1;69;1570299637555;1570299644367;6812;22920744838;65118810389;1889312158;127103730;12436043339;28388493;932578186;4;0;1384;0;2;2
1;70;1570299644390;1570299651182;6792;22966453788;65119584951;1867976892;130313363;12436173937;28360906;933499123;6;0;1400;0;3;3
1;71;1570299651207;1570299657980;6773;22918632072;65122522216;1889831657;131797251;12436585406;28365004;934430799;4;0;1384;0;3;3
1;72;1570299658003;1570299664829;6826;23045065152;65124407164;1887688880;133588094;12437235494;28422023;934250213;49;18;7928;0;114;530
1;73;1570299664852;1570299671617;6765;22885717248;65120623774;1858273316;126237684;12436412377;28428089;932534859;6;0;1416;0;2;2
1;74;1570299671641;1570299678414;6773;22913362640;65120286931;1855190932;136028983;12436212069;28355059;932737362;4;0;1384;0;3;3
1;75;1570299678439;1570299685232;6793;22965994180;65120300563;1888244367;121229511;12436324194;28363739;933106722;7;0;1408;0;5;6
1;76;1570299685255;1570299692050;6795;22998937620;65119844439;1890281444;130931340;12436394701;28329777;935256215;4;0;1384;0;4;4
1;77;1570299692073;1570299698859;6786;22926102746;65119359436;1886782960;124113986;12436256564;28389138;933058052;41;12;7952;0;107;373
1;78;1570299698883;1570299706086;7203;22993890108;65120209283;1886450091;127037416;12436290069;28348398;935797122;4;0;1384;0;4;4
1;79;1570299706111;1570299712951;6840;23115972388;65119781554;1885452384;139902065;12436250456;28348031;933799413;7;0;1408;0;4;4
1;80;1570299712975;1570299720142;7167;23091743396;65118803797;1893024246;131354656;12436443764;28253369;934272348;4;0;1384;0;3;3
1;81;1570299720166;1570299726973;6807;23045660978;65124246274;1898305644;129042955;12436951785;28407384;935066318;5;0;1392;0;3;3
1;82;1570299726997;1570299733795;6798;23013725522;65123522845;1889675484;129160334;12436564605;28374533;933844088;29;18;7864;0;99;179
1;83;1570299733820;1570299740638;6818;23061244142;65120030528;1891094004;136411230;12436523014;28327516;932608634;454;25;49624;0;1506;1830
1;84;1570299740662;1570299747436;6774;22949564800;65121284155;1866853511;129734059;12436321414;28335384;933944294;7;0;1424;0;4;5
1;85;1570299747459;1570299754258;6799;22950555410;65122558366;1889084460;123152326;12436609597;28397372;933155916;4;0;1384;0;4;4
1;86;1570299754282;1570299761092;6810;23007097852;65124275369;1890769071;129609538;12436708471;28375588;929472489;5;0;1392;0;5;5
1;87;1570299761117;1570299768073;6956;22875802388;65124969131;1865110795;122046973;12436915965;28362095;932758380;4;0;1384;0;2;2
1;88;1570299768097;1570299774879;6782;22926519284;65122219144;1865381254;124885789;12436547514;28255374;930766577;104;27;9328;0;146;1440
1;89;1570299774902;1570299781636;6734;22788269694;65121843970;1853643160;113004618;12436750014;28284980;934469085;4;0;1384;0;5;5
1;90;1570299781660;1570299788454;6794;22976590276;65119448066;1891749723;131704993;12436192105;28304012;934121609;5;0;1400;0;3;3
1;91;1570299788489;1570299795448;6959;22858445178;65121784047;1859116902;126639272;12436499518;28331363;935501645;4;0;1384;0;5;5
1;92;1570299795472;1570299802261;6789;22987732996;65123490150;1888987886;133557535;12436727285;28309425;932691470;48;28;9752;0;157;453
1;93;1570299802285;1570299809069;6784;22962411486;65121946858;1891960630;127629496;12436796917;28287882;933320720;8;0;1416;0;5;6
1;94;1570299809093;1570299816624;7531;23063384210;65118969099;1883284920;134572048;12436194644;28438386;935686459;4;0;1384;0;4;4
1;95;1570299816648;1570299823429;6781;22918858372;65122333268;1860695969;121952060;12437139642;28311750;931430307;5;0;1400;0;3;3
1;96;1570299823452;1570299830254;6802;23002484982;65124022400;1899162092;131497813;12436975699;28326109;934089248;4;0;1384;0;5;5
1;97;1570299830277;1570299837077;6800;23024400604;65117788028;1885207419;135492583;12435877371;28292027;931512299;32;24;8208;0;120;301
1;98;1570299837100;1570299843905;6805;22999955386;65119708494;1880957314;131437611;12436049129;28383081;933196130;4;0;1384;0;5;5
1;99;1570299843930;1570299850705;6775;22864481256;65120123631;1871057103;123576712;12436186281;28317279;936512797;5;0;1392;0;4;4
1;100;1570299850729;1570299857817;7088;22936471812;65115990623;1876028807;135459007;12435777178;28266784;933793518;4;0;1384;0;3;3
1;101;1570299857840;1570299864646;6806;23022012336;65123220811;1899308335;131336160;12436905504;28373932;933304902;38;12;6976;0;87;331
1;102;1570299864670;1570299871461;6791;22989867516;65123201904;1892775765;134015117;12436893547;28319986;933355843;8;0;1424;0;5;6
1;103;1570299871487;1570299878220;6733;22792234324;65121235046;1852447155;117216512;12436460702;28306939;931911739;4;0;1384;0;3;3
2;55;1570300364971;1570300371658;6687;22485693016;63888897848;1854977710;128852831;12435817144;30386000;930284925;5;0;1392;0;3;3
2;56;1570300371681;1570300378588;6907;22807276120;63890692636;1885082589;156998543;12435878705;30442991;927647556;4;0;1384;0;4;4
2;57;1570300378611;1570300385298;6687;22582316692;63884332302;1883679652;135970908;12435115044;30436442;927194413;34;16;7704;0;91;250
2;58;1570300385321;1570300391950;6629;22407212322;63884383605;1854220287;117657458;12435085238;30422690;927987737;4;0;1384;0;4;4
2;59;1570300391974;1570300398650;6676;22604761272;63885857683;1883498759;135680205;12435370001;30289511;930127121;4;0;1384;0;4;4
2;60;1570300398674;1570300405406;6732;22762457478;63889406871;1876723203;143250692;12435911637;30266708;927597075;5;0;1392;0;3;3
2;61;1570300405430;1570300412050;6620;22392607942;63887661518;1840453024;118754007;12435563672;30439638;927709682;4;0;1384;0;3;3
2;62;1570300412073;1570300418712;6639;22462419886;63886999410;1850733012;122979007;12435424416;30360150;929074136;49;12;7912;0;107;446
2;63;1570300418737;1570300425713;6976;22482848352;63886242505;1891229422;120340279;12435703436;30347057;929396317;4;0;1384;0;4;4
2;64;1570300425736;1570300432447;6711;22669910998;63889484832;1855687361;152106909;12435719223;30372646;928501738;4;0;1384;0;5;5
2;65;1570300432470;1570300439159;6689;22556118160;63883435103;1877231685;126149064;12435265522;30337047;930560802;4;0;1384;0;3;3
2;66;1570300439182;1570300445849;6667;22559561424;63884595075;1866025588;127969449;12435030927;30470777;930562265;4;0;1384;0;4;4
2;67;1570300445873;1570300452617;6744;22742505118;63888089152;1857345843;157861609;12435880119;30371036;935642504;34;16;8064;0;94;224
2;68;1570300452641;1570300459317;6676;22612199388;63888180466;1885480969;142678777;12435484406;30345679;930515018;4;0;1384;0;4;4
2;69;1570300459340;1570300466046;6706;22683270144;63883645004;1856747407;153676736;12434800130;30225158;928288875;5;0;1408;0;3;3
2;70;1570300466070;1570300472723;6653;22519521654;63890743221;1860452018;133480437;12435823624;30532664;929729225;4;0;1384;0;5;5
2;71;1570300472747;1570300479948;7201;22766560078;63886842905;1894362864;145425750;12435287449;30441660;927431627;7;0;1408;0;13;13
2;72;1570300479971;1570300486624;6653;22424802694;63886468186;1857271218;116787818;12435474740;30276629;927535678;31;16;7672;0;96;265
2;73;1570300486647;1570300493463;6816;22691451254;63881918889;1897709224;139285360;12434520917;30261195;928958647;5;0;1392;0;4;4
2;74;1570300493486;1570300500109;6623;22420162376;63887877272;1859272494;117662898;12436027706;30335473;927070316;4;0;1384;0;3;3
2;75;1570300500133;1570300506851;6718;22709247194;63887488799;1883571304;136520505;12435318161;30343646;932109976;4;0;1384;0;2;2
2;76;1570300506874;1570300513607;6733;22741420776;63887661467;1895914938;149893324;12435731512;30960126;929540862;8;0;1432;0;12;14
2;77;1570300513630;1570300520333;6703;22676787014;63887819541;1849660933;153605990;12435574833;30348018;932106942;33;18;7992;0;77;248
2;78;1570300520356;1570300527007;6651;22513983144;63885321595;1858206913;123961963;12435442313;30313289;929982006;4;0;1384;0;4;4
2;79;1570300527032;1570300533708;6676;22522869434;63887488831;1849712817;137363431;12435233210;30425244;928455564;4;0;1384;0;3;3
2;80;1570300533731;1570300540382;6651;22511898410;63885579349;1874701005;119008220;12434985048;30353526;928375345;9;0;1432;0;13;23
2;81;1570300540405;1570300547043;6638;22418354312;63885077696;1846705140;126318092;12435542965;30292734;928601266;4;0;1384;0;4;4
2;82;1570300547066;1570300553909;6843;22728587084;63883122310;1884185580;139751467;12434754054;30220586;927380478;31;18;7864;0;94;222
2;83;1570300553934;1570300560659;6725;22744156962;63886207990;1879884649;156214077;12435295702;30427430;929370934;450;23;49432;0;1417;1710
2;84;1570300560682;1570300567413;6731;22753295978;63882643551;1883451911;151754729;12434760105;30239493;928670245;4;0;1384;0;2;2
2;85;1570300567437;1570300574113;6676;22535635236;63887093364;1880382920;122002697;12435305639;30375767;926419363;7;0;1416;0;4;5
2;86;1570300574137;1570300580906;6769;22844460714;63887200601;1885554321;152174546;12435268575;30345699;928606130;4;0;1384;0;4;4
2;87;1570300580931;1570300587550;6619;22371292088;63887898038;1855086527;114698379;12435289420;30285537;928514332;6;0;1408;0;4;4
2;88;1570300587574;1570300594296;6722;22723040690;63886215663;1864859481;152454387;12435173211;30313414;928003068;41;18;8440;0;102;401
2;89;1570300594319;1570300601019;6700;22628512552;63884689683;1875051911;145513773;12434958066;30306494;929613925;69;0;2096;0;29;860
2;90;1570300601043;1570300608013;6970;22544584890;63888001286;1859356607;132403292;12435306059;30423096;928889711;4;0;1384;0;5;5
2;91;1570300608038;1570300614744;6706;22670589168;63881676825;1849436845;153680779;12434563272;30312695;929496573;4;0;1384;0;4;4
2;92;1570300614768;1570300621426;6658;22529764868;63885790578;1880151715;128374658;12435064471;30378874;930096502;5;0;1400;0;3;3
2;93;1570300621450;1570300628160;6710;22685334000;63886862898;1879092072;137367976;12435313814;30365599;928474687;38;30;9368;0;118;357
2;94;1570300628184;1570300635018;6834;22596711124;63882975836;1857116445;145661680;12434694095;30376730;929273566;8;0;1432;0;5;7
2;95;1570300635042;1570300641809;6767;22711734304;63885849928;1864333597;153549908;12435093208;30314209;930580627;4;0;1384;0;2;2
2;96;1570300641833;1570300648691;6858;22523588484;63887332412;1882660539;119407491;12435287428;30274467;930274329;5;0;1392;0;4;4
2;97;1570300648714;1570300655443;6729;22775582878;63884126188;1882001485;154335935;12435176118;30273209;929947461;4;0;1384;0;3;3
2;98;1570300655467;1570300662453;6986;22559186204;63888213893;1891428922;127183269;12435850914;30300242;930109659;28;22;7952;0;107;167
2;99;1570300662478;1570300669180;6702;22606193970;63885578525;1853307694;140169157;12434964795;30202678;929462122;4;0;1384;0;4;4
2;100;1570300669203;1570300676263;7060;22514329018;63883773106;1880533490;120710379;12434918310;30171831;927113915;4;0;1384;0;3;3
2;101;1570300676286;1570300682978;6692;22649472020;63884446906;1875266137;141488893;12434974248;30262885;929920999;7;0;1448;0;17;17
2;102;1570300683001;1570300689627;6626;22410753990;63886614471;1847573317;117026894;12435364240;30280167;926692696;4;0;1384;0;3;3
2;103;1570300689652;1570300696394;6742;22458234358;63886029544;1857882973;123729028;12435390396;30247275;928124951;43;18;7880;0;101;389
2;104;1570300696417;1570300703275;6858;22513317530;63882973616;1855005802;122269287;12434726319;30304977;926360416;4;0;1384;0;4;4
3;55;1570301188184;1570301194876;6692;22637262040;64672863681;1888245088;126656619;12317982837;30525758;933028722;5;0;1392;0;3;3
3;56;1570301194899;1570301201574;6675;22601185294;64669783372;1864294868;123654063;12317688808;30508160;934002864;4;0;1384;0;4;4
3;57;1570301201599;1570301208280;6681;22575944230;64673585045;1884150673;121016736;12318396284;30501842;932035586;49;16;7528;0;98;458
3;58;1570301208303;1570301215379;7076;22689081966;64672404511;1854365149;132689620;12317843612;30563189;934366271;4;0;1384;0;5;5
3;59;1570301215404;1570301222069;6665;22496699664;64675355393;1852167029;115279630;12318656350;30488785;933400937;4;0;1384;0;3;3
3;60;1570301222092;1570301229127;7035;22748720484;64673038152;1892382993;139002536;12318038159;30650305;935952464;4;0;1384;0;4;4
3;61;1570301229151;1570301235854;6703;22568800450;64671382316;1868614804;119744878;12317696839;30571079;933133935;4;0;1384;0;3;3
3;62;1570301235876;1570301242580;6704;22647028418;64675791541;1859085835;134664869;12318659572;30640213;933796677;40;20;7664;2;90;295
3;63;1570301242604;1570301249324;6720;22638689482;64673194707;1859598575;130065364;12318051943;30577638;933728287;6;0;1760;-2;20;56
3;64;1570301249347;1570301256029;6682;22565073800;64674442052;1856568663;127545157;12318332097;30499436;931817410;4;0;1384;0;3;3
3;65;1570301256053;1570301262764;6711;22677809014;64669173422;1893145086;121167365;12317458613;30502870;933523437;4;0;1384;0;5;5
3;66;1570301262789;1570301269481;6692;22629667704;64677175938;1855568297;132677971;12319099736;30494709;931629859;4;0;1384;0;4;4
3;67;1570301269507;1570301276227;6720;22689310164;64674534749;1863870173;127929867;12318383127;30563829;933819276;28;14;6664;0;91;200
3;68;1570301276250;1570301282934;6684;22603222870;64673247508;1861626674;130878967;12318035138;30523034;934981446;4;0;1384;0;4;4
3;69;1570301282957;1570301289677;6720;22710351684;64670546611;1901788066;128715049;12317734948;30540930;934500787;7;0;1432;0;5;5
3;70;1570301289700;1570301296378;6678;22593254866;64671464624;1870356682;123236261;12317798981;30493092;935382638;4;0;1384;0;4;4
3;71;1570301296403;1570301303117;6714;22707366130;64670800854;1901221161;121838922;12317735514;30515984;933107654;6;0;1400;0;2;2
3;72;1570301303141;1570301310043;6902;22678538138;64672566610;1890000676;126215563;12317940023;30626841;933015038;39;16;7800;0;111;382
3;73;1570301310067;1570301316781;6714;22642379632;64671442921;1859203526;130562687;12317839704;30481868;933176470;5;0;1392;0;4;4
3;74;1570301316805;1570301323484;6679;22577907200;64670395875;1885648513;118726304;12317407473;30509475;933374996;4;0;1384;0;5;5
3;75;1570301323509;1570301330219;6710;22685835218;64674800085;1886826246;127123909;12318137945;30555131;935044935;4;0;1384;0;3;3
3;76;1570301330242;1570301336952;6710;22669104056;64669932521;1892889245;121706578;12317590499;30556009;934237996;8;0;1432;0;4;5
3;77;1570301336976;1570301343708;6732;22763999092;64670698930;1896475057;128684871;12317576756;30507009;932732610;35;16;7864;0;91;292
3;78;1570301343731;1570301350617;6886;22598129806;64671574779;1857657034;122470191;12317662032;30493407;933883566;5;0;1392;0;5;5
3;79;1570301350642;1570301357364;6722;22693466930;64669826015;1859664145;134771810;12317797546;30460213;934306114;4;0;1384;0;4;4
3;80;1570301357387;1570301364073;6686;22604076386;64669478074;1863380696;121479269;12317407980;30470671;934389606;7;0;1416;0;4;5
3;81;1570301364097;1570301370814;6717;22734683314;64670115324;1898857198;134171004;12317527685;30508048;934818467;4;0;1384;0;4;4
3;82;1570301370837;1570301377578;6741;22774764548;64667894205;1880584693;141755049;12317190470;30491383;931668105;484;41;55248;0;1534;1884
3;83;1570301377603;1570301384307;6704;22658011706;64669219540;1889990207;126842752;12317478934;30541197;933026552;4;0;1384;0;4;4
3;84;1570301384331;1570301391063;6732;22760480054;64670374896;1899058022;133654498;12317470690;30599785;934200159;4;0;1384;0;3;3
3;85;1570301391087;1570301397778;6691;22587256018;64673685762;1867821978;127097202;12318111328;30622524;932287816;7;0;1416;0;6;6
3;86;1570301397802;1570301404542;6740;22702768298;64671650238;1887891373;125994862;12317694662;30583376;931633992;4;0;1384;0;3;3
3;87;1570301404566;1570301411251;6685;22599113700;64671416855;1862253482;127304196;12317842504;30486841;932085909;116;26;10256;0;158;1393
3;88;1570301411275;1570301417975;6700;22635549168;64674424646;1867570624;124267256;12318256570;30512349;933123520;4;0;1384;0;3;3
3;89;1570301417998;1570301424872;6874;22647075430;64670737012;1877779928;123725754;12317691049;30556607;937233761;8;0;1424;0;14;15
3;90;1570301424897;1570301431579;6682;22566173910;64672176239;1849196000;122268046;12317866276;30523934;934532097;4;0;1384;0;3;3
3;91;1570301431604;1570301438290;6686;22597011592;64670836284;1861745010;127051265;12317845731;30475917;932086287;4;0;1384;0;4;4
3;92;1570301438314;1570301445029;6715;22721060784;64673367640;1886513056;130538785;12317917377;30483919;932982043;37;16;7864;0;82;284
3;93;1570301445053;1570301451851;6798;22663130028;64669775070;1892449700;124480015;12317499983;30518866;933811347;4;0;1384;0;4;4
3;94;1570301451875;1570301458589;6714;22715796024;64669855247;1891975603;131687552;12317585888;30577657;933472254;8;0;1432;0;4;5
3;95;1570301458613;1570301465309;6696;22589582090;64667951201;1891484760;118599394;12317195327;30576751;932377733;4;0;1384;0;2;2
3;96;1570301465333;1570301472048;6715;22733909368;64672719623;1896527627;134526910;12318088224;30575844;933024449;5;0;1392;0;4;4
3;97;1570301472071;1570301479258;7187;22612574462;64669885711;1882044746;119181578;12317440737;30528473;931130852;33;22;7928;0;109;228
3;98;1570301479281;1570301485989;6708;22670851822;64671151695;1883230382;130408128;12317717075;30493257;930799006;7;0;1408;0;11;11
3;99;1570301486013;1570301492840;6827;22680009818;64673684449;1864883819;127962754;12318004980;30579693;934522018;4;0;1384;0;4;4
3;100;1570301492864;1570301499540;6676;22555408454;64671415962;1854026186;124121424;12318216489;30491759;934929670;4;0;1384;0;4;4
3;101;1570301499564;1570301506290;6726;22712402838;64670511675;1886431730;126832858;12317472979;30559982;934047180;5;0;1408;0;4;4
3;102;1570301506313;1570301513000;6687;22612888362;64669542467;1859293416;134923941;12317297474;30505647;931630761;40;14;7704;0;103;378
3;103;1570301513025;1570301519755;6730;22760401214;64668433139;1901218644;129121303;12317290977;30470993;931894676;8;0;1424;0;4;5
3;104;1570301519779;1570301526864;7085;22629125606;64673319582;1886544672;121462661;12318212084;30442225;933328499;4;0;1384;0;3;3
4;54;1570302012464;1570302019441;6977;22927828612;63966599146;1880857895;125077089;12473878276;30595820;932265058;4;0;1384;0;3;3
4;55;1570302019467;1570302026247;6780;22926289772;63961888785;1885504307;127892961;12473505045;30523312;930282870;6;0;1400;0;4;4
4;56;1570302026272;1570302033043;6771;22945526002;63965423249;1891484467;126181444;12473695407;30615875;933543757;4;0;1384;0;3;3
4;57;1570302033068;1570302040145;7077;22975471332;63969322204;1887101022;128999180;12474500013;30691165;932353839;37;22;7816;0;104;333
4;58;1570302040170;1570302046949;6779;22984979874;63967311109;1863060711;140326868;12474158893;30473848;931470598;4;0;1384;0;4;4
4;59;1570302046976;1570302053739;6763;22898152944;63962956202;1859698034;128033870;12473775391;30519104;930317814;4;0;1384;0;3;3
4;60;1570302053763;1570302060583;6820;23087970464;63967179245;1885816314;143566945;12473948402;30646480;931761694;6;0;1416;0;4;4
4;61;1570302060608;1570302067439;6831;22967125826;63965598820;1897975078;129901976;12473791201;30528458;930456534;4;0;1384;0;3;3
4;62;1570302067464;1570302074268;6804;23021236638;63963796336;1898223952;129748425;12473810363;30672722;931306311;30;20;7896;0;97;179
4;63;1570302074294;1570302081101;6807;22995108916;63963728601;1881743677;134079277;12473579845;30610019;932226438;4;0;1384;0;3;3
4;64;1570302081126;1570302087918;6792;22980247576;63964276135;1890567824;126939942;12473814625;30564862;930639484;6;0;1408;0;4;4
4;65;1570302087943;1570302094730;6787;22946633850;63963604794;1885659776;130394556;12473857346;30578381;932745324;4;0;1384;0;3;3
4;66;1570302094755;1570302101509;6754;22866710676;63965653561;1848199833;124023864;12473648749;30600794;933094808;6;0;1400;0;4;4
4;67;1570302101536;1570302108311;6775;22892563772;63966244259;1859044012;129362083;12474012179;30612291;932127518;6;0;1448;3;5;5
4;68;1570302108336;1570302115185;6849;22854927308;63962315436;1850090040;122289817;12473600049;30557808;932501860;33;14;6776;-3;97;359
4;69;1570302115210;1570302121973;6763;22901453712;63965188459;1860515173;125752585;12474003072;30577259;931648531;8;0;1464;0;12;19
4;70;1570302121997;1570302128775;6778;22954441638;63966905602;1849668268;136869008;12474202269;30578144;933459794;5;0;1472;-1;4;4
4;71;1570302128801;1570302135572;6771;22935303666;63968460244;1885687169;127749308;12474212548;30592604;931236418;6;0;1328;1;4;4
4;72;1570302135599;1570302142435;6836;23119993374;63965279832;1885326294;154689540;12473760384;30612320;933215228;42;30;9120;0;151;357
4;73;1570302142459;1570302149234;6775;22936901052;63961495819;1857248417;138543619;12473172842;30548222;931277854;4;0;1384;0;4;4
4;74;1570302149259;1570302156064;6805;23077297426;63964504632;1884753463;145750005;12473549085;30541514;933083179;4;0;1384;0;3;3
4;75;1570302156090;1570302162872;6782;22982238286;63961206455;1881948634;133521089;12473214168;30643503;931773884;8;0;1424;0;5;6
4;76;1570302162897;1570302169682;6785;22954526026;63964532240;1860755087;136220265;12473648813;30561802;932209913;4;0;1384;0;3;3
4;77;1570302169707;1570302176497;6790;22979934114;63968381793;1852076540;134872862;12474000849;30633430;930793358;33;18;7800;0;98;292
4;78;1570302176522;1570302183320;6798;23033147902;63963469239;1893666273;142361396;12473437144;30672324;931202901;5;0;1400;0;3;3
4;79;1570302183347;1570302190126;6779;22984165340;63964615454;1855586648;137411583;12473629534;30557014;933486438;4;0;1384;0;3;3
4;80;1570302190151;1570302197008;6857;22893658042;63961573812;1863080087;130213247;12473301102;30456017;933664398;7;0;1408;0;12;12
4;81;1570302197033;1570302203848;6815;23077926394;63969655189;1887838187;138079587;12474439089;30600082;930648804;4;0;1384;0;4;4
4;82;1570302203873;1570302210663;6790;22978912552;63961914437;1869265041;142804188;12473422687;30578103;929045496;40;20;8432;0;102;327
4;83;1570302210691;1570302217515;6824;23103674954;63961885016;1897389548;139360604;12473260131;30476207;931631049;127;14;16792;1;416;639
4;84;1570302217540;1570302224421;6881;22954120292;63966772972;1866583740;133928019;12474184791;30525793;933298773;338;7;34176;-1;1065;1217
4;85;1570302224446;1570302231260;6814;23034091208;63961633160;1861991508;138293304;12473327527;30565779;932633700;4;0;1384;0;4;4
4;86;1570302231285;1570302238038;6753;22830401206;63963814950;1860523824;130614211;12473813502;30550036;932933037;4;0;1384;0;4;4
4;87;1570302238065;1570302244830;6765;22921281972;63962500308;1871940183;127294040;12473302023;30504931;931657914;5;0;1392;0;3;3
4;88;1570302244855;1570302251641;6786;22955748922;63966535191;1886586059;130441480;12473775871;30580637;933360207;42;18;8536;0;131;430
4;89;1570302251666;1570302258442;6776;22917527436;63967368829;1893267312;120315356;12474286719;30489115;931679310;74;1;2200;0;106;993
4;90;1570302258466;1570302265247;6781;22937583018;63962825915;1869905087;133581988;12473405671;30641202;931264831;4;0;1384;0;3;3
4;91;1570302265285;1570302272220;6935;23102838666;63962408040;1896926923;139250347;12473502505;30647020;934074629;4;0;1384;0;4;4
4;92;1570302272245;1570302278989;6744;22845788146;63966671511;1881210646;119446293;12474156714;30621453;932813511;4;0;1384;0;3;3
4;93;1570302279014;1570302285784;6770;22947577448;63966845524;1901734156;125664105;12473897812;30655324;931227483;81;26;10072;0;196;1045
4;94;1570302285808;1570302292562;6754;22882812140;63963333602;1858568512;121859502;12473429282;30621508;932045165;4;0;1384;0;4;4
4;95;1570302292588;1570302299413;6825;23051185764;63967407913;1889131057;138834256;12474007581;30580912;929749245;4;0;1384;0;4;4
4;96;1570302299438;1570302306228;6790;22989575662;63967025822;1906610385;127013097;12474078445;30534007;932528958;5;0;1408;0;4;4
4;97;1570302306253;1570302313142;6889;23018641342;63962633478;1891736853;128208586;12473302538;30597632;931396592;4;0;1384;0;5;5
4;98;1570302313167;1570302319917;6750;22815466136;63963332967;1875791238;115505728;12473402711;30631196;933733379;43;20;7632;0;119;537
4;99;1570302319944;1570302326762;6818;22937524180;63967006860;1853213761;134755860;12474348730;30637098;931883165;4;0;1384;0;3;3
4;100;1570302326787;1570302333555;6768;22882768194;63966350115;1881937689;122999773;12473744403;30590935;930049700;6;0;1408;0;4;4
4;101;1570302333579;1570302340360;6781;22960165714;63964522542;1862424150;132423774;12473503369;30522294;932550683;4;0;1384;0;3;3
4;102;1570302340385;1570302347159;6774;22943131456;63963146076;1898239385;122482975;12473388956;30598035;930725970;49;16;8240;0;106;496
4;103;1570302347185;1570302353960;6775;22929410814;63960846679;1849878702;127785844;12473211323;30517946;932453378;4;0;1384;0;3;3
