0;148;1570315600884;1570315604573;3689;12276239180;22729281896;1413244841;125446694;3708110920;36363390;745392896;0;0;0;0;0;0
0;149;1570315604612;1570315608188;3576;12243565986;22719075251;1409617468;124289828;3706224986;36378681;749408386;0;0;0;0;0;0
0;150;1570315608225;1570315611799;3574;12239819334;22730213590;1407895753;124307215;3708293887;36365657;745700754;1;0;8;0;0;0
0;151;1570315611837;1570315615405;3568;12229969152;22712979555;1405224393;124323171;3705118483;36343441;744862089;0;0;0;0;0;0
0;152;1570315615443;1570315619014;3571;12240266386;22721269939;1410025787;124286540;3706671155;36367520;745451140;0;0;0;0;0;0
0;153;1570315619051;1570315622633;3582;12277608806;22719511513;1408996124;125429420;3706265179;36401212;746131635;0;0;0;0;0;0
0;154;1570315622671;1570315626244;3573;12245080006;22711151685;1408765670;124369236;3704849965;36393889;748353174;0;0;0;0;0;0
0;155;1570315626283;1570315629863;3580;12258210662;22718103797;1414216354;125082842;3706113437;36366124;745438112;47;24;7016;0;102;496
0;156;1570315629900;1570315633470;3570;12230639584;22712933946;1406836845;124160224;3705128446;36373705;745285995;0;0;0;0;0;0
0;157;1570315633507;1570315637089;3582;12284387440;22720095914;1415726575;124946247;3706511363;36335577;747064909;0;0;0;0;0;0
0;158;1570315637126;1570315640702;3576;12253213520;22721821612;1412798189;124983203;3706735049;36352022;748845688;0;0;0;0;0;0
0;159;1570315640741;1570315644311;3570;12234136430;22721093180;1404229980;124459437;3706543385;36372103;745811941;0;0;0;0;0;0
0;160;1570315644348;1570315647935;3587;12257580672;22719951767;1409095849;125010075;3706460715;36377902;745950674;0;0;0;0;0;0
0;161;1570315647973;1570315651543;3570;12231026776;22720375947;1398685738;123963459;3706470677;36342395;747309076;0;0;0;0;0;0
0;162;1570315651581;1570315655151;3570;12230767480;22708919692;1402430548;124241769;3704430135;36401548;748141092;0;0;0;0;0;0
0;163;1570315655191;1570315658781;3590;12294316754;22727920482;1416483613;125497304;3707916706;36364566;748023618;315;14;39984;1;945;1578
0;164;1570315658819;1570315662407;3588;12273799666;22712062403;1413615799;125407429;3704941620;36419238;747527825;162;8;9120;-1;476;502
0;165;1570315662445;1570315666042;3597;12276251152;22735825013;1406526750;125204892;3709276578;36375622;750181499;0;0;0;0;0;0
0;166;1570315666079;1570315669654;3575;12244324748;22726928473;1410269941;124551165;3707645844;36521116;749727794;0;0;0;0;0;0
0;167;1570315669693;1570315673269;3576;12260180348;22722652942;1408519981;124849629;3706863366;36396418;747404991;1;0;8;0;0;0
0;168;1570315673307;1570315676893;3586;12289106890;22725959603;1414378563;124840861;3707578961;36446961;748651066;0;0;0;0;0;0
0;169;1570315676930;1570315680511;3581;12271005956;22729368500;1415266603;124622509;3708113240;36435713;747018391;0;0;0;0;0;0
0;170;1570315680549;1570315684141;3592;12278638106;22719506756;1409452239;125545546;3706339895;36334476;746418550;0;0;0;0;0;0
0;171;1570315684180;1570315687754;3574;12243756078;22727926926;1421427988;124522494;3707805567;36351198;752632574;0;0;0;0;0;0
0;172;1570315687791;1570315691371;3580;12261217532;22720924451;1414853543;124886934;3706590127;36798800;749435448;123;16;7552;0;145;2178
0;173;1570315691408;1570315695000;3592;12266261394;22730079474;1418559949;125049111;3708182767;36347876;750813705;0;0;0;0;0;0
0;174;1570315695037;1570315698620;3583;12259993614;22727330156;1409560794;124654670;3707762297;36542635;745811317;0;0;0;0;0;0
0;175;1570315698659;1570315702239;3580;12245142348;22717774070;1402701113;124798622;3706092472;36411841;746875039;0;0;0;0;0;0
0;176;1570315702276;1570315705853;3577;12265767476;22712649646;1417609701;124498702;3705037277;36382857;746160930;11;0;184;0;5;28
0;177;1570315705891;1570315709473;3582;12272545672;22719406428;1416085725;124660120;3706295480;36788419;749305428;0;0;0;0;0;0
0;178;1570315709511;1570315713089;3578;12265580450;22719784235;1407900008;124716045;3706367997;36676298;746840946;0;0;0;0;0;0
0;179;1570315713128;1570315716716;3588;12251102798;22718599442;1418634835;124941830;3706160813;36599191;753056438;0;0;0;0;0;0
0;180;1570315716753;1570315720342;3589;12288287246;22718124991;1413356446;125519271;3706067030;36398021;748017150;4;0;64;0;1;1
0;181;1570315720380;1570315724065;3685;12282954596;22718833995;1416018354;124667584;3706271551;36352663;749593118;71;30;10704;0;158;1134
0;182;1570315724103;1570315727679;3576;12237154980;22719311536;1399614756;124462901;3706292706;36370776;746478666;0;0;0;0;0;0
0;183;1570315727717;1570315731300;3583;12267864620;22720424140;1413733615;124282180;3706482150;36410410;751390354;0;0;0;0;0;0
0;184;1570315731337;1570315734923;3586;12268693754;22719765248;1410883654;124451298;3706293768;36521880;749772187;0;0;0;0;0;0
0;185;1570315734960;1570315738537;3577;12257968886;22736291714;1406932700;124635384;3709316088;36352064;749205460;0;0;0;0;0;0
0;186;1570315738574;1570315742161;3587;12303913334;22718554430;1417021162;125330088;3706113934;36483359;746048061;0;0;0;0;0;0
0;187;1570315742200;1570315745790;3590;12306910714;22727083065;1416426559;125396883;3707673889;36931169;750643277;0;0;0;0;0;0
0;188;1570315745827;1570315749404;3577;12260507242;22719426360;1416343172;124355965;3706268252;36336718;746805462;0;0;0;0;0;0
0;189;1570315749441;1570315753022;3581;12271526592;22717471296;1420081393;124483948;3705948778;36351167;755452970;42;18;5944;0;120;447
0;190;1570315753059;1570315756643;3584;12286480934;22737675705;1405229806;124955644;3709522583;36359704;744034061;0;0;0;0;0;0
0;191;1570315756682;1570315760269;3587;12269105620;22716904423;1413210895;124610272;3705818364;36424812;748740374;0;0;0;0;0;0
0;192;1570315760307;1570315763899;3592;12301256572;22726597816;1415311778;125567082;3707632414;36616898;746095638;0;0;0;0;0;0
0;193;1570315763937;1570315767517;3580;12268269040;22727665560;1414372181;124510271;3707795226;36320446;748194554;0;0;0;0;0;0
0;194;1570315767554;1570315771149;3595;12317991530;22718421925;1421699703;125408203;3706103441;36481206;746666839;0;0;0;0;0;0
0;195;1570315771188;1570315774878;3690;12304724218;22719682563;1419981765;125035344;3706252724;36409919;750172492;0;0;0;0;0;0
0;196;1570315774916;1570315778504;3588;12293667054;22721506900;1420952230;124754328;3706600299;36359555;750502072;0;0;0;0;0;0
0;197;1570315778542;1570315782135;3593;12303577680;22728303642;1413730883;125326400;3707928712;36707694;749871760;4;0;64;0;10;12
1;148;1570316428933;1570316432526;3593;12302934988;22546272801;1430653933;124541200;3680509476;37084715;750824655;93;2;6296;0;177;1593
1;149;1570316432564;1570316436152;3588;12285436304;22547585578;1440055635;124688514;3680784450;36712410;753253422;0;0;0;0;0;0
1;150;1570316436190;1570316439772;3582;12284177200;22539832280;1431977751;124936892;3679344902;37281758;750191821;0;0;0;0;0;0
1;151;1570316439811;1570316443381;3570;12238043098;22547701131;1422882111;123835172;3680696002;36766976;749006129;0;0;0;0;0;0
1;152;1570316443418;1570316446999;3581;12281372686;22543686391;1425591288;124608080;3680068305;36707636;751201783;4;0;64;0;24;24
1;153;1570316447036;1570316450619;3583;12280437410;22537371544;1431713833;124207205;3678888152;36689049;749058388;0;0;0;0;0;0
1;154;1570316450657;1570316454237;3580;12268221298;22544992675;1427517864;124241839;3680335237;36750598;750559364;0;0;0;0;0;0
1;155;1570316454275;1570316457867;3592;12309932914;22538664367;1426666818;125176225;3679190799;36820155;746650002;0;0;0;0;0;0
1;156;1570316457904;1570316461493;3589;12298212618;22555611211;1430877672;125102366;3682161442;36694937;750809768;77;8;6256;0;178;1249
1;157;1570316461530;1570316465100;3570;12241966410;22540615479;1415353015;124527955;3679416251;36661497;746296745;1;0;8;0;0;0
1;158;1570316465137;1570316468817;3680;12260360074;22536908795;1420713003;124077908;3678832925;36691459;750223380;0;0;0;0;0;0
1;159;1570316468855;1570316472434;3579;12256357776;22546849617;1422331975;124211475;3680546081;36711926;749717368;284;4;31792;1;836;1931
1;160;1570316472472;1570316476078;3606;12303128438;22555558022;1422948123;125105537;3682181338;36725089;751561933;220;8;17056;-1;614;669
1;161;1570316476115;1570316479718;3603;12316301580;22538565925;1438858475;124659457;3679116541;36703174;749633884;4;0;64;0;27;27
1;162;1570316479756;1570316483338;3582;12259193680;22525997809;1427954740;124864740;3676907874;36722560;749940837;0;0;0;0;0;0
1;163;1570316483377;1570316486950;3573;12233182758;22547052957;1417877009;124324821;3680665801;36803436;748787260;0;0;0;0;0;0
1;164;1570316486987;1570316490565;3578;12265654180;22530228230;1423463311;124516815;3677568031;36711205;747324591;0;0;0;0;0;0
1;165;1570316490602;1570316494193;3591;12275224918;22536383016;1431858591;124622554;3678772203;36687898;748285157;0;0;0;0;0;0
1;166;1570316494231;1570316497822;3591;12298619520;22548986904;1434826265;124775643;3681014986;36914912;746129258;0;0;0;0;0;0
1;167;1570316497861;1570316501544;3683;12282620840;22553710001;1419886588;125063277;3681828414;36870429;746253437;0;0;0;0;0;0
1;168;1570316501581;1570316505150;3569;12236787060;22538333075;1422228451;124113208;3679033894;36817597;747397241;0;0;0;0;0;0
1;169;1570316505187;1570316508765;3578;12260019748;22531148716;1416803084;124310060;3677726707;36675107;744516092;205;8;8976;0;324;6218
1;170;1570316508802;1570316512385;3583;12261742402;22549069377;1416045247;124348249;3680951182;36687735;746930307;0;0;0;0;0;0
1;171;1570316512424;1570316516006;3582;12283760224;22545821707;1418626247;123992618;3680408513;37051115;747890049;0;0;0;0;0;0
1;172;1570316516043;1570316519638;3595;12317027346;22554827951;1434055977;125325989;3682083822;36742127;749220180;0;0;0;0;0;0
1;173;1570316519675;1570316523268;3593;12277204970;22547718907;1427924193;124326669;3680792254;36703708;751211030;0;0;0;0;0;0
1;174;1570316523305;1570316526885;3580;12265261878;22528414746;1430160445;124843744;3677264826;36954313;746626241;0;0;0;0;0;0
1;175;1570316526923;1570316530508;3585;12271967366;22537120294;1418411283;124242224;3678850461;36820240;746876780;0;0;0;0;0;0
1;176;1570316530546;1570316534116;3570;12235531606;22536069394;1412934585;123678766;3678661350;37297234;748635296;0;0;0;0;0;0
1;177;1570316534153;1570316537730;3577;12264629844;22547807204;1417527334;124650685;3680738096;36840875;747045668;118;24;11728;0;256;3621
1;178;1570316537768;1570316541349;3581;12280625458;22545668792;1426221508;124574399;3680373770;36824187;750233640;5;0;72;0;25;26
1;179;1570316541388;1570316544983;3595;12287488334;22545783219;1421232022;125155084;3680420124;36707718;749288001;0;0;0;0;0;0
1;180;1570316545021;1570316548598;3577;12247864664;22549843260;1420219420;124124007;3681559514;36681529;749744545;0;0;0;0;0;0
1;181;1570316548635;1570316552217;3582;12276878076;22533364479;1420174124;124462630;3678516786;36788281;747007314;0;0;0;0;0;0
1;182;1570316552254;1570316555843;3589;12306082456;22545042070;1423085208;124653047;3680528910;36843651;748153333;0;0;0;0;0;0
1;183;1570316555881;1570316559463;3582;12268526584;22552889318;1417524190;124231652;3681909436;36682441;746817870;0;0;0;0;0;0
1;184;1570316559500;1570316563087;3587;12273978808;22541062676;1419711815;124781446;3679806663;36730520;748731450;0;0;0;0;0;0
1;185;1570316563124;1570316566804;3680;12264998202;22541274313;1428319940;124395467;3679809228;36779811;750031283;0;0;0;0;0;0
1;186;1570316566842;1570316570431;3589;12294546266;22540157560;1440381979;124674898;3679653331;36810636;750885551;114;8;7576;0;233;3427
1;187;1570316570469;1570316574052;3583;12267929590;22534561096;1421970224;124803164;3678597933;36689176;744555450;0;0;0;0;0;0
1;188;1570316574089;1570316577672;3583;12280174902;22534204509;1435650318;124708829;3678508377;36702549;748196675;0;0;0;0;0;0
1;189;1570316577709;1570316581288;3579;12267441804;22549078213;1429828844;125210987;3681306333;36682642;748930392;0;0;0;0;0;0
1;190;1570316581326;1570316584991;3665;12222243270;22536658476;1425336322;123263467;3678968418;36836121;745943697;0;0;0;0;0;0
1;191;1570316585030;1570316588614;3584;12265239102;22527804000;1419295572;123975171;3677371263;36701582;747636696;0;0;0;0;0;0
1;192;1570316588651;1570316592235;3584;12275238058;22537724520;1425653050;124406264;3679119516;36711442;750298986;0;0;0;0;0;0
1;193;1570316592273;1570316595849;3576;12260586666;22543930129;1412237154;124017523;3680332571;36791678;743559846;0;0;0;0;0;0
1;194;1570316595886;1570316599464;3578;12262740458;22535531016;1419266256;124558246;3678739942;36679294;749192434;72;10;7024;0;154;1106
1;195;1570316599503;1570316603082;3579;12272734012;22539700448;1417816290;124336030;3679592503;36740040;743016461;4;0;40;0;9;10
1;196;1570316603119;1570316606703;3584;12276961442;22542838123;1426735629;124651460;3680113836;36808655;747653502;0;0;0;0;0;0
1;197;1570316606740;1570316610422;3682;12270154192;22544154717;1422041495;124302361;3680316332;36820192;748361608;0;0;0;0;0;0
2;140;1570317251910;1570317255527;3617;12393693260;22648557780;1420738114;124897880;3685369218;36499864;749358539;0;0;0;0;0;0
2;141;1570317255559;1570317259263;3704;12356203818;22648725354;1413047301;124615987;3685357244;36515837;749220772;5;0;72;0;9;10
2;142;1570317259295;1570317262908;3613;12387477602;22657604884;1421165783;125106192;3686977393;36512546;749613013;0;0;0;0;0;0
2;143;1570317262942;1570317266557;3615;12383736206;22658373596;1424307099;124377860;3687089330;36526647;751909686;0;0;0;0;0;0
2;144;1570317266589;1570317270194;3605;12369704584;22649997031;1417781177;124436357;3685578438;36522695;754502923;42;18;6576;0;75;415
2;145;1570317270227;1570317273938;3711;12379410080;22647332529;1415873591;124818209;3685124549;36499730;749379698;0;0;0;0;0;0
2;146;1570317273971;1570317277587;3616;12393374542;22648381835;1421169872;124795657;3685316363;36494529;752655084;458;9;45400;1;1267;1887
2;147;1570317277621;1570317281251;3630;12442543546;22649101468;1430867529;126012258;3685479404;36534779;752146882;24;7;2456;-1;147;164
2;148;1570317281283;1570317284902;3619;12388936872;22657179220;1429016462;124533218;3686855725;36539614;754983573;0;0;0;0;0;0
2;149;1570317284934;1570317288755;3821;12393920290;22657757899;1416964580;124902291;3687005401;36521825;749916189;5;0;72;0;36;37
2;150;1570317288788;1570317292398;3610;12374728882;22650810273;1420596777;124152115;3685704224;36523108;752201406;0;0;0;0;0;0
2;151;1570317292431;1570317296047;3616;12400396996;22666529718;1423272725;124381538;3688607311;36816658;752144561;0;0;0;0;0;0
2;152;1570317296079;1570317299686;3607;12363208022;22638831341;1418365115;124623578;3683609557;36495976;751155444;0;0;0;0;0;0
2;153;1570317299719;1570317303826;4107;12418552096;22647308387;1424707495;125195305;3685131806;36514660;748990763;97;0;3880;0;212;2817
2;154;1570317303858;1570317307486;3628;12429263678;22641837780;1427148753;125977357;3684069108;36505388;746722207;0;0;0;0;0;0
2;155;1570317307519;1570317311138;3619;12391079130;22647663580;1426990290;124690049;3685173897;36874000;751399100;120;42;13072;0;256;3282
2;156;1570317311170;1570317314885;3715;12392133688;22648535622;1422945719;125503744;3685286272;36508773;749287749;0;0;0;0;0;0
2;157;1570317314917;1570317318538;3621;12415689912;22659654518;1442412124;125006778;3687307581;36499111;754616629;0;0;0;0;0;0
2;158;1570317318570;1570317322282;3712;12372619474;22656340278;1416777366;124774575;3686762788;36518137;748895087;0;0;0;0;0;0
2;159;1570317322316;1570317325931;3615;12396071746;22657179632;1431472206;125778657;3686857342;36521559;752573263;0;0;0;0;0;0
2;160;1570317325964;1570317329681;3717;12364041390;22658569061;1420582633;124429732;3687151392;36514184;749529335;0;0;0;0;0;0
2;161;1570317329713;1570317333325;3612;12362287346;22664695576;1423593537;124642264;3688355092;36498054;751244116;3;0;32;0;1;1
2;162;1570317333358;1570317337071;3713;12372487928;22640844859;1420473931;124460252;3683918693;36518326;750001805;0;0;0;0;0;0
2;163;1570317337104;1570317340721;3617;12395667618;22648595878;1436324597;124723596;3685365650;36527739;755114372;37;22;6992;0;112;399
2;164;1570317340753;1570317344473;3720;12395747188;22648611409;1428279930;125109754;3685268710;36547378;752527458;0;0;0;0;0;0
2;165;1570317344505;1570317348216;3711;12358666984;22657899084;1427047774;124203165;3687034397;36514378;752840730;1;0;8;0;0;0
2;166;1570317348249;1570317351858;3609;12361568004;22657563586;1410863398;124868091;3686971707;36549097;747628407;0;0;0;0;0;0
2;167;1570317351892;1570317355513;3621;12420067138;22657054219;1447457380;124953105;3686882793;36512682;756862756;0;0;0;0;0;0
2;168;1570317355545;1570317359163;3618;12405898568;22649869891;1425486790;125366354;3685540787;36521595;750473739;0;0;0;0;0;0
2;169;1570317359196;1570317362814;3618;12408754474;22657865791;1440427599;125229378;3687054906;36501210;755431429;0;0;0;0;0;0
2;170;1570317362847;1570317366475;3628;12427050318;22659319689;1437325764;125331289;3687314041;36500636;751934678;4;0;64;0;22;22
2;171;1570317366509;1570317370127;3618;12404798458;22649726703;1430738885;125384450;3685519610;36535592;755272628;0;0;0;0;0;0
2;172;1570317370160;1570317373768;3608;12373017908;22648495603;1421426134;124384223;3685295064;36524318;750384097;66;12;6832;0;129;937
2;173;1570317373800;1570317377439;3639;12428689314;22658455192;1443238988;124998697;3687095670;36521908;756257977;0;0;0;0;0;0
2;174;1570317377472;1570317381080;3608;12368709010;22639323570;1416069555;124332261;3683633581;36529469;748564192;0;0;0;0;0;0
2;175;1570317381113;1570317384730;3617;12385028160;22639638413;1433574276;124396846;3683730705;36528491;754649948;0;0;0;0;0;0
2;176;1570317384763;1570317388367;3604;12351671832;22640134375;1423038215;124596018;3683752986;36536980;752391588;0;0;0;0;0;0
2;177;1570317388399;1570317392115;3716;12400808278;22657518739;1438450454;124880052;3686984277;36518815;755791967;0;0;0;0;0;0
2;178;1570317392148;1570317395769;3621;12414131362;22648542711;1434560325;125508337;3685355055;36517577;750830142;15;0;3184;0;46;114
2;179;1570317395802;1570317399425;3623;12377921902;22648440289;1437150572;124321107;3685334192;36497776;756696865;0;0;0;0;0;0
2;180;1570317399458;1570317403081;3623;12402714162;22663094349;1418389446;124974457;3688237448;36505666;749880623;76;22;8112;0;165;1304
2;181;1570317403113;1570317406725;3612;12387676892;22637010822;1429814417;124877040;3683554274;36516604;750743549;0;0;0;0;0;0
2;182;1570317406758;1570317410377;3619;12414388760;22645694175;1431452677;124864250;3685130675;36483751;752056178;0;0;0;0;0;0
2;183;1570317410411;1570317414035;3624;12424125062;22654632622;1433882695;125227988;3686714209;36516264;754223616;0;0;0;0;0;0
2;184;1570317414067;1570317417679;3612;12360470960;22653090772;1421546671;124513175;3686394817;36523346;749607893;0;0;0;0;0;0
2;185;1570317417711;1570317421324;3613;12388281624;22653260702;1439333732;124785670;3686458131;36504783;754389240;0;0;0;0;0;0
2;186;1570317421356;1570317424968;3612;12384515700;22664041094;1420827289;124839832;3688322637;36509586;750257552;3;0;32;0;1;1
2;187;1570317425002;1570317428614;3612;12381310708;22636809151;1410314529;124348645;3683352832;36672945;745986070;0;0;0;0;0;0
2;188;1570317428646;1570317432262;3616;12395590238;22653279808;1424276818;125096232;3686473943;36651585;752540178;83;10;7312;0;158;1309
2;189;1570317432294;1570317435905;3611;12384610162;22646443971;1423902796;124345465;3685125349;36694751;749772792;0;0;0;0;0;0
3;145;1570318075502;1570318079132;3630;12450782910;22691004206;1422984223;125598932;3697282940;36577055;745105365;0;0;0;0;0;0
3;146;1570318079167;1570318082794;3627;12432541524;22698277048;1431635048;124782821;3698624559;36608654;749729405;0;0;0;0;0;0
3;147;1570318082830;1570318086553;3723;12420798598;22699335471;1419664920;124585162;3698813772;36623932;746724669;56;24;7856;0;137;691
3;148;1570318086587;1570318090221;3634;12440155132;22689709027;1424368021;124800706;3697074909;36752494;747220958;0;0;0;0;0;0
3;149;1570318090255;1570318093895;3640;12463585212;22698352405;1426503852;124892809;3698630779;36591552;744831890;0;0;0;0;0;0
3;150;1570318093930;1570318097569;3639;12477630120;22708527568;1427920039;125715690;3700474415;36602904;743891664;2;0;16;0;0;0
3;151;1570318097605;1570318101236;3631;12448280178;22699639906;1422274186;125195670;3698807980;36589611;746203692;415;12;45056;1;1070;1699
3;152;1570318101270;1570318105015;3745;12488187672;22706384725;1423116839;125866012;3700078196;36607300;749307266;68;8;4080;-1;341;366
3;153;1570318105050;1570318108685;3635;12463794138;22715433116;1428731943;125202146;3701777568;36601557;748625051;0;0;0;0;0;0
3;154;1570318108719;1570318112351;3632;12446728490;22691140324;1433145176;125064894;3697273027;36585685;749736663;2;0;24;0;0;0
3;155;1570318112386;1570318116016;3630;12445603852;22698302984;1424008377;125074567;3698563968;36617704;744980904;0;0;0;0;0;0
3;156;1570318116051;1570318119881;3830;12447044288;22698831050;1427128339;125222028;3698701005;36604817;747462047;0;0;0;0;0;0
3;157;1570318119915;1570318123551;3636;12472154390;22707097677;1432606179;126140958;3700253361;36602318;747575721;0;0;0;0;0;0
3;158;1570318123586;1570318127216;3630;12445550562;22699042455;1425569498;124770962;3698748848;36612886;748797764;1;1;16;0;0;0
3;159;1570318127251;1570318130875;3624;12432097684;22716694296;1417538280;124505365;3701931094;36776306;747655241;0;0;0;0;0;0
3;160;1570318130910;1570318134545;3635;12416036808;22707984172;1416611169;124675419;3700398962;36638648;746072283;0;0;0;0;0;0
3;161;1570318134580;1570318138199;3619;12405915358;22700570711;1418068065;124573355;3699002008;36600605;747082142;52;20;6480;0;107;596
3;162;1570318138234;1570318141871;3637;12462039072;22715116473;1429588534;125479404;3701695537;36610893;753710002;0;0;0;0;0;0
3;163;1570318141907;1570318145651;3744;12441710762;22708420896;1427527750;125006458;3700418679;36637751;749011112;81;0;848;0;167;1446
3;164;1570318145685;1570318149324;3639;12445355944;22698436883;1423830927;125755859;3698645764;36601820;746698022;0;0;0;0;0;0
3;165;1570318149358;1570318152988;3630;12415690934;22699242430;1424794419;124936434;3698767298;36631321;748782865;0;0;0;0;0;0
3;166;1570318153022;1570318156760;3738;12471051652;22717628058;1426717691;125454824;3702087227;36649748;752012937;0;0;0;0;0;0
3;167;1570318156797;1570318160425;3628;12436460602;22707638098;1425500051;124980196;3700321290;36583833;748502944;2;0;16;0;0;0
3;168;1570318160460;1570318164093;3633;12445963158;22699697987;1429872298;124794108;3698858383;36652100;746912678;0;0;0;0;0;0
3;169;1570318164128;1570318167767;3639;12469846422;22705156337;1431221915;125924729;3699931786;36626646;748868174;90;32;11472;0;222;1397
3;170;1570318167801;1570318171445;3644;12477933216;22708576999;1429523483;124861243;3700509250;36594489;748507050;0;0;0;0;0;0
3;171;1570318171481;1570318175107;3626;12433996560;22707385874;1424991129;124832207;3700261606;36612112;748880367;3;0;56;0;1;1
3;172;1570318175142;1570318178775;3633;12443288438;22715659979;1433031708;125026482;3701835170;36594321;752476866;0;0;0;0;0;0
3;173;1570318178810;1570318182466;3656;12473939678;22688846826;1430916205;125272896;3696918015;37060727;745672100;0;0;0;0;0;0
3;174;1570318182501;1570318186141;3640;12483249806;22709472379;1429938851;125530168;3700601931;36602722;749157086;0;0;0;0;0;0
3;175;1570318186177;1570318189811;3634;12443437942;22716669519;1427244967;124986433;3701991023;36610416;749202173;2;0;16;0;0;0
3;176;1570318189846;1570318193491;3645;12503194866;22698809397;1439872765;126059735;3698736031;36602927;747841785;0;0;0;0;0;0
3;177;1570318193525;1570318197148;3623;12412220222;22707537891;1414985608;124534252;3700272031;36597099;746070611;48;18;7088;0;122;569
3;178;1570318197183;1570318200805;3622;12426125992;22705778198;1424300954;124911452;3699991120;36596075;749771914;0;0;0;0;0;0
3;179;1570318200841;1570318204485;3644;12454135654;22698814128;1427453828;124974250;3698723032;36614501;750192942;1;0;16;0;0;0
3;180;1570318204520;1570318208157;3637;12465297646;22715407821;1423317446;125235687;3701954342;36605802;745237337;0;0;0;0;0;0
3;181;1570318208192;1570318211828;3636;12466618070;22704353307;1426593458;125889886;3700050976;36586328;748682730;0;0;0;0;0;0
3;182;1570318211862;1570318215484;3622;12427100980;22686137893;1429775928;124425872;3696726388;36589788;744739266;0;0;0;0;0;0
3;183;1570318215520;1570318219150;3630;12440732270;22696072730;1428757838;125025571;3698471453;36620986;746614203;0;0;0;0;0;0
3;184;1570318219184;1570318222821;3637;12440671242;22686473486;1428150949;124918236;3696678135;36630871;748216210;3;0;24;0;1;1
3;185;1570318222855;1570318226480;3625;12430621040;22696074577;1431127086;124528031;3698424551;36621729;748961978;54;14;6896;0;131;635
3;186;1570318226514;1570318230153;3639;12481195440;22696676183;1437745887;125810941;3698502639;36606460;747891534;0;0;0;0;0;0
3;187;1570318230189;1570318233816;3627;12440605542;22695484915;1426111876;125092887;3698370652;36632314;746286387;0;0;0;0;0;0
3;188;1570318233850;1570318237486;3636;12471271674;22686992413;1430112008;125907590;3696801807;36594181;746192294;1;0;16;0;0;0
3;189;1570318237521;1570318241158;3637;12462359542;22714288582;1442783788;124949298;3701716709;36592216;748519953;0;0;0;0;0;0
3;190;1570318241192;1570318244919;3727;12433566298;22696623860;1431465600;125026337;3698528776;36572528;745595315;0;0;0;0;0;0
3;191;1570318244955;1570318248888;3933;12430807190;22687474448;1426272227;125414386;3696859975;36609259;749598739;0;0;0;0;0;0
3;192;1570318248923;1570318252660;3737;12461576544;22697094238;1434111818;125438710;3698589249;36878166;749952204;2;0;16;0;1;1
3;193;1570318252694;1570318256339;3645;12487864866;22713598283;1431860263;126018329;3701597304;36589096;749204434;63;10;6992;0;125;826
3;194;1570318256373;1570318260099;3726;12430845004;22696242143;1424659621;124806292;3698419447;36601771;746566105;0;0;0;0;0;0
4;146;1570318897905;1570318901501;3596;12324298292;22677061031;1415844016;124799642;3686055437;36345123;743954253;0;0;0;0;0;0
4;147;1570318901538;1570318905143;3605;12356773948;22668622297;1427025578;124687450;3684467930;36337987;750994656;43;22;7392;0;149;429
4;148;1570318905179;1570318908791;3612;12361796202;22687596183;1410931906;124797133;3687865851;36377197;747853214;0;0;0;0;0;0
4;149;1570318908826;1570318912544;3718;12377281692;22679091049;1422677028;125350102;3686351245;36422102;748007880;0;0;0;0;0;0
4;150;1570318912579;1570318916181;3602;12345243598;22670158460;1424564868;124697469;3684792279;36347127;751075826;0;0;0;0;0;0
4;151;1570318916218;1570318919828;3610;12373737250;22669844063;1414893021;125522817;3684645927;36360321;741862957;0;0;0;0;0;0
4;152;1570318919864;1570318923468;3604;12348547432;22668973906;1419373246;125308532;3684515031;36377982;744313462;3;0;56;0;1;1
4;153;1570318923503;1570318927111;3608;12366242632;22677912625;1422556428;125605096;3686193287;36310517;749344043;486;13;48344;0;1368;2233
4;154;1570318927148;1570318930762;3614;12395507748;22679664289;1422341311;125695861;3686415765;36369721;744658374;7;7;1912;0;47;63
4;155;1570318930799;1570318934420;3621;12411734188;22669950790;1429748364;125090135;3684708592;37171092;747584132;0;0;0;0;0;0
4;156;1570318934456;1570318938066;3610;12379955390;22686807405;1418829534;125682805;3687758809;36396522;744849328;2;0;16;0;0;0
4;157;1570318938102;1570318941704;3602;12345765256;22669332053;1413407446;124857213;3684595250;36399122;741653526;0;0;0;0;0;0
4;158;1570318941740;1570318945348;3608;12372138404;22670364211;1413333047;124691810;3684807644;37504036;744381436;0;0;0;0;0;0
4;159;1570318945385;1570318948986;3601;12338268156;22660642723;1412575648;125068142;3683032394;36385751;742747165;0;0;0;0;0;0
4;160;1570318949022;1570318952637;3615;12355202550;22670175963;1424680437;125307647;3684772492;36402448;745622374;1;0;16;0;0;0
4;161;1570318952673;1570318956298;3625;12390313068;22679486503;1427221746;126064860;3686431176;36630605;747797232;0;0;0;0;0;0
4;162;1570318956334;1570318959946;3612;12369561212;22675930164;1428163188;124990081;3685839846;36624378;745730192;49;22;7568;0;114;588
4;163;1570318959983;1570318963694;3711;12358132332;22668538227;1414055515;124300404;3684449701;36520053;748720821;0;0;0;0;0;0
4;164;1570318963729;1570318967336;3607;12358875034;22670077655;1422410487;124689169;3684750175;36328461;748441135;79;0;816;0;54;2002
4;165;1570318967372;1570318970985;3613;12362310852;22662688357;1423479317;124887056;3683387048;36443677;746329355;0;0;0;0;0;0
4;166;1570318971021;1570318974632;3611;12380003132;22678939898;1432063728;125482352;3686347572;36357565;752168946;0;0;0;0;0;0
4;167;1570318974669;1570318978271;3602;12348995798;22668183272;1422186542;125027393;3684423572;36789061;744961590;0;0;0;0;0;0
4;168;1570318978307;1570318982219;3912;12363828960;22678950582;1409070302;125439682;3686315373;36407385;742988616;2;0;48;0;5;5
4;169;1570318982255;1570318985857;3602;12339552080;22680315130;1416636070;124628670;3686519209;36626489;746372498;0;0;0;0;0;0
4;170;1570318985893;1570318989519;3626;12409442134;22687705697;1428890125;125918826;3687993276;36737178;744492766;89;32;11696;0;173;1487
4;171;1570318989556;1570318993265;3709;12363957732;22679007418;1414027113;125111667;3686336088;36393006;743125810;0;0;0;0;0;0
4;172;1570318993301;1570318996903;3602;12345784382;22668203104;1426556773;125188704;3684398597;36311382;751299412;3;0;24;0;1;1
4;173;1570318996938;1570319000564;3626;12385178540;22663119973;1435455473;126293352;3683371337;36369947;749765666;0;0;0;0;0;0
4;174;1570319000600;1570319004202;3602;12340717160;22677734211;1423046759;124503599;3686103450;36329374;745898923;0;0;0;0;0;0
4;175;1570319004239;1570319007854;3615;12387489282;22679070707;1418968441;125511973;3686293953;36670406;749482584;0;0;0;0;0;0
4;176;1570319007890;1570319011499;3609;12378140318;22685862393;1423749123;125352326;3687590357;36357198;747824882;0;0;0;0;0;0
4;177;1570319011534;1570319015141;3607;12361036710;22670065967;1419561259;124822135;3684786321;36648399;747003585;2;0;48;0;0;0
4;178;1570319015177;1570319018791;3614;12388322358;22682404561;1427898914;125949223;3686884485;36522437;754335103;0;0;0;0;0;0
4;179;1570319018828;1570319022445;3617;12358200368;22679224619;1413131606;125457554;3686406396;36456871;743159238;0;0;0;0;0;0
4;180;1570319022481;1570319026093;3612;12378398884;22679128361;1424676287;126014735;3686426140;36418469;745443562;52;18;7216;0;92;581
4;181;1570319026128;1570319029734;3606;12367348874;22680086677;1421153475;124968116;3686462783;36409118;741142556;2;0;16;0;0;0
4;182;1570319029770;1570319033392;3622;12408352682;22671490760;1425215462;125284872;3684930658;37277678;746553963;0;0;0;0;0;0
4;183;1570319033430;1570319037149;3719;12398347740;22677147496;1425372559;125645593;3686047665;36760728;743233673;0;0;0;0;0;0
4;184;1570319037185;1570319040803;3618;12379441470;22670413944;1422122556;125005817;3684776426;36719244;741128942;0;0;0;0;0;0
4;185;1570319040839;1570319044471;3632;12430199684;22670464892;1431632756;125968956;3684760796;37301122;745099699;12;0;2424;0;66;147
4;186;1570319044506;1570319048109;3603;12349390144;22668374494;1433886072;125116474;3684351864;36386528;745172717;0;0;0;0;0;0
4;187;1570319048146;1570319051763;3617;12394702558;22669345090;1424370936;125469381;3684497421;36382174;744348614;0;0;0;0;0;0
4;188;1570319051798;1570319055405;3607;12361325790;22671285784;1428259057;125301865;3684841986;36551603;744984724;58;18;7792;0;110;671
4;189;1570319055440;1570319059044;3604;12360323500;22688054176;1414377029;125031041;3687899129;36388513;740472773;0;0;0;0;0;0
4;190;1570319059080;1570319062704;3624;12423354182;22669315636;1435485865;126299210;3684517199;36959978;742064302;0;0;0;0;0;0
4;191;1570319062741;1570319066357;3616;12374593102;22678435586;1424723787;124576923;3686204023;36979239;746915026;0;0;0;0;0;0
4;192;1570319066393;1570319070002;3609;12367631676;22679889091;1426653150;125150958;3686449001;36367530;746361770;0;0;0;0;0;0
4;193;1570319070038;1570319073649;3611;12375922286;22670207253;1431859406;125274109;3684661977;36492270;749309973;3;0;32;0;1;1
4;194;1570319073684;1570319077289;3605;12360228746;22678357328;1426877136;124666118;3686222345;36728224;749014283;0;0;0;0;0;0
4;195;1570319077326;1570319080939;3613;12392556796;22661229409;1423729908;125954602;3683088816;36354460;742586640;0;0;0;0;0;0
