0;53;1570427619126;1570427625648;6522;22637197508;67507850592;2694500870;21987;2813895417;307078;1406707694;0;0;0;0;0;0
0;54;1570427625648;1570427632119;6471;22632423600;67507850600;2654558235;12588;2813895425;308873;1406836301;39;10;6192;0;105;351
0;55;1570427632119;1570427638589;6470;22629600252;67507850592;2633505544;13086;2813895417;304715;1406581474;0;0;0;0;0;0
0;56;1570427638589;1570427645058;6469;22627460622;67507850587;2623650183;16923;2813895412;297730;1406917462;0;0;0;0;0;0
0;57;1570427645058;1570427651527;6469;22627211546;67507850591;2624424570;14046;2813895416;307547;1406611824;0;0;0;0;0;0
0;58;1570427651527;1570427657996;6469;22628034694;67507850589;2624351252;23097;2813895414;322928;1406721739;0;0;0;0;0;0
0;59;1570427657997;1570427669721;11724;22628956246;67507860408;2631833845;20662;2813897175;310749;1406634234;2;0;24;0;0;0
0;60;1570427669721;1570427676232;6511;22628855360;67507850590;2618355737;18303;2813895415;320483;1406571480;0;0;0;0;0;0
0;61;1570427676232;1570427685628;9396;22629070418;67507861007;2618427865;16552;2813897327;318795;1406731460;0;0;0;0;0;0
0;62;1570427685628;1570427692141;6513;22628512844;67507850589;2615936166;11355;2813895414;325270;1406535580;0;0;0;0;0;0
0;63;1570427692141;1570427698611;6470;22628983110;67507850593;2626797147;21312;2813895418;324133;1406584580;38;18;5680;0;112;384
0;64;1570427698611;1570427705081;6470;22626248968;67507850582;2618621182;17550;2813895407;305751;1406923745;0;0;0;0;0;0
0;65;1570427705081;1570427711551;6470;22626950060;67507850577;2628947525;19240;2813895402;323614;1406816780;0;0;0;0;0;0
0;66;1570427711551;1570427718021;6470;22626862022;67507850576;2627386000;10734;2813895401;318814;1406765493;0;0;0;0;0;0
0;67;1570427718021;1570427724491;6470;22627638742;67507850578;2624735578;13195;2813895403;319663;1406893485;4;0;32;0;10;12
0;68;1570427724491;1570427730960;6469;22626325326;67507850576;2624766227;9625;2813895401;309950;1406547401;0;0;0;0;0;0
0;69;1570427730961;1570427740201;9240;22626874870;67507860526;2622863860;20000;2813897210;299083;1406750283;37;12;6352;0;92;362
0;70;1570427740201;1570427746691;6490;22628146676;67507850575;2624496674;13880;2813895400;325383;1406820093;0;0;0;0;0;0
0;71;1570427746691;1570427753160;6469;22627700354;67507850574;2629547758;10905;2813895399;324733;1406870670;0;0;0;0;0;0
0;72;1570427753160;1570427759630;6470;22627673052;67507850580;2624258463;24642;2813895405;308751;1406837035;2;0;24;0;1;2
0;73;1570427759630;1570427766099;6469;22627131976;67507850574;2623974520;12209;2813895399;327153;1406849882;0;0;0;0;0;0
0;74;1570427766099;1570427772569;6470;22628555476;67507850576;2619338749;15241;2813895402;309149;1406731342;25;20;6160;0;96;241
0;75;1570427772570;1570427779039;6469;22627833944;67507850574;2630843778;12751;2813895399;297780;1406864134;0;0;0;0;0;0
0;76;1570427779039;1570427785508;6469;22627457994;67507850578;2627455016;12463;2813895403;296191;1406813880;4;0;32;0;9;18
0;77;1570427785508;1570427791978;6470;22626789898;67507850576;2627151015;12162;2813895401;296540;1406769097;0;0;0;0;0;0
0;78;1570427791978;1570427798447;6469;22627282502;67507850575;2625519446;10169;2813895400;297987;1406773340;0;0;0;0;0;0
0;79;1570427798447;1570427804915;6468;22626933708;67507850577;2621838763;14020;2813895402;306292;1406866981;4;0;32;0;1;3
0;80;1570427804916;1570427811386;6470;22627525884;67507850575;2616546915;17615;2813895400;307129;1406711536;0;0;0;0;0;0
0;81;1570427811386;1570427817855;6469;22627677140;67507850574;2619693326;20015;2813895399;323012;1406833586;108;18;11184;1;384;1011
0;82;1570427817855;1570427824324;6469;22628582778;67507850575;2621326106;41403;2813895400;306219;1406827803;385;8;41072;-1;1203;1310
0;83;1570427824324;1570427830794;6470;22627191106;67507850577;2607829496;20495;2813895402;301429;1406652561;2;0;16;0;0;0
0;84;1570427830794;1570427837264;6470;22628600152;67507850575;2620993282;15116;2813895400;315623;1406793047;0;0;0;0;0;0
0;85;1570427837264;1570427843732;6468;22625611824;67507850574;2610190213;21371;2813895399;296414;1406898027;0;0;0;0;0;0
0;86;1570427843732;1570427850201;6469;22629654272;67507850578;2625199096;15747;2813895403;295997;1406752166;127;36;8864;0;202;2362
0;87;1570427850201;1570427856671;6470;22628866748;67507850574;2599285752;44854;2813895399;318806;1406897056;0;0;0;0;0;0
0;88;1570427856671;1570427863140;6469;22627972060;67507850575;2642921768;13288;2813895400;296606;1406827559;0;0;0;0;0;0
0;89;1570427863140;1570427869610;6470;22626732520;67507850575;2616143959;22757;2813895400;296663;1406835319;0;0;0;0;0;0
0;90;1570427869610;1570427876080;6470;22627504130;67507850576;2615373551;15635;2813895401;316906;1406810490;0;0;0;0;0;0
0;91;1570427876080;1570427882551;6471;22627182200;67507850577;2624232381;35029;2813895402;296369;1406634726;2;0;16;0;1;1
0;92;1570427882551;1570427889022;6471;22627704588;67507850576;2634383256;16374;2813895401;296588;1406607777;0;0;0;0;0;0
0;93;1570427889022;1570427895492;6470;22627189062;67507850575;2617821716;28096;2813895400;297464;1406908039;29;12;5776;0;115;309
0;94;1570427895492;1570427901962;6470;22628674612;67507850576;2621927795;27679;2813895401;296031;1406708655;0;0;0;0;0;0
0;95;1570427901962;1570427908433;6471;22626767414;67507850575;2628238125;14567;2813895400;296504;1406770300;2;0;16;0;0;0
0;96;1570427908433;1570427914903;6470;22627753936;67507850576;2629036815;13776;2813895401;296624;1406811849;0;0;0;0;0;0
0;97;1570427914903;1570427921373;6470;22626479210;67507850574;2617905137;21013;2813895399;295867;1406827379;0;0;0;0;0;0
0;98;1570427921373;1570427927844;6471;22627288926;67507850580;2624497885;13325;2813895405;296063;1406639640;4;0;32;0;1;3
0;99;1570427927844;1570427934313;6469;22626433512;67507850574;2623807636;10997;2813895399;296109;1406880600;0;0;0;0;0;0
0;100;1570427934313;1570427940785;6472;22627328492;67507850578;2632632142;21559;2813895403;296767;1406597450;31;16;6128;0;102;275
0;101;1570427940785;1570427947255;6470;22627628084;67507850575;2610238081;17007;2813895400;296439;1406903861;0;0;0;0;0;0
0;102;1570427947255;1570427953725;6470;22627540776;67507850577;2629050593;13645;2813895402;329497;1406789054;0;0;0;0;0;0
1;53;1570428484030;1570428490545;6515;22627163804;67507850600;2623136848;20780;2813895425;318802;1406565241;4;0;32;0;1;4
1;54;1570428490545;1570428497015;6470;22627820804;67507850595;2630733108;11101;2813895420;323162;1406860677;0;0;0;0;0;0
1;55;1570428497015;1570428503485;6470;22627441350;67507850595;2621789323;18062;2813895420;323217;1406826940;3;0;24;0;1;3
1;56;1570428503485;1570428509955;6470;22627229796;67507850591;2627355131;17516;2813895416;305371;1406911714;31;14;5296;0;97;301
1;57;1570428509955;1570428516424;6469;22627827812;67507850591;2621143932;12954;2813895416;296906;1406917984;0;0;0;0;0;0
1;58;1570428516424;1570428526718;10294;22628434296;67507861009;2628782772;19667;2813897329;305170;1406690093;0;0;0;0;0;0
1;59;1570428526719;1570428533219;6500;22626994590;67507850593;2626826095;11753;2813895418;315460;1406538371;2;0;16;0;0;0
1;60;1570428533219;1570428539691;6472;22633512468;67507850594;2661391630;18925;2813895419;323484;1406957554;0;0;0;0;0;0
1;61;1570428539691;1570428548595;8904;22644352238;67507860512;2729594000;19879;2813897199;319357;1406756554;4;0;32;0;9;19
1;62;1570428548595;1570428555077;6482;22641846878;67507850582;2742323671;18998;2813895407;320830;1406798844;28;10;5136;0;81;243
1;63;1570428555077;1570428561550;6473;22642063834;67507850581;2734542562;10096;2813895406;318598;1406866127;0;0;0;0;0;0
1;64;1570428561550;1570428568026;6476;22643254026;67507850593;2745010837;14470;2813895418;321050;1406833332;0;0;0;0;0;0
1;65;1570428568026;1570428574502;6476;22643894966;67507850603;2747629926;15406;2813895428;320603;1406930772;0;0;0;0;0;0
1;66;1570428574502;1570428580977;6475;22643790576;67507850595;2749900962;13989;2813895420;318532;1406879084;2;0;16;0;0;0
1;67;1570428580977;1570428587451;6474;22642852672;67507850592;2748804116;9472;2813895417;321153;1406787456;0;0;0;0;0;0
1;68;1570428587451;1570428593927;6476;22644790238;67507850592;2747465251;11401;2813895417;320161;1406936713;0;0;0;0;0;0
1;69;1570428593927;1570428605192;11265;22643923436;67507861038;2743224339;23620;2813897358;318714;1406372489;32;12;5008;0;89;297
1;70;1570428605192;1570428611671;6479;22644052354;67507850599;2748503269;17906;2813895424;319971;1406914013;2;0;16;0;0;0
1;71;1570428611671;1570428618146;6475;22643988844;67507850593;2753957732;12812;2813895418;319548;1406547206;0;0;0;0;0;0
1;72;1570428618146;1570428624620;6474;22643540478;67507850598;2746868108;10427;2813895423;320383;1406892793;4;0;32;0;1;3
1;73;1570428624620;1570428631094;6474;22644602190;67507850593;2749642722;12037;2813895418;317625;1406991091;0;0;0;0;0;0
1;74;1570428631094;1570428637568;6474;22644018482;67507850591;2747637327;14876;2813895416;310994;1406846743;0;0;0;0;0;0
1;75;1570428637568;1570428644043;6475;22644945728;67507850617;2741489910;13690;2813895442;320391;1406947909;47;14;5648;0;98;446
1;76;1570428644043;1570428650517;6474;22643240010;67507850591;2745377525;11336;2813895416;297854;1406898393;0;0;0;0;0;0
1;77;1570428650517;1570428656992;6475;22644916236;67507850593;2748427630;10226;2813895418;311736;1406749903;0;0;0;0;0;0
1;78;1570428656992;1570428663467;6475;22644074254;67507850593;2749367220;12994;2813895418;296574;1406902523;0;0;0;0;0;0
1;79;1570428663467;1570428669947;6480;22644641318;67507851048;2747225085;33496;2813895873;298485;1406899349;444;16;46704;0;1383;1664
1;80;1570428669947;1570428676422;6475;22645437456;67507850598;2730551767;14675;2813895423;296661;1406857423;2;0;16;0;0;0
1;81;1570428676422;1570428682896;6474;22645344162;67507850592;2729651038;12435;2813895417;296386;1406982401;0;0;0;0;0;0
1;82;1570428682896;1570428689371;6475;22644374284;67507850593;2714221285;13699;2813895418;296764;1406832861;0;0;0;0;0;0
1;83;1570428689371;1570428695844;6473;22641802348;67507850592;2743841055;15686;2813895417;296024;1406938637;0;0;0;0;0;0
1;84;1570428695844;1570428702319;6475;22642823910;67507850652;2741931732;34377;2813895477;319369;1406884258;134;30;8232;0;173;2303
1;85;1570428702319;1570428708793;6474;22642905962;67507850592;2741375581;11547;2813895417;321025;1406919867;0;0;0;0;0;0
1;86;1570428708793;1570428715267;6474;22644125792;67507850592;2743611325;13258;2813895417;318728;1406892313;0;0;0;0;0;0
1;87;1570428715267;1570428721742;6475;22644678402;67507850591;2751434808;13178;2813895416;320644;1406906678;0;0;0;0;0;0
1;88;1570428721742;1570428728218;6476;22643640488;67507850594;2740874762;26334;2813895419;320082;1406842205;0;0;0;0;0;0
1;89;1570428728218;1570428734693;6475;22644461738;67507850601;2757050875;11168;2813895426;311376;1406999225;4;0;32;0;1;3
1;90;1570428734693;1570428741169;6476;22644590072;67507850594;2731773288;10302;2813895419;321364;1406805731;0;0;0;0;0;0
1;91;1570428741169;1570428747644;6475;22644677234;67507850612;2769535715;11201;2813895437;320759;1406957775;33;14;5288;0;96;447
1;92;1570428747644;1570428754122;6478;22641911410;67507850598;2736689565;18428;2813895423;319349;1406824666;0;0;0;0;0;0
1;93;1570428754122;1570428760597;6475;22643998772;67507850592;2726315900;12712;2813895417;320703;1406923541;0;0;0;0;0;0
1;94;1570428760597;1570428767072;6475;22643450396;67507850592;2742636025;13511;2813895418;321020;1406790824;0;0;0;0;0;0
1;95;1570428767072;1570428773547;6475;22643777290;67507850592;2744642790;11778;2813895417;321562;1406918635;0;0;0;0;0;0
1;96;1570428773547;1570428780022;6475;22643691442;67507850625;2743516491;36165;2813895450;318895;1406837901;32;12;5288;0;164;392
1;97;1570428780022;1570428786498;6476;22645038000;67507850594;2751932435;16140;2813895419;322413;1406998024;0;0;0;0;0;0
1;98;1570428786498;1570428792973;6475;22644007240;67507850593;2747445102;14359;2813895418;302518;1406777691;0;0;0;0;0;0
1;99;1570428792973;1570428799448;6475;22643812622;67507850596;2752152475;13083;2813895421;321343;1406961019;0;0;0;0;0;0
1;100;1570428799448;1570428805921;6473;22643086126;67507850591;2741825041;16849;2813895416;296202;1406864578;0;0;0;0;0;0
1;101;1570428805922;1570428812396;6474;22645262986;67507850598;2745324209;19309;2813895423;321721;1406921103;2;0;16;0;0;0
1;102;1570428812396;1570428818871;6475;22642842160;67507850604;2743866919;23157;2813895429;303362;1406896649;40;10;5392;0;93;427
2;54;1570429346937;1570429353411;6474;22642607100;67507850581;2738009692;11006;2813895406;318787;1407020531;0;0;0;0;0;0
2;55;1570429353411;1570429359886;6475;22643632020;67507850585;2738933513;14281;2813895410;318457;1406874321;0;0;0;0;0;0
2;56;1570429359886;1570429366360;6474;22642005142;67507850584;2733428343;12498;2813895409;318607;1406988543;2;0;16;0;1;1
2;57;1570429366360;1570429372834;6474;22643302644;67507850583;2743151376;9412;2813895408;318363;1406969910;0;0;0;0;0;0
2;58;1570429372834;1570429382628;9794;22641832132;67507860476;2736056896;19157;2813897183;309947;1406681376;38;10;5328;0;101;393
2;59;1570429382628;1570429389141;6513;22643328048;67507850582;2744407300;16369;2813895407;297785;1406941811;0;0;0;0;0;0
2;60;1570429389141;1570429395614;6473;22641910388;67507850587;2735307311;10227;2813895412;297886;1406983832;4;0;32;0;9;18
2;61;1570429395614;1570429402087;6473;22641005334;67507850581;2722602205;13578;2813895406;296385;1406893950;0;0;0;0;0;0
2;62;1570429402087;1570429408560;6473;22643375790;67507850581;2738078870;15222;2813895406;296534;1407006928;0;0;0;0;0;0
2;63;1570429408560;1570429415034;6474;22642683020;67507850586;2749520546;11520;2813895411;297642;1406854876;4;0;32;0;1;4
2;64;1570429415034;1570429421508;6474;22644180396;67507850580;2744549287;13254;2813895405;336298;1406819642;0;0;0;0;0;0
2;65;1570429421508;1570429427981;6473;22643218110;67507850587;2740382320;17176;2813895412;317587;1406997199;38;12;5344;0;103;388
2;66;1570429427981;1570429434454;6473;22641525678;67507850581;2728373762;21129;2813895406;318603;1406631010;0;0;0;0;0;0
2;67;1570429434454;1570429440927;6473;22643278116;67507850581;2741242650;16218;2813895406;318229;1406967781;0;0;0;0;0;0
2;68;1570429440927;1570429453124;12197;22644700302;67507860229;2741063085;18763;2813897135;315118;1406656671;0;0;0;0;0;0
2;69;1570429453124;1570429459632;6508;22643443826;67507850587;2747083878;14421;2813895412;298394;1406593294;4;0;32;0;9;18
2;70;1570429459632;1570429466107;6475;22645483738;67507850583;2735557416;12524;2813895408;309915;1406849527;0;0;0;0;0;0
2;71;1570429466107;1570429472581;6474;22643812476;67507850585;2736551756;15571;2813895410;326362;1406914489;4;0;32;0;1;3
2;72;1570429472581;1570429479056;6475;22644384358;67507850583;2737960648;17606;2813895408;322595;1406630632;28;10;5264;0;87;269
2;73;1570429479056;1570429485529;6473;22641561886;67507850579;2744494959;11816;2813895404;326107;1407001855;0;0;0;0;0;0
2;74;1570429485529;1570429492002;6473;22643441198;67507850585;2736059088;13157;2813895410;317953;1406900009;0;0;0;0;0;0
2;75;1570429492002;1570429498477;6475;22643842698;67507850581;2740957409;12346;2813895406;318398;1406914608;0;0;0;0;0;0
2;76;1570429498477;1570429504951;6474;22642304004;67507850585;2735834302;12936;2813895410;298819;1406896885;2;0;16;0;0;0
2;77;1570429504951;1570429511425;6474;22643302352;67507850582;2735574532;9015;2813895407;301519;1406854154;0;0;0;0;0;0
2;78;1570429511425;1570429517899;6474;22644057318;67507850586;2741693468;22270;2813895411;326268;1406961172;4;0;32;0;9;19
2;79;1570429517899;1570429524372;6473;22642982758;67507850581;2743267989;20198;2813895406;318197;1406919245;0;0;0;0;0;0
2;80;1570429524372;1570429530847;6475;22645215390;67507850583;2742025645;25488;2813895408;313637;1406620323;463;20;48368;0;1437;1839
2;81;1570429530847;1570429537322;6475;22645657186;67507850581;2731258166;14024;2813895406;326643;1406928533;0;0;0;0;0;0
2;82;1570429537322;1570429543795;6473;22642337146;67507850584;2738535989;8720;2813895409;326426;1406879397;0;0;0;0;0;0
2;83;1570429543795;1570429550268;6473;22640334464;67507850582;2723338153;11977;2813895407;318182;1406985883;2;0;16;0;0;0
2;84;1570429550268;1570429556742;6474;22647118792;67507850584;2736936076;14374;2813895409;317828;1406925754;0;0;0;0;0;0
2;85;1570429556743;1570429563218;6475;22645361244;67507850583;2712974207;15240;2813895408;324394;1406651577;38;14;6160;0;121;423
2;86;1570429563218;1570429569691;6473;22642572498;67507850583;2752877735;17788;2813895408;330350;1406930032;83;0;840;0;61;1774
2;87;1570429569691;1570429576165;6474;22643923290;67507850582;2752478150;10205;2813895407;326078;1406646584;0;0;0;0;0;0
2;88;1570429576165;1570429582639;6474;22644214852;67507850583;2762625340;17422;2813895408;336685;1406891676;2;0;16;0;0;0
2;89;1570429582639;1570429589112;6473;22641897394;67507850581;2698810643;27767;2813895406;318344;1407028752;0;0;0;0;0;0
2;90;1570429589112;1570429595585;6473;22644209888;67507850584;2740794330;20370;2813895409;318289;1406845791;34;22;6928;0;101;378
2;91;1570429595585;1570429602058;6473;22642726674;67507850582;2766079417;12341;2813895407;318413;1407005202;0;0;0;0;0;0
2;92;1570429602059;1570429608532;6473;22643141606;67507850582;2688274175;21435;2813895407;319228;1406898127;0;0;0;0;0;0
2;93;1570429608532;1570429615005;6473;22642581550;67507850583;2739724810;13076;2813895408;318217;1406961138;2;0;16;0;1;1
2;94;1570429615005;1570429621478;6473;22644149444;67507850582;2744186723;14044;2813895407;318250;1406908320;0;0;0;0;0;0
2;95;1570429621478;1570429627952;6474;22643084958;67507850583;2735762687;10607;2813895408;318305;1406940353;0;0;0;0;0;0
2;96;1570429627952;1570429634425;6473;22643275634;67507850582;2739182001;16452;2813895407;318270;1406873443;0;0;0;0;0;0
2;97;1570429634425;1570429640898;6473;22642018428;67507850582;2733144341;10938;2813895407;318191;1407039466;27;10;5312;0;108;235
2;98;1570429640898;1570429647372;6474;22643038238;67507850582;2742544640;14104;2813895407;322754;1406608542;0;0;0;0;0;0
2;99;1570429647372;1570429653845;6473;22642301230;67507850582;2740973904;17286;2813895407;325493;1406996405;0;0;0;0;0;0
2;100;1570429653845;1570429660319;6474;22644096446;67507850582;2745182299;10060;2813895407;317665;1406915654;0;0;0;0;0;0
2;101;1570429660319;1570429666792;6473;22643179128;67507850582;2738611207;19596;2813895407;317767;1406965282;0;0;0;0;0;0
2;102;1570429666792;1570429673265;6473;22643682828;67507850582;2737883499;14384;2813895407;317476;1406937938;27;8;3936;0;77;210
2;103;1570429673266;1570429679739;6473;22643453316;67507850583;2740781393;12425;2813895408;324189;1406936464;0;0;0;0;0;0
3;54;1570430205891;1570430212364;6473;22635337906;67507850605;2683567673;12896;2813895430;317118;1406902339;4;0;32;0;1;3
3;55;1570430212365;1570430218835;6470;22628021408;67507850591;2631540270;12179;2813895416;297200;1407070323;0;0;0;0;0;0
3;56;1570430218835;1570430225306;6471;22627580780;67507850599;2620413806;12439;2813895424;319205;1407043161;55;6;5032;0;120;578
3;57;1570430225306;1570430231776;6470;22627539608;67507850592;2628587017;13976;2813895417;298188;1406743473;0;0;0;0;0;0
3;58;1570430231776;1570430238526;6750;22627639618;67507861000;2623596361;16106;2813897320;297364;1407070338;0;0;0;0;0;0
3;59;1570430238526;1570430245042;6516;22627377110;67507850595;2630989749;15121;2813895420;324610;1406673048;0;0;0;0;0;0
3;60;1570430245042;1570430251513;6471;22627713786;67507850588;2623267687;9274;2813895413;324263;1406892861;0;0;0;0;0;0
3;61;1570430251513;1570430257983;6470;22628267564;67507850594;2629487766;13076;2813895419;325276;1407007171;2;0;16;0;0;0
3;62;1570430257983;1570430264452;6469;22627246002;67507850588;2627371625;21661;2813895413;323160;1407071583;0;0;0;0;0;0
3;63;1570430264452;1570430276294;11842;22630674812;67507860448;2618197545;21501;2813897175;313624;1406837857;58;4;5552;0;137;637
3;64;1570430276294;1570430282778;6484;22625448888;67507850587;2624363788;16132;2813895412;325323;1406666287;0;0;0;0;0;0
3;65;1570430282778;1570430289248;6470;22627938188;67507850593;2631588089;22676;2813895418;325118;1406852237;0;0;0;0;0;0
3;66;1570430289248;1570430295718;6470;22626790336;67507850588;2625592965;17274;2813895413;304097;1406992979;0;0;0;0;0;0
3;67;1570430295718;1570430302187;6469;22628084918;67507850594;2626550577;10801;2813895419;325796;1407038722;2;0;16;0;0;0
3;68;1570430302187;1570430312991;10804;22627477850;67507860317;2625065678;19206;2813897124;315416;1406586852;44;6;4944;0;109;456
3;69;1570430312991;1570430319473;6482;22627097374;67507850588;2632117107;12868;2813895413;327771;1406685020;0;0;0;0;0;0
3;70;1570430319473;1570430325943;6470;22628048710;67507850592;2627566875;12020;2813895417;326626;1406957842;0;0;0;0;0;0
3;71;1570430325943;1570430332413;6470;22627317688;67507850593;2631609357;16893;2813895418;305988;1407109153;4;0;32;0;9;18
3;72;1570430332413;1570430338883;6470;22628894780;67507850591;2630366770;12999;2813895416;325309;1406636764;0;0;0;0;0;0
3;73;1570430338883;1570430345353;6470;22627102338;67507850591;2629305824;11762;2813895416;326338;1407099592;4;0;32;0;1;3
3;74;1570430345353;1570430351823;6470;22628923104;67507850589;2629539243;14172;2813895414;325547;1407066966;0;0;0;0;0;0
3;75;1570430351823;1570430358292;6469;22627432298;67507850591;2631354030;11576;2813895416;297663;1407041488;0;0;0;0;0;0
3;76;1570430358292;1570430364762;6470;22628267564;67507850592;2632661915;13796;2813895417;325632;1407079573;50;4;5216;0;96;487
3;77;1570430364762;1570430371233;6471;22628605262;67507850591;2631547015;9647;2813895416;325662;1407036384;0;0;0;0;0;0
3;78;1570430371233;1570430377703;6470;22626896040;67507850592;2630746689;8960;2813895417;325537;1407031487;0;0;0;0;0;0
3;79;1570430377703;1570430384174;6471;22628087984;67507850591;2628226900;13938;2813895416;325126;1407142279;0;0;0;0;0;0
3;80;1570430384174;1570430390644;6470;22628153392;67507850589;2625370984;8856;2813895414;324865;1406988577;0;0;0;0;0;0
3;81;1570430390645;1570430397116;6471;22629170720;67507850595;2625285874;26014;2813895420;323944;1407108648;469;20;48208;0;1432;1908
3;82;1570430397116;1570430403587;6471;22628813896;67507850590;2620539577;9786;2813895415;325563;1407045770;0;0;0;0;0;0
3;83;1570430403587;1570430410058;6471;22630508956;67507850594;2623533491;15140;2813895419;325199;1407066160;0;0;0;0;0;0
3;84;1570430410058;1570430416529;6471;22626073184;67507850591;2621692467;18487;2813895416;309105;1407036351;0;0;0;0;0;0
3;85;1570430416529;1570430423001;6472;22631890846;67507850598;2607762660;11690;2813895420;325122;1407055774;83;0;840;0;67;1636
3;86;1570430423001;1570430429471;6470;22628583070;67507850594;2630250882;18118;2813895416;324870;1407010546;60;12;7248;0;115;759
3;87;1570430429471;1570430435941;6470;22624777288;67507850592;2601278638;15264;2813895417;323227;1407144384;0;0;0;0;0;0
3;88;1570430435941;1570430442412;6471;22628905730;67507850590;2615265058;13216;2813895415;321581;1406963093;0;0;0;0;0;0
3;89;1570430442412;1570430448884;6472;22627068466;67507850591;2589505524;14374;2813895416;324011;1407122709;0;0;0;0;0;0
3;90;1570430448884;1570430455355;6471;22629047788;67507850592;2643491365;9976;2813895417;308968;1406993801;2;0;16;0;0;0
3;91;1570430455355;1570430461825;6470;22627844748;67507850591;2628274159;12793;2813895416;325155;1407076541;0;0;0;0;0;0
3;92;1570430461825;1570430468296;6471;22628498390;67507850596;2643345303;16126;2813895421;325466;1407025887;4;0;32;0;9;19
3;93;1570430468296;1570430474767;6471;22627171104;67507850588;2620862261;15437;2813895413;321854;1407054583;0;0;0;0;0;0
3;94;1570430474767;1570430481238;6471;22629005156;67507850593;2642979489;22837;2813895418;324530;1406968378;0;0;0;0;0;0
3;95;1570430481238;1570430487708;6470;22627734080;67507850590;2625539493;16704;2813895415;324941;1407165498;28;10;5072;0;105;289
3;96;1570430487708;1570430494179;6471;22628515180;67507850596;2626119672;14970;2813895421;322381;1406868520;0;0;0;0;0;0
3;97;1570430494179;1570430500651;6472;22627219138;67507850590;2626303409;14304;2813895415;319890;1407113193;2;0;16;0;0;0
3;98;1570430500651;1570430507122;6471;22627760360;67507850593;2631579300;14309;2813895418;325454;1407014286;0;0;0;0;0;0
3;99;1570430507122;1570430513592;6470;22626994298;67507850590;2627898590;20508;2813895415;313356;1407067088;0;0;0;0;0;0
3;100;1570430513592;1570430520063;6471;22628143902;67507850596;2633109996;10736;2813895421;320104;1407030804;4;0;32;0;9;19
3;101;1570430520063;1570430526533;6470;22626756902;67507850588;2625778902;15646;2813895413;319867;1407057792;0;0;0;0;0;0
3;102;1570430526533;1570430533004;6471;22628276762;67507850595;2626037618;19684;2813895420;319902;1407011911;4;0;32;0;1;3
3;103;1570430533004;1570430539474;6470;22627318710;67507850588;2620083553;27022;2813895413;319854;1407150512;36;12;5072;0;99;371
4;55;1570431057896;1570431064369;6473;22645044278;67507850580;2736603976;13640;2813895405;316957;1406719770;0;0;0;0;0;0
4;56;1570431064369;1570431070842;6473;22634112528;67507850587;2662582885;17569;2813895412;318418;1406843481;2;0;16;0;0;0
4;57;1570431070842;1570431077312;6470;22626934292;67507850600;2624719388;14333;2813895425;296658;1406774888;0;0;0;0;0;0
4;58;1570431077312;1570431083783;6471;22628128426;67507850597;2630502082;12059;2813895422;323634;1406795943;4;0;32;0;9;19
4;59;1570431083783;1570431094981;11198;22627780362;67507860471;2619244971;19861;2813897198;304934;1406609804;0;0;0;0;0;0
4;60;1570431094981;1570431106900;11919;22641688760;67507860512;2628907091;4819115;2813897259;312935;1406528817;30;12;5040;0;97;263
4;61;1570431106900;1570431113391;6491;22628327716;67507850592;2624071396;17715;2813895417;325594;1406512674;0;0;0;0;0;0
4;62;1570431113392;1570431119863;6471;22629474692;67507850598;2616989322;17144;2813895423;325609;1406847114;0;0;0;0;0;0
4;63;1570431119863;1570431126333;6470;22626735294;67507850592;2623377526;13481;2813895417;297794;1406752799;0;0;0;0;0;0
4;64;1570431126333;1570431132804;6471;22627315936;67507850597;2613647655;14967;2813895422;299012;1406782128;2;0;16;0;0;0
4;65;1570431132804;1570431139273;6469;22627063210;67507850589;2624862584;18396;2813895414;324554;1406810290;28;10;5136;0;100;279
4;66;1570431139273;1570431145942;6669;22628431668;67507850592;2624560016;12591;2813895417;323569;1406404596;0;0;0;0;0;0
4;67;1570431145942;1570431158295;12353;22628151932;67507860397;2635294803;90783;2813897175;310875;1406601020;0;0;0;0;0;0
4;68;1570431158295;1570431164781;6486;22625790382;67507850597;2624155644;16176;2813895422;299073;1406630180;4;0;32;0;9;18
4;69;1570431164781;1570431171252;6471;22627811606;67507850590;2622965090;21708;2813895415;297403;1406657391;0;0;0;0;0;0
4;70;1570431171252;1570431177722;6470;22627237096;67507850595;2629728233;10306;2813895420;296635;1406820405;0;0;0;0;0;0
4;71;1570431177722;1570431185029;7307;22627075328;67507860487;2626360198;20461;2813897194;297885;1406421975;0;0;0;0;0;0
4;72;1570431185029;1570431191548;6519;22627525738;67507850593;2627332498;13149;2813895418;323511;1406679263;30;16;5168;0;88;249
4;73;1570431191548;1570431198017;6469;22628772724;67507850595;2628246876;13330;2813895420;324562;1406807501;0;0;0;0;0;0
4;74;1570431198018;1570431204487;6469;22626801870;67507850589;2623730286;15322;2813895414;325135;1406763715;0;0;0;0;0;0
4;75;1570431204487;1570431210957;6470;22629461406;67507850592;2631313024;13082;2813895417;326525;1406846276;0;0;0;0;0;0
4;76;1570431210957;1570431217426;6469;22628161422;67507850591;2625274148;13482;2813895416;324572;1406738084;0;0;0;0;0;0
4;77;1570431217426;1570431223896;6470;22628994936;67507850596;2631291791;14467;2813895421;325327;1406808670;2;0;16;0;0;0
4;78;1570431223896;1570431230365;6469;22627763134;67507850589;2627041457;12917;2813895414;326530;1406813537;0;0;0;0;0;0
4;79;1570431230365;1570431236835;6470;22628596064;67507850596;2633184239;9761;2813895421;322998;1406785806;4;0;32;0;9;19
4;80;1570431236835;1570431243304;6469;22627870444;67507850588;2629959591;14889;2813895413;323776;1406775441;0;0;0;0;0;0
4;81;1570431243304;1570431249774;6470;22628357646;67507850594;2630060197;15023;2813895419;319296;1406834341;0;0;0;0;0;0
4;82;1570431249774;1570431256243;6469;22628742356;67507850593;2624347410;15391;2813895418;324911;1406739446;44;12;5488;0;103;380
4;83;1570431256243;1570431262713;6470;22628678700;67507850592;2621507493;12113;2813895417;324271;1406855256;0;0;0;0;0;0
4;84;1570431262713;1570431269183;6470;22628016882;67507850591;2626778670;12402;2813895416;323806;1406708797;0;0;0;0;0;0
4;85;1570431269183;1570431275652;6469;22629399064;67507850593;2628692358;12884;2813895418;324208;1406818409;0;0;0;0;0;0
4;86;1570431275652;1570431282122;6470;22627911616;67507850593;2626379410;13173;2813895418;324039;1406802797;2;0;16;0;1;1
4;87;1570431282122;1570431288591;6469;22628443202;67507850590;2620624256;12131;2813895415;303975;1406780339;0;0;0;0;0;0
4;88;1570431288591;1570431295061;6470;22628071340;67507850591;2621022713;13284;2813895416;324117;1406756103;0;0;0;0;0;0
4;89;1570431295061;1570431301531;6470;22629456588;67507850592;2630148424;24990;2813895417;322553;1406854884;467;20;48304;0;1429;1893
4;90;1570431301531;1570431308001;6470;22626753690;67507850595;2611010679;12754;2813895417;296979;1406707905;0;0;0;0;0;0
4;91;1570431308001;1570431314471;6470;22626397888;67507850595;2607024098;10553;2813895417;321853;1406862380;2;0;16;0;1;1
4;92;1570431314471;1570431320941;6470;22627550558;67507850593;2633113111;14067;2813895418;324546;1406696130;0;0;0;0;0;0
4;93;1570431320941;1570431327411;6470;22626285468;67507850590;2620048817;45259;2813895415;325802;1406836411;0;0;0;0;0;0
4;94;1570431327411;1570431333882;6471;22627984616;67507850598;2625457921;19871;2813895423;325563;1406768725;125;24;8128;0;209;2560
4;95;1570431333882;1570431340352;6470;22627720648;67507850591;2642584314;15830;2813895416;323340;1406791761;0;0;0;0;0;0
4;96;1570431340353;1570431346823;6470;22627416384;67507850593;2621170539;13750;2813895418;325485;1406745127;0;0;0;0;0;0
4;97;1570431346823;1570431353294;6471;22628690088;67507850592;2595181471;12459;2813895417;322276;1406846598;0;0;0;0;0;0
4;98;1570431353294;1570431359765;6471;22627553332;67507850595;2599205383;13202;2813895420;324529;1406730276;2;0;16;0;0;0
4;99;1570431359765;1570431366236;6471;22628572266;67507850592;2627957900;16962;2813895417;326802;1406867084;0;0;0;0;0;0
4;100;1570431366236;1570431372707;6471;22627954102;67507850592;2625395073;28866;2813895417;323063;1406705328;28;14;5072;0;94;268
4;101;1570431372707;1570431379177;6470;22628803676;67507850592;2618724545;11985;2813895417;324857;1406822189;0;0;0;0;0;0
4;102;1570431379177;1570431385648;6471;22627621806;67507850594;2626638155;12849;2813895419;325435;1406811330;0;0;0;0;0;0
4;103;1570431385648;1570431392119;6471;22628735202;67507850594;2632171911;16478;2813895419;325427;1406783593;4;0;32;0;9;18
4;104;1570431392119;1570431405016;12897;22625264782;67507864798;2628816868;41066;2813897958;313498;1406315410;4;0;32;0;1;2
